[
    {
        "Number": "1",
        "Lake": "Trichonida",
        "Area (km&sup2;)": "96,513",
        "Placedin Greece": "1st",
        "Regional unit": "Aetolia-Acarnania"
    },
    {
        "Number": "2",
        "Lake": "Yliki",
        "Area (km&sup2;)": "22,731",
        "Placedin Greece": "9th",
        "Regional unit": "Boeotia"
    },
    {
        "Number": "3",
        "Lake": "Amvrakia",
        "Area (km&sup2;)": "13,619",
        "Placedin Greece": "13th",
        "Regional unit": "Aetolia-Acarnania"
    },
    {
        "Number": "4",
        "Lake": "Lysimachia",
        "Area (km&sup2;)": "13,200",
        "Placedin Greece": "14th",
        "Regional unit": "Aetolia-Acarnania"
    },
    {
        "Number": "5",
        "Lake": "Ozeros",
        "Area (km&sup2;)": "10,013",
        "Placedin Greece": "16th",
        "Regional unit": "Aetolia-Acarnania"
    }
]