[
    {
        "Rank": "1",
        "Player": "Jimmy Sheckard",
        "Amount": "147",
        "Year": "1911"
    },
    {
        "Rank": "2",
        "Player": "Jimmy Sheckard",
        "Amount": "122",
        "Year": "1912"
    },
    {
        "Rank": "3",
        "Player": "Richie Ashburn",
        "Amount": "116",
        "Year": "1960"
    },
    {
        "Rank": "",
        "Player": "Sammy Sosa",
        "Amount": "116",
        "Year": "2001"
    },
    {
        "Rank": "5",
        "Player": "Cap Anson",
        "Amount": "113",
        "Year": "1890"
    }
]