[
    {
        "col1": "",
        "Chief Minister": "Goff Letts",
        "Party": "Country Liberal",
        "Period in office": "1974-1977"
    },
    {
        "col1": "",
        "Chief Minister": "Paul Everingham",
        "Party": "Country Liberal",
        "Period in office": "1977-1984"
    },
    {
        "col1": "",
        "Chief Minister": "Ian Tuxworth",
        "Party": "Country Liberal",
        "Period in office": "1984-1986"
    },
    {
        "col1": "",
        "Chief Minister": "Stephen Hatton",
        "Party": "Country Liberal",
        "Period in office": "1986-1988"
    },
    {
        "col1": "",
        "Chief Minister": "Marshall Perron",
        "Party": "Country Liberal",
        "Period in office": "1988-1995"
    },
    {
        "col1": "",
        "Chief Minister": "Shane Stone",
        "Party": "Country Liberal",
        "Period in office": "1995-1999"
    },
    {
        "col1": "",
        "Chief Minister": "Denis Burke",
        "Party": "Country Liberal",
        "Period in office": "1999-2001"
    },
    {
        "col1": "",
        "Chief Minister": "Clare Martin",
        "Party": "Labor",
        "Period in office": "2001-2007"
    },
    {
        "col1": "",
        "Chief Minister": "Paul Henderson",
        "Party": "Labor",
        "Period in office": "2007-2012"
    },
    {
        "col1": "",
        "Chief Minister": "Terry Mills",
        "Party": "Country Liberal",
        "Period in office": "2012-2013"
    },
    {
        "col1": "",
        "Chief Minister": "Adam Giles",
        "Party": "Country Liberal",
        "Period in office": "2013-present"
    }
]