[
    {
        "Year": "1984",
        "Chassis": "March",
        "Engine": "Chevrolet",
        "Start": "Failed to Qualify",
        "Finish": ""
    },
    {
        "Year": "1985",
        "Chassis": "Eagle",
        "Engine": "Cosworth",
        "Start": "22nd",
        "Finish": "9th"
    },
    {
        "Year": "1986",
        "Chassis": "March",
        "Engine": "Cosworth",
        "Start": "10th",
        "Finish": "17th"
    },
    {
        "Year": "1987",
        "Chassis": "March",
        "Engine": "Cosworth",
        "Start": "30th",
        "Finish": "21st"
    },
    {
        "Year": "1988",
        "Chassis": "March",
        "Engine": "Cosworth",
        "Start": "Qualifying Crash",
        "Finish": ""
    }
]