[
    {
        "Player": "&Eacute;ric Cantona",
        "Pos.": "FW",
        "DoB": "1966-05-24"
    },
    {
        "Player": "Marcel Desailly",
        "Pos.": "DF",
        "DoB": "1968-09-07"
    },
    {
        "Player": "Didier Deschamps",
        "Pos.": "MF",
        "DoB": "1968-10-15"
    },
    {
        "Player": "Just Fontaine",
        "Pos.": "FW",
        "DoB": "1933-08-18"
    },
    {
        "Player": "Thierry Henry*",
        "Pos.": "FW",
        "DoB": "1977-08-17"
    },
    {
        "Player": "Raymond Kopa",
        "Pos.": "MF",
        "DoB": "1931-10-31"
    },
    {
        "Player": "Jean-Pierre Papin",
        "Pos.": "FW",
        "DoB": "1963-11-05"
    },
    {
        "Player": "Robert Pir&egrave;s",
        "Pos.": "MF",
        "DoB": "1973-10-29"
    },
    {
        "Player": "Michel Platini",
        "Pos.": "MF",
        "DoB": "1955-06-21"
    },
    {
        "Player": "Lilian Thuram",
        "Pos.": "DF",
        "DoB": "1972-01-01"
    },
    {
        "Player": "Marius Tr&eacute;sor",
        "Pos.": "DF",
        "DoB": "1950-01-15"
    },
    {
        "Player": "David Trezeguet*",
        "Pos.": "FW",
        "DoB": "1977-10-15"
    },
    {
        "Player": "Patrick Vieira",
        "Pos.": "MF",
        "DoB": "1976-06-23"
    },
    {
        "Player": "Zinedine Zidane",
        "Pos.": "MF",
        "DoB": "1972-06-23"
    }
]