[
    {
        "col1": "Con Mine",
        "col2": "1938 - 2003",
        "col3": "gold"
    },
    {
        "col1": "Giant Mine",
        "col2": "1948 - 2004",
        "col3": "gold"
    },
    {
        "col1": "Ptarmigan and Tom Mine",
        "col2": "1941 - 1942 , 1985 - 1997",
        "col3": "gold"
    },
    {
        "col1": "Negus Mine",
        "col2": "1939 - 1952",
        "col3": "gold"
    },
    {
        "col1": "Burwash Mine",
        "col2": "1935",
        "col3": "gold"
    },
    {
        "col1": "Thompson - Lundmark Mine",
        "col2": "1941 - 1943 , 1947 - 1949",
        "col3": "gold"
    },
    {
        "col1": "Discovery Mine",
        "col2": "1950 - 1969",
        "col3": "gold"
    },
    {
        "col1": "Camlaren Mine",
        "col2": "1962 - 1963 , 1980 - 1981",
        "col3": "gold"
    },
    {
        "col1": "Beaulieu Mine",
        "col2": "1947 - 1948",
        "col3": "gold"
    },
    {
        "col1": "Outpost Island Mine",
        "col2": "1941 - 1942 , 1951 - 1952",
        "col3": "gold , copper , tungsten"
    },
    {
        "col1": "Ruth Mine",
        "col2": "1942 , 1959",
        "col3": "gold"
    }
]