[
    {
        "col1": "Assateague Island State Park",
        "col2": "",
        "col3": "",
        "col4": "",
        "col5": ""
    },
    {
        "col1": "",
        "col2": "",
        "col3": "",
        "col4": "",
        "col5": ""
    },
    {
        "col1": "Big Run State Park",
        "col2": "",
        "col3": "",
        "col4": "",
        "col5": ""
    },
    {
        "col1": "",
        "col2": "",
        "col3": "",
        "col4": "",
        "col5": ""
    },
    {
        "col1": "",
        "col2": "",
        "col3": "",
        "col4": "",
        "col5": ""
    },
    {
        "col1": "Calvert Cliffs State Park",
        "col2": "",
        "col3": "",
        "col4": "",
        "col5": ""
    },
    {
        "col1": "Casselman River Bridge State Park",
        "col2": "",
        "col3": "",
        "col4": "",
        "col5": ""
    },
    {
        "col1": "Choptank River Fishing Piers",
        "col2": "",
        "col3": "",
        "col4": "",
        "col5": ""
    },
    {
        "col1": "Cunningham Falls State Park",
        "col2": "",
        "col3": "",
        "col4": "",
        "col5": ""
    },
    {
        "col1": "Dans Mountain State Park",
        "col2": "",
        "col3": "",
        "col4": "",
        "col5": ""
    },
    {
        "col1": "Deep Creek Lake State Park",
        "col2": "",
        "col3": "",
        "col4": "",
        "col5": ""
    },
    {
        "col1": "",
        "col2": "",
        "col3": "",
        "col4": "",
        "col5": ""
    },
    {
        "col1": "",
        "col2": "",
        "col3": "",
        "col4": "",
        "col5": ""
    },
    {
        "col1": "",
        "col2": "",
        "col3": "",
        "col4": "",
        "col5": ""
    },
    {
        "col1": "Elk Neck State Park",
        "col2": "",
        "col3": "",
        "col4": "",
        "col5": ""
    },
    {
        "col1": "",
        "col2": "",
        "col3": "",
        "col4": "",
        "col5": ""
    },
    {
        "col1": "Fort Frederick State Park",
        "col2": "",
        "col3": "",
        "col4": "",
        "col5": ""
    },
    {
        "col1": "",
        "col2": "",
        "col3": "",
        "col4": "",
        "col5": ""
    },
    {
        "col1": "Gambrill State Park",
        "col2": "",
        "col3": "",
        "col4": "",
        "col5": ""
    },
    {
        "col1": "Gathland State Park",
        "col2": "",
        "col3": "",
        "col4": "",
        "col5": ""
    },
    {
        "col1": "Greenbrier State Park",
        "col2": "",
        "col3": "",
        "col4": "",
        "col5": ""
    },
    {
        "col1": "",
        "col2": "",
        "col3": "",
        "col4": "",
        "col5": ""
    },
    {
        "col1": "Greenwell State Park",
        "col2": "",
        "col3": "",
        "col4": "",
        "col5": ""
    },
    {
        "col1": "Gunpowder Falls State Park",
        "col2": "",
        "col3": "",
        "col4": "",
        "col5": ""
    },
    {
        "col1": "",
        "col2": "",
        "col3": "",
        "col4": "",
        "col5": ""
    },
    {
        "col1": "Hart - Miller Island State Park",
        "col2": "",
        "col3": "",
        "col4": "",
        "col5": ""
    },
    {
        "col1": "Herrington Manor State Park",
        "col2": "",
        "col3": "",
        "col4": "",
        "col5": ""
    },
    {
        "col1": "",
        "col2": "",
        "col3": "",
        "col4": "",
        "col5": ""
    },
    {
        "col1": "",
        "col2": "",
        "col3": "",
        "col4": "",
        "col5": ""
    },
    {
        "col1": "Janes Island State Park",
        "col2": "",
        "col3": "",
        "col4": "",
        "col5": ""
    },
    {
        "col1": "",
        "col2": "",
        "col3": "",
        "col4": "",
        "col5": ""
    },
    {
        "col1": "Martinak State Park",
        "col2": "",
        "col3": "",
        "col4": "",
        "col5": ""
    },
    {
        "col1": "",
        "col2": "",
        "col3": "",
        "col4": "",
        "col5": ""
    },
    {
        "col1": "",
        "col2": "",
        "col3": "",
        "col4": "",
        "col5": ""
    },
    {
        "col1": "Morgan Run Natural Environment Area",
        "col2": "",
        "col3": "",
        "col4": "",
        "col5": ""
    },
    {
        "col1": "",
        "col2": "",
        "col3": "",
        "col4": "",
        "col5": ""
    },
    {
        "col1": "New Germany State Park",
        "col2": "",
        "col3": "",
        "col4": "",
        "col5": ""
    },
    {
        "col1": "Patapsco Valley State Park",
        "col2": "",
        "col3": "",
        "col4": "",
        "col5": ""
    },
    {
        "col1": "Patuxent River State Park",
        "col2": "",
        "col3": "",
        "col4": "",
        "col5": ""
    },
    {
        "col1": "Point Lookout State Park",
        "col2": "",
        "col3": "",
        "col4": "",
        "col5": ""
    },
    {
        "col1": "Pocomoke River State Park",
        "col2": "",
        "col3": "",
        "col4": "",
        "col5": ""
    },
    {
        "col1": "",
        "col2": "",
        "col3": "",
        "col4": "",
        "col5": ""
    },
    {
        "col1": "",
        "col2": "",
        "col3": "",
        "col4": "",
        "col5": ""
    },
    {
        "col1": "Rocks State Park",
        "col2": "",
        "col3": "",
        "col4": "",
        "col5": ""
    },
    {
        "col1": "Rocky Gap State Park",
        "col2": "",
        "col3": "",
        "col4": "",
        "col5": ""
    },
    {
        "col1": "St . Clements Island State Park",
        "col2": "",
        "col3": "",
        "col4": "",
        "col5": ""
    },
    {
        "col1": "St . Mary&apos;s River State Park",
        "col2": "",
        "col3": "",
        "col4": "",
        "col5": ""
    },
    {
        "col1": "Sandy Point State Park",
        "col2": "",
        "col3": "",
        "col4": "",
        "col5": ""
    },
    {
        "col1": "",
        "col2": "",
        "col3": "",
        "col4": "",
        "col5": ""
    },
    {
        "col1": "Seneca Creek State Park",
        "col2": "",
        "col3": "",
        "col4": "",
        "col5": ""
    },
    {
        "col1": "Smallwood State Park",
        "col2": "",
        "col3": "",
        "col4": "",
        "col5": ""
    },
    {
        "col1": "",
        "col2": "",
        "col3": "",
        "col4": "",
        "col5": ""
    },
    {
        "col1": "South Mountain State Park",
        "col2": "",
        "col3": "",
        "col4": "",
        "col5": ""
    },
    {
        "col1": "Susquehanna State Park",
        "col2": "",
        "col3": "",
        "col4": "",
        "col5": ""
    },
    {
        "col1": "Swallow Falls State Park",
        "col2": "",
        "col3": "",
        "col4": "",
        "col5": ""
    },
    {
        "col1": "Tuckahoe State Park",
        "col2": "",
        "col3": "",
        "col4": "",
        "col5": ""
    },
    {
        "col1": "Washington Monument State Park",
        "col2": "",
        "col3": "",
        "col4": "",
        "col5": ""
    },
    {
        "col1": "Wye Oak State Park",
        "col2": "",
        "col3": "",
        "col4": "",
        "col5": ""
    }
]