[
    {
        "Club": "Florida Everblades",
        "Sport": "Hockey",
        "League": "East Coast Hockey League",
        "Venue": "Germain Arena"
    },
    {
        "Club": "Fort Myers Miracle",
        "Sport": "Minor League Baseball",
        "League": "Florida State League",
        "Venue": "Hammond Stadium"
    },
    {
        "Club": "Boston Red Sox",
        "Sport": "Major League Baseball",
        "League": "American League",
        "Venue": "jetBlue Park"
    },
    {
        "Club": "Minnesota Twins",
        "Sport": "Major League Baseball",
        "League": "American League",
        "Venue": "Hammond Stadium, South Fort Myers"
    }
]