[
    {
        "#": "1",
        "Film": "Snow White and the Seven Dwarfs",
        "Date of original release": "December 21 , 1937 (premiere) February 4 , 1938"
    },
    {
        "#": "2",
        "Film": "Pinocchio",
        "Date of original release": "February 7 , 1940 (premiere) February 9 , 1940"
    },
    {
        "#": "3",
        "Film": "Fantasia 1, 2, 3",
        "Date of original release": "November 13 , 1940 (premiere/ roadshow ) January 29 , 1941 (RKO roadshow) January 8 , 1942"
    },
    {
        "#": "4",
        "Film": "Dumbo 4",
        "Date of original release": "October 23 , 1941"
    },
    {
        "#": "5",
        "Film": "Bambi",
        "Date of original release": "August 13 , 1942 (limited) August 21 , 1942"
    },
    {
        "#": "6",
        "Film": "Saludos Amigos 2, 3, 4",
        "Date of original release": "August 24 , 1942 ( Brazil ) February 6 , 1943 ( USA )"
    },
    {
        "#": "7",
        "Film": "The Three Caballeros 2, 3",
        "Date of original release": "December 21 , 1944 (premiere) February 3 , 1945"
    },
    {
        "#": "8",
        "Film": "Make Mine Music 2",
        "Date of original release": "April 20 , 1946 (premiere) August 15 , 1946"
    },
    {
        "#": "9",
        "Film": "Fun and Fancy Free 2, 3",
        "Date of original release": "September 27 , 1947"
    },
    {
        "#": "10",
        "Film": "Melody Time 2",
        "Date of original release": "May 27 , 1948"
    },
    {
        "#": "11",
        "Film": "The Adventures of Ichabod and Mr. Toad 2, 4",
        "Date of original release": "October 5 , 1949"
    },
    {
        "#": "12",
        "Film": "Cinderella",
        "Date of original release": "February 15 , 1950"
    },
    {
        "#": "13",
        "Film": "Alice in Wonderland",
        "Date of original release": "July 26 , 1951 (limited) July 28 , 1951"
    },
    {
        "#": "14",
        "Film": "Peter Pan",
        "Date of original release": "February 5 , 1953"
    },
    {
        "#": "15",
        "Film": "Lady and the Tramp 5",
        "Date of original release": "June 16 , 1955 (premiere) June 22 , 1955"
    },
    {
        "#": "16",
        "Film": "Sleeping Beauty 6",
        "Date of original release": "January 29 , 1959"
    },
    {
        "#": "17",
        "Film": "One Hundred and One Dalmatians",
        "Date of original release": "January 25 , 1961"
    },
    {
        "#": "18",
        "Film": "The Sword in the Stone",
        "Date of original release": "December 25 , 1963"
    },
    {
        "#": "19",
        "Film": "The Jungle Book",
        "Date of original release": "October 18 , 1967"
    },
    {
        "#": "20",
        "Film": "The Aristocats",
        "Date of original release": "December 11 , 1970 (premiere) December 24 , 1970"
    },
    {
        "#": "21",
        "Film": "Robin Hood",
        "Date of original release": "November 8 , 1973"
    },
    {
        "#": "22",
        "Film": "The Many Adventures of Winnie the Pooh 2, 3",
        "Date of original release": "March 11 , 1977"
    },
    {
        "#": "23",
        "Film": "The Rescuers",
        "Date of original release": "June 22 , 1977"
    },
    {
        "#": "24",
        "Film": "The Fox and the Hound",
        "Date of original release": "July 10 , 1981"
    },
    {
        "#": "25",
        "Film": "The Black Cauldron 6",
        "Date of original release": "July 24 , 1985"
    },
    {
        "#": "26",
        "Film": "The Great Mouse Detective",
        "Date of original release": "July 2 , 1986"
    },
    {
        "#": "27",
        "Film": "Oliver &amp; Company",
        "Date of original release": "November 13 , 1988 (premiere) November 18 , 1988"
    },
    {
        "#": "28",
        "Film": "The Little Mermaid",
        "Date of original release": "November 15 , 1989 (premiere) November 17 , 1989"
    },
    {
        "#": "29",
        "Film": "The Rescuers Down Under",
        "Date of original release": "November 16 , 1990"
    },
    {
        "#": "30",
        "Film": "Beauty and the Beast 7",
        "Date of original release": "November 13 , 1991 (limited) November 27 , 1991"
    },
    {
        "#": "31",
        "Film": "Aladdin",
        "Date of original release": "November 11 , 1992 (limited) November 25 , 1992"
    },
    {
        "#": "32",
        "Film": "The Lion King 7",
        "Date of original release": "June 15 , 1994 (limited) June 24 , 1994"
    },
    {
        "#": "33",
        "Film": "Pocahontas",
        "Date of original release": "June 16 , 1995 (premiere) June 23 , 1995"
    },
    {
        "#": "34",
        "Film": "The Hunchback of Notre Dame",
        "Date of original release": "(premiere) June 21 , 1996"
    },
    {
        "#": "35",
        "Film": "Hercules",
        "Date of original release": "June 14 , 1997 (premiere) June 27 , 1997"
    },
    {
        "#": "36",
        "Film": "Mulan",
        "Date of original release": "June 5 , 1998 (premiere) June 19 , 1998"
    },
    {
        "#": "37",
        "Film": "Tarzan",
        "Date of original release": "June 18 , 1999"
    },
    {
        "#": "38",
        "Film": "Fantasia 2000 2, 3, 7",
        "Date of original release": "December 17 , 1999 (premiere) December 31 , 1999 ( IMAX ) June 16 , 2000 (regular)"
    },
    {
        "#": "39",
        "Film": "The Emperor's New Groove",
        "Date of original release": "December 10 , 2000 (premiere) December 15 , 2000"
    },
    {
        "#": "40",
        "Film": "Atlantis: The Lost Empire",
        "Date of original release": "June 3 , 2001 (premiere) June 8 , 2001 (limited) June 15 , 2001"
    },
    {
        "#": "41",
        "Film": "Lilo &amp; Stitch",
        "Date of original release": "June 16 , 2002 (premiere) June 21 , 2002"
    },
    {
        "#": "42",
        "Film": "Treasure Planet 7",
        "Date of original release": "November 17 , 2002 (premiere) November 27 , 2002"
    },
    {
        "#": "43",
        "Film": "Brother Bear",
        "Date of original release": "October 20 , 2003 (premiere) October 24 , 2003 (limited) November 1 , 2003"
    },
    {
        "#": "44",
        "Film": "Home on the Range",
        "Date of original release": "March 21 , 2004 (premiere) April 2 , 2004"
    },
    {
        "#": "45",
        "Film": "Chicken Little 8, 9",
        "Date of original release": "October 30 , 2005 (premiere) November 4 , 2005"
    },
    {
        "#": "46",
        "Film": "Meet the Robinsons 8, 9",
        "Date of original release": "March 30 , 2007"
    },
    {
        "#": "47",
        "Film": "Bolt 8, 9",
        "Date of original release": "November 26 , 2008 10"
    },
    {
        "#": "48",
        "Film": "The Princess and the Frog",
        "Date of original release": "December 25 , 2009 10"
    },
    {
        "#": "49",
        "Film": "Rapunzel 8, 9",
        "Date of original release": "Christmas 2010 10"
    },
    {
        "#": "50",
        "Film": "King of the Elves 8, 9",
        "Date of original release": "Christmas 2012 10"
    }
]