[
    {
        "Actor": "Michael Chiklis",
        "Known from": "The Shield",
        "Character": "Steve",
        "Episode": "&quot; The Stranded &quot;"
    },
    {
        "Actor": "Melinda Clarke",
        "Known from": "The OC",
        "Character": "Alex",
        "Episode": "&quot; The Muffin Tops &quot;"
    },
    {
        "Actor": "Courteney Cox",
        "Known from": "Friends",
        "Character": "Meryl",
        "Episode": "&quot; The Wife &quot;"
    },
    {
        "Actor": "Marcia Cross",
        "Known from": "Desperate Housewives",
        "Character": "Dr. Sara Sitarides (&quot; Pimple Popper M.D. &quot;)",
        "Episode": "&quot; The Slicer &quot;"
    },
    {
        "Actor": "Suzanne Cryer",
        "Known from": "Two Guys and a Girl",
        "Character": "Marcy, George&apos;s girlfriend who was big on the phrase &quot; Yada Yada &quot;",
        "Episode": "&quot; The Yada Yada &quot;"
    },
    {
        "Actor": "Kristin Davis",
        "Known from": "Sex and the City",
        "Character": "Jenna",
        "Episode": "&quot; The Pothole &quot;, &quot; The Butter Shave &quot;"
    },
    {
        "Actor": "Bruce Davison",
        "Known from": "numerous TV and film roles",
        "Character": "Wyck Fayer",
        "Episode": "&quot; The Foundation &quot;, &quot; The Soul Mate &quot;, &quot; The Van Buren Boys &quot;"
    },
    {
        "Actor": "Brian Doyle-Murray",
        "Known from": "Saturday Night Live , Yes, Dear",
        "Character": "Mel Sanger, the Bubble Boy&apos;s father",
        "Episode": "&quot; The Bubble Boy &quot;"
    },
    {
        "Actor": "Lisa Edelstein",
        "Known from": "House M.D.",
        "Character": "Karen",
        "Episode": "&quot; The Mango &quot; and &quot; The Masseuse &quot;"
    },
    {
        "Actor": "David James Elliott",
        "Known from": "JAG",
        "Character": "Carl, a pro-life furniture mover who dates Elaine",
        "Episode": "&quot; The Couch &quot;"
    },
    {
        "Actor": "Cary Elwes",
        "Known from": "The Princess Bride",
        "Character": "David",
        "Episode": "&quot; The Wait Out &quot;"
    },
    {
        "Actor": "Jon Favreau",
        "Known from": "Swingers",
        "Character": "Eric the Clown",
        "Episode": "&quot; The Fire &quot;"
    },
    {
        "Actor": "Janeane Garofalo",
        "Known from": "comedian, political activist",
        "Character": "Jeannie Steinman, the woman Jerry is briefly engaged to.",
        "Episode": "&quot; The Invitations &quot;, &quot; The Foundation &quot;"
    },
    {
        "Actor": "Brad Garrett",
        "Known from": "Everybody Loves Raymond",
        "Character": "Tony the mechanic",
        "Episode": "&quot; The Bottle Deposit, Part 1 &quot; and &quot; Part 2 &quot;"
    },
    {
        "Actor": "Jami Gertz",
        "Known from": "Twister",
        "Character": "Jane",
        "Episode": "&quot; The Stall &quot;"
    },
    {
        "Actor": "Lauren Graham",
        "Known from": "Gilmore Girls",
        "Character": "Valerie",
        "Episode": "&quot; The Millennium &quot;"
    },
    {
        "Actor": "Teri Hatcher",
        "Known from": "Desperate Housewives",
        "Character": "Sidra",
        "Episode": "&quot; The Implant &quot;, &quot; The Pilot, Part 1 &quot; and &quot; Part 2 &quot;, &quot; The Finale &quot;"
    },
    {
        "Actor": "Mariska Hargitay",
        "Known from": "Law &amp;amp; Order: Special Victims Unit",
        "Character": "Melissa Shannon",
        "Episode": "&quot; The Pilot, Part 1 &quot; and &quot; The Pilot, Part 2 &quot;"
    },
    {
        "Actor": "Carol Kane",
        "Known from": "Taxi , Hester Street",
        "Character": "Corinne (the woman hit on the head with Elaine&apos;s organizer)",
        "Episode": "&quot; The Marine Biologist &quot;"
    },
    {
        "Actor": "Catherine Keener",
        "Known from": "Capote , Being John Malkovich , The 40 Year Old Virgin",
        "Character": "Nina",
        "Episode": "&quot; The Letter &quot;"
    },
    {
        "Actor": "Daniel Dae Kim",
        "Known from": "Lost (TV series)",
        "Character": "Student #1",
        "Episode": "&quot; The Burning &quot;"
    },
    {
        "Actor": "Peter Krause",
        "Known from": "Six Feet Under",
        "Character": "Tim",
        "Episode": "&quot; The Limo &quot;"
    },
    {
        "Actor": "Jon Lovitz",
        "Known from": "Saturday Night Live",
        "Character": "Gary Fogel",
        "Episode": "&quot; The Scofflaw &quot;"
    },
    {
        "Actor": "Wendie Malick",
        "Known from": "Just Shoot Me",
        "Character": "Wendy",
        "Episode": "&quot; The Kiss Hello &quot;"
    },
    {
        "Actor": "Marlee Matlin",
        "Known from": "Children of a Lesser God",
        "Character": "Laura",
        "Episode": "&quot; The Lip Reader &quot;"
    },
    {
        "Actor": "Debra Messing",
        "Known from": "Will &amp;amp; Grace",
        "Character": "Beth",
        "Episode": "&quot; The Wait Out &quot;, &quot; The Yada Yada &quot;"
    },
    {
        "Actor": "Christa Miller",
        "Known from": "The Drew Carey Show , Scrubs",
        "Character": "Ellen, Paula",
        "Episode": "&quot; The Sniffing Accountant &quot; (Ellen), &quot; The Doodle &quot; (Paula )"
    },
    {
        "Actor": "Megan Mullally",
        "Known from": "Will &amp;amp; Grace",
        "Character": "Betsy",
        "Episode": "&quot; The Implant &quot;"
    },
    {
        "Actor": "Patton Oswalt",
        "Known from": "The King of Queens",
        "Character": "Barry, a video store clerk",
        "Episode": "&quot; The Couch &quot;"
    },
    {
        "Actor": "Chris Parnell",
        "Known from": "Saturday Night Live",
        "Character": "Jay Crespi",
        "Episode": "&quot; The Butter Shave &quot;"
    },
    {
        "Actor": "Amanda Peet",
        "Known from": "The Whole Nine Yards",
        "Character": "Linette",
        "Episode": "&quot; The Summer of George &quot;"
    },
    {
        "Actor": "Jeremy Piven",
        "Known from": "Entourage",
        "Character": "Michael Barth, playing George",
        "Episode": "&quot; The Pilot, Part 1 &quot; and &quot; Part 2 &quot;"
    },
    {
        "Actor": "Brian Posehn",
        "Known from": "Just Shoot Me , The Sarah Silverman Program",
        "Character": "Artie, a medical student",
        "Episode": "&quot; The Burning &quot;"
    },
    {
        "Actor": "Judge Reinhold",
        "Known from": "Fast Times at Ridgemont High , Beverly Hills Cop",
        "Character": "Aaron, the close-talker",
        "Episode": "&quot; The Raincoats, Part 1 &quot; and &quot; Part 2 &quot;"
    },
    {
        "Actor": "Denise Richards",
        "Known from": "Wild Things",
        "Character": "Molly",
        "Episode": "&quot; The Shoes &quot;"
    },
    {
        "Actor": "Stephen Root",
        "Known from": "Office Space , Newsradio",
        "Character": "a bank manager",
        "Episode": "&quot; The Invitations &quot;"
    },
    {
        "Actor": "Debra Jo Rupp",
        "Known from": "That 70&apos;s Show",
        "Character": "Katie",
        "Episode": "&quot; The Diplomat&apos;s Club &quot; and &quot; The Abstinence &quot;"
    },
    {
        "Actor": "Rob Schneider",
        "Known from": "Saturday Night Live , Deuce Bigalow: Male Gigolo",
        "Character": "Bob Grossberg from J. Peterman&apos;s business affairs department",
        "Episode": "&quot; The Friars Club &quot;"
    },
    {
        "Actor": "Molly Shannon",
        "Known from": "Saturday Night Live",
        "Character": "Sam",
        "Episode": "&quot; The Summer of George &quot;"
    },
    {
        "Actor": "Armin Shimerman",
        "Known from": "Star Trek: Deep Space 9",
        "Character": "Kramer&apos;s caddy",
        "Episode": "&quot; The Caddy &quot;"
    },
    {
        "Actor": "Sarah Silverman",
        "Known from": "The Sarah Silverman Program",
        "Character": "Emily",
        "Episode": "&quot; The Money &quot;"
    },
    {
        "Actor": "Helen Slater",
        "Known from": "Supergirl",
        "Character": "Becky Gelke",
        "Episode": "&quot; The Good Samaritan &quot;"
    },
    {
        "Actor": "Jill St. John",
        "Known from": "Diamonds Are Forever",
        "Character": "Mickey&apos;s mother, Mrs. Abbott",
        "Episode": "&quot; The Yada Yada &quot;"
    },
    {
        "Actor": "Ben Stein",
        "Known from": "Win Ben Stein&apos;s Money",
        "Character": "lawyer Shellbach",
        "Episode": "&quot; The Comeback &quot;"
    },
    {
        "Actor": "French Stewart",
        "Known from": "3rd Rock From the Sun",
        "Character": "Manager (at movie theater)",
        "Episode": "&quot; The Opposite &quot;"
    },
    {
        "Actor": "Peter Stormare",
        "Known from": "Prison Break , Fargo , Armageddon",
        "Character": "Slippery Pete",
        "Episode": "&quot; The Frogger &quot;"
    },
    {
        "Actor": "Christine Taylor",
        "Known from": "Hey Dude , The Wedding Singer",
        "Character": "Ellen",
        "Episode": "&quot; The Van Buren Boys &quot;"
    },
    {
        "Actor": "Robert Wagner",
        "Known from": "Hart To Hart",
        "Character": "Mickey&apos;s father, Dr. Abbott",
        "Episode": "&quot; The Yada Yada &quot;"
    },
    {
        "Actor": "Maggie Wheeler",
        "Known from": "Friends , Ellen",
        "Character": "Cynthia",
        "Episode": "&quot; The Fix-Up &quot;"
    }
]