[
    {
        "Jurisdiction": "Alberta",
        "Wage (C$/h)": "9.95",
        "Effective date": "1 September 2013",
        "Comments": "Consumer Price Index"
    },
    {
        "Jurisdiction": "British Columbia",
        "Wage (C$/h)": "10.25",
        "Effective date": "1 May 2012",
        "Comments": "$9.00 for liquor servers."
    },
    {
        "Jurisdiction": "Manitoba",
        "Wage (C$/h)": "10.45",
        "Effective date": "1 October 2013",
        "Comments": "Workers involved in construction have a higher starting minimum wage."
    },
    {
        "Jurisdiction": "New Brunswick",
        "Wage (C$/h)": "10.00",
        "Effective date": "1 April 2012",
        "Comments": ""
    },
    {
        "Jurisdiction": "Newfoundland and Labrador",
        "Wage (C$/h)": "10.00",
        "Effective date": "1 July 2010",
        "Comments": ""
    },
    {
        "Jurisdiction": "Northwest Territories",
        "Wage (C$/h)": "10.00",
        "Effective date": "1 April 2011",
        "Comments": ""
    },
    {
        "Jurisdiction": "Nova Scotia",
        "Wage (C$/h)": "10.30",
        "Effective date": "1 April 2013",
        "Comments": "$9.80 for inexperienced workers (less than three months employed in the type of work they are hired to do).,  On 1 April of each year, this rate is to increase to reflect changes in Statistics Canada&rsquo;s Low Income Cut-Off figures for the previous year. In 2014 the increase will be at $10.40 ($9.90 for inexperienced workers)."
    },
    {
        "Jurisdiction": "Nunavut",
        "Wage (C$/h)": "11.00",
        "Effective date": "1 January 2011",
        "Comments": "Currently the highest in Canada."
    },
    {
        "Jurisdiction": "Ontario",
        "Wage (C$/h)": "10.25",
        "Effective date": "31 March 2010",
        "Comments": "Students (under age 18, working 28 hours or under per week while school is in session or work when there is a school break): $9.60; $10.30 effective June 1, 2014.Liquor servers: $8.90; $9.55 effective June 1, 2014.Homeworkers (includes students and overrides the student wage): $11.28; $12.10 effective June 1, 2014., The Ontario government's former custom was that, in any year when the minimum wage changes, the change takes effect on 31 March of that year.[14] However, the government decided to have the next minimum wage increase effective on June 1, 2014 instead to $11/hr.[15], Additional minimum wage increases would be announced on 1 April of that year, pending on the Consumer Price Index, with the change taking into effect on 1 October of that same year (legislation pending).[16]"
    },
    {
        "Jurisdiction": "Prince Edward Island",
        "Wage (C$/h)": "10.00",
        "Effective date": "1 April 2012",
        "Comments": ""
    },
    {
        "Jurisdiction": "Qu&eacute;bec",
        "Wage (C$/h)": "10.15",
        "Effective date": "1 May 2013",
        "Comments": "gratuities"
    },
    {
        "Jurisdiction": "Saskatchewan",
        "Wage (C$/h)": "10.00",
        "Effective date": "1 December 2012",
        "Comments": ""
    },
    {
        "Jurisdiction": "Yukon",
        "Wage (C$/h)": "10.54",
        "Effective date": "1 April 2013",
        "Comments": "Consumer Price Index"
    }
]