[
    {
        "Character": "Jonathan Archer",
        "Rank": "Captain",
        "Actor": "Scott Bakula",
        "Position": "Captain and commanding officer of the Starship Enterprise."
    },
    {
        "Character": "T'Pol",
        "Rank": "Subcommander (Vulcan High Command), later Commander (Starfleet)",
        "Actor": "Jolene Blalock",
        "Position": "Second-in-command and Chief Science Officer; sole Vulcan regular crew member."
    },
    {
        "Character": "Charles Tucker III",
        "Rank": "Commander",
        "Actor": "Connor Trinneer",
        "Position": "Chief engineer."
    },
    {
        "Character": "Malcolm Reed",
        "Rank": "Lieutenant",
        "Actor": "Dominic Keating",
        "Position": "Tactical officer."
    },
    {
        "Character": "Hoshi Sato",
        "Rank": "Ensign",
        "Actor": "Linda Park",
        "Position": "Communications officer."
    },
    {
        "Character": "Travis Mayweather",
        "Rank": "Ensign",
        "Actor": "Anthony Montgomery",
        "Position": "Helm officer."
    },
    {
        "Character": "Phlox",
        "Rank": "Chief Medical Officer",
        "Actor": "John Billingsley",
        "Position": "The ship's Denobulan physician."
    }
]