[
    {
        "Actor": "Doris Grau",
        "Character(s)": "Lunchlady Doris",
        "Notes": "Grau was a member of the show's supporting cast and also worked as a script supervisor on the series.,  Grau appeared from 1991 until 1997, with her final appearances airing after her death in 1995."
    },
    {
        "Actor": "Phil Hartman",
        "Character(s)": "Troy McClure, Lionel Hutz",
        "Notes": "Hartman made the most guest appearances on the show, voicing characters between 1991 and 1998. Following Hartman's death, McClure and Hutz were retired from the show."
    },
    {
        "Actor": "Frank Welker",
        "Character(s)": "Santa's Little Helper, Snowball II",
        "Notes": "throat"
    },
    {
        "Actor": "Marcia Mitzman Gaven",
        "Character(s)": "Maude Flanders, Helen Lovejoy, Elizabeth Hoover",
        "Notes": "season 14"
    },
    {
        "Actor": "Jo Ann Harris",
        "Character(s)": "Various",
        "Notes": "Voiced various additional parts as part of the supporting cast between 1989 and 1992, but has not appeared since."
    },
    {
        "Actor": "Christopher Collins",
        "Character(s)": "Moe Syszlak, Mr. Burns, the presenter of , America's Most Armed and Dangerous",
        "Notes": "Some Enchanted Evening"
    },
    {
        "Actor": "Marcia Wallace",
        "Character(s)": "Mrs. Krabappel",
        "Notes": "Wallace appeared regularly on the show as Krabappel between 1990 and her death in 2013. She was always billed as a guest star despite appearing in 177 episodes at the time of her death.,  The character will be retired."
    }
]