[
    {
        "Name": "Shirlee Matheson",
        "Known for": "Author",
        "Relationship to Athabasca University": "Graduate",
        "Citation": ""
    },
    {
        "Name": "Ernest Manning",
        "Known for": "Premier of Alberta",
        "Relationship to Athabasca University": "Honorary degree",
        "Citation": ""
    },
    {
        "Name": "Alyn McCauley",
        "Known for": "NHL, San Jose Sharks",
        "Relationship to Athabasca University": "Student",
        "Citation": ""
    },
    {
        "Name": "Maureen McTeer",
        "Known for": "Joe Clark",
        "Relationship to Athabasca University": "Honorary degree",
        "Citation": ""
    }
]