[
    {
        "Name": "John Harrison",
        "Amount": "&pound;15,315",
        "Reason": "chronometers"
    },
    {
        "Name": "Tobias Mayer",
        "Amount": "&pound;3,000",
        "Reason": "lunar distance method"
    },
    {
        "Name": "Thomas Mudge",
        "Amount": "&pound;3,000",
        "Reason": "chronometers"
    },
    {
        "Name": "John Arnold",
        "Amount": "&pound;3,000",
        "Reason": "chronometers"
    },
    {
        "Name": "Thomas Earnshaw",
        "Amount": "&pound;3,000",
        "Reason": "chronometers"
    },
    {
        "Name": "Charles Mason",
        "Amount": "&pound;1,317",
        "Reason": "Various contributions and improvements on Mayer&rsquo;s lunar tables."
    },
    {
        "Name": "Jesse Ramsden",
        "Amount": "&pound;615",
        "Reason": "dividing engine"
    },
    {
        "Name": "Larcum Kendall",
        "Amount": "&pound;500",
        "Reason": "Construction of a copy of Harrison's , H-4, ."
    },
    {
        "Name": "Leonhard Euler",
        "Amount": "&pound;300",
        "Reason": "lunar distance method"
    },
    {
        "Name": "Nathaniel Davies",
        "Amount": "&pound;300",
        "Reason": "Design of a Lunars telescope for Mayer"
    }
]