[
    {
        "Year": "1992",
        "Player": "Paul Hudson",
        "Team": "Hawthorn"
    },
    {
        "Year": "1993",
        "Player": "Gavin Wanganeen",
        "Team": "Essendon"
    },
    {
        "Year": "1994",
        "Player": "Gary O'Donnell",
        "Team": "Essendon"
    },
    {
        "Year": "1995",
        "Player": "Mick Martyn",
        "Team": "North Melbourne"
    },
    {
        "Year": "1996",
        "Player": "Nicky Winmar",
        "Team": "St Kilda"
    },
    {
        "Year": "1997",
        "Player": "Craig Bradley",
        "Team": "Carlton"
    },
    {
        "Year": "1998",
        "Player": "Wayne Carey",
        "Team": "North Melbourne"
    },
    {
        "Year": "1999",
        "Player": "Paul Salmon",
        "Team": "Hawthorn"
    },
    {
        "Year": "2000",
        "Player": "Mark Mercuri",
        "Team": "Essendon"
    },
    {
        "Year": "2001",
        "Player": "Adam Kingsley",
        "Team": "Port Adelaide"
    },
    {
        "Year": "2002",
        "Player": "Nick Stevens",
        "Team": "Port Adelaide"
    },
    {
        "Year": "2003",
        "Player": "Andrew McLeod",
        "Team": "Adelaide"
    },
    {
        "Year": "2004",
        "Player": "Robert Harvey",
        "Team": "St Kilda"
    },
    {
        "Year": "2005",
        "Player": "Brendan Fevola",
        "Team": "Carlton"
    },
    {
        "Year": "2006",
        "Player": "Simon Goodwin",
        "Team": "Adelaide"
    },
    {
        "Year": "2007",
        "Player": "Nick Stevens",
        "Team": "Carlton"
    },
    {
        "Year": "2008",
        "Player": "Jason Gram",
        "Team": "St Kilda"
    },
    {
        "Year": "2009",
        "Player": "Joel Selwood",
        "Team": "Geelong"
    },
    {
        "Year": "2010",
        "Player": "Barry Hall",
        "Team": "Western Bulldogs"
    },
    {
        "Year": "2011",
        "Player": "Heath Shaw",
        "Team": "Collingwood"
    },
    {
        "Year": "2012",
        "Player": "Bernie Vince",
        "Team": "Adelaide"
    },
    {
        "Year": "2013",
        "Player": "Daniel Rich",
        "Team": "Brisbane"
    }
]