[
    {
        "Prefect": "Cornelius Laco",
        "Tenure": "68 - 69",
        "Emperor served": "Galba"
    },
    {
        "Prefect": "Plotius Firmus",
        "Tenure": "69 - 69",
        "Emperor served": "Otho"
    },
    {
        "Prefect": "Licinius Proculus",
        "Tenure": "69 - 69",
        "Emperor served": "Otho"
    },
    {
        "Prefect": "Publius Sabinus",
        "Tenure": "69 - 69",
        "Emperor served": "Vitellius"
    },
    {
        "Prefect": "Alfenius Varus",
        "Tenure": "69 - 69",
        "Emperor served": "Vitellius"
    },
    {
        "Prefect": "Junius Priscus",
        "Tenure": "69 - 69",
        "Emperor served": "Vitellius"
    }
]