[
    {
        "Name": "Milan Pani\u0107",
        "Born - Died": "1929 -",
        "Term start": "14 July 1992",
        "Term end": "9 February 1993",
        "Political Party": "None"
    },
    {
        "Name": "Radoje Konti\u0107",
        "Born - Died": "1937 -",
        "Term start": "9 February 1993",
        "Term end": "19 May 1998",
        "Political Party": "Democratic Party of Socialists of Montenegro"
    },
    {
        "Name": "Momir Bulatovi\u0107",
        "Born - Died": "1956 -",
        "Term start": "19 May 1998",
        "Term end": "4 November 2000",
        "Political Party": "Socialist People's Party of Montenegro"
    },
    {
        "Name": "Zoran \u017di\u017ei\u0107",
        "Born - Died": "1951 -",
        "Term start": "4 November 2000",
        "Term end": "24 July 2001",
        "Political Party": "Socialist People's Party of Montenegro"
    },
    {
        "Name": "Dragi&scaron;a Pe&scaron;i\u0107",
        "Born - Died": "1954 -",
        "Term start": "24 July 2001",
        "Term end": "17 March 2003",
        "Political Party": "Socialist People's Party of Montenegro"
    }
]