[
    {
        "Rank": "",
        "Team": "China",
        "Score": "1682"
    },
    {
        "Rank": "",
        "Team": "North Korea",
        "Score": "1659"
    },
    {
        "Rank": "",
        "Team": "South Korea",
        "Score": "1657"
    },
    {
        "Rank": "4",
        "Team": "Kazakhstan",
        "Score": "1656"
    },
    {
        "Rank": "5",
        "Team": "Vietnam",
        "Score": "1652"
    },
    {
        "Rank": "6",
        "Team": "Thailand",
        "Score": "1643"
    },
    {
        "Rank": "7",
        "Team": "India",
        "Score": "1636"
    },
    {
        "Rank": "8",
        "Team": "Chinese Taipei",
        "Score": "1623"
    },
    {
        "Rank": "9",
        "Team": "Saudi Arabia",
        "Score": "1597"
    },
    {
        "Rank": "10",
        "Team": "Tajikistan",
        "Score": "1589"
    },
    {
        "Rank": "11",
        "Team": "Iran",
        "Score": "1573"
    },
    {
        "Rank": "12",
        "Team": "Qatar",
        "Score": "1565"
    },
    {
        "Rank": "13",
        "Team": "Bahrain",
        "Score": "1551"
    }
]