[
    {
        "#": "1",
        "Launch date": "3 October 1985",
        "Designation": "STS-51-J",
        "Launch Pad": "39A",
        "Landing Location": "Edwards AFB",
        "Duration": "4 days, 1 hour, 44 minutes, 38 seconds",
        "Distance[36]": "1,682,641 miles (2,707,948 km)",
        "Notes": "Defense Satellite Communications System"
    },
    {
        "#": "2",
        "Launch date": "26 November 1985",
        "Designation": "STS-61-B",
        "Launch Pad": "39A",
        "Landing Location": "Edwards AFB",
        "Duration": "6 days, 21 hours, 4 minutes, 49 seconds",
        "Distance[36]": "2,466,956 miles (3,970,181 km)",
        "Notes": "MORELOS-B"
    },
    {
        "#": "3",
        "Launch date": "2 December 1988",
        "Designation": "STS-27",
        "Launch Pad": "39B",
        "Landing Location": "Edwards AFB",
        "Duration": "4 days, 9 hours, 5 minutes, 37 seconds",
        "Distance[36]": "1,812,075 miles (2,916,252 km)",
        "Notes": "Lacrosse 1, National Reconnaissance Office, Central Intelligence Agency, Thermal Protection System"
    },
    {
        "#": "4",
        "Launch date": "4 May 1989",
        "Designation": "STS-30",
        "Launch Pad": "39B",
        "Landing Location": "Edwards AFB",
        "Duration": "4 days, 0 hours, 56 minutes, 28 seconds",
        "Distance[36]": "1,477,500 miles (2,377,800 km)",
        "Notes": "Magellan probe, Venus"
    },
    {
        "#": "5",
        "Launch date": "18 October 1989",
        "Designation": "STS-34",
        "Launch Pad": "39B",
        "Landing Location": "Edwards AFB",
        "Duration": "4 days, 23 hours, 39 minutes, 20 seconds",
        "Distance[36]": "1,800,000 miles (2,900,000 km)",
        "Notes": "Galileo probe, Jupiter"
    },
    {
        "#": "6",
        "Launch date": "28 February 1990",
        "Designation": "STS-36",
        "Launch Pad": "39A",
        "Landing Location": "Edwards AFB",
        "Duration": "4 days, 10 hours, 18 minutes, 22 seconds",
        "Distance[36]": "1,837,962 miles (2,957,913 km)",
        "Notes": "Misty, reconnaissance satellite"
    },
    {
        "#": "7",
        "Launch date": "15 November 1990",
        "Designation": "STS-38",
        "Launch Pad": "39A",
        "Landing Location": "KSC",
        "Duration": "4 days, 21 hours, 54 minutes, 31 seconds",
        "Distance[36]": "2,045,056 miles (3,291,199 km)",
        "Notes": "Magnum, ELINT"
    },
    {
        "#": "8",
        "Launch date": "5 April 1991",
        "Designation": "STS-37",
        "Launch Pad": "39B",
        "Landing Location": "Edwards AFB",
        "Duration": "5 days, 23 hours, 32 minutes, 44 seconds",
        "Distance[36]": "2,487,075 miles (4,002,559 km)",
        "Notes": "Compton Gamma Ray Observatory, Great Observatories program"
    },
    {
        "#": "9",
        "Launch date": "2 August 1991",
        "Designation": "STS-43",
        "Launch Pad": "39A",
        "Landing Location": "KSC",
        "Duration": "8 days, 21 hours, 21 minutes, 25 seconds",
        "Distance[36]": "3,700,400 miles (5,955,200 km)",
        "Notes": "Tracking and Data Relay Satellite"
    },
    {
        "#": "10",
        "Launch date": "24 November 1991",
        "Designation": "STS-44",
        "Launch Pad": "39A",
        "Landing Location": "Edwards AFB",
        "Duration": "6 days, 22 hours, 50 minutes, 44 seconds",
        "Distance[36]": "2,890,067 miles (4,651,112 km)",
        "Notes": "Defense Support Program"
    },
    {
        "#": "11",
        "Launch date": "24 March 1992",
        "Designation": "STS-45",
        "Launch Pad": "39A",
        "Landing Location": "KSC",
        "Duration": "8 days, 22 hours, 9 minutes 28 seconds",
        "Distance[36]": "3,274,946 miles (5,270,515 km)",
        "Notes": "Carried first Atmospheric Laboratory for Applications and Science (ATLAS-1). ATLAS-1 equipped with 12 instruments conducted studies in atmospheric chemistry, solar radiation, space plasma physics and ultraviolet astronomy."
    },
    {
        "#": "12",
        "Launch date": "31 July 1992",
        "Designation": "STS-46",
        "Launch Pad": "39A",
        "Landing Location": "KSC",
        "Duration": "7 days, 23 hours, 15 minutes, 3 seconds",
        "Distance[36]": "3,321,007 miles (5,344,643 km)",
        "Notes": "Tethered Satellite System, NASA, Italian Space Agency, European Retrievable Carrier, European Space Agency"
    },
    {
        "#": "13",
        "Launch date": "3 November 1994",
        "Designation": "STS-66",
        "Launch Pad": "39B",
        "Landing Location": "Edwards AFB",
        "Duration": "10 days, 22 hours, 34 minutes, 2 seconds",
        "Distance[36]": "4,554,791 miles (7,330,226 km)",
        "Notes": "Carried Atmospheric Laboratory for Applications and Sciences - 3 (ATLAS-03) to study the energy of the sun and how it affects the Earth's climate and environment. In addition, STS-66 included deployment and retrieval of the Cryogenic Infrared Spectrometer Telescope for Atmosphere (CRISTA) to explore the variability of the atmosphere and provide measurements."
    },
    {
        "#": "14",
        "Launch date": "29 June 1995",
        "Designation": "STS-71",
        "Launch Pad": "39A",
        "Landing Location": "KSC",
        "Duration": "9 days, 19 hours, 22 minutes, 17 seconds",
        "Distance[36]": "4,100,000 miles (6,600,000 km)",
        "Notes": "space station, Mir, cosmonauts, Norman Thagard, Vladimir Dezhurov, Gennady Strekalov, life sciences, SPACELAB"
    },
    {
        "#": "15",
        "Launch date": "12 November 1995",
        "Designation": "STS-74",
        "Launch Pad": "39A",
        "Landing Location": "KSC",
        "Duration": "8 days, 4 hours, 31 minutes, 42 seconds",
        "Distance[36]": "3,400,000 miles (5,500,000 km)",
        "Notes": "Carried docking module to Mir and docked to the Kristall module. During the three days of combined shuttle-Mir operations, Atlantis's crew transferred water, supplies, equipment and two new solar arrays to upgrade Mir."
    },
    {
        "#": "16",
        "Launch date": "22 March 1996",
        "Designation": "STS-76",
        "Launch Pad": "39B",
        "Landing Location": "Edwards AFB",
        "Duration": "9 days, 5 hours, 16 minutes, 48 seconds",
        "Distance[36]": "3,800,000 miles (6,100,000 km)",
        "Notes": "Shannon Lucid, SPACEHAB, Linda Godwin, Michael Clifford"
    },
    {
        "#": "17",
        "Launch date": "16 September 1996",
        "Designation": "STS-79",
        "Launch Pad": "39A",
        "Landing Location": "KSC",
        "Duration": "10 days, 3 hours, 19 minutes, 28 seconds",
        "Distance[36]": "3,900,000 miles (6,300,000 km)",
        "Notes": "John Blaha"
    },
    {
        "#": "18",
        "Launch date": "12 January 1997",
        "Designation": "STS-81",
        "Launch Pad": "39B",
        "Landing Location": "KSC",
        "Duration": "10 days, 4 hours, 56 minutes, 30 seconds",
        "Distance[36]": "3,900,000 miles (6,300,000 km)",
        "Notes": "Jerry Linenger"
    },
    {
        "#": "19",
        "Launch date": "15 May 1997",
        "Designation": "STS-84",
        "Launch Pad": "39A",
        "Landing Location": "KSC",
        "Duration": "9 days, 5 hours, 20 minutes, 47 seconds",
        "Distance[36]": "3,600,000 miles (5,800,000 km)",
        "Notes": "Michael Foale"
    },
    {
        "#": "20",
        "Launch date": "25 September 1997",
        "Designation": "STS-86",
        "Launch Pad": "39A",
        "Landing Location": "KSC",
        "Duration": "10 days, 19 hours, 22 minutes, 12 seconds",
        "Distance[36]": "4,225,000 miles (6,799,000 km)",
        "Notes": "David A. Wolf, Vladimir Titov, Scott Parazynski"
    },
    {
        "#": "21",
        "Launch date": "19 May 2000",
        "Designation": "STS-101",
        "Launch Pad": "39A",
        "Landing Location": "KSC",
        "Duration": "9 days, 21 hours, 10 minutes, 10 seconds",
        "Distance[36]": "5,076,281 miles (8,169,482 km)",
        "Notes": "International Space Station, James Voss, Jeffrey Williams"
    },
    {
        "#": "22",
        "Launch date": "8 September 2000",
        "Designation": "STS-106",
        "Launch Pad": "39B",
        "Landing Location": "KSC",
        "Duration": "11 days, 19 hours, 12 minutes, 15 seconds",
        "Distance[36]": "4,919,243 miles (7,916,754 km)",
        "Notes": "International Space Station resupply mission. STS-106 utilized the SPACEHAB Double Module and the Integrated Cargo Carrier (ICC) to bring supplies to the ISS. The mission also included two spacewalks."
    },
    {
        "#": "23",
        "Launch date": "7 February 2001",
        "Designation": "STS-98",
        "Launch Pad": "39A",
        "Landing Location": "Edwards AFB",
        "Duration": "12 days, 21 hours, 21 minutes",
        "Distance[36]": "5,369,576 miles (8,641,495 km)",
        "Notes": "Destiny Laboratory Module"
    },
    {
        "#": "24",
        "Launch date": "12 July 2001",
        "Designation": "STS-104",
        "Launch Pad": "39B",
        "Landing Location": "KSC",
        "Duration": "12 days, 18 hours, 36 minutes, 39 seconds",
        "Distance[36]": "5,309,429 miles (8,544,698 km)",
        "Notes": "Quest Joint Airlock, Michael Gernhardt, James Reilly, SSME"
    },
    {
        "#": "25",
        "Launch date": "8 April 2002",
        "Designation": "STS-110",
        "Launch Pad": "39B",
        "Landing Location": "KSC",
        "Duration": "10 days, 19 hours, 43 minutes, 48 seconds",
        "Distance[36]": "4,525,299 miles (7,282,763 km)",
        "Notes": "S0 truss"
    },
    {
        "#": "26",
        "Launch date": "7 October 2002",
        "Designation": "STS-112",
        "Launch Pad": "39B",
        "Landing Location": "KSC",
        "Duration": "10 days, 19 hours, 58 minutes, 44 seconds",
        "Distance[36]": "4,513,015 miles (7,262,994 km)",
        "Notes": "S1 truss, David Wolf, Piers Sellers"
    },
    {
        "#": "27",
        "Launch date": "9 September 2006",
        "Designation": "STS-115",
        "Launch Pad": "39B",
        "Landing Location": "KSC",
        "Duration": "11 days, 19 hours, 6 minutes, 35 seconds",
        "Distance[36]": "4,910,288 miles (7,902,343 km)",
        "Notes": "P3 and P4 truss, assembly mission, Columbia disaster"
    },
    {
        "#": "28",
        "Launch date": "8 June 2007",
        "Designation": "STS-117",
        "Launch Pad": "39A",
        "Landing Location": "Edwards AFB",
        "Duration": "13 days, 20 hours, 12 minutes, 44 seconds",
        "Distance[36]": "5,809,363 miles (9,349,263 km)",
        "Notes": "S3 and S4 truss, human spaceflight, Expedition 15, Clayton Anderson, Sunita Williams"
    },
    {
        "#": "29",
        "Launch date": "7 February 2008",
        "Designation": "STS-122",
        "Launch Pad": "39A",
        "Landing Location": "KSC",
        "Duration": "12 days, 18 hours, 21 minutes, 50 seconds",
        "Distance[36]": "5,296,842 miles (8,524,441 km)",
        "Notes": "Columbus laboratory, L&eacute;opold Eyharts, Expedition 16, Daniel M. Tani, Rex Walheim, Stanley Love"
    },
    {
        "#": "30",
        "Launch date": "11 May 2009",
        "Designation": "STS-125",
        "Launch Pad": "39A",
        "Landing Location": "Edwards AFB",
        "Duration": "12 days, 21 hours, 37 minutes, 9 seconds",
        "Distance[36]": "5,276,000 miles (8,491,000 km)",
        "Notes": "Hubble Space Telescope, Cosmic Origins Spectrograph, Wide Field Camera 3, Fine Guidance Sensor, gyroscopes, battery, IMAX"
    },
    {
        "#": "31",
        "Launch date": "16 November 2009",
        "Designation": "STS-129",
        "Launch Pad": "39A",
        "Landing Location": "KSC",
        "Duration": "10 days, 19 hours, 16 minutes, 13 seconds",
        "Distance[36]": "4,490,138 miles (7,226,177 km)",
        "Notes": "ELC-1/ELC-2, ExPRESS Logistics Carrier"
    },
    {
        "#": "32",
        "Launch date": "14 May 2010",
        "Designation": "STS-132",
        "Launch Pad": "39A",
        "Landing Location": "KSC",
        "Duration": "11 days, 18 hours, 29 minutes, 09 seconds",
        "Distance[36]": "4,879,978 miles (7,853,563 km)",
        "Notes": "Mini-Research Module 1"
    },
    {
        "#": "33",
        "Launch date": "8 July 2011",
        "Designation": "STS-135",
        "Launch Pad": "39A",
        "Landing Location": "KSC",
        "Duration": "12 days, 18 hours, 28 minutes, 50 seconds",
        "Distance[36]": "5,284,862 miles (8,505,161 km)",
        "Notes": "Soyuz"
    }
]