[
    {
        "No.": "No.",
        "Pos.": "Pos.",
        "Player": "Player",
        "DoB/Age": "DoB/Age",
        "Caps": "Caps",
        "Club": "Club"
    },
    {
        "No.": "1",
        "Pos.": "GK",
        "Player": "Jim Leighton",
        "DoB/Age": "24 July 1958 (aged 37)",
        "Caps": "74",
        "Club": "Hibernian"
    },
    {
        "No.": "2",
        "Pos.": "DF",
        "Player": "Stewart McKimmie",
        "DoB/Age": "27 October 1962 (aged 33)",
        "Caps": "38",
        "Club": "Aberdeen"
    },
    {
        "No.": "3",
        "Pos.": "DF",
        "Player": "Tom Boyd",
        "DoB/Age": "24 November 1965 (aged 30)",
        "Caps": "35",
        "Club": "Celtic"
    },
    {
        "No.": "4",
        "Pos.": "DF",
        "Player": "Colin Calderwood",
        "DoB/Age": "20 January 1965 (aged 31)",
        "Caps": "11",
        "Club": "Tottenham Hotspur"
    },
    {
        "No.": "5",
        "Pos.": "DF",
        "Player": "Colin Hendry",
        "DoB/Age": "7 December 1965 (aged 30)",
        "Caps": "18",
        "Club": "Blackburn Rovers"
    },
    {
        "No.": "6",
        "Pos.": "DF",
        "Player": "Derek Whyte",
        "DoB/Age": "31 August 1968 (aged 27)",
        "Caps": "9",
        "Club": "Middlesbrough"
    },
    {
        "No.": "7",
        "Pos.": "FW",
        "Player": "John Spencer",
        "DoB/Age": "11 September 1970 (aged 25)",
        "Caps": "9",
        "Club": "Chelsea"
    },
    {
        "No.": "8",
        "Pos.": "MF",
        "Player": "Stuart McCall",
        "DoB/Age": "10 June 1964 (aged 31)",
        "Caps": "34",
        "Club": "Rangers"
    },
    {
        "No.": "9",
        "Pos.": "FW",
        "Player": "Ally McCoist",
        "DoB/Age": "24 September 1962 (aged 33)",
        "Caps": "52",
        "Club": "Rangers"
    },
    {
        "No.": "10",
        "Pos.": "MF",
        "Player": "Gary McAllister",
        "DoB/Age": "25 December 1964 (aged 31)",
        "Caps": "41",
        "Club": "Leeds United"
    },
    {
        "No.": "11",
        "Pos.": "MF",
        "Player": "John Collins",
        "DoB/Age": "31 January 1968 (aged 28)",
        "Caps": "33",
        "Club": "AS Monaco"
    },
    {
        "No.": "12",
        "Pos.": "GK",
        "Player": "Andy Goram",
        "DoB/Age": "13 April 1964 (aged 32)",
        "Caps": "36",
        "Club": "Rangers"
    },
    {
        "No.": "13",
        "Pos.": "DF",
        "Player": "Tosh McKinlay",
        "DoB/Age": "3 December 1964 (aged 31)",
        "Caps": "4",
        "Club": "Celtic"
    },
    {
        "No.": "14",
        "Pos.": "FW",
        "Player": "Gordon Durie",
        "DoB/Age": "6 December 1965 (aged 30)",
        "Caps": "28",
        "Club": "Rangers"
    },
    {
        "No.": "15",
        "Pos.": "MF",
        "Player": "Eoin Jess",
        "DoB/Age": "13 December 1970 (aged 25)",
        "Caps": "12",
        "Club": "Middlesbrough"
    },
    {
        "No.": "16",
        "Pos.": "DF",
        "Player": "Craig Burley",
        "DoB/Age": "24 September 1971 (aged 24)",
        "Caps": "9",
        "Club": "Chelsea"
    },
    {
        "No.": "17",
        "Pos.": "MF",
        "Player": "Billy McKinlay",
        "DoB/Age": "22 April 1969 (aged 27)",
        "Caps": "17",
        "Club": "Blackburn Rovers"
    },
    {
        "No.": "18",
        "Pos.": "FW",
        "Player": "Kevin Gallacher",
        "DoB/Age": "23 November 1966 (aged 29)",
        "Caps": "22",
        "Club": "Blackburn Rovers"
    },
    {
        "No.": "19",
        "Pos.": "MF",
        "Player": "Darren Jackson",
        "DoB/Age": "25 July 1966 (aged 29)",
        "Caps": "12",
        "Club": "Hibernian"
    },
    {
        "No.": "20",
        "Pos.": "FW",
        "Player": "Scott Booth",
        "DoB/Age": "16 December 1971 (aged 24)",
        "Caps": "11",
        "Club": "Aberdeen"
    },
    {
        "No.": "21",
        "Pos.": "MF",
        "Player": "Scot Gemmill",
        "DoB/Age": "2 January 1971 (aged 25)",
        "Caps": "6",
        "Club": "Nottingham Forest"
    },
    {
        "No.": "22",
        "Pos.": "GK",
        "Player": "Nicky Walker",
        "DoB/Age": "29 September 1962 (aged 33)",
        "Caps": "2",
        "Club": "Partick Thistle"
    }
]