[
    {
        "Institution": "University of Wisconsin-Eau Claire",
        "Nickname": "Blugolds",
        "Location(Population)": "Eau Claire, Wisconsin",
        "Founded": "1916",
        "Type": "Public",
        "UndergraduateEnrollment": "9,799",
        "Joined": "1917-18"
    },
    {
        "Institution": "University of Wisconsin-La Crosse",
        "Nickname": "Eagles",
        "Location(Population)": "La Crosse, Wisconsin",
        "Founded": "1909",
        "Type": "Public",
        "UndergraduateEnrollment": "8,324",
        "Joined": "1913-14"
    },
    {
        "Institution": "University of Wisconsin-Oshkosh",
        "Nickname": "Titans",
        "Location(Population)": "Oshkosh, Wisconsin",
        "Founded": "1871",
        "Type": "Public",
        "UndergraduateEnrollment": "9,386",
        "Joined": "1913-14"
    },
    {
        "Institution": "University of Wisconsin-Platteville",
        "Nickname": "Pioneers",
        "Location(Population)": "Platteville, Wisconsin",
        "Founded": "1866",
        "Type": "Public",
        "UndergraduateEnrollment": "6,498",
        "Joined": "1913-14"
    },
    {
        "Institution": "University of Wisconsin-River Falls",
        "Nickname": "Falcons",
        "Location(Population)": "River Falls, Wisconsin",
        "Founded": "1874",
        "Type": "Public",
        "UndergraduateEnrollment": "5,801",
        "Joined": "1913-14"
    },
    {
        "Institution": "University of Wisconsin-Stevens Point",
        "Nickname": "Pointers",
        "Location(Population)": "Stevens Point, Wisconsin",
        "Founded": "1894",
        "Type": "Public",
        "UndergraduateEnrollment": "8,481",
        "Joined": "1913-14"
    },
    {
        "Institution": "University of Wisconsin-Stout",
        "Nickname": "Blue Devils",
        "Location(Population)": "Menomonie, Wisconsin",
        "Founded": "1891",
        "Type": "Public",
        "UndergraduateEnrollment": "6,874",
        "Joined": "1914-15"
    },
    {
        "Institution": "University of Wisconsin-Superior",
        "Nickname": "Yellowjackets",
        "Location(Population)": "Superior, Wisconsin",
        "Founded": "1893",
        "Type": "Public",
        "UndergraduateEnrollment": "2,114",
        "Joined": "1913-14"
    },
    {
        "Institution": "University of Wisconsin-Whitewater",
        "Nickname": "Warhawks",
        "Location(Population)": "Whitewater, Wisconsin",
        "Founded": "1868",
        "Type": "Public",
        "UndergraduateEnrollment": "9,323",
        "Joined": "1913-14"
    }
]