[
    {
        "col0": "Swimming at the 2000 Summer Olympics - Men's 4 x 100 metre freestyle relay",
        "col1": "E. S. Filho",
        "col2": "Swimming at the 2004 Summer Olympics - Men's 4 x 100 metre freestyle relay",
        "col3": "Swimming at the 1996 Summer Olympics - Men's 4 x 100 metre freestyle relay"
    },
    {
        "col0": "Swimming at the 2000 Summer Olympics - Men's 400 metre individual medley",
        "col1": "C. Myden",
        "col2": "Swimming at the 2004 Summer Olympics - Men's 400 metre individual medley",
        "col3": "Swimming at the 1996 Summer Olympics - Men's 400 metre individual medley"
    },
    {
        "col0": "Swimming at the 2000 Summer Olympics - Men's 400 metre freestyle",
        "col1": "K. Keller",
        "col2": "Swimming at the 2004 Summer Olympics - Men's 400 metre freestyle",
        "col3": "Swimming at the 1996 Summer Olympics - Men's 400 metre freestyle"
    },
    {
        "col0": "Swimming at the 2000 Summer Olympics - Men's 200 metre individual medley",
        "col1": "T. Wilkens",
        "col2": "Swimming at the 2004 Summer Olympics - Men's 200 metre individual medley",
        "col3": "Swimming at the 1996 Summer Olympics - Men's 200 metre individual medley"
    },
    {
        "col0": "Swimming at the 2000 Summer Olympics - Men's 200 metre freestyle",
        "col1": "M. Rosolino",
        "col2": "Swimming at the 2004 Summer Olympics - Men's 200 metre freestyle",
        "col3": "Swimming at the 1996 Summer Olympics - Men's 200 metre freestyle"
    },
    {
        "col0": "Swimming at the 2000 Summer Olympics - Men's 200 metre butterfly",
        "col1": "J. Norris",
        "col2": "Swimming at the 2004 Summer Olympics - Men's 200 metre butterfly",
        "col3": "Swimming at the 1996 Summer Olympics - Men's 200 metre butterfly"
    },
    {
        "col0": "Swimming at the 2000 Summer Olympics - Men's 200 metre breaststroke",
        "col1": "D. Rummolo",
        "col2": "Swimming at the 2004 Summer Olympics - Men's 200 metre breaststroke",
        "col3": "Swimming at the 1996 Summer Olympics - Men's 200 metre breaststroke"
    },
    {
        "col0": "Swimming at the 2000 Summer Olympics - Men's 200 metre backstroke",
        "col1": "M. Welsh",
        "col2": "Swimming at the 2004 Summer Olympics - Men's 200 metre backstroke",
        "col3": "Swimming at the 1996 Summer Olympics - Men's 200 metre backstroke"
    },
    {
        "col0": "Swimming at the 2000 Summer Olympics - Men's 1500 metre freestyle",
        "col1": "C. Thompson",
        "col2": "Swimming at the 2004 Summer Olympics - Men's 1500 metre freestyle",
        "col3": "Swimming at the 1996 Summer Olympics - Men's 1500 metre freestyle"
    },
    {
        "col0": "Swimming at the 2000 Summer Olympics - Men's 100 metre freestyle",
        "col1": "G. H. Jr.",
        "col2": "Swimming at the 2004 Summer Olympics - Men's 100 metre freestyle",
        "col3": "Swimming at the 1996 Summer Olympics - Men's 100 metre freestyle"
    },
    {
        "col0": "Swimming at the 2000 Summer Olympics - Men's 100 metre butterfly",
        "col1": "G. Huegill",
        "col2": "Swimming at the 2004 Summer Olympics - Men's 100 metre butterfly",
        "col3": "Swimming at the 1996 Summer Olympics - Men's 100 metre butterfly"
    },
    {
        "col0": "Swimming at the 2000 Summer Olympics - Men's 100 metre breaststroke",
        "col1": "R. Sloudnov",
        "col2": "Swimming at the 2004 Summer Olympics - Men's 100 metre breaststroke",
        "col3": "Swimming at the 1996 Summer Olympics - Men's 100 metre breaststroke"
    },
    {
        "col0": "Swimming at the 2000 Summer Olympics - Men's 100 metre backstroke",
        "col1": "S. Theloke",
        "col2": "Swimming at the 2004 Summer Olympics - Men's 100 metre backstroke",
        "col3": "Swimming at the 1996 Summer Olympics - Men's 100 metre backstroke"
    },
    {
        "col0": "Swimming at the 2000 Summer Olympics - Women's 800 metre freestyle",
        "col1": "K. Sandeno",
        "col2": "Swimming at the 2004 Summer Olympics - Women's 800 metre freestyle",
        "col3": "Swimming at the 1996 Summer Olympics - Women's 800 metre freestyle"
    },
    {
        "col0": "Swimming at the 2000 Summer Olympics - Women's 50 metre freestyle",
        "col1": "D. Torres",
        "col2": "Swimming at the 2004 Summer Olympics - Women's 50 metre freestyle",
        "col3": "Swimming at the 1996 Summer Olympics - Women's 50 metre freestyle"
    },
    {
        "col0": "Swimming at the 2000 Summer Olympics - Women's 4 x 200 metre freestyle relay",
        "col1": "F. v. Almsick",
        "col2": "Swimming at the 2004 Summer Olympics - Women's 4 x 200 metre freestyle relay",
        "col3": "Swimming at the 1996 Summer Olympics - Women's 4 x 200 metre freestyle relay"
    },
    {
        "col0": "Swimming at the 2000 Summer Olympics - Women's 4 x 100 metre medley relay",
        "col1": "M. Nakamura",
        "col2": "Swimming at the 2004 Summer Olympics - Women's 4 x 100 metre medley relay",
        "col3": "Swimming at the 1996 Summer Olympics - Women's 4 x 100 metre medley relay"
    },
    {
        "col0": "Swimming at the 2000 Summer Olympics - Women's 4 x 100 metre freestyle relay",
        "col1": "A. Kammerling",
        "col2": "Swimming at the 2004 Summer Olympics - Women's 4 x 100 metre freestyle relay",
        "col3": "Swimming at the 1996 Summer Olympics - Women's 4 x 100 metre freestyle relay"
    },
    {
        "col0": "Swimming at the 2000 Summer Olympics - Women's 400 metre individual medley",
        "col1": "B. Caslaru",
        "col2": "Swimming at the 2004 Summer Olympics - Women's 400 metre individual medley",
        "col3": "Swimming at the 1996 Summer Olympics - Women's 400 metre individual medley"
    },
    {
        "col0": "Swimming at the 2000 Summer Olympics - Women's 400 metre freestyle",
        "col1": "C. Poll",
        "col2": "Swimming at the 2004 Summer Olympics - Women's 400 metre freestyle",
        "col3": "Swimming at the 1996 Summer Olympics - Women's 400 metre freestyle"
    },
    {
        "col0": "Swimming at the 2000 Summer Olympics - Women's 200 metre individual medley",
        "col1": "C. Teuscher",
        "col2": "Swimming at the 2004 Summer Olympics - Women's 200 metre individual medley",
        "col3": "Swimming at the 1996 Summer Olympics - Women's 200 metre individual medley"
    },
    {
        "col0": "Swimming at the 2000 Summer Olympics - Women's 200 metre freestyle",
        "col1": "C. Poll",
        "col2": "Swimming at the 2004 Summer Olympics - Women's 200 metre freestyle",
        "col3": "Swimming at the 1996 Summer Olympics - Women's 200 metre freestyle"
    },
    {
        "col0": "Swimming at the 2000 Summer Olympics - Women's 200 metre butterfly",
        "col1": "P. Thomas",
        "col2": "Swimming at the 2004 Summer Olympics - Women's 200 metre butterfly",
        "col3": "Swimming at the 1996 Summer Olympics - Women's 200 metre butterfly"
    },
    {
        "col0": "Swimming at the 2000 Summer Olympics - Women's 200 metre breaststroke",
        "col1": "A. Beard",
        "col2": "Swimming at the 2004 Summer Olympics - Women's 200 metre breaststroke",
        "col3": "Swimming at the 1996 Summer Olympics - Women's 200 metre breaststroke"
    },
    {
        "col0": "Swimming at the 2000 Summer Olympics - Women's 200 metre backstroke",
        "col1": "M. Nakao",
        "col2": "Swimming at the 2004 Summer Olympics - Women's 200 metre backstroke",
        "col3": "Swimming at the 1996 Summer Olympics - Women's 200 metre backstroke"
    },
    {
        "col0": "Swimming at the 2000 Summer Olympics - Women's 100 metre freestyle",
        "col1": "J. Thompson",
        "col2": "Swimming at the 2004 Summer Olympics - Women's 100 metre freestyle",
        "col3": "Swimming at the 1996 Summer Olympics - Women's 100 metre freestyle"
    },
    {
        "col0": "Swimming at the 2000 Summer Olympics - Women's 100 metre butterfly",
        "col1": "D. Torres",
        "col2": "Swimming at the 2004 Summer Olympics - Women's 100 metre butterfly",
        "col3": "Swimming at the 1996 Summer Olympics - Women's 100 metre butterfly"
    },
    {
        "col0": "Swimming at the 2000 Summer Olympics - Women's 100 metre breaststroke",
        "col1": "P. Heyns",
        "col2": "Swimming at the 2004 Summer Olympics - Women's 100 metre breaststroke",
        "col3": "Swimming at the 1996 Summer Olympics - Women's 100 metre breaststroke"
    },
    {
        "col0": "Swimming at the 2000 Summer Olympics - Women's 100 metre backstroke",
        "col1": "N. Zhivanevskaya",
        "col2": "Swimming at the 2004 Summer Olympics - Women's 100 metre backstroke",
        "col3": "Swimming at the 1996 Summer Olympics - Women's 100 metre backstroke"
    }
]