[
    {
        "col0": "E. Ohlson",
        "col1": "1873-7-19",
        "col2": "1873-7-19",
        "col3": "1934-3-20"
    },
    {
        "col0": "E. d. Bouverie",
        "col1": "1690-0-0",
        "col2": "1690-0-0",
        "col3": "1736-11-21"
    },
    {
        "col0": "E. Manningham-Buller",
        "col1": "1800-7-19",
        "col2": "1800-7-19",
        "col3": "1882-9-22"
    },
    {
        "col0": "E. M. Edgar",
        "col1": "1876-2-27",
        "col2": "1876-2-27",
        "col3": "1934-10-7"
    },
    {
        "col0": "E. Irby",
        "col1": "1676-7-31",
        "col2": "1676-7-31",
        "col3": "1718-11-11"
    },
    {
        "col0": "E. Workman-Macnaghten",
        "col1": "1790-4-1",
        "col2": "1790-4-1",
        "col3": "1876-1-6"
    },
    {
        "col0": "E. Findlay",
        "col1": "1902-6-14",
        "col2": "1902-6-14",
        "col3": "1962-9-6"
    },
    {
        "col0": "C. Ackroyd",
        "col1": "1892-9-4",
        "col2": "1892-9-4",
        "col3": "1973-4-11"
    },
    {
        "col0": "C. Ebrahim",
        "col1": "1840-10-21",
        "col2": "1840-10-21",
        "col3": "1924-9-26"
    },
    {
        "col0": "C. Cory-Wright",
        "col1": "1838-8-11",
        "col2": "1838-8-11",
        "col3": "1909-5-30"
    },
    {
        "col0": "C. Renshaw",
        "col1": "1848-12-9",
        "col2": "1848-12-9",
        "col3": "1918-3-6"
    },
    {
        "col0": "C. Jessel",
        "col1": "1860-5-11",
        "col2": "1860-5-11",
        "col3": "1928-7-15"
    },
    {
        "col0": "C. Graves-Sawle",
        "col1": "1816-10-10",
        "col2": "1816-10-10",
        "col3": "1903-4-20"
    },
    {
        "col0": "C. Gladstone",
        "col1": "1888-10-28",
        "col2": "1888-10-28",
        "col3": "1968-4-28"
    },
    {
        "col0": "C. C. Lloyd",
        "col1": "1706-1-1",
        "col2": "1706-1-1",
        "col3": "1729-2-25"
    },
    {
        "col0": "B. Beauchamp",
        "col1": "1897-5-5",
        "col2": "1897-5-5",
        "col3": "1976-8-25"
    },
    {
        "col0": "B. Waley-Cohen",
        "col1": "1914-5-29",
        "col2": "1914-5-29",
        "col3": "1991-7-3"
    },
    {
        "col0": "A. Cayzer",
        "col1": "1876-1-21",
        "col2": "1876-1-21",
        "col3": "1943-2-28"
    },
    {
        "col0": "Arthur Maxwell, 11th Baron Farnham",
        "col1": "1879-10-2",
        "col2": "1879-10-2",
        "col3": "1957-2-5"
    }
]