[
    {
        "col0": "Bahrain",
        "col1": "Manama",
        "col2": "Arabic language",
        "col3": "765000000"
    },
    {
        "col0": "Azerbaijan",
        "col1": "Baku",
        "col2": "Azerbaijani language",
        "col3": "86598842457"
    },
    {
        "col0": "Awdalland",
        "col1": "Borama",
        "col2": "Arabic language",
        "col3": "6122000000"
    },
    {
        "col0": "Autonomous Republic of Crimea",
        "col1": "Simferopol",
        "col2": "Ukrainian language",
        "col3": "25998300651"
    },
    {
        "col0": "Autonomous Province of Kosovo and Metohija",
        "col1": "Pristina",
        "col2": "Albanian language",
        "col3": "10908000000"
    },
    {
        "col0": "Austria",
        "col1": "Vienna",
        "col2": "Austrian German",
        "col3": "83878992343"
    },
    {
        "col0": "Ascension Island",
        "col1": "Georgetown, Ascension Island",
        "col2": "English language",
        "col3": "88000000"
    },
    {
        "col0": "Armenia",
        "col1": "Yerevan",
        "col2": "Armenian language",
        "col3": "29743000000"
    },
    {
        "col0": "Antigua and Barbuda",
        "col1": "St. John's, Antigua and Barbuda",
        "col2": "English language",
        "col3": "440000000"
    },
    {
        "col0": "Anjouan",
        "col1": "Mutsamudu",
        "col2": "Arabic language",
        "col3": "422168061"
    },
    {
        "col0": "Anguilla",
        "col1": "The Valley, Anguilla",
        "col2": "Kingdom of England",
        "col3": "91000000"
    },
    {
        "col0": "Angola",
        "col1": "Luanda",
        "col2": "Portuguese language",
        "col3": "1246700000000"
    },
    {
        "col0": "Andorra",
        "col1": "Andorra la Vella",
        "col2": "Catalan language",
        "col3": "467622353"
    },
    {
        "col0": "American Samoa",
        "col1": "Pago Pago",
        "col2": "American English",
        "col3": "198988786"
    },
    {
        "col0": "Algeria",
        "col1": "Algiers",
        "col2": "Arabic",
        "col3": "2381740116324"
    },
    {
        "col0": "Alderney",
        "col1": "St Anne, Alderney",
        "col2": "English language",
        "col3": "7769964"
    },
    {
        "col0": "Albania",
        "col1": "Tirana",
        "col2": "Albanian language",
        "col3": "28748000000"
    },
    {
        "col0": "Akrotiri and Dhekelia",
        "col1": "Episkopi Cantonment",
        "col2": "English language",
        "col3": "253818834"
    },
    {
        "col0": "Aerican Empire",
        "col1": "Montreal",
        "col2": "English language",
        "col3": "9000000000000"
    },
    {
        "col0": "Adjara",
        "col1": "Batumi",
        "col2": "Georgian language",
        "col3": "2880000000"
    },
    {
        "col0": "Abyei",
        "col1": "Abyei",
        "col2": "Arabic language",
        "col3": "10546000000"
    },
    {
        "col0": "Abkhazia",
        "col1": "Sukhumi",
        "col2": "Abkhaz language",
        "col3": "8660000000"
    },
    {
        "col0": "Iles des Saintes",
        "col1": "Fond-du-Cure, les Saintes",
        "col2": "French language",
        "col3": "12690941"
    },
    {
        "col0": "Aland Islands",
        "col1": "Mariehamn",
        "col2": "Swedish language",
        "col3": "1579892747"
    }
]