[
    {
        "col0": "Yamate Tunnel",
        "col1": "2",
        "col2": "60",
        "col3": "1030"
    },
    {
        "col0": "Ted Williams Tunnel",
        "col1": "3",
        "col2": "72",
        "col3": "3"
    },
    {
        "col0": "Sumner Tunnel",
        "col1": "2",
        "col2": "64",
        "col3": "3"
    },
    {
        "col0": "Qingdao Jiaozhou Bay tunnel",
        "col1": "6",
        "col2": "80",
        "col3": "30"
    },
    {
        "col0": "Midtown Tunnel",
        "col1": "4",
        "col2": "56",
        "col3": "1"
    },
    {
        "col0": "Lion Rock Tunnel",
        "col1": "2",
        "col2": "70",
        "col3": "8"
    },
    {
        "col0": "Legacy Way",
        "col1": "4",
        "col2": "80",
        "col3": "3"
    },
    {
        "col0": "Lane Cove Tunnel",
        "col1": "4",
        "col2": "80",
        "col3": "3"
    },
    {
        "col0": "Gleinalm Tunnel",
        "col1": "2",
        "col2": "80",
        "col3": "8"
    },
    {
        "col0": "Fort McHenry Tunnel",
        "col1": "8",
        "col2": "88",
        "col3": "4"
    },
    {
        "col0": "Eurasia Tunnel",
        "col1": "2",
        "col2": "70",
        "col3": "4"
    },
    {
        "col0": "Downtown Tunnel",
        "col1": "4",
        "col2": "56",
        "col3": "1"
    },
    {
        "col0": "Cross City Tunnel",
        "col1": "4",
        "col2": "80",
        "col3": "5"
    },
    {
        "col0": "Clem Jones Tunnel",
        "col1": "4",
        "col2": "80",
        "col3": "1"
    },
    {
        "col0": "Aberdeen Tunnel",
        "col1": "4",
        "col2": "70",
        "col3": "5"
    }
]