[
    {
        "col0": "Ukrainian submarine Zaporizhzhia",
        "col1": "Sevastopol",
        "col2": "1970-03-23",
        "col3": "1970-06-29"
    },
    {
        "col0": "Ukrainian corvette Lutsk",
        "col1": "Crimea",
        "col2": "1991-01-11",
        "col3": "1993-05-22"
    },
    {
        "col0": "USS Zeal",
        "col1": "Long Beach, California",
        "col2": "1942-01-12",
        "col3": "1942-09-15"
    },
    {
        "col0": "USS Yazoo",
        "col1": "Charleston, South Carolina",
        "col2": "1944-07-06",
        "col3": "1944-10-18"
    },
    {
        "col0": "USS Yancey",
        "col1": "Norfolk, Virginia",
        "col2": "1944-05-22",
        "col3": "1944-07-08"
    },
    {
        "col0": "USS Wyoming",
        "col1": "Georgia",
        "col2": "1991-08-08",
        "col3": "1995-07-15"
    },
    {
        "col0": "USS William P. Lawrence",
        "col1": "Naval Base San Diego",
        "col2": "2008-09-16",
        "col3": "2009-12-15"
    },
    {
        "col0": "USS William H. Standley",
        "col1": "Naval Station Mayport",
        "col2": "1963-07-29",
        "col3": "1964-12-19"
    },
    {
        "col0": "USS Whirlwind",
        "col1": "Manama, Bahrain",
        "col2": "1994-03-04",
        "col3": "1994-09-09"
    },
    {
        "col0": "USS Whidbey Island",
        "col1": "Virginia",
        "col2": "1981-08-04",
        "col3": "1983-06-10"
    },
    {
        "col0": "USS Wheeling",
        "col1": "New York City",
        "col2": "1896-04-11",
        "col3": "1897-03-18"
    },
    {
        "col0": "USS West Virginia",
        "col1": "Georgia",
        "col2": "1987-12-24",
        "col3": "1989-10-14"
    },
    {
        "col0": "USS Wayne E. Meyer",
        "col1": "Naval Base San Diego",
        "col2": "2007-05-18",
        "col3": "2008-10-19"
    },
    {
        "col0": "USS Waxsaw",
        "col1": "Tiburon, California",
        "col2": "1944-05-01",
        "col3": "1944-09-15"
    },
    {
        "col0": "USS Watchman",
        "col1": "San Francisco, California",
        "col2": "1945-01-17",
        "col3": "1945-02-20"
    },
    {
        "col0": "USS Wasp",
        "col1": "Naval Station Norfolk",
        "col2": "1985-05-30",
        "col3": "1987-08-04"
    },
    {
        "col0": "USS Warrington",
        "col1": "Newport, Rhode Island",
        "col2": "1945-04-23",
        "col3": "1945-09-27"
    },
    {
        "col0": "USS Wadsworth",
        "col1": "Naval Base San Diego",
        "col2": "1977-07-13",
        "col3": "1978-07-29"
    },
    {
        "col0": "USS Virginia",
        "col1": "Groton, Connecticut",
        "col2": "1999-09-02",
        "col3": "2003-08-16"
    },
    {
        "col0": "USS Vigil",
        "col1": "Davisville, Rhode Island",
        "col2": "1944-12-14",
        "col3": "1945-01-27"
    },
    {
        "col0": "USS Vicksburg",
        "col1": "Naval Station Mayport",
        "col2": "1990-05-30",
        "col3": "1991-09-07"
    },
    {
        "col0": "USS Venture",
        "col1": "Charleston, South Carolina",
        "col2": "1955-01-11",
        "col3": "1956-11-27"
    },
    {
        "col0": "USS Vella Gulf",
        "col1": "Virginia",
        "col2": "1991-04-22",
        "col3": "1992-06-13"
    },
    {
        "col0": "USS Vandegrift",
        "col1": "Naval Base San Diego",
        "col2": "1981-10-13",
        "col3": "1982-10-15"
    },
    {
        "col0": "USS Underwood",
        "col1": "Florida",
        "col2": "1981-07-30",
        "col3": "1982-02-06"
    },
    {
        "col0": "USS Typhoon",
        "col1": "Bahrain",
        "col2": "1992-05-15",
        "col3": "1993-03-03"
    },
    {
        "col0": "USS Tunxis",
        "col1": "Tiburon, California",
        "col2": "1944-05-02",
        "col3": "1944-08-18"
    },
    {
        "col0": "USS Tunny",
        "col1": "Hawaii",
        "col2": "1970-05-22",
        "col3": "1972-06-10"
    },
    {
        "col0": "USS Tucson",
        "col1": "Pearl Harbor",
        "col2": "1991-08-15",
        "col3": "1994-03-20"
    },
    {
        "col0": "USS Truxtun",
        "col1": "Naval Station Norfolk",
        "col2": "2005-04-11",
        "col3": "2007-04-17"
    },
    {
        "col0": "USS Triton",
        "col1": "Norfolk, Virginia",
        "col2": "1956-05-29",
        "col3": "1958-08-19"
    },
    {
        "col0": "USS Trenton",
        "col1": "Norfolk, Virginia",
        "col2": "1966-08-08",
        "col3": "1968-08-03"
    },
    {
        "col0": "USS Tracer",
        "col1": "San Francisco, California",
        "col2": "1944-12-24",
        "col3": "1945-01-31"
    },
    {
        "col0": "USS Tortuga",
        "col1": "Virginia",
        "col2": "1987-03-23",
        "col3": "1988-09-15"
    },
    {
        "col0": "USS Tornado",
        "col1": "Florida",
        "col2": "1998-08-25",
        "col3": "1999-06-07"
    },
    {
        "col0": "USS Torchwood",
        "col1": "San Pedro, California",
        "col2": "1943-06-02",
        "col3": "1944-02-19"
    },
    {
        "col0": "USS Topeka",
        "col1": "Naval Base Guam",
        "col2": "1986-05-13",
        "col3": "1988-01-23"
    },
    {
        "col0": "USS Tonawanda",
        "col1": "Tiburon, California",
        "col2": "1944-09-12",
        "col3": "1944-11-14"
    },
    {
        "col0": "USS Toledo",
        "col1": "Groton, Connecticut",
        "col2": "1991-05-06",
        "col3": "1993-08-28"
    },
    {
        "col0": "USS Tinian",
        "col1": "California",
        "col2": "1945-03-20",
        "col3": "1945-09-05"
    },
    {
        "col0": "USS Tills",
        "col1": "Maine",
        "col2": "1943-06-23",
        "col3": "1943-10-03"
    },
    {
        "col0": "USS Thunderbolt",
        "col1": "Naval Support Activity Bahrain",
        "col2": "1994-06-09",
        "col3": "1994-12-02"
    },
    {
        "col0": "USS Thrush",
        "col1": "Key West, Florida",
        "col2": "1954-05-05",
        "col3": "1955-01-05"
    },
    {
        "col0": "USS Thomas S. Gates",
        "col1": "Norfolk, Virginia",
        "col2": "1984-08-31",
        "col3": "1985-12-14"
    },
    {
        "col0": "USS Theodore Roosevelt",
        "col1": "Hawaii",
        "col2": "1958-05-20",
        "col3": "1959-10-03"
    },
    {
        "col0": "USS Theodore Roosevelt",
        "col1": "NAS North Island",
        "col2": "1981-10-31",
        "col3": "1984-10-27"
    },
    {
        "col0": "USS The Sullivans",
        "col1": "Florida",
        "col2": "1994-07-27",
        "col3": "1995-08-12"
    },
    {
        "col0": "USS Thach",
        "col1": "Naval Base San Diego",
        "col2": "1981-03-06",
        "col3": "1982-12-18"
    },
    {
        "col0": "USS Texas",
        "col1": "Pearl Harbor Naval Shipyard",
        "col2": "2002-07-12",
        "col3": "2005-04-09"
    },
    {
        "col0": "USS Tennessee",
        "col1": "Georgia",
        "col2": "1986-06-09",
        "col3": "1986-12-13"
    },
    {
        "col0": "USS Tempest",
        "col1": "Naval Support Activity Bahrain",
        "col2": "1991-09-30",
        "col3": "1992-04-04"
    },
    {
        "col0": "USS Teak",
        "col1": "San Francisco, California",
        "col2": "1940-10-25",
        "col3": "1941-07-07"
    },
    {
        "col0": "USS Teaberry",
        "col1": "San Francisco, California",
        "col2": "1940-10-25",
        "col3": "1941-05-24"
    },
    {
        "col0": "USS Taurus",
        "col1": "Key West, Fl",
        "col2": "1979-01-30",
        "col3": "1981-05-08"
    },
    {
        "col0": "USS Tarawa",
        "col1": "Naval Base San Diego",
        "col2": "1971-11-15",
        "col3": "1973-12-01"
    },
    {
        "col0": "USS Taconic",
        "col1": "Naval Station Norfolk",
        "col2": "1944-12-19",
        "col3": "1945-02-10"
    },
    {
        "col0": "USS Tacoma",
        "col1": "Little Creek, Virginia",
        "col2": "1967-07-24",
        "col3": "1968-04-13"
    },
    {
        "col0": "USS Sturdy",
        "col1": "Charleston, South Carolina",
        "col2": "1954-10-15",
        "col3": "1956-01-28"
    },
    {
        "col0": "USS Stout",
        "col1": "Virginia",
        "col2": "1991-08-08",
        "col3": "1992-10-16"
    },
    {
        "col0": "USS Stockdale",
        "col1": "Naval Base San Diego",
        "col2": "2006-08-10",
        "col3": "2008-02-24"
    },
    {
        "col0": "USS Stethem",
        "col1": "United States Fleet Activities Yokosuka",
        "col2": "1993-05-11",
        "col3": "1994-06-17"
    },
    {
        "col0": "USS Sterett",
        "col1": "Naval Base San Diego",
        "col2": "2005-11-17",
        "col3": "2007-05-19"
    },
    {
        "col0": "USS Sterett",
        "col1": "Naval Base San Diego",
        "col2": "1962-09-25",
        "col3": "1964-06-30"
    },
    {
        "col0": "USS Stephen W. Groves",
        "col1": "Mayport Naval Station",
        "col2": "1980-09-16",
        "col3": "1981-04-04"
    },
    {
        "col0": "USS Stark",
        "col1": "Naval Station Mayport",
        "col2": "1979-08-24",
        "col3": "1980-05-30"
    },
    {
        "col0": "USS Stalwart",
        "col1": "Charleston, South Carolina",
        "col2": "1954-06-22",
        "col3": "1955-12-03"
    },
    {
        "col0": "USS St. Clair County",
        "col1": "San Diego",
        "col2": "1944-11-27",
        "col3": "1945-01-10"
    },
    {
        "col0": "USS Squall",
        "col1": "Naval Support Activity Bahrain",
        "col2": "1993-02-17",
        "col3": "1993-08-28"
    },
    {
        "col0": "USS Spruance",
        "col1": "Florida",
        "col2": "1972-11-27",
        "col3": "1973-11-10"
    },
    {
        "col0": "USS Springfield",
        "col1": "Groton, Connecticut",
        "col2": "1990-01-29",
        "col3": "1992-01-04"
    },
    {
        "col0": "USS Spadefish",
        "col1": "Virginia",
        "col2": "1966-12-21",
        "col3": "1968-05-15"
    },
    {
        "col0": "USS Southerland",
        "col1": "California",
        "col2": "1944-05-27",
        "col3": "1944-10-05"
    },
    {
        "col0": "USS Somerset",
        "col1": "San Diego, California",
        "col2": "2009-12-11",
        "col3": "2012-04-14"
    },
    {
        "col0": "USS Skywatcher",
        "col1": "Newport, Rhode Island",
        "col2": "1944-11-30",
        "col3": "1945-01-16"
    },
    {
        "col0": "USS Simpson",
        "col1": "Naval Station Mayport",
        "col2": "1984-02-27",
        "col3": "1984-08-31"
    },
    {
        "col0": "USS Silverleaf",
        "col1": "Melville, Rhode Island",
        "col2": "1943-02-03",
        "col3": "1943-12-11"
    },
    {
        "col0": "USS Sides",
        "col1": "Naval Station San Diego",
        "col2": "1978-08-07",
        "col3": "1979-05-19"
    },
    {
        "col0": "USS Siboney",
        "col1": "Norfolk, Virginia",
        "col2": "1944-04-01",
        "col3": "1944-11-09"
    },
    {
        "col0": "USS Shoup",
        "col1": "Naval Station Everett",
        "col2": "1999-12-13",
        "col3": "2000-11-22"
    },
    {
        "col0": "USS Shiloh",
        "col1": "Japan",
        "col2": "1989-08-01",
        "col3": "1990-09-08"
    },
    {
        "col0": "USS Shamal",
        "col1": "Jacksonville, Florida",
        "col2": "1994-09-23",
        "col3": "1995-03-03"
    },
    {
        "col0": "USS Shakamaxon",
        "col1": "Tiburon, California",
        "col2": "1944-06-30",
        "col3": "1944-09-09"
    },
    {
        "col0": "USS Sentry",
        "col1": "Bahrain",
        "col2": "1984-10-08",
        "col3": "1986-09-20"
    },
    {
        "col0": "USS Seawolf",
        "col1": "Bremerton, Washington",
        "col2": "1989-10-25",
        "col3": "1995-06-24"
    }
]