[
    {
        "col0": "Oraefajokull",
        "col1": "Iceland",
        "col2": "Iceland",
        "col3": "1727"
    },
    {
        "col0": "Zuni-Bandera volcanic field",
        "col1": "Cibola County, New Mexico",
        "col2": "New Mexico",
        "col3": "-1170"
    },
    {
        "col0": "Zubair Group",
        "col1": "Red Sea",
        "col2": "Red Sea",
        "col3": "2013"
    },
    {
        "col0": "Zhupanovsky",
        "col1": "Kamchatka Peninsula",
        "col2": "Kamchatka Peninsula",
        "col3": "2014"
    },
    {
        "col0": "Zheltovsky",
        "col1": "Kamchatka Peninsula",
        "col2": "Kamchatka Peninsula",
        "col3": "1923"
    },
    {
        "col0": "Zavodovski Island",
        "col1": "United Kingdom",
        "col2": "United Kingdom",
        "col3": "2014"
    },
    {
        "col0": "Zavaritski Caldera",
        "col1": "Kuril Islands",
        "col2": "Kuril Islands",
        "col3": "1957"
    },
    {
        "col0": "Yucca Mountain",
        "col1": "United States",
        "col2": "United States",
        "col3": "80"
    },
    {
        "col0": "Yucamane",
        "col1": "Peru",
        "col2": "Peru",
        "col3": "1902"
    },
    {
        "col0": "Yelovsky",
        "col1": "Kamchatka Peninsula",
        "col2": "Kamchatka Peninsula",
        "col3": "-7550"
    },
    {
        "col0": "Yellowstone Caldera",
        "col1": "United States",
        "col2": "United States",
        "col3": "70"
    },
    {
        "col0": "Yanteles",
        "col1": "Chile",
        "col2": "Chile",
        "col3": "-6650"
    },
    {
        "col0": "Yantarni Volcano",
        "col1": "Alaska",
        "col2": "Alaska",
        "col3": "-800"
    },
    {
        "col0": "Wizard Island",
        "col1": "Oregon",
        "col2": "Oregon",
        "col3": "-4600"
    },
    {
        "col0": "Williams Cone",
        "col1": "British Columbia",
        "col2": "British Columbia",
        "col3": "1340"
    },
    {
        "col0": "White Horse Bluff",
        "col1": "British Columbia",
        "col2": "British Columbia",
        "col3": "500"
    },
    {
        "col0": "Whakaari / White Island",
        "col1": "New Zealand",
        "col2": "New Zealand",
        "col3": "2016"
    },
    {
        "col0": "West Mata",
        "col1": "Samoan Islands",
        "col2": "Samoan Islands",
        "col3": "2008"
    },
    {
        "col0": "West Crater",
        "col1": "Washington",
        "col2": "Washington",
        "col3": "-5750"
    },
    {
        "col0": "Wells Gray-Clearwater volcanic field",
        "col1": "British Columbia",
        "col2": "British Columbia",
        "col3": "1550"
    },
    {
        "col0": "Watts Point volcanic centre",
        "col1": "British Columbia",
        "col2": "British Columbia",
        "col3": "90"
    },
    {
        "col0": "Waiowa",
        "col1": "New Guinea",
        "col2": "New Guinea",
        "col3": "1943"
    },
    {
        "col0": "Waianae Range",
        "col1": "Hawaii",
        "col2": "Hawaii",
        "col3": "2"
    },
    {
        "col0": "Vysoky",
        "col1": "Kamchatka Peninsula",
        "col2": "Kamchatka Peninsula",
        "col3": "-550"
    },
    {
        "col0": "Vulsini",
        "col1": "Italy",
        "col2": "Italy",
        "col3": "-104"
    },
    {
        "col0": "Vulcano",
        "col1": "Italy",
        "col2": "Italy",
        "col3": "1888"
    },
    {
        "col0": "Vulcan",
        "col1": "Papua New Guinea",
        "col2": "Papua New Guinea",
        "col3": "1994"
    },
    {
        "col0": "Vulcan",
        "col1": "US",
        "col2": "New Mexico",
        "col3": "150"
    },
    {
        "col0": "Volcan de Fuego",
        "col1": "Guatemala",
        "col2": "Guatemala",
        "col3": "2002"
    },
    {
        "col0": "Volcan de Colima",
        "col1": "Colima",
        "col2": "Jalisco",
        "col3": "2014"
    },
    {
        "col0": "Volcan Wolf",
        "col1": "Galapagos Islands",
        "col2": "Galapagos Islands",
        "col3": "2015"
    },
    {
        "col0": "Volcan Tacana",
        "col1": "Guatemala",
        "col2": "Guatemala",
        "col3": "1986"
    },
    {
        "col0": "Volcan Ecuador",
        "col1": "Galapagos Islands",
        "col2": "Galapagos Islands",
        "col3": "1150"
    },
    {
        "col0": "Volcan Barcena",
        "col1": "Mexico",
        "col2": "Mexico",
        "col3": "1952"
    },
    {
        "col0": "Volcan Baru",
        "col1": "Panama",
        "col2": "Panama",
        "col3": "1550"
    },
    {
        "col0": "Volcan Atitlan",
        "col1": "Solola Department",
        "col2": "Guatemala",
        "col3": "1853"
    },
    {
        "col0": "Volcan Rumoka",
        "col1": "Nord-Kivu",
        "col2": "Democratic Republic of the Congo",
        "col3": "1977"
    },
    {
        "col0": "Volcan de Fuego",
        "col1": "Guatemala",
        "col2": "Guatemala",
        "col3": "2002"
    },
    {
        "col0": "Volcan de Colima",
        "col1": "Jalisco",
        "col2": "Jalisco",
        "col3": "2014"
    },
    {
        "col0": "Volcan Wolf",
        "col1": "Galapagos Islands",
        "col2": "Isabela Island",
        "col3": "2015"
    },
    {
        "col0": "Volcan Tacana",
        "col1": "Mexico",
        "col2": "Mexico",
        "col3": "1986"
    },
    {
        "col0": "Volcan Ecuador",
        "col1": "Isabela Island",
        "col2": "Galapagos Islands",
        "col3": "1150"
    },
    {
        "col0": "Volcan Baru",
        "col1": "Panama",
        "col2": "Panama",
        "col3": "1550"
    },
    {
        "col0": "Volcan Barcena",
        "col1": "Mexico",
        "col2": "Mexico",
        "col3": "1952"
    },
    {
        "col0": "Volcan Atitlan",
        "col1": "Guatemala",
        "col2": "Guatemala",
        "col3": "1853"
    },
    {
        "col0": "Vilyuchik",
        "col1": "Kamchatka Peninsula",
        "col2": "Kamchatka Peninsula",
        "col3": "-8050"
    },
    {
        "col0": "Villarrica",
        "col1": "Chile",
        "col2": "Chile",
        "col3": "2014"
    },
    {
        "col0": "Viedma",
        "col1": "Argentina",
        "col2": "Argentina",
        "col3": "1988"
    },
    {
        "col0": "Victory",
        "col1": "Papua New Guinea",
        "col2": "New Guinea",
        "col3": "1890"
    },
    {
        "col0": "Vatnafjoll",
        "col1": "Iceland",
        "col2": "Iceland",
        "col3": "1200"
    },
    {
        "col0": "Valles Caldera",
        "col1": "United States of America",
        "col2": "United States of America",
        "col3": "50"
    },
    {
        "col0": "Uzon",
        "col1": "Kamchatka Peninsula",
        "col2": "Kamchatka Peninsula",
        "col3": "200"
    },
    {
        "col0": "Uturunku",
        "col1": "San Pablo de Lipez Municipality",
        "col2": "Potosi Department",
        "col3": "271"
    },
    {
        "col0": "Ushkovsky",
        "col1": "Kamchatka Peninsula",
        "col2": "Kamchatka Peninsula",
        "col3": "1890"
    },
    {
        "col0": "Unnamed volcano",
        "col1": "Luzon Strait",
        "col2": "Luzon Strait",
        "col3": "1854"
    },
    {
        "col0": "Unnamed Syrian Volcanic Field",
        "col1": "Syria",
        "col2": "Syria",
        "col3": "1222"
    },
    {
        "col0": "Ulawun",
        "col1": "Papua New Guinea",
        "col2": "Papua New Guinea",
        "col3": "2013"
    },
    {
        "col0": "Ukinrek Maars",
        "col1": "Alaska",
        "col2": "Alaska",
        "col3": "1977"
    },
    {
        "col0": "Uinkaret volcanic field",
        "col1": "Arizona",
        "col2": "Arizona",
        "col3": "1100"
    },
    {
        "col0": "Ugashik-Peulik",
        "col1": "Alaska",
        "col2": "Alaska",
        "col3": "1814"
    },
    {
        "col0": "Ubinas",
        "col1": "Peru",
        "col2": "Peru",
        "col3": "2015"
    },
    {
        "col0": "Tyatya",
        "col1": "Kuril Islands",
        "col2": "Kuril Islands",
        "col3": "1981"
    },
    {
        "col0": "Tweed Volcano",
        "col1": "New South Wales",
        "col2": "New South Wales",
        "col3": "23"
    },
    {
        "col0": "Tutupaca",
        "col1": "Peru",
        "col2": "Peru",
        "col3": "1802"
    },
    {
        "col0": "Turrialba Volcano",
        "col1": "Costa Rica",
        "col2": "Costa Rica",
        "col3": "2016"
    },
    {
        "col0": "Turfan volcano",
        "col1": "Xinjiang",
        "col2": "Xinjiang",
        "col3": "1120"
    },
    {
        "col0": "Tupungatito",
        "col1": "Argentina",
        "col2": "Argentina",
        "col3": "1987"
    },
    {
        "col0": "Tungurahua",
        "col1": "Ecuador",
        "col2": "Ecuador",
        "col3": "2010"
    },
    {
        "col0": "Tskhouk-Karckar",
        "col1": "Armenia",
        "col2": "Armenia",
        "col3": "-3000"
    },
    {
        "col0": "Tseax Cone",
        "col1": "British Columbia",
        "col2": "British Columbia",
        "col3": "1690"
    },
    {
        "col0": "Trolladyngja",
        "col1": "Iceland",
        "col2": "Iceland",
        "col3": "5000"
    },
    {
        "col0": "Trout Creek Hill",
        "col1": "Washington",
        "col2": "Washington",
        "col3": "340"
    },
    {
        "col0": "Tromen",
        "col1": "Argentina",
        "col2": "Argentina",
        "col3": "1822"
    },
    {
        "col0": "Trimble Knob",
        "col1": "Monterey, Virginia",
        "col2": "Monterey, Virginia",
        "col3": "35"
    },
    {
        "col0": "Trident Volcano",
        "col1": "Alaska",
        "col2": "Alaska",
        "col3": "1974"
    },
    {
        "col0": "Trolladyngja",
        "col1": "Iceland",
        "col2": "Iceland",
        "col3": "5000"
    },
    {
        "col0": "Torfajokull",
        "col1": "Iceland",
        "col2": "Iceland",
        "col3": "1477"
    },
    {
        "col0": "Tor Zawar",
        "col1": "Pakistan",
        "col2": "Pakistan",
        "col3": "2010"
    },
    {
        "col0": "Tolmachev Dol",
        "col1": "Kamchatka Peninsula",
        "col2": "Kamchatka Peninsula",
        "col3": "300"
    },
    {
        "col0": "Tolbachik",
        "col1": "Kamchatka Peninsula",
        "col2": "Kamchatka Peninsula",
        "col3": "2012"
    },
    {
        "col0": "Tofua",
        "col1": "Tonga",
        "col2": "Tonga",
        "col3": "2004"
    },
    {
        "col0": "Tjornes",
        "col1": "Atlantic Ocean",
        "col2": "Atlantic Ocean",
        "col3": "1867"
    },
    {
        "col0": "Titila",
        "col1": "Kamchatka Peninsula",
        "col2": "Russia",
        "col3": "-550"
    },
    {
        "col0": "Tinguiririca Volcano",
        "col1": "Chile",
        "col2": "Chile",
        "col3": "1917"
    },
    {
        "col0": "Tinakula",
        "col1": "Solomon Islands",
        "col2": "Solomon Islands",
        "col3": "2008"
    },
    {
        "col0": "Ticsani",
        "col1": "Moquegua Region",
        "col2": "Moquegua Region",
        "col3": "1800"
    },
    {
        "col0": "Tianshan Volcanic Group",
        "col1": "China",
        "col2": "China",
        "col3": "650"
    },
    {
        "col0": "Three Sisters",
        "col1": "Oregon",
        "col2": "Oregon",
        "col3": "-50"
    },
    {
        "col0": "The Volcano",
        "col1": "British Columbia",
        "col2": "British Columbia",
        "col3": "1800"
    },
    {
        "col0": "The Quill",
        "col1": "Caribbean Netherlands",
        "col2": "Caribbean Netherlands",
        "col3": "250"
    },
    {
        "col0": "Tequila Volcano",
        "col1": "Jalisco",
        "col2": "Jalisco",
        "col3": "200"
    },
    {
        "col0": "Teneguia",
        "col1": "Canary Islands",
        "col2": "Canary Islands",
        "col3": "1971"
    },
    {
        "col0": "Telica",
        "col1": "Nicaragua",
        "col2": "Nicaragua",
        "col3": "2015"
    },
    {
        "col0": "Teide",
        "col1": "Spain",
        "col2": "Spain",
        "col3": "1909"
    },
    {
        "col0": "Tecuamburro",
        "col1": "Guatemala",
        "col2": "Guatemala",
        "col3": "-960"
    },
    {
        "col0": "Tavurvur",
        "col1": "Papua New Guinea",
        "col2": "Papua New Guinea",
        "col3": "2014"
    },
    {
        "col0": "Taunshits",
        "col1": "Kamchatka Peninsula",
        "col2": "Kamchatka Peninsula",
        "col3": "-550"
    },
    {
        "col0": "Tao-Rusyr Caldera",
        "col1": "Kuril Islands",
        "col2": "Kuril Islands",
        "col3": "1952"
    },
    {
        "col0": "Tangkuban Perahu",
        "col1": "Dutch East Indies",
        "col2": "Dutch East Indies",
        "col3": "2015"
    },
    {
        "col0": "Tanaga",
        "col1": "Alaska",
        "col2": "Alaska",
        "col3": "1914"
    },
    {
        "col0": "Taapaca",
        "col1": "Chile",
        "col2": "Chile",
        "col3": "-320"
    }
]