[
    {
        "col0": "Vranov nad Dyji Chateau",
        "col1": "Znojmo District",
        "col2": "Znojmo District",
        "col3": "Znojmo District",
        "col4": "Znojmo District",
        "col5": "312"
    },
    {
        "col0": "Sloup",
        "col1": "Sloup v Cechach",
        "col2": "Sloup v Cechach",
        "col3": "Sloup v Cechach",
        "col4": "Sloup v Cechach",
        "col5": "293"
    },
    {
        "col0": "Schwarzenburg",
        "col1": "Baden-Wurttemberg",
        "col2": "Baden-Wurttemberg",
        "col3": "Baden-Wurttemberg",
        "col4": "Baden-Wurttemberg",
        "col5": "656"
    },
    {
        "col0": "Radyne Castle",
        "col1": "Plzen",
        "col2": "Plzen",
        "col3": "Plzen",
        "col4": "Plzen",
        "col5": "566"
    },
    {
        "col0": "Loket Castle",
        "col1": "Sokolov District",
        "col2": "Sokolov District",
        "col3": "Sokolov District",
        "col4": "Sokolov District",
        "col5": "427"
    },
    {
        "col0": "Katzenelnbogen",
        "col1": "Rhein-Lahn-Kreis",
        "col2": "Rhein-Lahn-Kreis",
        "col3": "Rhein-Lahn-Kreis",
        "col4": "Rhein-Lahn-Kreis",
        "col5": "280"
    },
    {
        "col0": "Kastelburg",
        "col1": "Baden-Wurttemberg",
        "col2": "Baden-Wurttemberg",
        "col3": "Baden-Wurttemberg",
        "col4": "Baden-Wurttemberg",
        "col5": "363"
    },
    {
        "col0": "Hohenstein Castle",
        "col1": "Bavaria",
        "col2": "Bavaria",
        "col3": "Bavaria",
        "col4": "Bavaria",
        "col5": "917"
    },
    {
        "col0": "Fort of Nossa Senhora da Rocha",
        "col1": "Faro",
        "col2": "Faro",
        "col3": "Faro",
        "col4": "Faro",
        "col5": "7"
    },
    {
        "col0": "Castle of the Moors",
        "col1": "Lisbon",
        "col2": "Lisbon",
        "col3": "Lisbon",
        "col4": "Lisbon",
        "col5": "420"
    },
    {
        "col0": "Castle of Vila Vicosa",
        "col1": "Evora",
        "col2": "Evora",
        "col3": "Evora",
        "col4": "Evora",
        "col5": "400"
    },
    {
        "col0": "Castle of Vidigueira",
        "col1": "Beja",
        "col2": "Beja",
        "col3": "Beja",
        "col4": "Beja",
        "col5": "221"
    },
    {
        "col0": "Castle of Viana do Alentejo",
        "col1": "Evora",
        "col2": "Evora",
        "col3": "Evora",
        "col4": "Evora",
        "col5": "255"
    },
    {
        "col0": "Castle of Silves",
        "col1": "Faro",
        "col2": "Faro",
        "col3": "Faro",
        "col4": "Faro",
        "col5": "61"
    }
]