[
    {
        "col0": "V. Gorbunov",
        "col1": "New York Islanders",
        "col2": "Moscow",
        "col3": "Torpedo Nizhny Novgorod",
        "col4": "1982-04-22"
    },
    {
        "col0": "V. Bobylev",
        "col1": "Toronto Maple Leafs",
        "col2": "Russia",
        "col3": "HC Spartak Moscow",
        "col4": "1997-04-18"
    },
    {
        "col0": "V. Antipov",
        "col1": "Toronto Maple Leafs",
        "col2": "Russia",
        "col3": "CSKA Sofia",
        "col4": "1978-01-14"
    },
    {
        "col0": "V. Sobotka",
        "col1": "Boston Bruins",
        "col2": "Czechoslovakia",
        "col3": "Avangard Omsk",
        "col4": "1987-07-02"
    },
    {
        "col0": "V. Ruzicka",
        "col1": "Phoenix Coyotes",
        "col2": "Most",
        "col3": "Pirati Chomutov",
        "col4": "1989-02-17"
    },
    {
        "col0": "V. Mihalik",
        "col1": "Tampa Bay Lightning",
        "col2": "Czechoslovakia",
        "col3": "HC Slovan Bratislava",
        "col4": "1987-01-29"
    },
    {
        "col0": "V. Atyushov",
        "col1": "Ottawa Senators",
        "col2": "Soviet Union",
        "col3": "Amur Khabarovsk",
        "col4": "1979-07-04"
    },
    {
        "col0": "V. Abramov",
        "col1": "Columbus Blue Jackets",
        "col2": "Russia",
        "col3": "Gatineau Olympiques",
        "col4": "1998-05-08"
    },
    {
        "col0": "V. Yeremeyev",
        "col1": "New York Rangers",
        "col2": "Soviet Union",
        "col3": "Barys Astana",
        "col4": "1975-09-23"
    },
    {
        "col0": "V. Yachmenev",
        "col1": "Los Angeles Kings",
        "col2": "Soviet Union",
        "col3": "HC Dynamo Moscow",
        "col4": "1975-01-08"
    },
    {
        "col0": "V. Trocheck",
        "col1": "Florida Panthers",
        "col2": "Pittsburgh",
        "col3": "Florida Panthers",
        "col4": "1993-07-11"
    },
    {
        "col0": "V. Hinostroza",
        "col1": "Chicago Blackhawks",
        "col2": "United States",
        "col3": "Chicago Blackhawks",
        "col4": "1994-04-03"
    },
    {
        "col0": "V. Pokka",
        "col1": "New York Islanders",
        "col2": "Tornio",
        "col3": "Chicago Blackhawks",
        "col4": "1994-06-03"
    },
    {
        "col0": "V. Mantymaa",
        "col1": "Anaheim Ducks",
        "col2": "Finland",
        "col3": "Frolunda HC",
        "col4": "1985-03-08"
    },
    {
        "col0": "V. Hamalainen",
        "col1": "Calgary Flames",
        "col2": "Finland",
        "col3": "SaiPa",
        "col4": "1981-07-06"
    },
    {
        "col0": "V. Husso",
        "col1": "St. Louis Blues",
        "col2": "Finland",
        "col3": "St. Louis Blues",
        "col4": "1995-02-06"
    },
    {
        "col0": "V. Hostikka",
        "col1": "Philadelphia Flyers",
        "col2": "Lappeenranta",
        "col3": "HC Slovan Bratislava",
        "col4": "1985-03-21"
    },
    {
        "col0": "V. Hamalainen",
        "col1": "Calgary Flames",
        "col2": "Finland",
        "col3": "SaiPa",
        "col4": "1981-07-06"
    },
    {
        "col0": "V. Sopanen",
        "col1": "New Jersey Devils",
        "col2": "Finland",
        "col3": "Lahti Pelicans",
        "col4": "1987-10-21"
    }
]