[
    {
        "col0": "Bulletin of the American Museum of Natural History",
        "col1": "American Museum of Natural History",
        "col2": "1881",
        "col3": "0003-0090",
        "col4": "BUMNAE",
        "col5": "1287364"
    },
    {
        "col0": "Bulletin of Materials Science",
        "col1": "Springer Science+Business Media",
        "col2": "1979",
        "col3": "0250-4707",
        "col4": "BUMSDW",
        "col5": "7821397"
    },
    {
        "col0": "Building Services Engineering Research and Technology",
        "col1": "Sage Publications",
        "col2": "1980",
        "col3": "0143-6244",
        "col4": "BSETDF",
        "col5": "7859922"
    },
    {
        "col0": "British Medical Bulletin",
        "col1": "Oxford University Press",
        "col2": "1943",
        "col3": "0007-1420",
        "col4": "BMBUAQ",
        "col5": "855519"
    },
    {
        "col0": "British Journal of Social Psychology",
        "col1": "Wiley-Blackwell",
        "col2": "1962",
        "col3": "0144-6665",
        "col4": "BJSPDA",
        "col5": "475047529"
    },
    {
        "col0": "British Journal of Psychiatry",
        "col1": "Royal College of Psychiatrists",
        "col2": "1853",
        "col3": "0007-1250",
        "col4": "BJPYAJ",
        "col5": "1537306"
    },
    {
        "col0": "British Journal of Pharmacology",
        "col1": "Wiley-Blackwell",
        "col2": "1946",
        "col3": "0007-1188",
        "col4": "BJPCBM",
        "col5": "1240522"
    },
    {
        "col0": "British Journal of Ophthalmology",
        "col1": "BMJ Publishing Group",
        "col2": "1917",
        "col3": "0007-1161",
        "col4": "BJOPAL",
        "col5": "290631715"
    },
    {
        "col0": "British Journal of Nutrition",
        "col1": "Cambridge University Press",
        "col2": "1947",
        "col3": "0007-1145",
        "col4": "BJNUAV",
        "col5": "647391056"
    },
    {
        "col0": "British Journal of Neurosurgery",
        "col1": "Taylor & Francis",
        "col2": "1987",
        "col3": "0268-8697",
        "col4": "BJNEEL",
        "col5": "16716669"
    },
    {
        "col0": "British Journal of Haematology",
        "col1": "Wiley-Blackwell",
        "col2": "1955",
        "col3": "0007-1048",
        "col4": "BJHEAL",
        "col5": "1537286"
    },
    {
        "col0": "British Journal of Educational Technology",
        "col1": "Wiley-Blackwell",
        "col2": "1970",
        "col3": "0007-1013",
        "col4": "BJEDTK",
        "col5": "475047389"
    },
    {
        "col0": "British Journal of Dermatology",
        "col1": "Wiley-Blackwell",
        "col2": "1888",
        "col3": "0007-0963",
        "col4": "BJDEAZ",
        "col5": "614652454"
    },
    {
        "col0": "British Journal of Clinical Psychology",
        "col1": "Wiley-Blackwell",
        "col2": "1981",
        "col3": "0144-6657",
        "col4": "BJCPDW",
        "col5": "7198489"
    },
    {
        "col0": "British Journal of Clinical Pharmacology",
        "col1": "Wiley-Blackwell",
        "col2": "1974",
        "col3": "0306-5251",
        "col4": "BCPHBM",
        "col5": "45425630"
    },
    {
        "col0": "British Journal of Anaesthesia",
        "col1": "Oxford University Press",
        "col2": "1923",
        "col3": "0007-0912",
        "col4": "BJANAD",
        "col5": "1537271"
    },
    {
        "col0": "British Dental Journal",
        "col1": "Nature Publishing Group",
        "col2": "1872",
        "col3": "0007-0610",
        "col4": "BDJOAJ",
        "col5": "1537229"
    },
    {
        "col0": "British Columbia Medical Journal",
        "col1": "British Columbia Medical Association",
        "col2": "1924",
        "col3": "0007-0556",
        "col4": "BCMJAC",
        "col5": "1586013"
    },
    {
        "col0": "Briefings in Bioinformatics",
        "col1": "Oxford University Press",
        "col2": "2000",
        "col3": "1467-5463",
        "col4": "BBIMFX",
        "col5": "44107488"
    },
    {
        "col0": "Breast Cancer Research",
        "col1": "BioMed Central",
        "col2": "1999",
        "col3": "1465-5411",
        "col4": "BCRRCT",
        "col5": "48668710"
    },
    {
        "col0": "Brazilian Journal of Physics",
        "col1": "Springer Science+Business Media",
        "col2": "1971",
        "col3": "0103-9733",
        "col4": "BJPHE6",
        "col5": "46987831"
    },
    {
        "col0": "Brain Structure and Function",
        "col1": "Springer Science+Business Media",
        "col2": "1891",
        "col3": "1863-2653",
        "col4": "BSFRCD",
        "col5": "804279700"
    },
    {
        "col0": "Brain Research Bulletin",
        "col1": "Elsevier",
        "col2": "1976",
        "col3": "0361-9230",
        "col4": "BRBUDU",
        "col5": "2134161"
    }
]