[
    {
        "col0": "The Journal of Pathology",
        "col1": "1892",
        "col2": "0022-3417",
        "col3": "Immediate upon payment of OnlineOpen fee; after 12-months NIH funded; after six months HHMI funded",
        "col4": "Monthly",
        "col5": "2014",
        "col6": "7"
    },
    {
        "col0": "The Developing Economies",
        "col1": "1963",
        "col2": "0012-1533",
        "col3": "partial",
        "col4": "Quarterly",
        "col5": "2015",
        "col6": "0"
    },
    {
        "col0": "Tectonophysics",
        "col1": "1964",
        "col2": "0040-1951",
        "col3": "Hybrid",
        "col4": "28/year",
        "col5": "2011",
        "col6": "2"
    },
    {
        "col0": "Studies in Mycology",
        "col1": "1972",
        "col2": "0166-0616",
        "col3": "Yes",
        "col4": "3/year",
        "col5": "2014",
        "col6": "13"
    },
    {
        "col0": "Solid State Communications",
        "col1": "1963",
        "col2": "0038-1098",
        "col3": "Hybrid",
        "col4": "Bimonthly",
        "col5": "2014",
        "col6": "1"
    },
    {
        "col0": "Review of Palaeobotany and Palynology",
        "col1": "1967",
        "col2": "0034-6667",
        "col3": "Author fee",
        "col4": "Monthly",
        "col5": "2014",
        "col6": "1"
    },
    {
        "col0": "Review of International Political Economy",
        "col1": "1994",
        "col2": "0969-2290",
        "col3": "no",
        "col4": "Bimonthly",
        "col5": "2014",
        "col6": "1"
    },
    {
        "col0": "Platinum Metals Review",
        "col1": "2014",
        "col2": "0032-1400",
        "col3": "Yes",
        "col4": "Quarterly",
        "col5": "2011",
        "col6": "1"
    },
    {
        "col0": "Plant Disease",
        "col1": "1922",
        "col2": "0191-2917",
        "col3": "Delayed, 1 year",
        "col4": "Monthly",
        "col5": "2014",
        "col6": "3"
    },
    {
        "col0": "Pigment Cell & Melanoma Research",
        "col1": "2007",
        "col2": "1755-1471",
        "col3": "Author fee",
        "col4": "6/year",
        "col5": "2014",
        "col6": "4"
    },
    {
        "col0": "Philosophical Transactions of the Royal Society B",
        "col1": "1887",
        "col2": "0962-8436",
        "col3": "Hybrid",
        "col4": "Biweekly",
        "col5": "2014",
        "col6": "7"
    }
]