[
    {
        "col0": "Quadrate pebblesnail",
        "col1": "Hydrobiidae",
        "col2": "CR",
        "col3": "IUCN2.3"
    },
    {
        "col0": "Quadrasiella mucronata",
        "col1": "Rissooidea",
        "col2": "DD",
        "col3": "IUCN2.3"
    },
    {
        "col0": "Quadrasiella clathrata",
        "col1": "Rissooidea",
        "col2": "DD",
        "col3": "IUCN2.3"
    },
    {
        "col0": "Pyrgulopsis deserta",
        "col1": "Hydrobiidae",
        "col2": "G2",
        "col3": "TNC"
    },
    {
        "col0": "Pyrgulopsis avernalis",
        "col1": "Hydrobiidae",
        "col2": "EN",
        "col3": "IUCN2.3"
    },
    {
        "col0": "Pyrgina umbilicata",
        "col1": "Achatinoidea",
        "col2": "DD",
        "col3": "IUCN2.3"
    },
    {
        "col0": "Pyrenaearia velascoi",
        "col1": "Helicoidea",
        "col2": "LR/nt",
        "col3": "IUCN2.3"
    },
    {
        "col0": "Pyrenaearia poncebensis",
        "col1": "Helicoidea",
        "col2": "LR/nt",
        "col3": "IUCN2.3"
    },
    {
        "col0": "Pyrenaearia parva",
        "col1": "Helicoidea",
        "col2": "VU",
        "col3": "IUCN3.1"
    },
    {
        "col0": "Pyrenaearia organiaca",
        "col1": "Helicoidea",
        "col2": "LR/nt",
        "col3": "IUCN2.3"
    },
    {
        "col0": "Pyrenaearia oberthueri",
        "col1": "Helicoidea",
        "col2": "LR/nt",
        "col3": "IUCN2.3"
    },
    {
        "col0": "Pyrenaearia navasi",
        "col1": "Helicoidea",
        "col2": "LR/nt",
        "col3": "IUCN2.3"
    },
    {
        "col0": "Pyrenaearia molae",
        "col1": "Helicoidea",
        "col2": "VU",
        "col3": "IUCN2.3"
    },
    {
        "col0": "Pyrenaearia daanidentata",
        "col1": "Helicoidea",
        "col2": "VU",
        "col3": "IUCN2.3"
    },
    {
        "col0": "Pyrenaearia cotiellae",
        "col1": "Helicoidea",
        "col2": "VU",
        "col3": "IUCN3.1"
    },
    {
        "col0": "Pyramid slitshell",
        "col1": "Cerithioidea",
        "col2": "EX",
        "col3": "IUCN2.3"
    },
    {
        "col0": "Pyramid pigtoe",
        "col1": "Unionidae",
        "col2": "LR/nt",
        "col3": "IUCN2.3"
    },
    {
        "col0": "Pygmy siltsnail",
        "col1": "Hydrobiidae",
        "col2": "VU",
        "col3": "IUCN2.3"
    },
    {
        "col0": "Pygmy pebblesnail",
        "col1": "Hydrobiidae",
        "col2": "CR",
        "col3": "IUCN2.3"
    },
    {
        "col0": "Pygmy elimia",
        "col1": "Cerithioidea",
        "col2": "EX",
        "col3": "IUCN2.3"
    },
    {
        "col0": "Pyganodon gibbosa",
        "col1": "Unionidae",
        "col2": "LR/nt",
        "col3": "IUCN2.3"
    },
    {
        "col0": "Puzzle elimia",
        "col1": "Cerithioidea",
        "col2": "EX",
        "col3": "IUCN2.3"
    },
    {
        "col0": "Purple bean",
        "col1": "Unionidae",
        "col2": "CR",
        "col3": "IUCN2.3"
    },
    {
        "col0": "Purple bankclimber",
        "col1": "Unionidae",
        "col2": "EN",
        "col3": "IUCN2.3"
    },
    {
        "col0": "Purcell's hunter slug",
        "col1": "Rhytidoidea",
        "col2": "EN",
        "col3": "IUCN2.3"
    },
    {
        "col0": "Pupoidopsis hawaiensis",
        "col1": "Pupilloidea",
        "col2": "DD",
        "col3": "IUCN2.3"
    },
    {
        "col0": "Pupisoma sp. nov. 1",
        "col1": "Pupilloidea",
        "col2": "LR/nt",
        "col3": "IUCN2.3"
    },
    {
        "col0": "Pupisoma orcula",
        "col1": "Pupilloidea",
        "col2": "LR/lc",
        "col3": "IUCN2.3"
    },
    {
        "col0": "Pupina pfeifferi",
        "col1": "Cyclophoroidea",
        "col2": "LR/nt",
        "col3": "IUCN2.3"
    },
    {
        "col0": "Pupina difficilis",
        "col1": "Cyclophoroidea",
        "col2": "DD",
        "col3": "IUCN2.3"
    },
    {
        "col0": "Pupina coxeni",
        "col1": "Cyclophoroidea",
        "col2": "LR/nt",
        "col3": "IUCN2.3"
    },
    {
        "col0": "Pupina complanata",
        "col1": "Cyclophoroidea",
        "col2": "DD",
        "col3": "IUCN2.3"
    },
    {
        "col0": "Pupina brenchleyi",
        "col1": "Cyclophoroidea",
        "col2": "DD",
        "col3": "IUCN2.3"
    },
    {
        "col0": "Pupilla pupula",
        "col1": "Pupilloidea",
        "col2": "LR/lc",
        "col3": "IUCN2.3"
    },
    {
        "col0": "Pupilla pratensis",
        "col1": "Pupilloidea",
        "col2": "NE",
        "col3": "iucn3.1"
    },
    {
        "col0": "Pupilla obliquicosta",
        "col1": "Pupilloidea",
        "col2": "EX",
        "col3": "IUCN2.3"
    },
    {
        "col0": "Pupilla muscorum",
        "col1": "Pupilloidea",
        "col2": "LC",
        "col3": "iucn3.1"
    },
    {
        "col0": "Pupilla ficulnea",
        "col1": "Pupilloidea",
        "col2": "LR/nt",
        "col3": "IUCN2.3"
    },
    {
        "col0": "Pupilla alpicola",
        "col1": "Pupilloidea",
        "col2": "LC",
        "col3": "iucn3.1"
    },
    {
        "col0": "Pupa elimia",
        "col1": "Cerithioidea",
        "col2": "EX",
        "col3": "IUCN2.3"
    },
    {
        "col0": "Ptychotrema usambarense",
        "col1": "Streptaxoidea",
        "col2": "DD",
        "col3": "IUCN2.3"
    },
    {
        "col0": "Ptychotrema mazumbiensis",
        "col1": "Streptaxoidea",
        "col2": "DD",
        "col3": "IUCN2.3"
    },
    {
        "col0": "Ptychodon schuppi",
        "col1": "Charopidae",
        "col2": "EN",
        "col3": "IUCN2.3"
    },
    {
        "col0": "Ptychobranchus subtentum",
        "col1": "Unionidae",
        "col2": "G2",
        "col3": "TNC"
    },
    {
        "col0": "Ptychobranchus occidentalis",
        "col1": "Unionidae",
        "col2": "LR/nt",
        "col3": "IUCN2.3"
    },
    {
        "col0": "Ptychobranchus fasciolaris",
        "col1": "Unionidae",
        "col2": "LC",
        "col3": "IUCN2.3"
    },
    {
        "col0": "Ptychalaea dedecora",
        "col1": "Pupilloidea",
        "col2": "VU",
        "col3": "IUCN2.3"
    },
    {
        "col0": "Pseudotrichia rubiginosa",
        "col1": "Hygromiidae",
        "col2": "LC",
        "col3": "IUCN3.1"
    },
    {
        "col0": "Pseudospatha tanganyicensis",
        "col1": "Unionidae",
        "col2": "LC",
        "col3": "IUCN3.1"
    },
    {
        "col0": "Pseudopalaina polymorpha",
        "col1": "Cyclophoroidea",
        "col2": "DD",
        "col3": "IUCN2.3"
    },
    {
        "col0": "Pseudomulleria dalyi",
        "col1": "Etheriidae",
        "col2": "EN",
        "col3": "IUCN2.3"
    },
    {
        "col0": "Pseudohelenoconcha spurca",
        "col1": "Punctoidea",
        "col2": "EX",
        "col3": "IUCN2.3"
    },
    {
        "col0": "Pseudoglessula conradti",
        "col1": "Achatinoidea",
        "col2": "DD",
        "col3": "IUCN2.3"
    },
    {
        "col0": "Pseudoglessula acutissima",
        "col1": "Achatinoidea",
        "col2": "DD",
        "col3": "IUCN2.3"
    },
    {
        "col0": "Pseudocampylaea portosanctana",
        "col1": "Helicoidea",
        "col2": "LR/nt",
        "col3": "IUCN2.3"
    },
    {
        "col0": "Pseudocampylaea loweii",
        "col1": "Helicoidea",
        "col2": "EX",
        "col3": "IUCN2.3"
    },
    {
        "col0": "Pseudobithynia renei",
        "col1": "Rissooidea",
        "col2": "DD",
        "col3": "IUCN3.1"
    },
    {
        "col0": "Pseudobithynia pentheri",
        "col1": "Rissooidea",
        "col2": "NT",
        "col3": "IUCN3.1"
    },
    {
        "col0": "Pseudamnicola pieperi",
        "col1": "Hydrobiidae",
        "col2": "VU",
        "col3": "iucn3.1"
    },
    {
        "col0": "Pseudamnicola macrostoma",
        "col1": "Hydrobiidae",
        "col2": "DD",
        "col3": "iucn3.1"
    },
    {
        "col0": "Pseudamnicola exilis",
        "col1": "Hydrobiidae",
        "col2": "DD",
        "col3": "iucn3.1"
    },
    {
        "col0": "Pseudamnicola chia",
        "col1": "Hydrobiidae",
        "col2": "VU",
        "col3": "iucn3.1"
    },
    {
        "col0": "Pseudamnicola brachia",
        "col1": "Hydrobiidae",
        "col2": "DD",
        "col3": "iucn3.1"
    },
    {
        "col0": "Pseudamnicola anteisensis",
        "col1": "Hydrobiidae",
        "col2": "VU",
        "col3": "IUCN2.3"
    },
    {
        "col0": "Prymnbriareus nimberlinus",
        "col1": "Camaenidae",
        "col2": "LR/lc",
        "col3": "IUCN2.3"
    },
    {
        "col0": "Prototrachia sedula",
        "col1": "Camaenidae",
        "col2": "VU",
        "col3": "IUCN2.3"
    },
    {
        "col0": "Pronesopupa sericata",
        "col1": "Pupilloidea",
        "col2": "DD",
        "col3": "IUCN2.3"
    },
    {
        "col0": "Pronesopupa orycta",
        "col1": "Pupilloidea",
        "col2": "DD",
        "col3": "IUCN2.3"
    },
    {
        "col0": "Pronesopupa molokaiensis",
        "col1": "Pupilloidea",
        "col2": "DD",
        "col3": "IUCN2.3"
    },
    {
        "col0": "Pronesopupa lymaniana",
        "col1": "Pupilloidea",
        "col2": "DD",
        "col3": "IUCN2.3"
    },
    {
        "col0": "Pronesopupa incerta",
        "col1": "Pupilloidea",
        "col2": "DD",
        "col3": "IUCN2.3"
    },
    {
        "col0": "Pronesopupa hystricella",
        "col1": "Pupilloidea",
        "col2": "DD",
        "col3": "IUCN2.3"
    },
    {
        "col0": "Pronesopupa frondicella",
        "col1": "Pupilloidea",
        "col2": "DD",
        "col3": "IUCN2.3"
    },
    {
        "col0": "Pronesopupa boettgeri",
        "col1": "Pupilloidea",
        "col2": "DD",
        "col3": "IUCN2.3"
    },
    {
        "col0": "Pronesopupa acanthinula",
        "col1": "Pupilloidea",
        "col2": "DD",
        "col3": "IUCN2.3"
    },
    {
        "col0": "Priodiscus serratus",
        "col1": "Streptaxoidea",
        "col2": "VU",
        "col3": "IUCN3.1"
    },
    {
        "col0": "Prickly Pear Island snail",
        "col1": "Helicoidea",
        "col2": "VU",
        "col3": "IUCN2.3"
    },
    {
        "col0": "Pradoxa confirmata",
        "col1": "Muricidae",
        "col2": "DD",
        "col3": "iucn2.3"
    },
    {
        "col0": "Powelliphanta traversi",
        "col1": "Pulmonata",
        "col2": "DD",
        "col3": "IUCN2.3"
    },
    {
        "col0": "Powelliphanta rossiana",
        "col1": "Pulmonata",
        "col2": "DD",
        "col3": "iucn2.3"
    },
    {
        "col0": "Powelliphanta marchanti",
        "col1": "Rhytididae",
        "col2": "LR/nt",
        "col3": "iucn2.3"
    },
    {
        "col0": "Powelliphanta lignaria",
        "col1": "Pulmonata",
        "col2": "DD",
        "col3": "iucn2.3"
    },
    {
        "col0": "Powelliphanta hochstetteri",
        "col1": "Rhytididae",
        "col2": "DD",
        "col3": "IUCN2.3"
    },
    {
        "col0": "Powelliphanta gilliesi",
        "col1": "Pulmonata",
        "col2": "DD",
        "col3": "IUCN2.3"
    },
    {
        "col0": "Potamopyrgus oscitans",
        "col1": "Hydrobiidae",
        "col2": "LR/nt",
        "col3": "IUCN2.3"
    },
    {
        "col0": "Potamopyrgus doci",
        "col1": "Truncatelloidea",
        "col2": "NC",
        "col3": "NZTCS"
    },
    {
        "col0": "Potamopyrgus acus",
        "col1": "Truncatelloidea",
        "col2": "NC",
        "col3": "NZTCS"
    },
    {
        "col0": "Potamilus alatus",
        "col1": "Unionidae",
        "col2": "LR/lc",
        "col3": "IUCN2.3"
    },
    {
        "col0": "Potadoma liberiensis",
        "col1": "Pachychilidae",
        "col2": "DD",
        "col3": "IUCN3.1"
    },
    {
        "col0": "Potadoma buttikoferi",
        "col1": "Pachychilidae",
        "col2": "DD",
        "col3": "IUCN3.1"
    },
    {
        "col0": "Posticobia norfolkensis",
        "col1": "Hydrobiidae",
        "col2": "EX",
        "col3": "IUCN2.3"
    },
    {
        "col0": "Posorites turneri",
        "col1": "Camaenidae",
        "col2": "LR/nt",
        "col3": "IUCN2.3"
    },
    {
        "col0": "Popenaias popeii",
        "col1": "Unionidae",
        "col2": "CR",
        "col3": "IUCN2.3"
    },
    {
        "col0": "Pondoland cannibal snail",
        "col1": "Rhytididae",
        "col2": "CR",
        "col3": "IUCN2.3"
    },
    {
        "col0": "Ponderous siltsnail",
        "col1": "Hydrobiidae",
        "col2": "VU",
        "col3": "IUCN2.3"
    },
    {
        "col0": "Ponapella pihapiha",
        "col1": "Rissooidea",
        "col2": "DD",
        "col3": "IUCN2.3"
    },
    {
        "col0": "Pomatias raricosta",
        "col1": "Littorinoidea",
        "col2": "LR/lc",
        "col3": "IUCN2.3"
    },
    {
        "col0": "Pomacea zischkai",
        "col1": "Ampullariidae",
        "col2": "DD",
        "col3": "iucn3.1"
    },
    {
        "col0": "Pomacea vexillum",
        "col1": "Ampullariidae",
        "col2": "DD",
        "col3": "iucn3.1"
    },
    {
        "col0": "Pomacea reyrei",
        "col1": "Ampullariidae",
        "col2": "DD",
        "col3": "iucn3.1"
    },
    {
        "col0": "Pomacea quinindensis",
        "col1": "Ampullariidae",
        "col2": "DD",
        "col3": "iucn3.1"
    },
    {
        "col0": "Pomacea pealiana",
        "col1": "Ampullariidae",
        "col2": "DD",
        "col3": "iucn3.1"
    },
    {
        "col0": "Pomacea paludosa",
        "col1": "Ampullariidae",
        "col2": "LC",
        "col3": "IUCN3.1"
    },
    {
        "col0": "Pomacea lineata",
        "col1": "Ampullariidae",
        "col2": "LC",
        "col3": "iucn3.1"
    },
    {
        "col0": "Pomacea hollingsworthi",
        "col1": "Ampullariidae",
        "col2": "DD",
        "col3": "iucn3.1"
    },
    {
        "col0": "Pomacea glauca",
        "col1": "Ampullariidae",
        "col2": "LC",
        "col3": "iucn3.1"
    },
    {
        "col0": "Pomacea eximia",
        "col1": "Ampullariidae",
        "col2": "DD",
        "col3": "iucn3.1"
    },
    {
        "col0": "Pomacea cousini",
        "col1": "Ampullariidae",
        "col2": "DD",
        "col3": "iucn3.1"
    },
    {
        "col0": "Pomacea catamarcensis",
        "col1": "Ampullariidae",
        "col2": "DD",
        "col3": "iucn3.1"
    },
    {
        "col0": "Pomacea canaliculata",
        "col1": "Ampullariidae",
        "col2": "LC",
        "col3": "IUCN3.1"
    },
    {
        "col0": "Pomacea camena",
        "col1": "Ampullariidae",
        "col2": "DD",
        "col3": "iucn3.1"
    },
    {
        "col0": "Pomacea bridgesii",
        "col1": "Ampullariidae",
        "col2": "LC",
        "col3": "iucn3.1"
    },
    {
        "col0": "Pomacea baeri",
        "col1": "Ampullariidae",
        "col2": "DD",
        "col3": "iucn3.1"
    },
    {
        "col0": "Pomacea aurostoma",
        "col1": "Ampullariidae",
        "col2": "LC",
        "col3": "iucn3.1"
    },
    {
        "col0": "Pomacea aldersoni",
        "col1": "Ampullariidae",
        "col2": "DD",
        "col3": "iucn3.1"
    },
    {
        "col0": "Polygyriscus",
        "col1": "Helicoidea",
        "col2": "DD",
        "col3": "IUCN2.3"
    },
    {
        "col0": "Point of Rocks tryonia",
        "col1": "Hydrobiidae",
        "col2": "DD",
        "col3": "IUCN2.3"
    },
    {
        "col0": "Plicate rocksnail",
        "col1": "Cerithioidea",
        "col2": "VU",
        "col3": "IUCN2.3"
    },
    {
        "col0": "Pleuroxia italowiana",
        "col1": "Camaenidae",
        "col2": "LR/nt",
        "col3": "IUCN2.3"
    },
    {
        "col0": "Pleuroxia hinsbyi",
        "col1": "Camaenidae",
        "col2": "VU",
        "col3": "IUCN2.3"
    },
    {
        "col0": "Pleuroxia arcigerens",
        "col1": "Camaenidae",
        "col2": "LR/nt",
        "col3": "IUCN2.3"
    },
    {
        "col0": "Pleuronaia dolabelloides",
        "col1": "Unionidae",
        "col2": "G2",
        "col3": "TNC"
    },
    {
        "col0": "Pleuronaia barnesiana",
        "col1": "Unionidae",
        "col2": "LC",
        "col3": "IUCN3.1"
    },
    {
        "col0": "Pleurodonte desidens",
        "col1": "Helicoidea",
        "col2": "EX",
        "col3": "IUCN2.3"
    },
    {
        "col0": "Pleurocera ampla",
        "col1": "Cerithioidea",
        "col2": "CR",
        "col3": "IUCN3.1"
    },
    {
        "col0": "Pleurocera alabamensis",
        "col1": "Cerithioidea",
        "col2": "VU",
        "col3": "IUCN2.3"
    },
    {
        "col0": "Pleurobema riddellii",
        "col1": "Unionidae",
        "col2": "LR/nt",
        "col3": "IUCN2.3"
    },
    {
        "col0": "Pleurobema cordatum",
        "col1": "Unionidae",
        "col2": "LR/nt",
        "col3": "IUCN2.3"
    },
    {
        "col0": "Pleurobema beadleianum",
        "col1": "Unionidae",
        "col2": "LR/nt",
        "col3": "IUCN2.3"
    },
    {
        "col0": "Plethobasus cyphyus",
        "col1": "Unionidae",
        "col2": "G3",
        "col3": "TNC"
    },
    {
        "col0": "Plesiocystiscus josephinae",
        "col1": "Muricoidea",
        "col2": "DD",
        "col3": "IUCN2.3"
    },
    {
        "col0": "Plesiocystiscus gutta",
        "col1": "Muricoidea",
        "col2": "DD",
        "col3": "IUCN2.3"
    },
    {
        "col0": "Plentuisa",
        "col1": "Helicoidea",
        "col2": "NT",
        "col3": "IUCN3.1"
    },
    {
        "col0": "Plegma caelatura",
        "col1": "Gastrodontoidea",
        "col2": "VU",
        "col3": "IUCN2.3"
    },
    {
        "col0": "Plectostoma sciaphilum",
        "col1": "Diplommatinidae",
        "col2": "EX",
        "col3": "IUCN3.1"
    },
    {
        "col0": "Plectostoma obliquedentatum",
        "col1": "Cyclophoroidea",
        "col2": "NE",
        "col3": "IUCN3.1"
    },
    {
        "col0": "Platyla polita",
        "col1": "Aciculidae",
        "col2": "LC",
        "col3": "iucn3.1"
    },
    {
        "col0": "Platyla peloponnesica",
        "col1": "Aciculidae",
        "col2": "VU",
        "col3": "IUCN3.1"
    },
    {
        "col0": "Platyla orthostoma",
        "col1": "Aciculidae",
        "col2": "NT",
        "col3": "IUCN3.1"
    },
    {
        "col0": "Platyla microspira",
        "col1": "Aciculidae",
        "col2": "LC",
        "col3": "IUCN3.1"
    },
    {
        "col0": "Platyla maasseni",
        "col1": "Aciculidae",
        "col2": "DD",
        "col3": "iucn2.3"
    },
    {
        "col0": "Platyla lusitanica",
        "col1": "Aciculidae",
        "col2": "VU",
        "col3": "IUCN2.3"
    },
    {
        "col0": "Platyla foliniana",
        "col1": "Aciculidae",
        "col2": "VU",
        "col3": "IUCN3.1"
    }
]