[
    {
        "col0": "Game On",
        "col1": "Geoffrey Perkins",
        "col2": "M. Cottle",
        "col3": "1998-02-06"
    },
    {
        "col0": "Gallowglass",
        "col1": "BBC",
        "col2": "M. Sheen",
        "col3": "1993-01-24"
    },
    {
        "col0": "Gagambino",
        "col1": "GMA Entertainment TV Group",
        "col2": "D. Trillo",
        "col3": "2009-02-20"
    },
    {
        "col0": "Gaaner Oparey",
        "col1": "Prosenjit Chatterjee",
        "col2": "G. Chakrabarty",
        "col3": "2011-04-16"
    },
    {
        "col0": "Future Weapons",
        "col1": "John Macnish",
        "col2": "R. Machowicz",
        "col3": "2008-04-24"
    },
    {
        "col0": "Fury",
        "col1": "Irving Cummings",
        "col2": "B. Diamond",
        "col3": "1960-03-19"
    },
    {
        "col0": "Funland",
        "col1": "Sanne Wohlenberg",
        "col2": "F. Barber",
        "col3": "2005-11-07"
    },
    {
        "col0": "Fun Khana",
        "col1": "Momina Duraid",
        "col2": "F. Jamal",
        "col3": "2012-07-06"
    },
    {
        "col0": "Friends with Benefits",
        "col1": "Brian Grazer",
        "col2": "R. Hansen",
        "col3": "2011-09-09"
    },
    {
        "col0": "Fresno",
        "col1": "R. W. Goodwin",
        "col2": "C. Burnett",
        "col3": "1986-11-20"
    },
    {
        "col0": "Free Agents",
        "col1": "Iain Morris",
        "col2": "A. Head",
        "col3": "2009-03-20"
    },
    {
        "col0": "Fred Flintstone and Friends",
        "col1": "Joseph Barbera",
        "col2": "F. Flintstone",
        "col3": "1978-09-01"
    },
    {
        "col0": "Frasier",
        "col1": "Maggie Blanc",
        "col2": "D. H. Pierce",
        "col3": "2004-05-13"
    },
    {
        "col0": "Frankenstein Jr. and The Impossibles",
        "col1": "Joseph Barbera",
        "col2": "D. Beals",
        "col3": "1968-09-07"
    },
    {
        "col0": "Frank's Place",
        "col1": "Richard Dubin",
        "col2": "T. Reid",
        "col3": "1988-03-22"
    },
    {
        "col0": "Fraggle Rock",
        "col1": "Jerry Juhl",
        "col2": "D. Goelz",
        "col3": "1987-03-30"
    },
    {
        "col0": "Fox",
        "col1": "Verity Lambert",
        "col2": "B. Hill",
        "col3": "1980-06-02"
    },
    {
        "col0": "Forever Green",
        "col1": "Brian Eastman",
        "col2": "Wendy van der Plank",
        "col3": "1992-05-24"
    },
    {
        "col0": "Forensic Heroes II",
        "col1": "Mui Siu Ching",
        "col2": "C. Sheh",
        "col3": "2008-06-28"
    },
    {
        "col0": "Foreign Affairs",
        "col1": "Peter Eton",
        "col2": "B. Fraser",
        "col3": "1964-02-20"
    },
    {
        "col0": "For the Love of Ada",
        "col1": "Thames Television",
        "col2": "I. Handl",
        "col3": "1971-12-26"
    },
    {
        "col0": "Footballers' Wives",
        "col1": "Sean O'Connor",
        "col2": "P. Bretherton",
        "col3": "2006-04-14"
    },
    {
        "col0": "Follow the Sun",
        "col1": "Roy Huggins",
        "col2": "B. Halsey",
        "col3": "1962-04-08"
    },
    {
        "col0": "Foley Square",
        "col1": "Diane English",
        "col2": "C. Silvers",
        "col3": "1986-04-08"
    },
    {
        "col0": "Fly with Me",
        "col1": "Jonathan Chik",
        "col2": "A. Choi",
        "col3": "2010-05-22"
    },
    {
        "col0": "Flo",
        "col1": "Robert Illes",
        "col2": "G. Lewis",
        "col3": "1981-07-21"
    },
    {
        "col0": "Flesh 'n' Blood",
        "col1": "Daniel Palladino",
        "col2": "P. Gilpin",
        "col3": "1991-10-15"
    },
    {
        "col0": "Fleming: The Man Who Would Be Bond",
        "col1": "Douglas Rae",
        "col2": "D. Cooper",
        "col3": "2014-02-19"
    },
    {
        "col0": "Flatbush",
        "col1": "Norman Powell",
        "col2": "A. Zmed",
        "col3": "1979-03-12"
    },
    {
        "col0": "Flamingo Road",
        "col1": "Rita Lakin",
        "col2": "M. Harmon",
        "col3": "1982-05-04"
    },
    {
        "col0": "Five Fingers",
        "col1": "Herbert Bayard Swope",
        "col2": "P. Burke",
        "col3": "1960-01-08"
    },
    {
        "col0": "First Time Out",
        "col1": "Gail Parent",
        "col2": "C. Anton",
        "col3": "1995-12-17"
    },
    {
        "col0": "Firaaq",
        "col1": "Momina Duraid",
        "col2": "Cybill",
        "col3": "2014-12-28"
    },
    {
        "col0": "Finders Keepers",
        "col1": "BBC",
        "col2": "R. Stilgoe",
        "col3": "1985-03-01"
    },
    {
        "col0": "Fear, Stress & Anger",
        "col1": "Sue Vertue",
        "col2": "P. Davison",
        "col3": "2007-03-29"
    },
    {
        "col0": "Fathers and Sons",
        "col1": "Mui Siu Ching",
        "col2": "H. Yu",
        "col3": "2007-09-07"
    },
    {
        "col0": "Father Ted",
        "col1": "Geoffrey Perkins",
        "col2": "A. O'Hanlon",
        "col3": "1998-05-01"
    },
    {
        "col0": "Father, Dear Father",
        "col1": "William G. Stewart",
        "col2": "N. Pyne",
        "col3": "1973-02-06"
    },
    {
        "col0": "Fast Times",
        "col1": "Amy Heckerling",
        "col2": "C. Thorne-Smith",
        "col3": "1986-04-23"
    },
    {
        "col0": "Fast Forward",
        "col1": "Steve Vizard",
        "col2": "M. Szubanski",
        "col3": "1992-11-26"
    },
    {
        "col0": "Farsantes",
        "col1": "Pol-ka",
        "col2": "B. Vicuna",
        "col3": "2014-02-12"
    },
    {
        "col0": "Fantasy Hotel",
        "col1": "Lee Tim-shing",
        "col2": "M. Tao",
        "col3": "2005-07-29"
    },
    {
        "col0": "Fanny Hill",
        "col1": "Sally Head",
        "col2": "H. Speer",
        "col3": "2007-10-29"
    },
    {
        "col0": "Family Matters",
        "col1": "Robert L. Boyett",
        "col2": "J. M. Payton",
        "col3": "1998-07-17"
    },
    {
        "col0": "Family Man",
        "col1": "Mui Siu-ching",
        "col2": "S. Kwok",
        "col3": "2002-11-09"
    },
    {
        "col0": "Family Album",
        "col1": "Douglas S. Cramer",
        "col2": "B. Krause",
        "col3": "1994-10-24"
    },
    {
        "col0": "Family Affair",
        "col1": "Edmund Hartmann",
        "col2": "S. Cabot",
        "col3": "1971-09-09"
    },
    {
        "col0": "Fame Academy",
        "col1": "Endemol",
        "col2": "P. Kielty",
        "col3": "2003-10-04"
    },
    {
        "col0": "Falling Skies",
        "col1": "Noah Wyle",
        "col2": "W. Patton",
        "col3": "2015-08-30"
    },
    {
        "col0": "Falcone",
        "col1": "Chris Long",
        "col2": "A. Steele",
        "col3": "2000-04-12"
    }
]