[
    {
        "col0": "Roman Catholic Archdiocese of Edmonton",
        "col1": "Alberta",
        "col2": "Alberta",
        "col3": "Alberta",
        "col4": "Alberta",
        "col5": "81151000000",
        "col6": "81151000000"
    },
    {
        "col0": "Roman Catholic Archdiocese of Dubuque",
        "col1": "List of the Roman Catholic dioceses of the United States",
        "col2": "List of the Roman Catholic dioceses of the United States",
        "col3": "List of the Roman Catholic dioceses of the United States",
        "col4": "List of the Roman Catholic dioceses of the United States",
        "col5": "45065793119",
        "col6": "45065793119"
    },
    {
        "col0": "Roman Catholic Archdiocese of Dijon",
        "col1": "Dijon",
        "col2": "Dijon",
        "col3": "Dijon",
        "col4": "Dijon",
        "col5": "8760000000",
        "col6": "8760000000"
    },
    {
        "col0": "Roman Catholic Archdiocese of Diamantina",
        "col1": "Diamantina, Minas Gerais",
        "col2": "Diamantina, Minas Gerais",
        "col3": "Diamantina, Minas Gerais",
        "col4": "Diamantina, Minas Gerais",
        "col5": "45171000000",
        "col6": "45171000000"
    },
    {
        "col0": "Roman Catholic Archdiocese of Dhaka",
        "col1": "Dhaka",
        "col2": "Dhaka",
        "col3": "Dhaka",
        "col4": "Dhaka",
        "col5": "14193000000",
        "col6": "14193000000"
    },
    {
        "col0": "Roman Catholic Archdiocese of Detroit",
        "col1": "Detroit",
        "col2": "Detroit",
        "col3": "Detroit",
        "col4": "Detroit",
        "col5": "3901000000",
        "col6": "3901000000"
    },
    {
        "col0": "Roman Catholic Archdiocese of Delhi",
        "col1": "Delhi",
        "col2": "Delhi",
        "col3": "Delhi",
        "col4": "Delhi",
        "col5": "15420000000",
        "col6": "15420000000"
    },
    {
        "col0": "Roman Catholic Archdiocese of Curitiba",
        "col1": "Curitiba",
        "col2": "Curitiba",
        "col3": "Curitiba",
        "col4": "Curitiba",
        "col5": "5528000000",
        "col6": "5528000000"
    },
    {
        "col0": "Roman Catholic Archdiocese of Cuiaba",
        "col1": "Cuiaba",
        "col2": "Cuiaba",
        "col3": "Cuiaba",
        "col4": "Cuiaba",
        "col5": "24542000000",
        "col6": "24542000000"
    },
    {
        "col0": "Roman Catholic Archdiocese of Crotone-Santa Severina",
        "col1": "Roman Catholic Archdiocese of Catanzaro-Squillace",
        "col2": "Roman Catholic Archdiocese of Catanzaro-Squillace",
        "col3": "Roman Catholic Archdiocese of Catanzaro-Squillace",
        "col4": "Roman Catholic Archdiocese of Catanzaro-Squillace",
        "col5": "1885000000",
        "col6": "1885000000"
    }
]