[
    {
        "col0": "Syrnolopsis lacustris",
        "col1": "Cerithioidea",
        "col2": "LC",
        "col3": "IUCN3.1"
    },
    {
        "col0": "Syrnolopsis gracilis",
        "col1": "Cerithioidea",
        "col2": "LC",
        "col3": "IUCN3.1"
    },
    {
        "col0": "Swollen river mussel",
        "col1": "Unionidae",
        "col2": "LC",
        "col3": "iucn3.1"
    },
    {
        "col0": "Swan mussel",
        "col1": "Unionidae",
        "col2": "LC",
        "col3": "iucn3.1"
    },
    {
        "col0": "Sulcospira housei",
        "col1": "Pachychilidae",
        "col2": "LC",
        "col3": "IUCN3.1"
    },
    {
        "col0": "Sulcospira collyra",
        "col1": "Pachychilidae",
        "col2": "LC",
        "col3": "IUCN3.1"
    },
    {
        "col0": "Sulcospira circumstriata",
        "col1": "Pachychilidae",
        "col2": "NE",
        "col3": "IUCN3.1"
    },
    {
        "col0": "Sulcospira agrestis",
        "col1": "Pachychilidae",
        "col2": "NE",
        "col3": "IUCN3.1"
    },
    {
        "col0": "Succinea sanctaehelenae",
        "col1": "Succineidae",
        "col2": "LR/nt",
        "col3": "IUCN2.3"
    },
    {
        "col0": "Succinea quadrasi",
        "col1": "Succineidae",
        "col2": "EN",
        "col3": "IUCN2.3"
    },
    {
        "col0": "Succinea putris",
        "col1": "Succineidae",
        "col2": "NE",
        "col3": "iucn3.1"
    },
    {
        "col0": "Succinea piratarum",
        "col1": "Succineidae",
        "col2": "EN",
        "col3": "IUCN2.3"
    },
    {
        "col0": "Succinea philippinica",
        "col1": "Succineidae",
        "col2": "DD",
        "col3": "IUCN2.3"
    }
]