[
    {
        "col0": "Vesical venous plexus",
        "col1": "Inferior vesical artery",
        "col2": "Urinary bladder",
        "col3": "Internal iliac vein",
        "col4": "12648726",
        "col5": "p_24",
        "col6": "676"
    },
    {
        "col0": "Vesical veins",
        "col1": "Inferior vesical artery",
        "col2": "Urinary bladder",
        "col3": "Internal iliac vein",
        "col4": "12852231",
        "col5": "v_05",
        "col6": "676"
    },
    {
        "col0": "Supraorbital vein",
        "col1": "Supra-orbital artery",
        "col2": "Forehead",
        "col3": "Angular vein",
        "col4": "12851905",
        "col5": "v_05",
        "col6": "645"
    },
    {
        "col0": "Superior rectal vein",
        "col1": "Superior rectal artery",
        "col2": "Rectum",
        "col3": "Inferior mesenteric vein",
        "col4": "12851621",
        "col5": "v_05",
        "col6": "681"
    },
    {
        "col0": "Superior phrenic vein",
        "col1": "Superior phrenic artery",
        "col2": "Thoracic diaphragm",
        "col3": "Azygos vein",
        "col4": "12851343",
        "col5": "v_05",
        "col6": "666"
    },
    {
        "col0": "Superior labial vein",
        "col1": "Superior labial artery",
        "col2": "Upper lip",
        "col3": "Facial vein",
        "col4": "12850782",
        "col5": "v_05",
        "col6": "645"
    },
    {
        "col0": "Superficial temporal vein",
        "col1": "Superficial temporal artery",
        "col2": "Scalp",
        "col3": "Retromandibular vein",
        "col4": "12851960",
        "col5": "v_05",
        "col6": "645"
    },
    {
        "col0": "Right gastroepiploic vein",
        "col1": "Right gastroepiploic artery",
        "col2": "Stomach",
        "col3": "Superior mesenteric vein",
        "col4": "12850420",
        "col5": "v_05",
        "col6": "682"
    },
    {
        "col0": "Pulmonary vein",
        "col1": "Pulmonary artery",
        "col2": "Lungs",
        "col3": "Left atrium",
        "col4": "12851530",
        "col5": "v_05",
        "col6": "642"
    },
    {
        "col0": "Posterior auricular vein",
        "col1": "Posterior auricular artery",
        "col2": "Scalp",
        "col3": "External jugular vein",
        "col4": "12849539",
        "col5": "v_05",
        "col6": "646"
    },
    {
        "col0": "Pharyngeal veins",
        "col1": "Pharyngeal branches of inferior thyroid artery",
        "col2": "Pharynx",
        "col3": "Internal jugular",
        "col4": "12851325",
        "col5": "v_05",
        "col6": "649"
    },
    {
        "col0": "Pancreaticoduodenal veins",
        "col1": "Inferior pancreaticoduodenal artery",
        "col2": "Pancreas",
        "col3": "Portal vein",
        "col4": "12851232",
        "col5": "v_05",
        "col6": "682"
    },
    {
        "col0": "Occipital vein",
        "col1": "Occipital artery",
        "col2": "Scalp",
        "col3": "Suboccipital venous plexus",
        "col4": "12851133",
        "col5": "v_05",
        "col6": "646"
    },
    {
        "col0": "Middle rectal veins",
        "col1": "Middle rectal artery",
        "col2": "Rectum",
        "col3": "Internal iliac vein",
        "col4": "12851614",
        "col5": "v_05",
        "col6": "676"
    },
    {
        "col0": "Lingual veins",
        "col1": "Lingual artery",
        "col2": "Tongue",
        "col3": "Internal jugular vein",
        "col4": "12850834",
        "col5": "v_05",
        "col6": "648"
    },
    {
        "col0": "Left marginal vein",
        "col1": "Left marginal artery",
        "col2": "Left ventricle",
        "col3": "Great cardiac vein",
        "col4": "12848148",
        "col5": "v_04",
        "col6": "642"
    },
    {
        "col0": "Interlobular veins",
        "col1": "Interlobular arteries",
        "col2": "Efferent arteriole",
        "col3": "Arcuate vein",
        "col4": "12850670",
        "col5": "v_05",
        "col6": "1224"
    },
    {
        "col0": "Inferior thyroid veins",
        "col1": "Inferior thyroid artery",
        "col2": "Thyroid gland",
        "col3": "Brachiocephalic vein",
        "col4": "12852050",
        "col5": "v_05",
        "col6": "666"
    },
    {
        "col0": "Inferior rectal veins",
        "col1": "Inferior rectal artery",
        "col2": "Rectum",
        "col3": "Internal pudendal vein",
        "col4": "12851608",
        "col5": "v_05",
        "col6": "676"
    },
    {
        "col0": "Inferior phrenic vein",
        "col1": "Inferior phrenic arteries",
        "col2": "Thoracic diaphragm",
        "col3": "Inferior vena cava",
        "col4": "12851337",
        "col5": "v_05",
        "col6": "679"
    },
    {
        "col0": "Inferior labial vein",
        "col1": "Inferior labial artery",
        "col2": "Lower lip",
        "col3": "Facial vein",
        "col4": "12850769",
        "col5": "v_05",
        "col6": "645"
    },
    {
        "col0": "Inferior epigastric vein",
        "col1": "Inferior epigastric artery",
        "col2": "Superior epigastric vein",
        "col3": "External iliac vein",
        "col4": "12850263",
        "col5": "v_05",
        "col6": "672"
    },
    {
        "col0": "Inferior cerebral veins",
        "col1": "Cerebral arteries",
        "col2": "Cerebrum",
        "col3": "Dural venous sinuses",
        "col4": "12850576",
        "col5": "v_05",
        "col6": "652"
    },
    {
        "col0": "Dorsal veins of the penis",
        "col1": "Dorsal artery of the penis",
        "col2": "Penis",
        "col3": "Prostatic venous plexus",
        "col4": "12850184",
        "col5": "v_05",
        "col6": "676"
    },
    {
        "col0": "Cystic vein",
        "col1": "Cystic artery",
        "col2": "Gallbladder",
        "col3": "Hepatic portal vein",
        "col4": "12850070",
        "col5": "v_05",
        "col6": "682"
    },
    {
        "col0": "Common iliac vein",
        "col1": "Common iliac artery",
        "col2": "Pelvis",
        "col3": "Inferior vena cava",
        "col4": "12850542",
        "col5": "v_05",
        "col6": "677"
    },
    {
        "col0": "Cerebellar veins",
        "col1": "Anterior inferior cerebellar artery",
        "col2": "Cerebellum",
        "col3": "Dural venous sinuses",
        "col4": "12850567",
        "col5": "v_05",
        "col6": "653"
    },
    {
        "col0": "Axillary vein",
        "col1": "Axillary artery",
        "col2": "Axilla",
        "col3": "Subclavian vein",
        "col4": "12849545",
        "col5": "v_05",
        "col6": "663"
    }
]