[
    {
        "col0": "Zenker's turaco",
        "col1": "Musophagidae",
        "col2": "Tauraco persa",
        "col3": "LC",
        "col4": "IUCN3.1"
    },
    {
        "col0": "Yellow-throated greenbul",
        "col1": "Pycnonotidae",
        "col2": "Arizelocichla nigriceps",
        "col3": "NR",
        "col4": "iucn3.1"
    },
    {
        "col0": "Yellow-cheeked becard",
        "col1": "Tityridae",
        "col2": "Pachyramphus viridis",
        "col3": "NR",
        "col4": "IUCN3.1"
    },
    {
        "col0": "White-winged junco",
        "col1": "Emberizidae",
        "col2": "Junco hyemalis",
        "col3": "T4",
        "col4": "TNC"
    },
    {
        "col0": "White-flippered penguin",
        "col1": "Spheniscidae",
        "col2": "Eudyptula minor",
        "col3": "E",
        "col4": "ESA"
    },
    {
        "col0": "White-bellied warbler",
        "col1": "Parulidae",
        "col2": "Basileuterus culicivorus",
        "col3": "LC",
        "col4": "IUCN3.1"
    },
    {
        "col0": "Western rufous bristlebird",
        "col1": "Dasyornithidae",
        "col2": "Rufous bristlebird",
        "col3": "EX",
        "col4": "EPBC"
    },
    {
        "col0": "Western Lewin's rail",
        "col1": "Rallidae",
        "col2": "Lewinia pectoralis",
        "col3": "EX",
        "col4": "EPBC"
    },
    {
        "col0": "Tyto pollens",
        "col1": "Tytonidae",
        "col2": "Extinction",
        "col3": "EX",
        "col4": "IUCN3.1"
    },
    {
        "col0": "Timberline sparrow",
        "col1": "Emberizidae",
        "col2": "Brewer's Sparrow",
        "col3": "T4",
        "col4": "TNC"
    },
    {
        "col0": "Tenerife goldcrest",
        "col1": "Regulidae",
        "col2": "Regulus regulus",
        "col3": "LC",
        "col4": "IUCN3.1"
    },
    {
        "col0": "Tasmanian wedge-tailed eagle",
        "col1": "Accipitridae",
        "col2": "Wedge-tailed eagle",
        "col3": "EN",
        "col4": "EPBC"
    },
    {
        "col0": "Tasmanian masked owl",
        "col1": "Tytonidae",
        "col2": "Australian masked owl",
        "col3": "VU",
        "col4": "EPBC"
    },
    {
        "col0": "Tasmanian emu",
        "col1": "Dromaiidae",
        "col2": "Emu",
        "col3": "EX",
        "col4": "iucn2.3"
    },
    {
        "col0": "Tasman booby",
        "col1": "Sulidae",
        "col2": "Sula dactylatra",
        "col3": "NE",
        "col4": "IUCN3.1"
    },
    {
        "col0": "Taita apalis",
        "col1": "Cisticolidae",
        "col2": "Bar-throated apalis",
        "col3": "CR",
        "col4": "IUCN3.1"
    },
    {
        "col0": "Sula pitta",
        "col1": "Pitta",
        "col2": "Erythropitta erythrogaster",
        "col3": "NT",
        "col4": "IUCN3.1"
    },
    {
        "col0": "Spotted great rosefinch",
        "col1": "Fringillidae",
        "col2": "Great rosefinch",
        "col3": "LC",
        "col4": "IUCN3.1"
    },
    {
        "col0": "Silvery-breasted tanager",
        "col1": "Thraupidae",
        "col2": "Tangara velia",
        "col3": "NR",
        "col4": "iucn3.1"
    }
]