[
    {
        "col0": "W. Harris",
        "col1": "Philadelphia",
        "col2": "Philadelphia",
        "col3": "Negro league baseball"
    },
    {
        "col0": "V. Abbott",
        "col1": "Fair Oaks, California",
        "col2": "Canada",
        "col3": "All-American Girls Professional Baseball League"
    },
    {
        "col0": "T. Shively",
        "col1": "United States",
        "col2": "Decatur, Illinois",
        "col3": "All-American Girls Professional Baseball League"
    },
    {
        "col0": "T. Baker",
        "col1": "Brisbane",
        "col2": "Brisbane",
        "col3": "Brisbane Bandits"
    },
    {
        "col0": "T. Kobuszewski",
        "col1": "Trenton, Michigan",
        "col2": "Wyandotte, Michigan",
        "col3": "All-American Girls Professional Baseball League"
    },
    {
        "col0": "T. Eisen",
        "col1": "Pacific Palisades, Los Angeles",
        "col2": "Los Angeles",
        "col3": "All-American Girls Professional Baseball League"
    },
    {
        "col0": "T. Marshall",
        "col1": "Lakewood, Colorado",
        "col2": "Canton, South Dakota",
        "col3": "All-American Girls Professional Baseball League"
    },
    {
        "col0": "S. Wronski",
        "col1": "Milwaukee, Wisconsin",
        "col2": "Milwaukee, Wisconsin",
        "col3": "All-American Girls Professional Baseball League"
    },
    {
        "col0": "S. Kurys",
        "col1": "Arizona",
        "col2": "Michigan",
        "col3": "All-American Girls Professional Baseball League"
    },
    {
        "col0": "S. Berger",
        "col1": "Sun City West, Arizona",
        "col2": "Homestead, Florida",
        "col3": "All-American Girls Professional Baseball League"
    },
    {
        "col0": "S. Stovroff",
        "col1": "Madison, Illinois",
        "col2": "Madison, Illinois",
        "col3": "All-American Girls Professional Baseball League"
    },
    {
        "col0": "S. Crites",
        "col1": "Phoenix, Arizona",
        "col2": "Cape Girardeau, Missouri",
        "col3": "All-American Girls Professional Baseball League"
    },
    {
        "col0": "S. M. Dabbs",
        "col1": "St. Petersburg, Florida",
        "col2": "Largo, Florida",
        "col3": "All-American Girls Professional Baseball League"
    },
    {
        "col0": "R. Williams",
        "col1": "Ambler, Pennsylvania",
        "col2": "Nescopeck, Pennsylvania",
        "col3": "All-American Girls Professional Baseball League"
    },
    {
        "col0": "R. Lessing",
        "col1": "San Antonio, Texas",
        "col2": "San Antonio, Texas",
        "col3": "All-American Girls Professional Baseball League"
    },
    {
        "col0": "R. Stephens",
        "col1": "Holiday, Florida",
        "col2": "Clearwater, Florida",
        "col3": "All-American Girls Professional Baseball League"
    },
    {
        "col0": "R. Gacioch",
        "col1": "Clinton Charter Township, Michigan",
        "col2": "Wheeling, West Virginia",
        "col3": "All-American Girls Professional Baseball League"
    },
    {
        "col0": "R. Folder",
        "col1": "Carnation, Washington",
        "col2": "Springfield, Illinois",
        "col3": "All-American Girls Professional Baseball League"
    },
    {
        "col0": "R. Meyer",
        "col1": "St. Louis, Missouri",
        "col2": "Florissant, Missouri",
        "col3": "All-American Girls Professional Baseball League"
    },
    {
        "col0": "R. Briggs",
        "col1": "Kalamazoo, Michigan",
        "col2": "Ayer, Massachusetts",
        "col3": "All-American Girls Professional Baseball League"
    },
    {
        "col0": "R. Grange",
        "col1": "Florida",
        "col2": "Pennsylvania",
        "col3": "Chicago Bears"
    },
    {
        "col0": "P. Koehn",
        "col1": "Downers Grove, Illinois",
        "col2": "Madison, Wisconsin",
        "col3": "All-American Girls Professional Baseball League"
    },
    {
        "col0": "P. Baker",
        "col1": "Battle Creek, Michigan",
        "col2": "Marshall, Michigan",
        "col3": "All-American Girls Professional Baseball League"
    },
    {
        "col0": "P. Gianfrancisco",
        "col1": "Chicago, Illinois",
        "col2": "Chicago, Illinois",
        "col3": "All-American Girls Professional Baseball League"
    },
    {
        "col0": "P. Paire",
        "col1": "California",
        "col2": "California",
        "col3": "All-American Girls Professional Baseball League"
    },
    {
        "col0": "P. O'Brian",
        "col1": "Canada",
        "col2": "Canada",
        "col3": "All-American Girls Professional Baseball League"
    },
    {
        "col0": "P. Crawley",
        "col1": "Cathedral City, California",
        "col2": "Phoenix, Arizona",
        "col3": "All-American Girls Professional Baseball League"
    },
    {
        "col0": "P. Courtney",
        "col1": "Everett, Massachusetts",
        "col2": "Everett, Massachusetts",
        "col3": "All-American Girls Professional Baseball League"
    },
    {
        "col0": "P. Brown",
        "col1": "Park Ridge, Illinois",
        "col2": "Winthrop, Massachusetts",
        "col3": "All-American Girls Professional Baseball League"
    },
    {
        "col0": "P. Barringer",
        "col1": "Port Charlotte, Florida",
        "col2": "New Carlisle, Ohio",
        "col3": "All-American Girls Professional Baseball League"
    },
    {
        "col0": "N. Leduc",
        "col1": "Leonardo, New Jersey",
        "col2": "Westford, Massachusetts",
        "col3": "All-American Girls Professional Baseball League"
    },
    {
        "col0": "N. Dumovich",
        "col1": "Laguna Hills, California",
        "col2": "Sacramento, California",
        "col3": "Chicago Cubs"
    },
    {
        "col0": "N. Meier",
        "col1": "Fort Wayne, Indiana",
        "col2": "Fort Wayne, Indiana",
        "col3": "All-American Girls Professional Baseball League"
    },
    {
        "col0": "N. Warren",
        "col1": "Southfield, Michigan",
        "col2": "Springfield, Ohio",
        "col3": "All-American Girls Professional Baseball League"
    },
    {
        "col0": "N. Mudge",
        "col1": "Elk River, Minnesota",
        "col2": "New York",
        "col3": "All-American Girls Professional Baseball League"
    },
    {
        "col0": "M. Coben",
        "col1": "Saskatoon, Saskatchewan",
        "col2": "Ontario",
        "col3": "All-American Girls Professional Baseball League"
    },
    {
        "col0": "M. Bevis",
        "col1": "Mount Juliet, Tennessee",
        "col2": "New York City",
        "col3": "All-American Girls Professional Baseball League"
    },
    {
        "col0": "M. Deegan",
        "col1": "New Port Richey, Florida",
        "col2": "Brooklyn",
        "col3": "All-American Girls Professional Baseball League"
    },
    {
        "col0": "M. Warwick",
        "col1": "Alberta",
        "col2": "Canada",
        "col3": "All-American Girls Professional Baseball League"
    },
    {
        "col0": "M. Keagle",
        "col1": "Tolleson, Arizona",
        "col2": "Tolleson, Arizona",
        "col3": "All-American Girls Professional Baseball League"
    },
    {
        "col0": "M. Alspaugh",
        "col1": "Wichita, Kansas",
        "col2": "Wichita, Kansas",
        "col3": "All-American Girls Professional Baseball League"
    },
    {
        "col0": "M. L. Thomas",
        "col1": "Ocala, Florida",
        "col2": "Ocala, Florida",
        "col3": "All-American Girls Professional Baseball League"
    },
    {
        "col0": "M. Rountree",
        "col1": "Highland Beach, Florida",
        "col2": "Miami, Florida",
        "col3": "All-American Girls Professional Baseball League"
    },
    {
        "col0": "M. Reynolds",
        "col1": "Gastonia, North Carolina",
        "col2": "Gastonia, North Carolina",
        "col3": "All-American Girls Professional Baseball League"
    },
    {
        "col0": "M. N. Wisham",
        "col1": "Palatka, Florida",
        "col2": "Greenville, South Carolina",
        "col3": "All-American Girls Professional Baseball League"
    },
    {
        "col0": "M. L. Studnicka",
        "col1": "Hot Springs Village, Arkansas",
        "col2": "Oak Lawn, Illinois",
        "col3": "All-American Girls Professional Baseball League"
    },
    {
        "col0": "M. L. Beschorner",
        "col1": "Yorkville, Illinois",
        "col2": "Sandwich, Illinois",
        "col3": "All-American Girls Professional Baseball League"
    },
    {
        "col0": "M. Froning",
        "col1": "Madison, Wisconsin",
        "col2": "Minster, Ohio",
        "col3": "All-American Girls Professional Baseball League"
    },
    {
        "col0": "M. Dailey",
        "col1": "Lexington, Massachusetts",
        "col2": "Lexington, Massachusetts",
        "col3": "All-American Girls Professional Baseball League"
    },
    {
        "col0": "M. Carey",
        "col1": "Detroit, Michigan",
        "col2": "Detroit, Michigan",
        "col3": "All-American Girls Professional Baseball League"
    },
    {
        "col0": "M. Rommelaere",
        "col1": "Canada",
        "col2": "Canada",
        "col3": "All-American Girls Professional Baseball League"
    },
    {
        "col0": "M. Pieper",
        "col1": "Citrus Springs, Florida",
        "col2": "Clinton, Michigan",
        "col3": "All-American Girls Professional Baseball League"
    },
    {
        "col0": "M. Peters",
        "col1": "West Allis, Wisconsin",
        "col2": "Greenfield, Wisconsin",
        "col3": "All-American Girls Professional Baseball League"
    },
    {
        "col0": "M. Olinger",
        "col1": "Columbus, Ohio",
        "col2": "Sunbury, Ohio",
        "col3": "All-American Girls Professional Baseball League"
    },
    {
        "col0": "M. C. Jones",
        "col1": "Bradenton, Florida",
        "col2": "Providence, Rhode Island",
        "col3": "All-American Girls Professional Baseball League"
    },
    {
        "col0": "M. Wegman",
        "col1": "Delhi Township, Hamilton County, Ohio",
        "col2": "Cincinnati, Ohio",
        "col3": "All-American Girls Professional Baseball League"
    },
    {
        "col0": "M. Kruckel",
        "col1": "South Bend, Indiana",
        "col2": "The Bronx",
        "col3": "All-American Girls Professional Baseball League"
    },
    {
        "col0": "M. Kazmierczak",
        "col1": "Three Lakes, Wisconsin",
        "col2": "Milwaukee, Wisconsin",
        "col3": "All-American Girls Professional Baseball League"
    },
    {
        "col0": "M. Pearson",
        "col1": "Mount Pleasant, Michigan",
        "col2": "Pennsylvania",
        "col3": "All-American Girls Professional Baseball League"
    },
    {
        "col0": "M. Jones",
        "col1": "Moose Jaw",
        "col2": "Regina, Saskatchewan",
        "col3": "All-American Girls Professional Baseball League"
    },
    {
        "col0": "M. Russo",
        "col1": "Milton",
        "col2": "Milton",
        "col3": "All-American Girls Professional Baseball League"
    },
    {
        "col0": "M. Holgerson",
        "col1": "Mobile, Alabama",
        "col2": "Mobile, Alabama",
        "col3": "All-American Girls Professional Baseball League"
    },
    {
        "col0": "M. Danhauser",
        "col1": "Racine, Wisconsin",
        "col2": "Racine, Wisconsin",
        "col3": "All-American Girls Professional Baseball League"
    },
    {
        "col0": "M. English",
        "col1": "Everett, Massachusetts",
        "col2": "Everett, Massachusetts",
        "col3": "All-American Girls Professional Baseball League"
    },
    {
        "col0": "M. Holle",
        "col1": "Lake Forest, Illinois",
        "col2": "Jacksonville, Illinois",
        "col3": "All-American Girls Professional Baseball League"
    },
    {
        "col0": "L. Myers",
        "col1": "Harrisburg, Pennsylvania",
        "col2": "Enola, Pennsylvania",
        "col3": "St. Louis Cardinals"
    },
    {
        "col0": "L. Garcia",
        "col1": "Caracas",
        "col2": "Carupano",
        "col3": "Aberdeen Pheasants"
    },
    {
        "col0": "L. Colacito",
        "col1": "Adams City, Colorado",
        "col2": "Florence, Colorado",
        "col3": "All-American Girls Professional Baseball League"
    },
    {
        "col0": "L. MacLean",
        "col1": "Alberta",
        "col2": "Alberta",
        "col3": "All-American Girls Professional Baseball League"
    },
    {
        "col0": "L. Erickson",
        "col1": "Whitehall, Wisconsin",
        "col2": "Arcadia, Wisconsin",
        "col3": "All-American Girls Professional Baseball League"
    },
    {
        "col0": "L. Clapp",
        "col1": "Cleveland, Ohio",
        "col2": "Harrod, Ohio",
        "col3": "All-American Girls Professional Baseball League"
    },
    {
        "col0": "L. Arnold",
        "col1": "South Bend, Indiana",
        "col2": "Pawtucket, Rhode Island",
        "col3": "All-American Girls Professional Baseball League"
    },
    {
        "col0": "L. Daetweiler",
        "col1": "Long Beach, California",
        "col2": "Lynwood, California",
        "col3": "All-American Girls Professional Baseball League"
    },
    {
        "col0": "L. Fisher",
        "col1": "Detroit, Michigan",
        "col2": "Detroit, Michigan",
        "col3": "All-American Girls Professional Baseball League"
    },
    {
        "col0": "L. Borg",
        "col1": "Baxter, Minnesota",
        "col2": "Minneapolis",
        "col3": "All-American Girls Professional Baseball League"
    },
    {
        "col0": "L. Florreich",
        "col1": "Mexico",
        "col2": "Webster Groves, Missouri",
        "col3": "All-American Girls Professional Baseball League"
    },
    {
        "col0": "L. Jackson",
        "col1": "Tucson, Arizona",
        "col2": "Nashville, Tennessee",
        "col3": "All-American Girls Professional Baseball League"
    },
    {
        "col0": "L. Arnold",
        "col1": "Fort Wayne, Indiana",
        "col2": "Fort Wayne, Indiana",
        "col3": "All-American Girls Professional Baseball League"
    },
    {
        "col0": "K. Rohrer",
        "col1": "Los Angeles, California",
        "col2": "Los Angeles, California",
        "col3": "All-American Girls Professional Baseball League"
    },
    {
        "col0": "K. Heim",
        "col1": "Rosemount, Minnesota",
        "col2": "Alberta",
        "col3": "All-American Girls Professional Baseball League"
    },
    {
        "col0": "K. Blumetta",
        "col1": "North Plainfield, New Jersey",
        "col2": "North Plainfield, New Jersey",
        "col3": "All-American Girls Professional Baseball League"
    },
    {
        "col0": "K. Beare",
        "col1": "Syracuse, New York",
        "col2": "Syracuse, New York",
        "col3": "All-American Girls Professional Baseball League"
    },
    {
        "col0": "K. Winsch",
        "col1": "Quakertown, Pennsylvania",
        "col2": "Allentown, Pennsylvania",
        "col3": "All-American Girls Professional Baseball League"
    },
    {
        "col0": "J. Schofield",
        "col1": "Santa Monica, California",
        "col2": "Canada",
        "col3": "All-American Girls Professional Baseball League"
    },
    {
        "col0": "J. Peppas",
        "col1": "Stuart, Florida",
        "col2": "Kansas City, Missouri",
        "col3": "All-American Girls Professional Baseball League"
    },
    {
        "col0": "J. Dusanko",
        "col1": "Scottsdale, Arizona",
        "col2": "Canada",
        "col3": "All-American Girls Professional Baseball League"
    },
    {
        "col0": "J. Ricketts",
        "col1": "Oquawka, Illinois",
        "col2": "Oquawka, Illinois",
        "col3": "All-American Girls Professional Baseball League"
    },
    {
        "col0": "J. Lenard",
        "col1": "Chicago, Illinois",
        "col2": "Chicago",
        "col3": "All-American Girls Professional Baseball League"
    },
    {
        "col0": "J. Kabick",
        "col1": "Florida",
        "col2": "Detroit, Michigan",
        "col3": "All-American Girls Professional Baseball League"
    },
    {
        "col0": "J. Hasham",
        "col1": "Florida",
        "col2": "Brockton, Massachusetts",
        "col3": "All-American Girls Professional Baseball League"
    },
    {
        "col0": "J. D'Angelo",
        "col1": "Park Ridge, Illinois",
        "col2": "Chicago, Illinois",
        "col3": "All-American Girls Professional Baseball League"
    },
    {
        "col0": "J. Hageman",
        "col1": "Chicago, Illinois",
        "col2": "Chicago, Illinois",
        "col3": "All-American Girls Professional Baseball League"
    },
    {
        "col0": "J. DiGangi",
        "col1": "Coronado, California",
        "col2": "Greenpoint, Brooklyn",
        "col3": "New York Yankees"
    },
    {
        "col0": "J. Winter",
        "col1": "Scottsdale, Arizona",
        "col2": "Chicago",
        "col3": "All-American Girls Professional Baseball League"
    },
    {
        "col0": "J. Weaver",
        "col1": "Metropolis, Illinois",
        "col2": "Metropolis, Illinois",
        "col3": "All-American Girls Professional Baseball League"
    },
    {
        "col0": "J. Denoble",
        "col1": "San Lorenzo, California",
        "col2": "Oakland, California",
        "col3": "All-American Girls Professional Baseball League"
    },
    {
        "col0": "J. Weaver",
        "col1": "Metropolis, Illinois",
        "col2": "Metropolis, Illinois",
        "col3": "All-American Girls Professional Baseball League"
    },
    {
        "col0": "J. Smith",
        "col1": "Harbor Springs, Michigan",
        "col2": "Ann Arbor, Michigan",
        "col3": "All-American Girls Professional Baseball League"
    },
    {
        "col0": "J. Marlowe",
        "col1": "Olyphant, Pennsylvania",
        "col2": "Scranton, Pennsylvania",
        "col3": "All-American Girls Professional Baseball League"
    },
    {
        "col0": "J. Lovell",
        "col1": "Amboy Township, Fulton County, Ohio",
        "col2": "Conneaut, Ohio",
        "col3": "All-American Girls Professional Baseball League"
    },
    {
        "col0": "J. Geissinger",
        "col1": "Kalamazoo, Michigan",
        "col2": "Huntingdon, Pennsylvania",
        "col3": "All-American Girls Professional Baseball League"
    },
    {
        "col0": "J. Cione",
        "col1": "Bozeman, Montana",
        "col2": "Rockford, Illinois",
        "col3": "All-American Girls Professional Baseball League"
    },
    {
        "col0": "J. Krick",
        "col1": "Fort Wayne, Indiana",
        "col2": "Auburn, Indiana",
        "col3": "All-American Girls Professional Baseball League"
    },
    {
        "col0": "J. O'Hara",
        "col1": "Tulsa, Oklahoma",
        "col2": "Beardstown, Illinois",
        "col3": "All-American Girls Professional Baseball League"
    },
    {
        "col0": "J. Wiley",
        "col1": "South Bend, Indiana",
        "col2": "South Bend, Indiana",
        "col3": "All-American Girls Professional Baseball League"
    },
    {
        "col0": "J. Rumsey",
        "col1": "Columbus, Indiana",
        "col2": "Moores Hill, Indiana",
        "col3": "All-American Girls Professional Baseball League"
    },
    {
        "col0": "J. A. Perkin",
        "col1": "Canada",
        "col2": "Canada",
        "col3": "All-American Girls Professional Baseball League"
    },
    {
        "col0": "J. Stoll",
        "col1": "Phoenix, Arizona",
        "col2": "Pennsylvania",
        "col3": "All-American Girls Professional Baseball League"
    },
    {
        "col0": "J. Jacobs",
        "col1": "Cuyahoga Falls, Ohio",
        "col2": "Cuyahoga Falls, Ohio",
        "col3": "All-American Girls Professional Baseball League"
    },
    {
        "col0": "J. Kelley",
        "col1": "Lansing, Michigan",
        "col2": "Lansing, Michigan",
        "col3": "All-American Girls Professional Baseball League"
    },
    {
        "col0": "J. Tighe",
        "col1": "Pompano Beach, Florida",
        "col2": "Kearny, New Jersey",
        "col3": "Detroit Tigers"
    },
    {
        "col0": "J. Cummings",
        "col1": "West Mifflin, Pennsylvania",
        "col2": "Pittsburgh, Pennsylvania",
        "col3": "Boston Braves"
    },
    {
        "col0": "I. Ruhnke",
        "col1": "Rockford, Illinois",
        "col2": "Chicago, Illinois",
        "col3": "All-American Girls Professional Baseball League"
    },
    {
        "col0": "I. Kotowicz",
        "col1": "Elk Grove Village, Illinois",
        "col2": "Chicago",
        "col3": "All-American Girls Professional Baseball League"
    },
    {
        "col0": "I. Hickson",
        "col1": "Racine, Wisconsin",
        "col2": "Chattanooga, Tennessee",
        "col3": "All-American Girls Professional Baseball League"
    },
    {
        "col0": "H. Gilroy",
        "col1": "Philadelphia",
        "col2": "Smyrna, Delaware",
        "col3": "Chicago Cubs"
    },
    {
        "col0": "H. Westerman",
        "col1": "Springfield, Illinois",
        "col2": "Springfield, Illinois",
        "col3": "All-American Girls Professional Baseball League"
    },
    {
        "col0": "H. Walulik",
        "col1": "Rochester, Massachusetts",
        "col2": "Plainfield, New Jersey",
        "col3": "All-American Girls Professional Baseball League"
    },
    {
        "col0": "H. Filarski",
        "col1": "Harper Woods, Michigan",
        "col2": "Detroit, Michigan",
        "col3": "All-American Girls Professional Baseball League"
    },
    {
        "col0": "H. Greiner",
        "col1": "Fort Wayne, Indiana",
        "col2": "Fort Wayne, Indiana",
        "col3": "All-American Girls Professional Baseball League"
    },
    {
        "col0": "H. Patterson",
        "col1": "Panorama City, California",
        "col2": "San Francisco, California",
        "col3": "Boston Red Socks"
    },
    {
        "col0": "G. Schweigerdt",
        "col1": "Wauconda, Illinois",
        "col2": "Chicago",
        "col3": "All-American Girls Professional Baseball League"
    },
    {
        "col0": "G. Ganote",
        "col1": "Louisville, Kentucky",
        "col2": "Louisville, Kentucky",
        "col3": "All-American Girls Professional Baseball League"
    },
    {
        "col0": "G. Dunn",
        "col1": "Avondale, Pennsylvania",
        "col2": "Sharon Hill, Pennsylvania",
        "col3": "All-American Girls Professional Baseball League"
    },
    {
        "col0": "F. Brown",
        "col1": "Worcester, Massachusetts",
        "col2": "Hubbardston, Massachusetts",
        "col3": "Worcester Worcesters"
    },
    {
        "col0": "F. Acker",
        "col1": "Atlanta",
        "col2": "Anderson County, South Carolina",
        "col3": "All-American Girls Professional Baseball League"
    },
    {
        "col0": "F. Fahey",
        "col1": "Boston, Massachusetts",
        "col2": "Milford, Massachusetts",
        "col3": "Philadelphia Athletics"
    },
    {
        "col0": "F. Janssen",
        "col1": "Lafayette, Indiana",
        "col2": "Remington, Indiana",
        "col3": "All-American Girls Professional Baseball League"
    },
    {
        "col0": "F. Battaglia",
        "col1": "Bensenville, Illinois",
        "col2": "Chicago, Illinois",
        "col3": "All-American Girls Professional Baseball League"
    },
    {
        "col0": "F. Dancer",
        "col1": "Los Angeles",
        "col2": "Santa Monica, California",
        "col3": "All-American Girls Professional Baseball League"
    },
    {
        "col0": "E. Adams",
        "col1": "Richmond, Virginia",
        "col2": "Richmond, Virginia",
        "col3": "All-American Girls Professional Baseball League"
    },
    {
        "col0": "E. Wingrove",
        "col1": "Saskatchewan",
        "col2": "Canada",
        "col3": "All-American Girls Professional Baseball League"
    },
    {
        "col0": "E. Steck",
        "col1": "Sun City, Arizona",
        "col2": "Columbus, Ohio",
        "col3": "All-American Girls Professional Baseball League"
    },
    {
        "col0": "E. Tronnier",
        "col1": "Milwaukee, Wisconsin",
        "col2": "Cudahy, Wisconsin",
        "col3": "All-American Girls Professional Baseball League"
    },
    {
        "col0": "E. Ahrndt",
        "col1": "Brodhead, Wisconsin",
        "col2": "Racine, Wisconsin",
        "col3": "All-American Girls Professional Baseball League"
    },
    {
        "col0": "E. Wicken",
        "col1": "Canada",
        "col2": "Canada",
        "col3": "All-American Girls Professional Baseball League"
    },
    {
        "col0": "E. Mahon",
        "col1": "South Bend, Indiana",
        "col2": "Greenville, South Carolina",
        "col3": "All-American Girls Professional Baseball League"
    },
    {
        "col0": "E. Fabac",
        "col1": "Redding, California",
        "col2": "Detroit",
        "col3": "All-American Girls Professional Baseball League"
    },
    {
        "col0": "E. Emry",
        "col1": "New Port Richey, Florida",
        "col2": "Manistique, Michigan",
        "col3": "All-American Girls Professional Baseball League"
    },
    {
        "col0": "E. Harney",
        "col1": "Ann Arbor, Michigan",
        "col2": "Franklin County, Illinois",
        "col3": "All-American Girls Professional Baseball League"
    },
    {
        "col0": "E. Dapkus",
        "col1": "St. John, Indiana",
        "col2": "Chicago, Illinois",
        "col3": "All-American Girls Professional Baseball League"
    },
    {
        "col0": "E. Roth",
        "col1": "Springfield, Michigan",
        "col2": "Michigan City, Indiana",
        "col3": "All-American Girls Professional Baseball League"
    },
    {
        "col0": "E. Roth",
        "col1": "Springfield, Michigan",
        "col2": "Michigan City, Indiana",
        "col3": "All-American Girls Professional Baseball League"
    },
    {
        "col0": "E. Perlick",
        "col1": "Pompano Beach, Florida",
        "col2": "Chicago, Illinois",
        "col3": "All-American Girls Professional Baseball League"
    },
    {
        "col0": "E. Scheer",
        "col1": "Cedarburg, Wisconsin",
        "col2": "Cedarburg, Wisconsin",
        "col3": "All-American Girls Professional Baseball League"
    },
    {
        "col0": "E. Barney",
        "col1": "North Port, Florida",
        "col2": "Bridgeport, Connecticut",
        "col3": "All-American Girls Professional Baseball League"
    },
    {
        "col0": "E. Risinger",
        "col1": "Oklahoma",
        "col2": "Oklahoma",
        "col3": "All-American Girls Professional Baseball League"
    },
    {
        "col0": "D. Branom",
        "col1": "Sun City, Arizona",
        "col2": "Sulphur Springs, Texas",
        "col3": "Philadelphia Athletics"
    },
    {
        "col0": "D. Hunter",
        "col1": "Canada",
        "col2": "Canada",
        "col3": "All-American Girls Professional Baseball League"
    },
    {
        "col0": "D. Green",
        "col1": "Natick, Massachusetts",
        "col2": "Natick, Massachusetts",
        "col3": "All-American Girls Professional Baseball League"
    },
    {
        "col0": "D. Stolze",
        "col1": "Alameda, California",
        "col2": "Alameda, California",
        "col3": "All-American Girls Professional Baseball League"
    },
    {
        "col0": "D. Naum",
        "col1": "Galesburg, Illinois",
        "col2": "Dearborn, Michigan",
        "col3": "All-American Girls Professional Baseball League"
    },
    {
        "col0": "D. Montgomery",
        "col1": "Chattanooga, Tennessee",
        "col2": "Asheville, North Carolina",
        "col3": "All-American Girls Professional Baseball League"
    },
    {
        "col0": "D. Maguire",
        "col1": "Spencer, Ohio",
        "col2": "LaGrange, Ohio",
        "col3": "All-American Girls Professional Baseball League"
    },
    {
        "col0": "D. Kamenshek",
        "col1": "California",
        "col2": "Ohio",
        "col3": "All-American Girls Professional Baseball League"
    },
    {
        "col0": "D. Harrell",
        "col1": "Cathedral City, California",
        "col2": "Los Angeles, California",
        "col3": "All-American Girls Professional Baseball League"
    },
    {
        "col0": "D. Ferguson",
        "col1": "Rockford, Illinois",
        "col2": "Canada",
        "col3": "All-American Girls Professional Baseball League"
    },
    {
        "col0": "D. Tetzlaff",
        "col1": "Iola, Wisconsin",
        "col2": "Watertown, Wisconsin",
        "col3": "All-American Girls Professional Baseball League"
    },
    {
        "col0": "D. Satterfield",
        "col1": "Grand Rapids, Michigan",
        "col2": "Belmont, North Carolina",
        "col3": "All-American Girls Professional Baseball League"
    },
    {
        "col0": "D. Sams",
        "col1": "Knoxville, Tennessee",
        "col2": "Knoxville, Tennessee",
        "col3": "All-American Girls Professional Baseball League"
    },
    {
        "col0": "D. Neal",
        "col1": "Sarasota, Florida",
        "col2": "Lincoln Park, Michigan",
        "col3": "All-American Girls Professional Baseball League"
    },
    {
        "col0": "D. Barr",
        "col1": "Canada",
        "col2": "Canada",
        "col3": "All-American Girls Professional Baseball League"
    },
    {
        "col0": "D. Cook",
        "col1": "North Muskegon, Michigan",
        "col2": "Muskegon, Michigan",
        "col3": "All-American Girls Professional Baseball League"
    },
    {
        "col0": "D. Moore",
        "col1": "Bensenville, Illinois",
        "col2": "Chicago, Illinois",
        "col3": "All-American Girls Professional Baseball League"
    },
    {
        "col0": "D. Errickson",
        "col1": "Vineland, New Jersey",
        "col2": "Vineland, New Jersey",
        "col3": "Chicago Cubs"
    },
    {
        "col0": "D. Junor",
        "col1": "Canada",
        "col2": "Canada",
        "col3": "All-American Girls Professional Baseball League"
    },
    {
        "col0": "C. Crespi",
        "col1": "Florissant, Missouri",
        "col2": "St. Louis, Missouri",
        "col3": "St. Louis Cardinals"
    },
    {
        "col0": "C. Wisniewski",
        "col1": "Seminole, Florida",
        "col2": "Detroit, Michigan",
        "col3": "All-American Girls Professional Baseball League"
    },
    {
        "col0": "C. Barfoot",
        "col1": "Highland Park, California",
        "col2": "Richmond, Virginia",
        "col3": "St. Louis Cardinals"
    },
    {
        "col0": "C. Cook",
        "col1": "Elmira, New York",
        "col2": "Pine City, New York",
        "col3": "All-American Girls Professional Baseball League"
    },
    {
        "col0": "C. Schillace",
        "col1": "Bethesda, Maryland",
        "col2": "Melrose Park, Illinois",
        "col3": "All-American Girls Professional Baseball League"
    },
    {
        "col0": "C. Armstrong",
        "col1": "Phoenix, Arizona",
        "col2": "Texas",
        "col3": "All-American Girls Professional Baseball League"
    },
    {
        "col0": "C. Atherton",
        "col1": "Austria",
        "col2": "New Jersey",
        "col3": "Pittsburgh Athletic Club"
    },
    {
        "col0": "C. Pryer",
        "col1": "Medford, Oregon",
        "col2": "Watsonville, California",
        "col3": "All-American Girls Professional Baseball League"
    },
    {
        "col0": "C. Barnett",
        "col1": "Elgin, Illinois",
        "col2": "Elgin, Illinois",
        "col3": "All-American Girls Professional Baseball League"
    },
    {
        "col0": "C. Morris",
        "col1": "Mesa, Arizona",
        "col2": "Phoenix, Arizona",
        "col3": "All-American Girls Professional Baseball League"
    },
    {
        "col0": "C. Habben",
        "col1": "Ridgewood, New Jersey",
        "col2": "Midland Park, New Jersey",
        "col3": "All-American Girls Professional Baseball League"
    },
    {
        "col0": "B. Shettsline",
        "col1": "Pennsylvania",
        "col2": "Pennsylvania",
        "col3": "Philadelphia Phillies"
    },
    {
        "col0": "B. Allington",
        "col1": "Tucson, Arizona",
        "col2": "St. Clair County, Michigan",
        "col3": "All-American Girls Professional Baseball League"
    },
    {
        "col0": "B. Dustrude",
        "col1": "Oxnard, California",
        "col2": "Beloit, Wisconsin",
        "col3": "All-American Girls Professional Baseball League"
    },
    {
        "col0": "B. Whiting",
        "col1": "Battle Creek, Michigan",
        "col2": "Ida Township, Michigan",
        "col3": "All-American Girls Professional Baseball League"
    },
    {
        "col0": "B. Warfel",
        "col1": "Enola, Pennsylvania",
        "col2": "Enola, Pennsylvania",
        "col3": "All-American Girls Professional Baseball League"
    }
]