[
    {
        "col0": "V. Wilson",
        "col1": "Australia",
        "col2": "Queensland University of Technology",
        "col3": "1965-02-11",
        "col4": "1965-02-11"
    },
    {
        "col0": "T. A. Amaru-Tibble",
        "col1": "New Zealand",
        "col2": "Victoria University of Wellington",
        "col3": "1989-05-11",
        "col4": "1989-05-11"
    },
    {
        "col0": "T. Greenway",
        "col1": "England",
        "col2": "University of Bath",
        "col3": "1982-10-06",
        "col4": "1982-10-06"
    },
    {
        "col0": "S. Pettitt",
        "col1": "Canberra",
        "col2": "University of Sydney",
        "col3": "1984-03-23",
        "col4": "1984-03-23"
    },
    {
        "col0": "S. Purvis",
        "col1": "Christchurch",
        "col2": "Otago University",
        "col3": "1993-04-20",
        "col4": "1993-04-20"
    },
    {
        "col0": "S. Nalatu",
        "col1": "Australia",
        "col2": "Griffith University",
        "col3": "1980-03-21",
        "col4": "1980-03-21"
    },
    {
        "col0": "R. Ingles",
        "col1": "Melbourne",
        "col2": "La Trobe University",
        "col3": "1986-07-18",
        "col4": "1986-07-18"
    },
    {
        "col0": "N. Jones",
        "col1": "Wrexham",
        "col2": "Cardiff Metropolitan University",
        "col3": "1992-04-06",
        "col4": "1992-04-06"
    },
    {
        "col0": "L. Ellis",
        "col1": "New South Wales",
        "col2": "Macquarie University",
        "col3": "1973-01-17",
        "col4": "1973-01-17"
    },
    {
        "col0": "L. Langman",
        "col1": "New Zealand",
        "col2": "Waikato University",
        "col3": "1986-04-16",
        "col4": "1986-04-16"
    },
    {
        "col0": "L. Geitz",
        "col1": "Australia",
        "col2": "Queensland University of Technology",
        "col3": "1987-1-4",
        "col4": "1987-1-4"
    }
]