[
    {
        "col0": "Wild West Hero",
        "col1": "J. Lynne",
        "col2": "It's Over",
        "col3": "Munich"
    },
    {
        "col0": "Wild One",
        "col1": "W. \". Stevenson",
        "col2": "Nowhere to Run",
        "col3": "Detroit"
    },
    {
        "col0": "Wild Night",
        "col1": "V. Morrison",
        "col2": "Tupelo Honey",
        "col3": "Wally Heider Studios"
    },
    {
        "col0": "Wild Is the Wind",
        "col1": "N. Washington",
        "col2": "Baal",
        "col3": "Hollywood"
    },
    {
        "col0": "Wild Honey Pie",
        "col1": "Lennon-McCartney",
        "col2": "The Continuing Story of Bungalow Bill",
        "col3": "Abbey Road Studios"
    },
    {
        "col0": "Why You Wanna Treat Me So Bad?",
        "col1": "Prince",
        "col2": "Still Waiting",
        "col3": "Burbank, California"
    },
    {
        "col0": "Why Worry?",
        "col1": "C. Brennan",
        "col2": "Both Sides Now",
        "col3": "Dublin"
    },
    {
        "col0": "Why Won't You Make Up Your Mind?",
        "col1": "K. Parker",
        "col2": "Elephant",
        "col3": "Western Australia"
    },
    {
        "col0": "Why Should We Try Anymore",
        "col1": "H. Williams",
        "col2": "Moanin' the Blues",
        "col3": "Nashville"
    },
    {
        "col0": "Why Don't You Love Me",
        "col1": "H. Williams",
        "col2": "Why Should We Try Anymore",
        "col3": "Nashville"
    },
    {
        "col0": "Why Do You Love Me",
        "col1": "Garbage",
        "col2": "Bleed Like Me",
        "col3": "Madison, Wisconsin"
    },
    {
        "col0": "Why Do Fools Fall in Love",
        "col1": "F. Lymon",
        "col2": "I Get Around",
        "col3": "1964 in music"
    },
    {
        "col0": "Why Can't He Be You",
        "col1": "H. Cochran",
        "col2": "Leavin' on Your Mind",
        "col3": "Nashville, Tennessee"
    },
    {
        "col0": "Why Baby Why",
        "col1": "G. Jones",
        "col2": "More and More",
        "col3": "Houston"
    },
    {
        "col0": "Why",
        "col1": "A. Gibb",
        "col2": "Desire",
        "col3": "Los Angeles"
    },
    {
        "col0": "Why",
        "col1": "Babyface",
        "col2": "I Need You",
        "col3": "1995 in music"
    },
    {
        "col0": "Wholy Holy",
        "col1": "M. Gaye",
        "col2": "Inner City Blues",
        "col3": "Hitsville USA"
    },
    {
        "col0": "Whole Lotta Love",
        "col1": "J. Page",
        "col2": "Immigrant Song",
        "col3": "London"
    },
    {
        "col0": "Whole Lot of Shakin' in My Heart",
        "col1": "F. Wilson",
        "col2": "(Come 'Round Here) I'm the One You Need",
        "col3": "Hitsville USA"
    },
    {
        "col0": "Whole Lot of Leavin'",
        "col1": "J. B. Jovi",
        "col2": "We Weren't Born to Follow",
        "col3": "California"
    },
    {
        "col0": "Whole Again",
        "col1": "A. McCluskey",
        "col2": "Eternal Flame",
        "col3": "Liverpool"
    },
    {
        "col0": "Who the 'Ell Is Tauriel?",
        "col1": "C. Winchester",
        "col2": "Dwarf On A Pig",
        "col3": "Pukerua Bay"
    },
    {
        "col0": "Who Really Cares",
        "col1": "B. Fanning",
        "col2": "All of the Dreamers",
        "col3": "Los Angeles"
    },
    {
        "col0": "Who Put the Devil in You",
        "col1": "T. Rogers",
        "col2": "Deliverance",
        "col3": "Melbourne"
    },
    {
        "col0": "Who Let In the Rain",
        "col1": "C. Lauper",
        "col2": "That's What I Think",
        "col3": "1993 in music"
    },
    {
        "col0": "Who Is She 2 U",
        "col1": "Timbaland",
        "col2": "Afrodisiac",
        "col3": "Florida"
    },
    {
        "col0": "Who Dat Girl",
        "col1": "B. Mars",
        "col2": "Dance with Me",
        "col3": "Conway Recording Studios"
    },
    {
        "col0": "Who Could Win a Rabbit",
        "col1": "A. Collective",
        "col2": "Grass",
        "col3": "2003 in music"
    },
    {
        "col0": "Who Am I",
        "col1": "M. Hall",
        "col2": "Voice of Truth",
        "col3": "Franklin, Tennessee"
    },
    {
        "col0": "Who's Lovin' You",
        "col1": "W. \". Robinson",
        "col2": "ABC",
        "col3": "Hitsville USA"
    },
    {
        "col0": "Who's Laughing Now",
        "col1": "J. J",
        "col2": "Domino",
        "col3": "California"
    },
    {
        "col0": "Who's Got a Match?",
        "col1": "S. Neil",
        "col2": "Mountains",
        "col3": "British Columbia"
    },
    {
        "col0": "Who's Gonna Win the War?",
        "col1": "D. Brock",
        "col2": "Motorway City",
        "col3": "Rockfield Studios"
    },
    {
        "col0": "Who's Crying Now",
        "col1": "J. Cain",
        "col2": "Don't Stop Believin'",
        "col3": "1981 in music"
    },
    {
        "col0": "Who's Been Writing on the Wall Again",
        "col1": "B. Gibb",
        "col2": "Treacle Brown",
        "col3": "Sydney"
    },
    {
        "col0": "Who'll Be the One",
        "col1": "G. Young",
        "col2": "Heaven and Hell",
        "col3": "London"
    },
    {
        "col0": "White Room",
        "col1": "J. Bruce",
        "col2": "Cross Road Blues",
        "col3": "Atlantic Studios"
    },
    {
        "col0": "White Rabbit",
        "col1": "G. Slick",
        "col2": "The Ballad of You and Me and Pooneil",
        "col3": "California"
    },
    {
        "col0": "White Prayer",
        "col1": "A. Nine",
        "col2": "Tsubasa",
        "col3": "2007 in music"
    },
    {
        "col0": "White Light/White Heat",
        "col1": "L. Reed",
        "col2": "Blue Jean",
        "col3": "Manhattan"
    },
    {
        "col0": "White Guilt",
        "col1": "M. Caughthran",
        "col2": "Young Bloods",
        "col3": "Venice, Los Angeles, California"
    },
    {
        "col0": "White Fool",
        "col1": "P. Brennan",
        "col2": "The Hunter",
        "col3": "Los Angeles"
    },
    {
        "col0": "Whisper Your Name",
        "col1": "A. Tierney",
        "col2": "Everytime You Cry",
        "col3": "Australia"
    },
    {
        "col0": "Where the Streets Have No Name",
        "col1": "Bono",
        "col2": "In God's Country",
        "col3": "Dublin"
    },
    {
        "col0": "Where You Lead",
        "col1": "C. King",
        "col2": "Will You Love Me Tomorrow",
        "col3": "Jim Henson Company Lot"
    },
    {
        "col0": "Where We Belong",
        "col1": "Lostprophets",
        "col2": "For He's a Jolly Good Felon",
        "col3": "Hollywood, Los Angeles, California"
    },
    {
        "col0": "Where Is My Mind?",
        "col1": "B. Francis",
        "col2": "Cactus",
        "col3": "Boston"
    },
    {
        "col0": "Where I Stood",
        "col1": "M. Higgins",
        "col2": "Peachy",
        "col3": "Los Angeles, California"
    },
    {
        "col0": "Where Did Our Love Go",
        "col1": "Holland-Dozier-Holland",
        "col2": "Baby Love",
        "col3": "Hitsville U.S.A."
    },
    {
        "col0": "Where Are We Now?",
        "col1": "D. Bowie",
        "col2": "The Stars",
        "col3": "New York"
    },
    {
        "col0": "Where's Summer B.?",
        "col1": "B. Folds",
        "col2": "Philosophy",
        "col3": "Chapel Hill, North Carolina"
    },
    {
        "col0": "Whenever There Is Love",
        "col1": "B. Roberts",
        "col2": "Con te partiro",
        "col3": "1996 in music"
    },
    {
        "col0": "When the War Is Over",
        "col1": "S. Prestwich",
        "col2": "Hold Me Tight",
        "col3": "Hollywood, California"
    },
    {
        "col0": "When the Sun Goes Down",
        "col1": "A. Turner",
        "col2": "Leave Before the Lights Come On",
        "col3": "Lincolnshire"
    },
    {
        "col0": "When the Lovelight Starts Shining Through His Eyes",
        "col1": "Holland-Dozier-Holland",
        "col2": "Run, Run, Run",
        "col3": "Hitsville U.S.A."
    },
    {
        "col0": "When the Angels Sing",
        "col1": "P. Ries",
        "col2": "Something about Us",
        "col3": "Germany"
    },
    {
        "col0": "When a Blind Man Cries",
        "col1": "I. Gillan",
        "col2": "Smoke on the Water",
        "col3": "Switzerland"
    },
    {
        "col0": "When Your Heart Stops Beating",
        "col1": "T. Barker",
        "col2": "Baby Come On",
        "col3": "California"
    },
    {
        "col0": "When You Were Mine",
        "col1": "Prince",
        "col2": "The Goonies 'R' Good Enough",
        "col3": "New York"
    },
    {
        "col0": "When You Tell Me That You Love Me",
        "col1": "A. Hammond",
        "col2": "Amazing",
        "col3": "London"
    },
    {
        "col0": "When You Say You Love Me",
        "col1": "D. Hayes",
        "col2": "Guilty",
        "col3": "Australia"
    },
    {
        "col0": "When You're Looking Like That",
        "col1": "A. Carlsson",
        "col2": "Queen of My Heart",
        "col3": "Stockholm"
    },
    {
        "col0": "When You're Gone",
        "col1": "A. Lavigne",
        "col2": "Hot",
        "col3": "Abbey Road Studios"
    },
    {
        "col0": "When We Were Young",
        "col1": "C. Mitchell",
        "col2": "16",
        "col3": "New South Wales"
    },
    {
        "col0": "When We Were Young",
        "col1": "E. Kennedy",
        "col2": "Don't Come Back",
        "col3": "Australia"
    },
    {
        "col0": "When We Were Young",
        "col1": "Adele",
        "col2": "Send My Love",
        "col3": "Dean Street Studios"
    },
    {
        "col0": "When We Were Beautiful",
        "col1": "R. Sambora",
        "col2": "What Do You Got?",
        "col3": "California"
    },
    {
        "col0": "When We Was Fab",
        "col1": "G. Harrison",
        "col2": "This Is Love",
        "col3": "FPSHOT"
    }
]