[
    {
        "col0": "All the Rage",
        "col1": "Hosts",
        "col2": "Conspiracies",
        "col3": "PS3573.I45695 A79 2000"
    },
    {
        "col0": "All the Beautiful Sinners",
        "col1": "The Bird is Gone: A Manifesto",
        "col2": "The Fast Red Road: A Plainsong",
        "col3": "PS3560.O5395 A78 2003"
    },
    {
        "col0": "Alfred Kropp: The Seal of Solomon",
        "col1": "Alfred Kropp: The Thirteenth Skull",
        "col2": "The Extraordinary Adventures of Alfred Kropp",
        "col3": "PZ7.Y19197 Alf 2007"
    },
    {
        "col0": "Alcatraz Versus the Scrivener's Bones",
        "col1": "Alcatraz Versus the Knights of Crystallia",
        "col2": "Alcatraz Versus the Evil Librarians",
        "col3": "PZ7.S19797 Als 2008"
    },
    {
        "col0": "Airframe",
        "col1": "Timeline",
        "col2": "The Lost World",
        "col3": "PS3553.R48 A77 1996"
    },
    {
        "col0": "Air Apparent",
        "col1": "Two to the Fifth",
        "col2": "Stork Naked",
        "col3": "PS3551.N73 A75 2007"
    },
    {
        "col0": "Agatha Christie: An Autobiography",
        "col1": "Miss Marple's Final Cases and Two Other Stories",
        "col2": "Sleeping Murder",
        "col3": "PR6005.H66 Z512 1977b"
    },
    {
        "col0": "Aenir",
        "col1": "Above the Veil",
        "col2": "Castle",
        "col3": "CPB Box no. 1881 vol. 20"
    },
    {
        "col0": "Adrian Mole and the Weapons of Mass Destruction",
        "col1": "Adrian Mole: The Prostrate Years",
        "col2": "Adrian Mole: The Cappuccino Years",
        "col3": "PR6070.O897 A65 2004"
    },
    {
        "col0": "Across the Sea of Suns",
        "col1": "Great Sky River",
        "col2": "In the Ocean of Night",
        "col3": "PS3552.E542 A65 1984"
    },
    {
        "col0": "Acorna's People",
        "col1": "Acorna's World",
        "col2": "Acorna's Quest",
        "col3": "PS3563.A255 A646 1999"
    },
    {
        "col0": "Academ's Fury",
        "col1": "Cursor's Fury",
        "col2": "Furies of Calderon",
        "col3": "PS3602.U85 A63 2005"
    },
    {
        "col0": "Absolution Gap",
        "col1": "The Prefect",
        "col2": "Redemption Ark",
        "col3": "PR6068.E95 A623 2003"
    },
    {
        "col0": "Absolute Zero",
        "col1": "Bagthorpes Unlimited",
        "col2": "Ordinary Jack",
        "col3": "PZ7.C8645 Ab"
    },
    {
        "col0": "Absolute Friends",
        "col1": "The Mission Song",
        "col2": "The Constant Gardener",
        "col3": "PR6062.E33 A65 2004"
    },
    {
        "col0": "Absalom, Absalom!",
        "col1": "The Unvanquished",
        "col2": "Pylon",
        "col3": "PS3511.A86"
    },
    {
        "col0": "Above the Veil",
        "col1": "Into Battle",
        "col2": "Aenir",
        "col3": "CPB Box no. 1881 vol. 26"
    },
    {
        "col0": "Abide with Me",
        "col1": "Olive Kitteridge",
        "col2": "Amy and Isabelle",
        "col3": "PS3569.T736 A64 2006"
    },
    {
        "col0": "A Year Down Yonder",
        "col1": "A Season of Gifts",
        "col2": "A Long Way from Chicago",
        "col3": "PZ7.P338 Yh 2000"
    },
    {
        "col0": "A Writer's Nightmare",
        "col1": "The World of Nagaraj",
        "col2": "Talkative Man",
        "col3": "PR9499.3.N3 A6 1987"
    },
    {
        "col0": "A World of Hurt",
        "col1": "Flashfire",
        "col2": "Lazarus Rising",
        "col3": "PS3569.H4175 W67 2004"
    },
    {
        "col0": "A Wolf at the Table",
        "col1": "You Better Not Cry: Stories for Christmas",
        "col2": "Possible Side Effects",
        "col3": "PS3552.U745 Z48 2008"
    },
    {
        "col0": "A Wizard of Mars",
        "col1": "Games Wizards Play",
        "col2": "Wizards at War",
        "col3": "PZ7.D84915 Wji 2010"
    },
    {
        "col0": "A Wind in the Door",
        "col1": "A Swiftly Tilting Planet",
        "col2": "A Wrinkle in Time",
        "col3": "PZ7.L5385 Wi"
    },
    {
        "col0": "A Wild Sheep Chase",
        "col1": "Dance Dance Dance",
        "col2": "Pinball, 1973",
        "col3": "PL856.U673 H5713 1989"
    },
    {
        "col0": "A Widow for One Year",
        "col1": "The Fourth Hand",
        "col2": "A Son of the Circus",
        "col3": "PS3559.R8 W53 1998"
    },
    {
        "col0": "A War of Gifts: An Ender Story",
        "col1": "Ender in Exile",
        "col2": "Children of the Mind",
        "col3": "PS3553.A655 W37 2007"
    },
    {
        "col0": "A Tragic Legacy",
        "col1": "Great American Hypocrites",
        "col2": "How Would a Patriot Act?",
        "col3": "E903.3 .G74 2007"
    },
    {
        "col0": "A Touch of Dead",
        "col1": "Dead in the Family",
        "col2": "Dead and Gone",
        "col3": "PS3558.A6427 T68 2009"
    },
    {
        "col0": "A Taste for Death",
        "col1": "Devices and Desires",
        "col2": "Death of an Expert Witness",
        "col3": "PR6060.A467 T3 1986b"
    },
    {
        "col0": "A Stroke of Midnight",
        "col1": "Mistral's Kiss",
        "col2": "Seduced by Moonlight",
        "col3": "PS3558.A443357 S77 2005"
    }
]