[
    {
        "col0": "E. Bayol",
        "col1": "France",
        "col2": "La Ciotat",
        "col3": "0"
    },
    {
        "col0": "X. Perrot",
        "col1": "Switzerland",
        "col2": "Zurich",
        "col3": "0"
    },
    {
        "col0": "W. Brown",
        "col1": "United States",
        "col2": "Williams Grove Speedway",
        "col3": "0"
    },
    {
        "col0": "T. Webb",
        "col1": "United States",
        "col2": "McMinnville, Oregon",
        "col3": "0"
    },
    {
        "col0": "T. d. Graffenried",
        "col1": "Switzerland",
        "col2": "Lonay",
        "col3": "0"
    },
    {
        "col0": "T. Bettenhausen",
        "col1": "United States",
        "col2": "Indianapolis",
        "col3": "0"
    },
    {
        "col0": "T. Pryce",
        "col1": "United Kingdom",
        "col2": "Kyalami",
        "col3": "0"
    },
    {
        "col0": "S. Templeman",
        "col1": "United States",
        "col2": "Marion, Ohio",
        "col3": "0"
    },
    {
        "col0": "S. Hanks",
        "col1": "United States",
        "col2": "Pacific Palisades, Los Angeles",
        "col3": "1"
    },
    {
        "col0": "R. Nuckey",
        "col1": "United Kingdom",
        "col2": "Manila",
        "col3": "0"
    },
    {
        "col0": "R. Ward",
        "col1": "United States",
        "col2": "Anaheim, California",
        "col3": "1"
    },
    {
        "col0": "R. Slotemaker",
        "col1": "Netherlands",
        "col2": "Zandvoort",
        "col3": "0"
    },
    {
        "col0": "R. Paletti",
        "col1": "Italy",
        "col2": "Montreal",
        "col3": "0"
    },
    {
        "col0": "R. Rodriguez",
        "col1": "Mexico",
        "col2": "Mexico City",
        "col3": "0"
    },
    {
        "col0": "R. Parnell",
        "col1": "1962 British Grand Prix",
        "col2": "Derby",
        "col3": "0"
    },
    {
        "col0": "P. Levegh",
        "col1": "France",
        "col2": "Le Mans",
        "col3": "0"
    },
    {
        "col0": "P. Etancelin",
        "col1": "1931 French Grand Prix",
        "col2": "Neuilly-sur-Seine",
        "col3": "0"
    },
    {
        "col0": "P. Hill",
        "col1": "United States",
        "col2": "Salinas, California",
        "col3": "3"
    },
    {
        "col0": "P. Ryan",
        "col1": "Canadians",
        "col2": "Paris",
        "col3": "0"
    },
    {
        "col0": "P. Revson",
        "col1": "American people",
        "col2": "Kyalami",
        "col3": "2"
    },
    {
        "col0": "P. Gethin",
        "col1": "1970 British Grand Prix",
        "col2": "Goodwood Circuit",
        "col3": "1"
    },
    {
        "col0": "P. O'Connor",
        "col1": "United States",
        "col2": "Indianapolis",
        "col3": "0"
    },
    {
        "col0": "P. Birger",
        "col1": "Argentina",
        "col2": "Buenos Aires",
        "col3": "0"
    },
    {
        "col0": "M. Fohr",
        "col1": "United States",
        "col2": "Milwaukee",
        "col3": "0"
    },
    {
        "col0": "M. Spence",
        "col1": "United Kingdom",
        "col2": "Indianapolis",
        "col3": "0"
    },
    {
        "col0": "M. Magill",
        "col1": "United States",
        "col2": "Haddonfield, New Jersey",
        "col3": "0"
    },
    {
        "col0": "M. Hawthorn",
        "col1": "United Kingdom",
        "col2": "Guildford",
        "col3": "3"
    },
    {
        "col0": "M. Donohue",
        "col1": "United States",
        "col2": "Graz",
        "col3": "0"
    },
    {
        "col0": "M. Balsa",
        "col1": "France",
        "col2": "Maisons-Alfort",
        "col3": "0"
    },
    {
        "col0": "M. Ayulo",
        "col1": "United States",
        "col2": "Indianapolis",
        "col3": "0"
    },
    {
        "col0": "M. Winkelhock",
        "col1": "Germany",
        "col2": "Toronto",
        "col3": "0"
    },
    {
        "col0": "M. Hellings",
        "col1": "United States",
        "col2": "Kern County, California",
        "col3": "0"
    },
    {
        "col0": "L. Bianchi",
        "col1": "Belgian",
        "col2": "Le Mans",
        "col3": "0"
    },
    {
        "col0": "L. Chiron",
        "col1": "Monaco",
        "col2": "Monaco",
        "col3": "0"
    },
    {
        "col0": "L. Thorne",
        "col1": "United Kingdom",
        "col2": "Troon",
        "col3": "0"
    },
    {
        "col0": "L. Sutton",
        "col1": "United States",
        "col2": "Portland, Oregon",
        "col3": "0"
    },
    {
        "col0": "L. Wallard",
        "col1": "United States",
        "col2": "St. Petersburg, Florida",
        "col3": "1"
    },
    {
        "col0": "L. Crockett",
        "col1": "United States",
        "col2": "Langhorne, Pennsylvania",
        "col3": "0"
    },
    {
        "col0": "L. Reventlow",
        "col1": "United States",
        "col2": "Aspen, Colorado",
        "col3": "0"
    },
    {
        "col0": "L. Macklin",
        "col1": "United Kingdom",
        "col2": "Kent",
        "col3": "0"
    },
    {
        "col0": "K. Richardson",
        "col1": "United Kingdom",
        "col2": "Bourne, Lincolnshire",
        "col3": "0"
    },
    {
        "col0": "K. Andrews",
        "col1": "United States",
        "col2": "Indianapolis",
        "col3": "0"
    },
    {
        "col0": "J. Bianchi",
        "col1": "French people",
        "col2": "Nice",
        "col3": "0"
    },
    {
        "col0": "J. M. Fangio",
        "col1": "Argentine",
        "col2": "Buenos Aires",
        "col3": "24"
    },
    {
        "col0": "J. Jover",
        "col1": "Spain",
        "col2": "Sitges",
        "col3": "0"
    }
]