[
    {
        "col0": "Victodrobia elongata",
        "col1": "Hydrobiidae",
        "col2": "VU",
        "col3": "IUCN2.3"
    },
    {
        "col0": "Victodrobia burni",
        "col1": "Hydrobiidae",
        "col2": "VU",
        "col3": "IUCN2.3"
    },
    {
        "col0": "Victaphanta compacta",
        "col1": "Rhytididae",
        "col2": "EN",
        "col3": "IUCN2.3"
    },
    {
        "col0": "Victaphanta atramentaria",
        "col1": "Rhytididae",
        "col2": "LR/nt",
        "col3": "IUCN2.3"
    },
    {
        "col0": "Vertigo ultimathule",
        "col1": "Pupilloidea",
        "col2": "NT",
        "col3": "iucn3.1"
    },
    {
        "col0": "Vertigo parcedentata",
        "col1": "Pupilloidea",
        "col2": "VU",
        "col3": "iucn3.1"
    },
    {
        "col0": "Vertigo paradoxa",
        "col1": "Pupilloidea",
        "col2": "DD",
        "col3": "IUCN2.3"
    },
    {
        "col0": "Vertigo ovata",
        "col1": "Pupilloidea",
        "col2": "LR/nt",
        "col3": "IUCN2.3"
    },
    {
        "col0": "Vertigo occulta",
        "col1": "Pupilloidea",
        "col2": "LR/nt",
        "col3": "IUCN2.3"
    },
    {
        "col0": "Vertigo hubrichti",
        "col1": "Pupilloidea",
        "col2": "LR/nt",
        "col3": "IUCN2.3"
    },
    {
        "col0": "Vertigo hebardi",
        "col1": "Pupilloidea",
        "col2": "LR/nt",
        "col3": "IUCN2.3"
    },
    {
        "col0": "Vertigo geyeri",
        "col1": "Pupilloidea",
        "col2": "LR/cd",
        "col3": "iucn2.3"
    },
    {
        "col0": "Vertigo genesii",
        "col1": "Pupilloidea",
        "col2": "LR/cd",
        "col3": "iucn2.3"
    },
    {
        "col0": "Vertigo arthuri",
        "col1": "Pupilloidea",
        "col2": "G5",
        "col3": "TNC"
    },
    {
        "col0": "Vertigo angustior",
        "col1": "Pupilloidea",
        "col2": "LR/cd",
        "col3": "iucn2.3"
    },
    {
        "col0": "Verde Rim springsnail",
        "col1": "Hydrobiidae",
        "col2": "DD",
        "col3": "IUCN2.3"
    },
    {
        "col0": "Varicose rocksnail",
        "col1": "Cerithioidea",
        "col2": "VU",
        "col3": "IUCN2.3"
    },
    {
        "col0": "Valvata virens",
        "col1": "Valvatidae",
        "col2": "VU",
        "col3": "IUCN2.3"
    },
    {
        "col0": "Valvata piscinalis",
        "col1": "Valvatidae",
        "col2": "LC",
        "col3": "iucn3.1"
    },
    {
        "col0": "Valvata macrostoma",
        "col1": "Valvatidae",
        "col2": "LC",
        "col3": "iucn3.1"
    },
    {
        "col0": "Valvata cristata",
        "col1": "Valvatidae",
        "col2": "NE",
        "col3": "iucn2.3"
    },
    {
        "col0": "Vallonia suevica",
        "col1": "Pupilloidea",
        "col2": "EN",
        "col3": "IUCN2.3"
    },
    {
        "col0": "Vallonia enniensis",
        "col1": "Pupilloidea",
        "col2": "DD",
        "col3": "IUCN2.3"
    },
    {
        "col0": "Vallonia declivis",
        "col1": "Pupilloidea",
        "col2": "LR/nt",
        "col3": "IUCN2.3"
    },
    {
        "col0": "Vallonia allamanica",
        "col1": "Pupilloidea",
        "col2": "DD",
        "col3": "IUCN2.3"
    },
    {
        "col0": "Utah roundmouth snail",
        "col1": "Valvatidae",
        "col2": "DL",
        "col3": "ESA"
    },
    {
        "col0": "Utah physa",
        "col1": "Physidae",
        "col2": "VU",
        "col3": "IUCN2.3"
    },
    {
        "col0": "Upland hornsnail",
        "col1": "Cerithioidea",
        "col2": "VU",
        "col3": "IUCN2.3"
    },
    {
        "col0": "Upland combshell",
        "col1": "Unionidae",
        "col2": "CR",
        "col3": "IUCN2.3"
    },
    {
        "col0": "Uniomerus tetralasmus",
        "col1": "Unionidae",
        "col2": "LC",
        "col3": "IUCN3.1"
    },
    {
        "col0": "Unio turtoni",
        "col1": "Unionidae",
        "col2": "DD",
        "col3": "IUCN2.3"
    },
    {
        "col0": "Unio cariei",
        "col1": "Unionidae",
        "col2": "EX",
        "col3": "IUCN2.3"
    },
    {
        "col0": "Uncancylus concentricus",
        "col1": "Planorbidae",
        "col2": "lc",
        "col3": "iucn3.1"
    },
    {
        "col0": "Tyrrheniella josephi",
        "col1": "Helicoidea",
        "col2": "VU",
        "col3": "IUCN2.3"
    },
    {
        "col0": "Tyrrhenaria ceratina",
        "col1": "Helicoidea",
        "col2": "CR",
        "col3": "IUCN3.1"
    },
    {
        "col0": "Tympanotonos fuscatus",
        "col1": "Cerithioidea",
        "col2": "LC",
        "col3": "IUCN3.1"
    },
    {
        "col0": "Tylomelania wallacei",
        "col1": "Pachychilidae",
        "col2": "NE",
        "col3": "iucn3.1"
    },
    {
        "col0": "Tylomelania towutica",
        "col1": "Pachychilidae",
        "col2": "NE",
        "col3": "iucn3.1"
    },
    {
        "col0": "Tylomelania tominangensis",
        "col1": "Pachychilidae",
        "col2": "NE",
        "col3": "iucn3.1"
    },
    {
        "col0": "Tylomelania sinabartfeldi",
        "col1": "Pachychilidae",
        "col2": "NE",
        "col3": "iucn3.1"
    },
    {
        "col0": "Tylomelania sarasinorum",
        "col1": "Pachychilidae",
        "col2": "NE",
        "col3": "iucn3.1"
    },
    {
        "col0": "Tylomelania perfecta",
        "col1": "Pachychilidae",
        "col2": "NE",
        "col3": "iucn3.1"
    },
    {
        "col0": "Tylomelania masapensis",
        "col1": "Pachychilidae",
        "col2": "NE",
        "col3": "iucn3.1"
    },
    {
        "col0": "Tylomelania mahalonensis",
        "col1": "Pachychilidae",
        "col2": "NE",
        "col3": "iucn3.1"
    },
    {
        "col0": "Tylomelania lalemae",
        "col1": "Pachychilidae",
        "col2": "NE",
        "col3": "iucn3.1"
    },
    {
        "col0": "Tylomelania kruimeli",
        "col1": "Pachychilidae",
        "col2": "CR",
        "col3": "IUCN3.1"
    },
    {
        "col0": "Tylomelania helmuti",
        "col1": "Pachychilidae",
        "col2": "NE",
        "col3": "iucn3.1"
    },
    {
        "col0": "Tylomelania hannelorae",
        "col1": "Pachychilidae",
        "col2": "NE",
        "col3": "iucn3.1"
    },
    {
        "col0": "Tylomelania connectens",
        "col1": "Pachychilidae",
        "col2": "NE",
        "col3": "iucn3.1"
    },
    {
        "col0": "Tylomelania centaurus",
        "col1": "Pachychilidae",
        "col2": "NE",
        "col3": "iucn3.1"
    },
    {
        "col0": "Tylomelania celebicola",
        "col1": "Pachychilidae",
        "col2": "NE",
        "col3": "iucn3.1"
    },
    {
        "col0": "Tylomelania carota",
        "col1": "Pachychilidae",
        "col2": "NE",
        "col3": "iucn3.1"
    },
    {
        "col0": "Tylomelania baskasti",
        "col1": "Pachychilidae",
        "col2": "NE",
        "col3": "iucn3.1"
    },
    {
        "col0": "Tylomelania abendanoni",
        "col1": "Pachychilidae",
        "col2": "NE",
        "col3": "iucn3.1"
    },
    {
        "col0": "Turgid riffle shell",
        "col1": "Unionidae",
        "col2": "EX",
        "col3": "IUCN2.3"
    },
    {
        "col0": "Turgenitubulus tanmurrana",
        "col1": "Camaenidae",
        "col2": "VU",
        "col3": "IUCN2.3"
    },
    {
        "col0": "Turgenitubulus pagodula",
        "col1": "Camaenidae",
        "col2": "VU",
        "col3": "IUCN2.3"
    },
    {
        "col0": "Turgenitubulus opiranus",
        "col1": "Camaenidae",
        "col2": "VU",
        "col3": "IUCN2.3"
    },
    {
        "col0": "Turgenitubulus foramenus",
        "col1": "Camaenidae",
        "col2": "VU",
        "col3": "IUCN2.3"
    },
    {
        "col0": "Turgenitubulus depressus",
        "col1": "Camaenidae",
        "col2": "VU",
        "col3": "IUCN2.3"
    },
    {
        "col0": "Turgenitubulus costus",
        "col1": "Camaenidae",
        "col2": "VU",
        "col3": "IUCN2.3"
    },
    {
        "col0": "Turgenitubulus aslini",
        "col1": "Camaenidae",
        "col2": "VU",
        "col3": "IUCN2.3"
    },
    {
        "col0": "Tumbling Creek cavesnail",
        "col1": "Amnicolidae",
        "col2": "EN",
        "col3": "IUCN2.3"
    },
    {
        "col0": "Tulotoma magnifica",
        "col1": "Viviparidae",
        "col2": "EN",
        "col3": "IUCN2.3"
    },
    {
        "col0": "Tubuaia fosbergi",
        "col1": "Helicarionidae",
        "col2": "VU",
        "col3": "IUCN2.3"
    },
    {
        "col0": "Truncatellina atomus",
        "col1": "Pupilloidea",
        "col2": "DD",
        "col3": "IUCN3.1"
    },
    {
        "col0": "Truncatellina arcyensis",
        "col1": "Pupilloidea",
        "col2": "EN",
        "col3": "IUCN3.1"
    },
    {
        "col0": "Truncatella guerinii",
        "col1": "Rissooidea",
        "col2": "DD",
        "col3": "IUCN2.3"
    },
    {
        "col0": "Trukcharopa trukana",
        "col1": "Charopidae",
        "col2": "DD",
        "col3": "IUCN2.3"
    },
    {
        "col0": "True pigtoe",
        "col1": "Unionidae",
        "col2": "EX",
        "col3": "IUCN2.3"
    },
    {
        "col0": "Tropidoptera heliciformis",
        "col1": "Cochlicopoidea",
        "col2": "CR",
        "col3": "IUCN2.3"
    },
    {
        "col0": "Tropidophora semilineata",
        "col1": "Littorinoidea",
        "col2": "EX",
        "col3": "IUCN2.3"
    },
    {
        "col0": "Tropidophora michaudi",
        "col1": "Littorinoidea",
        "col2": "DD",
        "col3": "IUCN2.3"
    },
    {
        "col0": "Tropidophora desmazuresi",
        "col1": "Littorinoidea",
        "col2": "EX",
        "col3": "IUCN2.3"
    },
    {
        "col0": "Tropidophora deburghiae",
        "col1": "Littorinoidea",
        "col2": "EN",
        "col3": "IUCN2.3"
    },
    {
        "col0": "Tropidophora carinata",
        "col1": "Littorinoidea",
        "col2": "DD",
        "col3": "IUCN2.3"
    },
    {
        "col0": "Tropidophora articulata",
        "col1": "Littorinoidea",
        "col2": "EN",
        "col3": "IUCN2.3"
    },
    {
        "col0": "Trochulus oreinos",
        "col1": "Helicoidea",
        "col2": "NT",
        "col3": "IUCN3.1"
    },
    {
        "col0": "Trochulus hispidus",
        "col1": "Helicoidea",
        "col2": "LC",
        "col3": "iucn3.1"
    },
    {
        "col0": "Trochulus graminicola",
        "col1": "Helicoidea",
        "col2": "NT",
        "col3": "IUCN3.1"
    },
    {
        "col0": "Trochulus caelatus",
        "col1": "Helicoidea",
        "col2": "DD",
        "col3": "IUCN2.3"
    },
    {
        "col0": "Trochulus biconicus",
        "col1": "Helicoidea",
        "col2": "DD",
        "col3": "IUCN2.3"
    },
    {
        "col0": "Trochulus alpicola",
        "col1": "Helicoidea",
        "col2": "DD",
        "col3": "IUCN"
    },
    {
        "col0": "Trochozonites usambarensis",
        "col1": "Helicarionoidea",
        "col2": "DD",
        "col3": "IUCN2.3"
    },
    {
        "col0": "Trochomorpha nigritella",
        "col1": "Gastrodontoidea",
        "col2": "DD",
        "col3": "IUCN2.3"
    },
    {
        "col0": "Trochomorpha melvillensis",
        "col1": "Gastrodontoidea",
        "col2": "LR/nt",
        "col3": "IUCN2.3"
    },
    {
        "col0": "Trochomorpha kuesteri",
        "col1": "Gastrodontoidea",
        "col2": "DD",
        "col3": "IUCN2.3"
    },
    {
        "col0": "Trochomorpha contigua",
        "col1": "Gastrodontoidea",
        "col2": "DD",
        "col3": "IUCN2.3"
    },
    {
        "col0": "Trochomorpha conoides",
        "col1": "Gastrodontoidea",
        "col2": "DD",
        "col3": "IUCN2.3"
    },
    {
        "col0": "Trochomorpha carolinae",
        "col1": "Gastrodontoidea",
        "col2": "DD",
        "col3": "IUCN2.3"
    },
    {
        "col0": "Trochomorpha approximata",
        "col1": "Gastrodontoidea",
        "col2": "DD",
        "col3": "IUCN2.3"
    },
    {
        "col0": "Trochomorpha apia",
        "col1": "Gastrodontoidea",
        "col2": "EN",
        "col3": "IUCN2.3"
    },
    {
        "col0": "Trochoidea tarentina",
        "col1": "Helicoidea",
        "col2": "DD",
        "col3": "iucn3.1"
    },
    {
        "col0": "Trochoidea pseudojacosta",
        "col1": "Helicoidea",
        "col2": "CR",
        "col3": "IUCN2.3"
    },
    {
        "col0": "Trochoidea picardi",
        "col1": "Helicoidea",
        "col2": "EX",
        "col3": "IUCN2.3"
    },
    {
        "col0": "Trochoidea liebetruti",
        "col1": "Helicoidea",
        "col2": "NT",
        "col3": "iucn3.1"
    },
    {
        "col0": "Trochoidea elegans",
        "col1": "Helicoidea",
        "col2": "LC",
        "col3": "iucn3.1"
    },
    {
        "col0": "Trochoidea cumiae",
        "col1": "Helicoidea",
        "col2": "NT",
        "col3": "iucn3.1"
    },
    {
        "col0": "Trochoidea caroni",
        "col1": "Helicoidea",
        "col2": "LC",
        "col3": "iucn3.1"
    },
    {
        "col0": "Trochoidea carinatoglobosa",
        "col1": "Helicoidea",
        "col2": "DD",
        "col3": "iucn3.1"
    },
    {
        "col0": "Trochogyra leptotera",
        "col1": "Charopidae",
        "col2": "DD",
        "col3": "IUCN2.3"
    },
    {
        "col0": "Trochochlamys ogasawarana",
        "col1": "Gastrodontoidea",
        "col2": "CR",
        "col3": "IUCN2.3"
    },
    {
        "col0": "Trochidrobia smithi",
        "col1": "Truncatelloidea",
        "col2": "VU",
        "col3": "IUCN2.3"
    },
    {
        "col0": "Trochidrobia punicea",
        "col1": "Truncatelloidea",
        "col2": "LR/nt",
        "col3": "IUCN2.3"
    },
    {
        "col0": "Trochidrobia minuta",
        "col1": "Truncatelloidea",
        "col2": "VU",
        "col3": "IUCN2.3"
    },
    {
        "col0": "Trochidrobia inflata",
        "col1": "Truncatelloidea",
        "col2": "EN",
        "col3": "IUCN2.3"
    },
    {
        "col0": "Trissexodon constrictus",
        "col1": "Helicoidea",
        "col2": "LR/lc",
        "col3": "IUCN2.3"
    },
    {
        "col0": "Trinity bristle snail",
        "col1": "Helicoidea",
        "col2": "VU",
        "col3": "IUCN2.3"
    },
    {
        "col0": "Tridacna rosewateri",
        "col1": "Tridacnidae",
        "col2": "VU",
        "col3": "IUCN2.3"
    },
    {
        "col0": "Tridacna mbalavuana",
        "col1": "Tridacnidae",
        "col2": "VU",
        "col3": "IUCN2.3"
    },
    {
        "col0": "Tricula montana",
        "col1": "Pomatiopsidae",
        "col2": "LC",
        "col3": "IUCN2.3"
    },
    {
        "col0": "Trichotoxon martensi",
        "col1": "Helicarionidae",
        "col2": "DD",
        "col3": "IUCN2.3"
    },
    {
        "col0": "Triangular kidneyshell",
        "col1": "Unionidae",
        "col2": "EN",
        "col3": "IUCN3.1"
    },
    {
        "col0": "Transverse grand pyrg",
        "col1": "Hydrobiidae",
        "col2": "EN",
        "col3": "IUCN2.3"
    },
    {
        "col0": "Trachycystis placenta",
        "col1": "Charopidae",
        "col2": "CR",
        "col3": "IUCN3.1"
    },
    {
        "col0": "Trachycystis haygarthi",
        "col1": "Charopidae",
        "col2": "EN",
        "col3": "IUCN3.1"
    },
    {
        "col0": "Torresitrachia thedana",
        "col1": "Camaenidae",
        "col2": "VU",
        "col3": "IUCN2.3"
    },
    {
        "col0": "Torresitrachia funium",
        "col1": "Camaenidae",
        "col2": "LR/nt",
        "col3": "IUCN2.3"
    },
    {
        "col0": "Torresitrachia crawfordi",
        "col1": "Camaenidae",
        "col2": "LR/lc",
        "col3": "IUCN2.3"
    },
    {
        "col0": "Tornelasmias capricorni",
        "col1": "Pyramidelloidea",
        "col2": "EX",
        "col3": "IUCN2.3"
    },
    {
        "col0": "Tornatellinops ponapensis",
        "col1": "Achatinelloidea",
        "col2": "DD",
        "col3": "IUCN2.3"
    },
    {
        "col0": "Tongaland cannibal snail",
        "col1": "Rhytididae",
        "col2": "VU",
        "col3": "IUCN2.3"
    },
    {
        "col0": "Tomichia tristis",
        "col1": "Pomatiopsidae",
        "col2": "CR",
        "col3": "IUCN3.1"
    },
    {
        "col0": "Tomichia rogersi",
        "col1": "Pomatiopsidae",
        "col2": "EN",
        "col3": "IUCN2.3"
    },
    {
        "col0": "Tomichia natalensis",
        "col1": "Pomatiopsidae",
        "col2": "CR",
        "col3": "IUCN3.1"
    },
    {
        "col0": "Tomichia cawstoni",
        "col1": "Pomatiopsidae",
        "col2": "CR",
        "col3": "IUCN3.1"
    },
    {
        "col0": "Tiphobia horei",
        "col1": "Cerithioidea",
        "col2": "LC",
        "col3": "IUCN3.1"
    },
    {
        "col0": "Tight coin",
        "col1": "Euthyneura",
        "col2": "VU",
        "col3": "IUCN2.3"
    },
    {
        "col0": "Thyrophorella thomensis",
        "col1": "Punctoidea",
        "col2": "DD",
        "col3": "IUCN2.3"
    },
    {
        "col0": "Three Forks springsnail",
        "col1": "Hydrobiidae",
        "col2": "DD",
        "col3": "IUCN2.3"
    },
    {
        "col0": "Thousand Palms desert snail",
        "col1": "Helicoidea",
        "col2": "VU",
        "col3": "IUCN2.3"
    },
    {
        "col0": "Thomea newtoni",
        "col1": "Achatinoidea",
        "col2": "DD",
        "col3": "IUCN2.3"
    },
    {
        "col0": "Thickshell pondsnail",
        "col1": "Lymnaeidae",
        "col2": "CR",
        "col3": "IUCN3.1"
    },
    {
        "col0": "Thick shelled river mussel",
        "col1": "Unionidae",
        "col2": "EN",
        "col3": "iucn3.1"
    },
    {
        "col0": "Thick-lipped pebblesnail",
        "col1": "Hydrobiidae",
        "col2": "EX",
        "col3": "IUCN3.1"
    },
    {
        "col0": "Theskelomensor creon",
        "col1": "Punctoidea",
        "col2": "VU",
        "col3": "IUCN2.3"
    },
    {
        "col0": "Theodoxus subthermalis",
        "col1": "Neritidae",
        "col2": "LC",
        "col3": "IUCN3.1"
    },
    {
        "col0": "Theodoxus prevostianus",
        "col1": "Neritidae",
        "col2": "EN",
        "col3": "IUCN3.1"
    },
    {
        "col0": "Theodoxus pallasi",
        "col1": "Neritidae",
        "col2": "DD",
        "col3": "IUCN3.1"
    },
    {
        "col0": "Theodoxus numidicus",
        "col1": "Neritidae",
        "col2": "VU",
        "col3": "IUCN3.1"
    },
    {
        "col0": "Theodoxus niloticus",
        "col1": "Neritidae",
        "col2": "LC",
        "col3": "IUCN3.1"
    },
    {
        "col0": "Theodoxus meridionalis",
        "col1": "Neritidae",
        "col2": "LC",
        "col3": "IUCN3.1"
    },
    {
        "col0": "Theodoxus maresi",
        "col1": "Neritidae",
        "col2": "DD",
        "col3": "IUCN2.3"
    },
    {
        "col0": "Theodoxus jordani",
        "col1": "Neritidae",
        "col2": "LC",
        "col3": "IUCN3.1"
    },
    {
        "col0": "Theodoxus fluviatilis",
        "col1": "Neritidae",
        "col2": "LC",
        "col3": "iucn3.1"
    },
    {
        "col0": "Theodoxus danubialis",
        "col1": "Neritidae",
        "col2": "NE",
        "col3": "iucn3.1"
    },
    {
        "col0": "Theodoxus anatolicus",
        "col1": "Neritidae",
        "col2": "NT",
        "col3": "IUCN3.1"
    },
    {
        "col0": "Theodoxus altenai",
        "col1": "Neritidae",
        "col2": "CR",
        "col3": "IUCN3.1"
    },
    {
        "col0": "Theba arinagae",
        "col1": "Helicidae",
        "col2": "CR",
        "col3": "IUCN3.1"
    },
    {
        "col0": "Thaumatodon multilamellata",
        "col1": "Punctoidea",
        "col2": "EX",
        "col3": "IUCN2.3"
    },
    {
        "col0": "Thaumatodon hystricelloides",
        "col1": "Punctoidea",
        "col2": "EN",
        "col3": "IUCN2.3"
    },
    {
        "col0": "Thapsia usambarensis",
        "col1": "Helicarionidae",
        "col2": "DD",
        "col3": "IUCN2.3"
    },
    {
        "col0": "Thapsia snelli",
        "col1": "Helicarionidae",
        "col2": "EN",
        "col3": "IUCN2.3"
    },
    {
        "col0": "Thapsia microsculpta",
        "col1": "Helicarionidae",
        "col2": "DD",
        "col3": "IUCN2.3"
    },
    {
        "col0": "Thapsia grandis",
        "col1": "Helicarionidae",
        "col2": "DD",
        "col3": "IUCN2.3"
    },
    {
        "col0": "Thapsia buraensis",
        "col1": "Helicarionidae",
        "col2": "EN",
        "col3": "IUCN3.1"
    },
    {
        "col0": "Thaanumella cookei",
        "col1": "Rissooidea",
        "col2": "DD",
        "col3": "IUCN2.3"
    },
    {
        "col0": "Thaanumella angulosa",
        "col1": "Rissooidea",
        "col2": "DD",
        "col3": "IUCN2.3"
    },
    {
        "col0": "Texas heelsplitter",
        "col1": "Unionidae",
        "col2": "EN",
        "col3": "IUCN2.3"
    },
    {
        "col0": "Teratobaikalia macrostoma",
        "col1": "Amnicolidae",
        "col2": "NE",
        "col3": "IUCN3.1"
    },
    {
        "col0": "Tennessee pebblesnail",
        "col1": "Hydrobiidae",
        "col2": "CR",
        "col3": "IUCN2.3"
    },
    {
        "col0": "Tennessee heelsplitter",
        "col1": "Unionidae",
        "col2": "LR/nt",
        "col3": "IUCN2.3"
    },
    {
        "col0": "Tennessee clubshell",
        "col1": "Unionidae",
        "col2": "VU",
        "col3": "IUCN2.3"
    },
    {
        "col0": "Tengchiena euroxestus",
        "col1": "Gastrodontoidea",
        "col2": "DD",
        "col3": "IUCN2.3"
    },
    {
        "col0": "Telescope octopus",
        "col1": "Amphitretidae",
        "col2": "LC",
        "col3": "IUCN3.1"
    },
    {
        "col0": "Telescope hornsnail",
        "col1": "Cerithioidea",
        "col2": "VU",
        "col3": "IUCN2.3"
    },
    {
        "col0": "Teinostoma funiculatum",
        "col1": "Rissooidea",
        "col2": "DD",
        "col3": "IUCN2.3"
    },
    {
        "col0": "Teinostoma fernandesi",
        "col1": "Rissooidea",
        "col2": "DD",
        "col3": "IUCN2.3"
    },
    {
        "col0": "Tchangmargarya yangtsunghaiensis",
        "col1": "Viviparidae",
        "col2": "CR",
        "col3": "IUCN3.1"
    },
    {
        "col0": "Tayloria hyalinoides",
        "col1": "Streptaxoidea",
        "col2": "DD",
        "col3": "IUCN2.3"
    },
    {
        "col0": "Tayloria angustistriata",
        "col1": "Streptaxoidea",
        "col2": "DD",
        "col3": "IUCN2.3"
    },
    {
        "col0": "Tayloria amaniensis",
        "col1": "Streptaxoidea",
        "col2": "DD",
        "col3": "IUCN2.3"
    },
    {
        "col0": "Tasmaphena lamproides",
        "col1": "Rhytididae",
        "col2": "NT",
        "col3": "IUCN3.1"
    },
    {
        "col0": "Tar River spiny mussel",
        "col1": "Unionidae",
        "col2": "CR",
        "col3": "IUCN2.3"
    },
    {
        "col0": "Tapered cavesnail",
        "col1": "Hydrobiidae",
        "col2": "DD",
        "col3": "IUCN2.3"
    },
    {
        "col0": "Tanganyicia rufofilosa",
        "col1": "Cerithioidea",
        "col2": "NT",
        "col3": "IUCN3.1"
    },
    {
        "col0": "Tanganyicia michelae",
        "col1": "Cerithioidea",
        "col2": "VU",
        "col3": "IUCN3.1"
    },
    {
        "col0": "Tandonia nigra",
        "col1": "Milacidae",
        "col2": "DD",
        "col3": "IUCN2.3"
    },
    {
        "col0": "Tallapoosa pebblesnail",
        "col1": "Hydrobiidae",
        "col2": "DD",
        "col3": "IUCN2.3"
    },
    {
        "col0": "Taipidon octolamellata",
        "col1": "Charopidae",
        "col2": "EX",
        "col3": "IUCN2.3"
    },
    {
        "col0": "Taipidon marquesana",
        "col1": "Charopidae",
        "col2": "EX",
        "col3": "IUCN2.3"
    },
    {
        "col0": "Taipidon anceyana",
        "col1": "Charopidae",
        "col2": "EX",
        "col3": "IUCN2.3"
    },
    {
        "col0": "Taheitia parvula",
        "col1": "Rissooidea",
        "col2": "DD",
        "col3": "IUCN2.3"
    },
    {
        "col0": "Taheitia mariannarum",
        "col1": "Rissooidea",
        "col2": "DD",
        "col3": "IUCN2.3"
    },
    {
        "col0": "Taheitia lamellicosta",
        "col1": "Rissooidea",
        "col2": "DD",
        "col3": "IUCN2.3"
    },
    {
        "col0": "Taheitia alata",
        "col1": "Rissooidea",
        "col2": "DD",
        "col3": "IUCN2.3"
    },
    {
        "col0": "Tacheocampylaea tacheoides",
        "col1": "Helicidae",
        "col2": "EN",
        "col3": "IUCN2.3"
    },
    {
        "col0": "Tacheocampylaea raspaili",
        "col1": "Helicidae",
        "col2": "VU",
        "col3": "IUCN3.1"
    },
    {
        "col0": "Syrnolopsis minuta",
        "col1": "Cerithioidea",
        "col2": "LC",
        "col3": "IUCN3.1"
    }
]