[
    {
        "col0": "Olivet Nazarene University",
        "col1": "J. C. Bowling",
        "col2": "Purple and Gold",
        "col3": "13600000",
        "col4": "6000"
    },
    {
        "col0": "Old Dominion University",
        "col1": "J. R. Broderick",
        "col2": "Slate blue and Silver",
        "col3": "213700000",
        "col4": "24670"
    },
    {
        "col0": "Oklahoma City University",
        "col1": "R. H. Henry",
        "col2": "Blue and White",
        "col3": "94980000",
        "col4": "3023"
    },
    {
        "col0": "Oklahoma Baptist University",
        "col1": "D. W. Whitlock",
        "col2": "Green and Gold",
        "col3": "93700000",
        "col4": "1979"
    },
    {
        "col0": "Ohio University",
        "col1": "R. J. McDavis",
        "col2": "Green and White",
        "col3": "550000000",
        "col4": "38000"
    },
    {
        "col0": "Ohio State University",
        "col1": "M. V. Drake",
        "col2": "ScarletandGray",
        "col3": "3634000000",
        "col4": "58322"
    },
    {
        "col0": "Oglethorpe University",
        "col1": "L. Schall",
        "col2": "Black and Gold",
        "col3": "19700000",
        "col4": "1000"
    },
    {
        "col0": "Occidental College",
        "col1": "J. Veitch",
        "col2": "OrangeandBlack",
        "col3": "406100000",
        "col4": "2114"
    },
    {
        "col0": "Nyack College",
        "col1": "M. G. Scales",
        "col2": "Grey and Crimson",
        "col3": "11900000",
        "col4": "2938"
    },
    {
        "col0": "Nova Southeastern University",
        "col1": "George L. Hanbury II",
        "col2": "Navy blue & Gray",
        "col3": "102700000",
        "col4": "24148"
    },
    {
        "col0": "Northwestern University",
        "col1": "M. O. Schapiro",
        "col2": "Purple",
        "col3": "10193000000",
        "col4": "20955"
    },
    {
        "col0": "Northwest Missouri State University",
        "col1": "J. Jasinski",
        "col2": "Bearcat green and White",
        "col3": "25500000",
        "col4": "6485"
    },
    {
        "col0": "Northeastern University",
        "col1": "J. Aoun",
        "col2": "Black",
        "col3": "729400000",
        "col4": "24944"
    },
    {
        "col0": "North Dakota State University",
        "col1": "D. L. Bresciani",
        "col2": "Yellow and Green",
        "col3": "138000000",
        "col4": "14516"
    }
]