[
    {
        "col0": "White-fronted scops owl",
        "col1": "Strigidae",
        "col2": "IUCN3.1",
        "col3": "VU"
    },
    {
        "col0": "White-fronted quail-dove",
        "col1": "Columbidae",
        "col2": "IUCN3.1",
        "col3": "EN"
    },
    {
        "col0": "White-fronted plover",
        "col1": "Charadriidae",
        "col2": "IUCN3.1",
        "col3": "LC"
    },
    {
        "col0": "White-fronted nunbird",
        "col1": "Bucconidae",
        "col2": "IUCN3.1",
        "col3": "LC"
    },
    {
        "col0": "White-fronted manakin",
        "col1": "Pipridae",
        "col2": "IUCN3.1",
        "col3": "LC"
    },
    {
        "col0": "White-fronted honeyeater",
        "col1": "Meliphagidae",
        "col2": "IUCN3.1",
        "col3": "LC"
    },
    {
        "col0": "White-fronted ground tyrant",
        "col1": "Tyrannidae",
        "col2": "IUCN3.1",
        "col3": "LC"
    },
    {
        "col0": "White-fronted ground dove",
        "col1": "Columbidae",
        "col2": "IUCN3.1",
        "col3": "VU"
    },
    {
        "col0": "White-fronted falconet",
        "col1": "Falconidae",
        "col2": "IUCN3.1",
        "col3": "NT"
    },
    {
        "col0": "White-fronted chat",
        "col1": "Meliphagidae",
        "col2": "IUCN3.1",
        "col3": "LC"
    },
    {
        "col0": "White-fronted capuchin",
        "col1": "Cebidae",
        "col2": "iucn3.1",
        "col3": "LC"
    },
    {
        "col0": "White-fronted black chat",
        "col1": "Muscicapidae",
        "col2": "IUCN3.1",
        "col3": "LC"
    },
    {
        "col0": "White-fronted bee-eater",
        "col1": "Meropidae",
        "col2": "IUCN3.1",
        "col3": "LC"
    },
    {
        "col0": "White-fronted amazon",
        "col1": "Neotropical parrot",
        "col2": "IUCN3.1",
        "col3": "LC"
    },
    {
        "col0": "White-fringed antwren",
        "col1": "Thamnophilidae",
        "col2": "IUCN3.1",
        "col3": "LC"
    },
    {
        "col0": "White-footed vole",
        "col1": "Cricetidae",
        "col2": "IUCN3.1",
        "col3": "LC"
    },
    {
        "col0": "White-footed tamarin",
        "col1": "Callitrichidae",
        "col2": "iucn3.1",
        "col3": "EN"
    },
    {
        "col0": "White-footed saki",
        "col1": "Pitheciidae",
        "col2": "iucn3.1",
        "col3": "VU"
    },
    {
        "col0": "White-footed rabbit-rat",
        "col1": "Muridae",
        "col2": "iucn3.1",
        "col3": "EX"
    },
    {
        "col0": "White-footed mouse",
        "col1": "Cricetidae",
        "col2": "iucn3.1",
        "col3": "LC"
    },
    {
        "col0": "White-footed frog",
        "col1": "Myobatrachidae",
        "col2": "IUCN3.1",
        "col3": "LC"
    },
    {
        "col0": "White-footed dunnart",
        "col1": "Dasyuridae",
        "col2": "iucn3.1",
        "col3": "VU"
    },
    {
        "col0": "White-footed climbing mouse",
        "col1": "Cricetidae",
        "col2": "IUCN3.1",
        "col3": "LC"
    },
    {
        "col0": "White-flippered penguin",
        "col1": "Spheniscidae",
        "col2": "ESA",
        "col3": "E"
    },
    {
        "col0": "White-flanked sunbird",
        "col1": "Nectariniidae",
        "col2": "IUCN3.1",
        "col3": "LC"
    },
    {
        "col0": "White-flanked antwren",
        "col1": "Thamnophilidae",
        "col2": "IUCN3.1",
        "col3": "LC"
    },
    {
        "col0": "White-finned gudgeon",
        "col1": "Cyprinidae",
        "col2": "iucn3.1",
        "col3": "LC"
    },
    {
        "col0": "White-fin smooth-hound",
        "col1": "Houndshark",
        "col2": "iucn3.1",
        "col3": "DD"
    },
    {
        "col0": "White-faced whitestart",
        "col1": "Parulidae",
        "col2": "IUCN3.1",
        "col3": "LC"
    },
    {
        "col0": "White-faced whistling duck",
        "col1": "Anatidae",
        "col2": "IUCN3.1",
        "col3": "LC"
    },
    {
        "col0": "White-faced storm petrel",
        "col1": "Hydrobatidae",
        "col2": "IUCN3.1",
        "col3": "LC"
    },
    {
        "col0": "White-faced starling",
        "col1": "Sturnidae",
        "col2": "iucn3.1",
        "col3": "VU"
    },
    {
        "col0": "White-faced spiny tree-rat",
        "col1": "Echimyidae",
        "col2": "iucn3.1",
        "col3": "LC"
    },
    {
        "col0": "White-faced saki",
        "col1": "Pitheciidae",
        "col2": "iucn3.1",
        "col3": "LC"
    },
    {
        "col0": "White-faced robin",
        "col1": "Petroicidae",
        "col2": "IUCN3.1",
        "col3": "LC"
    },
    {
        "col0": "White-faced quail-dove",
        "col1": "Columbidae",
        "col2": "IUCN3.1",
        "col3": "LC"
    },
    {
        "col0": "White-faced nunbird",
        "col1": "Bucconidae",
        "col2": "IUCN3.1",
        "col3": "LC"
    },
    {
        "col0": "White-faced ibis",
        "col1": "Threskiornithidae",
        "col2": "IUCN3.1",
        "col3": "LC"
    },
    {
        "col0": "White-faced heron",
        "col1": "Ardeidae",
        "col2": "IUCN3.1",
        "col3": "LC"
    },
    {
        "col0": "White-faced darter",
        "col1": "Libellulidae",
        "col2": "IUCN3.1",
        "col3": "LC"
    },
    {
        "col0": "White-faced cuckoo-dove",
        "col1": "Columbidae",
        "col2": "IUCN3.1",
        "col3": "LC"
    },
    {
        "col0": "White-eyed vireo",
        "col1": "Vireonidae",
        "col2": "IUCN3.1",
        "col3": "LC"
    },
    {
        "col0": "White-eyed tody-tyrant",
        "col1": "Tyrannidae",
        "col2": "IUCN3.1",
        "col3": "LC"
    },
    {
        "col0": "White-eyed thrush",
        "col1": "Turdidae",
        "col2": "IUCN3.1",
        "col3": "LC"
    },
    {
        "col0": "White-eyed starling",
        "col1": "Sturnidae",
        "col2": "IUCN3.1",
        "col3": "EN"
    },
    {
        "col0": "White-eyed slaty flycatcher",
        "col1": "Muscicapidae",
        "col2": "IUCN3.1",
        "col3": "LC"
    },
    {
        "col0": "White-eyed robin",
        "col1": "Petroicidae",
        "col2": "IUCN3.1",
        "col3": "LC"
    },
    {
        "col0": "White-eyed river martin",
        "col1": "Swallow",
        "col2": "IUCN3.1",
        "col3": "PE"
    },
    {
        "col0": "White-eyed parakeet",
        "col1": "True parrots",
        "col2": "IUCN3.1",
        "col3": "LC"
    },
    {
        "col0": "White-eyed gull",
        "col1": "Laridae",
        "col2": "IUCN3.1",
        "col3": "NT"
    },
    {
        "col0": "White-eyed foliage-gleaner",
        "col1": "Furnariidae",
        "col2": "IUCN3.1",
        "col3": "LC"
    },
    {
        "col0": "White-eyed buzzard",
        "col1": "Accipitridae",
        "col2": "IUCN3.1",
        "col3": "LC"
    },
    {
        "col0": "White-eyed attila",
        "col1": "Tyrannidae",
        "col2": "IUCN3.1",
        "col3": "LC"
    },
    {
        "col0": "White-eyed antwren",
        "col1": "Thamnophilidae",
        "col2": "IUCN3.1",
        "col3": "LC"
    },
    {
        "col0": "White-eye bream",
        "col1": "Cyprinidae",
        "col2": "iucn3.1",
        "col3": "LC"
    },
    {
        "col0": "White-edged tree frog",
        "col1": "Hylidae",
        "col2": "IUCN3.1",
        "col3": "LC"
    },
    {
        "col0": "White-edged oriole",
        "col1": "Icteridae",
        "col2": "IUCN3.1",
        "col3": "LC"
    },
    {
        "col0": "White-edge freshwater whipray",
        "col1": "Dasyatidae",
        "col2": "IUCN3.1",
        "col3": "EN"
    },
    {
        "col0": "White-eared titi",
        "col1": "Pitheciidae",
        "col2": "IUCN3.1",
        "col3": "LC"
    },
    {
        "col0": "White-eared tailorbird",
        "col1": "Cisticolidae",
        "col2": "IUCN3.1",
        "col3": "LC"
    },
    {
        "col0": "White-eared solitaire",
        "col1": "Turdidae",
        "col2": "IUCN3.1",
        "col3": "LC"
    },
    {
        "col0": "White-eared sibia",
        "col1": "Leiothrichidae",
        "col2": "IUCN3.1",
        "col3": "LC"
    },
    {
        "col0": "White-eared puffbird",
        "col1": "Bucconidae",
        "col2": "IUCN3.1",
        "col3": "LC"
    },
    {
        "col0": "White-eared pocket mouse",
        "col1": "Heteromyidae",
        "col2": "IUCN3.1",
        "col3": "EN"
    },
    {
        "col0": "White-eared parakeet",
        "col1": "True parrots",
        "col2": "IUCN3.1",
        "col3": "NT"
    },
    {
        "col0": "White-eared opossum",
        "col1": "Didelphidae",
        "col2": "iucn3.1",
        "col3": "LC"
    },
    {
        "col0": "White-eared night heron",
        "col1": "Ardeidae",
        "col2": "IUCN3.1",
        "col3": "EN"
    },
    {
        "col0": "White-eared myza",
        "col1": "Meliphagidae",
        "col2": "IUCN3.1",
        "col3": "LC"
    },
    {
        "col0": "White-eared monarch",
        "col1": "Monarchidae",
        "col2": "IUCN3.1",
        "col3": "LC"
    },
    {
        "col0": "White-eared jacamar",
        "col1": "Galbulidae",
        "col2": "IUCN3.1",
        "col3": "LC"
    },
    {
        "col0": "White-eared hummingbird",
        "col1": "Trochilidae",
        "col2": "IUCN3.1",
        "col3": "LC"
    },
    {
        "col0": "White-eared honeyeater",
        "col1": "Meliphagidae",
        "col2": "IUCN3.1",
        "col3": "LC"
    },
    {
        "col0": "White-eared ground sparrow",
        "col1": "Emberizidae",
        "col2": "IUCN3.1",
        "col3": "LC"
    },
    {
        "col0": "White-eared cotton rat",
        "col1": "Cricetidae",
        "col2": "IUCN2.3",
        "col3": "LR/lc"
    },
    {
        "col0": "White-eared conebill",
        "col1": "Thraupidae",
        "col2": "IUCN3.1",
        "col3": "LC"
    },
    {
        "col0": "White-eared catbird",
        "col1": "Ptilonorhynchidae",
        "col2": "IUCN3.1",
        "col3": "LC"
    },
    {
        "col0": "White-eared bulbul",
        "col1": "Bulbul",
        "col2": "IUCN3.1",
        "col3": "LC"
    },
    {
        "col0": "White-eared brown dove",
        "col1": "Columbidae",
        "col2": "IUCN3.1",
        "col3": "LC"
    },
    {
        "col0": "White-eared bronze cuckoo",
        "col1": "Cuculidae",
        "col2": "IUCN3.1",
        "col3": "LC"
    },
    {
        "col0": "White-eared barbet",
        "col1": "Lybiidae",
        "col2": "IUCN3.1",
        "col3": "LC"
    },
    {
        "col0": "White-dotted skate",
        "col1": "Rajidae",
        "col2": "IUCN3.1",
        "col3": "VU"
    },
    {
        "col0": "White-crowned wheatear",
        "col1": "Muscicapidae",
        "col2": "IUCN3.1",
        "col3": "LC"
    },
    {
        "col0": "White-crowned starling",
        "col1": "Sturnidae",
        "col2": "IUCN3.1",
        "col3": "LC"
    },
    {
        "col0": "White-crowned sparrow",
        "col1": "American sparrow",
        "col2": "IUCN3.1",
        "col3": "LC"
    },
    {
        "col0": "White-crowned shama",
        "col1": "Muscicapidae",
        "col2": "IUCN3.1",
        "col3": "NR"
    },
    {
        "col0": "White-crowned robin-chat",
        "col1": "Muscicapidae",
        "col2": "IUCN3.1",
        "col3": "LC"
    },
    {
        "col0": "White-crowned pigeon",
        "col1": "Columbidae",
        "col2": "IUCN3.1",
        "col3": "VU"
    },
    {
        "col0": "White-crowned penduline tit",
        "col1": "Remizidae",
        "col2": "IUCN3.1",
        "col3": "LC"
    },
    {
        "col0": "White-crowned parrot",
        "col1": "Neotropical parrot",
        "col2": "IUCN3.1",
        "col3": "LC"
    },
    {
        "col0": "White-crowned manakin",
        "col1": "Manakin",
        "col2": "IUCN3.1",
        "col3": "LC"
    },
    {
        "col0": "White-crowned lapwing",
        "col1": "Charadriidae",
        "col2": "IUCN3.1",
        "col3": "LC"
    },
    {
        "col0": "White-crowned hornbill",
        "col1": "Hornbill",
        "col2": "IUCN3.1",
        "col3": "NT"
    },
    {
        "col0": "White-crowned forktail",
        "col1": "Muscicapidae",
        "col2": "IUCN3.1",
        "col3": "LC"
    },
    {
        "col0": "White-crowned cuckoo",
        "col1": "Cuculidae",
        "col2": "IUCN3.1",
        "col3": "LC"
    },
    {
        "col0": "White-crowned cliff chat",
        "col1": "Muscicapidae",
        "col2": "IUCN3.1",
        "col3": "NR"
    }
]