[
    {
        "col0": "Life",
        "col1": "MDPI",
        "col2": "2011",
        "col3": "2075-1729",
        "col4": "LBSIB7",
        "col5": "783891337"
    },
    {
        "col0": "Leukemia Research",
        "col1": "Elsevier",
        "col2": "1977",
        "col3": "0145-2126",
        "col4": "LEREDD",
        "col5": "300977916"
    },
    {
        "col0": "Leukemia & Lymphoma",
        "col1": "Informa",
        "col2": "1979",
        "col3": "1029-2403",
        "col4": "LELYEA",
        "col5": "19226345"
    },
    {
        "col0": "Lethaia",
        "col1": "Wiley-Blackwell",
        "col2": "1968",
        "col3": "0024-1164",
        "col4": "LETHAT",
        "col5": "2277593"
    },
    {
        "col0": "Lebensmittel-Wissenschaft & Technologie",
        "col1": "Elsevier",
        "col2": "1968",
        "col3": "0023-6438",
        "col4": "LBWTAP",
        "col5": "L04020000"
    },
    {
        "col0": "Learning & Memory",
        "col1": "Cold Spring Harbor Laboratory Press",
        "col2": "1994",
        "col3": "1072-0502",
        "col4": "LEMEFO",
        "col5": "56123340"
    },
    {
        "col0": "Law and Human Behavior",
        "col1": "American Psychological Association",
        "col2": "1977",
        "col3": "0147-7307",
        "col4": "LHBEDM",
        "col5": "3173559"
    },
    {
        "col0": "Laser Physics",
        "col1": "IOP Publishing",
        "col2": "1990",
        "col3": "1054-660X",
        "col4": "LAPHEJ",
        "col5": "22937678"
    },
    {
        "col0": "Laser & Photonics Reviews",
        "col1": "Wiley-VCH",
        "col2": "2007",
        "col3": "1863-8880",
        "col4": "LPRAB8",
        "col5": "633081680"
    },
    {
        "col0": "Language Teaching Research",
        "col1": "SAGE Publications",
        "col2": "1997",
        "col3": "1362-1688",
        "col4": "LTREFI",
        "col5": "300342940"
    },
    {
        "col0": "Langmuir",
        "col1": "American Chemical Society",
        "col2": "1985",
        "col3": "0743-7463",
        "col4": "LANGD5",
        "col5": "10666233"
    },
    {
        "col0": "Labour Economics",
        "col1": "Elsevier",
        "col2": "1993",
        "col3": "0927-5371",
        "col4": "LECOE3",
        "col5": "28773230"
    },
    {
        "col0": "Lab on a Chip",
        "col1": "Royal Society of Chemistry",
        "col2": "2001",
        "col3": "1473-0189",
        "col4": "LCAHAM",
        "col5": "48200889"
    },
    {
        "col0": "Kew Bulletin",
        "col1": "Springer Science+Business Media",
        "col2": "1887",
        "col3": "0075-5974",
        "col4": "KEWBAF",
        "col5": "314003070"
    },
    {
        "col0": "Juvenile and Family Court Journal",
        "col1": "John Wiley & Sons",
        "col2": "1949",
        "col3": "1755-6988",
        "col4": "JFCJD6",
        "col5": "59161499"
    },
    {
        "col0": "Journalism & Mass Communication Quarterly",
        "col1": "Sage Publications",
        "col2": "1924",
        "col3": "1077-6990",
        "col4": "JMCQFA",
        "col5": "421862250"
    },
    {
        "col0": "Journal of the West",
        "col1": "ABC-CLIO",
        "col2": "1962",
        "col3": "0022-5169",
        "col4": "JNLWA7",
        "col5": "60617157"
    },
    {
        "col0": "Journal of the Science of Food and Agriculture",
        "col1": "John Wiley & Sons",
        "col2": "1950",
        "col3": "0022-5142",
        "col4": "JSFAAE",
        "col5": "1782672"
    },
    {
        "col0": "Journal of the Royal Society of Medicine",
        "col1": "Sage Publications",
        "col2": "1809",
        "col3": "0141-0768",
        "col4": "JRSMD9",
        "col5": "3722674"
    },
    {
        "col0": "Journal of the Royal Society Interface",
        "col1": "The Royal Society",
        "col2": "2004",
        "col3": "1742-5662",
        "col4": "JRSICU",
        "col5": "711051718"
    },
    {
        "col0": "Journal of the Royal Astronomical Society of Canada",
        "col1": "Royal Astronomical Society of Canada",
        "col2": "1907",
        "col3": "0035-872X",
        "col4": "JRASA2",
        "col5": "1586913"
    },
    {
        "col0": "Journal of the Renin-Angiotensin-Aldosterone System",
        "col1": "SAGE Publications",
        "col2": "2000",
        "col3": "1470-3203",
        "col4": "JRAAAG",
        "col5": "61677440"
    },
    {
        "col0": "Journal of the Operational Research Society",
        "col1": "Palgrave Macmillan",
        "col2": "1950",
        "col3": "0160-5682",
        "col4": "JORSDZ",
        "col5": "3685489"
    },
    {
        "col0": "Journal of the Neurological Sciences",
        "col1": "Elsevier",
        "col2": "1964",
        "col3": "0022-510X",
        "col4": "JNSCAG",
        "col5": "1783295"
    },
    {
        "col0": "Journal of the National Comprehensive Cancer Network",
        "col1": "Harborside Press",
        "col2": "2003",
        "col3": "1540-1405",
        "col4": "JNCCN",
        "col5": "49849425"
    },
    {
        "col0": "Journal of the National Cancer Institute",
        "col1": "Oxford University Press",
        "col2": "1940",
        "col3": "0027-8874",
        "col4": "JNCIEQ",
        "col5": "1064763"
    },
    {
        "col0": "Journal of the Korean Physical Society",
        "col1": "Springer Science+Business Media",
        "col2": "1968",
        "col3": "0374-4884",
        "col4": "JKPSDV",
        "col5": "749258929"
    },
    {
        "col0": "Journal of the History of Medicine and Allied Sciences",
        "col1": "Oxford University Press",
        "col2": "1946",
        "col3": "0022-5045",
        "col4": "JHMAA6",
        "col5": "1800317"
    },
    {
        "col0": "Journal of the History of Biology",
        "col1": "Springer Science+Business Media",
        "col2": "1968",
        "col3": "0022-5010",
        "col4": "JHBIA9",
        "col5": "1783306"
    }
]