[
    {
        "col0": "P. Jane",
        "col1": "T. Lisbon",
        "col2": "T. Lisbon",
        "col3": "United States",
        "col4": "1974-9-16"
    },
    {
        "col0": "M. Ravenwood",
        "col1": "I. Jones",
        "col2": "M. Williams",
        "col3": "United States",
        "col4": "1909-3-23"
    },
    {
        "col0": "K. Forman",
        "col1": "R. Forman",
        "col2": "E. Forman",
        "col3": "United States",
        "col4": "1933-1-13"
    },
    {
        "col0": "I. Jones",
        "col1": "M. Ravenwood",
        "col2": "M. Williams",
        "col3": "United States",
        "col4": "1899-7-1"
    },
    {
        "col0": "H. J. Sr.",
        "col1": "A. Jones",
        "col2": "I. Jones",
        "col3": "Scotland",
        "col4": "1872-12-12"
    },
    {
        "col0": "Chucky",
        "col1": "Tiffany",
        "col2": "C. Play",
        "col3": "United States",
        "col4": "1988-11-9"
    },
    {
        "col0": "A. Sloane",
        "col1": "E. Sloane",
        "col2": "N. Santos",
        "col3": "United States",
        "col4": "1950-10-31"
    }
]