[
    {
        "col0": "U. Khandi",
        "col1": "Konbaung dynasty",
        "col2": "Po Maung",
        "col3": "1949"
    },
    {
        "col0": "T. Z. Jing-mu",
        "col1": "China",
        "col2": "Ceng Jing Mu ",
        "col3": "2016"
    },
    {
        "col0": "S. C. Partridge",
        "col1": "New York City",
        "col2": "Sidney Catlin Partridge",
        "col3": "1930"
    },
    {
        "col0": "R. J. Villote",
        "col1": "Insular Government of the Philippine Islands",
        "col2": "Ruben Juco Villote",
        "col3": "2013"
    },
    {
        "col0": "R. McCoy",
        "col1": "Kentucky",
        "col2": "Randolph McCoy",
        "col3": "1914"
    },
    {
        "col0": "M. Putnik",
        "col1": "Novi Sad",
        "col2": "Vasilije Putnik",
        "col3": "1790"
    },
    {
        "col0": "M. Laveau",
        "col1": "New Orleans",
        "col2": "Marie Catherine Laveau",
        "col3": "1881"
    },
    {
        "col0": "J. Crespi",
        "col1": "Spain",
        "col2": "Joan Crespi Fiol",
        "col3": "1782"
    },
    {
        "col0": "J. Rayburn",
        "col1": "Iowa",
        "col2": "James Chalmers Rayburn Jr",
        "col3": "1970"
    },
    {
        "col0": "H. Stepien",
        "col1": "Poland",
        "col2": "Karol Herman Stepien",
        "col3": "1943"
    },
    {
        "col0": "G. N. Kazazi",
        "col1": "Ottoman Empire",
        "col2": "Gjon Nikolle Kazazi",
        "col3": "1752"
    },
    {
        "col0": "G. Osmond",
        "col1": "Etna, Wyoming",
        "col2": "George Virl Osmond",
        "col3": "2007"
    },
    {
        "col0": "Frederick Hervey, 4th Earl of Bristol",
        "col1": "England",
        "col2": "Frederick Augustus Hervey",
        "col3": "1803"
    },
    {
        "col0": "Franziskus Herzan von Harras",
        "col1": "Prague",
        "col2": "Franziskus von Paula Herzan von Harras",
        "col3": "1804"
    },
    {
        "col0": "E. Rangoni",
        "col1": "Bologna",
        "col2": "Rangoni, Ercole",
        "col3": "15"
    },
    {
        "col0": "D. A. Hatfield",
        "col1": "Logan, West Virginia",
        "col2": "William Anderson Hatfield",
        "col3": "1921"
    }
]