[
    {
        "col0": "Anglecot",
        "col1": "W. Eyre",
        "col2": "4046",
        "col3": "1982-04-19"
    },
    {
        "col0": "Andrews-Duncan House",
        "col1": "George S. H. Appleget",
        "col2": "4046",
        "col3": "1972-01-20"
    },
    {
        "col0": "Andrew Johnson Building",
        "col1": "B. family",
        "col2": "1416",
        "col3": "1980-07-09"
    },
    {
        "col0": "Andrew Carnegie Mansion",
        "col1": "Babb, Cook & Willard",
        "col2": "4856",
        "col3": "1966-11-13"
    },
    {
        "col0": "Andover Chapter House",
        "col1": "Helfensteller, Hirsch and Watson",
        "col2": "404",
        "col3": "1980-11-28"
    },
    {
        "col0": "Anderson Downtown Historic District",
        "col1": "J. J. Baldwin",
        "col2": "2023",
        "col3": "1979-02-23"
    },
    {
        "col0": "Anderson Center for the Arts",
        "col1": "Richards, McCarty, and Bulford",
        "col2": "4046",
        "col3": "1985-03-21"
    },
    {
        "col0": "Andalusia",
        "col1": "B. Latrobe",
        "col2": "910542",
        "col3": "1966-11-13"
    },
    {
        "col0": "American System-Built Homes",
        "col1": "F. L. Wright",
        "col2": "2023",
        "col3": "1985-09-12"
    },
    {
        "col0": "American Security and Trust Company Building",
        "col1": "Y. a. Sawyer",
        "col2": "649",
        "col3": "1973-07-16"
    }
]