[
    {
        "col0": "Wichhu Qullu",
        "col1": "Andes",
        "col2": "Bolivia",
        "col3": "3840"
    },
    {
        "col0": "Wichhu Qullu",
        "col1": "Andes",
        "col2": "Bolivia",
        "col3": "4430"
    },
    {
        "col0": "Wichelplanggstock",
        "col1": "Urner Alps",
        "col2": "Canton of Uri",
        "col3": "2974"
    },
    {
        "col0": "Winaw",
        "col1": "Andes",
        "col2": "Peru",
        "col3": "3645"
    },
    {
        "col0": "Winaq",
        "col1": "Andes",
        "col2": "Peru",
        "col3": "4800"
    },
    {
        "col0": "Whiting Peak",
        "col1": "Boundary Ranges",
        "col2": "British Columbia",
        "col3": "2524"
    },
    {
        "col0": "Whitewater Baldy",
        "col1": "Mogollon Mountains",
        "col2": "Catron County, New Mexico",
        "col3": "3322"
    },
    {
        "col0": "Whitetop Mountain",
        "col1": "Chilcotin Plateau",
        "col2": "British Columbia",
        "col3": "1525"
    },
    {
        "col0": "Whitetail Peak",
        "col1": "Beartooth Mountains",
        "col2": "Carbon County, Montana",
        "col3": "3827"
    },
    {
        "col0": "Whiteside Mountain",
        "col1": "Appalachian Mountains",
        "col2": "North Carolina",
        "col3": "1502"
    },
    {
        "col0": "Whiteside",
        "col1": "Lake District",
        "col2": "Cumbria",
        "col3": "719"
    },
    {
        "col0": "Whiteless Pike",
        "col1": "Lake District",
        "col2": "Cumbria",
        "col3": "660"
    },
    {
        "col0": "Whitehorse Mountain",
        "col1": "North Cascades",
        "col2": "Washington",
        "col3": "2084"
    },
    {
        "col0": "Whitehorn Mountain",
        "col1": "Canadian Rockies",
        "col2": "British Columbia",
        "col3": "3399"
    },
    {
        "col0": "Whitehorn Mountain",
        "col1": "Slate Range",
        "col2": "Alberta",
        "col3": "2621"
    },
    {
        "col0": "Whiteface Mountain",
        "col1": "Adirondack Mountains",
        "col2": "New York",
        "col3": "1483"
    },
    {
        "col0": "White Side",
        "col1": "Eastern Fells",
        "col2": "Cumbria",
        "col3": "863"
    },
    {
        "col0": "White Rock",
        "col1": "Taconic Mountains",
        "col2": "Williamstown, Massachusetts",
        "col3": "777"
    },
    {
        "col0": "White Picacho",
        "col1": "Hieroglyphic Mountains",
        "col2": "Arizona",
        "col3": "1306"
    },
    {
        "col0": "White Peaks",
        "col1": "Gallatin Range",
        "col2": "Yellowstone National Park",
        "col3": "2887"
    },
    {
        "col0": "White Mountain Peak",
        "col1": "White Mountains",
        "col2": "California",
        "col3": "4344"
    },
    {
        "col0": "White Horse Bluff",
        "col1": "Shuswap Highland",
        "col2": "British Columbia",
        "col3": "775"
    },
    {
        "col0": "White Hill",
        "col1": "Cape Breton Highlands",
        "col2": "Nova Scotia",
        "col3": "535"
    },
    {
        "col0": "White Crown Mountain",
        "col1": "Princess Margaret Range",
        "col2": "Canada",
        "col3": "2048"
    },
    {
        "col0": "White Coomb",
        "col1": "Southern Uplands",
        "col2": "Dumfries and Galloway",
        "col3": "821"
    },
    {
        "col0": "White Cloud Peak 9",
        "col1": "White Cloud Mountains",
        "col2": "Idaho",
        "col3": "3432"
    },
    {
        "col0": "White Cloud Peak 8",
        "col1": "White Cloud Mountains",
        "col2": "Idaho",
        "col3": "3217"
    },
    {
        "col0": "White Cloud Peak 7",
        "col1": "White Cloud Mountains",
        "col2": "Idaho",
        "col3": "3284"
    },
    {
        "col0": "White Cloud Peak 6",
        "col1": "White Cloud Mountains",
        "col2": "Idaho",
        "col3": "3126"
    },
    {
        "col0": "White Cloud Peak 5",
        "col1": "White Cloud Mountains",
        "col2": "Idaho",
        "col3": "3229"
    },
    {
        "col0": "White Cloud Peak 4",
        "col1": "White Cloud Mountains",
        "col2": "Idaho",
        "col3": "3185"
    },
    {
        "col0": "White Cloud Peak 3",
        "col1": "White Cloud Mountains",
        "col2": "Idaho",
        "col3": "3227"
    },
    {
        "col0": "White Cloud Peak 2",
        "col1": "White Cloud Mountains",
        "col2": "Idaho",
        "col3": "3130"
    },
    {
        "col0": "White Cloud Peak 10",
        "col1": "White Cloud Mountains",
        "col2": "Idaho",
        "col3": "3383"
    },
    {
        "col0": "White Cloud Peak 1",
        "col1": "White Cloud Mountains",
        "col2": "Idaho",
        "col3": "3155"
    },
    {
        "col0": "White Calf Mountain",
        "col1": "Lewis Range",
        "col2": "United States",
        "col3": "2710"
    },
    {
        "col0": "Whistler Mountain",
        "col1": "Fitzsimmons Range",
        "col2": "British Columbia",
        "col3": "2181"
    },
    {
        "col0": "Whiskey Mountain",
        "col1": "Wind River Range",
        "col2": "Fremont County, Wyoming",
        "col3": "3400"
    },
    {
        "col0": "Whiskey Dick Mountain",
        "col1": "Wenatchee Mountains",
        "col2": "United States",
        "col3": "1180"
    },
    {
        "col0": "Whinlatter",
        "col1": "Lake District",
        "col2": "Cumbria",
        "col3": "525"
    },
    {
        "col0": "Whin Rigg",
        "col1": "Lake District",
        "col2": "Cumbria",
        "col3": "535"
    },
    {
        "col0": "Whiltilla Mountain",
        "col1": "Bonanza Range",
        "col2": "Vancouver Island",
        "col3": "1697"
    },
    {
        "col0": "Whetstone Mountain",
        "col1": "West Elk Mountains",
        "col2": "Colorado",
        "col3": "3818"
    },
    {
        "col0": "Wheeler Peak",
        "col1": "Sangre de Cristo Mountains",
        "col2": "New Mexico",
        "col3": "4011"
    },
    {
        "col0": "Wheeler Peak",
        "col1": "Snake Range",
        "col2": "Nevada",
        "col3": "3982"
    },
    {
        "col0": "Wheatham Hill",
        "col1": "East Hampshire Hangers",
        "col2": "England",
        "col3": "249"
    },
    {
        "col0": "Whatcom Peak",
        "col1": "Cascade Range",
        "col2": "Whatcom County, Washington",
        "col3": "2308"
    },
    {
        "col0": "Whale Mountain",
        "col1": "Cuyamaca Mountains",
        "col2": "California",
        "col3": "927"
    },
    {
        "col0": "Wetzsteinhorn",
        "col1": "Bernese Alps",
        "col2": "Switzerland",
        "col3": "2782"
    },
    {
        "col0": "Wetterwandeck",
        "col1": "Northern Limestone Alps",
        "col2": "Austria",
        "col3": "2698"
    },
    {
        "col0": "Wetterspitzen",
        "col1": "Northern Limestone Alps",
        "col2": "Austria",
        "col3": "2750"
    },
    {
        "col0": "Wetterkreuzberg",
        "col1": "Palatine Forest",
        "col2": "Germany",
        "col3": "400"
    },
    {
        "col0": "Wetterhorn Peak",
        "col1": "San Juan Mountains",
        "col2": "Colorado",
        "col3": "4273"
    },
    {
        "col0": "Wetterhorn",
        "col1": "Bernese Alps",
        "col2": "Canton of Bern",
        "col3": "3692"
    },
    {
        "col0": "Wetherlam",
        "col1": "Lake District",
        "col2": "Cumbria",
        "col3": "763"
    },
    {
        "col0": "Wether Hill",
        "col1": "Lake District",
        "col2": "Cumbria",
        "col3": "674"
    },
    {
        "col0": "Wether Down",
        "col1": "South Downs",
        "col2": "England",
        "col3": "234"
    },
    {
        "col0": "Wetalth Ridge",
        "col1": "Spectrum Range",
        "col2": "British Columbia",
        "col3": "1886"
    },
    {
        "col0": "Weston Hill",
        "col1": "Dorset Downs",
        "col2": "Dorset",
        "col3": "250"
    },
    {
        "col0": "Westmount Summit",
        "col1": "Monteregian Hills",
        "col2": "Canada",
        "col3": "201"
    },
    {
        "col0": "Westliche Karwendelspitze",
        "col1": "Karwendel",
        "col2": "Bavaria",
        "col3": "2385"
    },
    {
        "col0": "Western Lyskamm",
        "col1": "Pennine Alps",
        "col2": "Switzerland",
        "col3": "4479"
    },
    {
        "col0": "Westerberg",
        "col1": "Baumberge",
        "col2": "Germany",
        "col3": "187"
    },
    {
        "col0": "Westerbecker Berg",
        "col1": "Teutoburg Forest",
        "col2": "North Rhine-Westphalia",
        "col3": "236"
    },
    {
        "col0": "West Vent",
        "col1": "Kawdy Plateau",
        "col2": "British Columbia",
        "col3": "1452"
    },
    {
        "col0": "West Suffield Mountain",
        "col1": "Metacomet Ridge",
        "col2": "Suffield, Connecticut",
        "col3": "216"
    },
    {
        "col0": "West Spanish Peak",
        "col1": "Spanish Peaks",
        "col2": "Colorado",
        "col3": "4154"
    },
    {
        "col0": "West Rock Ridge",
        "col1": "Metacomet Ridge",
        "col2": "Hamden, Connecticut",
        "col3": "213"
    },
    {
        "col0": "West Peak",
        "col1": "Metacomet Ridge",
        "col2": "Meriden, Connecticut",
        "col3": "312"
    },
    {
        "col0": "West Peak",
        "col1": "Highland Mountains",
        "col2": "Madison County, Montana",
        "col3": "2944"
    },
    {
        "col0": "West Peak",
        "col1": "Big Snowy Mountains",
        "col2": "Fergus County, Montana",
        "col3": "2495"
    },
    {
        "col0": "West Mountain",
        "col1": "Wasatch Range",
        "col2": "Utah",
        "col3": "2106"
    },
    {
        "col0": "West Molokai Volcano",
        "col1": "Hawaiian Islands",
        "col2": "Hawaii",
        "col3": "421"
    },
    {
        "col0": "West Maui Mountains",
        "col1": "Hawaiian Islands",
        "col2": "Hawaii",
        "col3": "1764"
    },
    {
        "col0": "West Lomond",
        "col1": "Lomond Hills",
        "col2": "Scotland",
        "col3": "522"
    },
    {
        "col0": "West Hill, Dorset",
        "col1": "Dorset Downs",
        "col2": "Dorset",
        "col3": "224"
    },
    {
        "col0": "West Elk Peak",
        "col1": "List of mountain ranges of Colorado",
        "col2": "Colorado",
        "col3": "3975"
    },
    {
        "col0": "West Crater",
        "col1": "Cascade Range",
        "col2": "Washington",
        "col3": "1328"
    },
    {
        "col0": "West Buffalo Peak",
        "col1": "Mosquito Range",
        "col2": "Colorado",
        "col3": "4063"
    },
    {
        "col0": "West Blue Mountain",
        "col1": "San Mateo Mountains",
        "col2": "New Mexico",
        "col3": "3151"
    },
    {
        "col0": "Werneth Low",
        "col1": "Pennines",
        "col2": "Greater Manchester",
        "col3": "279"
    },
    {
        "col0": "Wenghorn",
        "col1": "Pennine Alps",
        "col2": "Switzerland",
        "col3": "2587"
    },
    {
        "col0": "Wengen Jungfrau",
        "col1": "Bernese Alps",
        "col2": "Canton of Bern",
        "col3": "4089"
    },
    {
        "col0": "Wendenstocke",
        "col1": "Uri Alps",
        "col2": "Canton of Bern",
        "col3": "3042"
    },
    {
        "col0": "Wendenhorn",
        "col1": "Urner Alps",
        "col2": "Canton of Bern",
        "col3": "3023"
    },
    {
        "col0": "Wendelstein",
        "col1": "Mangfall Mountains",
        "col2": "Bavaria",
        "col3": "1838"
    },
    {
        "col0": "Wells Gray-Clearwater volcanic field",
        "col1": "Cariboo Mountains",
        "col2": "British Columbia",
        "col3": "2100"
    },
    {
        "col0": "Wellhorn",
        "col1": "Bernese Alps",
        "col2": "Canton of Bern",
        "col3": "3191"
    },
    {
        "col0": "Wellenkuppe",
        "col1": "Pennine Alps",
        "col2": "Switzerland",
        "col3": "3903"
    },
    {
        "col0": "Welch Peak",
        "col1": "Cheam Range",
        "col2": "British Columbia",
        "col3": "2431"
    },
    {
        "col0": "Weisswandspitze",
        "col1": "Stubai Alps",
        "col2": "Austria",
        "col3": "3017"
    },
    {
        "col0": "Weisstannenhohe",
        "col1": "Black Forest",
        "col2": "Baden-Wurttemberg",
        "col3": "1190"
    },
    {
        "col0": "Weissseespitze",
        "col1": "Otztal Alps",
        "col2": "Austria",
        "col3": "3526"
    },
    {
        "col0": "Weisskugel",
        "col1": "Otztal Alps",
        "col2": "Austria",
        "col3": "3739"
    },
    {
        "col0": "Weisser Stein",
        "col1": "Eifel",
        "col2": "Belgium",
        "col3": "693"
    },
    {
        "col0": "Weisser Stein",
        "col1": "Odenwald",
        "col2": "Baden-Wurttemberg",
        "col3": "548"
    },
    {
        "col0": "Weisser Kogel",
        "col1": "Otztal Alps",
        "col2": "Austria",
        "col3": "3409"
    },
    {
        "col0": "Weissenberg",
        "col1": "Palatine Forest",
        "col2": "Rhineland-Palatinate",
        "col3": "609"
    },
    {
        "col0": "Weisseck",
        "col1": "Radstadt Tauern",
        "col2": "Austria",
        "col3": "2711"
    },
    {
        "col0": "Weisse Spitze",
        "col1": "Villgraten Mountains",
        "col2": "Austria",
        "col3": "2962"
    },
    {
        "col0": "Weissmies",
        "col1": "Pennine Alps",
        "col2": "Switzerland",
        "col3": "4017"
    },
    {
        "col0": "Weisshorn",
        "col1": "Bernese Alps",
        "col2": "Canton of Bern",
        "col3": "2948"
    },
    {
        "col0": "Weisshorn",
        "col1": "Pennine Alps",
        "col2": "Switzerland",
        "col3": "4506"
    },
    {
        "col0": "Weissfluhjoch",
        "col1": "Plessur Alps",
        "col2": "Switzerland",
        "col3": "2693"
    },
    {
        "col0": "Weissfluh",
        "col1": "Plessur Alps",
        "col2": "Switzerland",
        "col3": "2843"
    },
    {
        "col0": "Weissenstein",
        "col1": "Jura Mountains",
        "col2": "Switzerland",
        "col3": "1395"
    },
    {
        "col0": "Weinbiet",
        "col1": "Haardt",
        "col2": "Germany",
        "col3": "554"
    },
    {
        "col0": "Weilerskopf",
        "col1": "Haardt",
        "col2": "Germany",
        "col3": "470"
    },
    {
        "col0": "Weisswandspitze",
        "col1": "Stubai Alps",
        "col2": "Austria",
        "col3": "3017"
    },
    {
        "col0": "Weisstannenhohe",
        "col1": "Black Forest",
        "col2": "Baden-Wurttemberg",
        "col3": "1190"
    },
    {
        "col0": "Weissseespitze",
        "col1": "Otztal Alps",
        "col2": "Austria",
        "col3": "3526"
    },
    {
        "col0": "Weisskugel",
        "col1": "Otztal Alps",
        "col2": "Austria",
        "col3": "3739"
    },
    {
        "col0": "Weisser Stein",
        "col1": "Eifel",
        "col2": "Belgium",
        "col3": "693"
    },
    {
        "col0": "Weisser Stein",
        "col1": "Odenwald",
        "col2": "Baden-Wurttemberg",
        "col3": "548"
    },
    {
        "col0": "Weisser Kogel",
        "col1": "Otztal Alps",
        "col2": "Austria",
        "col3": "3409"
    },
    {
        "col0": "Weissenberg",
        "col1": "Palatine Forest",
        "col2": "Rhineland-Palatinate",
        "col3": "609"
    },
    {
        "col0": "Weisseck",
        "col1": "Radstadt Tauern",
        "col2": "Austria",
        "col3": "2711"
    },
    {
        "col0": "Weisse Spitze",
        "col1": "Villgraten Mountains",
        "col2": "Austria",
        "col3": "2962"
    },
    {
        "col0": "Weed Patch Hill",
        "col1": "Knobstone Escarpment",
        "col2": "Indiana",
        "col3": "322"
    },
    {
        "col0": "Wedge Peak",
        "col1": "Alaska Range",
        "col2": "Alaska",
        "col3": "3030"
    },
    {
        "col0": "Wedge Mountain",
        "col1": "Garibaldi Ranges",
        "col2": "British Columbia",
        "col3": "2895"
    },
    {
        "col0": "Weavers Needle",
        "col1": "Superstition Mountains",
        "col2": "Arizona",
        "col3": "1388"
    },
    {
        "col0": "Wanuma",
        "col1": "Andes",
        "col2": "Bolivia",
        "col3": "4202"
    },
    {
        "col0": "Wanuma",
        "col1": "Andes",
        "col2": "Peru",
        "col3": "5200"
    },
    {
        "col0": "Wana Quta",
        "col1": "Andes",
        "col2": "Bolivia",
        "col3": "4652"
    },
    {
        "col0": "Wana Q'awa",
        "col1": "Andes",
        "col2": "Peru",
        "col3": "4000"
    },
    {
        "col0": "Wana Q'awa",
        "col1": "Andes",
        "col2": "Peru",
        "col3": "5200"
    },
    {
        "col0": "Wana",
        "col1": "Andes",
        "col2": "Peru",
        "col3": "5400"
    },
    {
        "col0": "Wayunkayuq",
        "col1": "Andes",
        "col2": "Peru",
        "col3": "4200"
    },
    {
        "col0": "Wayunka",
        "col1": "Wansu mountain range",
        "col2": "Peru",
        "col3": "5300"
    },
    {
        "col0": "Waytiri",
        "col1": "Andes",
        "col2": "Peru",
        "col3": "5000"
    },
    {
        "col0": "Waytayuq",
        "col1": "Andes",
        "col2": "Peru",
        "col3": "4800"
    },
    {
        "col0": "Waytapallana",
        "col1": "Andes",
        "col2": "Junin Region",
        "col3": "4800"
    },
    {
        "col0": "Waytani",
        "col1": "Andes",
        "col2": "Peru",
        "col3": "5430"
    },
    {
        "col0": "Wayta Urqu",
        "col1": "Andes",
        "col2": "Peru",
        "col3": "5100"
    },
    {
        "col0": "Wayta Kuntur Sinqa",
        "col1": "Andes",
        "col2": "Peru",
        "col3": "5345"
    },
    {
        "col0": "Wayta Hirka Punta",
        "col1": "Andes",
        "col2": "Huanuco Region",
        "col3": "4400"
    },
    {
        "col0": "Wayta",
        "col1": "Andes",
        "col2": "Peru",
        "col3": "5400"
    },
    {
        "col0": "Wayruruni",
        "col1": "Andes",
        "col2": "Peru",
        "col3": "4900"
    },
    {
        "col0": "Wayruru Punku",
        "col1": "Andes",
        "col2": "Peru",
        "col3": "5550"
    },
    {
        "col0": "Wayrakancha",
        "col1": "Andes",
        "col2": "Peru",
        "col3": "5300"
    },
    {
        "col0": "Wayra Willk'i",
        "col1": "Andes",
        "col2": "Bolivia",
        "col3": "4100"
    },
    {
        "col0": "Wayra Wasi",
        "col1": "Andes",
        "col2": "Bolivia",
        "col3": "4208"
    },
    {
        "col0": "Wayra Wasi",
        "col1": "Andes",
        "col2": "Bolivia",
        "col3": "4416"
    },
    {
        "col0": "Wayra Q'asa",
        "col1": "Andes",
        "col2": "Peru",
        "col3": "5000"
    },
    {
        "col0": "Wayra Q'asa",
        "col1": "Andes",
        "col2": "Bolivia",
        "col3": "3720"
    },
    {
        "col0": "Wayra Q'asa",
        "col1": "Andes",
        "col2": "Peru",
        "col3": "4800"
    },
    {
        "col0": "Wayra Lupi Qullu",
        "col1": "Andes",
        "col2": "Bolivia",
        "col3": "4732"
    },
    {
        "col0": "Waypun",
        "col1": "Andes",
        "col2": "Peru",
        "col3": "4200"
    },
    {
        "col0": "Wayna Tunari",
        "col1": "Andes",
        "col2": "Bolivia",
        "col3": "4800"
    },
    {
        "col0": "Wayna Tanka Tanka",
        "col1": "Andes",
        "col2": "Bolivia",
        "col3": "4858"
    },
    {
        "col0": "Wayna Qhapaq",
        "col1": "Kallawaya mountain range",
        "col2": "Peru",
        "col3": "5721"
    },
    {
        "col0": "Wayna Potosi",
        "col1": "Andes",
        "col2": "Bolivia",
        "col3": "4969"
    },
    {
        "col0": "Wayna Khunu Qullu",
        "col1": "Andes",
        "col2": "Bolivia",
        "col3": "5640"
    },
    {
        "col0": "Wayna Chullunkhani",
        "col1": "Cordillera Occidental",
        "col2": "Oruro Department",
        "col3": "4736"
    },
    {
        "col0": "Wayllayuq",
        "col1": "Andes",
        "col2": "Peru",
        "col3": "5300"
    },
    {
        "col0": "Wayllaqucha",
        "col1": "Andes",
        "col2": "Peru",
        "col3": "5100"
    },
    {
        "col0": "Wayllani",
        "col1": "Andes",
        "col2": "Bolivia",
        "col3": "4172"
    },
    {
        "col0": "Wayllani",
        "col1": "Andes",
        "col2": "Bolivia",
        "col3": "4206"
    },
    {
        "col0": "Wayllakancha",
        "col1": "Andes",
        "col2": "Peru",
        "col3": "5400"
    },
    {
        "col0": "Waylla Wit'u",
        "col1": "Willkanuta mountain range",
        "col2": "Peru",
        "col3": "4800"
    },
    {
        "col0": "Waylla Waqran",
        "col1": "Andes",
        "col2": "Peru",
        "col3": "4600"
    },
    {
        "col0": "Waylla Tira",
        "col1": "Andes",
        "col2": "Bolivia",
        "col3": "4324"
    },
    {
        "col0": "Waylla Tarpuna",
        "col1": "Andes",
        "col2": "Peru",
        "col3": "5300"
    }
]