[
    {
        "col0": "W. M. Scott",
        "col1": "W. Scott",
        "col2": "Craigmount School",
        "col3": "1944-2-26"
    },
    {
        "col0": "R. Sweet-Escott",
        "col1": "E. Sweet-Escott",
        "col2": "King Henry VIII School, Coventry",
        "col3": "1907-11-10"
    },
    {
        "col0": "M. Scott",
        "col1": "W. M. Scott",
        "col2": "Craigmount School",
        "col3": "1916-6-1"
    },
    {
        "col0": "J. Howard",
        "col1": "C. Towers",
        "col2": "St Joseph's College, Hunters Hill",
        "col3": "2015-12-11"
    },
    {
        "col0": "G. Wood",
        "col1": "K. Wood",
        "col2": "Crescent College",
        "col3": "1982-5-18"
    },
    {
        "col0": "D. Taiaroa",
        "col1": "T. Ellison",
        "col2": "Christchurch Boys' High School",
        "col3": "1954-4-9"
    }
]