[
    {
        "col0": "Whiplash",
        "col1": "J. Hetfield",
        "col2": "Metallica",
        "col3": "246",
        "col4": "\"Whiplash\" (Neckbrace Remix)"
    },
    {
        "col0": "Whip It",
        "col1": "G. Casale",
        "col2": "Devo",
        "col3": "157",
        "col4": "\"Snowball\""
    },
    {
        "col0": "While the Earth Sleeps",
        "col1": "P. Gabriel",
        "col2": "Deep Forest",
        "col3": "230",
        "col4": "\"Rid of Me\","
    },
    {
        "col0": "While Your Lover Sleeps",
        "col1": "L. Ashley",
        "col2": "Leon Ashley",
        "col3": "131",
        "col4": "\"That's Alright\""
    },
    {
        "col0": "While You Wait for the Others",
        "col1": "C. Bear",
        "col2": "Grizzly Bear",
        "col3": "269",
        "col4": "\"While You Wait for the Others (feat.Michael McDonald)\""
    },
    {
        "col0": "While You See a Chance",
        "col1": "S. Winwood",
        "col2": "Steve Winwood",
        "col3": "235",
        "col4": "\"Vacant Chair\""
    },
    {
        "col0": "Wherever You Go",
        "col1": "C. Black",
        "col2": "Clint Black",
        "col3": "252",
        "col4": "\"You Walked By\""
    },
    {
        "col0": "Wherever You Are",
        "col1": "P. Mealor",
        "col2": "Military Wives",
        "col3": "171",
        "col4": "Now Sleeps The Crimson Petal (Four Madrigals On Rose Texts): A Spotless Rose"
    },
    {
        "col0": "Wherever Would I Be",
        "col1": "D. Warren",
        "col2": "Dusty Springfield",
        "col3": "232",
        "col4": "All I Have to Offer You is Love, Reputation"
    },
    {
        "col0": "Wherever I May Roam",
        "col1": "J. Hetfield",
        "col2": "Metallica",
        "col3": "404",
        "col4": "\"Fade to Black\" (live)/\"Wherever I May Roam\" (demo)"
    },
    {
        "col0": "Where the Wild Roses Grow",
        "col1": "N. Cave",
        "col2": "Kylie Minogue",
        "col3": "237",
        "col4": "\""
    },
    {
        "col0": "Where the Streets Have No Name",
        "col1": "B. Crewe",
        "col2": "Pet Shop Boys",
        "col3": "7",
        "col4": "\"Bet She's Not Your Girlfriend\""
    },
    {
        "col0": "Where the Streets Have No Name",
        "col1": "Bono",
        "col2": "U2",
        "col3": "286",
        "col4": "\"Race Against Time\""
    },
    {
        "col0": "Where the Stars and Stripes and the Eagle Fly",
        "col1": "A. Tippin",
        "col2": "Aaron Tippin",
        "col3": "228",
        "col4": "\"You've Got to Stand for Something\""
    },
    {
        "col0": "Where the Boys Are",
        "col1": "N. Sedaka",
        "col2": "Connie Francis",
        "col3": "163",
        "col4": "\"No One,\" \"Baby Roo\""
    },
    {
        "col0": "Where the Blacktop Ends",
        "col1": "S. Wariner",
        "col2": "Keith Urban",
        "col3": "186",
        "col4": "\"Rollercoaster\""
    },
    {
        "col0": "Where Your Road Leads",
        "col1": "D. Child",
        "col2": "Trisha Yearwood",
        "col3": "207",
        "col4": "\"Bring Me All Your Love\""
    },
    {
        "col0": "Where You Are",
        "col1": "J. Yong-hwa",
        "col2": "CN Blue",
        "col3": "226",
        "col4": "\"Feeling\""
    },
    {
        "col0": "Where Would You Be",
        "col1": "R. Proctor",
        "col2": "Martina McBride",
        "col3": "244",
        "col4": "\"Concrete Angel\""
    },
    {
        "col0": "Where Were You",
        "col1": "A. Jackson",
        "col2": "Alan Jackson",
        "col3": "305",
        "col4": "\"Drive (For Daddy Gene)\""
    },
    {
        "col0": "Where Is the Love?",
        "col1": "Apl.de.ap",
        "col2": "The Black Eyed Peas",
        "col3": "231",
        "col4": "\"Somethin' for That Ass\""
    },
    {
        "col0": "Where Is the Love",
        "col1": "R. MacDonald",
        "col2": "Rick Price",
        "col3": "163",
        "col4": "\"Mood\""
    },
    {
        "col0": "Where I Stood",
        "col1": "M. Higgins",
        "col2": "Missy Higgins",
        "col3": "249",
        "col4": "*\"Beautiful Mind (Live At Centinnial Park)\""
    },
    {
        "col0": "Where I Come From",
        "col1": "A. Jackson",
        "col2": "Alan Jackson",
        "col3": "242",
        "col4": "\"A Love Like That\""
    },
    {
        "col0": "Where Have All the Cowboys Gone?",
        "col1": "P. Cole",
        "col2": "Paula Cole",
        "col3": "240",
        "col4": "\"Hush, Hush, Hush\" (duet withPeter Gabriel)"
    },
    {
        "col0": "Where Has Love Gone?",
        "col1": "H. Johnson",
        "col2": "Holly Johnson",
        "col3": "258",
        "col4": "\"Perfume (Aromatherapy Mix)\""
    },
    {
        "col0": "Where Does the Good Times Go",
        "col1": "B. Owens",
        "col2": "Buck Owens",
        "col3": "138",
        "col4": "\"Way That I Love You\""
    },
    {
        "col0": "Where Do the Nights Go",
        "col1": "M. Reid",
        "col2": "Ronnie Milsap",
        "col3": "272",
        "col4": "\"If You Don't Want Me To\""
    },
    {
        "col0": "Where Do You Go To",
        "col1": "P. Sarstedt",
        "col2": "Peter Sarstedt",
        "col3": "282",
        "col4": "\"Morning Mountain\""
    },
    {
        "col0": "Where Do You Go",
        "col1": "F. Reuther",
        "col2": "No Mercy",
        "col3": "269",
        "col4": "\"Where Do You Go (remix)\""
    },
    {
        "col0": "Where Do You Go",
        "col1": "S. Bono",
        "col2": "Cher",
        "col3": "196",
        "col4": "\"See See Rider\""
    },
    {
        "col0": "Where Do I Fit in the Picture",
        "col1": "C. Walker",
        "col2": "Clay Walker",
        "col3": "237",
        "col4": "\"Money Can't Buy\""
    },
    {
        "col0": "Where Do Broken Hearts Go",
        "col1": "C. Jackson",
        "col2": "Whitney Houston",
        "col3": "278",
        "col4": "\"Where You Are\" \"If You Say My Eyes Are Beautiful\""
    },
    {
        "col0": "Where Did Your Heart Go?",
        "col1": "D. Was",
        "col2": "Wham!",
        "col3": "7",
        "col4": "\"It's An Attack!\" (France)"
    },
    {
        "col0": "Where Did Our Love Go",
        "col1": "Holland-Dozier-Holland",
        "col2": "The Supremes",
        "col3": "153",
        "col4": "\"He Means the World to Me\""
    },
    {
        "col0": "Where Did I Go Wrong",
        "col1": "S. Wariner",
        "col2": "Steve Wariner",
        "col3": "211",
        "col4": "\"Piano Texas Girl\""
    },
    {
        "col0": "Where Did All the Love Go?",
        "col1": "S. Pizzorno",
        "col2": "Kasabian",
        "col3": "258",
        "col4": "\"Vlad the Impaler\" (Zane Lowe Remix), \"Where Did All the Love Go?\" (Burns Remix)"
    },
    {
        "col0": "Where Corn Don't Grow",
        "col1": "R. Murrah",
        "col2": "Travis Tritt",
        "col3": "208",
        "col4": "\"She's Going Home with Me\""
    },
    {
        "col0": "Where Are You Now",
        "col1": "C. Black",
        "col2": "Clint Black",
        "col3": "189",
        "col4": "\"Muddy Water\""
    },
    {
        "col0": "Where Are We Runnin'?",
        "col1": "L. Kravitz",
        "col2": "Lenny Kravitz",
        "col3": "161",
        "col4": "\"Destiny\""
    },
    {
        "col0": "Where's the Playground Susie",
        "col1": "J. Webb",
        "col2": "Glen Campbell",
        "col3": "175",
        "col4": "\"Arkansas\""
    },
    {
        "col0": "Where'd You Go",
        "col1": "M. Shinoda",
        "col2": "Fort Minor",
        "col3": "231",
        "col4": "\"Where'd You Go\"(Big Badremix)"
    },
    {
        "col0": "Wher'm I Gonna Live?",
        "col1": "B. R. Cyrus",
        "col2": "Billy Ray Cyrus",
        "col3": "209",
        "col4": "\"Some Gave All\""
    },
    {
        "col0": "Whenever You Need Me",
        "col1": "C. Decker",
        "col2": "T'Pau",
        "col3": "246",
        "col4": "\"All The Love\""
    },
    {
        "col0": "Whenever You're Ready",
        "col1": "L. Job",
        "col2": "Five Star",
        "col3": "262",
        "col4": "\"Forever Yours\""
    },
    {
        "col0": "Whenever You're Near",
        "col1": "J. Blades",
        "col2": "Cher",
        "col3": "245",
        "col4": "\"Could've Been You\""
    },
    {
        "col0": "Whenever I Call You \"Friend\"",
        "col1": "K. Loggins",
        "col2": "Stevie Nicks",
        "col3": "237",
        "col4": "\"Angelique\""
    },
    {
        "col0": "Whenever He Holds You",
        "col1": "B. Goldsboro",
        "col2": "Bobby Goldsboro",
        "col3": "134",
        "col4": "\"If She Was Mine\""
    },
    {
        "col0": "Whenever God Shines His Light",
        "col1": "V. Morrison",
        "col2": "Cliff Richard",
        "col3": "298",
        "col4": "\"I'd Love to Write Another Song\""
    },
    {
        "col0": "When the Wind Blows",
        "col1": "E. Kizilcay",
        "col2": "David Bowie",
        "col3": "212",
        "col4": "\"When the Wind Blows (Instrumental)\""
    },
    {
        "col0": "When the Tigers Broke Free",
        "col1": "R. Waters",
        "col2": "Pink Floyd",
        "col3": "197",
        "col4": "\"Bring the Boys Back Home\""
    },
    {
        "col0": "When the Thought of You Catches Up with Me",
        "col1": "D. Ball",
        "col2": "David Ball",
        "col3": "181",
        "col4": "\"Don't Think Twice\""
    },
    {
        "col0": "When the Swallows Fly",
        "col1": "B. Gees",
        "col2": "Bee Gees",
        "col3": "142",
        "col4": "\"Give Your Best\""
    },
    {
        "col0": "When the Sun Goes Down",
        "col1": "A. Turner",
        "col2": "Arctic Monkeys",
        "col3": "200",
        "col4": "\"7\""
    },
    {
        "col0": "When the Snow Is on the Roses",
        "col1": "E. Snyder",
        "col2": "Sonny James",
        "col3": "162",
        "col4": "Love is a Rainbow"
    },
    {
        "col0": "When the Snow Falls",
        "col1": "T. Sharp",
        "col2": "Ten Sharp",
        "col3": "240",
        "col4": "\"All In Love Is Fair\" (Stevie Wonder cover) (CD-single)"
    },
    {
        "col0": "When the Rain Begins to Fall",
        "col1": "M. Bradley",
        "col2": "Jermaine Jackson",
        "col3": "236",
        "col4": "\"Follow My Heartbeat\""
    },
    {
        "col0": "When the Morning Comes",
        "col1": "H. Axton",
        "col2": "Hoyt Axton",
        "col3": "211",
        "col4": "\"Billie's Theme\""
    },
    {
        "col0": "When the Money's Gone",
        "col1": "D. T. Weiss",
        "col2": "Cher",
        "col3": "280",
        "col4": "\"Love One Another\""
    },
    {
        "col0": "When the Lovelight Starts Shining Through His Eyes",
        "col1": "Holland-Dozier-Holland",
        "col2": "The Supremes",
        "col3": "186",
        "col4": "\"Standing at the Crossroads of Love\""
    },
    {
        "col0": "When the Love is Good",
        "col1": "G. Moroder",
        "col2": "Big Trouble",
        "col3": "221",
        "col4": "\"Last Kiss\""
    },
    {
        "col0": "When the Lights Go Out",
        "col1": "E. Kennedy",
        "col2": "Five",
        "col3": "251",
        "col4": "Shake (US)"
    },
    {
        "col0": "When the Lights Go Down",
        "col1": "C. Wiseman",
        "col2": "Faith Hill",
        "col3": "246",
        "col4": "\"If You're Gonna Fly Away\""
    },
    {
        "col0": "When the Levee Breaks",
        "col1": "M. Minnie",
        "col2": "Kansas Joe McCoy",
        "col3": "191",
        "col4": "\"That Will Be Alright\""
    },
    {
        "col0": "When the Lady Smiles",
        "col1": "B. Hay",
        "col2": "Golden Earring",
        "col3": "299",
        "col4": "\"Orwell's Year\""
    },
    {
        "col0": "When the Girl in Your Arms Is the Girl in Your Heart",
        "col1": "R. C. Bennett",
        "col2": "Cliff Richard",
        "col3": "145",
        "col4": "\"Baby's First Christmas\""
    },
    {
        "col0": "When a Woman Cries",
        "col1": "M. Williams",
        "col2": "Janie Fricke",
        "col3": "248",
        "col4": "\"Nothing Left to Say\""
    },
    {
        "col0": "When You Were Young",
        "col1": "B. Flowers",
        "col2": "The Killers",
        "col3": "220",
        "col4": "\"All the Pretty Faces\""
    },
    {
        "col0": "When You Were Mine",
        "col1": "Prince",
        "col2": "Cyndi Lauper",
        "col3": "300",
        "col4": "\"I'll Kiss You\""
    },
    {
        "col0": "When You Walk in the Room",
        "col1": "J. DeShannon",
        "col2": "Agnetha Faltskog",
        "col3": "142",
        "col4": "\"'Til All the Lonely's Gone\""
    }
]