[
    {
        "col0": "MetroLink",
        "col1": "Greater St. Louis",
        "col2": "87",
        "col3": "2"
    },
    {
        "col0": "Manchester Metrolink",
        "col1": "Cheetham Hill",
        "col2": "120",
        "col3": "7"
    },
    {
        "col0": "Karachi Circular Railway",
        "col1": "Karachi",
        "col2": "200",
        "col3": "2"
    },
    {
        "col0": "Integrated Public Transport System",
        "col1": "Bogota",
        "col2": "9339",
        "col3": "530"
    },
    {
        "col0": "Havelbus",
        "col1": "Potsdam",
        "col2": "213",
        "col3": "86"
    },
    {
        "col0": "Hanover S-Bahn",
        "col1": "Hannover",
        "col2": "68",
        "col3": "8"
    },
    {
        "col0": "Greyhound Lines",
        "col1": "Dallas",
        "col2": "3",
        "col3": "123"
    },
    {
        "col0": "GO Transit",
        "col1": "Canada",
        "col2": "75",
        "col3": "7"
    },
    {
        "col0": "G:link",
        "col1": "Southport, Queensland",
        "col2": "14",
        "col3": "1"
    },
    {
        "col0": "Erie Metropolitan Transit Authority",
        "col1": "Pennsylvania",
        "col2": "70",
        "col3": "31"
    },
    {
        "col0": "ESHOT",
        "col1": "Adegzmir",
        "col2": "1459",
        "col3": "415"
    },
    {
        "col0": "Detroit People Mover",
        "col1": "Detroit",
        "col2": "12",
        "col3": "1"
    },
    {
        "col0": "Delhi Metro",
        "col1": "New Delhi",
        "col2": "216",
        "col3": "6"
    },
    {
        "col0": "Chiba Urban Monorail",
        "col1": "Chiba Prefecture",
        "col2": "1000",
        "col3": "2"
    },
    {
        "col0": "Central Buses",
        "col1": "Perry Barr",
        "col2": "30",
        "col3": "19"
    },
    {
        "col0": "Caltrain",
        "col1": "San Carlos, California",
        "col2": "29",
        "col3": "1"
    },
    {
        "col0": "Busabout Wagga Wagga",
        "col1": "East Wagga Wagga",
        "col2": "61",
        "col3": "8"
    },
    {
        "col0": "Bhubaneswar City Bus",
        "col1": "Bhubaneswar",
        "col2": "125",
        "col3": "17"
    },
    {
        "col0": "Bay Area Rapid Transit",
        "col1": "Oakland, California",
        "col2": "662",
        "col3": "6"
    },
    {
        "col0": "Bangkok Mass Transit Authority",
        "col1": "Huai Khwang District",
        "col2": "3526",
        "col3": "118"
    },
    {
        "col0": "Amritsar BRTS",
        "col1": "Amritsar",
        "col2": "93",
        "col3": "7"
    },
    {
        "col0": "Ahmedabad Monorail",
        "col1": "Ahmedabad",
        "col2": "15",
        "col3": "2"
    },
    {
        "col0": "Ahmedabad BRTS",
        "col1": "Ahmedabad",
        "col2": "223",
        "col3": "13"
    },
    {
        "col0": "Agence metropolitaine de transport",
        "col1": "Canada",
        "col2": "50",
        "col3": "6"
    },
    {
        "col0": "AC Transit",
        "col1": "California",
        "col2": "586",
        "col3": "149"
    },
    {
        "col0": "Adegzmir Metro",
        "col1": "Halkapinar",
        "col2": "77",
        "col3": "1"
    }
]