[
    {
        "col0": "C. Stephenson",
        "col1": "Green Bay Packers",
        "col2": "Free agent",
        "col3": "1983-06-18",
        "col4": "156"
    },
    {
        "col0": "C. Fleming",
        "col1": "New England Patriots",
        "col2": "New England Patriots",
        "col3": "1992-09-03",
        "col4": "140"
    },
    {
        "col0": "C. Erving",
        "col1": "Cleveland Browns",
        "col2": "Cleveland Browns",
        "col3": "1992-08-23",
        "col4": "19"
    },
    {
        "col0": "C. Artis-Payne",
        "col1": "Carolina Panthers",
        "col2": "Carolina Panthers",
        "col3": "1992-6-23",
        "col4": "174"
    },
    {
        "col0": "C. Thomas",
        "col1": "Pittsburgh Steelers",
        "col2": "Los Angeles Rams",
        "col3": "1986-12-12",
        "col4": "146"
    },
    {
        "col0": "C. Johnson",
        "col1": "San Francisco 49ers",
        "col2": "Cleveland Browns",
        "col3": "1990-05-24",
        "col4": "237"
    },
    {
        "col0": "C. Pryor",
        "col1": "New York Jets",
        "col2": "New York Jets",
        "col3": "1992-07-02",
        "col4": "18"
    },
    {
        "col0": "C. Sturgis",
        "col1": "Miami Dolphins",
        "col2": "Philadelphia Eagles",
        "col3": "1989-08-09",
        "col4": "166"
    },
    {
        "col0": "C. Schlauderaff",
        "col1": "New York Jets",
        "col2": "Free agent",
        "col3": "1987-11-07",
        "col4": "179"
    },
    {
        "col0": "C. Benenoch",
        "col1": "Tampa Bay Buccaneers",
        "col2": "Tampa Bay Buccaneers",
        "col3": "1994-08-08",
        "col4": "148"
    },
    {
        "col0": "C. Campbell",
        "col1": "Arizona Cardinals",
        "col2": "Arizona Cardinals",
        "col3": "1986-9-1",
        "col4": "50"
    },
    {
        "col0": "C. J. Uzomah",
        "col1": "Cincinnati Bengals",
        "col2": "Cincinnati Bengals",
        "col3": "1993-01-14",
        "col4": "157"
    },
    {
        "col0": "C. J. Spiller",
        "col1": "Buffalo Bills",
        "col2": "Seattle Seahawks",
        "col3": "1987-8-5",
        "col4": "9"
    },
    {
        "col0": "C. J. Prosise",
        "col1": "Seattle Seahawks",
        "col2": "Seattle Seahawks",
        "col3": "1994-05-20",
        "col4": "90"
    },
    {
        "col0": "C. J. Mosley",
        "col1": "Baltimore Ravens",
        "col2": "Baltimore Ravens",
        "col3": "1992-06-19",
        "col4": "17"
    },
    {
        "col0": "B. Stingily",
        "col1": "Pittsburgh Steelers",
        "col2": "Free agent",
        "col3": "1988-09-09",
        "col4": "175"
    },
    {
        "col0": "B. Jones",
        "col1": "Dallas Cowboys",
        "col2": "Dallas Cowboys",
        "col3": "1992-09-26",
        "col4": "27"
    },
    {
        "col0": "B. Skrine",
        "col1": "Cleveland Browns",
        "col2": "New York Jets",
        "col3": "1989-04-26",
        "col4": "137"
    },
    {
        "col0": "B. Sasser",
        "col1": "St. Louis Rams",
        "col2": "Saskatchewan Roughriders",
        "col3": "1992-05-29",
        "col4": "201"
    },
    {
        "col0": "B. Dupree",
        "col1": "Pittsburgh Steelers",
        "col2": "Pittsburgh Steelers",
        "col3": "1993-02-12",
        "col4": "22"
    },
    {
        "col0": "B. Hager",
        "col1": "Los Angeles Rams",
        "col2": "Los Angeles Rams",
        "col3": "1992-05-04",
        "col4": "224"
    },
    {
        "col0": "B. Anger",
        "col1": "Jacksonville Jaguars",
        "col2": "Tampa Bay Buccaneers",
        "col3": "1988-10-6",
        "col4": "70"
    },
    {
        "col0": "B. Irvin",
        "col1": "Seattle Seahawks",
        "col2": "Oakland Raiders",
        "col3": "1987-1-11",
        "col4": "15"
    },
    {
        "col0": "B. Ellington",
        "col1": "San Francisco 49ers",
        "col2": "San Francisco 49ers",
        "col3": "1991-08-22",
        "col4": "106"
    },
    {
        "col0": "B. Kaufusi",
        "col1": "Baltimore Ravens",
        "col2": "Baltimore Ravens",
        "col3": "1991-07-06",
        "col4": "70"
    },
    {
        "col0": "B. Winters",
        "col1": "New York Jets",
        "col2": "New York Jets",
        "col3": "1991-07-10",
        "col4": "72"
    },
    {
        "col0": "B. Schwenke",
        "col1": "Tennessee Titans",
        "col2": "Tennessee Titans",
        "col3": "1991-03-22",
        "col4": "107"
    },
    {
        "col0": "B. Robison",
        "col1": "Minnesota Vikings",
        "col2": "Minnesota Vikings",
        "col3": "1983-04-27",
        "col4": "102"
    },
    {
        "col0": "B. Quick",
        "col1": "Los Angeles Rams",
        "col2": "Los Angeles Rams",
        "col3": "1989-06-05",
        "col4": "33"
    },
    {
        "col0": "B. Mitchell",
        "col1": "Atlanta Falcons",
        "col2": "Virginia Tech Hokies football",
        "col3": "1968-12-13",
        "col4": "172"
    },
    {
        "col0": "B. Mihalik",
        "col1": "Detroit Lions",
        "col2": "Pittsburgh Steelers",
        "col3": "1992-08-21",
        "col4": "237"
    },
    {
        "col0": "B. Cushing",
        "col1": "Houston Texans",
        "col2": "Houston Texans",
        "col3": "1987-01-24",
        "col4": "15"
    },
    {
        "col0": "B. Hundley",
        "col1": "Green Bay Packers",
        "col2": "Green Bay Packers",
        "col3": "1993-06-15",
        "col4": "147"
    },
    {
        "col0": "B. Perriman",
        "col1": "Baltimore Ravens",
        "col2": "Baltimore Ravens",
        "col3": "1993-09-10",
        "col4": "26"
    },
    {
        "col0": "B. Urban",
        "col1": "Baltimore Ravens",
        "col2": "Baltimore Ravens",
        "col3": "1991-05-05",
        "col4": "134"
    },
    {
        "col0": "B. Miller",
        "col1": "Houston Texans",
        "col2": "Houston Texans",
        "col3": "1992-11-30",
        "col4": "85"
    },
    {
        "col0": "B. Williams",
        "col1": "Baltimore Ravens",
        "col2": "Baltimore Ravens",
        "col3": "1989-02-21",
        "col4": "94"
    },
    {
        "col0": "B. Williams",
        "col1": "Arizona Cardinals",
        "col2": "Arizona Cardinals",
        "col3": "1992-09-09",
        "col4": "92"
    },
    {
        "col0": "B. Weeden",
        "col1": "Cleveland Browns",
        "col2": "Houston Texans",
        "col3": "1983-10-14",
        "col4": "22"
    },
    {
        "col0": "B. Watts",
        "col1": "Miami Dolphins",
        "col2": "Miami Dolphins",
        "col3": "1991-01-21",
        "col4": "223"
    },
    {
        "col0": "B. Thompson",
        "col1": "Cincinnati Bengals",
        "col2": "Cincinnati Bengals",
        "col3": "1989-10-19",
        "col4": "93"
    },
    {
        "col0": "B. Thomas",
        "col1": "Detroit Lions",
        "col2": "Detroit Lions",
        "col3": "1991-02-08",
        "col4": "100"
    },
    {
        "col0": "B. Tate",
        "col1": "Buffalo Bills",
        "col2": "Buffalo Bills",
        "col3": "1987-10-05",
        "col4": "83"
    },
    {
        "col0": "B. Spikes",
        "col1": "Buffalo Bills",
        "col2": "Buffalo Bills",
        "col3": "1987-09-03",
        "col4": "62"
    },
    {
        "col0": "B. Shell",
        "col1": "New York Jets",
        "col2": "New York Jets",
        "col3": "1992-02-06",
        "col4": "158"
    },
    {
        "col0": "B. Scherff",
        "col1": "Washington Redskins",
        "col2": "Washington Redskins",
        "col3": "1991-12-26",
        "col4": "5"
    },
    {
        "col0": "B. Marshall",
        "col1": "Denver Broncos",
        "col2": "Denver Broncos",
        "col3": "1989-9-10",
        "col4": "142"
    },
    {
        "col0": "B. Linder",
        "col1": "Jacksonville Jaguars",
        "col2": "Jacksonville Jaguars",
        "col3": "1992-01-25",
        "col4": "93"
    },
    {
        "col0": "B. Hardin",
        "col1": "Chicago Bears",
        "col2": "Free agent",
        "col3": "1989-10-30",
        "col4": "16"
    },
    {
        "col0": "B. Brooks",
        "col1": "Houston Texans",
        "col2": "Philadelphia Eagles",
        "col3": "1989-08-19",
        "col4": "76"
    },
    {
        "col0": "B. Boykin",
        "col1": "Carolina Panthers",
        "col2": "Chicago Bears",
        "col3": "1990-07-13",
        "col4": "112"
    },
    {
        "col0": "B. Cooks",
        "col1": "New Orleans Saints",
        "col2": "New Orleans Saints",
        "col3": "1993-09-25",
        "col4": "20"
    },
    {
        "col0": "B. Albert",
        "col1": "Kansas City Chiefs",
        "col2": "Miami Dolphins",
        "col3": "1984-11-04",
        "col4": "15"
    },
    {
        "col0": "B. Roby",
        "col1": "Denver Broncos",
        "col2": "Denver Broncos",
        "col3": "1992-05-01",
        "col4": "31"
    },
    {
        "col0": "B. Pinion",
        "col1": "San Francisco 49ers",
        "col2": "San Francisco 49ers",
        "col3": "1994-06-01",
        "col4": "165"
    },
    {
        "col0": "B. Banta",
        "col1": "Buffalo Bills",
        "col2": "Washington Redskins",
        "col3": "1970-12-14",
        "col4": "106"
    },
    {
        "col0": "B. Smelley",
        "col1": "Cleveland Browns",
        "col2": "Free agent",
        "col3": "1989-04-20",
        "col4": "247"
    },
    {
        "col0": "B. Nortman",
        "col1": "Carolina Panthers",
        "col2": "Jacksonville Jaguars",
        "col3": "1989-09-12",
        "col4": "207"
    },
    {
        "col0": "B. Wagner",
        "col1": "Seattle Seahawks",
        "col2": "Seattle Seahawks",
        "col3": "1990-06-27",
        "col4": "47"
    },
    {
        "col0": "B. McCain",
        "col1": "Miami Dolphins",
        "col2": "Miami Dolphins",
        "col3": "1993-08-18",
        "col4": "145"
    },
    {
        "col0": "B. Massie",
        "col1": "Arizona Cardinals",
        "col2": "Chicago Bears",
        "col3": "1989-08-01",
        "col4": "112"
    },
    {
        "col0": "B. Hart",
        "col1": "New York Giants",
        "col2": "New York Giants",
        "col3": "1994-08-21",
        "col4": "226"
    },
    {
        "col0": "B. Engram",
        "col1": "Chicago Bears",
        "col2": "Baltimore Ravens",
        "col3": "1973-1-7",
        "col4": "52"
    },
    {
        "col0": "B. Adams",
        "col1": "Atlanta Falcons",
        "col2": "Miami Dolphins",
        "col3": "1979-10-15",
        "col4": "220"
    },
    {
        "col0": "B. Martinez",
        "col1": "Green Bay Packers",
        "col2": "Green Bay Packers",
        "col3": "1994-01-09",
        "col4": "131"
    },
    {
        "col0": "B. Bortles",
        "col1": "Jacksonville Jaguars",
        "col2": "Jacksonville Jaguars",
        "col3": "1992-4-28",
        "col4": "3"
    },
    {
        "col0": "B. Bell",
        "col1": "San Francisco 49ers",
        "col2": "San Francisco 49ers",
        "col3": "1991-08-07",
        "col4": "117"
    },
    {
        "col0": "B. Walsh",
        "col1": "Minnesota Vikings",
        "col2": "Minnesota Vikings",
        "col3": "1990-01-08",
        "col4": "175"
    },
    {
        "col0": "B. Sankey",
        "col1": "New England Patriots",
        "col2": "New England Patriots",
        "col3": "1992-09-15",
        "col4": "54"
    },
    {
        "col0": "B. Winn",
        "col1": "Cleveland Browns",
        "col2": "Denver Broncos",
        "col3": "1989-04-15",
        "col4": "205"
    },
    {
        "col0": "B. Turner",
        "col1": "Baltimore Ravens",
        "col2": "Denver Broncos",
        "col3": "1991-10-17",
        "col4": "67"
    },
    {
        "col0": "B. Benwikere",
        "col1": "Carolina Panthers",
        "col2": "Miami Dolphins",
        "col3": "1991-9-3",
        "col4": "148"
    },
    {
        "col0": "B. Logan",
        "col1": "Philadelphia Eagles",
        "col2": "Philadelphia Eagles",
        "col3": "1989-12-28",
        "col4": "67"
    },
    {
        "col0": "B. Jones",
        "col1": "Houston Texans",
        "col2": "Tennessee Titans",
        "col3": "1989-07-02",
        "col4": "99"
    },
    {
        "col0": "B. Heeney",
        "col1": "Oakland Raiders",
        "col2": "Oakland Raiders",
        "col3": "1992-05-13",
        "col4": "140"
    },
    {
        "col0": "B. Benwikere",
        "col1": "Miami Dolphins",
        "col2": "Miami Dolphins",
        "col3": "1991-9-3",
        "col4": "148"
    },
    {
        "col0": "B. Sandland",
        "col1": "Carolina Panthers",
        "col2": "Carolina Panthers",
        "col3": "1993-02-23",
        "col4": "252"
    },
    {
        "col0": "B. Bell",
        "col1": "Cleveland Browns",
        "col2": "Philadelphia Soul",
        "col3": "1986-05-26",
        "col4": "104"
    },
    {
        "col0": "B. Allen",
        "col1": "Philadelphia Eagles",
        "col2": "Philadelphia Eagles",
        "col3": "1991-11-14",
        "col4": "224"
    },
    {
        "col0": "B. Breeland",
        "col1": "Washington Redskins",
        "col2": "Washington Redskins",
        "col3": "1992-01-30",
        "col4": "102"
    },
    {
        "col0": "B. Mingo",
        "col1": "Cleveland Browns",
        "col2": "New England Patriots",
        "col3": "1990-10-04",
        "col4": "6"
    },
    {
        "col0": "B. Atkins",
        "col1": "Dallas Cowboys",
        "col2": "New Orleans Saints",
        "col3": "1984-09-28",
        "col4": "120"
    },
    {
        "col0": "B. W. Webb",
        "col1": "Dallas Cowboys",
        "col2": "New Orleans Saints",
        "col3": "1990-05-03",
        "col4": "114"
    },
    {
        "col0": "B. J. Dubose",
        "col1": "Minnesota Vikings",
        "col2": "Minnesota Vikings",
        "col3": "1992-01-19",
        "col4": "193"
    }
]