[
    {
        "col0": "Canonization of Joan of Arc",
        "col1": "P. B. XV",
        "col2": "Normandy",
        "col3": "St. Peter's Basilica",
        "col4": "1920-05-16"
    },
    {
        "col0": "Candida Maria of Jesus",
        "col1": "P. B. XVI",
        "col2": "Spain",
        "col3": "Vatican City",
        "col4": "2010-10-17"
    },
    {
        "col0": "Camilla Battista da Varano",
        "col1": "P. B. XVI",
        "col2": "Italy",
        "col3": "Vatican City",
        "col4": "2010-10-17"
    },
    {
        "col0": "Bonifacia Rodriguez y Castro",
        "col1": "P. B. XVI",
        "col2": "Spain",
        "col3": "Rome",
        "col4": "2011-10-23"
    },
    {
        "col0": "Bonaventure",
        "col1": "P. S. IV",
        "col2": "Lyon",
        "col3": "Rome",
        "col4": "1482-04-14"
    },
    {
        "col0": "B. Tolomei",
        "col1": "P. B. XVI",
        "col2": "Tuscany",
        "col3": "Vatican City",
        "col4": "2009-04-26"
    },
    {
        "col0": "B. o. Siena",
        "col1": "P. N. V",
        "col2": "L'Aquila",
        "col3": "Papal States",
        "col4": "1450-05-24"
    },
    {
        "col0": "B. Realino",
        "col1": "P. P. XII",
        "col2": "Kingdom of Naples",
        "col3": "Saint Peter's Basilica",
        "col4": "1947-06-22"
    },
    {
        "col0": "B. o. Clairvaux",
        "col1": "P. A. III",
        "col2": "Clairvaux Abbey",
        "col3": "Rome",
        "col4": "1174-01-18"
    },
    {
        "col0": "Bernard Vu Van Due",
        "col1": "Pope John Paul II",
        "col2": "Vietnam",
        "col3": "Vatican City",
        "col4": "1988-06-19"
    },
    {
        "col0": "B. o. Carbio",
        "col1": "P. S. IV",
        "col2": "Morocco",
        "col3": "Rome",
        "col4": "1481-08-07"
    },
    {
        "col0": "B. Romancon",
        "col1": "P. P. VI",
        "col2": "Saugues",
        "col3": "Vatican City",
        "col4": "1967-10-29"
    },
    {
        "col0": "B. Menni",
        "col1": "Pope John Paul II",
        "col2": "French Third Republic",
        "col3": "Vatican City",
        "col4": "1999-11-21"
    },
    {
        "col0": "B. J. Labre",
        "col1": "P. L. XIII",
        "col2": "Rome",
        "col3": "Rome",
        "col4": "1881-12-08"
    },
    {
        "col0": "B. C. Frassinello",
        "col1": "Pope John Paul II",
        "col2": "Ronco Scrivia",
        "col3": "Italy",
        "col4": "2002-05-19"
    },
    {
        "col0": "B. o. Silva",
        "col1": "P. P. VI",
        "col2": "Crown of Castile",
        "col3": "Vatican City",
        "col4": "1976-10-03"
    },
    {
        "col0": "Basil Fool for Christ",
        "col1": "Patriarch Job of Moscow",
        "col2": "Moscow",
        "col3": "Moscow",
        "col4": "1588-08-02"
    },
    {
        "col0": "A. Schoeffler",
        "col1": "J. II",
        "col2": "Nguyen dynasty",
        "col3": "Italy",
        "col4": "1988-06-19"
    }
]