[
    {
        "col0": "P. M. Pirrotti",
        "col1": "Kingdom of Italy",
        "col2": "Roman Catholic Church",
        "col3": "1710-09-29",
        "col4": "1710-09-29",
        "col5": "1766-07-15",
        "col6": "1890-01-26"
    },
    {
        "col0": "P. Viel",
        "col1": "Saint Peter's Basilica",
        "col2": "Roman Catholic Church",
        "col3": "1815-09-26",
        "col4": "1815-09-26",
        "col5": "1877-03-04",
        "col6": "1951-05-06"
    },
    {
        "col0": "P. Puglisi",
        "col1": "Italy",
        "col2": "Roman Catholic Church",
        "col3": "1937-09-15",
        "col4": "1937-09-15",
        "col5": "1993-09-15",
        "col6": "2013-05-25"
    },
    {
        "col0": "P. Pettinaio",
        "col1": "Papal States",
        "col2": "Roman Catholic Church",
        "col3": "1180-1-1",
        "col4": "1180-1-1",
        "col5": "1289-12-04",
        "col6": "1802-08-18"
    },
    {
        "col0": "P. Gambacorta",
        "col1": "Papal States",
        "col2": "Roman Catholic Church",
        "col3": "1355-0-0",
        "col4": "1355-0-0",
        "col5": "1435-06-17",
        "col6": "1693-11-09"
    },
    {
        "col0": "P. Corradini",
        "col1": "Papal States",
        "col2": "Roman Catholic Church",
        "col3": "1435-0-0",
        "col4": "1435-0-0",
        "col5": "1490-07-25",
        "col6": "1760-08-10"
    },
    {
        "col0": "P. Casani",
        "col1": "Vatican City",
        "col2": "Roman Catholic Church",
        "col3": "1570-09-08",
        "col4": "1570-09-08",
        "col5": "1647-10-17",
        "col6": "1995-10-01"
    },
    {
        "col0": "P. Bonilli",
        "col1": "Vatican City",
        "col2": "Roman Catholic Church",
        "col3": "1841-03-15",
        "col4": "1841-03-15",
        "col5": "1935-01-05",
        "col6": "1988-04-24"
    },
    {
        "col0": "P. Vigne",
        "col1": "Vatican City",
        "col2": "Roman Catholic Church",
        "col3": "1670-08-20",
        "col4": "1670-08-20",
        "col5": "1740-07-08",
        "col6": "2004-10-03"
    },
    {
        "col0": "P. Bonhomme",
        "col1": "Vatican City",
        "col2": "Roman Catholic Church",
        "col3": "1803-7-4",
        "col4": "1803-7-4",
        "col5": "1861-09-09",
        "col6": "2003-03-23"
    },
    {
        "col0": "P. Rogue",
        "col1": "Saint Peter's Basilica",
        "col2": "Roman Catholic Church",
        "col3": "1758-06-11",
        "col4": "1758-06-11",
        "col5": "1796-03-03",
        "col6": "1934-05-10"
    },
    {
        "col0": "P. Cassant",
        "col1": "Vatican City",
        "col2": "Roman Catholic Church",
        "col3": "1878-03-06",
        "col4": "1878-03-06",
        "col5": "1903-06-17",
        "col6": "2004-10-03"
    },
    {
        "col0": "P. Jamet",
        "col1": "Saint Peter's Square",
        "col2": "Roman Catholic Church",
        "col3": "1762-09-13",
        "col4": "1762-09-13",
        "col5": "1843-1-12",
        "col6": "1987-05-10"
    },
    {
        "col0": "P. Toulorge",
        "col1": "France",
        "col2": "Roman Catholic Church",
        "col3": "1757-05-04",
        "col4": "1757-05-04",
        "col5": "1793-10-13",
        "col6": "2012-04-29"
    },
    {
        "col0": "P. Morosini",
        "col1": "Saint Peter's Basilica",
        "col2": "Roman Catholic Church",
        "col3": "1931-01-07",
        "col4": "1931-01-07",
        "col5": "1957-04-06",
        "col6": "1987-10-04"
    },
    {
        "col0": "P. G. Frassati",
        "col1": "Saint Peter's Square",
        "col2": "Dominican Order",
        "col3": "1901-04-06",
        "col4": "1901-04-06",
        "col5": "1925-07-04",
        "col6": "1990-05-20"
    },
    {
        "col0": "Philip Benizi de Damiani",
        "col1": "Rome",
        "col2": "Roman Catholic Church",
        "col3": "1233-08-15",
        "col4": "1233-08-15",
        "col5": "1285-08-22",
        "col6": "1645-10-08"
    },
    {
        "col0": "Peter of Saint Joseph de Betancur",
        "col1": "St. Peter's Basilica",
        "col2": "Roman Catholic Church",
        "col3": "1626-03-21",
        "col4": "1626-03-21",
        "col5": "1667-04-25",
        "col6": "1980-06-22"
    },
    {
        "col0": "P. d. Regalado",
        "col1": "Papal States",
        "col2": "Roman Catholic Church",
        "col3": "1390-1-1",
        "col4": "1390-1-1",
        "col5": "1456-03-30",
        "col6": "1684-03-11"
    },
    {
        "col0": "P. T. Rot",
        "col1": "Port Moresby",
        "col2": "Roman Catholic Church",
        "col3": "1912-1-1",
        "col4": "1912-1-1",
        "col5": "1945-1-1",
        "col6": "1995-01-17"
    },
    {
        "col0": "P. Friedhofen",
        "col1": "Vatican City",
        "col2": "Roman Catholic Church",
        "col3": "1819-02-25",
        "col4": "1819-02-25",
        "col5": "1860-12-21",
        "col6": "1985-07-02"
    },
    {
        "col0": "P. Faber",
        "col1": "Kingdom of Italy",
        "col2": "Catholic Church",
        "col3": "1506-04-13",
        "col4": "1506-04-13",
        "col5": "1546-08-01",
        "col6": "1872-09-05"
    },
    {
        "col0": "P. Claver",
        "col1": "Papal States",
        "col2": "Catholic Church",
        "col3": "1581-06-26",
        "col4": "1581-06-26",
        "col5": "1654-09-07",
        "col6": "1851-07-16"
    },
    {
        "col0": "P. M. Fontcuberta",
        "col1": "Vatican City",
        "col2": "Roman Catholic Church",
        "col3": "1827-01-13",
        "col4": "1827-01-13",
        "col5": "1886-07-03",
        "col6": "1996-10-06"
    },
    {
        "col0": "Pere Tarres i Claret",
        "col1": "Loreto, Italy",
        "col2": "Roman Catholic Church",
        "col3": "1905-05-30",
        "col4": "1905-05-30",
        "col5": "1950-08-31",
        "col6": "2004-09-05"
    },
    {
        "col0": "P. P. Castroverde",
        "col1": "Italy",
        "col2": "Roman Catholic Church",
        "col3": "1874-12-03",
        "col4": "1874-12-03",
        "col5": "1936-07-28",
        "col6": "1993-10-10"
    },
    {
        "col0": "P. Calungsod",
        "col1": "St. Peter's Basilica",
        "col2": "Catholic Church",
        "col3": "1654-07-21",
        "col4": "1654-07-21",
        "col5": "1672-04-02",
        "col6": "2000-03-05"
    },
    {
        "col0": "P. A. Mendia",
        "col1": "Vitoria, Spain",
        "col2": "Roman Catholic Church",
        "col3": "1890-08-30",
        "col4": "1890-08-30",
        "col5": "1936-08-29",
        "col6": "2014-11-01"
    },
    {
        "col0": "P. Armengol",
        "col1": "Papal States",
        "col2": "Roman Catholic Church",
        "col3": "1238-1-1",
        "col4": "1238-1-1",
        "col5": "1304-04-27",
        "col6": "1686-03-28"
    },
    {
        "col0": "Pauline of the Agonizing Heart of Jesus",
        "col1": "Brazil",
        "col2": "Roman Catholic Church",
        "col3": "1865-12-16",
        "col4": "1865-12-16",
        "col5": "1942-07-09",
        "col6": "1991-10-18"
    },
    {
        "col0": "P. M. Fornes",
        "col1": "Vatican City",
        "col2": "Roman Catholic Church",
        "col3": "1799-10-11",
        "col4": "1799-10-11",
        "col5": "1889-02-26",
        "col6": "1993-04-18"
    },
    {
        "col0": "Paul of the Cross",
        "col1": "Rome",
        "col2": "Roman Catholic Church",
        "col3": "1694-01-03",
        "col4": "1694-01-03",
        "col5": "1775-10-18",
        "col6": "1853-05-01"
    },
    {
        "col0": "P. J. Nardini",
        "col1": "Germany",
        "col2": "Roman Catholic Church",
        "col3": "1821-07-25",
        "col4": "1821-07-25",
        "col5": "1862-01-27",
        "col6": "2006-06-26"
    },
    {
        "col0": "P. G. Costa",
        "col1": "Papal States",
        "col2": "Roman Catholic Church",
        "col3": "1463-03-03",
        "col4": "1463-03-03",
        "col5": "1515-01-24",
        "col6": "1845-08-14"
    },
    {
        "col0": "P. E. Cerioli",
        "col1": "Saint Peter's Basilica",
        "col2": "Roman Catholic Church",
        "col3": "1816-01-28",
        "col4": "1816-01-28",
        "col5": "1865-12-24",
        "col6": "1950-03-19"
    },
    {
        "col0": "P. Pio",
        "col1": "Vatican City",
        "col2": "Catholic Church",
        "col3": "1887-05-25",
        "col4": "1887-05-25",
        "col5": "1968-09-23",
        "col6": "1999-05-02"
    },
    {
        "col0": "Pacificus of San Severino",
        "col1": "Papal States",
        "col2": "Roman Catholic Church",
        "col3": "1653-03-01",
        "col4": "1653-03-01",
        "col5": "1721-09-24",
        "col6": "1786-08-04"
    },
    {
        "col0": "P. o. Ceredano",
        "col1": "Papal States",
        "col2": "Roman Catholic Church",
        "col3": "1420-0-0",
        "col4": "1420-0-0",
        "col5": "1482-06-04",
        "col6": "1745-07-07"
    },
    {
        "col0": "O. Focherini",
        "col1": "Italy",
        "col2": "Roman Catholic Church",
        "col3": "1907-06-06",
        "col4": "1907-06-06",
        "col5": "1944-12-27",
        "col6": "2013-06-15"
    },
    {
        "col0": "N. Sulprizio",
        "col1": "Saint Peter's Basilica",
        "col2": "Roman Catholic Church",
        "col3": "1817-04-17",
        "col4": "1817-04-17",
        "col5": "1836-05-05",
        "col6": "1963-12-01"
    },
    {
        "col0": "N. A. Pereira",
        "col1": "Vatican City",
        "col2": "Roman Catholic Church",
        "col3": "1360-06-24",
        "col4": "1360-06-24",
        "col5": "1431-04-01",
        "col6": "1918-01-23"
    },
    {
        "col0": "N. Kassab",
        "col1": "Vatican City",
        "col2": "Catholic Church",
        "col3": "1808-1-1",
        "col4": "1808-1-1",
        "col5": "1858-12-14",
        "col6": "1998-05-10"
    },
    {
        "col0": "N. Rusca",
        "col1": "Italy",
        "col2": "Roman Catholic Church",
        "col3": "1563-04-20",
        "col4": "1563-04-20",
        "col5": "1618-07-24",
        "col6": "2013-04-21"
    },
    {
        "col0": "N. Factor",
        "col1": "Papal States",
        "col2": "Roman Catholic Church",
        "col3": "1520-06-29",
        "col4": "1520-06-29",
        "col5": "1583-12-23",
        "col6": "1786-08-27"
    },
    {
        "col0": "N. d. Gesturi",
        "col1": "Vatican City",
        "col2": "Roman Catholic Church",
        "col3": "1882-08-04",
        "col4": "1882-08-04",
        "col5": "1958-06-08",
        "col6": "1999-10-03"
    },
    {
        "col0": "Nicola da Forca Palena",
        "col1": "Papal States",
        "col2": "Roman Catholic Church",
        "col3": "1349-09-10",
        "col4": "1349-09-10",
        "col5": "1449-10-01",
        "col6": "1771-08-27"
    },
    {
        "col0": "N. Saggio",
        "col1": "Papal States",
        "col2": "Roman Catholic Church",
        "col3": "1650-01-06",
        "col4": "1650-01-06",
        "col5": "1709-02-03",
        "col6": "1786-09-17"
    },
    {
        "col0": "N. Paglia",
        "col1": "Papal States",
        "col2": "Roman Catholic Church",
        "col3": "1197",
        "col4": "1197",
        "col5": "1256-02-16",
        "col6": "1828-03-26"
    },
    {
        "col0": "N. Rusca",
        "col1": "Italy",
        "col2": "Roman Catholic Church",
        "col3": "1563-04-20",
        "col4": "1563-04-20",
        "col5": "1618-07-24",
        "col6": "2013-04-21"
    },
    {
        "col0": "N. Factor",
        "col1": "Papal States",
        "col2": "Roman Catholic Church",
        "col3": "1520-06-29",
        "col4": "1520-06-29",
        "col5": "1583-12-23",
        "col6": "1786-08-27"
    },
    {
        "col0": "N. Pieck",
        "col1": "Papal States",
        "col2": "Roman Catholic Church",
        "col3": "1534-08-29",
        "col4": "1534-08-29",
        "col5": "1572-07-09",
        "col6": "1675-11-24"
    },
    {
        "col0": "N. Barre",
        "col1": "St. Peter's Basilica",
        "col2": "Roman Catholic Church",
        "col3": "1621-10-21",
        "col4": "1621-10-21",
        "col5": "1686-05-31",
        "col6": "1999-03-07"
    },
    {
        "col0": "N. Chica",
        "col1": "Brazil",
        "col2": "Roman Catholic Church",
        "col3": "1808-1-1",
        "col4": "1808-1-1",
        "col5": "1895-06-14",
        "col6": "2013-05-04"
    },
    {
        "col0": "N. Falzon",
        "col1": "Malta",
        "col2": "Roman Catholic Church",
        "col3": "1813-07-01",
        "col4": "1813-07-01",
        "col5": "1865-07-01",
        "col6": "2001-05-09"
    },
    {
        "col0": "N. d. Jesus",
        "col1": "Rome, Italy",
        "col2": "Roman Catholic Church",
        "col3": "1832-10-29",
        "col4": "1832-10-29",
        "col5": "1869-12-08",
        "col6": "1992-10-25"
    },
    {
        "col0": "M. Wiaux",
        "col1": "Vatican City",
        "col2": "Catholic Church",
        "col3": "1841-3-20",
        "col4": "1841-3-20",
        "col5": "1917-1-30",
        "col6": "1977-10-30"
    },
    {
        "col0": "M. Teresa",
        "col1": "Vatican City",
        "col2": "Roman Catholic Church",
        "col3": "1910-08-26",
        "col4": "1910-08-26",
        "col5": "1997-09-05",
        "col6": "2003-10-19"
    },
    {
        "col0": "M. Pro",
        "col1": "Rome",
        "col2": "Lutheran Church",
        "col3": "0181-01-13",
        "col4": "0181-01-13",
        "col5": "1927-11-23",
        "col6": "1988-09-25"
    },
    {
        "col0": "M. F. Cordero",
        "col1": "Saint Peter's Basilica",
        "col2": "Catholic Church",
        "col3": "1854-11-07",
        "col4": "1854-11-07",
        "col5": "1910-02-09",
        "col6": "1977-10-30"
    },
    {
        "col0": "M. Rua",
        "col1": "Italy",
        "col2": "Roman Catholic Church",
        "col3": "1837-06-09",
        "col4": "1837-06-09",
        "col5": "1910-04-06",
        "col6": "1972-10-29"
    },
    {
        "col0": "M. Garicoits",
        "col1": "Kingdom of Italy",
        "col2": "Roman Catholic Church",
        "col3": "1797-04-15",
        "col4": "1797-04-15",
        "col5": "1863-05-14",
        "col6": "1923-05-10"
    },
    {
        "col0": "M. Kozal",
        "col1": "Poland",
        "col2": "Roman Catholic Church",
        "col3": "1893-09-25",
        "col4": "1893-09-25",
        "col5": "1943-01-26",
        "col6": "1987-06-14"
    },
    {
        "col0": "M. d. Sanctis",
        "col1": "Rome",
        "col2": "Roman Catholic Church",
        "col3": "1591-09-29",
        "col4": "1591-09-29",
        "col5": "1625-04-10",
        "col6": "1779-05-24"
    },
    {
        "col0": "M. Kozal",
        "col1": "Poland",
        "col2": "Roman Catholic Church",
        "col3": "1893-09-25",
        "col4": "1893-09-25",
        "col5": "1943-01-26",
        "col6": "1987-06-14"
    },
    {
        "col0": "Merce Prat i Prat",
        "col1": "Vatican City",
        "col2": "Roman Catholic Church",
        "col3": "1880-03-06",
        "col4": "1880-03-06",
        "col5": "1926-07-24",
        "col6": "1990-04-29"
    },
    {
        "col0": "Mercedes de Jesus Molina",
        "col1": "Ecuador",
        "col2": "Roman Catholic Church",
        "col3": "1828-09-24",
        "col4": "1828-09-24",
        "col5": "1883-06-12",
        "col6": "1985-02-01"
    },
    {
        "col0": "Merce Prat i Prat",
        "col1": "Vatican City",
        "col2": "Roman Catholic Church",
        "col3": "1880-03-06",
        "col4": "1880-03-06",
        "col5": "1926-07-24",
        "col6": "1990-04-29"
    },
    {
        "col0": "M. Grodziecki",
        "col1": "Vatican City",
        "col2": "Poland",
        "col3": "1584-1-1",
        "col4": "1584-1-1",
        "col5": "1619-09-07",
        "col6": "1905-01-15"
    },
    {
        "col0": "M. Szewczyk",
        "col1": "Krakow",
        "col2": "Roman Catholic Church",
        "col3": "1828-0-0",
        "col4": "1828-0-0",
        "col5": "1905-0-0",
        "col6": "2013-06-09"
    },
    {
        "col0": "M. Kolbe",
        "col1": "St. Peter's Basilica",
        "col2": "Anglican Church",
        "col3": "1894-01-08",
        "col4": "1894-01-08",
        "col5": "1941-08-14",
        "col6": "1971-10-17"
    },
    {
        "col0": "M. Tornay",
        "col1": "Vatican City",
        "col2": "Roman Catholic Church",
        "col3": "1910-08-31",
        "col4": "1910-08-31",
        "col5": "1949-08-11",
        "col6": "1993-05-16"
    },
    {
        "col0": "M. d. Nazarei",
        "col1": "Papal States",
        "col2": "Roman Catholic Church",
        "col3": "1253-03-01",
        "col4": "1253-03-01",
        "col5": "1319-12-28",
        "col6": "1765-07-27"
    },
    {
        "col0": "M. Ciccarelli",
        "col1": "Papal States",
        "col2": "Roman Catholic Church",
        "col3": "1480-2-24",
        "col4": "1480-2-24",
        "col5": "1543-01-18",
        "col6": "1841-01-15"
    },
    {
        "col0": "Matilde of the Sacred Heart",
        "col1": "Vatican City",
        "col2": "Roman Catholic Church",
        "col3": "1841-05-30",
        "col4": "1841-05-30",
        "col5": "1902-12-17",
        "col6": "2004-03-21"
    },
    {
        "col0": "Mateo Elias Nieves Castillo",
        "col1": "Vatican City",
        "col2": "Roman Catholic Church",
        "col3": "1882-09-21",
        "col4": "1882-09-21",
        "col5": "1928-03-10",
        "col6": "1997-10-12"
    },
    {
        "col0": "Maria del Transito Cabanillas",
        "col1": "Vatican City",
        "col2": "Roman Catholic Church",
        "col3": "1821-08-15",
        "col4": "1821-08-15",
        "col5": "1885-08-25",
        "col6": "2002-04-14"
    },
    {
        "col0": "Maria del Monte Carmelo Salles y Barangueras",
        "col1": "Vatican City",
        "col2": "Catholic Church",
        "col3": "1848-04-09",
        "col4": "1848-04-09",
        "col5": "1911-07-25",
        "col6": "1998-03-15"
    },
    {
        "col0": "Maria del Carmen Gonzalez-Ramos Garcia-Prieto de Munoz",
        "col1": "Spain",
        "col2": "Roman Catholic Church",
        "col3": "1834-06-30",
        "col4": "1834-06-30",
        "col5": "1899-11-09",
        "col6": "2007-05-06"
    },
    {
        "col0": "Maria de la Purisima Salvat Romero",
        "col1": "Seville",
        "col2": "Roman Catholic Church",
        "col3": "1926-02-20",
        "col4": "1926-02-20",
        "col5": "1998-10-31",
        "col6": "2010-09-18"
    },
    {
        "col0": "M. R. Meneses",
        "col1": "Vatican City",
        "col2": "Roman Catholic Church",
        "col3": "1902-01-13",
        "col4": "1902-01-13",
        "col5": "1977-07-07",
        "col6": "2002-04-14"
    },
    {
        "col0": "M. R. Bruna",
        "col1": "Vatican City",
        "col2": "Roman Catholic Church",
        "col3": "1781-11-05",
        "col4": "1781-11-05",
        "col5": "1853-08-30",
        "col6": "1994-10-16"
    },
    {
        "col0": "Maria Pilar Lopez de Maturana Ortiz de Zarate",
        "col1": "Spain",
        "col2": "Roman Catholic Church",
        "col3": "1884-07-25",
        "col4": "1884-07-25",
        "col5": "1934-07-23",
        "col6": "2006-10-22"
    },
    {
        "col0": "Maria Pilar Izquierdo Albero",
        "col1": "Vatican City",
        "col2": "Roman Catholic Church",
        "col3": "1906-07-27",
        "col4": "1906-07-27",
        "col5": "1945-08-27",
        "col6": "2001-11-04"
    },
    {
        "col0": "Maria Natividad Venegas de la Torre",
        "col1": "Mexico",
        "col2": "Roman Catholic Church",
        "col3": "1868-09-08",
        "col4": "1868-09-08",
        "col5": "1959-07-30",
        "col6": "1992-11-22"
    },
    {
        "col0": "Maria Lopez de Rivas Martinez",
        "col1": "Vatican City",
        "col2": "Roman Catholic Church",
        "col3": "1560-08-18",
        "col4": "1560-08-18",
        "col5": "1640-09-13",
        "col6": "1976-11-14"
    },
    {
        "col0": "Maria Josefa Sancho de Guerra",
        "col1": "Vatican City",
        "col2": "Roman Catholic Church",
        "col3": "1842-09-07",
        "col4": "1842-09-07",
        "col5": "1912-03-20",
        "col6": "1992-09-27"
    },
    {
        "col0": "Maria Guadalupe Garcia Zavala",
        "col1": "Saint Peter's Square",
        "col2": "Roman Catholic Church",
        "col3": "1878-04-27",
        "col4": "1878-04-27",
        "col5": "1963-06-24",
        "col6": "2004-04-25"
    },
    {
        "col0": "Maria Antonia de Paz y Figueroa",
        "col1": "Argentina",
        "col2": "Roman Catholic Church",
        "col3": "1730-0-0",
        "col4": "1730-0-0",
        "col5": "1799-03-06",
        "col6": "2016-08-27"
    },
    {
        "col0": "Maria Antonia Bandres Elosegui",
        "col1": "Vatican City",
        "col2": "Roman Catholic Church",
        "col3": "1898-03-06",
        "col4": "1898-03-06",
        "col5": "1919-04-27",
        "col6": "1996-05-12"
    },
    {
        "col0": "M. A. Perez",
        "col1": "Argentina",
        "col2": "Roman Catholic Church",
        "col3": "1897-08-17",
        "col4": "1897-08-17",
        "col5": "1932-05-20",
        "col6": "2012-11-17"
    },
    {
        "col0": "Mary of the Passion",
        "col1": "Vatican City",
        "col2": "Roman Catholicism",
        "col3": "1839-05-21",
        "col4": "1839-05-21",
        "col5": "1904-11-15",
        "col6": "2002-10-10"
    },
    {
        "col0": "Mary of the Divine Heart",
        "col1": "Vatican City",
        "col2": "Catholic Church",
        "col3": "1863-09-08",
        "col4": "1863-09-08",
        "col5": "1899-06-08",
        "col6": "1975-11-01"
    },
    {
        "col0": "M. T. Ledochowska",
        "col1": "Vatican City",
        "col2": "Roman Catholic Church",
        "col3": "1863-04-29",
        "col4": "1863-04-29",
        "col5": "1922-07-06",
        "col6": "1975-10-19"
    },
    {
        "col0": "M. MacKillop",
        "col1": "New South Wales",
        "col2": "Catholic Church",
        "col3": "1842-01-15",
        "col4": "1842-01-15",
        "col5": "1909-08-08",
        "col6": "1995-01-19"
    },
    {
        "col0": "Mary Frances of the Five Wounds",
        "col1": "Papal States",
        "col2": "Naples",
        "col3": "1715-3-25",
        "col4": "1715-3-25",
        "col5": "1791-10-07",
        "col6": "1843-11-12"
    },
    {
        "col0": "M. E. Pelletier",
        "col1": "Vatican City",
        "col2": "Catholic Church",
        "col3": "1796-07-31",
        "col4": "1796-07-31",
        "col5": "1868-04-24",
        "col6": "1933-04-30"
    },
    {
        "col0": "M. A. Wiecka",
        "col1": "Ukraine",
        "col2": "Roman Catholic Church",
        "col3": "1874-01-12",
        "col4": "1874-01-12",
        "col5": "1904-05-30",
        "col6": "2008-05-24"
    },
    {
        "col0": "M. Krizin",
        "col1": "Kingdom of Italy",
        "col2": "Roman Catholic Church",
        "col3": "1589-1-1",
        "col4": "1589-1-1",
        "col5": "1619-09-07",
        "col6": "1905-01-15"
    },
    {
        "col0": "M. Vergara",
        "col1": "Italy",
        "col2": "Roman Catholic Church",
        "col3": "1910-11-16",
        "col4": "1910-11-16",
        "col5": "1950-05-24",
        "col6": "2014-05-24"
    },
    {
        "col0": "M. Petkovic",
        "col1": "Dubrovnik",
        "col2": "Roman Catholic Church",
        "col3": "1892-12-10",
        "col4": "1892-12-10",
        "col5": "1966-07-09",
        "col6": "2003-06-06"
    },
    {
        "col0": "Marie of the Incarnation",
        "col1": "Vatican City",
        "col2": "Anglican Church of Canada",
        "col3": "1599-10-28",
        "col4": "1599-10-28",
        "col5": "1672-04-30",
        "col6": "1980-06-22"
    },
    {
        "col0": "M. T. Haze",
        "col1": "Vatican City",
        "col2": "Roman Catholic Church",
        "col3": "1782-02-17",
        "col4": "1782-02-17",
        "col5": "1876-01-07",
        "col6": "1991-04-21"
    },
    {
        "col0": "M. Deluil-Martiny",
        "col1": "Vatican City",
        "col2": "Roman Catholic Church",
        "col3": "1841-05-28",
        "col4": "1841-05-28",
        "col5": "1884-02-27",
        "col6": "1989-10-22"
    },
    {
        "col0": "M. A. Blondin",
        "col1": "Vatican City",
        "col2": "Catholic Church",
        "col3": "1809-04-18",
        "col4": "1809-04-18",
        "col5": "1890-01-02",
        "col6": "2001-04-29"
    },
    {
        "col0": "M. Turgeon",
        "col1": "Canada",
        "col2": "Roman Catholic Church",
        "col3": "1840-02-07",
        "col4": "1840-02-07",
        "col5": "1881-08-17",
        "col6": "2015-04-26"
    },
    {
        "col0": "M. D. Ghattas",
        "col1": "Nazareth",
        "col2": "Roman Catholic Church",
        "col3": "1843-10-04",
        "col4": "1843-10-04",
        "col5": "1927-03-25",
        "col6": "2009-11-22"
    },
    {
        "col0": "M. Turgeon",
        "col1": "Canada",
        "col2": "Roman Catholic Church",
        "col3": "1840-02-07",
        "col4": "1840-02-07",
        "col5": "1881-08-17",
        "col6": "2015-04-26"
    },
    {
        "col0": "Mariano de Jesus Euse Hoyos",
        "col1": "Vatican City",
        "col2": "Roman Catholic Church",
        "col3": "1845-10-14",
        "col4": "1845-10-14",
        "col5": "1926-07-13",
        "col6": "2000-04-09"
    },
    {
        "col0": "M. d. Roccacasale",
        "col1": "Vatican City",
        "col2": "Roman Catholic Church",
        "col3": "1778-01-13",
        "col4": "1778-01-13",
        "col5": "1866-05-31",
        "col6": "1999-10-03"
    },
    {
        "col0": "M. Arciero",
        "col1": "Italy",
        "col2": "Roman Catholic Church",
        "col3": "1707-02-26",
        "col4": "1707-02-26",
        "col5": "1788-02-16",
        "col6": "2012-06-24"
    },
    {
        "col0": "M. Cope",
        "col1": "Saint Peter's Basilica",
        "col2": "Episcopal Church",
        "col3": "1838-01-23",
        "col4": "1838-01-23",
        "col5": "1918-08-09",
        "col6": "2005-05-14"
    },
    {
        "col0": "M. Fontanella",
        "col1": "Papal States",
        "col2": "Roman Catholic Church",
        "col3": "1661-01-07",
        "col4": "1661-01-07",
        "col5": "1717-12-16",
        "col6": "1865-05-14"
    },
    {
        "col0": "M. Biernacka",
        "col1": "Poland",
        "col2": "Roman Catholic Church",
        "col3": "1888-1-1",
        "col4": "1888-1-1",
        "col5": "1943-07-13",
        "col6": "1999-06-13"
    },
    {
        "col0": "Mariana de Jesus de Paredes",
        "col1": "Rome",
        "col2": "Roman Catholic Church",
        "col3": "1618-10-31",
        "col4": "1618-10-31",
        "col5": "1645-05-26",
        "col6": "1853-11-10"
    },
    {
        "col0": "Mariana Navarro de Guevarra Romero",
        "col1": "Papal States",
        "col2": "Roman Catholic Church",
        "col3": "1565-01-17",
        "col4": "1565-01-17",
        "col5": "1624-04-17",
        "col6": "1783-05-25"
    }
]