[
    {
        "col0": "H. Runge",
        "col1": "German Empire",
        "col2": "1913-01-23",
        "col3": "1986-03-11"
    },
    {
        "col0": "H. L. Hardwick",
        "col1": "Mayaguez, Puerto Rico",
        "col2": "1914-05-02",
        "col3": "1966-12-27"
    },
    {
        "col0": "H. Srednicki",
        "col1": "Siemianowice Slaskie",
        "col2": "1955-01-17",
        "col3": "2016-04-10"
    },
    {
        "col0": "H. W. Armstrong",
        "col1": "Somerville, Massachusetts",
        "col2": "1879-07-22",
        "col3": "1951-02-22"
    },
    {
        "col0": "H. Tiller",
        "col1": "Trondheim",
        "col2": "1914-6-14",
        "col3": "1999-1-1"
    },
    {
        "col0": "H. Thomas",
        "col1": "Birmingham",
        "col2": "1888-7-1",
        "col3": "1963-1-13"
    },
    {
        "col0": "H. Cooper",
        "col1": "London",
        "col2": "1934-05-03",
        "col3": "2011-05-01"
    },
    {
        "col0": "H. Armstrong",
        "col1": "Columbus, Mississippi",
        "col2": "1912-12-12",
        "col3": "1988-10-22"
    },
    {
        "col0": "H. Piet",
        "col1": "Paris",
        "col2": "1888-01-01",
        "col3": "1915-05-04"
    },
    {
        "col0": "H. Quentemeijer",
        "col1": "Rheine",
        "col2": "1920-1-1",
        "col3": "1974-4-22"
    },
    {
        "col0": "H. d. Best",
        "col1": "Amsterdam",
        "col2": "1905-5-1",
        "col3": "1978-7-6"
    },
    {
        "col0": "H. Lazek",
        "col1": "Austria",
        "col2": "1911-10-17",
        "col3": "1986-07-26"
    },
    {
        "col0": "H. t. Hoff",
        "col1": "Netherlands",
        "col2": "1919-11-19",
        "col3": "2003-06-13"
    },
    {
        "col0": "H. Singh",
        "col1": "India",
        "col2": "1937-12-16",
        "col3": "2000-08-14"
    },
    {
        "col0": "H. Thomsen",
        "col1": "Gothenburg",
        "col2": "1942-2-27",
        "col3": "2004-4-26"
    },
    {
        "col0": "H. Pakandam",
        "col1": "Iran",
        "col2": "1934-05-19",
        "col3": "2013-07-16"
    },
    {
        "col0": "H. Wolff",
        "col1": "Nykoping",
        "col2": "1905-07-02",
        "col3": "1987-04-29"
    },
    {
        "col0": "H. Wills",
        "col1": "New Orleans",
        "col2": "1889-05-15",
        "col3": "1958-12-21"
    },
    {
        "col0": "H. Spanjer",
        "col1": "Grand Rapids, Michigan",
        "col2": "1873-1-9",
        "col3": "1958-7-16"
    },
    {
        "col0": "H. Siljander",
        "col1": "Helsinki",
        "col2": "1922-12-10",
        "col3": "2010-05-05"
    },
    {
        "col0": "H. Scott",
        "col1": "Liverpool",
        "col2": "1937-10-27",
        "col3": "2015-12-16"
    },
    {
        "col0": "H. Mitchell",
        "col1": "Tiverton, Devon",
        "col2": "1898-1-5",
        "col3": "1983-2-8"
    },
    {
        "col0": "H. Mason",
        "col1": "Bethnal Green",
        "col2": "1903-03-27",
        "col3": "1977-08-27"
    },
    {
        "col0": "H. Mallin",
        "col1": "London",
        "col2": "1892-06-01",
        "col3": "1969-11-8"
    },
    {
        "col0": "H. Lewis",
        "col1": "New York City",
        "col2": "1886-09-16",
        "col3": "1956-02-22"
    },
    {
        "col0": "H. Lake",
        "col1": "Devonport, Devon",
        "col2": "1902-10-17",
        "col3": "1970-0-0"
    },
    {
        "col0": "H. Johnson",
        "col1": "London",
        "col2": "1887-8-10",
        "col3": "1947-12-16"
    },
    {
        "col0": "H. Jeffra",
        "col1": "Baltimore",
        "col2": "1914-11-30",
        "col3": "1988-9-0"
    },
    {
        "col0": "H. Isaacs",
        "col1": "Johannesburg",
        "col2": "1908-1-26",
        "col3": "1961-9-13"
    },
    {
        "col0": "H. Harris",
        "col1": "Chicago",
        "col2": "1880-11-18",
        "col3": "1959-06-05"
    },
    {
        "col0": "H. Haft",
        "col1": "Belchatow",
        "col2": "1925-07-28",
        "col3": "2007-11-03"
    },
    {
        "col0": "H. Greb",
        "col1": "Pittsburgh",
        "col2": "1894-06-06",
        "col3": "1926-10-22"
    },
    {
        "col0": "H. Forbes",
        "col1": "Rockford, Illinois",
        "col2": "1879-05-12",
        "col3": "1946-12-19"
    },
    {
        "col0": "H. Campbell",
        "col1": "Detroit",
        "col2": "1938-01-07",
        "col3": "1961-05-16"
    },
    {
        "col0": "H. Johnson",
        "col1": "Philadelphia",
        "col2": "1928-08-09",
        "col3": "2015-02-19"
    },
    {
        "col0": "H. Devine",
        "col1": "New Haven, Connecticut",
        "col2": "1909-5-18",
        "col3": "1998-4-29"
    },
    {
        "col0": "H. Dade",
        "col1": "Chicago",
        "col2": "1923-3-24",
        "col3": "1962-7-17"
    },
    {
        "col0": "H. T. Murphy",
        "col1": "New York, New York",
        "col2": "1885-04-13",
        "col3": "1958-11-26"
    },
    {
        "col0": "H. Pieterse",
        "col1": "South Africa",
        "col2": "1942-05-28",
        "col3": "2013-05-26"
    },
    {
        "col0": "H. Ziglarski",
        "col1": "Bialystok",
        "col2": "1905-10-16",
        "col3": "1975-2-12"
    },
    {
        "col0": "H. J. Nielsen",
        "col1": "Naestved",
        "col2": "1899-9-2",
        "col3": "1967-2-6"
    },
    {
        "col0": "H. Herring",
        "col1": "St. Petersburg, Florida",
        "col2": "1922-6-19",
        "col3": "1999-5-18"
    },
    {
        "col0": "H. Galhia",
        "col1": "Kairouan",
        "col2": "1941-05-14",
        "col3": "2011-12-25"
    },
    {
        "col0": "H. Mendez",
        "col1": "Argentina",
        "col2": "1897-8-1",
        "col3": "1977-12-13"
    },
    {
        "col0": "H. Lopez",
        "col1": "Mexico",
        "col2": "1967-02-01",
        "col3": "2011-10-24"
    },
    {
        "col0": "H. Camacho",
        "col1": "Bayamon, Puerto Rico",
        "col2": "1962-05-24",
        "col3": "2012-11-24"
    },
    {
        "col0": "G. Heidemann",
        "col1": "Berlin",
        "col2": "1932-10-21",
        "col3": "2010-3-15"
    },
    {
        "col0": "G. Torok",
        "col1": "Hungary",
        "col2": "1938-01-24",
        "col3": "2014-01-12"
    },
    {
        "col0": "G. Roth",
        "col1": "Antwerp",
        "col2": "1909-3-12",
        "col3": "1982-9-14"
    },
    {
        "col0": "G. Scholz",
        "col1": "Berlin",
        "col2": "1930-04-12",
        "col3": "2000-08-21"
    },
    {
        "col0": "G. Bergman",
        "col1": "Stockholm",
        "col2": "1898-02-08",
        "col3": "1971-06-06"
    },
    {
        "col0": "G. Platts",
        "col1": "Sheffield",
        "col2": "1891-10-24",
        "col3": "1942-12-04"
    },
    {
        "col0": "G. Lesnevich",
        "col1": "Pittsburgh",
        "col2": "1915-02-22",
        "col3": "1964-02-28"
    },
    {
        "col0": "G. Moir",
        "col1": "Lambeth",
        "col2": "1879-04-17",
        "col3": "1939-06-12"
    },
    {
        "col0": "G. Nilsson",
        "col1": "Sweden",
        "col2": "1923-03-23",
        "col3": "2005-05-13"
    },
    {
        "col0": "G. Hansen",
        "col1": "Oslo",
        "col2": "1916-07-18",
        "col3": "2004-5-31"
    },
    {
        "col0": "G. Barlund",
        "col1": "Helsinki",
        "col2": "1910-04-14",
        "col3": "1982-08-02"
    },
    {
        "col0": "G. Berggren",
        "col1": "Stockholm",
        "col2": "1908-01-26",
        "col3": "1983-09-02"
    },
    {
        "col0": "G. Barlund",
        "col1": "Helsinki",
        "col2": "1910-04-14",
        "col3": "1982-08-02"
    },
    {
        "col0": "G. Smith",
        "col1": "Philadelphia",
        "col2": "1887-02-17",
        "col3": "1974-08-06"
    },
    {
        "col0": "G. Lovell",
        "col1": "Buenos Aires",
        "col2": "1918-01-14",
        "col3": "1967-10-25"
    },
    {
        "col0": "G. Mazzinghi",
        "col1": "Pontedera",
        "col2": "1932-05-14",
        "col3": "1996-0-0"
    },
    {
        "col0": "G. Peralta",
        "col1": "San Juan, Argentina",
        "col2": "1935-05-08",
        "col3": "2001-10-03"
    },
    {
        "col0": "G. Page",
        "col1": "Kentucky",
        "col2": "1958-10-25",
        "col3": "2009-04-27"
    },
    {
        "col0": "G. Johansen",
        "col1": "Copenhagen",
        "col2": "1895-5-4",
        "col3": "1978-2-2"
    },
    {
        "col0": "G. Jones",
        "col1": "Memphis, Tennessee",
        "col2": "1906-05-12",
        "col3": "1982-01-04"
    },
    {
        "col0": "G. Mitu",
        "col1": "Romania",
        "col2": "1914-07-14",
        "col3": "1936-06-22"
    },
    {
        "col0": "G. Moody",
        "col1": "Wales",
        "col2": "1909-1-1",
        "col3": "1989-1-1"
    },
    {
        "col0": "G. Saraudi",
        "col1": "Civitavecchia",
        "col2": "1938-07-03",
        "col3": "2005-04-20"
    },
    {
        "col0": "G. Rinaldi",
        "col1": "Anzio",
        "col2": "1935-02-13",
        "col3": "2011-07-18"
    },
    {
        "col0": "G. Salandy",
        "col1": "Siparia",
        "col2": "1987-01-25",
        "col3": "2009-01-04"
    },
    {
        "col0": "G. Daniels",
        "col1": "Wales",
        "col2": "1903-02-09",
        "col3": "1967-6-1"
    },
    {
        "col0": "G. Zuddas",
        "col1": "Cagliari",
        "col2": "1928-3-1",
        "col3": "1996-10-21"
    },
    {
        "col0": "G. Parisi",
        "col1": "Vibo Valentia",
        "col2": "1967-12-2",
        "col3": "2009-3-25"
    },
    {
        "col0": "G. Bambini",
        "col1": "La Spezia",
        "col2": "1945-02-24",
        "col3": "2015-11-13"
    },
    {
        "col0": "G. Rossi",
        "col1": "Piacenza",
        "col2": "1908-5-29",
        "col3": "1987-1-1"
    },
    {
        "col0": "G. Jones",
        "col1": "Wales",
        "col2": "1905-1-1",
        "col3": "1986-1-1"
    },
    {
        "col0": "G. Roman",
        "col1": "Baja California",
        "col2": "1961-11-29",
        "col3": "1990-06-27"
    },
    {
        "col0": "G. Carrillo",
        "col1": "Cuba",
        "col2": "1951-08-16",
        "col3": "1996-1-1"
    },
    {
        "col0": "G. Lavoine",
        "col1": "Laon",
        "col2": "1921-2-3",
        "col3": "1965-1-22"
    },
    {
        "col0": "G. Chapron",
        "col1": "Blois",
        "col2": "1933-10-7",
        "col3": "2016-9-5"
    },
    {
        "col0": "G. Bozzano",
        "col1": "Sestri Levante",
        "col2": "1933-4-12",
        "col3": "2008-11-21"
    },
    {
        "col0": "G. Negrea",
        "col1": "Sibiu",
        "col2": "1934-4-21",
        "col3": "2001-1-1"
    },
    {
        "col0": "G. Fiat",
        "col1": "Resita",
        "col2": "1929-01-14",
        "col3": "2010-08-22"
    },
    {
        "col0": "G. Hecht",
        "col1": "Berlin",
        "col2": "1923-3-16",
        "col3": "2005-2-21"
    },
    {
        "col0": "G. Dreyer",
        "col1": "Pretoria",
        "col2": "1929-09-22",
        "col3": "1985-9-5"
    },
    {
        "col0": "G. Abrams",
        "col1": "Roanoke, Virginia",
        "col2": "1918-11-11",
        "col3": "1994-06-30"
    },
    {
        "col0": "G. Carpentier",
        "col1": "Pas-de-Calais",
        "col2": "1894-01-12",
        "col3": "1975-10-28"
    },
    {
        "col0": "G. Sutton",
        "col1": "Cardiff",
        "col2": "1922-1-1",
        "col3": "1995-12-1"
    },
    {
        "col0": "G. Nichols",
        "col1": "Sandusky, Ohio",
        "col2": "1907-7-10",
        "col3": "1986-1-1"
    },
    {
        "col0": "G. McKenzie",
        "col1": "Edinburgh",
        "col2": "1901-9-22",
        "col3": "1941-4-5"
    },
    {
        "col0": "G. Marsden",
        "col1": "Nottingham",
        "col2": "1911-11-29",
        "col3": "1980-6-1"
    },
    {
        "col0": "G. Johnson",
        "col1": "Oklahoma City",
        "col2": "1950-3-13",
        "col3": "2016-04-09"
    },
    {
        "col0": "G. Hunter",
        "col1": "Brakpan",
        "col2": "1927-07-22",
        "col3": "2004-12-12"
    },
    {
        "col0": "G. Godfrey",
        "col1": "Mobile, Alabama",
        "col2": "1897-01-25",
        "col3": "1947-08-13"
    },
    {
        "col0": "G. Godfrey",
        "col1": "Prince Edward Island",
        "col2": "1853-03-20",
        "col3": "1901-10-17"
    },
    {
        "col0": "G. Gardiner",
        "col1": "County Clare",
        "col2": "1877-03-17",
        "col3": "1954-07-08"
    },
    {
        "col0": "G. Finnegan",
        "col1": "California",
        "col2": "1881-9-0",
        "col3": "1913-2-28"
    },
    {
        "col0": "G. Dixon",
        "col1": "Canada",
        "col2": "1870-07-29",
        "col3": "1908-01-06"
    },
    {
        "col0": "G. Chip",
        "col1": "Pennsylvania",
        "col2": "1888-08-25",
        "col3": "1960-11-08"
    },
    {
        "col0": "G. Chaney",
        "col1": "Baltimore, Maryland",
        "col2": "1892-04-16",
        "col3": "1958-12-20"
    },
    {
        "col0": "G. Byers",
        "col1": "Prince Edward Island",
        "col2": "1872-06-25",
        "col3": "1937-04-10"
    },
    {
        "col0": "G. Benton",
        "col1": "Philadelphia",
        "col2": "1933-5-15",
        "col3": "2011-9-19"
    },
    {
        "col0": "G. Barnes",
        "col1": "Temora, New South Wales",
        "col2": "1927-02-20",
        "col3": "2000-08-23"
    },
    {
        "col0": "G. Garbuzov",
        "col1": "Moscow",
        "col2": "1930-09-11",
        "col3": "2009-10-21"
    },
    {
        "col0": "G. Shatkov",
        "col1": "Saint Petersburg",
        "col2": "1932-5-27",
        "col3": "2009-1-14"
    },
    {
        "col0": "G. Tunney",
        "col1": "New York",
        "col2": "1897-05-25",
        "col3": "1978-11-07"
    },
    {
        "col0": "G. Fullmer",
        "col1": "United States",
        "col2": "1931-07-21",
        "col3": "2015-04-27"
    },
    {
        "col0": "G. Hernandez",
        "col1": "California",
        "col2": "1966-05-10",
        "col3": "2011-06-07"
    },
    {
        "col0": "G. Matta",
        "col1": "Sassari",
        "col2": "1910-6-9",
        "col3": "1954-1-20"
    }
]