[
    {
        "col0": "Venice",
        "col1": "Metropolitan City of Venice",
        "col2": "Metropolitan City of Venice",
        "col3": "41",
        "col4": "1"
    },
    {
        "col0": "Turin",
        "col1": "Metropolitan City of Turin",
        "col2": "Metropolitan City of Turin",
        "col3": "11",
        "col4": "239"
    },
    {
        "col0": "Parma",
        "col1": "Province of Parma",
        "col2": "Province of Parma",
        "col3": "521",
        "col4": "55"
    },
    {
        "col0": "Parma",
        "col1": "Province of Parma",
        "col2": "Province of Parma",
        "col3": "521",
        "col4": "55"
    },
    {
        "col0": "Milan",
        "col1": "Metropolitan City of Milan",
        "col2": "Metropolitan City of Milan",
        "col3": "2",
        "col4": "120"
    },
    {
        "col0": "Messina",
        "col1": "Metropolitan City of Messina",
        "col2": "Metropolitan City of Messina",
        "col3": "90",
        "col4": "3"
    },
    {
        "col0": "Florence",
        "col1": "Metropolitan City of Florence",
        "col2": "Metropolitan City of Florence",
        "col3": "55",
        "col4": "50"
    },
    {
        "col0": "Cremona",
        "col1": "Province of Cremona",
        "col2": "Province of Cremona",
        "col3": "372",
        "col4": "47"
    }
]