[
    {
        "col0": "Evidemment",
        "col1": "M. Berger",
        "col2": "France Gall",
        "col3": "188",
        "col4": "\"Ella, elle l'a\" (CD maxi)"
    },
    {
        "col0": "Etude",
        "col1": "F. Tarrega",
        "col2": "Mike Oldfield",
        "col3": "187",
        "col4": "\"Evacuation\""
    },
    {
        "col0": "Elan",
        "col1": "T. Holopainen",
        "col2": "Nightwish",
        "col3": "287",
        "col4": "\"Sagan\""
    },
    {
        "col0": "Ecris l'histoire",
        "col1": "D. Esposito",
        "col2": "Gregory Lemarchal",
        "col3": "219",
        "col4": "\"SOS d'un terrien en detresse\""
    },
    {
        "col0": "Eve leve-toi",
        "col1": "J. Pietri",
        "col2": "Julie Pietri",
        "col3": "230",
        "col4": "\"L'homme qui aimait les femmes\""
    },
    {
        "col0": "Ca plane pour moi",
        "col1": "Y. Lacomblez",
        "col2": "Plastic Bertrand",
        "col3": "177",
        "col4": "\"Pogo Pogo\""
    },
    {
        "col0": "Ca n'finira jamais",
        "col1": "Calogero",
        "col2": "Johnny Hallyday",
        "col3": "212",
        "col4": "\"Croire en l'homme\""
    },
    {
        "col0": "A toutes les filles...",
        "col1": "F. Gray",
        "col2": "Felix Gray",
        "col3": "254",
        "col4": "Instrumental"
    },
    {
        "col0": "A quoi je sers...",
        "col1": "L. Boutonnat",
        "col2": "Mylene Farmer",
        "col3": "275",
        "col4": "\"La Veuve noire\""
    },
    {
        "col0": "A nos actes manques",
        "col1": "J. Goldman",
        "col2": "Jean-Jacques Goldman",
        "col3": "226",
        "col4": "\"Chanson d'amour\""
    },
    {
        "col0": "A ma place",
        "col1": "Zazie",
        "col2": "Axel Bauer",
        "col3": "270",
        "col4": "\"Tu seras bien\""
    },
    {
        "col0": "A l'ombre",
        "col1": "L. Boutonnat",
        "col2": "Mylene Farmer",
        "col3": "285",
        "col4": "Instrumental"
    },
    {
        "col0": "A chaque pas",
        "col1": "S. Balsamo",
        "col2": "Jonatan Cerrada",
        "col3": "180",
        "col4": "\"I Still Believe\""
    },
    {
        "col0": "!Que Vida!",
        "col1": "A. Lee",
        "col2": "Love",
        "col3": "217",
        "col4": "\"Hey Joe\""
    },
    {
        "col0": "Zip Gun Boogie",
        "col1": "M. Bolan",
        "col2": "Marc Bolan",
        "col3": "206",
        "col4": "\"Space Boss\""
    },
    {
        "col0": "Zing! Went the Strings of My Heart",
        "col1": "J. F. Hanley",
        "col2": "The Trammps",
        "col3": "198",
        "col4": "\"Penguin At The Big Apple\""
    },
    {
        "col0": "Zerox",
        "col1": "A. Ant",
        "col2": "Adam and the Ants",
        "col3": "225",
        "col4": "\"Loosetalking\""
    },
    {
        "col0": "YA<<hi o Miteiru ka?",
        "col1": "Y. Akimoto",
        "col2": "AKB48",
        "col3": "298",
        "col4": "\"Viva!Hurricane\""
    },
    {
        "col0": "YA<<gure",
        "col1": "H. Komoto",
        "col2": "The Blue Hearts",
        "col3": "11",
        "col4": "Sutegoma"
    },
    {
        "col0": "Ye ke ye ke",
        "col1": "M. Kante",
        "col2": "Mory Kante",
        "col3": "238",
        "col4": "\"Akwaba Beach\""
    },
    {
        "col0": "Yummy Yummy Yummy",
        "col1": "J. Levine",
        "col2": "Ohio Express",
        "col3": "150",
        "col4": "\"Zig Zag\""
    },
    {
        "col0": "Yume Miru 15",
        "col1": "Tsunku",
        "col2": "S/mileage",
        "col3": "675",
        "col4": "Thank You! Creme Brulee no Yuujo"
    },
    {
        "col0": "Yume",
        "col1": "M. Mashima",
        "col2": "The Blue Hearts",
        "col3": "32",
        "col4": "Minagoroshi no Melody"
    },
    {
        "col0": "Youthless",
        "col1": "Beck",
        "col2": "Beck",
        "col3": "179",
        "col4": "Half & Half"
    },
    {
        "col0": "Youth of America",
        "col1": "J. Ammo",
        "col2": "Birdbrain",
        "col3": "183",
        "col4": "-"
    },
    {
        "col0": "Your Woman",
        "col1": "W. Town",
        "col2": "White Town",
        "col3": "225",
        "col4": "\"Give Me Some Pain\""
    },
    {
        "col0": "Your Wildest Dreams",
        "col1": "J. Hayward",
        "col2": "The Moody Blues",
        "col3": "231",
        "col4": "\"Talkin' Talkin'\""
    },
    {
        "col0": "Your Used to Be",
        "col1": "H. Greenfield",
        "col2": "Brenda Lee",
        "col3": "130",
        "col4": "\"She'll Never Know\""
    },
    {
        "col0": "Your Town",
        "col1": "R. Ross",
        "col2": "Deacon Blue",
        "col3": "7",
        "col4": "\"Almost Beautiful\""
    },
    {
        "col0": "Your Tender Loving Care",
        "col1": "B. Owens",
        "col2": "Buck Owens",
        "col3": "165",
        "col4": "\"What A Liar I Am\""
    },
    {
        "col0": "Your Swaying Arms",
        "col1": "R. Ross",
        "col2": "Deacon Blue",
        "col3": "7",
        "col4": "\"Faifley\""
    },
    {
        "col0": "Your Squaw Is on the Warpath",
        "col1": "L. Lynn",
        "col2": "Loretta Lynn",
        "col3": "122",
        "col4": "\"Let Me Go, You're Hurtin' Me\""
    },
    {
        "col0": "Your Song",
        "col1": "E. John",
        "col2": "Ellie Goulding",
        "col3": "190",
        "col4": "\"Broken Arrow\""
    },
    {
        "col0": "Your Smiling Face",
        "col1": "J. Taylor",
        "col2": "James Taylor",
        "col3": "150",
        "col4": "\"If I Keep My Heart Out of Sight\""
    },
    {
        "col0": "Your Precious Love",
        "col1": "A. &. Simpson",
        "col2": "Marvin Gaye",
        "col3": "187",
        "col4": "\"Hold Me Oh My Darling\""
    },
    {
        "col0": "Your Own Little Corner of My Heart",
        "col1": "W. Aldridge",
        "col2": "Blackhawk",
        "col3": "205",
        "col4": "\"Nobody Knows What to Say\""
    },
    {
        "col0": "Your Memory Ain't What It Used to Be",
        "col1": "D. Betts",
        "col2": "Mickey Gilley",
        "col3": "201",
        "col4": "\"Lonely Nights, Lonely Heartache\""
    },
    {
        "col0": "Your Man Loves You Honey",
        "col1": "T. T. Hall",
        "col2": "Tom T. Hall",
        "col3": "136",
        "col4": "\"One of the Mysteries of Life\""
    },
    {
        "col0": "Your Mama Don't Dance",
        "col1": "J. Messina",
        "col2": "Poison",
        "col3": "168",
        "col4": "\"Golden Ribbons\""
    },
    {
        "col0": "Your Lucky Day in Hell",
        "col1": "M. O. Everett",
        "col2": "Eels",
        "col3": "265",
        "col4": "\"Altar Boy\""
    },
    {
        "col0": "Your Love Takes Me Higher",
        "col1": "J. Marsh",
        "col2": "The Beloved",
        "col3": "220",
        "col4": "Pablo"
    },
    {
        "col0": "Your Love Shines Through",
        "col1": "W. Holyfield",
        "col2": "Mickey Gilley",
        "col3": "187",
        "col4": "\"Wish You Were Mine Again\""
    },
    {
        "col0": "Your Love Is a Miracle",
        "col1": "M. Wright",
        "col2": "Mark Chesnutt",
        "col3": "169",
        "col4": "\"Too Good a Memory\""
    },
    {
        "col0": "Your Love Is Driving Me Crazy",
        "col1": "S. Hagar",
        "col2": "Sammy Hagar",
        "col3": "210",
        "col4": "\"I Don't Need Love\""
    },
    {
        "col0": "Your Love",
        "col1": "J. Spinks",
        "col2": "The Outfield",
        "col3": "216",
        "col4": "\"61 Seconds\""
    },
    {
        "col0": "Your Love's on the Line",
        "col1": "E. T. Conley",
        "col2": "Earl Thomas Conley",
        "col3": "207",
        "col4": "\"Under Control\""
    },
    {
        "col0": "Your Kisses Will",
        "col1": "V. Stephenson",
        "col2": "Crystal Gayle",
        "col3": "125",
        "col4": "\"Time Will Prove That I'm Right\""
    },
    {
        "col0": "Your Heart Turned Left",
        "col1": "H. Howard",
        "col2": "George Jones",
        "col3": "136",
        "col4": "\"My Tears Are Overdue\""
    },
    {
        "col0": "Your Heart Belongs to Me",
        "col1": "S. Robinson",
        "col2": "The Supremes",
        "col3": "157",
        "col4": "\"(He's) Seventeen\""
    },
    {
        "col0": "Your Ghost",
        "col1": "K. Hersh",
        "col2": "Kristin Hersh",
        "col3": "196",
        "col4": "\"The Key\", \"Uncle June and Aunt Kiyoti\", \"When the Levee Breaks\""
    },
    {
        "col0": "Your Eyes",
        "col1": "K. Ryan",
        "col2": "Kate Ryan",
        "col3": "209",
        "col4": "Dans Tes Yeux"
    },
    {
        "col0": "Your Ex-Lover Is Dead",
        "col1": "T. Campbell",
        "col2": "Stars",
        "col3": "256",
        "col4": "Fairytale of New York"
    },
    {
        "col0": "Your Everything",
        "col1": "C. Lindsey",
        "col2": "Keith Urban",
        "col3": "250",
        "col4": "\"If You Wanna Stay\""
    },
    {
        "col0": "Your Body Is a Wonderland",
        "col1": "J. Mayer",
        "col2": "John Mayer",
        "col3": "226",
        "col4": "\"No Such Thing\""
    },
    {
        "col0": "Your Betrayal",
        "col1": "M. Tuck",
        "col2": "Bullet for My Valentine",
        "col3": "291",
        "col4": "\"Begging for Mercy\""
    },
    {
        "col0": "Your Best Friend",
        "col1": "M. Kuraki",
        "col2": "Mai Kuraki",
        "col3": "1002",
        "col4": "Step by Step"
    },
    {
        "col0": "Your Baby Never Looked Good in Blue",
        "col1": "D. Warren",
        "col2": "Expose",
        "col3": "234",
        "col4": "\"Now That I Found You\""
    },
    {
        "col0": "Your Baby Doesn't Love You Anymore",
        "col1": "R. Carpenter",
        "col2": "Ruby & the Romantics",
        "col3": "232",
        "col4": "\"Sailing on the Tide\""
    },
    {
        "col0": "Young World",
        "col1": "J. Fuller",
        "col2": "Ricky Nelson",
        "col3": "143",
        "col4": "\"Summertime\""
    },
    {
        "col0": "Young Parisians",
        "col1": "A. Ant",
        "col2": "Adam and the Ants",
        "col3": "142",
        "col4": "\"Lady\""
    },
    {
        "col0": "Young Love",
        "col1": "P. Kennerley",
        "col2": "The Judds",
        "col3": "267",
        "col4": "\"Cow Cow Boogie\""
    },
    {
        "col0": "Young Love",
        "col1": "R. Moore",
        "col2": "Janet Jackson",
        "col3": "298",
        "col4": "\"The Magic Is Working\""
    },
    {
        "col0": "Young Hunting",
        "col1": "T. music",
        "col2": "Nick Cave and the Bad Seeds",
        "col3": "0",
        "col4": "\"King Kong Kitchee Kitchee Ki-Mi-O\""
    },
    {
        "col0": "Young Guns",
        "col1": "G. Michael",
        "col2": "Wham!",
        "col3": "300",
        "col4": "\"Going For It\""
    },
    {
        "col0": "Young Girl",
        "col1": "J. Fuller",
        "col2": "Gary Puckett & The Union Gap",
        "col3": "196",
        "col4": "\"I'm Losing You\""
    },
    {
        "col0": "Young Folks",
        "col1": "B. Yttling",
        "col2": "Peter Bjorn and John",
        "col3": "245",
        "col4": "\"Ancient Curse\""
    },
    {
        "col0": "Young Emotions",
        "col1": "J. Livingston",
        "col2": "Ricky Nelson",
        "col3": "150",
        "col4": "\"Right by My Side\""
    },
    {
        "col0": "Young Boy",
        "col1": "P. McCartney",
        "col2": "Paul McCartney",
        "col3": "234",
        "col4": "\"Broomstick\" (CD2)"
    },
    {
        "col0": "Young Blood",
        "col1": "Jerry Leiber and Mike Stoller",
        "col2": "The Coasters",
        "col3": "135",
        "col4": "\"Searchin'\""
    },
    {
        "col0": "Young Americans",
        "col1": "D. Bowie",
        "col2": "David Bowie",
        "col3": "191",
        "col4": "\"Suffragette City\""
    },
    {
        "col0": "Young",
        "col1": "C. Wiseman",
        "col2": "Kenny Chesney",
        "col3": "235",
        "col4": "\"For the First Time\""
    },
    {
        "col0": "Young, Fresh n' New",
        "col1": "P. Williams",
        "col2": "Kelis",
        "col3": "277",
        "col4": "\"Daddy\", \"The Spot\""
    },
    {
        "col0": "You on My Mind",
        "col1": "A. Connell",
        "col2": "Swing Out Sister",
        "col3": "216",
        "col4": "\"Coney Island Man\""
    },
    {
        "col0": "You are Mine",
        "col1": "B. Marcucci",
        "col2": "Frankie Avalon",
        "col3": "175",
        "col4": "\"Ponchinello\"/\"Italiano\""
    },
    {
        "col0": "You and Your Heart So Blue",
        "col1": "P. Sinfield",
        "col2": "Bucks Fizz",
        "col3": "215",
        "col4": "\"Now Those Days Are Gone\""
    },
    {
        "col0": "You and Your Friend",
        "col1": "M. Knopfler",
        "col2": "Dire Straits",
        "col3": "359",
        "col4": "\"Badges, Posters, Stickers, T-Shirts\""
    },
    {
        "col0": "You and You Alone",
        "col1": "V. Gill",
        "col2": "Vince Gill",
        "col3": "203",
        "col4": "\"Given More Time\""
    },
    {
        "col0": "You and Me Against the World",
        "col1": "P. Williams",
        "col2": "Helen Reddy",
        "col3": "188",
        "col4": "\"Love Song For Jeffrey\""
    },
    {
        "col0": "You and Me",
        "col1": "B. Sherrill",
        "col2": "Tammy Wynette",
        "col3": "200",
        "col4": "When Love Was All We Had"
    },
    {
        "col0": "You and Me",
        "col1": "L. C. J",
        "col2": "LL Cool J",
        "col3": "298",
        "col4": "Fuhgidabowdit"
    },
    {
        "col0": "You and Me",
        "col1": "A. Cooper",
        "col2": "Alice Cooper",
        "col3": "309",
        "col4": "\"It's Hot Tonight\""
    },
    {
        "col0": "You Wouldn't Know Love",
        "col1": "M. Bolton",
        "col2": "Cher",
        "col3": "213",
        "col4": "\"Kiss To Kiss\""
    },
    {
        "col0": "You Won't Be Lonely Now",
        "col1": "J. Bettis",
        "col2": "Billy Ray Cyrus",
        "col3": "223",
        "col4": "\"Southern Rain\""
    },
    {
        "col0": "You Won't Be Leaving",
        "col1": "T. Hazzard",
        "col2": "Herman's Hermits",
        "col3": "135",
        "col4": "\"Listen People\""
    },
    {
        "col0": "You Win My Love",
        "col1": "R. Lange",
        "col2": "Shania Twain",
        "col3": "225",
        "col4": "\"Home Ain't Where His Heart Is (Anymore)\" \"(If You're Not In It For Love) I'm Outta Here!\" \"If It Don't Take Two\""
    },
    {
        "col0": "You Win Again",
        "col1": "M. C. Carpenter",
        "col2": "Mary Chapin Carpenter",
        "col3": "239",
        "col4": "\"Moon and St. Christopher\""
    },
    {
        "col0": "You Win Again",
        "col1": "B. Gibb",
        "col2": "Bee Gees",
        "col3": "241",
        "col4": "\"Backtafunk\""
    },
    {
        "col0": "You Will",
        "col1": "M. A. Kennedy",
        "col2": "Patty Loveless",
        "col3": "196",
        "col4": "You Don't Know How Lucky You Are"
    },
    {
        "col0": "You Were on My Mind",
        "col1": "S. Tyson",
        "col2": "We Five",
        "col3": "159",
        "col4": "\"Small World\""
    },
    {
        "col0": "You Were Made for Me",
        "col1": "S. Cooke",
        "col2": "Sam Cooke",
        "col3": "151",
        "col4": "\"Lonely Island\""
    },
    {
        "col0": "You Were Made for Me",
        "col1": "I. Cara",
        "col2": "Irene Cara",
        "col3": "260",
        "col4": "\"Receiving\""
    },
    {
        "col0": "You Were Always There",
        "col1": "D. Fargo",
        "col2": "Donna Fargo",
        "col3": "147",
        "col4": "He Can Have All He Wants"
    },
    {
        "col0": "You Wear It Well",
        "col1": "R. Stewart",
        "col2": "Rod Stewart",
        "col3": "240",
        "col4": "\"Lost Paraguayos\""
    },
    {
        "col0": "You Walked In",
        "col1": "B. Adams",
        "col2": "Lonestar",
        "col3": "270",
        "col4": "\"Keys to My Heart\""
    },
    {
        "col0": "You Turn Me On",
        "col1": "I. Whitcomb",
        "col2": "Ian Whitcomb and Bluesville",
        "col3": "164",
        "col4": "Poor But Honest (Tower 134)"
    },
    {
        "col0": "You Turn Me On",
        "col1": "J. Weatherly",
        "col2": "Ed Bruce",
        "col3": "209",
        "col4": "\"If It Ain't Love\""
    },
    {
        "col0": "You Turn Me On, I'm a Radio",
        "col1": "J. Mitchell",
        "col2": "Joni Mitchell",
        "col3": "159",
        "col4": "\"All the Fire Is Gone\""
    },
    {
        "col0": "You Took All the Ramblin' Out of Me",
        "col1": "J. Reed",
        "col2": "Jerry Reed",
        "col3": "133",
        "col4": "\"I'm Not Playing Games\""
    },
    {
        "col0": "You Talk Too Much",
        "col1": "D. McDaniels",
        "col2": "Run-D.M.C.",
        "col3": "359",
        "col4": "\"Darryl and Joe (Krush-Groove 3)\""
    },
    {
        "col0": "You Talk",
        "col1": "K. Moss",
        "col2": "Babyshambles",
        "col3": "210",
        "col4": "\"Revelations\""
    },
    {
        "col0": "You Take My Breath Away",
        "col1": "S. J. Lawrence",
        "col2": "Rex Smith",
        "col3": "199",
        "col4": "\"You're Never Too Old to Rock & Roll\""
    },
    {
        "col0": "You Take Me for Granted",
        "col1": "L. Williams",
        "col2": "Merle Haggard",
        "col3": "160",
        "col4": "\"I Won't Give Up My Train\""
    },
    {
        "col0": "You Take Me Up",
        "col1": "T. Bailey",
        "col2": "Thompson Twins",
        "col3": "235",
        "col4": "Leopard Ray (UK 12\")"
    },
    {
        "col0": "You Surround Me",
        "col1": "A. Bell",
        "col2": "Erasure",
        "col3": "237",
        "col4": "\"Supernature\", \"91 Steps\""
    },
    {
        "col0": "You Sure Love to Ball",
        "col1": "M. Gaye",
        "col2": "Marvin Gaye",
        "col3": "286",
        "col4": "Just to Keep You Satisfied"
    },
    {
        "col0": "You Suffer",
        "col1": "J. Broadrick",
        "col2": "Napalm Death",
        "col3": "1",
        "col4": "\"Mega-Armageddon Death Pt. 3\" byElectro Hippies"
    },
    {
        "col0": "You Still Own Me",
        "col1": "J. Reid",
        "col2": "Emerson Drive",
        "col3": "191",
        "col4": "\"Everyday Woman\""
    },
    {
        "col0": "You Still Move Me",
        "col1": "D. Seals",
        "col2": "Dan Seals",
        "col3": "307",
        "col4": "\"I'm Still Strung Out on You\""
    },
    {
        "col0": "You Spin Me Round",
        "col1": "P. Burns",
        "col2": "Dead or Alive",
        "col3": "199",
        "col4": "\"Misty Circles\" (7\")"
    },
    {
        "col0": "You Showed Me",
        "col1": "G. Clark",
        "col2": "The Turtles",
        "col3": "196",
        "col4": "\"Buzz Saw\""
    },
    {
        "col0": "You Should Hear How She Talks About You",
        "col1": "T. Snow",
        "col2": "Melissa Manchester",
        "col3": "257",
        "col4": "\"Long Goodbyes\""
    },
    {
        "col0": "You Should Have Been Gone by Now",
        "col1": "E. Raven",
        "col2": "Eddy Raven",
        "col3": "204",
        "col4": "\"We Robbed Trains\""
    },
    {
        "col0": "You Should Be Mine",
        "col1": "B. Roberts",
        "col2": "Jeffrey Osborne",
        "col3": "261",
        "col4": "\"Who Would Have Guessed\""
    },
    {
        "col0": "You Should Be Dancing",
        "col1": "B. Gibb",
        "col2": "Bee Gees",
        "col3": "256",
        "col4": "\"Subway\""
    },
    {
        "col0": "You Shook Me",
        "col1": "J. B. Lenoir",
        "col2": "Muddy Waters",
        "col3": "164",
        "col4": "\"Muddy Waters Twist\""
    },
    {
        "col0": "You Sexy Thing",
        "col1": "E. Brown",
        "col2": "Hot Chocolate",
        "col3": "7",
        "col4": "\"Amazing Skin Song\""
    },
    {
        "col0": "You Sent Me Flying",
        "col1": "A. Winehouse",
        "col2": "Amy Winehouse",
        "col3": "316",
        "col4": "\"Best Friend\""
    },
    {
        "col0": "You Send the Rain Away",
        "col1": "P. Glass",
        "col2": "Rebbie Jackson",
        "col3": "244",
        "col4": "\"If You Don't Call (You Don't Care)\""
    },
    {
        "col0": "You See the Trouble with Me",
        "col1": "B. White",
        "col2": "Ray Parker Jr.",
        "col3": "198",
        "col4": "\"Across the Ocean\""
    },
    {
        "col0": "You See Me Crying",
        "col1": "S. Tyler",
        "col2": "Aerosmith",
        "col3": "183",
        "col4": "\"Toys in the Attic\""
    },
    {
        "col0": "You Say You Will",
        "col1": "B. N. Chapman",
        "col2": "Trisha Yearwood",
        "col3": "218",
        "col4": "\"Hearts in Armor\""
    },
    {
        "col0": "You Said No",
        "col1": "C. Simpson",
        "col2": "Busted",
        "col3": "167",
        "col4": "\"Mrs Robinson\", \"My Good Friend\""
    },
    {
        "col0": "You Receive Me",
        "col1": "L. Rafn",
        "col2": "Infernal",
        "col3": "227",
        "col4": "\"Humbled by Nature\""
    },
    {
        "col0": "You Really Had Me Going",
        "col1": "H. Dunn",
        "col2": "Holly Dunn",
        "col3": "169",
        "col4": "\"Where No Place Is Home\""
    },
    {
        "col0": "You Really Got Me",
        "col1": "R. Davies",
        "col2": "The Kinks",
        "col3": "134",
        "col4": "\"Atomic Punk\""
    },
    {
        "col0": "You Owe It All to Me",
        "col1": "S. Spiteri",
        "col2": "Texas",
        "col3": "223",
        "col4": "\"Don't Help Me Through\""
    },
    {
        "col0": "You Oughta Know",
        "col1": "A. Morissette",
        "col2": "Alanis Morissette",
        "col3": "249",
        "col4": "\"You Oughta Know\" (The Jimmy the Saint Blend) \"Perfect\" (Acoustic Version) \"Wake Up\""
    },
    {
        "col0": "You Oughta Be In Love",
        "col1": "D. Dobbyn",
        "col2": "Dave Dobbyn",
        "col3": "210",
        "col4": "Horses Beat"
    },
    {
        "col0": "You Open My Eyes",
        "col1": "B. Shepherd",
        "col2": "Hoodoo Gurus",
        "col3": "200",
        "col4": "\"Something I Forgot to Say\" / \"Television Addict\""
    },
    {
        "col0": "You Only Tell Me You Love Me When You're Drunk",
        "col1": "C. Lowe",
        "col2": "Pet Shop Boys",
        "col3": "189",
        "col4": "\"Lies\", \"Sail Away\", Live Tracks"
    },
    {
        "col0": "You Never Miss a Real Good Thing",
        "col1": "B. McDill",
        "col2": "Crystal Gayle",
        "col3": "227",
        "col4": "\"Forgettin' 'bout You\""
    },
    {
        "col0": "You Never Even Called Me by My Name",
        "col1": "J. Prine",
        "col2": "David Allan Coe",
        "col3": "244",
        "col4": "\"State Fair\""
    },
    {
        "col0": "You Never Can Tell",
        "col1": "C. Berry",
        "col2": "Chuck Berry",
        "col3": "163",
        "col4": "\"Brenda Lee\""
    },
    {
        "col0": "You Needed Me",
        "col1": "R. Goodrum",
        "col2": "Anne Murray",
        "col3": "207",
        "col4": "\"I Still Wish the Very Best for You\""
    },
    {
        "col0": "You Need a Mess of Help to Stand Alone",
        "col1": "B. Wilson",
        "col2": "The Beach Boys",
        "col3": "207",
        "col4": "\"Cuddle Up\""
    },
    {
        "col0": "You Need Love",
        "col1": "D. DeYoung",
        "col2": "Styx",
        "col3": "227",
        "col4": "\"Winner Take All\""
    },
    {
        "col0": "You Must Love Me",
        "col1": "T. Rice",
        "col2": "Madonna",
        "col3": "189",
        "col4": "\"Rainbow High\""
    },
    {
        "col0": "You Might Think",
        "col1": "R. Ocasek",
        "col2": "The Cars",
        "col3": "184",
        "col4": "\"Heartbeat City\" (US)"
    },
    {
        "col0": "You Make My Dreams",
        "col1": "J. Oates",
        "col2": "Hall & Oates",
        "col3": "186",
        "col4": "\"Gotta Lotta Nerve (Perfect Perfect)\""
    },
    {
        "col0": "You Make Me Want to Make You Mine",
        "col1": "D. Loggins",
        "col2": "Juice Newton",
        "col3": "250",
        "col4": "\"Waiting for the Sun\""
    },
    {
        "col0": "You Make Me Feel So Free",
        "col1": "V. Morrison",
        "col2": "Van Morrison",
        "col3": "249",
        "col4": "\"Full Force Gale\""
    },
    {
        "col0": "You Make Me Feel Like a Man",
        "col1": "P. Rowan",
        "col2": "Ricky Skaggs",
        "col3": "285",
        "col4": "\"Rendezvous\""
    },
    {
        "col0": "You Make Me Feel Like Dancing",
        "col1": "L. Sayer",
        "col2": "Leo Sayer",
        "col3": "7",
        "col4": "\"Magdalena\""
    },
    {
        "col0": "You Make Me Feel Brand New",
        "col1": "L. Creed",
        "col2": "The Stylistics",
        "col3": "285",
        "col4": "\"Only for the Children\""
    },
    {
        "col0": "You Make Me Feel",
        "col1": "S. James",
        "col2": "Sylvester James",
        "col3": "399",
        "col4": "\"Grateful\""
    },
    {
        "col0": "You Make Loving Fun",
        "col1": "C. McVie",
        "col2": "Fleetwood Mac",
        "col3": "216",
        "col4": "\"Gold Dust Woman\" (U.S.A.)"
    },
    {
        "col0": "You Made a Rock of a Rolling Stone",
        "col1": "K. Brooks",
        "col2": "The Oak Ridge Boys",
        "col3": "229",
        "col4": "\"Hidin' Place\""
    },
    {
        "col0": "You Love the Thunder",
        "col1": "J. Browne",
        "col2": "Jackson Browne",
        "col3": "237",
        "col4": "\"The Road\""
    },
    {
        "col0": "You Look So Good in Love",
        "col1": "G. Ballard",
        "col2": "George Strait",
        "col3": "193",
        "col4": "\"A Little Heaven's Rubbing off on Me\""
    },
    {
        "col0": "You Look So Fine",
        "col1": "Garbage",
        "col2": "Garbage",
        "col3": "230",
        "col4": "\"Get Busy with the Fizzy\""
    },
    {
        "col0": "You Little Thief",
        "col1": "B. Tench",
        "col2": "Feargal Sharkey",
        "col3": "271",
        "col4": "The Living Actor"
    },
    {
        "col0": "You Light Up My Life",
        "col1": "J. Brooks",
        "col2": "LeAnn Rimes",
        "col3": "209",
        "col4": "\"Hasta Manana\""
    },
    {
        "col0": "You Lie",
        "col1": "A. Roberts",
        "col2": "Reba McEntire",
        "col3": "235",
        "col4": "\"That's All She Wrote\""
    },
    {
        "col0": "You Know You Like It",
        "col1": "AlunaGeorge",
        "col2": "DJ Snake",
        "col3": "247",
        "col4": "\"Just a Touch\""
    },
    {
        "col0": "You Know What I Mean",
        "col1": "A. Gordon",
        "col2": "The Turtles",
        "col3": "123",
        "col4": "\"Rugs Of Woods & Flowers\""
    },
    {
        "col0": "You Know Me Better",
        "col1": "R. Murphy",
        "col2": "Roisin Murphy",
        "col3": "258",
        "col4": "\"Keep It Loose\", \"Pandora\""
    },
    {
        "col0": "You Know I'm No Good",
        "col1": "A. Winehouse",
        "col2": "Amy Winehouse",
        "col3": "256",
        "col4": "\"Monkey Man\""
    },
    {
        "col0": "You Keep Me Hangin' On",
        "col1": "Holland-Dozier-Holland",
        "col2": "Vanilla Fudge",
        "col3": "167",
        "col4": "\"Come By Day, Come By Night\""
    },
    {
        "col0": "You Just Watch Me",
        "col1": "B. Regan",
        "col2": "Tanya Tucker",
        "col3": "271",
        "col4": "\"I Love You Anyway\""
    },
    {
        "col0": "You Haven't Done Nothin'",
        "col1": "S. Wonder",
        "col2": "Stevie Wonder",
        "col3": "209",
        "col4": "\"Big Brother\""
    },
    {
        "col0": "You Had Me from Hello",
        "col1": "K. Chesney",
        "col2": "Kenny Chesney",
        "col3": "231",
        "col4": "\"Everywhere We Go\""
    },
    {
        "col0": "You Had Me",
        "col1": "J. Stone",
        "col2": "Joss Stone",
        "col3": "239",
        "col4": "\"Holding Out for a Hero\""
    },
    {
        "col0": "You Gotta Love That",
        "col1": "B. Jones",
        "col2": "Neal McCoy",
        "col3": "156",
        "col4": "\"If I Was a Drinkin' Man\""
    },
    {
        "col0": "You Gotta Be My Baby",
        "col1": "G. Jones",
        "col2": "George Jones",
        "col3": "144",
        "col4": "\"It's OK\""
    },
    {
        "col0": "You Got Me Rocking",
        "col1": "Jagger/Richards",
        "col2": "The Rolling Stones",
        "col3": "216",
        "col4": "Jump On Top Of Me"
    },
    {
        "col0": "You Got Lucky",
        "col1": "T. Petty",
        "col2": "Tom Petty and the Heartbreakers",
        "col3": "218",
        "col4": "\"Between Two Worlds\""
    },
    {
        "col0": "You Got It",
        "col1": "M. Starr",
        "col2": "New Kids on the Block",
        "col3": "253",
        "col4": "Remix"
    },
    {
        "col0": "You Got It",
        "col1": "R. Orbison",
        "col2": "Bonnie Raitt",
        "col3": "207",
        "col4": "\"The Only One\""
    },
    {
        "col0": "You Give Love a Bad Name",
        "col1": "R. Sambora",
        "col2": "Bon Jovi",
        "col3": "222",
        "col4": "\"Let It Rock\" (UK)"
    },
    {
        "col0": "You Give Good Love",
        "col1": "L. La",
        "col2": "Whitney Houston",
        "col3": "246",
        "col4": "\"Greatest Love of All\" \"Someone for Me\" \"Thinking About You\""
    },
    {
        "col0": "You Get What You Give",
        "col1": "G. Alexander",
        "col2": "New Radicals",
        "col3": "300",
        "col4": "\"To Think I Thought\""
    },
    {
        "col0": "You Get Me",
        "col1": "T. Katinas",
        "col2": "ZOEgirl",
        "col3": "228",
        "col4": "\"I Believe\""
    },
    {
        "col0": "You Found Me",
        "col1": "I. Slade",
        "col2": "The Fray",
        "col3": "244",
        "col4": "\"The Great Beyond\""
    },
    {
        "col0": "You Feel Good All Over",
        "col1": "S. Throckmorton",
        "col2": "T.G. Sheppard",
        "col3": "196",
        "col4": "\"I Wish That I Could Hurt That Way Again\""
    },
    {
        "col0": "You Dropped a Bomb on Me",
        "col1": "C. Wilson",
        "col2": "The Gap Band",
        "col3": "12",
        "col4": "\"Early in the Morning\" (Germany)"
    },
    {
        "col0": "You Don't Seem to Miss Me",
        "col1": "J. Lauderdale",
        "col2": "Patty Loveless",
        "col3": "247",
        "col4": "\"Where Are You Boy\""
    },
    {
        "col0": "You Don't Own Me",
        "col1": "G-Eazy",
        "col2": "Lesley Gore",
        "col3": "151",
        "col4": "\"Run Bobby, Run\""
    },
    {
        "col0": "You Don't Miss Your Water",
        "col1": "W. Bell",
        "col2": "William Bell",
        "col3": "182",
        "col4": "\"Convent Walls\""
    },
    {
        "col0": "You Don't Mess Around with Jim",
        "col1": "J. Croce",
        "col2": "Jim Croce",
        "col3": "182",
        "col4": "\"Photographs and Memories\""
    },
    {
        "col0": "You Don't Love Me Anymore",
        "col1": "\". A. Yankovic",
        "col2": "\"Weird Al\" Yankovic",
        "col3": "240",
        "col4": "\"I Was Only Kidding\""
    },
    {
        "col0": "You Don't Know What Love Is",
        "col1": "J. White",
        "col2": "The White Stripes",
        "col3": "234",
        "col4": "\"300 M.P.H. Torrential Outpour Blues\""
    },
    {
        "col0": "You Don't Know My Name",
        "col1": "K. West",
        "col2": "Alicia Keys",
        "col3": "268",
        "col4": "\"Diary\""
    },
    {
        "col0": "You Don't Know Me",
        "col1": "E. Arnold",
        "col2": "Eddy Arnold",
        "col3": "154",
        "col4": "\"The Rockin' Mockin' Bird\""
    },
    {
        "col0": "You Don't Know Me",
        "col1": "A. V. Helden",
        "col2": "Armand Van Helden",
        "col3": "241",
        "col4": "\"Aliene\""
    },
    {
        "col0": "You Don't Know Love",
        "col1": "D. King",
        "col2": "Janie Fricke",
        "col3": "196",
        "col4": "\"Heart to Heart Talk\""
    },
    {
        "col0": "You Don't Know How It Feels",
        "col1": "T. Petty",
        "col2": "Tom Petty",
        "col3": "289",
        "col4": "\"Girl on LSD\""
    },
    {
        "col0": "You Don't Have to Be in the Army to Fight in the War",
        "col1": "R. Dorset",
        "col2": "Mungo Jerry",
        "col3": "207",
        "col4": "\"The Sun Is Shining\", \"We Shall Be Free\", \"O'Reilly\""
    },
    {
        "col0": "You Don't Have to Be a Star",
        "col1": "J. Dean",
        "col2": "Marilyn McCoo",
        "col3": "7",
        "col4": "\"Fool For You\""
    },
    {
        "col0": "You Don't Even Know Who I Am",
        "col1": "G. Peters",
        "col2": "Patty Loveless",
        "col3": "244",
        "col4": "Over My Shoulder"
    },
    {
        "col0": "You Don't Count the Cost",
        "col1": "T. Shapiro",
        "col2": "Billy Dean",
        "col3": "199",
        "col4": "\"She's Taken\""
    },
    {
        "col0": "You Don't Care About Us",
        "col1": "B. Molko",
        "col2": "Placebo",
        "col3": "233",
        "col4": "\"20th Century Boy\", \"Ion\""
    }
]