[
    {
        "col0": "895 Helio",
        "col1": "8",
        "col2": "1918-07-11",
        "col3": "548814748450",
        "col4": "409329693809"
    },
    {
        "col0": "894 Erda",
        "col1": "9",
        "col2": "1918-06-04",
        "col3": "518581018781",
        "col4": "411992535907"
    },
    {
        "col0": "893 Leopoldina",
        "col1": "9",
        "col2": "1918-05-31",
        "col3": "524639732544",
        "col4": "387952158086"
    },
    {
        "col0": "892 Seeligeria",
        "col1": "9",
        "col2": "1918-05-31",
        "col3": "533047132878",
        "col4": "433385031417"
    },
    {
        "col0": "891 Gunhild",
        "col1": "10",
        "col2": "1918-05-17",
        "col3": "440805085804",
        "col4": "415029372683"
    },
    {
        "col0": "890 Waltraut",
        "col1": "10",
        "col2": "1918-03-11",
        "col3": "478967502620",
        "col4": "425082349594"
    },
    {
        "col0": "8900 AAVSO",
        "col1": "13",
        "col2": "1995-10-24",
        "col3": "434925889486",
        "col4": "323954189000"
    },
    {
        "col0": "88 Thisbe",
        "col1": "7",
        "col2": "1866-06-15",
        "col3": "482242000000",
        "col4": "345809000000"
    },
    {
        "col0": "889 Erynia",
        "col1": "11",
        "col2": "1918-03-05",
        "col3": "440580688998",
        "col4": "291491451058"
    },
    {
        "col0": "888 Parysatis",
        "col1": "9",
        "col2": "1918-02-02",
        "col3": "483365680018",
        "col4": "327694135768"
    },
    {
        "col0": "887 Alinda",
        "col1": "13",
        "col2": "1918-01-03",
        "col3": "581127888521",
        "col4": "160533475048"
    },
    {
        "col0": "886 Washingtonia",
        "col1": "9",
        "col2": "1917-11-16",
        "col3": "602415665521",
        "col4": "347141858959"
    },
    {
        "col0": "88611 Teharonhiawako",
        "col1": "5",
        "col2": "2001-08-20",
        "col3": "6767059681114",
        "col4": "6351028002697"
    },
    {
        "col0": "885 Ulrike",
        "col1": "10",
        "col2": "1917-09-23",
        "col3": "549308421423",
        "col4": "376029207791"
    },
    {
        "col0": "884 Priamus",
        "col1": "8",
        "col2": "1917-09-22",
        "col3": "869462824508",
        "col4": "680999427000"
    },
    {
        "col0": "883 Matterania",
        "col1": "12",
        "col2": "1917-09-14",
        "col3": "401460845810",
        "col4": "268468338758"
    },
    {
        "col0": "882 Swetlana",
        "col1": "10",
        "col2": "1917-08-15",
        "col3": "591794216702",
        "col4": "342968078366"
    },
    {
        "col0": "881 Athene",
        "col1": "11",
        "col2": "1917-07-22",
        "col3": "471592327594",
        "col4": "309891989155"
    },
    {
        "col0": "8815 Deanregas",
        "col1": "13",
        "col2": "1984-02-23",
        "col3": "383344543668",
        "col4": "290593863834"
    },
    {
        "col0": "880 Herba",
        "col1": "11",
        "col2": "1917-07-22",
        "col3": "593514592215",
        "col4": "303549039437"
    },
    {
        "col0": "87 Sylvia",
        "col1": "6",
        "col2": "1866-05-16",
        "col3": "563684776797",
        "col4": "480657958559"
    },
    {
        "col0": "879 Ricarda",
        "col1": "11",
        "col2": "1917-07-22",
        "col3": "437274576056",
        "col4": "320633116271"
    },
    {
        "col0": "878 Mildred",
        "col1": "14",
        "col2": "1916-09-06",
        "col3": "433130715037",
        "col4": "273554666362"
    },
    {
        "col0": "877 Walkure",
        "col1": "10",
        "col2": "1915-09-13",
        "col3": "431634736330",
        "col4": "312195796363"
    },
    {
        "col0": "8776 Campestris",
        "col1": "13",
        "col2": "1977-10-16",
        "col3": "484697101068",
        "col4": "320034724788"
    },
    {
        "col0": "876 Scott",
        "col1": "10",
        "col2": "1917-06-20",
        "col3": "501003268974",
        "col4": "399142078814"
    },
    {
        "col0": "875 Nymphe",
        "col1": "11",
        "col2": "1917-05-19",
        "col3": "439862619219",
        "col4": "324028987936"
    },
    {
        "col0": "874 Rotraut",
        "col1": "10",
        "col2": "1917-05-25",
        "col3": "509036674630",
        "col4": "434043262048"
    },
    {
        "col0": "873 Mechthild",
        "col1": "11",
        "col2": "1917-05-21",
        "col3": "451501333559",
        "col4": "334725235691"
    },
    {
        "col0": "872 Holda",
        "col1": "9",
        "col2": "1917-05-21",
        "col3": "441059402184",
        "col4": "376178805662"
    },
    {
        "col0": "871 Amneris",
        "col1": "12",
        "col2": "1917-05-14",
        "col3": "372364059959",
        "col4": "292538636153"
    },
    {
        "col0": "870 Manto",
        "col1": "11",
        "col2": "1917-05-12",
        "col3": "439204388588",
        "col4": "255483243581"
    },
    {
        "col0": "86 Semele",
        "col1": "8",
        "col2": "1866-01-04",
        "col3": "562652000000",
        "col4": "369116000000"
    },
    {
        "col0": "869 Mellena",
        "col1": "11",
        "col2": "1917-05-09",
        "col3": "490815653979",
        "col4": "313916171876"
    },
    {
        "col0": "868 Lova",
        "col1": "10",
        "col2": "1917-04-26",
        "col3": "464695865755",
        "col4": "343940464526"
    },
    {
        "col0": "867 Kovacia",
        "col1": "11",
        "col2": "1917-02-25",
        "col3": "517788150066",
        "col4": "399725510510"
    },
    {
        "col0": "866 Fatme",
        "col1": "9",
        "col2": "1917-02-25",
        "col3": "493014742678",
        "col4": "441882190473"
    },
    {
        "col0": "8661 Ratzinger",
        "col1": "12",
        "col2": "1990-10-14",
        "col3": "465413935534",
        "col4": "433938543539"
    },
    {
        "col0": "865 Zubaida",
        "col1": "11",
        "col2": "1917-02-15",
        "col3": "431769374414",
        "col4": "291416652123"
    },
    {
        "col0": "864 Aase",
        "col1": "12",
        "col2": "1921-09-30",
        "col3": "393442399941",
        "col4": "267226676431"
    },
    {
        "col0": "863 Benkoela",
        "col1": "9",
        "col2": "1917-02-09",
        "col3": "492924983956",
        "col4": "464636026607"
    },
    {
        "col0": "862 Franzia",
        "col1": "9",
        "col2": "1917-01-28",
        "col3": "453565784175",
        "col4": "385797948748"
    },
    {
        "col0": "861 Aida",
        "col1": "9",
        "col2": "1917-01-22",
        "col3": "517698391344",
        "col4": "421312483252"
    },
    {
        "col0": "860 Ursina",
        "col1": "10",
        "col2": "1917-01-22",
        "col3": "462825892371",
        "col4": "374189153981"
    },
    {
        "col0": "85 Io",
        "col1": "7",
        "col2": "1865-09-19",
        "col3": "473327662894",
        "col4": "320334000000"
    },
    {
        "col0": "859 Bouzareah",
        "col1": "9",
        "col2": "1916-10-02",
        "col3": "534034478824",
        "col4": "431874092923"
    },
    {
        "col0": "858 El Djezair",
        "col1": "10",
        "col2": "1916-05-26",
        "col3": "463499082789",
        "col4": "377764543091"
    },
    {
        "col0": "857 Glasenappia",
        "col1": "11",
        "col2": "1916-04-06",
        "col3": "356686203110",
        "col4": "298821746723"
    },
    {
        "col0": "856 Backlunda",
        "col1": "10",
        "col2": "1916-04-03",
        "col3": "407579398722",
        "col4": "321186628392"
    },
    {
        "col0": "855 Newcombia",
        "col1": "11",
        "col2": "1916-04-03",
        "col3": "416540311177",
        "col4": "290040351713"
    },
    {
        "col0": "854 Frostia",
        "col1": "12",
        "col2": "1916-04-03",
        "col3": "415956879481",
        "col4": "292703193811"
    },
    {
        "col0": "8549 Alcide",
        "col1": "14",
        "col2": "1994-03-30",
        "col3": "432427605045",
        "col4": "296368341643"
    },
    {
        "col0": "853 Nansenia",
        "col1": "11",
        "col2": "1916-04-02",
        "col3": "382446956444",
        "col4": "309458155330"
    },
    {
        "col0": "852 Wladilena",
        "col1": "10",
        "col2": "1916-04-02",
        "col3": "450469108251",
        "col4": "256141474212"
    },
    {
        "col0": "851 Zeissia",
        "col1": "11",
        "col2": "1916-04-02",
        "col3": "363313388782",
        "col4": "303324642631"
    },
    {
        "col0": "850 Altona",
        "col1": "9",
        "col2": "1916-03-27",
        "col3": "504967612547",
        "col4": "392918807393"
    },
    {
        "col0": "84 Klio",
        "col1": "9",
        "col2": "1865-08-25",
        "col3": "436886000000",
        "col4": "269828000000"
    },
    {
        "col0": "849 Ara",
        "col1": "8",
        "col2": "1912-02-09",
        "col3": "565001238059",
        "col4": "376956714589"
    },
    {
        "col0": "848 Inna",
        "col1": "11",
        "col2": "1915-09-05",
        "col3": "542591477028",
        "col4": "387189208945"
    },
    {
        "col0": "84882 Table Mountain",
        "col1": "14",
        "col2": "2003-02-01",
        "col3": "510293296744",
        "col4": "278880350558"
    },
    {
        "col0": "847 Agnia",
        "col1": "10",
        "col2": "1915-09-02",
        "col3": "455854631597",
        "col4": "376358323107"
    },
    {
        "col0": "846 Lipperta",
        "col1": "10",
        "col2": "1916-11-26",
        "col3": "552958609468",
        "col4": "382402077083"
    },
    {
        "col0": "845 Naema",
        "col1": "10",
        "col2": "1916-11-16",
        "col3": "470156188035",
        "col4": "409239935086"
    },
    {
        "col0": "844 Leontina",
        "col1": "9",
        "col2": "1916-10-01",
        "col3": "512716782250",
        "col4": "447207874670"
    },
    {
        "col0": "8441 Lapponica",
        "col1": "13",
        "col2": "1977-10-16",
        "col3": "373097089525",
        "col4": "282168511756"
    },
    {
        "col0": "843 Nicolaia",
        "col1": "13",
        "col2": "1916-09-30",
        "col3": "412531088242",
        "col4": "269380885769"
    },
    {
        "col0": "842 Kerstin",
        "col1": "10",
        "col2": "1916-10-01",
        "col3": "542486758519",
        "col4": "424902832149"
    },
    {
        "col0": "841 Arabella",
        "col1": "12",
        "col2": "1916-10-01",
        "col3": "360964702212",
        "col4": "313901212089"
    },
    {
        "col0": "840 Zenobia",
        "col1": "10",
        "col2": "1916-09-25",
        "col3": "515334744987",
        "col4": "421821116012"
    },
    {
        "col0": "8405 Asbolus",
        "col1": "8",
        "col2": "1995-04-05",
        "col3": "4356140396913",
        "col4": "1022262089641"
    },
    {
        "col0": "83 Beatrix",
        "col1": "8",
        "col2": "1865-04-26",
        "col3": "393528000000",
        "col4": "334023000000"
    },
    {
        "col0": "839 Valborg",
        "col1": "10",
        "col2": "1916-09-24",
        "col3": "450618706122",
        "col4": "332002554444"
    },
    {
        "col0": "83982 Crantor",
        "col1": "8",
        "col2": "2002-04-12",
        "col3": "3706736040204",
        "col4": "2096913353601"
    },
    {
        "col0": "838 Seraphina",
        "col1": "10",
        "col2": "1916-09-24",
        "col3": "491608522694",
        "col4": "375161540141"
    },
    {
        "col0": "837 Schwarzschilda",
        "col1": "12",
        "col2": "1916-09-23",
        "col3": "357927865436",
        "col4": "329638908087"
    },
    {
        "col0": "8373 Stephengould",
        "col1": "14",
        "col2": "1992-01-01",
        "col3": "762943156655",
        "col4": "218368011860"
    },
    {
        "col0": "8371 Goven",
        "col1": "13",
        "col2": "1991-10-02",
        "col3": "430016087369",
        "col4": "383160538287"
    },
    {
        "col0": "836 Jole",
        "col1": "13",
        "col2": "1916-09-23",
        "col3": "385543632368",
        "col4": "269605282575"
    },
    {
        "col0": "835 Olivia",
        "col1": "11",
        "col2": "1916-09-23",
        "col3": "524909008712",
        "col4": "438546157957"
    },
    {
        "col0": "834 Burnhamia",
        "col1": "9",
        "col2": "1916-09-20",
        "col3": "571987458621",
        "col4": "380487224338"
    },
    {
        "col0": "833 Monica",
        "col1": "11",
        "col2": "1916-09-20",
        "col3": "504847934251",
        "col4": "395551729917"
    },
    {
        "col0": "832 Karin",
        "col1": "11",
        "col2": "1916-09-20",
        "col3": "462855811945",
        "col4": "394325027378"
    },
    {
        "col0": "831 Stateira",
        "col1": "13",
        "col2": "1916-09-20",
        "col3": "379155803289",
        "col4": "282829734345"
    },
    {
        "col0": "8318 Averroes",
        "col1": "13",
        "col2": "1973-09-29",
        "col3": "552407251556",
        "col4": "402500401414"
    },
    {
        "col0": "830 Petropolitana",
        "col1": "9",
        "col2": "1916-08-25",
        "col3": "509979141216",
        "col4": "450858062715"
    },
    {
        "col0": "8306 Shoko",
        "col1": "15",
        "col2": "1995-02-24",
        "col3": "409354033382",
        "col4": "261205212537"
    },
    {
        "col0": "82 Alkmene",
        "col1": "8",
        "col2": "1864-11-27",
        "col3": "504159784046",
        "col4": "323266038795"
    },
    {
        "col0": "829 Academia",
        "col1": "11",
        "col2": "1916-08-25",
        "col3": "424543797259",
        "col4": "347351295978"
    },
    {
        "col0": "828 Lindemannia",
        "col1": "10",
        "col2": "1916-08-29",
        "col3": "491952597796",
        "col4": "464172273207"
    },
    {
        "col0": "827 Wolfiana",
        "col1": "13",
        "col2": "1916-08-29",
        "col3": "393726635895",
        "col4": "286749198557"
    },
    {
        "col0": "826 Henrika",
        "col1": "11",
        "col2": "1916-04-28",
        "col3": "489155117614",
        "col4": "322547969016"
    }
]