[
    {
        "col0": "Twilight's Last Gleaming",
        "col1": "M. Luciano",
        "col2": "R. Aldrich",
        "col3": "W. Wager"
    },
    {
        "col0": "Twice in a Lifetime",
        "col1": "R. C. Jones",
        "col2": "B. Yorkin",
        "col3": "C. Welland"
    },
    {
        "col0": "Twice Upon a Time",
        "col1": "R. Beck",
        "col2": "E. Pressburger",
        "col3": "E. Pressburger"
    },
    {
        "col0": "Twenty Years Later",
        "col1": "E. Escorel",
        "col2": "E. Coutinho",
        "col3": "E. Coutinho"
    },
    {
        "col0": "Twenty Million Sweethearts",
        "col1": "C. Kolster",
        "col2": "R. Enright",
        "col3": "J. Wald"
    },
    {
        "col0": "Twenty Four Seven",
        "col1": "W. Diver",
        "col2": "S. Meadows",
        "col3": "S. Meadows"
    },
    {
        "col0": "Twenty",
        "col1": "N. Na-yeong",
        "col2": "L. Byeong-heon",
        "col3": "L. Byeong-heon"
    },
    {
        "col0": "Twentieth Century",
        "col1": "G. Havlick",
        "col2": "H. Hawks",
        "col3": "P. Sturges"
    },
    {
        "col0": "Twelve O'Clock High",
        "col1": "B. McLean",
        "col2": "H. King",
        "col3": "S. Bartlett"
    },
    {
        "col0": "Twelve Crowded Hours",
        "col1": "H. Marker",
        "col2": "L. Landers",
        "col3": "G. Fort"
    },
    {
        "col0": "Twelfth Night",
        "col1": "P. Boyle",
        "col2": "T. Nunn",
        "col3": "T. Nunn"
    },
    {
        "col0": "Tusk",
        "col1": "K. Smith",
        "col2": "K. Smith",
        "col3": "K. Smith"
    },
    {
        "col0": "Turning Point",
        "col1": "N. Towolawi",
        "col2": "N. Towolawi",
        "col3": "N. Towolawi"
    },
    {
        "col0": "Turn of the Tide",
        "col1": "D. Lean",
        "col2": "N. Walker",
        "col3": "L. du Garde Peach"
    },
    {
        "col0": "Turn Off the Moon",
        "col1": "E. Dmytryk",
        "col2": "L. Seiler",
        "col3": "M. Roberts"
    },
    {
        "col0": "Turn Left, Turn Right",
        "col1": "L. Wing-Cheong",
        "col2": "W. Ka-Fai",
        "col3": "W. Ka-Fai"
    },
    {
        "col0": "Turn Back the Clock",
        "col1": "F. Sullivan",
        "col2": "E. Selwyn",
        "col3": "B. Hecht"
    },
    {
        "col0": "Turandot, Princess of China",
        "col1": "A. Heyne",
        "col2": "G. Lamprecht",
        "col3": "F. Schiller"
    },
    {
        "col0": "Tuppen",
        "col1": "L. Hallstrom",
        "col2": "L. Hallstrom",
        "col3": "L. Hallstrom"
    },
    {
        "col0": "Tuppe tuppe, MaresciA !",
        "col1": "M. Serandrei",
        "col2": "C. L. Bragaglia",
        "col3": "E. Margadonna"
    },
    {
        "col0": "Tunnel 18",
        "col1": "H. Shahabi",
        "col2": "H. Shahabi",
        "col3": "H. Shahabi"
    },
    {
        "col0": "Tunes of Glory",
        "col1": "A. V. Coates",
        "col2": "R. Neame",
        "col3": "J. Kennaway"
    },
    {
        "col0": "Tune in Tomorrow",
        "col1": "P. Boyle",
        "col2": "J. Amiel",
        "col3": "W. Boyd"
    },
    {
        "col0": "Tuna Clipper",
        "col1": "A. Herman",
        "col2": "W. Beaudine",
        "col3": "S. Darling"
    },
    {
        "col0": "Tum Haseen Main Jawaan",
        "col1": "M. S. Shinde",
        "col2": "B. Sonie",
        "col3": "S. Bhowmick"
    },
    {
        "col0": "Tulsa",
        "col1": "T. O. Morse",
        "col2": "S. Heisler",
        "col3": "F. S. Nugent"
    },
    {
        "col0": "Tulpa",
        "col1": "M. Spoletini",
        "col2": "F. Zampaglione",
        "col3": "D. Sacchetti"
    },
    {
        "col0": "Tulips of Haarlem",
        "col1": "M. Morra",
        "col2": "F. Brusati",
        "col3": "F. Brusati"
    },
    {
        "col0": "Tulips",
        "col1": "L. Pigozzi",
        "col2": "A. Waxman",
        "col3": "G. Kaplan"
    },
    {
        "col0": "Tulasi",
        "col1": "M. K. Venkatesh",
        "col2": "B. Srinu",
        "col3": "P. Brothers"
    },
    {
        "col0": "Tudor Rose",
        "col1": "T. Fisher",
        "col2": "R. Stevenson",
        "col3": "R. Stevenson"
    },
    {
        "col0": "Tucker: The Man and His Dream",
        "col1": "P. Nedd-Friendly",
        "col2": "F. F. Coppola",
        "col3": "D. Seidler"
    },
    {
        "col0": "Tuck Everlasting",
        "col1": "J. L. Cassidy",
        "col2": "J. Russell",
        "col3": "J. V. Hart"
    },
    {
        "col0": "Tube",
        "col1": "P. Gok-ji",
        "col2": "B. Woon-hak",
        "col3": "B. Woon-hak"
    },
    {
        "col0": "Tu mi turbi",
        "col1": "G. Cristiani",
        "col2": "R. Benigni",
        "col3": "R. Benigni"
    },
    {
        "col0": "Tras-os-Montes",
        "col1": "A. Reis",
        "col2": "A. Reis",
        "col3": "A. Reis"
    },
    {
        "col0": "Truxa",
        "col1": "W. Fredersdorf",
        "col2": "H. H. Zerlett",
        "col3": "H. H. Zerlett"
    },
    {
        "col0": "Truth",
        "col1": "R. Francis-Bruce",
        "col2": "J. Vanderbilt",
        "col3": "J. Vanderbilt"
    },
    {
        "col0": "Trust the Man",
        "col1": "J. Gilroy",
        "col2": "B. Freundlich",
        "col3": "B. Freundlich"
    },
    {
        "col0": "Trust",
        "col1": "N. Gomez",
        "col2": "H. Hartley",
        "col3": "H. Hartley"
    },
    {
        "col0": "Trunk Crime",
        "col1": "R. Boulting",
        "col2": "R. Boulting",
        "col3": "R. Denham"
    },
    {
        "col0": "Trumped",
        "col1": "M. Whitton",
        "col2": "M. Whitton",
        "col3": "M. Whitton"
    },
    {
        "col0": "Trumbo",
        "col1": "A. Baumgarten",
        "col2": "J. Roach",
        "col3": "J. McNamara"
    },
    {
        "col0": "True as a Turtle",
        "col1": "M. d. Campo",
        "col2": "W. Toye",
        "col3": "N. Phipps"
    },
    {
        "col0": "True Romance",
        "col1": "M. Tronick",
        "col2": "T. Scott",
        "col3": "Q. Tarantino"
    },
    {
        "col0": "True Love",
        "col1": "J. Tintori",
        "col2": "N. Savoca",
        "col3": "N. Savoca"
    },
    {
        "col0": "True Identity",
        "col1": "K. Beyda",
        "col2": "C. Lane",
        "col3": "A. Breckman"
    },
    {
        "col0": "True Grit",
        "col1": "C. brothers",
        "col2": "C. brothers",
        "col3": "C. brothers"
    },
    {
        "col0": "True Grit",
        "col1": "W. Low",
        "col2": "H. Hathaway",
        "col3": "M. Roberts"
    },
    {
        "col0": "True Crime",
        "col1": "J. Cox",
        "col2": "C. Eastwood",
        "col3": "P. Brickman"
    },
    {
        "col0": "True Confession",
        "col1": "P. Weatherwax",
        "col2": "W. Ruggles",
        "col3": "C. Binyon"
    },
    {
        "col0": "True Colors",
        "col1": "S. A. Rotter",
        "col2": "H. Ross",
        "col3": "K. Wade"
    },
    {
        "col0": "True Believer",
        "col1": "G. Bowers",
        "col2": "J. Ruben",
        "col3": "W. Strick"
    },
    {
        "col0": "Truck Busters",
        "col1": "C. Kolster",
        "col2": "B. R. Eason",
        "col3": "R. L. Schrock"
    },
    {
        "col0": "Troy",
        "col1": "P. Honess",
        "col2": "W. Petersen",
        "col3": "D. Benioff"
    },
    {
        "col0": "Troublesome Creek: A Midwestern",
        "col1": "J. Jordan",
        "col2": "J. Jordan",
        "col3": "J. Jordan"
    },
    {
        "col0": "Trouble with Jolanthe",
        "col1": "G. Lohse",
        "col2": "C. Froelich",
        "col3": "R. A. Stemmle"
    },
    {
        "col0": "Trouble in Sundown",
        "col1": "F. Knudtson",
        "col2": "D. Howard",
        "col3": "O. Drake"
    },
    {
        "col0": "Trouble Man",
        "col1": "M. Kahn",
        "col2": "I. Dixon",
        "col3": "J. D. Black"
    },
    {
        "col0": "Trouble Makers",
        "col1": "C. Baoping",
        "col2": "C. Baoping",
        "col3": "C. Baoping"
    },
    {
        "col0": "Trouble Backstairs",
        "col1": "L. Grisebach",
        "col2": "V. Harlan",
        "col3": "M. Bottcher"
    },
    {
        "col0": "Trouble Along the Way",
        "col1": "O. Marks",
        "col2": "M. Curtiz",
        "col3": "D. Morrow"
    },
    {
        "col0": "Troppo forte",
        "col1": "N. Baragli",
        "col2": "C. Verdone",
        "col3": "S. Leone"
    },
    {
        "col0": "Tropical Malady",
        "col1": "L. Chatametikool",
        "col2": "A. Weerasethakul",
        "col3": "A. Weerasethakul"
    },
    {
        "col0": "Tropical Heat Wave",
        "col1": "H. Minter",
        "col2": "R. Springsteen",
        "col3": "A. T. Horman"
    },
    {
        "col0": "Tropic of Cancer",
        "col1": "S. Meyers",
        "col2": "J. Strick",
        "col3": "J. Strick"
    },
    {
        "col0": "Tropic Zone",
        "col1": "H. A. Smith",
        "col2": "L. R. Foster",
        "col3": "L. R. Foster"
    },
    {
        "col0": "Troopers Three",
        "col1": "C. Kolster",
        "col2": "N. Taurog",
        "col3": "J. Natteford"
    },
    {
        "col0": "Tron: Legacy",
        "col1": "J. Haygood",
        "col2": "J. Kosinski",
        "col3": "E. Kitsis"
    },
    {
        "col0": "Tron",
        "col1": "J. Gourson",
        "col2": "S. Lisberger",
        "col3": "S. Lisberger"
    },
    {
        "col0": "Trolls",
        "col1": "N. Fletcher",
        "col2": "M. Mitchell",
        "col3": "Jonathan Aibel and Glenn Berger"
    },
    {
        "col0": "Trog",
        "col1": "O. Hafenrichter",
        "col2": "F. Francis",
        "col3": "J. Gilling"
    },
    {
        "col0": "Triumphs of a Man Called Horse",
        "col1": "R. Watts",
        "col2": "J. Hough",
        "col3": "K. Blackwell"
    },
    {
        "col0": "Triumph of the Will",
        "col1": "L. Riefenstahl",
        "col2": "L. Riefenstahl",
        "col3": "W. Ruttmann"
    },
    {
        "col0": "Triumph of the Spirit",
        "col1": "N. Buckley",
        "col2": "R. M. Young",
        "col3": "A. Krakowski"
    },
    {
        "col0": "Triumph Over Violence",
        "col1": "M. Romm",
        "col2": "M. Romm",
        "col3": "M. Romm"
    },
    {
        "col0": "Triumph",
        "col1": "A. Bauchens",
        "col2": "C. B. DeMille",
        "col3": "J. MacPherson"
    },
    {
        "col0": "Tristar",
        "col1": "D. Wu",
        "col2": "T. Hark",
        "col3": "T. Hark"
    },
    {
        "col0": "Trishna",
        "col1": "M. S. Shinde",
        "col2": "A. Ganguly",
        "col3": "S. Bhowmick"
    },
    {
        "col0": "Trisha Illana Nayanthara",
        "col1": "Ruben",
        "col2": "A. Ravichandran",
        "col3": "A. Ravichandran"
    },
    {
        "col0": "Triplets on Board",
        "col1": "M. Dubber",
        "col2": "H. Muller",
        "col3": "G. Kampendonk"
    },
    {
        "col0": "Trio",
        "col1": "A. Roome",
        "col2": "K. Annakin",
        "col3": "W. S. Maugham"
    },
    {
        "col0": "Trinity Is Still My Name",
        "col1": "A. Siciliano",
        "col2": "E. Barboni",
        "col3": "E. Barboni"
    },
    {
        "col0": "Trilby",
        "col1": "C. Brown",
        "col2": "M. Tourneur",
        "col3": "G. D. Maurier"
    },
    {
        "col0": "Trigger Pals",
        "col1": "S. R. Luby",
        "col2": "S. Newfield",
        "col3": "G. H. Plympton"
    },
    {
        "col0": "Trigger Man",
        "col1": "T. West",
        "col2": "T. West",
        "col3": "T. West"
    },
    {
        "col0": "Tricked",
        "col1": "A. C. Editors",
        "col2": "J. Wells",
        "col3": "J. Wells"
    },
    {
        "col0": "Tribute to a Bad Man",
        "col1": "R. E. Winters",
        "col2": "R. Wise",
        "col3": "J. Schaefer"
    },
    {
        "col0": "Trial Without Jury",
        "col1": "H. Minter",
        "col2": "P. Ford",
        "col3": "A. DeMond"
    },
    {
        "col0": "Trial",
        "col1": "A. Akst",
        "col2": "M. Robson",
        "col3": "D. Mankiewicz"
    },
    {
        "col0": "Triad",
        "col1": "P. May",
        "col2": "H. Hinrich",
        "col3": "D. Sirk"
    },
    {
        "col0": "Trevico-Turin: Voyage in Fiatnam",
        "col1": "R. Crociani",
        "col2": "E. Scola",
        "col3": "E. Scola"
    },
    {
        "col0": "Trespass",
        "col1": "B. Pankow",
        "col2": "J. Schumacher",
        "col3": "K. Gajdusek"
    },
    {
        "col0": "Trent's Last Case",
        "col1": "B. Lewthwaite",
        "col2": "H. Wilcox",
        "col3": "E. C. Bentley"
    },
    {
        "col0": "Trenchcoat",
        "col1": "F. J. Urioste",
        "col2": "M. Tuchner",
        "col3": "Jeffrey Price and Peter S. Seaman"
    },
    {
        "col0": "Tremors 2: Aftershocks",
        "col1": "B. Ducsay",
        "col2": "S. S. Wilson",
        "col3": "B. Maddock"
    },
    {
        "col0": "Treeless Mountain",
        "col1": "S. Y. Kim",
        "col2": "S. Y. Kim",
        "col3": "S. Y. Kim"
    },
    {
        "col0": "Tree Without Fruit",
        "col1": "H. Leminen",
        "col2": "H. Leminen",
        "col3": "H. Leminen"
    },
    {
        "col0": "Treasured Earth",
        "col1": "F. Mariassy",
        "col2": "F. Ban",
        "col3": "S. Dallos"
    },
    {
        "col0": "Treasure of the Golden Condor",
        "col1": "R. L. Simpson",
        "col2": "D. Daves",
        "col3": "D. Daves"
    },
    {
        "col0": "Treasure of Ruby Hills",
        "col1": "A. Herman",
        "col2": "F. McDonald",
        "col3": "T. Hubbard"
    },
    {
        "col0": "Treasure Island",
        "col1": "V. Sarmiento",
        "col2": "R. Ruiz",
        "col3": "R. Ruiz"
    },
    {
        "col0": "Treasure Island",
        "col1": "B. Sewell",
        "col2": "V. Fleming",
        "col3": "J. H. Lawson"
    },
    {
        "col0": "Treasure Hunt",
        "col1": "D. Wu",
        "col2": "J. Lau",
        "col3": "J. Lau"
    },
    {
        "col0": "Tread Softly Stranger",
        "col1": "A. Harvey",
        "col2": "G. Parry",
        "col3": "J. Popplewell"
    },
    {
        "col0": "Treachery Rides the Range",
        "col1": "F. Magee",
        "col2": "F. McDonald",
        "col3": "W. Jacobs"
    },
    {
        "col0": "Travels with My Aunt",
        "col1": "J. Bloom",
        "col2": "G. Cukor",
        "col3": "G. Greene"
    },
    {
        "col0": "Traveling Saleslady",
        "col1": "O. Marks",
        "col2": "R. Enright",
        "col3": "B. Rubin"
    },
    {
        "col0": "Traveling Light",
        "col1": "J. Feyte",
        "col2": "J. Anouilh",
        "col3": "J. Anouilh"
    },
    {
        "col0": "Traveling Husbands",
        "col1": "A. Marshek",
        "col2": "P. Sloane",
        "col3": "H. Pearson"
    },
    {
        "col0": "Traveling Companion",
        "col1": "S. Paggi",
        "col2": "P. D. Monte",
        "col3": "P. D. Monte"
    },
    {
        "col0": "Trauma",
        "col1": "D. Argento",
        "col2": "D. Argento",
        "col3": "D. Argento"
    },
    {
        "col0": "Trash",
        "col1": "E. Graham",
        "col2": "S. Daldry",
        "col3": "R. Curtis"
    },
    {
        "col0": "Trapped in the Closet: The Confessionals",
        "col1": "R. Kelly",
        "col2": "R. Kelly",
        "col3": "R. Kelly"
    },
    {
        "col0": "Trapped in the Closet: Chapters 23-33",
        "col1": "R. Kelly",
        "col2": "R. Kelly",
        "col3": "R. Kelly"
    },
    {
        "col0": "Trapped in Tangier",
        "col1": "N. Baragli",
        "col2": "R. Freda",
        "col3": "R. Freda"
    },
    {
        "col0": "Trapped in Paradise",
        "col1": "T. Rawlings",
        "col2": "G. Gallo",
        "col3": "G. Gallo"
    },
    {
        "col0": "Trapped by Television",
        "col1": "J. Sweeney",
        "col2": "D. Lord",
        "col3": "S. L. Lowe"
    },
    {
        "col0": "Trapped",
        "col1": "P. Shahbazi",
        "col2": "P. Shahbazi",
        "col3": "P. Shahbazi"
    },
    {
        "col0": "Transylvania 6-5000",
        "col1": "H. Keller",
        "col2": "R. D. Luca",
        "col3": "R. D. Luca"
    },
    {
        "col0": "Transporter 3",
        "col1": "C. Delamarre",
        "col2": "O. Megaton",
        "col3": "R. M. Kamen"
    },
    {
        "col0": "Transporter 2",
        "col1": "V. Tabaillon",
        "col2": "L. Leterrier",
        "col3": "L. Besson"
    },
    {
        "col0": "Transgression",
        "col1": "A. Roberts",
        "col2": "H. Brenon",
        "col3": "B. W. Levy"
    },
    {
        "col0": "Transformers",
        "col1": "G. Scantlebury",
        "col2": "M. Bay",
        "col3": "R. Orci"
    },
    {
        "col0": "Transformers: Revenge of the Fallen",
        "col1": "R. Barton",
        "col2": "M. Bay",
        "col3": "R. Orci"
    },
    {
        "col0": "Transformers: Dark of the Moon",
        "col1": "R. Barton",
        "col2": "M. Bay",
        "col3": "E. Kruger"
    },
    {
        "col0": "Transformers: Age of Extinction",
        "col1": "R. Barton",
        "col2": "M. Bay",
        "col3": "E. Kruger"
    },
    {
        "col0": "Transfer",
        "col1": "D. Cronenberg",
        "col2": "D. Cronenberg",
        "col3": "D. Cronenberg"
    },
    {
        "col0": "Transatlantic",
        "col1": "J. Murray",
        "col2": "W. K. Howard",
        "col3": "G. Bolton"
    },
    {
        "col0": "Tranches de vie",
        "col1": "C. Bouche",
        "col2": "F. Leterrier",
        "col3": "G. Lauzier"
    },
    {
        "col0": "Trancers 6",
        "col1": "J. Woelfel",
        "col2": "J. Woelfel",
        "col3": "C. C. Joyner"
    },
    {
        "col0": "Trancers",
        "col1": "T. Nicolaou",
        "col2": "C. Band",
        "col3": "D. Bilson"
    },
    {
        "col0": "Trance",
        "col1": "J. Harris",
        "col2": "D. Boyle",
        "col3": "J. Hodge"
    },
    {
        "col0": "Tramontane",
        "col1": "N. B. Rachid",
        "col2": "V. Boulghourjian",
        "col3": "V. Boulghourjian"
    },
    {
        "col0": "Traitors of San Angel",
        "col1": "C. Workman",
        "col2": "L. T. Nilsson",
        "col3": "E. Cozarinsky"
    },
    {
        "col0": "Traitor's Gate",
        "col1": "O. Hafenrichter",
        "col2": "F. Francis",
        "col3": "E. Wallace"
    },
    {
        "col0": "Training Day",
        "col1": "C. B. IV",
        "col2": "A. Fuqua",
        "col3": "D. Ayer"
    },
    {
        "col0": "Train of Events",
        "col1": "B. Gribble",
        "col2": "C. Crichton",
        "col3": "B. Dearden"
    },
    {
        "col0": "Trail to San Antone",
        "col1": "C. Craft",
        "col2": "J. English",
        "col3": "J. Natteford"
    },
    {
        "col0": "Trail of the Yukon",
        "col1": "A. Herman",
        "col2": "W. Beaudine",
        "col3": "J. O. Curwood"
    },
    {
        "col0": "Tragic Wedding",
        "col1": "J. Bustos",
        "col2": "G. M. Solares",
        "col3": "G. M. Solares"
    },
    {
        "col0": "Tragic Hunt",
        "col1": "M. Serandrei",
        "col2": "G. D. Santis",
        "col3": "M. Antonioni"
    },
    {
        "col0": "Tragedy of a Ridiculous Man",
        "col1": "G. Cristiani",
        "col2": "B. Bertolucci",
        "col3": "B. Bertolucci"
    },
    {
        "col0": "Tragedy in the House of Habsburg",
        "col1": "K. Hartl",
        "col2": "A. Korda",
        "col3": "L. Biro"
    },
    {
        "col0": "Trafic",
        "col1": "J. Tati",
        "col2": "J. Tati",
        "col3": "J. Tati"
    },
    {
        "col0": "Traffic Jam",
        "col1": "N. Baragli",
        "col2": "L. Comencini",
        "col3": "L. Comencini"
    },
    {
        "col0": "Traffic",
        "col1": "S. Mirrione",
        "col2": "S. Soderbergh",
        "col3": "S. Gaghan"
    },
    {
        "col0": "Trader Horn",
        "col1": "G. F. Jr.",
        "col2": "R. Badiyi",
        "col3": "W. W. Norton"
    },
    {
        "col0": "Trade Winds",
        "col1": "D. Spencer",
        "col2": "T. Garnett",
        "col3": "D. Parker"
    },
    {
        "col0": "Track the Man Down",
        "col1": "J. Seabourne",
        "col2": "R. Springsteen",
        "col3": "P. Erickson"
    },
    {
        "col0": "Traces of Light",
        "col1": "J. Palleja",
        "col2": "R. Gil",
        "col3": "W. F. Florez"
    },
    {
        "col0": "Tras-os-Montes",
        "col1": "A. Reis",
        "col2": "A. Reis",
        "col3": "A. Reis"
    },
    {
        "col0": "Toys",
        "col1": "S. Linder",
        "col2": "B. Levinson",
        "col3": "B. Levinson"
    },
    {
        "col0": "Toy Story 3",
        "col1": "K. Schretzmann",
        "col2": "L. Unkrich",
        "col3": "M. Arndt"
    },
    {
        "col0": "Toy Soldiers",
        "col1": "M. Kahn",
        "col2": "D. P. Jr.",
        "col3": "D. P. Jr."
    },
    {
        "col0": "Toxi",
        "col1": "A. Ludwig",
        "col2": "R. A. Stemmle",
        "col3": "R. A. Stemmle"
    },
    {
        "col0": "Town on Trial",
        "col1": "M. Benedict",
        "col2": "J. Guillermin",
        "col3": "K. Hughes"
    },
    {
        "col0": "Town Without Pity",
        "col1": "W. Preuss",
        "col2": "G. Reinhardt",
        "col3": "D. Trumbo"
    },
    {
        "col0": "Town & Country",
        "col1": "C. Simpson",
        "col2": "P. Chelsom",
        "col3": "B. Henry"
    },
    {
        "col0": "Tower of Terror",
        "col1": "F. Newton",
        "col2": "L. Huntington",
        "col3": "J. Reinhardt"
    },
    {
        "col0": "Tower of Evil",
        "col1": "H. Richardson",
        "col2": "J. O'Connolly",
        "col3": "G. Baxt"
    },
    {
        "col0": "Tower Heist",
        "col1": "M. Helfrich",
        "col2": "B. Ratner",
        "col3": "J. Nathanson"
    },
    {
        "col0": "Tovarich",
        "col1": "H. Rust",
        "col2": "A. Litvak",
        "col3": "R. E. Sherwood"
    },
    {
        "col0": "Tous les Matins du Monde",
        "col1": "M. Yoyotte",
        "col2": "A. Corneau",
        "col3": "A. Corneau"
    },
    {
        "col0": "Tough Guy",
        "col1": "J. E. Newcom",
        "col2": "C. Franklin",
        "col3": "F. Ryerson"
    },
    {
        "col0": "Touchy Feely",
        "col1": "L. Shelton",
        "col2": "L. Shelton",
        "col3": "L. Shelton"
    },
    {
        "col0": "Touchez pas au grisbi",
        "col1": "M. Renoir",
        "col2": "J. Becker",
        "col3": "J. Becker"
    },
    {
        "col0": "Touched with Fire",
        "col1": "P. Dalio",
        "col2": "P. Dalio",
        "col3": "P. Dalio"
    },
    {
        "col0": "Touchdown, Army",
        "col1": "A. P. Schmidt",
        "col2": "K. Neumann",
        "col3": "L. Corrigan"
    },
    {
        "col0": "Touch of Pink",
        "col1": "S. Maggi",
        "col2": "I. I. Rashid",
        "col3": "I. I. Rashid"
    },
    {
        "col0": "Touch and Go",
        "col1": "W. Mulconery",
        "col2": "R. Mandel",
        "col3": "A. Ormsby"
    },
    {
        "col0": "Toto, Peppino e... la dolce vita",
        "col1": "R. Cinquini",
        "col2": "S. Corbucci",
        "col3": "L. Fulci"
    },
    {
        "col0": "Toto in Color",
        "col1": "M. Bonotti",
        "col2": "Steno",
        "col3": "Toto"
    },
    {
        "col0": "Toto Seeks Peace",
        "col1": "L. Catozzo",
        "col2": "M. Mattoli",
        "col3": "M. Mattoli"
    },
    {
        "col0": "Toto Looks for a Wife",
        "col1": "R. Cinquini",
        "col2": "C. L. Bragaglia",
        "col3": "F. Scarpelli"
    },
    {
        "col0": "Toto Forever",
        "col1": "R. F. Canuto",
        "col2": "R. F. Canuto",
        "col3": "R. F. Canuto"
    },
    {
        "col0": "Toto's First Night",
        "col1": "J. Benvenuti",
        "col2": "M. Amendola",
        "col3": "B. Corbucci"
    },
    {
        "col0": "Totally Fucked Up",
        "col1": "G. Araki",
        "col2": "G. Araki",
        "col3": "G. Araki"
    },
    {
        "col0": "Total Recall",
        "col1": "C. Wagner",
        "col2": "L. Wiseman",
        "col3": "M. Bomback"
    },
    {
        "col0": "Total Recall",
        "col1": "F. J. Urioste",
        "col2": "P. Verhoeven",
        "col3": "D. O'Bannon"
    },
    {
        "col0": "Toto, Peppino e... la dolce vita",
        "col1": "R. Cinquini",
        "col2": "S. Corbucci",
        "col3": "L. Fulci"
    },
    {
        "col0": "Tosca",
        "col1": "N. Lazzari",
        "col2": "C. Gallone",
        "col3": "G. Giacosa"
    },
    {
        "col0": "Torture Ship",
        "col1": "H. N. Todd",
        "col2": "V. Halperin",
        "col3": "J. London"
    },
    {
        "col0": "Tortilla Flat",
        "col1": "J. E. Newcom",
        "col2": "V. Fleming",
        "col3": "B. Glazer"
    },
    {
        "col0": "Torrente 4: Lethal Crisis",
        "col1": "A. 3",
        "col2": "S. Segura",
        "col3": "S. Segura"
    },
    {
        "col0": "Torrente 3: El protector",
        "col1": "Atresmedia",
        "col2": "S. Segura",
        "col3": "S. Segura"
    },
    {
        "col0": "Torrent",
        "col1": "F. Sullivan",
        "col2": "M. Bell",
        "col3": "V. B. Ibanez"
    },
    {
        "col0": "Toro Loco Sangriento",
        "col1": "P. Valladares",
        "col2": "P. Valladares",
        "col3": "P. Valladares"
    },
    {
        "col0": "Tornado",
        "col1": "W. H. Ziegler",
        "col2": "W. A. Berke",
        "col3": "J. Guedel"
    }
]