[
    {
        "col0": "W. d. Bouverie",
        "col1": "1656-9-26",
        "col2": "1656-9-26",
        "col3": "1717-5-19"
    },
    {
        "col0": "W. Wilson-Todd",
        "col1": "1828-4-17",
        "col2": "1828-4-17",
        "col3": "1910-4-10"
    },
    {
        "col0": "W. Welby-Gregory",
        "col1": "1829-1-4",
        "col2": "1829-1-4",
        "col3": "1898-11-26"
    },
    {
        "col0": "W. Rouse-Boughton",
        "col1": "1788-9-14",
        "col2": "1788-9-14",
        "col3": "1856-5-22"
    },
    {
        "col0": "W. R. Smith",
        "col1": "1856-8-7",
        "col2": "1856-8-7",
        "col3": "1935-12-23"
    },
    {
        "col0": "W. Raeburn",
        "col1": "1850-8-11",
        "col2": "1850-8-11",
        "col3": "1934-2-12"
    },
    {
        "col0": "W. Hardres",
        "col1": "1686-7-25",
        "col2": "1686-7-25",
        "col3": "1736-7-7"
    },
    {
        "col0": "W. Call",
        "col1": "1781-9-28",
        "col2": "1781-9-28",
        "col3": "1851-12-3"
    },
    {
        "col0": "W. Cain",
        "col1": "1864-5-7",
        "col2": "1864-5-7",
        "col3": "1924-5-5"
    },
    {
        "col0": "W. Bagge",
        "col1": "1810-6-17",
        "col2": "1810-6-17",
        "col3": "1880-2-12"
    },
    {
        "col0": "W. Aykroyd",
        "col1": "1865-5-8",
        "col2": "1865-5-8",
        "col3": "1947-4-3"
    },
    {
        "col0": "W. Nugent",
        "col1": "1865-12-12",
        "col2": "1865-12-12",
        "col3": "1955-11-12"
    },
    {
        "col0": "W. Borrowes",
        "col1": "1691-0-0",
        "col2": "1691-0-0",
        "col3": "1741-6-9"
    },
    {
        "col0": "V. Seely",
        "col1": "1900-5-18",
        "col2": "1900-5-18",
        "col3": "1980-5-10"
    },
    {
        "col0": "V. Brooke",
        "col1": "1843-1-5",
        "col2": "1843-1-5",
        "col3": "1891-11-27"
    },
    {
        "col0": "V. Hunt",
        "col1": "1761-1-1",
        "col2": "1761-1-1",
        "col3": "1818-8-11"
    },
    {
        "col0": "T. Kekewich",
        "col1": "1851-7-11",
        "col2": "1851-7-11",
        "col3": "1932-3-10"
    },
    {
        "col0": "T. Thornhill",
        "col1": "1802-1-1",
        "col2": "1802-1-1",
        "col3": "1892-1-1"
    },
    {
        "col0": "T. Meyrick",
        "col1": "1837-3-14",
        "col2": "1837-3-14",
        "col3": "1921-7-30"
    },
    {
        "col0": "T. McClure",
        "col1": "1806-3-4",
        "col2": "1806-3-4",
        "col3": "1893-1-21"
    },
    {
        "col0": "T. Buchan-Hepburn",
        "col1": "1804-9-30",
        "col2": "1804-9-30",
        "col3": "1893-12-17"
    },
    {
        "col0": "Thomas Brudenell, 1st Earl of Cardigan",
        "col1": "1583-1-1",
        "col2": "1583-1-1",
        "col3": "1663-9-16"
    },
    {
        "col0": "S. Hansen",
        "col1": "1876-4-1",
        "col2": "1876-4-1",
        "col3": "1958-10-9"
    },
    {
        "col0": "Stephen Lennard, 2nd Baronet",
        "col1": "1637-3-2",
        "col2": "1637-3-2",
        "col3": "1709-12-15"
    },
    {
        "col0": "St George Gore-St George",
        "col1": "1722-6-25",
        "col2": "1722-6-25",
        "col3": "1746-9-25"
    },
    {
        "col0": "Sir William Wiseman, 10th Baronet",
        "col1": "1885-2-1",
        "col2": "1885-2-1",
        "col3": "1962-6-17"
    },
    {
        "col0": "Sir William Williams, 2nd Baronet, of Clapton",
        "col1": "1730-1-1",
        "col2": "1730-1-1",
        "col3": "1761-1-1"
    },
    {
        "col0": "Sir William Villiers, 3rd Baronet",
        "col1": "1645-1-9",
        "col2": "1645-1-9",
        "col3": "1712-2-27"
    },
    {
        "col0": "Sir William Verner, 2nd Baronet",
        "col1": "1822-1-1",
        "col2": "1822-1-1",
        "col3": "1873-1-1"
    },
    {
        "col0": "Sir William Thomas, 1st Baronet",
        "col1": "1641-7-29",
        "col2": "1641-7-29",
        "col3": "1706-11-18"
    },
    {
        "col0": "Sir William St Quintin, 3rd Baronet",
        "col1": "1662-0-0",
        "col2": "1662-0-0",
        "col3": "1723-6-30"
    },
    {
        "col0": "Sir William Spring, 2nd Baronet",
        "col1": "1642-0-0",
        "col2": "1642-0-0",
        "col3": "1684-0-0"
    },
    {
        "col0": "Sir William Scott, 6th Baronet",
        "col1": "1803-7-26",
        "col2": "1803-7-26",
        "col3": "1871-10-12"
    },
    {
        "col0": "Sir William Robinson, 1st Baronet",
        "col1": "1655-11-19",
        "col2": "1655-11-19",
        "col3": "1736-12-22"
    },
    {
        "col0": "Sir William Roberts, 1st Baronet",
        "col1": "1638-6-21",
        "col2": "1638-6-21",
        "col3": "1688-3-14"
    },
    {
        "col0": "Sir William Pearce, 2nd Baronet",
        "col1": "1861-7-23",
        "col2": "1861-7-23",
        "col3": "1907-11-2"
    },
    {
        "col0": "Sir William Payne-Gallwey, 2nd Baronet",
        "col1": "1807-0-0",
        "col2": "1807-0-0",
        "col3": "1881-12-19"
    },
    {
        "col0": "Sir William Oglander, 6th Baronet",
        "col1": "1769-9-13",
        "col2": "1769-9-13",
        "col3": "1852-1-17"
    },
    {
        "col0": "Sir William Molesworth, 6th Baronet",
        "col1": "1758-6-30",
        "col2": "1758-6-30",
        "col3": "1798-2-22"
    },
    {
        "col0": "Sir William Maynard, 4th Baronet",
        "col1": "1721-4-19",
        "col2": "1721-4-19",
        "col3": "1772-1-18"
    },
    {
        "col0": "Sir William Magnay, 2nd Baronet",
        "col1": "1855-1-1",
        "col2": "1855-1-1",
        "col3": "1917-1-8"
    },
    {
        "col0": "Sir William Lowther, 1st Baronet, of Marske",
        "col1": "1676-1-4",
        "col2": "1676-1-4",
        "col3": "1705-4-6"
    },
    {
        "col0": "Sir William Lowther, 1st Baronet, of Little Preston",
        "col1": "1707-7-10",
        "col2": "1707-7-10",
        "col3": "1788-6-15"
    },
    {
        "col0": "Sir William Hicks, 1st Baronet",
        "col1": "1596-1-1",
        "col2": "1596-1-1",
        "col3": "1680-10-09"
    },
    {
        "col0": "Sir William Hickman, 2nd Baronet",
        "col1": "1629-1-8",
        "col2": "1629-1-8",
        "col3": "1682-2-10"
    },
    {
        "col0": "Sir William Henry Barber, 1st Baronet",
        "col1": "1860-11-9",
        "col2": "1860-11-9",
        "col3": "1927-7-2"
    },
    {
        "col0": "Sir William Heathcote, 1st Baronet",
        "col1": "1693-3-15",
        "col2": "1693-3-15",
        "col3": "1751-5-10"
    },
    {
        "col0": "Sir William Gordon-Cumming, 2nd Baronet",
        "col1": "1787-7-20",
        "col2": "1787-7-20",
        "col3": "1854-11-25"
    },
    {
        "col0": "Sir William Godolphin, 1st Baronet",
        "col1": "1640-1-1",
        "col2": "1640-1-1",
        "col3": "1710-8-27"
    },
    {
        "col0": "Sir William Geary, 2nd Baronet",
        "col1": "1756-9-23",
        "col2": "1756-9-23",
        "col3": "1825-8-6"
    },
    {
        "col0": "Sir William Dupree, 1st Baronet",
        "col1": "1856-0-0",
        "col2": "1856-0-0",
        "col3": "1933-3-2"
    },
    {
        "col0": "Sir William Dunbar, 7th Baronet",
        "col1": "1812-3-2",
        "col2": "1812-3-2",
        "col3": "1889-12-18"
    },
    {
        "col0": "Sir William Douglas, 4th Baronet",
        "col1": "1730-0-0",
        "col2": "1730-0-0",
        "col3": "1783-1-1"
    },
    {
        "col0": "Sir William Courtenay, 2nd Baronet",
        "col1": "1676-3-11",
        "col2": "1676-3-11",
        "col3": "1735-10-6"
    },
    {
        "col0": "Sir William Clayton, 5th Baronet",
        "col1": "1786-8-28",
        "col2": "1786-8-28",
        "col3": "1866-9-19"
    },
    {
        "col0": "Sir William Clayton, 4th Baronet",
        "col1": "1762-4-16",
        "col2": "1762-4-16",
        "col3": "1834-1-26"
    },
    {
        "col0": "Sir William Chaytor, 2nd Baronet",
        "col1": "1805-2-7",
        "col2": "1805-2-7",
        "col3": "1871-2-9"
    },
    {
        "col0": "Sir William Chaytor, 1st Baronet",
        "col1": "1771-4-29",
        "col2": "1771-4-29",
        "col3": "1847-1-28"
    },
    {
        "col0": "Sir William Bowyer, 1st Baronet",
        "col1": "1612-6-29",
        "col2": "1612-6-29",
        "col3": "1679-10-2"
    },
    {
        "col0": "Sir William Boulton, 1st Baronet",
        "col1": "1873-1-10",
        "col2": "1873-1-10",
        "col3": "1949-1-9"
    },
    {
        "col0": "Sir William Barker, 5th Baronet",
        "col1": "1685-1-1",
        "col2": "1685-1-1",
        "col3": "1731-7-23"
    },
    {
        "col0": "Sir Walter Stirling, 1st Baronet",
        "col1": "1758-6-24",
        "col2": "1758-6-24",
        "col3": "1832-8-25"
    },
    {
        "col0": "Sir Walter St John, 3rd Baronet",
        "col1": "1622-5-1",
        "col2": "1622-5-1",
        "col3": "1708-7-3"
    },
    {
        "col0": "Sir Walter Palmer, 1st Baronet",
        "col1": "1858-2-4",
        "col2": "1858-2-4",
        "col3": "1910-4-16"
    },
    {
        "col0": "Sir Walter Jones, 2nd Baronet",
        "col1": "1880-9-26",
        "col2": "1880-9-26",
        "col3": "1967-12-5"
    },
    {
        "col0": "Sir Walter Evans, 1st Baronet",
        "col1": "1872-5-19",
        "col2": "1872-5-19",
        "col3": "1954-11-7"
    },
    {
        "col0": "Sir Walter Bagot, 3rd Baronet",
        "col1": "1644-3-21",
        "col2": "1644-3-21",
        "col3": "1704-2-15"
    },
    {
        "col0": "Sir Thomas Twisden, 3rd Baronet",
        "col1": "1668-11-10",
        "col2": "1668-11-10",
        "col3": "1728-9-12"
    },
    {
        "col0": "Sir Thomas Skipwith, 4th Baronet",
        "col1": "1735-1-1",
        "col2": "1735-1-1",
        "col3": "1790-1-1"
    },
    {
        "col0": "Sir Thomas Skipwith, 2nd Baronet",
        "col1": "1652-0-0",
        "col2": "1652-0-0",
        "col3": "1710-6-15"
    },
    {
        "col0": "Sir Thomas Samwell, 2nd Baronet",
        "col1": "1687-4-14",
        "col2": "1687-4-14",
        "col3": "1757-11-16"
    },
    {
        "col0": "Sir Thomas Royden, 1st Baronet",
        "col1": "1831-2-20",
        "col2": "1831-2-20",
        "col3": "1917-8-29"
    },
    {
        "col0": "Sir Thomas Rich, 1st Baronet",
        "col1": "1601-1-1",
        "col2": "1601-1-1",
        "col3": "1667-1-1"
    },
    {
        "col0": "Sir Thomas Palmer, 4th Baronet, of Carlton",
        "col1": "1702-0-0",
        "col2": "1702-0-0",
        "col3": "1765-6-14"
    },
    {
        "col0": "Sir Thomas Osborne, 9th Baronet",
        "col1": "1757-0-0",
        "col2": "1757-0-0",
        "col3": "1821-6-3"
    },
    {
        "col0": "Sir Thomas Myddelton, 2nd Baronet",
        "col1": "1651-0-0",
        "col2": "1651-0-0",
        "col3": "1684-2-5"
    },
    {
        "col0": "Sir Thomas Moore, 1st Baronet",
        "col1": "1886-9-16",
        "col2": "1886-9-16",
        "col3": "1971-4-9"
    },
    {
        "col0": "Sir Thomas Metcalfe, 1st Baronet",
        "col1": "1745-1-8",
        "col2": "1745-1-8",
        "col3": "1813-11-17"
    },
    {
        "col0": "Sir Thomas Lyttelton, 4th Baronet",
        "col1": "1686-0-0",
        "col2": "1686-0-0",
        "col3": "1751-9-14"
    },
    {
        "col0": "Sir Thomas Lyttelton, 1st Baronet",
        "col1": "1593-1-1",
        "col2": "1593-1-1",
        "col3": "1650-2-22"
    },
    {
        "col0": "Sir Thomas Lowther, 2nd Baronet",
        "col1": "1699-4-20",
        "col2": "1699-4-20",
        "col3": "1745-3-23"
    },
    {
        "col0": "Sir Thomas Littleton, 3rd Baronet",
        "col1": "1647-4-3",
        "col2": "1647-4-3",
        "col3": "1709-12-31"
    },
    {
        "col0": "Sir Thomas Lee, 3rd Baronet",
        "col1": "1687-1-1",
        "col2": "1687-1-1",
        "col3": "1749-1-1"
    },
    {
        "col0": "Sir Thomas Hales, 2nd Baronet",
        "col1": "1666-2-24",
        "col2": "1666-2-24",
        "col3": "1762-1-1"
    },
    {
        "col0": "Sir Thomas Grosvenor, 5th Baronet",
        "col1": "1693-1-1",
        "col2": "1693-1-1",
        "col3": "1733-1-1"
    },
    {
        "col0": "Sir Thomas Gower, 1st Baronet",
        "col1": "1584-1-1",
        "col2": "1584-1-1",
        "col3": "1651-0-0"
    },
    {
        "col0": "Sir Thomas Glen-Coats, 1st Baronet",
        "col1": "1846-2-19",
        "col2": "1846-2-19",
        "col3": "1922-7-12"
    },
    {
        "col0": "Sir Thomas Felton, 4th Baronet",
        "col1": "1649-10-12",
        "col2": "1649-10-12",
        "col3": "1709-3-3"
    },
    {
        "col0": "Sir Thomas Esmonde, 11th Baronet",
        "col1": "1862-0-0",
        "col2": "1862-0-0",
        "col3": "1935-9-15"
    },
    {
        "col0": "Sir Thomas Dyke, 1st Baronet",
        "col1": "1650-0-0",
        "col2": "1650-0-0",
        "col3": "1706-10-31"
    },
    {
        "col0": "Sir Thomas Crosse, 1st Baronet",
        "col1": "1663-11-29",
        "col2": "1663-11-29",
        "col3": "1738-5-27"
    },
    {
        "col0": "Sir Thomas Cave, 7th Baronet",
        "col1": "1766-10-6",
        "col2": "1766-10-6",
        "col3": "1792-1-15"
    },
    {
        "col0": "Sir Thomas Cave, 3rd Baronet",
        "col1": "1681-4-19",
        "col2": "1681-4-19",
        "col3": "1719-4-21"
    },
    {
        "col0": "Sir Thomas Burke, 3rd Baronet",
        "col1": "1813-6-7",
        "col2": "1813-6-7",
        "col3": "1875-12-9"
    },
    {
        "col0": "Sir Thomas Blount, 1st Baronet",
        "col1": "1649-9-12",
        "col2": "1649-9-12",
        "col3": "1697-1-27"
    },
    {
        "col0": "Sir Thomas Baring, 2nd Baronet",
        "col1": "1772-6-12",
        "col2": "1772-6-12",
        "col3": "1848-4-3"
    },
    {
        "col0": "Sir Thomas Alen, 1st Baronet",
        "col1": "1566-0-0",
        "col2": "1566-0-0",
        "col3": "1627-3-7"
    },
    {
        "col0": "Sir Theodore Brinckman, 1st Baronet",
        "col1": "1798-1-17",
        "col2": "1798-1-17",
        "col3": "1880-2-9"
    },
    {
        "col0": "Sir Theobald Burke, 13th Baronet",
        "col1": "1833-3-25",
        "col2": "1833-3-25",
        "col3": "1909-4-4"
    },
    {
        "col0": "Sir Samuel Joseph, 1st Baronet",
        "col1": "1888-8-15",
        "col2": "1888-8-15",
        "col3": "1944-10-4"
    },
    {
        "col0": "Sir Rowland Blennerhassett, 1st Baronet",
        "col1": "1741-1-1",
        "col2": "1741-1-1",
        "col3": "1821-3-14"
    },
    {
        "col0": "Sir Rowland Alston, 4th Baronet",
        "col1": "1679-9-6",
        "col2": "1679-9-6",
        "col3": "1759-1-2"
    },
    {
        "col0": "Sir Robert Williams, 9th Baronet",
        "col1": "1764-7-20",
        "col2": "1764-7-20",
        "col3": "1830-12-1"
    },
    {
        "col0": "Sir Robert Williams, 1st Baronet, of Park",
        "col1": "1860-1-21",
        "col2": "1860-1-21",
        "col3": "1938-4-25"
    },
    {
        "col0": "Sir Robert Throckmorton, 8th Baronet",
        "col1": "1800-12-5",
        "col2": "1800-12-5",
        "col3": "1862-6-28"
    },
    {
        "col0": "Sir Robert Steuart, 1st Baronet",
        "col1": "1643-1-1",
        "col2": "1643-1-1",
        "col3": "1707-1-1"
    },
    {
        "col0": "Sir Robert Salusbury Cotton, 5th Baronet",
        "col1": "1739-0-0",
        "col2": "1739-0-0",
        "col3": "1809-8-24"
    },
    {
        "col0": "Sir Robert Salusbury, 1st Baronet",
        "col1": "1756-9-10",
        "col2": "1756-9-10",
        "col3": "1817-11-17"
    },
    {
        "col0": "Sir Robert Pigot, 4th Baronet",
        "col1": "1801-1-1",
        "col2": "1801-1-1",
        "col3": "1891-1-1"
    },
    {
        "col0": "Sir Robert Newman, 1st Baronet",
        "col1": "1776-8-18",
        "col2": "1776-8-18",
        "col3": "1848-1-24"
    },
    {
        "col0": "Sir Robert Napier, 2nd Baronet",
        "col1": "1603-1-1",
        "col2": "1603-1-1",
        "col3": "1661-3-7"
    },
    {
        "col0": "Sir Robert Napier, 1st Baronet, of Punknoll",
        "col1": "1642-1-1",
        "col2": "1642-1-1",
        "col3": "1700-10-31"
    },
    {
        "col0": "Sir Robert Napier, 1st Baronet, of Luton Hoo",
        "col1": "1560-1-1",
        "col2": "1560-1-1",
        "col3": "1637-4-22"
    },
    {
        "col0": "Sir Robert Lawley, 5th Baronet",
        "col1": "1736-3-22",
        "col2": "1736-3-22",
        "col3": "1793-3-11"
    },
    {
        "col0": "Sir Robert Hildyard, 2nd Baronet",
        "col1": "1670-0-0",
        "col2": "1670-0-0",
        "col3": "1729-0-0"
    },
    {
        "col0": "Sir Robert Hales, 1st Baronet",
        "col1": "1610-0-0",
        "col2": "1610-0-0",
        "col3": "1695-0-0"
    },
    {
        "col0": "Sir Robert Grosvenor, 6th Baronet",
        "col1": "1695-5-7",
        "col2": "1695-5-7",
        "col3": "1755-8-1"
    },
    {
        "col0": "Sir Robert Ferguson, 2nd Baronet",
        "col1": "1796-12-26",
        "col2": "1796-12-26",
        "col3": "1860-3-13"
    },
    {
        "col0": "Sir Robert Fagge, 3rd Baronet",
        "col1": "1673-8-9",
        "col2": "1673-8-9",
        "col3": "1736-6-22"
    },
    {
        "col0": "Sir Robert Cunliffe, 5th Baronet",
        "col1": "1839-1-17",
        "col2": "1839-1-17",
        "col3": "1905-6-18"
    },
    {
        "col0": "Sir Robert Clayton, 3rd Baronet",
        "col1": "1740-0-0",
        "col2": "1740-0-0",
        "col3": "1799-5-10"
    },
    {
        "col0": "Sir Robert Clarke, 2nd Baronet",
        "col1": "1683-0-0",
        "col2": "1683-0-0",
        "col3": "1746-11-0"
    },
    {
        "col0": "Sir Robert Chapman, 1st Baronet",
        "col1": "1880-3-3",
        "col2": "1880-3-3",
        "col3": "1963-7-31"
    },
    {
        "col0": "Sir Robert Bird, 2nd Baronet",
        "col1": "1876-9-20",
        "col2": "1876-9-20",
        "col3": "1960-11-20"
    },
    {
        "col0": "Sir Robert Barclay, 8th Baronet",
        "col1": "1755-9-13",
        "col2": "1755-9-13",
        "col3": "1839-8-14"
    },
    {
        "col0": "Sir Robert Anstruther, 1st Baronet",
        "col1": "1658-9-24",
        "col2": "1658-9-24",
        "col3": "1737-3-0"
    },
    {
        "col0": "Sir Richard Vernon, 3rd Baronet",
        "col1": "1678-6-22",
        "col2": "1678-6-22",
        "col3": "1725-10-1"
    },
    {
        "col0": "Sir Richard Sandford, 3rd Baronet",
        "col1": "1675-9-8",
        "col2": "1675-9-8",
        "col3": "1723-4-2"
    },
    {
        "col0": "Sir Richard Pryse, 2nd Baronet",
        "col1": "1630-1-1",
        "col2": "1630-1-1",
        "col3": "1675-1-1"
    },
    {
        "col0": "Sir Richard Paget, 1st Baronet",
        "col1": "1832-3-14",
        "col2": "1832-3-14",
        "col3": "1908-2-3"
    },
    {
        "col0": "Sir Richard Musgrave, 3rd Baronet, of Tourin",
        "col1": "1790-1-6",
        "col2": "1790-1-6",
        "col3": "1859-7-7"
    },
    {
        "col0": "Sir Richard Musgrave, 11th Baronet",
        "col1": "1838-8-21",
        "col2": "1838-8-21",
        "col3": "1881-2-13"
    },
    {
        "col0": "Sir Richard Levinge, 1st Baronet",
        "col1": "1656-5-2",
        "col2": "1656-5-2",
        "col3": "1724-7-13"
    },
    {
        "col0": "Sir Richard Hoghton, 1st Baronet",
        "col1": "1570-9-28",
        "col2": "1570-9-28",
        "col3": "1630-1-1"
    },
    {
        "col0": "Sir Richard Grobham Howe, 3rd Baronet",
        "col1": "1651-1-1",
        "col2": "1651-1-1",
        "col3": "1730-1-1"
    },
    {
        "col0": "Sir Richard Gilpin, 1st Baronet",
        "col1": "1801-1-12",
        "col2": "1801-1-12",
        "col3": "1882-4-8"
    },
    {
        "col0": "Sir Richard Cox, 2nd Baronet",
        "col1": "1702-11-23",
        "col2": "1702-11-23",
        "col3": "1766-2-0"
    },
    {
        "col0": "Sir Richard Beaumont, 1st Baronet",
        "col1": "1574-8-2",
        "col2": "1574-8-2",
        "col3": "1631-10-28"
    },
    {
        "col0": "Sir Richard Atkins, 2nd Baronet",
        "col1": "1654-1-1",
        "col2": "1654-1-1",
        "col3": "1696-1-1"
    },
    {
        "col0": "Sir Richard Acton, 5th Baronet",
        "col1": "1712-1-1",
        "col2": "1712-1-1",
        "col3": "1791-11-20"
    },
    {
        "col0": "Sir Rhys Llewellyn, 2nd Baronet",
        "col1": "1910-3-9",
        "col2": "1910-3-9",
        "col3": "1978-4-25"
    },
    {
        "col0": "Sir Ralph Gore, 4th Baronet",
        "col1": "1675-0-0",
        "col2": "1675-0-0",
        "col3": "1733-2-23"
    },
    {
        "col0": "Sir Ralph Assheton, 2nd Baronet, of Middleton",
        "col1": "1651-2-11",
        "col2": "1651-2-11",
        "col3": "1716-5-3"
    },
    {
        "col0": "Sir Philip Hales, 5th Baronet",
        "col1": "1735-1-1",
        "col2": "1735-1-1",
        "col3": "1824-4-12"
    },
    {
        "col0": "Sir Paul Gore, 1st Baronet",
        "col1": "1567-1-1",
        "col2": "1567-1-1",
        "col3": "1629-9-1"
    },
    {
        "col0": "Sir Patrick O'Brien, 2nd Baronet",
        "col1": "1823-1-1",
        "col2": "1823-1-1",
        "col3": "1895-4-23"
    },
    {
        "col0": "Sir Patrick Ford, 1st Baronet",
        "col1": "1880-3-5",
        "col2": "1880-3-5",
        "col3": "1945-9-28"
    },
    {
        "col0": "Sir Patrick Agnew, 1st Baronet",
        "col1": "1578-1-1",
        "col2": "1578-1-1",
        "col3": "1661-1-1"
    }
]