[
    {
        "col0": "Z. B. Azan",
        "col1": "Kuala Lumpur",
        "col2": "Malaysia",
        "col3": "1990-07-12",
        "col4": "1990-07-12"
    },
    {
        "col0": "Z. Mohamed",
        "col1": "Alexandria",
        "col2": "Alexandria",
        "col3": "1992-06-24",
        "col4": "1992-06-24"
    },
    {
        "col0": "Z. Alexander",
        "col1": "Australia",
        "col2": "Australia",
        "col3": "1989-02-11",
        "col4": "1989-02-11"
    },
    {
        "col0": "Y. Fukui",
        "col1": "Japan",
        "col2": "Japan",
        "col3": "1987-12-21",
        "col4": "1987-12-21"
    },
    {
        "col0": "Y. Soliman",
        "col1": "Cairo",
        "col2": "Cairo",
        "col3": "1997-01-10",
        "col4": "1997-01-10"
    },
    {
        "col0": "Y. N. Saleh",
        "col1": "Kuwait City",
        "col2": "Kuwait City",
        "col3": "1994-11-07",
        "col4": "1994-11-07"
    },
    {
        "col0": "Y. Tsz-fung",
        "col1": "Hong Kong",
        "col2": "Hong Kong",
        "col3": "1993-09-19",
        "col4": "1993-09-19"
    },
    {
        "col0": "Y. Adel",
        "col1": "Cairo",
        "col2": "Egypt",
        "col3": "1996-03-06",
        "col4": "1996-03-06"
    },
    {
        "col0": "Y. E. Halaby",
        "col1": "New York City",
        "col2": "Cairo",
        "col3": "1984-09-30",
        "col4": "1984-09-30"
    },
    {
        "col0": "Y. Perrin",
        "col1": "France",
        "col2": "Epinal",
        "col3": "1985-08-01",
        "col4": "1985-08-01"
    },
    {
        "col0": "W. Mehboob",
        "col1": "Pakistan",
        "col2": "Pakistan",
        "col3": "1991-11-15",
        "col4": "1991-11-15"
    },
    {
        "col0": "W. E. Hindi",
        "col1": "United States",
        "col2": "Cairo",
        "col3": "1980-06-25",
        "col4": "1980-06-25"
    },
    {
        "col0": "V. T. Murray",
        "col1": "England",
        "col2": "England",
        "col3": "1994-07-30",
        "col4": "1994-07-30"
    },
    {
        "col0": "V. Lust",
        "col1": "Cheltenham",
        "col2": "Luton",
        "col3": "1989-05-02",
        "col4": "1989-05-02"
    },
    {
        "col0": "V. Cardwell",
        "col1": "Melbourne",
        "col2": "Adelaide",
        "col3": "1955-04-21",
        "col4": "1955-04-21"
    },
    {
        "col0": "V. Raj",
        "col1": "Malaysia",
        "col2": "Malaysia",
        "col3": "1996-01-06",
        "col4": "1996-01-06"
    },
    {
        "col0": "V. Chu",
        "col1": "Hong Kong",
        "col2": "Hong Kong",
        "col3": "1994-09-29",
        "col4": "1994-09-29"
    },
    {
        "col0": "V. Atkinson",
        "col1": "Leeds, England",
        "col2": "England",
        "col3": "1976-03-10",
        "col4": "1976-03-10"
    },
    {
        "col0": "T. Chuah",
        "col1": "Kuala Lumpur",
        "col2": "Kuala Lumpur",
        "col3": "1982-10-31",
        "col4": "1982-10-31"
    },
    {
        "col0": "T. T. Wing",
        "col1": "Hong Kong",
        "col2": "Hong Kong",
        "col3": "1992-07-26",
        "col4": "1992-07-26"
    },
    {
        "col0": "T. Richards",
        "col1": "England",
        "col2": "England",
        "col3": "1986-07-10",
        "col4": "1986-07-10"
    },
    {
        "col0": "T. Ford",
        "col1": "Cheltenham",
        "col2": "England",
        "col3": "1993-11-11",
        "col4": "1993-11-11"
    },
    {
        "col0": "T. Harrity",
        "col1": "United States",
        "col2": "United States",
        "col3": "1990-09-16",
        "col4": "1990-09-16"
    },
    {
        "col0": "T. Lincou",
        "col1": "Boston, USA",
        "col2": "La Reunion",
        "col3": "1976-04-02",
        "col4": "1976-04-02"
    },
    {
        "col0": "T. Serafini",
        "col1": "Brazil",
        "col2": "Brazil",
        "col3": "1985-02-14",
        "col4": "1985-02-14"
    },
    {
        "col0": "T. Evans",
        "col1": "Wales",
        "col2": "Cardiff",
        "col3": "1992-10-15",
        "col4": "1992-10-15"
    },
    {
        "col0": "T. Swartz",
        "col1": "South Africa",
        "col2": "South Africa",
        "col3": "1987-05-13",
        "col4": "1987-05-13"
    },
    {
        "col0": "T. Malik",
        "col1": "Wales",
        "col2": "London, England",
        "col3": "1975-01-21",
        "col4": "1975-01-21"
    },
    {
        "col0": "T. Aslam",
        "col1": "Lahore",
        "col2": "Lahore",
        "col3": "1996-08-09",
        "col4": "1996-08-09"
    },
    {
        "col0": "T. Momen",
        "col1": "Cairo",
        "col2": "Cairo",
        "col3": "1988-02-23",
        "col4": "1988-02-23"
    },
    {
        "col0": "T. Y. Xin",
        "col1": "Kuala Lumpur",
        "col2": "Kuala Lumpur",
        "col3": "1993-06-13",
        "col4": "1993-06-13"
    },
    {
        "col0": "T. Saxby",
        "col1": "Australia",
        "col2": "Australia",
        "col3": "1993-04-18",
        "col4": "1993-04-18"
    },
    {
        "col0": "Syed Hamzah Shah Bukhari",
        "col1": "Lahore",
        "col2": "Lahore",
        "col3": "1993-12-31",
        "col4": "1993-12-31"
    },
    {
        "col0": "Syed Ali Mujtaba Shah Bokhari",
        "col1": "Lahore",
        "col2": "Pakistan",
        "col3": "1996-04-05",
        "col4": "1996-04-05"
    },
    {
        "col0": "S. King",
        "col1": "Calgary",
        "col2": "Ascot, Berkshire",
        "col3": "1986-10-21",
        "col4": "1986-10-21"
    },
    {
        "col0": "S. Davenport",
        "col1": "Wellington",
        "col2": "Auckland",
        "col3": "1962-09-21",
        "col4": "1962-09-21"
    },
    {
        "col0": "S. Crawford",
        "col1": "Edinburgh",
        "col2": "Scotland",
        "col3": "1981-02-13",
        "col4": "1981-02-13"
    },
    {
        "col0": "S. Boswell",
        "col1": "Manchester, England",
        "col2": "Canberra, Australia",
        "col3": "1978-07-29",
        "col4": "1978-07-29"
    },
    {
        "col0": "S. Finitsis",
        "col1": "Amsterdam",
        "col2": "Australia",
        "col3": "1983-01-19",
        "col4": "1983-01-19"
    },
    {
        "col0": "S. Coppinger",
        "col1": "Cape Town",
        "col2": "Dublin",
        "col3": "1984-09-24",
        "col4": "1984-09-24"
    },
    {
        "col0": "S. Edmison",
        "col1": "Canada",
        "col2": "Canada",
        "col3": "1987-07-12",
        "col4": "1987-07-12"
    },
    {
        "col0": "S. Brind",
        "col1": "Kent",
        "col2": "Bexleyheath",
        "col3": "1977-06-08",
        "col4": "1977-06-08"
    },
    {
        "col0": "S. Galifi",
        "col1": "Aix-en-Provence",
        "col2": "Nogent-sur-Marne",
        "col3": "1978-01-14",
        "col4": "1978-01-14"
    },
    {
        "col0": "S. Casteleyn",
        "col1": "Los Angeles",
        "col2": "Belgium",
        "col3": "1974-02-25",
        "col4": "1974-02-25"
    },
    {
        "col0": "S. Sun-mi",
        "col1": "Korea",
        "col2": "Korea",
        "col3": "1990-05-28",
        "col4": "1990-05-28"
    },
    {
        "col0": "S. Waters",
        "col1": "Cape Town",
        "col2": "East London, Eastern Cape",
        "col3": "1983-01-31",
        "col4": "1983-01-31"
    },
    {
        "col0": "S. M. Jusoh",
        "col1": "Kuala Terengganu",
        "col2": "Malaysia",
        "col3": "1987-05-25",
        "col4": "1987-05-25"
    },
    {
        "col0": "S. Wall",
        "col1": "Germany",
        "col2": "Germany",
        "col3": "1989-12-30",
        "col4": "1989-12-30"
    },
    {
        "col0": "S. Rosner",
        "col1": "Germany",
        "col2": "Germany",
        "col3": "1987-11-05",
        "col4": "1987-11-05"
    },
    {
        "col0": "S. Parke",
        "col1": "England",
        "col2": "England",
        "col3": "1972-08-10",
        "col4": "1972-08-10"
    },
    {
        "col0": "S. Suchde",
        "col1": "Harrogate, England",
        "col2": "Mumbai",
        "col3": "1985-01-20",
        "col4": "1985-01-20"
    },
    {
        "col0": "S. Tsukue",
        "col1": "Japan",
        "col2": "Kanagawa",
        "col3": "1989-08-02",
        "col4": "1989-08-02"
    },
    {
        "col0": "S. Delierre",
        "col1": "Montreal",
        "col2": "Montreal",
        "col3": "1982-05-25",
        "col4": "1982-05-25"
    },
    {
        "col0": "S. L. Roux",
        "col1": "Castleford",
        "col2": "Cape Town",
        "col3": "1986-09-27",
        "col4": "1986-09-27"
    },
    {
        "col0": "S. Wee",
        "col1": "Antwerp",
        "col2": "Malaysia",
        "col3": "1977-10-05",
        "col4": "1977-10-05"
    },
    {
        "col0": "S. Razik",
        "col1": "Canada",
        "col2": "Cairo",
        "col3": "1977-11-18",
        "col4": "1977-11-18"
    },
    {
        "col0": "S. Weenink",
        "col1": "Netherlands",
        "col2": "Netherlands",
        "col3": "1986-08-27",
        "col4": "1986-08-27"
    },
    {
        "col0": "S. Arnold",
        "col1": "Australia",
        "col2": "Australia",
        "col3": "1986-02-08",
        "col4": "1986-02-08"
    },
    {
        "col0": "S. Cardwell",
        "col1": "Australia",
        "col2": "Australia",
        "col3": "1991-10-10",
        "col4": "1991-10-10"
    },
    {
        "col0": "S. Campion",
        "col1": "England",
        "col2": "England",
        "col3": "1983-05-10",
        "col4": "1983-05-10"
    },
    {
        "col0": "S. Perry",
        "col1": "Kenilworth, England",
        "col2": "Birmingham",
        "col3": "1990-05-15",
        "col4": "1990-05-15"
    },
    {
        "col0": "S. Badr",
        "col1": "Alexandria",
        "col2": "Alexandria",
        "col3": "1987-06-27",
        "col4": "1987-06-27"
    },
    {
        "col0": "S. Singh",
        "col1": "Kuala Lumpur",
        "col2": "Malaysia",
        "col3": "1994-04-23",
        "col4": "1994-04-23"
    },
    {
        "col0": "S. Teran",
        "col1": "Mexico",
        "col2": "Mexico",
        "col3": "1981-05-06",
        "col4": "1981-05-06"
    },
    {
        "col0": "S. Cornett",
        "col1": "Ottawa",
        "col2": "Deep River, Ontario",
        "col3": "1991-02-04",
        "col4": "1991-02-04"
    },
    {
        "col0": "Salma Hany Ibrahim Ahmed",
        "col1": "Alexandria",
        "col2": "Alexandria",
        "col3": "1996-08-05",
        "col4": "1996-08-05"
    },
    {
        "col0": "S. U. Khan",
        "col1": "Pakistan",
        "col2": "Pakistan",
        "col3": "1985-04-07",
        "col4": "1985-04-07"
    },
    {
        "col0": "S. Sobhy",
        "col1": "United States",
        "col2": "United States",
        "col3": "1996-12-30",
        "col4": "1996-12-30"
    },
    {
        "col0": "S. Schone",
        "col1": "Germany",
        "col2": "Germany",
        "col3": "1974-01-27",
        "col4": "1974-01-27"
    },
    {
        "col0": "R. Kobayashi",
        "col1": "Japan",
        "col2": "Japan",
        "col3": "1994-06-28",
        "col4": "1994-06-28"
    },
    {
        "col0": "R. Reta",
        "col1": "Montreal",
        "col2": "Ottawa",
        "col3": "1980-12-14",
        "col4": "1980-12-14"
    },
    {
        "col0": "R. Norman",
        "col1": "England",
        "col2": "Whitianga",
        "col3": "1959-01-07",
        "col4": "1959-01-07"
    },
    {
        "col0": "R. Pezzota",
        "col1": "Argentina",
        "col2": "Argentina",
        "col3": "1983-3-10",
        "col4": "1983-3-10"
    },
    {
        "col0": "R. Eyles",
        "col1": "Gold Coast, Queensland",
        "col2": "Brisbane",
        "col3": "1967-09-15",
        "col4": "1967-09-15"
    },
    {
        "col0": "R. Pezzota",
        "col1": "Argentina",
        "col2": "Argentina",
        "col3": "1983-03-10",
        "col4": "1983-03-10"
    },
    {
        "col0": "R. Downer",
        "col1": "England",
        "col2": "England",
        "col3": "1992-03-24",
        "col4": "1992-03-24"
    },
    {
        "col0": "R. Fallows",
        "col1": "England",
        "col2": "England",
        "col3": "1995-06-17",
        "col4": "1995-06-17"
    },
    {
        "col0": "R. Hedrick",
        "col1": "Australia",
        "col2": "Australia",
        "col3": "1988-11-01",
        "col4": "1988-11-01"
    },
    {
        "col0": "R. Peter",
        "col1": "Luzern",
        "col2": "Lucerne",
        "col3": "1989-03-31",
        "col4": "1989-03-31"
    },
    {
        "col0": "R. Botwright",
        "col1": "England",
        "col2": "England",
        "col3": "1982-01-22",
        "col4": "1982-01-22"
    },
    {
        "col0": "R. Nielsen",
        "col1": "Denmark",
        "col2": "Denmark",
        "col3": "1983-02-28",
        "col4": "1983-02-28"
    },
    {
        "col0": "R. Kandra",
        "col1": "Essen",
        "col2": "Germany",
        "col3": "1990-10-29",
        "col4": "1990-10-29"
    },
    {
        "col0": "R. Ashour",
        "col1": "Cairo",
        "col2": "Cairo",
        "col3": "1987-09-30",
        "col4": "1987-09-30"
    },
    {
        "col0": "R. Tandon",
        "col1": "Columbia University",
        "col2": "India",
        "col3": "1992-08-21",
        "col4": "1992-08-21"
    },
    {
        "col0": "R. Alarcon",
        "col1": "Brazil",
        "col2": "Brazil",
        "col3": "1977-02-05",
        "col4": "1977-02-05"
    },
    {
        "col0": "R. Grinham",
        "col1": "Cairo, Egypt",
        "col2": "Toowoomba",
        "col3": "1977-01-22",
        "col4": "1977-01-22"
    },
    {
        "col0": "P. Schweertman",
        "col1": "Amsterdam",
        "col2": "Netherlands",
        "col3": "1983-09-05",
        "col4": "1983-09-05"
    },
    {
        "col0": "P. Martin",
        "col1": "Czech Republic",
        "col2": "Czech Republic",
        "col3": "1989-06-21",
        "col4": "1989-06-21"
    },
    {
        "col0": "P. Creed",
        "col1": "Wales",
        "col2": "Wales",
        "col3": "1987-03-31",
        "col4": "1987-03-31"
    },
    {
        "col0": "P. Barker",
        "col1": "England",
        "col2": "London",
        "col3": "1983-09-26",
        "col4": "1983-09-26"
    },
    {
        "col0": "P. Steel",
        "col1": "Zurich",
        "col2": "Whakatane",
        "col3": "1970-08-15",
        "col4": "1970-08-15"
    },
    {
        "col0": "P. Price",
        "col1": "Australia",
        "col2": "Melbourne",
        "col3": "1976-05-06",
        "col4": "1976-05-06"
    },
    {
        "col0": "P. Coll",
        "col1": "Auckland",
        "col2": "New Zealand",
        "col3": "1992-05-09",
        "col4": "1992-05-09"
    },
    {
        "col0": "P. Nimmo",
        "col1": "London, England",
        "col2": "Edinburgh",
        "col3": "1977-08-23",
        "col4": "1977-08-23"
    },
    {
        "col0": "P. Hathway",
        "col1": "Germany",
        "col2": "Germany",
        "col3": "1987-10-25",
        "col4": "1987-10-25"
    },
    {
        "col0": "O. Khalifa",
        "col1": "New York City",
        "col2": "Cairo",
        "col3": "1995-03-19",
        "col4": "1995-03-19"
    },
    {
        "col0": "O. Noom",
        "col1": "Haarlemmermeer",
        "col2": "Haarlem",
        "col3": "1985-11-02",
        "col4": "1985-11-02"
    },
    {
        "col0": "O. B. Hee",
        "col1": "Nottingham, England",
        "col2": "Penang",
        "col3": "1980-02-04",
        "col4": "1980-02-04"
    },
    {
        "col0": "O. Ertl",
        "col1": "Czech Republic",
        "col2": "Czech Republic",
        "col3": "1987-07-22",
        "col4": "1987-07-22"
    },
    {
        "col0": "O. A. Kawy",
        "col1": "Cairo",
        "col2": "Giza",
        "col3": "1985-08-15",
        "col4": "1985-08-15"
    },
    {
        "col0": "O. Mosaad",
        "col1": "Cairo",
        "col2": "Cairo",
        "col3": "1988-03-17",
        "col4": "1988-03-17"
    },
    {
        "col0": "O. E. Borolossy",
        "col1": "Cairo",
        "col2": "Egypt",
        "col3": "1975-10-11",
        "col4": "1975-10-11"
    },
    {
        "col0": "O. E. Atmas",
        "col1": "Egypt",
        "col2": "Egypt",
        "col3": "1996-05-14",
        "col4": "1996-05-14"
    },
    {
        "col0": "O. A. Meguid",
        "col1": "Egypt",
        "col2": "Egypt",
        "col3": "1988-02-23",
        "col4": "1988-02-23"
    },
    {
        "col0": "O. A. Aziz",
        "col1": "Cairo",
        "col2": "Egypt",
        "col3": "1983-09-11",
        "col4": "1983-09-11"
    },
    {
        "col0": "O. Holland",
        "col1": "England",
        "col2": "England",
        "col3": "1994-06-19",
        "col4": "1994-06-19"
    },
    {
        "col0": "O. Tuominen",
        "col1": "Finland",
        "col2": "Finland",
        "col3": "1979-04-15",
        "col4": "1979-04-15"
    },
    {
        "col0": "O. Blatchford",
        "col1": "Connecticut",
        "col2": "United States",
        "col3": "1993-01-23",
        "col4": "1993-01-23"
    },
    {
        "col0": "O. Pett",
        "col1": "Gosport",
        "col2": "England",
        "col3": "1988-10-19",
        "col4": "1988-10-19"
    },
    {
        "col0": "O. Ertlova",
        "col1": "Czech Republic",
        "col2": "Czech Republic",
        "col3": "1986-01-10",
        "col4": "1986-01-10"
    },
    {
        "col0": "N. Gohar",
        "col1": "Cairo",
        "col2": "Cairo",
        "col3": "1997-09-30",
        "col4": "1997-09-30"
    },
    {
        "col0": "N. E. Torky",
        "col1": "Alexandria",
        "col2": "Alexandria",
        "col3": "1992-11-07",
        "col4": "1992-11-07"
    },
    {
        "col0": "N. E. Tayeb",
        "col1": "Cairo",
        "col2": "Cairo",
        "col3": "1993-03-08",
        "col4": "1993-03-08"
    },
    {
        "col0": "N. E. Sherbini",
        "col1": "Alexandria",
        "col2": "Alexandria",
        "col3": "1995-11-01",
        "col4": "1995-11-01"
    },
    {
        "col0": "N. Todd",
        "col1": "Canada",
        "col2": "Canada",
        "col3": "1990-07-07",
        "col4": "1990-07-07"
    },
    {
        "col0": "N. Fernandes",
        "col1": "England",
        "col2": "Canada",
        "col3": "1983-06-19",
        "col4": "1983-06-19"
    },
    {
        "col0": "N. Muller",
        "col1": "Hirzel",
        "col2": "Winterthur",
        "col3": "1989-08-24",
        "col4": "1989-08-24"
    },
    {
        "col0": "N. David",
        "col1": "Amsterdam",
        "col2": "Malaysia",
        "col3": "1983-08-26",
        "col4": "1983-08-26"
    },
    {
        "col0": "N. Matthew",
        "col1": "Sheffield, England",
        "col2": "Sheffield, England",
        "col3": "1980-07-25",
        "col4": "1980-07-25"
    },
    {
        "col0": "N. Gilis",
        "col1": "Belgium",
        "col2": "Belgium",
        "col3": "1996-02-20",
        "col4": "1996-02-20"
    },
    {
        "col0": "N. Grinham",
        "col1": "Almere",
        "col2": "Australia",
        "col3": "1978-03-16",
        "col4": "1978-03-16"
    },
    {
        "col0": "N. Grainger",
        "col1": "Greenwich, Connecticut",
        "col2": "Manchester",
        "col3": "1977-07-08",
        "col4": "1977-07-08"
    },
    {
        "col0": "N. Iqbal",
        "col1": "Pakistan",
        "col2": "Pakistan",
        "col3": "1994-04-01",
        "col4": "1994-04-01"
    },
    {
        "col0": "M. Krajcsak",
        "col1": "Budapest, Hungary",
        "col2": "Budapest",
        "col3": "1983-12-28",
        "col4": "1983-12-28"
    },
    {
        "col0": "M. A. Azan",
        "col1": "Kuala Lumpur",
        "col2": "Malaysia",
        "col3": "1988-10-03",
        "col4": "1988-10-03"
    },
    {
        "col0": "M. S. Yousaf",
        "col1": "Lahore",
        "col2": "Lahore",
        "col3": "1991-12-05",
        "col4": "1991-12-05"
    },
    {
        "col0": "M. S. Hassan",
        "col1": "Lahore",
        "col2": "Lahore",
        "col3": "1990-05-27",
        "col4": "1990-05-27"
    },
    {
        "col0": "M. N. Adnan",
        "col1": "Kuala Lumpur",
        "col2": "Terengganu",
        "col3": "1986-04-24",
        "col4": "1986-04-24"
    },
    {
        "col0": "Mohammed Ali Anwar Reda",
        "col1": "Cairo",
        "col2": "Cairo",
        "col3": "1989-04-16",
        "col4": "1989-04-16"
    },
    {
        "col0": "M. Abbas",
        "col1": "Egypt",
        "col2": "Egypt",
        "col3": "1980-09-24",
        "col4": "1980-09-24"
    },
    {
        "col0": "M. E. Shorbagy",
        "col1": "Bristol",
        "col2": "Alexandria",
        "col3": "1991-01-12",
        "col4": "1991-01-12"
    },
    {
        "col0": "M. E. Gawarhy",
        "col1": "Cairo",
        "col2": "Egypt",
        "col3": "1996-01-26",
        "col4": "1996-01-26"
    },
    {
        "col0": "M. Abouelghar",
        "col1": "Egypt",
        "col2": "Egypt",
        "col3": "1993-10-01",
        "col4": "1993-10-01"
    },
    {
        "col0": "M. Kobayashi",
        "col1": "Japan",
        "col2": "Japan",
        "col3": "1990-01-16",
        "col4": "1990-01-16"
    },
    {
        "col0": "M. Celler",
        "col1": "Bratislava",
        "col2": "Bratislava",
        "col3": "1991-05-07",
        "col4": "1991-05-07"
    },
    {
        "col0": "Milou van der Heijden",
        "col1": "Eindhoven",
        "col2": "Netherlands",
        "col3": "1990-12-18",
        "col4": "1990-12-18"
    },
    {
        "col0": "M. Louw",
        "col1": "Cape Town",
        "col2": "Cape Town",
        "col3": "1988-10-06",
        "col4": "1988-10-06"
    },
    {
        "col0": "M. Corren",
        "col1": "Australia",
        "col2": "Australia",
        "col3": "1974-02-28",
        "col4": "1974-02-28"
    },
    {
        "col0": "M. Monto",
        "col1": "Finland",
        "col2": "Finland",
        "col3": "1976-03-20",
        "col4": "1976-03-20"
    },
    {
        "col0": "M. A. Rodriguez",
        "col1": "Bogota",
        "col2": "Bogota",
        "col3": "1985-12-20",
        "col4": "1985-12-20"
    },
    {
        "col0": "M. Quibell",
        "col1": "Seattle, Washington",
        "col2": "Atlanta, Georgia",
        "col3": "1984-04-23",
        "col4": "1984-04-23"
    },
    {
        "col0": "M. Martin",
        "col1": "Sydney",
        "col2": "Sydney",
        "col3": "1967-04-29",
        "col4": "1967-04-29"
    },
    {
        "col0": "M. Francis",
        "col1": "Australia",
        "col2": "Australia",
        "col3": "1985-8-29",
        "col4": "1985-8-29"
    },
    {
        "col0": "M. Craig",
        "col1": "New Zealand",
        "col2": "New Zealand",
        "col3": "1992-12-11",
        "col4": "1992-12-11"
    },
    {
        "col0": "M. Hesham",
        "col1": "Cairo",
        "col2": "Egypt",
        "col3": "1994-03-29",
        "col4": "1994-03-29"
    },
    {
        "col0": "M. Lee",
        "col1": "Hong Kong",
        "col2": "Hong Kong",
        "col3": "1988-01-09",
        "col4": "1988-01-09"
    },
    {
        "col0": "M. Duplomb",
        "col1": "France",
        "col2": "France",
        "col3": "1985-10-31",
        "col4": "1985-10-31"
    },
    {
        "col0": "M. Karwalski",
        "col1": "Medowie",
        "col2": "Australia",
        "col3": "1985-12-03",
        "col4": "1985-12-03"
    },
    {
        "col0": "M. Hopkin",
        "col1": "Australia",
        "col2": "Australia",
        "col3": "1991-04-14",
        "col4": "1991-04-14"
    },
    {
        "col0": "M. Tuomi",
        "col1": "Espoo",
        "col2": "Finland",
        "col3": "1985-09-30",
        "col4": "1985-09-30"
    },
    {
        "col0": "M. Castagnet",
        "col1": "France",
        "col2": "France",
        "col3": "1986-11-14",
        "col4": "1986-11-14"
    },
    {
        "col0": "M. E. Shorbagy",
        "col1": "Bristol",
        "col2": "Alexandria",
        "col3": "1993-07-30",
        "col4": "1993-07-30"
    },
    {
        "col0": "M. L. Moignan",
        "col1": "Crawley, England",
        "col2": "Channel Islands",
        "col3": "1962-10-28",
        "col4": "1962-10-28"
    },
    {
        "col0": "M. Knight",
        "col1": "New Zealand",
        "col2": "New Zealand",
        "col3": "1983-12-28",
        "col4": "1983-12-28"
    },
    {
        "col0": "M. Stephan",
        "col1": "France",
        "col2": "France",
        "col3": "1996-03-14",
        "col4": "1996-03-14"
    }
]