[
    {
        "col0": "Day of the Tentacle",
        "col1": "D. Grossman",
        "col2": "C. Bajakian",
        "col3": "LucasArts",
        "col4": "Dave Grossman"
    },
    {
        "col0": "Dawn of Mana",
        "col1": "M. Kato",
        "col2": "R. Sakamoto",
        "col3": "Square Enix",
        "col4": "Koichi Ishii"
    },
    {
        "col0": "Dark Cloud",
        "col1": "A. Hino",
        "col2": "T. Nishiura",
        "col3": "Sony Computer Entertainment",
        "col4": "Akihiro Hino"
    },
    {
        "col0": "Cry On",
        "col1": "H. Sakaguchi",
        "col2": "N. Uematsu",
        "col3": "AQ Interactive",
        "col4": "Hironobu Sakaguchi"
    },
    {
        "col0": "Crash Bandicoot 2: Cortex Strikes Back",
        "col1": "J. Rubin",
        "col2": "J. Mancell",
        "col3": "Sony Computer Entertainment",
        "col4": "Mark Cerny"
    },
    {
        "col0": "Crash Bandicoot: Warped",
        "col1": "J. Rubin",
        "col2": "J. Mancell",
        "col3": "Sony Computer Entertainment",
        "col4": "Roppyaku Tsurumi"
    },
    {
        "col0": "Code Age Commanders: Tsugu Mono Tsuga Reru Mono",
        "col1": "Y. Naora",
        "col2": "K. Tanioka",
        "col3": "Square Enix",
        "col4": "Yusuke Naora"
    },
    {
        "col0": "Code Age Brawls",
        "col1": "Y. Naora",
        "col2": "K. Tanioka",
        "col3": "Square Enix",
        "col4": "Yusuke Naora"
    },
    {
        "col0": "Civilization II",
        "col1": "D. Ellis",
        "col2": "J. Briggs",
        "col3": "MicroProse",
        "col4": "Jeff Briggs"
    },
    {
        "col0": "Civilization",
        "col1": "J. Briggs",
        "col2": "J. Briggs",
        "col3": "MicroProse",
        "col4": "Sid Meier"
    },
    {
        "col0": "Chrono Cross",
        "col1": "M. Kato",
        "col2": "Y. Mitsuda",
        "col3": "Square",
        "col4": "Hiromichi Tanaka"
    },
    {
        "col0": "Castlevania: Portrait of Ruin",
        "col1": "K. Igarashi",
        "col2": "Y. Koshiro",
        "col3": "Konami",
        "col4": "Koji Igarashi"
    },
    {
        "col0": "Castlevania: Lament of Innocence",
        "col1": "K. Igarashi",
        "col2": "M. Yamane",
        "col3": "Konami",
        "col4": "Koji Igarashi"
    },
    {
        "col0": "Castlevania: Harmony of Dissonance",
        "col1": "K. Igarashi",
        "col2": "M. Yamane",
        "col3": "Konami",
        "col4": "Koji Igarashi"
    },
    {
        "col0": "Castlevania: Dawn of Sorrow",
        "col1": "K. Igarashi",
        "col2": "M. Yamane",
        "col3": "Konami",
        "col4": "Koji Igarashi"
    },
    {
        "col0": "Castlevania: Curse of Darkness",
        "col1": "K. Igarashi",
        "col2": "M. Yamane",
        "col3": "Konami",
        "col4": "Koji Igarashi"
    },
    {
        "col0": "Castlevania: Aria of Sorrow",
        "col1": "K. Igarashi",
        "col2": "M. Yamane",
        "col3": "Konami",
        "col4": "Koji Igarashi"
    },
    {
        "col0": "Broken Sword: The Shadow of the Templars",
        "col1": "C. Cecil",
        "col2": "B. Pheloung",
        "col3": "Virgin Interactive",
        "col4": "Charles Cecil"
    },
    {
        "col0": "Assassin's Creed",
        "col1": "C. May",
        "col2": "J. Kyd",
        "col3": "Ubisoft",
        "col4": "Jade Raymond"
    },
    {
        "col0": "Animal Crossing",
        "col1": "N. Bihldorff",
        "col2": "K. Totaka",
        "col3": "Nintendo",
        "col4": "Takashi Tezuka"
    },
    {
        "col0": "Okami",
        "col1": "H. Kamiya",
        "col2": "A. Kaida",
        "col3": "Capcom",
        "col4": "Atsushi Inaba"
    }
]