[
    {
        "col0": "Togo",
        "col1": "Lome",
        "col2": "French language",
        "col3": "56785000000"
    },
    {
        "col0": "The Gambia",
        "col1": "Banjul",
        "col2": "English language",
        "col3": "10378082358"
    },
    {
        "col0": "The Bahamas",
        "col1": "Nassau, Bahamas",
        "col2": "English language",
        "col3": "13877156295"
    },
    {
        "col0": "Thailand",
        "col1": "Bangkok",
        "col2": "Thai language",
        "col3": "513115494479"
    },
    {
        "col0": "Tanzania",
        "col1": "Dodoma",
        "col2": "English language",
        "col3": "947303000000"
    },
    {
        "col0": "Tajikistan",
        "col1": "Dushanbe",
        "col2": "Tajik language",
        "col3": "143099433084"
    },
    {
        "col0": "Taiwan",
        "col1": "Taipei",
        "col2": "Standard Chinese",
        "col3": "36192493853"
    },
    {
        "col0": "Sao Tome and Principe",
        "col1": "Sao Tome",
        "col2": "Portuguese language",
        "col3": "963475577"
    },
    {
        "col0": "Syria",
        "col1": "Damascus",
        "col2": "Arabic language",
        "col3": "185129760138"
    },
    {
        "col0": "Switzerland",
        "col1": "Bern",
        "col2": "French language",
        "col3": "41284410478"
    },
    {
        "col0": "Sweden",
        "col1": "Stockholm",
        "col2": "Swedish language",
        "col3": "450295000000"
    },
    {
        "col0": "Swaziland",
        "col1": "Mbabane",
        "col2": "South African English",
        "col3": "17363280291"
    },
    {
        "col0": "Svalbard",
        "col1": "Longyearbyen",
        "col2": "Norwegian language",
        "col3": "61022000000"
    },
    {
        "col0": "Suriname",
        "col1": "Paramaribo",
        "col2": "Dutch language",
        "col3": "163819337966"
    },
    {
        "col0": "Sudan",
        "col1": "Khartoum",
        "col2": "Arabic",
        "col3": "1886068000000"
    },
    {
        "col0": "Subanon people",
        "col1": "Zamboanga City",
        "col2": "Chavacano language",
        "col3": "23409000000"
    },
    {
        "col0": "Palestine",
        "col1": "Jerusalem",
        "col2": "Arabic language",
        "col3": "6215971464"
    },
    {
        "col0": "Sri Lanka",
        "col1": "Colombo",
        "col2": "Tamil language",
        "col3": "65609578811"
    },
    {
        "col0": "South Sudan",
        "col1": "Juba",
        "col2": "English language",
        "col3": "619745000000"
    },
    {
        "col0": "South Ossetia",
        "col1": "Tskhinvali",
        "col2": "Russian language",
        "col3": "3900000000"
    },
    {
        "col0": "South Ossetia",
        "col1": "Tskhinvali",
        "col2": "Russian language",
        "col3": "3900000000"
    },
    {
        "col0": "Korea",
        "col1": "Seoul",
        "col2": "Korean language",
        "col3": "100209229977"
    },
    {
        "col0": "South Georgia and the South Sandwich Islands",
        "col1": "King Edward Point",
        "col2": "English language",
        "col3": "3903000000"
    },
    {
        "col0": "Somaliland",
        "col1": "Hargeisa",
        "col2": "Arabic language",
        "col3": "137528368658"
    },
    {
        "col0": "Somalia",
        "col1": "Mogadishu",
        "col2": "Arabic language",
        "col3": "637655072764"
    },
    {
        "col0": "Slovenia",
        "col1": "Ljubljana",
        "col2": "Slovene language",
        "col3": "20271836939"
    },
    {
        "col0": "Slovakia",
        "col1": "Bratislava",
        "col2": "Slovak language",
        "col3": "49033654904"
    },
    {
        "col0": "Sint Maarten",
        "col1": "Philipsburg, Sint Maarten",
        "col2": "Dutch language",
        "col3": "33928844"
    },
    {
        "col0": "Singapore",
        "col1": "City-state",
        "col2": "English language",
        "col3": "719100000"
    },
    {
        "col0": "Sierra Leone",
        "col1": "Freetown",
        "col2": "English language",
        "col3": "71740000000"
    },
    {
        "col0": "Seychelles",
        "col1": "Victoria, Seychelles",
        "col2": "English language",
        "col3": "458427895"
    },
    {
        "col0": "Serbia",
        "col1": "Belgrade",
        "col2": "Serbian language",
        "col3": "88361000000"
    },
    {
        "col0": "Senegal",
        "col1": "Dakar",
        "col2": "French language",
        "col3": "196712000000"
    },
    {
        "col0": "Savoy",
        "col1": "Chambery",
        "col2": "French language",
        "col3": "10416000000"
    },
    {
        "col0": "Saudi Arabia",
        "col1": "Riyadh",
        "col2": "Arabic language",
        "col3": "2149690000000"
    },
    {
        "col0": "San Marino",
        "col1": "City of San Marino",
        "col2": "Italian language",
        "col3": "61200000"
    },
    {
        "col0": "Samoa",
        "col1": "Apia",
        "col2": "English language",
        "col3": "2841216957"
    },
    {
        "col0": "Saint Vincent and the Grenadines",
        "col1": "Kingstown",
        "col2": "English language",
        "col3": "344000000"
    },
    {
        "col0": "Saint Pierre and Miquelon",
        "col1": "Saint-Pierre, Saint-Pierre and Miquelon",
        "col2": "French language",
        "col3": "242000000"
    },
    {
        "col0": "Saint Lucia",
        "col1": "Castries",
        "col2": "English language",
        "col3": "617000000"
    },
    {
        "col0": "Saint Kitts and Nevis",
        "col1": "Basseterre",
        "col2": "English language",
        "col3": "261000000"
    },
    {
        "col0": "Saint Helena, Ascension and Tristan da Cunha",
        "col1": "Jamestown, Saint Helena",
        "col2": "English language",
        "col3": "393678192"
    },
    {
        "col0": "Saint Helena",
        "col1": "Jamestown, Saint Helena",
        "col2": "English language",
        "col3": "121000000"
    },
    {
        "col0": "Saint Barthelemy",
        "col1": "Gustavia, Saint Barthelemy",
        "col2": "French language",
        "col3": "24604887"
    },
    {
        "col0": "Sahrawi Arab Democratic Republic",
        "col1": "Laayoune",
        "col2": "Arabic language",
        "col3": "265999548895"
    },
    {
        "col0": "Sao Tome and Principe",
        "col1": "Sao Tome",
        "col2": "Portuguese language",
        "col3": "963475577"
    },
    {
        "col0": "Rwanda",
        "col1": "Kigali",
        "col2": "English language",
        "col3": "26337589094"
    },
    {
        "col0": "Russia",
        "col1": "Moscow",
        "col2": "Russian language",
        "col3": "17075200000000"
    },
    {
        "col0": "Romania",
        "col1": "Bucharest",
        "col2": "Romanian language",
        "col3": "238390275639"
    },
    {
        "col0": "Republika Srpska",
        "col1": "Sarajevo",
        "col2": "Bosnian language",
        "col3": "24856115894"
    },
    {
        "col0": "Republic of the Congo",
        "col1": "Brazzaville",
        "col2": "French language",
        "col3": "342000000000"
    },
    {
        "col0": "Republic of Saugeais",
        "col1": "MontbenoA(r)t",
        "col2": "Franco-Provencal language",
        "col3": "40000000"
    },
    {
        "col0": "Republic of Macedonia",
        "col1": "Skopje",
        "col2": "Macedonian language",
        "col3": "25327493730"
    },
    {
        "col0": "Republic of Lakotah",
        "col1": "Republic of Lakotah",
        "col2": "American English",
        "col3": "199998881880"
    },
    {
        "col0": "Qatar",
        "col1": "Doha",
        "col2": "Arabic language",
        "col3": "11571030881"
    },
    {
        "col0": "Puntland",
        "col1": "Garowe",
        "col2": "Arabic language",
        "col3": "212508524453"
    },
    {
        "col0": "Puerto Rico",
        "col1": "San Juan, Puerto Rico",
        "col2": "American English",
        "col3": "9103808207"
    },
    {
        "col0": "Puerto Rico",
        "col1": "San Juan, Puerto Rico",
        "col2": "American English",
        "col3": "9103808207"
    },
    {
        "col0": "Principality of Hutt River",
        "col1": "Nain, Israel",
        "col2": "English language",
        "col3": "75000000"
    },
    {
        "col0": "Posavina Canton",
        "col1": "OraA!je",
        "col2": "Bosnian language",
        "col3": "325000000"
    },
    {
        "col0": "Poland",
        "col1": "Warsaw",
        "col2": "Polish language",
        "col3": "312602266860"
    },
    {
        "col0": "Paraguayan architecture",
        "col1": "Asuncion",
        "col2": "Paraguayan Guarani",
        "col3": "406752000000"
    },
    {
        "col0": "Paraguay",
        "col1": "Asuncion",
        "col2": "Spanish language",
        "col3": "406752000000"
    },
    {
        "col0": "Panama",
        "col1": "Panama City",
        "col2": "Spanish language",
        "col3": "74177300000"
    },
    {
        "col0": "Palestine",
        "col1": "Jerusalem",
        "col2": "Arabic language",
        "col3": "6215971464"
    },
    {
        "col0": "Palau",
        "col1": "Ngerulmud",
        "col2": "English language",
        "col3": "465550000"
    },
    {
        "col0": "Pakistan",
        "col1": "Islamabad",
        "col2": "English language",
        "col3": "881913000000"
    },
    {
        "col0": "Oman",
        "col1": "Muscat, Oman",
        "col2": "Literary Arabic",
        "col3": "309498399208"
    },
    {
        "col0": "Norway",
        "col1": "Oslo",
        "col2": "Norwegian language",
        "col3": "385177851792"
    },
    {
        "col0": "Northern Mariana Islands",
        "col1": "Saipan",
        "col2": "Carolinian language",
        "col3": "463607871"
    },
    {
        "col0": "Northern Cyprus",
        "col1": "North Nicosia",
        "col2": "Turkish language",
        "col3": "3354034602"
    },
    {
        "col0": "North Korea",
        "col1": "Pyongyang",
        "col2": "Korean language",
        "col3": "120506966797"
    },
    {
        "col0": "Norfolk Island",
        "col1": "Kingston, Norfolk Island",
        "col2": "English language",
        "col3": "34446841"
    },
    {
        "col0": "Niue",
        "col1": "Alofi",
        "col2": "English language",
        "col3": "260000000"
    },
    {
        "col0": "Nigeria",
        "col1": "Abuja",
        "col2": "English language",
        "col3": "923763289349"
    },
    {
        "col0": "Niger",
        "col1": "Niamey",
        "col2": "French language",
        "col3": "1267000000000"
    },
    {
        "col0": "Nicaragua",
        "col1": "Managua",
        "col2": "Spanish language",
        "col3": "129999273222"
    },
    {
        "col0": "New Zealand",
        "col1": "Wellington",
        "col2": "Maori language",
        "col3": "268019739621"
    },
    {
        "col0": "Vanuatu",
        "col1": "Port Vila",
        "col2": "English language",
        "col3": "12189000000"
    },
    {
        "col0": "New Caledonia",
        "col1": "Noumea",
        "col2": "French language",
        "col3": "18576000000"
    },
    {
        "col0": "Nevis",
        "col1": "Charlestown, Nevis",
        "col2": "English language",
        "col3": "92980573"
    },
    {
        "col0": "Nepal",
        "col1": "Kathmandu",
        "col2": "Nepali language",
        "col3": "147181000000"
    },
    {
        "col0": "Nauru",
        "col1": "Yaren District",
        "col2": "English language",
        "col3": "20978903"
    },
    {
        "col0": "Namibia",
        "col1": "Windhoek",
        "col2": "English language",
        "col3": "825418850811"
    },
    {
        "col0": "Nakhchivan",
        "col1": "Nakhchivan",
        "col2": "Azerbaijani language",
        "col3": "5363865376"
    },
    {
        "col0": "Nakhchivan",
        "col1": "Nakhchivan",
        "col2": "Azerbaijani language",
        "col3": "5363865376"
    },
    {
        "col0": "Nagorno-Karabakh Republic",
        "col1": "Stepanakert",
        "col2": "Armenian language",
        "col3": "11458000000"
    },
    {
        "col0": "Myanmar",
        "col1": "Naypyidaw",
        "col2": "Burmese language",
        "col3": "676574824098"
    }
]