[
    {
        "col0": "Coronado's Quest",
        "col1": "Mr. Prospector",
        "col2": "Damascus",
        "col3": "Stuart S. Janney III"
    },
    {
        "col0": "Corinne",
        "col1": "Potoooooooo",
        "col2": "Beningbrough",
        "col3": "T. Grosvenor"
    },
    {
        "col0": "Copenhagen",
        "col1": "Eclipse",
        "col2": "John Bull",
        "col3": "T. Grosvenor"
    },
    {
        "col0": "Cool Reception",
        "col1": "Nearco",
        "col2": "Windfields",
        "col3": "E. P. Taylor"
    },
    {
        "col0": "Conniver",
        "col1": "Display",
        "col2": "Challenger",
        "col3": "Alfred G. Vanderbilt II"
    },
    {
        "col0": "Commander in Chief",
        "col1": "Lyphard",
        "col2": "Roberto",
        "col3": "J. Farms"
    },
    {
        "col0": "Comely",
        "col1": "Domino",
        "col2": "Kingston",
        "col3": "J. Butler"
    },
    {
        "col0": "Colt by Fidget",
        "col1": "Florizel",
        "col2": "Highflyer",
        "col3": "Francis Russell, 5th Duke of Bedford"
    },
    {
        "col0": "Collier Bay",
        "col1": "Danzig",
        "col2": "High Top",
        "col3": "Edward Stanley, 18th Earl of Derby"
    },
    {
        "col0": "Cobweb",
        "col1": "Walton",
        "col2": "Soothsayer",
        "col3": "George Child Villiers, 5th Earl of Jersey"
    },
    {
        "col0": "Coastal",
        "col1": "Raise A Native",
        "col2": "Buckpasser",
        "col3": "C. Farm"
    },
    {
        "col0": "Coaltown",
        "col1": "Bull Dog",
        "col2": "Blenheim II",
        "col3": "C. Farm"
    },
    {
        "col0": "Cleopatra",
        "col1": "Polymelus",
        "col2": "Gallinule",
        "col3": "C. Farm"
    },
    {
        "col0": "Classic Cliche",
        "col1": "Topsider",
        "col2": "High Top",
        "col3": "Victor Matthews, Baron Matthews"
    },
    {
        "col0": "Citation",
        "col1": "Bull Dog",
        "col2": "Hyperion",
        "col3": "C. Farm"
    },
    {
        "col0": "Cigar",
        "col1": "The Minstrel",
        "col2": "Seattle Slew",
        "col3": "A. E. Paulson"
    },
    {
        "col0": "Cicero",
        "col1": "Bona Vista",
        "col2": "Ayrshire",
        "col3": "Archibald Primrose, 5th Earl of Rosebery"
    },
    {
        "col0": "Chompion",
        "col1": "Tom Fool",
        "col2": "Mahmoud",
        "col3": "C. V. Whitney"
    },
    {
        "col0": "Chilukki",
        "col1": "Runaway Groom",
        "col2": "Damascus",
        "col3": "M. Miller"
    },
    {
        "col0": "Chester House",
        "col1": "Raise a Native",
        "col2": "El Gran Senor",
        "col3": "J. Farms"
    },
    {
        "col0": "Cherry Lass",
        "col1": "Isonomy",
        "col2": "Macaroni",
        "col3": "William Walker, 1st Baron Wavertree"
    },
    {
        "col0": "Cherokee Rose",
        "col1": "Lyphard",
        "col2": "Secretariat",
        "col3": "S. Mohammed"
    },
    {
        "col0": "Cherimoya",
        "col1": "Hampton",
        "col2": "St. Simon",
        "col3": "W. B. Cloete"
    },
    {
        "col0": "Chateaugay",
        "col1": "Khaled",
        "col2": "Polynesian",
        "col3": "J. W. Galbreath"
    },
    {
        "col0": "Charlottesville",
        "col1": "Prince Rose",
        "col2": "Nearco",
        "col3": "P. A. Khan"
    },
    {
        "col0": "Champs Elysees",
        "col1": "Danzig",
        "col2": "Kahyasi",
        "col3": "J. Farms"
    },
    {
        "col0": "Challedon",
        "col1": "Swynford",
        "col2": "Sir Gallahad III",
        "col3": "W. L. Brann"
    },
    {
        "col0": "Cellini",
        "col1": "Princequillo",
        "col2": "Bold Ruler",
        "col3": "C. Farm"
    },
    {
        "col0": "Cedric",
        "col1": "Walton",
        "col2": "Walton",
        "col3": "Sir John Shelley, 6th Baronet"
    },
    {
        "col0": "Cat Thief",
        "col1": "Storm Bird",
        "col2": "Alydar",
        "col3": "O. Farm"
    },
    {
        "col0": "Casual Look",
        "col1": "Roberto",
        "col2": "Manila",
        "col3": "William S. Farish III"
    },
    {
        "col0": "Carrozza",
        "col1": "Nearco",
        "col2": "Hyperion",
        "col3": "N. Stud"
    },
    {
        "col0": "Carnegie",
        "col1": "Northern Dancer",
        "col2": "Riverman",
        "col3": "R. Sangster"
    },
    {
        "col0": "Caracolero",
        "col1": "Ribot",
        "col2": "Prince John",
        "col3": "L. C. II"
    },
    {
        "col0": "Captain's Gig",
        "col1": "Royal Charger",
        "col2": "Ambiorix",
        "col3": "C. H. Stable"
    },
    {
        "col0": "Cape Verdi",
        "col1": "Nijinsky II",
        "col2": "Sagace",
        "col3": "R. Sangster"
    },
    {
        "col0": "Cannonade",
        "col1": "Bold Ruler",
        "col2": "Ribot",
        "col3": "J. M. Olin"
    },
    {
        "col0": "Candy Eclair",
        "col1": "Northern Dancer",
        "col2": "Candy Spots",
        "col3": "A. W. Paxson"
    },
    {
        "col0": "Cameronian",
        "col1": "Phalaris",
        "col2": "Gainsborough",
        "col3": "Thomas Dewar, 1st Baron Dewar"
    },
    {
        "col0": "Camelot",
        "col1": "Sadler's Wells",
        "col2": "Kingmambo",
        "col3": "Abdullah Bin Hamad Bin Isa Al-Khalifa"
    },
    {
        "col0": "Camel",
        "col1": "Waxy",
        "col2": "Selim",
        "col3": "George Wyndham, 3rd Earl of Egremont"
    },
    {
        "col0": "Cambremer",
        "col1": "Precipitation",
        "col2": "Easton",
        "col3": "R. Strassburger"
    },
    {
        "col0": "Caerleon",
        "col1": "Northern Dancer",
        "col2": "Round Table",
        "col3": "C. Farm"
    },
    {
        "col0": "Cacique",
        "col1": "Danzig",
        "col2": "Kahyasi",
        "col3": "J. Farms"
    },
    {
        "col0": "Byword",
        "col1": "Nureyev",
        "col2": "Woodman",
        "col3": "J. Farms"
    },
    {
        "col0": "Busybody",
        "col1": "Lord Clifden",
        "col2": "Macaroni",
        "col3": "Evelyn Boscawen, 6th Viscount Falmouth"
    },
    {
        "col0": "Buskin",
        "col1": "Hanover",
        "col2": "Meddler",
        "col3": "H. P. Whitney"
    },
    {
        "col0": "Bushranger",
        "col1": "The Tetrarch",
        "col2": "Man o' War",
        "col3": "J. E. Widener"
    },
    {
        "col0": "Busher",
        "col1": "Man o' War",
        "col2": "Bubbling Over",
        "col3": "Idle Hour Stock Farm"
    },
    {
        "col0": "Busanda",
        "col1": "Man o' War",
        "col2": "Blue Larkspur",
        "col3": "O. Phipps"
    },
    {
        "col0": "Bull Dog",
        "col1": "Ajax",
        "col2": "Spearmint",
        "col3": "J. D. Cohn"
    },
    {
        "col0": "Buena Vista",
        "col1": "Sunday Silence",
        "col2": "Caerleon",
        "col3": "N. Farm"
    },
    {
        "col0": "Buckpasser",
        "col1": "Menow",
        "col2": "War Admiral",
        "col3": "O. Phipps"
    },
    {
        "col0": "Bubbling Over",
        "col1": "Sunstar",
        "col2": "Sweep",
        "col3": "Idle Hour Stock Farm"
    },
    {
        "col0": "Bryan G.",
        "col1": "Blandford",
        "col2": "Pompey",
        "col3": "C. Chenery"
    },
    {
        "col0": "Brown Panther",
        "col1": "Monsun",
        "col2": "Unfuwain",
        "col3": "M. Owen"
    },
    {
        "col0": "Broomspun",
        "col1": "Ben Brush",
        "col2": "Rock Sand",
        "col3": "H. P. Whitney"
    },
    {
        "col0": "Brief Truce",
        "col1": "Riverman",
        "col2": "Northern Dancer",
        "col3": "M. Stud"
    },
    {
        "col0": "Brian Boru",
        "col1": "Northern Dancer",
        "col2": "Alleged",
        "col3": "J. Farms"
    },
    {
        "col0": "Bowling Brook",
        "col1": "Hampton",
        "col2": "Tom Ochiltree",
        "col3": "J. A. Morris"
    },
    {
        "col0": "Bowl of Flowers",
        "col1": "Eight Thirty",
        "col2": "Alibhai",
        "col3": "B. Stable"
    },
    {
        "col0": "Boucher",
        "col1": "Tenerani",
        "col2": "Nasrullah",
        "col3": "O. Phipps"
    },
    {
        "col0": "Bostonian",
        "col1": "Ben Brush",
        "col2": "Peter Pan I",
        "col3": "H. P. Whitney"
    },
    {
        "col0": "Boston Harbor",
        "col1": "Seattle Slew",
        "col2": "Vice Regent",
        "col3": "O. Farm"
    },
    {
        "col0": "Bona Vista",
        "col1": "Doncaster",
        "col2": "Macaroni",
        "col3": "Archibald Primrose, 5th Earl of Rosebery"
    },
    {
        "col0": "Boldnesian",
        "col1": "Nasrullah",
        "col2": "Polynesian",
        "col3": "W. H. Perry"
    },
    {
        "col0": "Bold Ruler",
        "col1": "Nearco",
        "col2": "Discovery",
        "col3": "W. Stable"
    },
    {
        "col0": "Bold Lad",
        "col1": "Nasrullah",
        "col2": "Princequillo",
        "col3": "W. Stable"
    },
    {
        "col0": "Bob and John",
        "col1": "Mr. Prospector",
        "col2": "Deputy Minister",
        "col3": "S. Stable"
    },
    {
        "col0": "Blue Light",
        "col1": "Flares",
        "col2": "Blenheim II",
        "col3": "E. P. Taylor"
    },
    {
        "col0": "Blue Duster",
        "col1": "Northern Dancer",
        "col2": "Habitat",
        "col3": "D. Stud"
    },
    {
        "col0": "Blame",
        "col1": "Kris S.",
        "col2": "Seeking the Gold",
        "col3": "C. Farm"
    },
    {
        "col0": "Blacklegs",
        "col1": "Darley Arabian",
        "col2": "Basto",
        "col3": "William Cavendish, 2nd Duke of Devonshire"
    },
    {
        "col0": "Black Toney",
        "col1": "Commando",
        "col2": "Ben Brush",
        "col3": "J. R. Keene"
    }
]