[
    {
        "col0": "V. Lember",
        "col1": "Estonia",
        "col2": "Estonia men's national volleyball team",
        "col3": "Estonia",
        "col4": "1977-11-29"
    },
    {
        "col0": "V. Kacharava",
        "col1": "Soviet Union",
        "col2": "Soviet Union",
        "col3": "Tbilisi",
        "col4": "1937-01-02"
    },
    {
        "col0": "V. Xerovasilas",
        "col1": "Greece",
        "col2": "Greece men's national volleyball team",
        "col3": "Kalamata",
        "col4": "1963-05-25"
    },
    {
        "col0": "V. Kournetas",
        "col1": "Greece men's national volleyball team",
        "col2": "Greece men's national volleyball team",
        "col3": "Greece men's national volleyball team",
        "col4": "1976-08-02"
    },
    {
        "col0": "V. Palacios",
        "col1": "Peru",
        "col2": "Peru women's national volleyball team",
        "col3": "Lima",
        "col4": "1984-07-03"
    },
    {
        "col0": "V. Losev",
        "col1": "Kyrgyzstan",
        "col2": "Soviet Union",
        "col3": "Kyrgyz SSR",
        "col4": "1956-02-28"
    },
    {
        "col0": "V. Komarov",
        "col1": "Russia",
        "col2": "Russia men's national volleyball team",
        "col3": "Dubna",
        "col4": "1980-03-21"
    },
    {
        "col0": "V. Mammadova",
        "col1": "Azerbaijan",
        "col2": "Azerbaijan women's national volleyball team",
        "col3": "Baku",
        "col4": "1984-01-29"
    },
    {
        "col0": "V. Kryvov",
        "col1": "Russia",
        "col2": "Soviet Union",
        "col3": "Belarus",
        "col4": "1951-09-29"
    },
    {
        "col0": "V. Caracuta",
        "col1": "Italy",
        "col2": "Italy women's national volleyball team",
        "col3": "San Pietro Vernotico",
        "col4": "1987-12-14"
    },
    {
        "col0": "V. Kalachikhin",
        "col1": "Russia",
        "col2": "Soviet Union",
        "col3": "Russia",
        "col4": "1939-05-20"
    },
    {
        "col0": "V. Goryushev",
        "col1": "Russia",
        "col2": "Russia men's national volleyball team",
        "col3": "Yekaterinburg",
        "col4": "1974-4-26"
    },
    {
        "col0": "V. Zago",
        "col1": "Italy",
        "col2": "Italy women's national volleyball team",
        "col3": "Stra",
        "col4": "1990-02-21"
    },
    {
        "col0": "V. Tirozzi",
        "col1": "Italy",
        "col2": "Italy women's national volleyball team",
        "col3": "Avellino",
        "col4": "1986-03-26"
    },
    {
        "col0": "V. Serena",
        "col1": "Italy",
        "col2": "Italy women's national volleyball team",
        "col3": "Italy",
        "col4": "1981-11-10"
    },
    {
        "col0": "V. Mishak",
        "col1": "Russia",
        "col2": "Soviet Union",
        "col3": "Russia",
        "col4": "1942-01-16"
    },
    {
        "col0": "V. Golubev",
        "col1": "Russia",
        "col2": "Russia men's national volleyball team",
        "col3": "Khabarovsk Krai",
        "col4": "1992-5-3"
    },
    {
        "col0": "V. Bratoev",
        "col1": "Bulgaria",
        "col2": "Bulgaria men's national volleyball team",
        "col3": "Bulgaria",
        "col4": "1987-10-21"
    },
    {
        "col0": "V. Pankov",
        "col1": "Russia",
        "col2": "Russia women's national volleyball team",
        "col3": "Moscow",
        "col4": "1964-06-01"
    },
    {
        "col0": "V. Tavana",
        "col1": "United States",
        "col2": "United States men's national volleyball team",
        "col3": "Auckland",
        "col4": "1987-09-25"
    },
    {
        "col0": "V. Batista",
        "col1": "Dominican Republic",
        "col2": "Dominican Republic men's national volleyball team",
        "col3": "Tamayo",
        "col4": "1979-10-02"
    },
    {
        "col0": "V. Hudima",
        "col1": "France",
        "col2": "France women's national volleyball team",
        "col3": "Kharkiv",
        "col4": "1988-07-08"
    },
    {
        "col0": "U. Steppin",
        "col1": "East Germany",
        "col2": "East Germany women's national volleyball team",
        "col3": "Crivitz",
        "col4": "1965-05-31"
    },
    {
        "col0": "T. Sanders",
        "col1": "Canada",
        "col2": "Canada men's national volleyball team",
        "col3": "Manitoba",
        "col4": "1991-12-14"
    },
    {
        "col0": "T. Hildebrand",
        "col1": "United States men's national volleyball team",
        "col2": "United States men's national volleyball team",
        "col3": "Mesa, Arizona",
        "col4": "1984-02-28"
    },
    {
        "col0": "T. Wiltenburg",
        "col1": "Netherlands",
        "col2": "Netherlands men's national volleyball team",
        "col3": "Zevenhuizen, Zuidplas",
        "col4": "1997-01-20"
    },
    {
        "col0": "T. Zhukouski",
        "col1": "Croatia",
        "col2": "Croatia men's national volleyball team",
        "col3": "Minsk",
        "col4": "1989-12-18"
    },
    {
        "col0": "T. Clevenot",
        "col1": "France",
        "col2": "France men's national volleyball team",
        "col3": "France",
        "col4": "1994-06-28"
    },
    {
        "col0": "T. Stalls",
        "col1": "United States",
        "col2": "United States women's national volleyball team",
        "col3": "Wheat Ridge, Colorado",
        "col4": "1984-06-12"
    },
    {
        "col0": "T. Clevenot",
        "col1": "France",
        "col2": "France men's national volleyball team",
        "col3": "France",
        "col4": "1994-06-28"
    },
    {
        "col0": "T. Schiewe",
        "col1": "Germany",
        "col2": "Germany men's national sitting volleyball team",
        "col3": "Celle",
        "col4": "1985-03-11"
    },
    {
        "col0": "T. v. Lankvelt",
        "col1": "Canada",
        "col2": "Canada men's national volleyball team",
        "col3": "Manitoba",
        "col4": "1984-7-1"
    },
    {
        "col0": "T. Krolis",
        "col1": "Netherlands",
        "col2": "Netherlands men's national volleyball team",
        "col3": "Curacao",
        "col4": "1984-07-13"
    },
    {
        "col0": "T. Kovacevic",
        "col1": "Croatia",
        "col2": "Croatia men's national volleyball team",
        "col3": "Odzak",
        "col4": "1983-01-15"
    },
    {
        "col0": "T. Kmet",
        "col1": "Slovakia",
        "col2": "Slovakia men's national volleyball team",
        "col3": "Poprad",
        "col4": "1981-12-01"
    },
    {
        "col0": "T. A muc",
        "col1": "Slovenia",
        "col2": "Slovenia men's national volleyball team",
        "col3": "Ljubljana",
        "col4": "1976-06-23"
    },
    {
        "col0": "T. Rumpunen",
        "col1": "Finland",
        "col2": "Finland men's national volleyball team",
        "col3": "Raisio",
        "col4": "1987-04-11"
    },
    {
        "col0": "T. Polczyk",
        "col1": "Poland",
        "col2": "Poland men's national under-19 volleyball team",
        "col3": "Poland",
        "col4": "1997-02-13"
    },
    {
        "col0": "T. Rousseaux",
        "col1": "Belgium",
        "col2": "Belgium men's national volleyball team",
        "col3": "Jette",
        "col4": "1994-03-31"
    },
    {
        "col0": "T. Strohbach",
        "col1": "Germany",
        "col2": "Germany men's national volleyball team",
        "col3": "Schwerin",
        "col4": "1992-05-27"
    },
    {
        "col0": "T. Kmet",
        "col1": "Slovakia",
        "col2": "Slovakia men's national volleyball team",
        "col3": "Poprad",
        "col4": "1981-12-01"
    },
    {
        "col0": "T. Skrimov",
        "col1": "Bulgarians",
        "col2": "Bulgaria women's national volleyball team",
        "col3": "Bulgaria",
        "col4": "1990-01-09"
    },
    {
        "col0": "T. Takaniko",
        "col1": "France",
        "col2": "France men's national volleyball team",
        "col3": "Alo",
        "col4": "1985-05-29"
    },
    {
        "col0": "T. Sustring",
        "col1": "Netherlands",
        "col2": "Netherlands women's national volleyball team",
        "col3": "Netherlands",
        "col4": "1979-04-27"
    },
    {
        "col0": "T. Gollan",
        "col1": "Germany",
        "col2": "Germany women's national volleyball team",
        "col3": "Potsdam",
        "col4": "1984-10-09"
    },
    {
        "col0": "T. Changkeaw",
        "col1": "Thailand",
        "col2": "Thailand women's national volleyball team",
        "col3": "Thailand",
        "col4": "1984-12-12"
    },
    {
        "col0": "T. Raju",
        "col1": "India",
        "col2": "India women's national volleyball team",
        "col3": "Kerala",
        "col4": "1986-07-27"
    },
    {
        "col0": "T. Vlam",
        "col1": "Netherlands",
        "col2": "Netherlands men's national volleyball team",
        "col3": "Almere",
        "col4": "1985-10-09"
    },
    {
        "col0": "T. Milojevic",
        "col1": "Serbia",
        "col2": "Serbia women's national volleyball team",
        "col3": "Serbia",
        "col4": "1998-09-10"
    },
    {
        "col0": "T. Malesevic",
        "col1": "Serbian nationality law",
        "col2": "Serbia women's national volleyball team",
        "col3": "Socialist Federal Republic of Yugoslavia",
        "col4": "1991-03-18"
    },
    {
        "col0": "T. Lopes",
        "col1": "Brazil",
        "col2": "Brazil men's national volleyball team",
        "col3": "Brasilia",
        "col4": "1983-08-31"
    },
    {
        "col0": "T. Zass",
        "col1": "Austria",
        "col2": "Austria men's national volleyball team",
        "col3": "St. Johann in Tirol",
        "col4": "1989-11-27"
    },
    {
        "col0": "T. Kroger",
        "col1": "Germany women's national volleyball team",
        "col2": "Germany women's national volleyball team",
        "col3": "Melle, Germany",
        "col4": "1979-06-11"
    },
    {
        "col0": "T. Beretta",
        "col1": "Italy",
        "col2": "Italy men's national volleyball team",
        "col3": "Milan",
        "col4": "1990-04-18"
    },
    {
        "col0": "T. t. Horst",
        "col1": "Netherlands",
        "col2": "Netherlands men's national volleyball team",
        "col3": "Almelo",
        "col4": "1991-09-18"
    },
    {
        "col0": "T. Chatziantoniou",
        "col1": "Greece women's national volleyball team",
        "col2": "Greece women's national volleyball team",
        "col3": "Greece",
        "col4": "1974-03-16"
    },
    {
        "col0": "T. Baev",
        "col1": "Greece",
        "col2": "Greece men's national volleyball team",
        "col3": "Nova Zagora",
        "col4": "1977-05-31"
    },
    {
        "col0": "T. Menezes",
        "col1": "Brazil",
        "col2": "Brazil women's national volleyball team",
        "col3": "Brazil",
        "col4": "1987-05-15"
    },
    {
        "col0": "T. Barbosa",
        "col1": "Brazil",
        "col2": "Brazil women's national volleyball team",
        "col3": "Rio de Janeiro",
        "col4": "1980-02-03"
    },
    {
        "col0": "T. Menezes",
        "col1": "Brazil",
        "col2": "Brazil women's national volleyball team",
        "col3": "Brazil",
        "col4": "1987-05-15"
    },
    {
        "col0": "T. Barbosa",
        "col1": "Brazil",
        "col2": "Brazil women's national volleyball team",
        "col3": "Rio de Janeiro",
        "col4": "1980-02-03"
    },
    {
        "col0": "T. Lopes",
        "col1": "Brazil",
        "col2": "Brazil men's national volleyball team",
        "col3": "Brasilia",
        "col4": "1983-08-31"
    },
    {
        "col0": "T. Voronina",
        "col1": "Ukraine",
        "col2": "Ukraine women's national volleyball team",
        "col3": "Zaporizhia",
        "col4": "1977-10-20"
    },
    {
        "col0": "T. Polder",
        "col1": "Netherlands",
        "col2": "Netherlands women's national volleyball team",
        "col3": "Capelle aan den IJssel",
        "col4": "1997-10-10"
    },
    {
        "col0": "T. Vanzurova",
        "col1": "Czech Republic",
        "col2": "Czech Republic women's national volleyball team",
        "col3": "BeneA!ov",
        "col4": "1991-04-04"
    },
    {
        "col0": "T. Tobiasova",
        "col1": "Czech Republic",
        "col2": "Czech Republic women's national volleyball team",
        "col3": "Brno",
        "col4": "1974-04-10"
    },
    {
        "col0": "T. Matuszkova",
        "col1": "Czech Republic",
        "col2": "Czech Republic women's national volleyball team",
        "col3": "Ostrava",
        "col4": "1982-12-03"
    },
    {
        "col0": "T. Todorov",
        "col1": "Bulgarians",
        "col2": "Bulgaria women's national volleyball team",
        "col3": "Bulgaria",
        "col4": "1989-09-01"
    },
    {
        "col0": "T. Menchova",
        "col1": "Russia",
        "col2": "Russia women's national volleyball team",
        "col3": "Temirtau",
        "col4": "1970-01-27"
    },
    {
        "col0": "T. Kraynova",
        "col1": "Russia",
        "col2": "Soviet Union",
        "col3": "Saint Petersburg",
        "col4": "1967-06-07"
    },
    {
        "col0": "T. Gracheva",
        "col1": "Russia",
        "col2": "Russia women's national volleyball team",
        "col3": "Yekaterinburg",
        "col4": "1973-02-23"
    },
    {
        "col0": "T. Yoneyama",
        "col1": "Japan",
        "col2": "Japan men's national volleyball team",
        "col3": "Saitama Prefecture",
        "col4": "1986-09-23"
    },
    {
        "col0": "T. Markevitch",
        "col1": "Belarus",
        "col2": "Belarus women's national volleyball team",
        "col3": "Brest, Belarus",
        "col4": "1988-03-25"
    },
    {
        "col0": "T. Zautys",
        "col1": "Germany",
        "col2": "Germany women's national volleyball team",
        "col3": "Stuttgart",
        "col4": "1980-05-04"
    },
    {
        "col0": "T. Kosheleva",
        "col1": "Russia",
        "col2": "Russia",
        "col3": "Minsk",
        "col4": "1988-12-23"
    },
    {
        "col0": "T. Gorchkova",
        "col1": "Russia",
        "col2": "Russia women's national volleyball team",
        "col3": "Simferopol",
        "col4": "1981-03-08"
    },
    {
        "col0": "T. Crkonova",
        "col1": "Slovakia",
        "col2": "Slovakia women's national volleyball team",
        "col3": "Povazska Bystrica",
        "col4": "1992-01-07"
    },
    {
        "col0": "T. Artmenko",
        "col1": "Israel",
        "col2": "Israel women's national volleyball team",
        "col3": "Odessa",
        "col4": "1976-09-02"
    },
    {
        "col0": "T. Hinchley",
        "col1": "Australia",
        "col2": "Australia women's national volleyball team",
        "col3": "Adelaide",
        "col4": "1980-03-10"
    },
    {
        "col0": "T. Tikhonina",
        "col1": "Russia",
        "col2": "Soviet Union",
        "col3": "Moscow",
        "col4": "1934-2-22"
    },
    {
        "col0": "T. Kaliszuk",
        "col1": "Poland",
        "col2": "Poland women's national volleyball team",
        "col3": "Elblag",
        "col4": "1990-03-20"
    },
    {
        "col0": "T. Kitajima",
        "col1": "Japan",
        "col2": "Japan men's national volleyball team",
        "col3": "Sasebo, Nagasaki",
        "col4": "1977-12-05"
    },
    {
        "col0": "T. Kihara",
        "col1": "Japan",
        "col2": "Japan men's national volleyball team",
        "col3": "Kitakyushu",
        "col4": "1974-09-13"
    },
    {
        "col0": "T. Narita",
        "col1": "Japan",
        "col2": "Japan men's national volleyball team",
        "col3": "Noboribetsu, Hokkaido",
        "col4": "1969-10-06"
    },
    {
        "col0": "T. Dekita",
        "col1": "Japan",
        "col2": "Japan men's national volleyball team",
        "col3": "Sapporo",
        "col4": "1991-08-13"
    },
    {
        "col0": "T. Tomimatsu",
        "col1": "Japan",
        "col2": "Japan men's national volleyball team",
        "col3": "Osaki, Miyagi",
        "col4": "1984-07-20"
    },
    {
        "col0": "T. Aguero",
        "col1": "Italy",
        "col2": "Italy women's national volleyball team",
        "col3": "Sancti Spiritus",
        "col4": "1977-03-05"
    },
    {
        "col0": "T. Yamamoto",
        "col1": "Japan",
        "col2": "Japan men's national volleyball team",
        "col3": "Saitama, Saitama",
        "col4": "1979-01-06"
    },
    {
        "col0": "T. Sasaki",
        "col1": "Japan",
        "col2": "Japan men's national volleyball team",
        "col3": "Japan",
        "col4": "1971-12-14"
    },
    {
        "col0": "T. Tere",
        "col1": "France",
        "col2": "France women's national volleyball team",
        "col3": "Afaahiti",
        "col4": "1986-05-27"
    },
    {
        "col0": "S. Szewczyk",
        "col1": "France",
        "col2": "France women's national volleyball team",
        "col3": "Seclin",
        "col4": "1976-06-29"
    },
    {
        "col0": "S. Lienard",
        "col1": "France",
        "col2": "France women's national volleyball team",
        "col3": "Valenciennes",
        "col4": "1979-02-19"
    },
    {
        "col0": "S. Ruette",
        "col1": "Canada",
        "col2": "Canada men's national volleyball team",
        "col3": "Nicolet, Quebec",
        "col4": "1977-06-22"
    },
    {
        "col0": "S. Kantor",
        "col1": "Hungary",
        "col2": "Hungary men's national volleyball team",
        "col3": "Kaposvar",
        "col4": "1971-02-01"
    },
    {
        "col0": "S. Roll",
        "col1": "Germany",
        "col2": "Germany women's national volleyball team",
        "col3": "Schwerin",
        "col4": "1973-05-29"
    },
    {
        "col0": "S. Gotsev",
        "col1": "Bulgaria",
        "col2": "Bulgaria men's national volleyball team",
        "col3": "Pernik",
        "col4": "1990-8-31"
    },
    {
        "col0": "S. Sourtseva",
        "col1": "Russia",
        "col2": "Russia women's national volleyball team",
        "col3": "Chelyabinsk",
        "col4": "1984-04-10"
    },
    {
        "col0": "S. Korytova",
        "col1": "Russia",
        "col2": "Russia",
        "col3": "Russia",
        "col4": "1968-03-24"
    },
    {
        "col0": "S. Engelhardt",
        "col1": "Germany",
        "col2": "Germany women's national volleyball team",
        "col3": "Heidelberg",
        "col4": "1988-04-20"
    },
    {
        "col0": "S. Takayama",
        "col1": "Japanese people",
        "col2": "Japan",
        "col3": "Japan",
        "col4": "1946-12-12"
    },
    {
        "col0": "S. Cebic",
        "col1": "Serbia",
        "col2": "Serbia women's national volleyball team",
        "col3": "Socialist Federal Republic of Yugoslavia",
        "col4": "1984-11-04"
    },
    {
        "col0": "S. Chuewulim",
        "col1": "Thailand",
        "col2": "Thailand women's national volleyball team",
        "col3": "Thailand",
        "col4": "1992-12-19"
    },
    {
        "col0": "Susan van den Heuvel",
        "col1": "Netherlands",
        "col2": "Netherlands women's national volleyball team",
        "col3": "Amsterdam",
        "col4": "1984-02-22"
    },
    {
        "col0": "S. Boonyuen",
        "col1": "Thailand",
        "col2": "Thailand women's national volleyball team",
        "col3": "Thailand",
        "col4": "1991-10-31"
    }
]