[
    {
        "col0": "Madrid-Leon high-speed rail line",
        "col1": "Leon, Spain",
        "col2": "Madrid Chamartin railway station",
        "col3": "342300"
    },
    {
        "col0": "Madrid-Barcelona high-speed rail line",
        "col1": "Barcelona Sants railway station",
        "col2": "Madrid Atocha railway station",
        "col3": "620900"
    },
    {
        "col0": "Madhupur Giridih Rail Line",
        "col1": "Giridih",
        "col2": "Madhupur Junction",
        "col3": "149000"
    },
    {
        "col0": "Macclesfield, Bollington and Marple Railway",
        "col1": "Macclesfield",
        "col2": "Marple, Greater Manchester",
        "col3": "17702"
    },
    {
        "col0": "Maastricht-Venlo railway",
        "col1": "Venlo railway station",
        "col2": "Maastricht railway station",
        "col3": "70000"
    },
    {
        "col0": "MRT Purple Line",
        "col1": "Bang Bua Thong District",
        "col2": "Bang Sue District",
        "col3": "23000"
    },
    {
        "col0": "MRT Orange Line",
        "col1": "Khet Min Buri",
        "col2": "Khet Taling Chan",
        "col3": "37500"
    },
    {
        "col0": "MRT Blue Line",
        "col1": "Bang Sue MRT Station",
        "col2": "Hua Lamphong MRT Station",
        "col3": "21000"
    },
    {
        "col0": "MIA Mover",
        "col1": "Miami Central Station",
        "col2": "Miami International Airport",
        "col3": "2043"
    },
    {
        "col0": "METRORail Purple Line",
        "col1": "Palm Center Transit Center",
        "col2": "Theater District",
        "col3": "10621"
    },
    {
        "col0": "METRORail Green Line",
        "col1": "Altic/Howard Hughes",
        "col2": "Theater District",
        "col3": "5310"
    },
    {
        "col0": "MAX Yellow Line",
        "col1": "Expo Center",
        "col2": "PSU South MAX station",
        "col3": "9334"
    },
    {
        "col0": "MAX Red Line",
        "col1": "Portland International Airport",
        "col2": "Beaverton Transit Center",
        "col3": "41038"
    },
    {
        "col0": "MAX Orange Line",
        "col1": "Milwaukie, Oregon",
        "col2": "Union Station / Northwest 6th & Hoyt Street and Union Station / Northwest 5th & Glisan Street",
        "col3": "11748"
    },
    {
        "col0": "MAX Blue Line",
        "col1": "Cleveland Avenue",
        "col2": "Hatfield Government Center",
        "col3": "52625"
    },
    {
        "col0": "M7",
        "col1": "Bagcilar",
        "col2": "Kabatas, Istanbul",
        "col3": "24500"
    },
    {
        "col0": "M5",
        "col1": "Cekmekoy",
        "col2": "Uskudar",
        "col3": "20000"
    },
    {
        "col0": "M3",
        "col1": "Basaksehir",
        "col2": "Bagcilar",
        "col3": "15900"
    },
    {
        "col0": "M2",
        "col1": "Sariyer",
        "col2": "Yenikapi",
        "col3": "23500"
    },
    {
        "col0": "M2",
        "col1": "Vanlose station",
        "col2": "Lufthavnen station",
        "col3": "14200"
    },
    {
        "col0": "M1",
        "col1": "Vanlose station",
        "col2": "Vestamager station",
        "col3": "14300"
    },
    {
        "col0": "Muglitz Valley Railway",
        "col1": "Kurort Altenberg",
        "col2": "Heidenau railway station",
        "col3": "38000"
    },
    {
        "col0": "Malaren Line",
        "col1": "Frovi",
        "col2": "Stockholm",
        "col3": "187000"
    },
    {
        "col0": "Loren Line",
        "col1": "Okern",
        "col2": "Sinsen",
        "col3": "1600"
    },
    {
        "col0": "Lotschberg railway line",
        "col1": "Brig railway station",
        "col2": "Spiez railway station",
        "col3": "74000"
    },
    {
        "col0": "Lyublinsko-Dmitrovskaya Line",
        "col1": "Zyablikovo",
        "col2": "Maryina Roshcha",
        "col3": "33400"
    },
    {
        "col0": "Lyttelton Line",
        "col1": "Christchurch railway station",
        "col2": "Lyttelton Railway Station",
        "col3": "10000"
    },
    {
        "col0": "Lyon-Geneva railway",
        "col1": "Gare de Cornavin",
        "col2": "Gare de Lyon-Perrache",
        "col3": "167600"
    },
    {
        "col0": "Lynx Blue Line",
        "col1": "I-485 / South Boulevard",
        "col2": "University of North Carolina at Charlotte",
        "col3": "15449"
    },
    {
        "col0": "Luzhou Line, Taipei Metro",
        "col1": "Daqiaotou Station",
        "col2": "Luzhou Station",
        "col3": "6400"
    },
    {
        "col0": "Lumding-Dibrugarh section",
        "col1": "Dibrugarh railway station",
        "col2": "Lumding railway station",
        "col3": "376000"
    },
    {
        "col0": "Lumding Agartala Rail Line",
        "col1": "Agartala",
        "col2": "Lumding",
        "col3": "412000"
    },
    {
        "col0": "Lumding-Dibrugarh section",
        "col1": "Dibrugarh railway station",
        "col2": "Lumding railway station",
        "col3": "376000"
    },
    {
        "col0": "Luino-Oleggio railway",
        "col1": "Oleggio",
        "col2": "Luino",
        "col3": "51000"
    },
    {
        "col0": "Lugano-Tesserete railway",
        "col1": "Tesserete",
        "col2": "Lugano",
        "col3": "7800"
    },
    {
        "col0": "Lugano-Cadro-Dino railway",
        "col1": "Dino, Switzerland",
        "col2": "Lugano",
        "col3": "7800"
    },
    {
        "col0": "Lugano-Tesserete railway",
        "col1": "Tesserete",
        "col2": "Lugano",
        "col3": "7800"
    },
    {
        "col0": "Lugano-Cadro-Dino railway",
        "col1": "Dino, Switzerland",
        "col2": "Lugano",
        "col3": "7800"
    },
    {
        "col0": "Lucknow-Kanpur Suburban Railway",
        "col1": "Kanpur Central railway station",
        "col2": "Lucknow Charbagh railway station",
        "col3": "72000"
    },
    {
        "col0": "Luanda Railway",
        "col1": "Malanje",
        "col2": "Luanda",
        "col3": "424000"
    },
    {
        "col0": "Loxton railway line",
        "col1": "Loxton, South Australia",
        "col2": "Tailem Bend, South Australia",
        "col3": "271000"
    },
    {
        "col0": "Lowell Line",
        "col1": "North Station",
        "col2": "Lowell",
        "col3": "40877"
    },
    {
        "col0": "Lopburi Line",
        "col1": "Lop Buri Railway Station",
        "col2": "Hua Lamphong Railway Station",
        "col3": "132810"
    },
    {
        "col0": "Longueau-Boulogne railway",
        "col1": "Gare de Boulogne-Ville",
        "col2": "Gare de Longueau",
        "col3": "171000"
    },
    {
        "col0": "Long Beach",
        "col1": "Downtown Long Beach, California",
        "col2": "Downtown Los Angeles",
        "col3": "32782"
    },
    {
        "col0": "London Necropolis Railway",
        "col1": "Brookwood Cemetery",
        "col2": "London Necropolis railway station",
        "col3": "38624"
    },
    {
        "col0": "London, Tilbury and Southend Railway",
        "col1": "Shoeburyness railway station",
        "col2": "Fenchurch street railway station",
        "col3": "62764"
    },
    {
        "col0": "Lodhran-Raiwind Branch Line",
        "col1": "Raiwind Junction railway station",
        "col2": "Lodhran Junction railway station",
        "col3": "125000"
    },
    {
        "col0": "Lodhran-Khanewal Branch Line",
        "col1": "Khanewal Junction railway station",
        "col2": "Lodhran Junction railway station",
        "col3": "91000"
    },
    {
        "col0": "Lodhran-Raiwind Branch Line",
        "col1": "Raiwind Junction railway station",
        "col2": "Lodhran Junction railway station",
        "col3": "125000"
    },
    {
        "col0": "Lodhran-Khanewal Branch Line",
        "col1": "Khanewal Junction railway station",
        "col2": "Lodhran Junction railway station",
        "col3": "91000"
    },
    {
        "col0": "Llobregat-Anoia Line",
        "col1": "Igualada",
        "col2": "Placa d'Espanya station",
        "col3": "138000"
    },
    {
        "col0": "Llantrisant-Aberthaw line",
        "col1": "Aberthaw",
        "col2": "Pontyclun",
        "col3": "19312"
    },
    {
        "col0": "Liege-Maastricht railway",
        "col1": "Maastricht railway station",
        "col2": "Liege-Guillemins railway station",
        "col3": "29000"
    },
    {
        "col0": "Livoberezhna Line",
        "col1": "Troieschyna-2",
        "col2": "Myloslavska",
        "col3": "13200"
    },
    {
        "col0": "Liverpool-Parramatta T-way",
        "col1": "Parramatta railway station",
        "col2": "Liverpool railway station",
        "col3": "30000"
    },
    {
        "col0": "Liujia Line",
        "col1": "Liujia Station",
        "col2": "Zhudong, Hsinchu",
        "col3": "3100"
    },
    {
        "col0": "Little North Line",
        "col1": "Helsingor station",
        "col2": "Hillerod station",
        "col3": "20800"
    },
    {
        "col0": "List of MARTA rail stations",
        "col1": "Airport",
        "col2": "Edgewood/Candler Park",
        "col3": "77248"
    },
    {
        "col0": "Linkou Line",
        "col1": "Linkou District",
        "col2": "Taoyuan Station",
        "col3": "18400"
    },
    {
        "col0": "Line S8",
        "col1": "Milano Porta Garibaldi railway station",
        "col2": "Lecco railway station",
        "col3": "50000"
    },
    {
        "col0": "Line S6",
        "col1": "Treviglio railway station",
        "col2": "Novara railway station",
        "col3": "84000"
    },
    {
        "col0": "Line S5",
        "col1": "Treviglio railway station",
        "col2": "Varese railway station",
        "col3": "93000"
    },
    {
        "col0": "Line S4",
        "col1": "Milano Cadorna railway station",
        "col2": "Camnago-Lentate railway station",
        "col3": "23000"
    },
    {
        "col0": "Line S3",
        "col1": "Milano Cadorna railway station",
        "col2": "Saronno railway station",
        "col3": "21000"
    },
    {
        "col0": "Line S2",
        "col1": "Milano Rogoredo railway station",
        "col2": "Mariano Comense railway station",
        "col3": "34000"
    },
    {
        "col0": "Line S2, BCR",
        "col1": "Yanqing Railway Station",
        "col2": "Beijing North Railway Station",
        "col3": "77070"
    },
    {
        "col0": "Line S1",
        "col1": "Lodi railway station",
        "col2": "Saronno railway station",
        "col3": "55000"
    },
    {
        "col0": "Line S13",
        "col1": "Pavia railway station",
        "col2": "Milano Bovisa-Politecnico railway station",
        "col3": "32000"
    },
    {
        "col0": "Line H",
        "col1": "Hospitales",
        "col2": "Las Heras",
        "col3": "8000"
    },
    {
        "col0": "Line E",
        "col1": "Plaza de los Virreyes",
        "col2": "Bolivar",
        "col3": "9600"
    },
    {
        "col0": "Line D",
        "col1": "Congreso de Tucuman",
        "col2": "Catedral",
        "col3": "11000"
    },
    {
        "col0": "Line C",
        "col1": "Lodi",
        "col2": "Monte Compatri-Pantano",
        "col3": "18100"
    },
    {
        "col0": "Line C",
        "col1": "Constitucion",
        "col2": "Retiro",
        "col3": "4300"
    },
    {
        "col0": "Line B",
        "col1": "Laurentina",
        "col2": "Jonio",
        "col3": "18151"
    },
    {
        "col0": "Line B",
        "col1": "Juan Manuel de Rosas",
        "col2": "Leandro N. Alem",
        "col3": "11750"
    },
    {
        "col0": "Line A",
        "col1": "Anagnina",
        "col2": "Battistini",
        "col3": "18425"
    },
    {
        "col0": "Line A",
        "col1": "San Pedrito",
        "col2": "Plaza de Mayo",
        "col3": "9800"
    },
    {
        "col0": "Line 9, Tianjin Metro",
        "col1": "Donghai Road Station",
        "col2": "Tianjinzhan Station",
        "col3": "52760"
    },
    {
        "col0": "Line 9, Shanghai Metro",
        "col1": "Middle Yanggao Road Station",
        "col2": "Songjiang South Railway Station Station",
        "col3": "51700"
    },
    {
        "col0": "Line 9, Beijing Subway",
        "col1": "Guogongzhuang Station",
        "col2": "National Library Station",
        "col3": "16500"
    },
    {
        "col0": "Line 8, Shanghai Metro",
        "col1": "Shendu Highway Station",
        "col2": "Shiguang Road Station",
        "col3": "37400"
    },
    {
        "col0": "Line 8, Guangzhou Metro",
        "col1": "Wanshengwei Station",
        "col2": "Fenghuang Xincun Station",
        "col3": "14800"
    },
    {
        "col0": "Line 8, Beijing Subway",
        "col1": "Nanluoguxiang Station",
        "col2": "Zhuxinzhuang Station",
        "col3": "26600"
    },
    {
        "col0": "Line 7, Taipei Metro",
        "col1": "Huilong Station",
        "col2": "Chiang Kai-shek Memorial Hall Station",
        "col3": "22100"
    },
    {
        "col0": "Line 7, Shanghai Metro",
        "col1": "Huamu Road Station",
        "col2": "Meilan Lake Station",
        "col3": "44200"
    },
    {
        "col0": "Line 7, Guangzhou Metro",
        "col1": "Higher Education Mega Center South Station",
        "col2": "Guangzhou South Railway Station",
        "col3": "18600"
    },
    {
        "col0": "Line 6",
        "col1": "Sao Joaquim",
        "col2": "Brasilandia",
        "col3": "15900"
    },
    {
        "col0": "Line 6, Shanghai Metro",
        "col1": "Oriental Sports Center Station",
        "col2": "Gangcheng Road Station",
        "col3": "32318"
    },
    {
        "col0": "Line 6, Guangzhou Metro",
        "col1": "Changban Station",
        "col2": "Xunfenggang Station",
        "col3": "24500"
    },
    {
        "col0": "Line 6, Beijing Subway",
        "col1": "Lucheng Station",
        "col2": "Haidian Wuluju Station",
        "col3": "42800"
    },
    {
        "col0": "Line 5 Eglinton",
        "col1": "Kennedy",
        "col2": "Mount Dennis Station",
        "col3": "19000"
    },
    {
        "col0": "Line 5",
        "col1": "Adolfo Pinheiro",
        "col2": "Capao Redondo",
        "col3": "9600"
    },
    {
        "col0": "Line 5, Shenzhen Metro",
        "col1": "Huangbeiling Station",
        "col2": "Qianhaiwan Station",
        "col3": "40000"
    },
    {
        "col0": "Line 5, Shanghai Metro",
        "col1": "Minhang Development Zone Station",
        "col2": "Xinzhuang Station",
        "col3": "17200"
    },
    {
        "col0": "Line 5, Guangzhou Metro",
        "col1": "Wenchong Station",
        "col2": "Jiaokou Station",
        "col3": "31900"
    },
    {
        "col0": "Line 5, Beijing Subway",
        "col1": "Songjiazhuang Station",
        "col2": "Tiantongyuan North Station",
        "col3": "27600"
    },
    {
        "col0": "Line 5,",
        "col1": "Taipei Nangang Exhibition Center Station",
        "col2": "Dingpu Station",
        "col3": "28200"
    },
    {
        "col0": "Line 4 Sheppard",
        "col1": "Don Mills",
        "col2": "Sheppard-Yonge",
        "col3": "5500"
    },
    {
        "col0": "Line 4",
        "col1": "Paulista",
        "col2": "Butanta",
        "col3": "12800"
    },
    {
        "col0": "Line 4, Wuhan Metro",
        "col1": "Wuhan Railway Station",
        "col2": "Huangjinkou Station",
        "col3": "33230"
    },
    {
        "col0": "Line 4, Taipei Metro",
        "col1": "Nanshijiao Station",
        "col2": "Huilong Station",
        "col3": "31500"
    },
    {
        "col0": "Line 4, Shenzhen Metro",
        "col1": "Qinghu Station",
        "col2": "Futian Checkpoint Station",
        "col3": "19960"
    },
    {
        "col0": "Line 4, Hangzhou Metro",
        "col1": "Jinjiang Station",
        "col2": "Pengbu Station",
        "col3": "9600"
    },
    {
        "col0": "Line 4, Guangzhou Metro",
        "col1": "Huangcun Station",
        "col2": "Jinzhou Station",
        "col3": "43700"
    },
    {
        "col0": "Line 4, Beijing Subway",
        "col1": "Gongyixiqiao Station",
        "col2": "Anheqiao North Station",
        "col3": "28165"
    },
    {
        "col0": "Line 3 Scarborough",
        "col1": "McCowan",
        "col2": "Kennedy",
        "col3": "6400"
    },
    {
        "col0": "Line 3",
        "col1": "Corinthians-Itaquera",
        "col2": "Palmeiras-Barra Funda",
        "col3": "22000"
    },
    {
        "col0": "Line 3",
        "col1": "Aarey Milk Colony",
        "col2": "Cuffe Parade",
        "col3": "33050"
    },
    {
        "col0": "Line 3, Wuhan Metro",
        "col1": "Zhuanyang Boulevard Station",
        "col2": "Hongtu Boulevard Station",
        "col3": "33200"
    },
    {
        "col0": "Line 3, Tianjin Metro",
        "col1": "Nanzhan Station",
        "col2": "Xiaodian Station",
        "col3": "30755"
    },
    {
        "col0": "Line 3, Taipei Metro",
        "col1": "Xindian Station",
        "col2": "Songshan Station",
        "col3": "21500"
    },
    {
        "col0": "Line 3, Shenzhen Metro",
        "col1": "Shuanglong Station",
        "col2": "Yitian Station",
        "col3": "41660"
    },
    {
        "col0": "Line 3, Shanghai Metro",
        "col1": "Shanghai South Railway Station",
        "col2": "North Jiangyang Road Station",
        "col3": "40230"
    },
    {
        "col0": "Line 3, Qingdao Metro",
        "col1": "Qingdaobei Railway Station",
        "col2": "Qingdao Railway Station",
        "col3": "12000"
    },
    {
        "col0": "Line 3, Nanjing Metro",
        "col1": "Mozhoudonglu Station",
        "col2": "Linchang Station",
        "col3": "44100"
    },
    {
        "col0": "Line 3, Guangzhou Metro",
        "col1": "Airport South Station",
        "col2": "Panyu Square Station",
        "col3": "67300"
    },
    {
        "col0": "Line 3, Dalian Metro",
        "col1": "Jinshitan Station",
        "col2": "Dalian Station",
        "col3": "63450"
    }
]