[
    {
        "col0": "Thinking of You",
        "col1": "J. Messina",
        "col2": "Loggins and Messina",
        "col3": "138",
        "col4": "\"Till the Ends Meet\""
    },
    {
        "col0": "Thinking of You",
        "col1": "M. White",
        "col2": "Earth, Wind & Fire",
        "col3": "234",
        "col4": "\"Writing on the Wall\""
    },
    {
        "col0": "Thinking of Me",
        "col1": "O. Murs",
        "col2": "Olly Murs",
        "col3": "206",
        "col4": "\"Sophie\""
    },
    {
        "col0": "Thinking Out Loud",
        "col1": "E. Sheeran",
        "col2": "Ed Sheeran",
        "col3": "231",
        "col4": "\"I'm a Mess\""
    },
    {
        "col0": "Thinking It Over",
        "col1": "T. Lundon",
        "col2": "Liberty X",
        "col3": "242",
        "col4": "\"Greed\""
    },
    {
        "col0": "Thinking About You",
        "col1": "Kashif",
        "col2": "Whitney Houston",
        "col3": "243",
        "col4": "\"Someone for Me\""
    },
    {
        "col0": "Thinking About You",
        "col1": "N. Jones",
        "col2": "Norah Jones",
        "col3": "199",
        "col4": "\"2 Men\", \"Wish I Could\""
    },
    {
        "col0": "Thinkin' of a Rendezvous",
        "col1": "B. Braddock",
        "col2": "Johnny Duncan",
        "col3": "204",
        "col4": "Love Should Be Easy"
    },
    {
        "col0": "Thinkin' Problem",
        "col1": "A. Shamblin",
        "col2": "David Ball",
        "col3": "180",
        "col4": "\"Down at the Bottom of a Broken Heart\""
    },
    {
        "col0": "Thinkin' About You",
        "col1": "T. Shapiro",
        "col2": "Trisha Yearwood",
        "col3": "203",
        "col4": "\"Fairytale\""
    },
    {
        "col0": "Think of Me",
        "col1": "D. Rich",
        "col2": "Buck Owens",
        "col3": "135",
        "col4": "\"Heart of Glass\""
    },
    {
        "col0": "Think of Laura",
        "col1": "C. Cross",
        "col2": "Christopher Cross",
        "col3": "202",
        "col4": "\"Arthur's Theme (Best That You Can Do)\""
    },
    {
        "col0": "Think It Over",
        "col1": "C. Houston",
        "col2": "Cissy Houston",
        "col3": "201",
        "col4": "\"An Umbrella Song\""
    },
    {
        "col0": "Think It Over",
        "col1": "J. Allison",
        "col2": "The Crickets",
        "col3": "105",
        "col4": "Fool's Paradise"
    },
    {
        "col0": "Think I'm in Love",
        "col1": "E. Money",
        "col2": "Eddie Money",
        "col3": "189",
        "col4": "\"Drivin' Me Crazy\""
    },
    {
        "col0": "Think About the Way",
        "col1": "R. Zanetti",
        "col2": "Ian Campbell",
        "col3": "256",
        "col4": "Remix"
    },
    {
        "col0": "Think About Me",
        "col1": "C. McVie",
        "col2": "Fleetwood Mac",
        "col3": "164",
        "col4": "\"Save Me a Place\""
    },
    {
        "col0": "Think",
        "col1": "A. Franklin",
        "col2": "Aretha Franklin",
        "col3": "136",
        "col4": "\"You Send Me\""
    },
    {
        "col0": "Think",
        "col1": "J. Brown",
        "col2": "Lyn Collins",
        "col3": "198",
        "col4": "\"Ain't No Sunshine\""
    },
    {
        "col0": "Things Will Go My Way",
        "col1": "A. Band",
        "col2": "The Calling",
        "col3": "241",
        "col4": "When It All Falls Down"
    },
    {
        "col0": "Things We Lost in the Fire",
        "col1": "D. Smith",
        "col2": "Bastille",
        "col3": "241",
        "col4": "\"Icarus\" (Live fromQueens' College, Cambridge)"
    },
    {
        "col0": "Things Have Changed",
        "col1": "B. Dylan",
        "col2": "Bob Dylan",
        "col3": "217",
        "col4": "\"Blind Willie McTell\" (Live version)"
    },
    {
        "col0": "Things Don't Seem",
        "col1": "G. McDonough",
        "col2": "Australian Crawl",
        "col3": "235",
        "col4": "\"Big Fish\""
    },
    {
        "col0": "Things Can Only Get Better",
        "col1": "H. Jones",
        "col2": "Howard Jones",
        "col3": "209",
        "col4": "Why Look For The Key"
    },
    {
        "col0": "Things Are Tough All Over",
        "col1": "T. Bruce",
        "col2": "Shelby Lynne",
        "col3": "238",
        "col4": "\"I Walk the Line\""
    },
    {
        "col0": "Things",
        "col1": "B. Darin",
        "col2": "Bobby Darin",
        "col3": "153",
        "col4": "\"Jailer Bring Me Water\""
    },
    {
        "col0": "Thighs High",
        "col1": "T. Browne",
        "col2": "Tom Browne",
        "col3": "274",
        "col4": "\"Dreams of Lovin' You\" (7\")"
    },
    {
        "col0": "Thieves in the Temple",
        "col1": "Prince",
        "col2": "Prince",
        "col3": "12",
        "col4": "\"Temple House Dub\" (12\")"
    },
    {
        "col0": "Thieves Like Us",
        "col1": "A. Baker",
        "col2": "New Order",
        "col3": "396",
        "col4": "\"Lonesome Tonight\""
    },
    {
        "col0": "Thieves",
        "col1": "Z. Deschanel",
        "col2": "She & Him",
        "col3": "248",
        "col4": "\"I Knew It Would Happen This Way\""
    },
    {
        "col0": "Thief",
        "col1": "H. Maile",
        "col2": "Camouflage",
        "col3": "199",
        "col4": "\"Isolation\""
    },
    {
        "col0": "They Talk Shit About Me",
        "col1": "N. Kills",
        "col2": "M. Pokora",
        "col3": "209",
        "col4": "\"Forbidden Drive\""
    },
    {
        "col0": "They Suffocate at Night",
        "col1": "Pulp",
        "col2": "Pulp",
        "col3": "240",
        "col4": "Tunnel"
    },
    {
        "col0": "They Rage On",
        "col1": "D. Seals",
        "col2": "Dan Seals",
        "col3": "280",
        "col4": "\"Factory Town\""
    },
    {
        "col0": "They Killed Him",
        "col1": "K. Kristofferson",
        "col2": "Kris Kristofferson",
        "col3": "203",
        "col4": "\"Anthem '84\""
    },
    {
        "col0": "They Don't Know",
        "col1": "K. MacColl",
        "col2": "Kirsty MacColl",
        "col3": "180",
        "col4": "\"Motor On\""
    },
    {
        "col0": "They Don't Know",
        "col1": "J. B.",
        "col2": "Jon B.",
        "col3": "274",
        "col4": "\"Are U Still Down\""
    },
    {
        "col0": "They Dance Alone",
        "col1": "Sting",
        "col2": "Sting",
        "col3": "436",
        "col4": "\"Ellas Danzan Solas\""
    },
    {
        "col0": "They Can't Take Away Our Music",
        "col1": "War",
        "col2": "Eric Burdon & War",
        "col3": "240",
        "col4": "Home Cookin'"
    },
    {
        "col0": "They Asked About You",
        "col1": "F. Weller",
        "col2": "Reba McEntire",
        "col3": "192",
        "col4": "\"For Herself\""
    },
    {
        "col0": "They All Went to Mexico",
        "col1": "G. Brown",
        "col2": "Willie Nelson",
        "col3": "299",
        "col4": "\"Mudbone\""
    },
    {
        "col0": "They're Coming to Take Me Away, Ha-Haaa!",
        "col1": "J. Samuels",
        "col2": "Napoleon XIV",
        "col3": "130",
        "col4": "\"!aaaH-aH ,yawA eM ekaT oT gnimoC er'yehT\""
    },
    {
        "col0": "These Words",
        "col1": "N. Bedingfield",
        "col2": "Natasha Bedingfield",
        "col3": "216",
        "col4": "\"The One That Got Away\""
    },
    {
        "col0": "These Lips Don't Know How to Say Goodbye",
        "col1": "H. Howard",
        "col2": "Doug Stone",
        "col3": "211",
        "col4": "\"We Always Agree on Love\""
    },
    {
        "col0": "These Foolish Things",
        "col1": "E. Maschwitz",
        "col2": "Billie Holiday",
        "col3": "171",
        "col4": "\"(Can You) Feel It Part 1\""
    },
    {
        "col0": "These Eyes",
        "col1": "B. Cummings",
        "col2": "The Guess Who",
        "col3": "225",
        "col4": "\"Lightfoot\""
    },
    {
        "col0": "These Dreams",
        "col1": "B. Taupin",
        "col2": "Heart",
        "col3": "7",
        "col4": "\"All Eyes\""
    },
    {
        "col0": "These Days",
        "col1": "P. Thornalley",
        "col2": "Bardot",
        "col3": "220",
        "col4": "\"Higher Than Heaven\" (Live)"
    },
    {
        "col0": "These Boots Are Made for Walkin'",
        "col1": "L. Hazlewood",
        "col2": "Jessica Simpson",
        "col3": "162",
        "col4": "\"The City Never Sleeps at Night\""
    },
    {
        "col0": "These Arms of Mine",
        "col1": "O. Redding",
        "col2": "Otis Redding",
        "col3": "155",
        "col4": "\"Hey Hey Baby\""
    },
    {
        "col0": "These Are the Days of Our Lives",
        "col1": "Queen",
        "col2": "Queen",
        "col3": "253",
        "col4": "\"Bijou\""
    },
    {
        "col0": "There for Awhile",
        "col1": "C. Wright",
        "col2": "Steve Wariner",
        "col3": "261",
        "col4": "\"Why Do the Heroes Die So Young\""
    },
    {
        "col0": "There You Are",
        "col1": "M. Reid",
        "col2": "Willie Nelson",
        "col3": "184",
        "col4": "\"Spirit\""
    },
    {
        "col0": "There You'll Be",
        "col1": "D. Warren",
        "col2": "Faith Hill",
        "col3": "220",
        "col4": "\"Breathe\""
    },
    {
        "col0": "There Won't Be Anymore",
        "col1": "C. Rich",
        "col2": "Charlie Rich",
        "col3": "144",
        "col4": "It's All Over Now"
    },
    {
        "col0": "There She Goes",
        "col1": "Babyface",
        "col2": "Babyface",
        "col3": "271",
        "col4": "\"Don't Take It Personal\", \"Lover and Friend\", \"Stress Out\", \"What If\", \"Work It Out\""
    },
    {
        "col0": "There She Goes",
        "col1": "L. Mavers",
        "col2": "The La's",
        "col3": "151",
        "col4": "\"All by Myself\""
    },
    {
        "col0": "There Must Be an Angel",
        "col1": "A. Lennox",
        "col2": "Eurythmics",
        "col3": "235",
        "col4": "\"100% Emotional\""
    },
    {
        "col0": "There It Is",
        "col1": "J. Brown",
        "col2": "James Brown",
        "col3": "167",
        "col4": "\"There It Is Part 2\""
    },
    {
        "col0": "There Is No Arizona",
        "col1": "J. O'Neal",
        "col2": "Jamie O'Neal",
        "col3": "237",
        "col4": "\"Frantic\""
    },
    {
        "col0": "There I Said It",
        "col1": "M. Smith",
        "col2": "Margo Smith",
        "col3": "123",
        "col4": "\"Hurt Me Twice\""
    },
    {
        "col0": "There He Is",
        "col1": "B. G. Jr.",
        "col2": "Martha and the Vandellas",
        "col3": "144",
        "col4": "\"There He Is (At My Door)\""
    },
    {
        "col0": "There Goes the Neighborhood",
        "col1": "S. Crow",
        "col2": "Sheryl Crow",
        "col3": "302",
        "col4": "\"You Always Get Your Way\" \"Straight to the Moon\""
    },
    {
        "col0": "There Goes a Tenner",
        "col1": "K. Bush",
        "col2": "Kate Bush",
        "col3": "206",
        "col4": "\"Ne t'enfuis pas\""
    },
    {
        "col0": "There Goes My Heart Again",
        "col1": "J. Diffie",
        "col2": "Holly Dunn",
        "col3": "158",
        "col4": "\"The Blue Rose of Texas\""
    },
    {
        "col0": "There Goes My Heart",
        "col1": "K. Lazarides",
        "col2": "The Mavericks",
        "col3": "225",
        "col4": "\"Just a Memory\""
    },
    {
        "col0": "There Goes My Baby",
        "col1": "Jerry Leiber and Mike Stoller",
        "col2": "The Drifters",
        "col3": "128",
        "col4": "\"Maybe It's Over\""
    },
    {
        "col0": "There Goes",
        "col1": "A. Jackson",
        "col2": "Alan Jackson",
        "col3": "235",
        "col4": "\"A House with No Curtains\""
    },
    {
        "col0": "There Ain't Nothin' Wrong with the Radio",
        "col1": "A. Tippin",
        "col2": "Aaron Tippin",
        "col3": "204",
        "col4": "\"I Miss Misbehavin'\""
    },
    {
        "col0": "There's the Girl",
        "col1": "N. Wilson",
        "col2": "Heart",
        "col3": "230",
        "col4": "\"Bad Animals\""
    },
    {
        "col0": "There's a Tear in My Beer",
        "col1": "H. Williams",
        "col2": "Hank Williams",
        "col3": "171",
        "col4": "\"You Brought Me Down to Earth\""
    },
    {
        "col0": "There's a Story",
        "col1": "D. Gibson",
        "col2": "Don Gibson",
        "col3": "160",
        "col4": "\"Lock, Stock, and Teardrops\""
    },
    {
        "col0": "There's a Kind of Hush",
        "col1": "L. Reed",
        "col2": "The Carpenters",
        "col3": "151",
        "col4": "\"(I'm Caught Between) Goodbye and I Love You\""
    },
    {
        "col0": "There's a Honky Tonk Angel",
        "col1": "T. Seals",
        "col2": "Conway Twitty",
        "col3": "177",
        "col4": "\"Don't It Let Go To Your Heart\""
    },
    {
        "col0": "There's a Girl in Texas",
        "col1": "T. Adkins",
        "col2": "Trace Adkins",
        "col3": "211",
        "col4": "\"A Bad Way of Saying Goodbye\""
    },
    {
        "col0": "There's a Brand New World",
        "col1": "D. Pearson",
        "col2": "Five Star",
        "col3": "235",
        "col4": "\"U\""
    },
    {
        "col0": "There's Your Trouble",
        "col1": "M. Selby",
        "col2": "Dixie Chicks",
        "col3": "190",
        "col4": "\"Give It Up or Let Me Go\""
    },
    {
        "col0": "There's Nothing I Won't Do",
        "col1": "J. Williams",
        "col2": "Jake Williams",
        "col3": "270",
        "col4": "Remix"
    },
    {
        "col0": "There's Nothing I Can Say",
        "col1": "A. Stillman",
        "col2": "Ricky Nelson",
        "col3": "122",
        "col4": "\"Lonely Corner\""
    },
    {
        "col0": "There's No Way",
        "col1": "J. Jarrard",
        "col2": "Alabama",
        "col3": "251",
        "col4": "\"The Boy\""
    },
    {
        "col0": "There's No Such Thing as a Jaggy Snake",
        "col1": "S. Neil",
        "col2": "Biffy Clyro",
        "col3": "290",
        "col4": "Hero Management"
    },
    {
        "col0": "There's No Room in My Heart for the Blues",
        "col1": "F. Rose",
        "col2": "Hank Williams",
        "col3": "137",
        "col4": "I Wish I Had a Nickel"
    },
    {
        "col0": "There's No Other Way",
        "col1": "D. Albarn",
        "col2": "Blur",
        "col3": "194",
        "col4": "\"Inertia\" (7\")"
    },
    {
        "col0": "There's No One Quite Like Grandma",
        "col1": "G. Lorenz",
        "col2": "St Winifred's School Choir",
        "col3": "178",
        "col4": "\"Pinocchio\""
    },
    {
        "col0": "There's No Love in Tennessee",
        "col1": "D. Morgan",
        "col2": "Barbara Mandrell",
        "col3": "204",
        "col4": "\"Sincerely I'm Yours\""
    },
    {
        "col0": "There's No Home for You Here",
        "col1": "J. White",
        "col2": "The White Stripes",
        "col3": "223",
        "col4": "\"I Fought Piranhas\"/\"Let's Build a Home\" (live at Electric Lady Studios)"
    },
    {
        "col0": "There's More to Me Than You",
        "col1": "J. Andrews",
        "col2": "Jessica Andrews",
        "col3": "226",
        "col4": "\"I Wish for You\""
    },
    {
        "col0": "There! I've Said It Again",
        "col1": "D. Mann",
        "col2": "Bobby Vinton",
        "col3": "143",
        "col4": "\"The Girl with the Bow in Her Hair\""
    },
    {
        "col0": "Then and Only Then",
        "col1": "B. Anderson",
        "col2": "Connie Smith",
        "col3": "145",
        "col4": "\"Tiny Blue Transistor Radio\""
    },
    {
        "col0": "Then You Turn Away",
        "col1": "A. McCluskey",
        "col2": "Orchestral Manoeuvres in the Dark",
        "col3": "257",
        "col4": "\"Sugar Tax\""
    },
    {
        "col0": "Then You Can Tell Me Goodbye",
        "col1": "J. D. Loudermilk",
        "col2": "Eddy Arnold",
        "col3": "167",
        "col4": "\"Apples, Raisins and Roses\""
    },
    {
        "col0": "Then What?",
        "col1": "R. Sharp",
        "col2": "Clay Walker",
        "col3": "183",
        "col4": "Country Boy and City Girl"
    },
    {
        "col0": "Then It's Love",
        "col1": "D. Linde",
        "col2": "Don Williams",
        "col3": "206",
        "col4": "\"It's About Time\""
    },
    {
        "col0": "Then He Kissed Me",
        "col1": "J. Barry",
        "col2": "The Beach Boys",
        "col3": "135",
        "col4": "\"Mountain of Love\""
    },
    {
        "col0": "Then Again",
        "col1": "J. Silbar",
        "col2": "Alabama",
        "col3": "223",
        "col4": "\"Hats Off\""
    },
    {
        "col0": "Theme to Neighbours",
        "col1": "T. Hatch",
        "col2": "Barry Crocker",
        "col3": "168",
        "col4": "Neighbours (Instrumental)"
    },
    {
        "col0": "Theme from The Dukes of Hazzard",
        "col1": "W. Jennings",
        "col2": "Waylon Jennings",
        "col3": "126",
        "col4": "\"It's Alright\""
    },
    {
        "col0": "Theme from Shaft",
        "col1": "I. Hayes",
        "col2": "Isaac Hayes",
        "col3": "195",
        "col4": "\"Cafe Regio's\""
    },
    {
        "col0": "Theme from S.W.A.T.",
        "col1": "B. DeVorzon",
        "col2": "Rhythm Heritage",
        "col3": "247",
        "col4": "\"I Wouldn't Treat A Dog (The Way You Treated Me)\""
    },
    {
        "col0": "Theme from Mahogany",
        "col1": "G. Goffin",
        "col2": "Diana Ross",
        "col3": "205",
        "col4": "\"No One's Gonna Be a Fool Forever\""
    },
    {
        "col0": "Theme from Dr. Kildare",
        "col1": "P. Rugolo",
        "col2": "Richard Chamberlain",
        "col3": "161",
        "col4": "\"A Kiss to Build a Dream On\""
    },
    {
        "col0": "Theme from A Summer Place",
        "col1": "M. Steiner",
        "col2": "Percy Faith",
        "col3": "145",
        "col4": "Love theme from \"Romeo and Juliet"
    },
    {
        "col0": "Theme Song from 'Which Way Is Up'",
        "col1": "N. Whitfield",
        "col2": "Stargard",
        "col3": "190",
        "col4": "\"Disco Rufus\""
    },
    {
        "col0": "Them Heavy People",
        "col1": "K. Bush",
        "col2": "Kate Bush",
        "col3": "185",
        "col4": "The Man with the Child in His Eyes"
    },
    {
        "col0": "Thela Hun Ginjeet",
        "col1": "A. Belew",
        "col2": "King Crimson",
        "col3": "386",
        "col4": "\"Elephant Talk\""
    },
    {
        "col0": "The Zephyr Song",
        "col1": "Flea",
        "col2": "Red Hot Chili Peppers",
        "col3": "233",
        "col4": "\"Body of Water\""
    },
    {
        "col0": "The Young Ones",
        "col1": "R. C. Bennett",
        "col2": "The Shadows",
        "col3": "191",
        "col4": "\"We Say Yeah\" (Gormley-Welch-Marvin)"
    },
    {
        "col0": "The Young Go First",
        "col1": "L. Muhl",
        "col2": "Warm Guns",
        "col3": "263",
        "col4": "Rip Off"
    },
    {
        "col0": "The Yellow Rose",
        "col1": "J. Lee",
        "col2": "Johnny Lee",
        "col3": "146",
        "col4": "\"Say When\""
    },
    {
        "col0": "The Year That Clayton Delaney Died",
        "col1": "T. T. Hall",
        "col2": "Tom T. Hall",
        "col3": "162",
        "col4": "\"Second Handed Flowers\""
    },
    {
        "col0": "The X-Files",
        "col1": "M. Oldfield",
        "col2": "Mark Snow",
        "col3": "205",
        "col4": "\"The Source of Secrets\""
    }
]