[
    {
        "col0": "Aryepiglottic muscle",
        "col1": "Inferior laryngeal nerve",
        "col2": "236",
        "col3": "p_07"
    },
    {
        "col0": "Articularis genus muscle",
        "col1": "Femoral nerve",
        "col2": "128",
        "col3": "m_22"
    },
    {
        "col0": "Articularis cubiti muscle",
        "col1": "Radial nerve",
        "col2": "124",
        "col3": "m_22"
    },
    {
        "col0": "Aortic body",
        "col1": "Vagus nerve",
        "col2": "277",
        "col3": "b_17"
    },
    {
        "col0": "Antitragicus",
        "col1": "Facial nerve",
        "col2": "229",
        "col3": "m_22"
    },
    {
        "col0": "Anterior auricular muscle",
        "col1": "Temporal branches of the facial nerve",
        "col2": "229",
        "col3": "m_22"
    },
    {
        "col0": "Anconeus muscle",
        "col1": "Radial nerve",
        "col2": "125",
        "col3": "m_22"
    },
    {
        "col0": "Adductor magnus muscle",
        "col1": "Tibial nerve",
        "col2": "128",
        "col3": "m_22"
    },
    {
        "col0": "Adductor hallucis muscle",
        "col1": "Lateral plantar nerve",
        "col2": "131",
        "col3": "m_22"
    },
    {
        "col0": "Abductor pollicis longus muscle",
        "col1": "Deep branch of radial nerve",
        "col2": "125",
        "col3": "m_22"
    },
    {
        "col0": "Abductor hallucis muscle",
        "col1": "Medial plantar nerve",
        "col2": "131",
        "col3": "m_22"
    },
    {
        "col0": "Abductor digiti minimi muscle of hand",
        "col1": "Deep branch of ulnar nerve",
        "col2": "126",
        "col3": "m_22"
    },
    {
        "col0": "Abductor digiti minimi muscle of foot",
        "col1": "Lateral plantar nerve",
        "col2": "131",
        "col3": "m_22"
    },
    {
        "col0": "Abdominal external oblique muscle",
        "col1": "Subcostal nerve",
        "col2": "118",
        "col3": "m_22"
    }
]