[
    {
        "col0": "C. Lofqvist",
        "col1": "Sweden",
        "col2": "Sweden",
        "col3": "1978-02-01"
    },
    {
        "col0": "C. Appleby",
        "col1": "Canada",
        "col2": "Canada",
        "col3": "1946-10-08"
    },
    {
        "col0": "B. Proch",
        "col1": "Poland",
        "col2": "Poland",
        "col3": "2012-12-22"
    },
    {
        "col0": "B. Leverenz",
        "col1": "Australia",
        "col2": "Findon, South Australia",
        "col3": "2009-03-16"
    },
    {
        "col0": "B. Wilkinson",
        "col1": "Australia national speedway team",
        "col2": "New South Wales",
        "col3": "1940-07-27"
    },
    {
        "col0": "B. Sanders",
        "col1": "Australia",
        "col2": "New South Wales",
        "col3": "1985-04-23"
    },
    {
        "col0": "B. Longley",
        "col1": "Australia",
        "col2": "Victoria",
        "col3": "2005-04-29"
    },
    {
        "col0": "A. Lawson",
        "col1": "Australia",
        "col2": "New South Wales",
        "col3": "1977-01-20"
    },
    {
        "col0": "A. Woryna",
        "col1": "Poland",
        "col2": "Poland",
        "col3": "2001-1-1"
    },
    {
        "col0": "A. Statham",
        "col1": "United Kingdom",
        "col2": "Coventry",
        "col3": "1977-1-1"
    },
    {
        "col0": "A. Burns",
        "col1": "United States",
        "col2": "California",
        "col3": "1921-08-14"
    },
    {
        "col0": "A. Funk",
        "col1": "Austria",
        "col2": "Austria",
        "col3": "2010-01-27"
    },
    {
        "col0": "L. Romanek",
        "col1": "Poland",
        "col2": "Knurow",
        "col3": "2006-06-02"
    }
]