[
    {
        "col0": "(You're the) Devil in Disguise",
        "col1": "Elvis Presley",
        "col2": "One Broken Heart for Sale",
        "col3": "Nashville, Tennessee",
        "col4": "Gold(RIAA)"
    },
    {
        "col0": "(Sittin' On) The Dock of the Bay",
        "col1": "Otis Redding",
        "col2": "Knock on Wood",
        "col3": "Memphis, Tennessee",
        "col4": "Gold"
    },
    {
        "col0": "(Our Love) Don't Throw it All Away",
        "col1": "Andy Gibb",
        "col2": "An Everlasting Love",
        "col3": "California",
        "col4": "Gold(U.S.)"
    },
    {
        "col0": "(Marie's the Name) His Latest Flame",
        "col1": "Elvis Presley",
        "col2": "I Feel So Bad",
        "col3": "Nashville, Tennessee",
        "col4": "Gold(RIAA)"
    },
    {
        "col0": "(Love Is) Thicker Than Water",
        "col1": "Andy Gibb",
        "col2": "I Just Want To Be Your Everything",
        "col3": "Criteria Studios",
        "col4": "Gold(U.S.)"
    },
    {
        "col0": "(Let Me Be Your) Teddy Bear",
        "col1": "Elvis Presley",
        "col2": "All Shook Up",
        "col3": "Hollywood, California",
        "col4": "X2Platinum(RIAA)"
    },
    {
        "col0": "(I Know) I'm Losing You",
        "col1": "Rod Stewart",
        "col2": "Reason to Believe",
        "col3": "Hitsville USA",
        "col4": "Gold(RIAA)"
    },
    {
        "col0": "(I Can't Get No) Satisfaction",
        "col1": "Devo",
        "col2": "Mongoloid",
        "col3": "RCA Records",
        "col4": "Gold(RIAA)"
    },
    {
        "col0": "Simarik",
        "col1": "Tarkan",
        "col2": "Salina Salina Sinsice",
        "col3": "1997 in music",
        "col4": "Gold (BPI)"
    },
    {
        "col0": "A nos actes manques",
        "col1": "Jean-Jacques Goldman",
        "col2": "Mirage",
        "col3": "France",
        "col4": "Silver(France, 1991)"
    },
    {
        "col0": "A 20 ans",
        "col1": "Lorie",
        "col2": "J'ai besoin d'amour",
        "col3": "France",
        "col4": "Silver(France, 2003)"
    }
]