[
    {
        "col0": "Natech",
        "col1": "Ioannina, Greece",
        "col2": "21",
        "col3": "600000"
    },
    {
        "col0": "Nasdaq, Inc.",
        "col1": "New York",
        "col2": "2503",
        "col3": "3438000000"
    },
    {
        "col0": "Napco Security Technologies",
        "col1": "Amityville, New York",
        "col2": "908",
        "col3": "73"
    },
    {
        "col0": "Nanto Bank",
        "col1": "Nara Prefecture",
        "col2": "2697",
        "col3": "81869000000"
    },
    {
        "col0": "Nankang Rubber Tire",
        "col1": "Taipei",
        "col2": "1220",
        "col3": "279600000"
    },
    {
        "col0": "Namakkal Transport Carriers",
        "col1": "Chennai",
        "col2": "2000",
        "col3": "450"
    },
    {
        "col0": "Nakano Corporation",
        "col1": "Tokyo",
        "col2": "1145",
        "col3": "107751"
    },
    {
        "col0": "Naftna Industrija Srbije",
        "col1": "Novi Sad",
        "col2": "7629",
        "col3": "2310000000"
    },
    {
        "col0": "NYSE Euronext",
        "col1": "Wall Street",
        "col2": "3061",
        "col3": "3750000000"
    },
    {
        "col0": "NV Energy",
        "col1": "Las Vegas, Nevada",
        "col2": "0",
        "col3": "2900000000"
    },
    {
        "col0": "NS Railinfratrust",
        "col1": "Utrecht",
        "col2": "2651",
        "col3": "1260000000"
    },
    {
        "col0": "NRB Bearing",
        "col1": "Mumbai",
        "col2": "0",
        "col3": "650"
    },
    {
        "col0": "NOS Comunicacoes",
        "col1": "Lisbon",
        "col2": "2016",
        "col3": "863"
    },
    {
        "col0": "NKT Holding",
        "col1": "Copenhagen",
        "col2": "8895",
        "col3": "2224"
    },
    {
        "col0": "NJToday.net",
        "col1": "New Jersey",
        "col2": "12",
        "col3": "500000"
    },
    {
        "col0": "NIRAS",
        "col1": "Allerod Municipality",
        "col2": "1400",
        "col3": "1255"
    },
    {
        "col0": "NICE Systems",
        "col1": "Ra'anana",
        "col2": "4122",
        "col3": "926000000"
    },
    {
        "col0": "NGP VAN",
        "col1": "Washington, D.C.",
        "col2": "163",
        "col3": "26"
    },
    {
        "col0": "NGK Insulators",
        "col1": "Nagoya",
        "col2": "3272",
        "col3": "119976"
    },
    {
        "col0": "NET",
        "col1": "Sao Paulo",
        "col2": "12000",
        "col3": "4100000000"
    },
    {
        "col0": "NEK EAD",
        "col1": "Sofia",
        "col2": "15000",
        "col3": "1500000000"
    },
    {
        "col0": "NCR Corporation",
        "col1": "Gwinnett County, Georgia",
        "col2": "30200",
        "col3": "6370000000"
    },
    {
        "col0": "NB Power",
        "col1": "New Brunswick",
        "col2": "2361",
        "col3": "1635"
    },
    {
        "col0": "NACCO Industries",
        "col1": "Cleveland, Ohio",
        "col2": "9300",
        "col3": "3300000000"
    },
    {
        "col0": "N-ERGIE",
        "col1": "Nuremberg",
        "col2": "2534",
        "col3": "2870000000"
    },
    {
        "col0": "Muller",
        "col1": "Ulm",
        "col2": "31731",
        "col3": "3357000000"
    },
    {
        "col0": "MollerGruppen",
        "col1": "Oslo",
        "col2": "2222",
        "col3": "11479"
    },
    {
        "col0": "Movenpick Hotels & Resorts",
        "col1": "Baar, Switzerland",
        "col2": "16000",
        "col3": "978800000"
    },
    {
        "col0": "Maurer & Wirtz",
        "col1": "North Rhine-Westphalia",
        "col2": "400",
        "col3": "158000000"
    },
    {
        "col0": "Mytilineos Holdings",
        "col1": "Marousi",
        "col2": "4",
        "col3": "3189000000"
    },
    {
        "col0": "Mutual of Omaha",
        "col1": "Nebraska",
        "col2": "4700",
        "col3": "7200000000"
    },
    {
        "col0": "Music Zone",
        "col1": "Greater Manchester",
        "col2": "1100",
        "col3": "70400000"
    },
    {
        "col0": "Murray Goulburn Co-operative",
        "col1": "Melbourne",
        "col2": "2000",
        "col3": "2400000000"
    },
    {
        "col0": "Multiconsult",
        "col1": "Oslo",
        "col2": "1500",
        "col3": "1"
    },
    {
        "col0": "Mueller Water Products",
        "col1": "Atlanta, Georgia",
        "col2": "4200",
        "col3": "1184000000"
    },
    {
        "col0": "Mubadala Development Company",
        "col1": "Abu Dhabi",
        "col2": "700",
        "col3": "8522000000"
    },
    {
        "col0": "Mozilla Corporation",
        "col1": "Mountain View, California",
        "col2": "1000",
        "col3": "329500000"
    },
    {
        "col0": "Motor Oil Hellas",
        "col1": "Athens",
        "col2": "15000",
        "col3": "26100000000"
    },
    {
        "col0": "Motech Solar",
        "col1": "Tainan",
        "col2": "3500",
        "col3": "1140000000"
    },
    {
        "col0": "Motala Verkstad",
        "col1": "Motala",
        "col2": "190",
        "col3": "240000000"
    },
    {
        "col0": "Mostogradnja",
        "col1": "Belgrade",
        "col2": "1056",
        "col3": "12220000"
    },
    {
        "col0": "Mosenergo",
        "col1": "Moscow",
        "col2": "16725",
        "col3": "5000000000"
    },
    {
        "col0": "Mosaic451",
        "col1": "Phoenix, Arizona",
        "col2": "95",
        "col3": "19"
    },
    {
        "col0": "Morphsuits",
        "col1": "Edinburgh",
        "col2": "22",
        "col3": "4"
    },
    {
        "col0": "Morphsuit",
        "col1": "Edinburgh",
        "col2": "22",
        "col3": "4"
    },
    {
        "col0": "Morningstar, Inc.",
        "col1": "Chicago",
        "col2": "4070",
        "col3": "198200000"
    },
    {
        "col0": "Morleys Stores",
        "col1": "London",
        "col2": "1200",
        "col3": "90600000"
    },
    {
        "col0": "Morgan Stanley Wealth Management",
        "col1": "Purchase, New York",
        "col2": "17649",
        "col3": "3423000000"
    },
    {
        "col0": "Morgan Stanley",
        "col1": "New York",
        "col2": "55802",
        "col3": "32493000000"
    },
    {
        "col0": "Morgan Motor Company",
        "col1": "Malvern, Worcestershire",
        "col2": "163",
        "col3": "34000000"
    },
    {
        "col0": "Monster Beverage",
        "col1": "California",
        "col2": "1240",
        "col3": "2246000000"
    },
    {
        "col0": "Monmouth Ocean Hospital Service Corporation",
        "col1": "Neptune City, New Jersey",
        "col2": "800",
        "col3": "61"
    },
    {
        "col0": "Monitise",
        "col1": "London",
        "col2": "750",
        "col3": "40"
    },
    {
        "col0": "Mongolian Mining Corporation",
        "col1": "Ulaanbaatar",
        "col2": "1897",
        "col3": "99500000"
    },
    {
        "col0": "Money Mart",
        "col1": "Victoria, British Columbia",
        "col2": "6300",
        "col3": "995000000"
    },
    {
        "col0": "Mondragon Corporation",
        "col1": "Mondragon",
        "col2": "74335",
        "col3": "12110"
    },
    {
        "col0": "Molex",
        "col1": "Lisle, Illinois",
        "col2": "36000",
        "col3": "3"
    },
    {
        "col0": "Mogen David",
        "col1": "Westfield, New York",
        "col2": "100",
        "col3": "200000000"
    },
    {
        "col0": "ModusLink Global Solutions",
        "col1": "Waltham, Massachusetts",
        "col2": "3650",
        "col3": "754500000"
    },
    {
        "col0": "Mlekara Subotica",
        "col1": "Subotica",
        "col2": "323",
        "col3": "38630000"
    },
    {
        "col0": "Mizuho Bank",
        "col1": "Chiyoda-ku, Tokyo",
        "col2": "26839",
        "col3": "1198310"
    },
    {
        "col0": "Mitsui Fudosan",
        "col1": "Chuo, Tokyo",
        "col2": "1216",
        "col3": "1385"
    },
    {
        "col0": "Mitsui & Co.",
        "col1": "Tokyo",
        "col2": "6006",
        "col3": "5738"
    },
    {
        "col0": "Mitsubishi Chemical Holdings",
        "col1": "Tokyo",
        "col2": "54111",
        "col3": "2515076"
    },
    {
        "col0": "Mitropa",
        "col1": "Munich",
        "col2": "1950",
        "col3": "120000000"
    },
    {
        "col0": "Mitel",
        "col1": "Ontario",
        "col2": "4500",
        "col3": "1200000000"
    },
    {
        "col0": "Mitcham Industries",
        "col1": "Huntsville, Texas",
        "col2": "184",
        "col3": "96"
    },
    {
        "col0": "Mirat",
        "col1": "Salamanca",
        "col2": "183",
        "col3": "83000000"
    },
    {
        "col0": "Mind CTI",
        "col1": "Yokneam",
        "col2": "354",
        "col3": "25000000"
    },
    {
        "col0": "Minacs",
        "col1": "Oshawa",
        "col2": "21000",
        "col3": "512000000"
    },
    {
        "col0": "Milestone Systems",
        "col1": "Copenhagen",
        "col2": "389",
        "col3": "407000000"
    },
    {
        "col0": "Mikroelektronika",
        "col1": "Belgrade",
        "col2": "51",
        "col3": "2890000"
    },
    {
        "col0": "Mikel Coffee Company",
        "col1": "Larissa",
        "col2": "240",
        "col3": "33439000"
    },
    {
        "col0": "Mieschke Hofmann und Partner",
        "col1": "Ludwigsburg",
        "col2": "1500",
        "col3": "235"
    }
]