[
    {
        "col0": "D. Sproles",
        "col1": "New Orleans Saints",
        "col2": "Philadelphia Eagles",
        "col3": "1983-06-20",
        "col4": "130"
    },
    {
        "col0": "D. Revis",
        "col1": "New England Patriots",
        "col2": "New York Jets",
        "col3": "1985-07-14",
        "col4": "14"
    },
    {
        "col0": "D. Stuckey",
        "col1": "San Diego Chargers",
        "col2": "San Diego Chargers",
        "col3": "1987-06-16",
        "col4": "110"
    },
    {
        "col0": "D. Dennard",
        "col1": "Cincinnati Bengals",
        "col2": "Cincinnati Bengals",
        "col3": "1991-10-10",
        "col4": "24"
    },
    {
        "col0": "D. Slay",
        "col1": "Detroit Lions",
        "col2": "Detroit Lions",
        "col3": "1991-01-01",
        "col4": "36"
    },
    {
        "col0": "D. Philon",
        "col1": "San Diego Chargers",
        "col2": "San Diego Chargers",
        "col3": "1994-01-22",
        "col4": "192"
    },
    {
        "col0": "D. Kilgo",
        "col1": "Denver Broncos",
        "col2": "Denver Broncos",
        "col3": "1991-12-14",
        "col4": "203"
    },
    {
        "col0": "D. Jackson",
        "col1": "Dallas Cowboys",
        "col2": "Dallas Cowboys",
        "col3": "1993-12-01",
        "col4": "216"
    },
    {
        "col0": "D. Trevathan",
        "col1": "Chicago Bears",
        "col2": "Chicago Bears",
        "col3": "1990-03-24",
        "col4": "188"
    },
    {
        "col0": "D. Shelton",
        "col1": "Cleveland Browns",
        "col2": "Cleveland Browns",
        "col3": "1993-08-20",
        "col4": "12"
    },
    {
        "col0": "D. Hunter",
        "col1": "Minnesota Vikings",
        "col2": "Minnesota Vikings",
        "col3": "1994-10-29",
        "col4": "88"
    },
    {
        "col0": "D. Te'o-Nesheim",
        "col1": "Philadelphia Eagles",
        "col2": "Free agent",
        "col3": "1987-06-12",
        "col4": "86"
    },
    {
        "col0": "D. McCullers",
        "col1": "Pittsburgh Steelers",
        "col2": "Pittsburgh Steelers",
        "col3": "1992-08-11",
        "col4": "215"
    },
    {
        "col0": "D. Lasco",
        "col1": "New Orleans Saints",
        "col2": "New Orleans Saints",
        "col3": "1992-10-9",
        "col4": "237"
    },
    {
        "col0": "D. Braverman",
        "col1": "Chicago Bears",
        "col2": "Chicago Bears",
        "col3": "1993-09-28",
        "col4": "230"
    },
    {
        "col0": "D. Williams",
        "col1": "Arizona Cardinals",
        "col2": "Oakland Raiders",
        "col3": "1987-06-01",
        "col4": "26"
    },
    {
        "col0": "D. Vitale",
        "col1": "Tampa Bay Buccaneers",
        "col2": "Cleveland Browns",
        "col3": "1994-10-23",
        "col4": "197"
    },
    {
        "col0": "D. Wilson",
        "col1": "Dallas Cowboys",
        "col2": "Dallas Cowboys",
        "col3": "1993-05-28",
        "col4": "127"
    },
    {
        "col0": "D. Williams",
        "col1": "Tennessee Titans",
        "col2": "Free agent",
        "col3": "1988-05-26",
        "col4": "77"
    },
    {
        "col0": "D. Swann",
        "col1": "New Orleans Saints",
        "col2": "New Orleans Saints",
        "col3": "1992-12-04",
        "col4": "167"
    },
    {
        "col0": "D. Randall",
        "col1": "Green Bay Packers",
        "col2": "Green Bay Packers",
        "col3": "1992-08-29",
        "col4": "30"
    },
    {
        "col0": "D. Dozier",
        "col1": "New York Jets",
        "col2": "New York Jets",
        "col3": "1991-04-30",
        "col4": "137"
    },
    {
        "col0": "D. Prescott",
        "col1": "Dallas Cowboys",
        "col2": "Dallas Cowboys",
        "col3": "1993-7-29",
        "col4": "135"
    },
    {
        "col0": "D. Stafford",
        "col1": "Tennessee Titans",
        "col2": "Tennessee Titans",
        "col3": "1991-02-18",
        "col4": "248"
    },
    {
        "col0": "D. Nicolas",
        "col1": "Kansas City Chiefs",
        "col2": "Kansas City Chiefs",
        "col3": "1992-9-29",
        "col4": "203"
    },
    {
        "col0": "D. Jones",
        "col1": "Tennessee Titans",
        "col2": "Tennessee Titans",
        "col3": "1991-12-17",
        "col4": "112th"
    },
    {
        "col0": "D. Searcy",
        "col1": "Buffalo Bills",
        "col2": "Tennessee Titans",
        "col3": "1988-11-16",
        "col4": "100"
    },
    {
        "col0": "D. J. White",
        "col1": "Kansas City Chiefs",
        "col2": "Kansas City Chiefs",
        "col3": "1993-09-09",
        "col4": "178"
    },
    {
        "col0": "D. J. Swearinger",
        "col1": "Arizona Cardinals",
        "col2": "Arizona Cardinals",
        "col3": "1991-09-01",
        "col4": "57"
    },
    {
        "col0": "D. J. Reader",
        "col1": "Houston Texans",
        "col2": "Houston Texans",
        "col3": "1994-07-01",
        "col4": "166"
    },
    {
        "col0": "D. J. Humphries",
        "col1": "Arizona Cardinals",
        "col2": "Arizona Cardinals",
        "col3": "1993-12-28",
        "col4": "24"
    },
    {
        "col0": "D. J. Hayden",
        "col1": "Oakland Raiders",
        "col2": "Oakland Raiders",
        "col3": "1990-06-27",
        "col4": "12"
    },
    {
        "col0": "D. J. Fluker",
        "col1": "San Diego Chargers",
        "col2": "San Diego Chargers",
        "col3": "1991-03-13",
        "col4": "11"
    },
    {
        "col0": "D. J. Alexander",
        "col1": "Kansas City Chiefs",
        "col2": "Kansas City Chiefs",
        "col3": "1991-09-30",
        "col4": "172"
    },
    {
        "col0": "D. Smith",
        "col1": "Detroit Lions",
        "col2": "Detroit Lions",
        "col3": "1992-09-23",
        "col4": "65"
    },
    {
        "col0": "C. Kouandjio",
        "col1": "Buffalo Bills",
        "col2": "Buffalo Bills",
        "col3": "1993-07-21",
        "col4": "44"
    },
    {
        "col0": "C. Gillmore",
        "col1": "Baltimore Ravens",
        "col2": "Baltimore Ravens",
        "col3": "1991-11-16",
        "col4": "99"
    },
    {
        "col0": "C. Mager",
        "col1": "San Diego Chargers",
        "col2": "San Diego Chargers",
        "col3": "1992-06-11",
        "col4": "83"
    },
    {
        "col0": "C. Sensabaugh",
        "col1": "Los Angeles Rams",
        "col2": "New York Giants",
        "col3": "1988-11-15",
        "col4": "115"
    },
    {
        "col0": "C. Carradine",
        "col1": "San Francisco 49ers",
        "col2": "San Francisco 49ers",
        "col3": "1989-02-18",
        "col4": "40"
    },
    {
        "col0": "C. Washington",
        "col1": "Chicago Bears",
        "col2": "Chicago Bears",
        "col3": "1989-09-10",
        "col4": "188"
    },
    {
        "col0": "C. White",
        "col1": "Arizona Cardinals",
        "col2": "Buffalo Bills",
        "col3": "1990-05-09",
        "col4": "162"
    },
    {
        "col0": "C. Robinson",
        "col1": "Detroit Lions",
        "col2": "Detroit Lions",
        "col3": "1992-05-21",
        "col4": "240"
    },
    {
        "col0": "C. Nelson",
        "col1": "Denver Broncos",
        "col2": "Denver Broncos",
        "col3": "1992-04-22",
        "col4": "242"
    },
    {
        "col0": "C. Linsley",
        "col1": "Green Bay Packers",
        "col2": "Green Bay Packers",
        "col3": "1991-7-27",
        "col4": "161"
    },
    {
        "col0": "C. Lemonier",
        "col1": "Cleveland Browns",
        "col2": "Cleveland Browns",
        "col3": "1991-11-19",
        "col4": "88"
    },
    {
        "col0": "C. Fuller",
        "col1": "Detroit Lions",
        "col2": "Detroit Lions",
        "col3": "1990-06-28",
        "col4": "171"
    },
    {
        "col0": "C. Glenn",
        "col1": "Buffalo Bills",
        "col2": "Buffalo Bills",
        "col3": "1989-09-18",
        "col4": "41"
    },
    {
        "col0": "C. Patterson",
        "col1": "Minnesota Vikings",
        "col2": "Minnesota Vikings",
        "col3": "1991-3-17",
        "col4": "29"
    },
    {
        "col0": "C. Cook",
        "col1": "Oakland Raiders",
        "col2": "Oakland Raiders",
        "col3": "1993-01-29",
        "col4": "100"
    },
    {
        "col0": "C. Barwin",
        "col1": "Houston Texans",
        "col2": "Philadelphia Eagles",
        "col3": "1986-10-15",
        "col4": "46"
    },
    {
        "col0": "C. Toner",
        "col1": "Arizona Cardinals",
        "col2": "Arizona Cardinals",
        "col3": "1994-0-0",
        "col4": "170"
    },
    {
        "col0": "C. Wichmann",
        "col1": "Los Angeles Rams",
        "col2": "Los Angeles Rams",
        "col3": "1992-03-02",
        "col4": "215"
    },
    {
        "col0": "C. Whitehair",
        "col1": "Chicago Bears",
        "col2": "Chicago Bears",
        "col3": "1992-07-11",
        "col4": "56"
    },
    {
        "col0": "C. Wallace",
        "col1": "Detroit Lions",
        "col2": "Pittsburgh Steelers",
        "col3": "1984-11-26",
        "col4": "107"
    },
    {
        "col0": "C. Latimer",
        "col1": "Denver Broncos",
        "col2": "Denver Broncos",
        "col3": "1992-10-10",
        "col4": "56"
    },
    {
        "col0": "C. Kessler",
        "col1": "Cleveland Browns",
        "col2": "Cleveland Browns",
        "col3": "1993-04-11",
        "col4": "93"
    },
    {
        "col0": "C. Core",
        "col1": "Cincinnati Bengals",
        "col2": "Cincinnati Bengals",
        "col3": "1994-04-17",
        "col4": "199"
    },
    {
        "col0": "C. Fleener",
        "col1": "Indianapolis Colts",
        "col2": "New Orleans Saints",
        "col3": "1988-09-20",
        "col4": "34"
    },
    {
        "col0": "C. Walford",
        "col1": "Oakland Raiders",
        "col2": "Oakland Raiders",
        "col3": "1991-10-01",
        "col4": "68"
    },
    {
        "col0": "C. Boling",
        "col1": "Cincinnati Bengals",
        "col2": "Cincinnati Bengals",
        "col3": "1989-05-09",
        "col4": "101"
    },
    {
        "col0": "C. Avril",
        "col1": "Detroit Lions",
        "col2": "Seattle Seahawks",
        "col3": "1986-04-08",
        "col4": "92"
    },
    {
        "col0": "C. Geathers",
        "col1": "Indianapolis Colts",
        "col2": "Indianapolis Colts",
        "col3": "1992-06-01",
        "col4": "109"
    },
    {
        "col0": "C. Wroten",
        "col1": "St. Louis Rams",
        "col2": "Free agent",
        "col3": "1983-09-16",
        "col4": "68"
    },
    {
        "col0": "C. Michael",
        "col1": "Dallas Cowboys",
        "col2": "Seattle Seahawks",
        "col3": "1990-11-9",
        "col4": "62"
    },
    {
        "col0": "C. Westerman",
        "col1": "Cincinnati Bengals",
        "col2": "Cincinnati Bengals",
        "col3": "1993-02-23",
        "col4": "161"
    },
    {
        "col0": "C. Ringo",
        "col1": "Green Bay Packers",
        "col2": "Green Bay Packers",
        "col3": "1992-03-10",
        "col4": "210"
    },
    {
        "col0": "C. Kirksey",
        "col1": "Cleveland Browns",
        "col2": "Cleveland Browns",
        "col3": "1992-08-31",
        "col4": "71"
    },
    {
        "col0": "C. Hackenberg",
        "col1": "New York Jets",
        "col2": "New York Jets",
        "col3": "1995-02-14",
        "col4": "51"
    },
    {
        "col0": "C. Covington",
        "col1": "Houston Texans",
        "col2": "Houston Texans",
        "col3": "1993-10-16",
        "col4": "216"
    },
    {
        "col0": "C. Bryant",
        "col1": "Arizona Cardinals",
        "col2": "Arizona Cardinals",
        "col3": "1992-03-21",
        "col4": "241"
    },
    {
        "col0": "C. Watt",
        "col1": "San Diego Chargers",
        "col2": "San Diego Chargers",
        "col3": "1990-08-17",
        "col4": "89"
    },
    {
        "col0": "C. Thompson",
        "col1": "Washington Redskins",
        "col2": "Washington Redskins",
        "col3": "1990-10-20",
        "col4": "154"
    },
    {
        "col0": "C. Scott",
        "col1": "Buffalo Bills",
        "col2": "Carolina Panthers",
        "col3": "1987-08-04",
        "col4": "151"
    },
    {
        "col0": "C. Rainey",
        "col1": "Arizona Cardinals",
        "col2": "BC Lions",
        "col3": "1988-03-02",
        "col4": "159"
    },
    {
        "col0": "C. Moore",
        "col1": "Baltimore Ravens",
        "col2": "Baltimore Ravens",
        "col3": "1993-06-16",
        "col4": "107"
    },
    {
        "col0": "C. Jones",
        "col1": "Kansas City Chiefs",
        "col2": "Kansas City Chiefs",
        "col3": "1994-07-03",
        "col4": "37"
    },
    {
        "col0": "C. Greenwood",
        "col1": "Baltimore Ravens",
        "col2": "Free agent",
        "col3": "1989-07-10",
        "col4": "148"
    },
    {
        "col0": "C. Gragg",
        "col1": "Buffalo Bills",
        "col2": "Buffalo Bills",
        "col3": "1990-06-30",
        "col4": "222"
    },
    {
        "col0": "C. Conley",
        "col1": "Kansas City Chiefs",
        "col2": "Kansas City Chiefs",
        "col3": "1992-10-25",
        "col4": "76"
    },
    {
        "col0": "C. Vaughn",
        "col1": "New Orleans Saints",
        "col2": "Saskatchewan Roughriders",
        "col3": "1985-10-26",
        "col4": "116"
    },
    {
        "col0": "C. Schilens",
        "col1": "Detroit Lions",
        "col2": "Saskatchewan Roughriders",
        "col3": "1985-11-07",
        "col4": "226"
    },
    {
        "col0": "C. Green",
        "col1": "Dallas Cowboys",
        "col2": "Dallas Cowboys",
        "col3": "1992-04-08",
        "col4": "91"
    },
    {
        "col0": "C. Coffman",
        "col1": "Seattle Seahawks",
        "col2": "Indianapolis Colts",
        "col3": "1986-11-10",
        "col4": "98"
    },
    {
        "col0": "C. Peake",
        "col1": "New York Jets",
        "col2": "New York Jets",
        "col3": "1992-10-16",
        "col4": "241"
    },
    {
        "col0": "C. Tapper",
        "col1": "Dallas Cowboys",
        "col2": "Dallas Cowboys",
        "col3": "1993-05-07",
        "col4": "101"
    },
    {
        "col0": "C. Sims",
        "col1": "Tampa Bay Buccaneers",
        "col2": "Tampa Bay Buccaneers",
        "col3": "1990-09-19",
        "col4": "69"
    },
    {
        "col0": "C. L. Jr.",
        "col1": "Chicago Bears",
        "col2": "Chicago Bears",
        "col3": "1991-10-09",
        "col4": "246"
    },
    {
        "col0": "C. Johnson",
        "col1": "Cleveland Browns",
        "col2": "Minnesota Vikings",
        "col3": "1989-02-27",
        "col4": "216"
    },
    {
        "col0": "C. Johnson",
        "col1": "Carolina Panthers",
        "col2": "Carolina Panthers",
        "col3": "1986-07-10",
        "col4": "83"
    },
    {
        "col0": "C. Warmack",
        "col1": "Tennessee Titans",
        "col2": "Tennessee Titans",
        "col3": "1991-09-14",
        "col4": "10"
    },
    {
        "col0": "C. Greenway",
        "col1": "Minnesota Vikings",
        "col2": "Minnesota Vikings",
        "col3": "1983-1-12",
        "col4": "17"
    },
    {
        "col0": "C. Ogbuehi",
        "col1": "Cincinnati Bengals",
        "col2": "Cincinnati Bengals",
        "col3": "1992-04-25",
        "col4": "21"
    },
    {
        "col0": "C. Shorts",
        "col1": "Tampa Bay Buccaneers",
        "col2": "Tampa Bay Buccaneers",
        "col3": "1987-12-22",
        "col4": "114"
    },
    {
        "col0": "C. Marsh",
        "col1": "Seattle Seahawks",
        "col2": "Seattle Seahawks",
        "col3": "1992-07-07",
        "col4": "108"
    },
    {
        "col0": "C. Hayward",
        "col1": "Green Bay Packers",
        "col2": "San Diego Chargers",
        "col3": "1989-09-09",
        "col4": "62"
    },
    {
        "col0": "C. Hyde",
        "col1": "San Francisco 49ers",
        "col2": "San Francisco 49ers",
        "col3": "1991-09-20",
        "col4": "57"
    },
    {
        "col0": "C. Nassib",
        "col1": "Cleveland Browns",
        "col2": "Cleveland Browns",
        "col3": "1993-4-12",
        "col4": "65"
    },
    {
        "col0": "C. Davis",
        "col1": "Baltimore Ravens",
        "col2": "Baltimore Ravens",
        "col3": "1992-03-02",
        "col4": "90"
    },
    {
        "col0": "C. Bradford",
        "col1": "Green Bay Packers",
        "col2": "Green Bay Packers",
        "col3": "1992-5-27",
        "col4": "121"
    },
    {
        "col0": "C. Jones",
        "col1": "Buffalo Bills",
        "col2": "Buffalo Bills",
        "col3": "1992-09-29",
        "col4": "139"
    },
    {
        "col0": "C. Reid",
        "col1": "San Diego Chargers",
        "col2": "San Diego Chargers",
        "col3": "1991-11-23",
        "col4": "158"
    }
]