[
    {
        "col0": "N. Fukuzumi",
        "col1": "ART Grand Prix",
        "col2": "Tokushima Prefecture",
        "col3": "1997-01-24",
        "col4": "1997-01-24"
    },
    {
        "col0": "N. Martsenko",
        "col1": "Comtec Racing",
        "col2": "Krasnoyarsk",
        "col3": "1993-05-25",
        "col4": "1993-05-25"
    },
    {
        "col0": "N. Karamyshev",
        "col1": "Campos Racing",
        "col2": "Soviet Union",
        "col3": "1966-12-17",
        "col4": "1966-12-17"
    },
    {
        "col0": "N. Mayr-Melnhof",
        "col1": "Vitaphone Racing",
        "col2": "Leoben",
        "col3": "1978-11-09",
        "col4": "1978-11-09"
    },
    {
        "col0": "N. Kari",
        "col1": "Motopark Academy",
        "col2": "Hyvinkaa",
        "col3": "1999-10-06",
        "col4": "1999-10-06"
    },
    {
        "col0": "N. Mazepin",
        "col1": "Hitech Racing",
        "col2": "Moscow",
        "col3": "1999-03-02",
        "col4": "1999-03-02"
    },
    {
        "col0": "N. Melker",
        "col1": "Tech 1 Racing",
        "col2": "Netherlands",
        "col3": "1991-01-25",
        "col4": "1991-01-25"
    },
    {
        "col0": "N. Prost",
        "col1": "Rebellion Racing",
        "col2": "Saint-Chamond, Loire",
        "col3": "1981-08-18",
        "col4": "1981-08-18"
    },
    {
        "col0": "N. Maulini",
        "col1": "Jenzer Motorsport",
        "col2": "Geneva",
        "col3": "1981-01-05",
        "col4": "1981-01-05"
    },
    {
        "col0": "N. Hamilton",
        "col1": "AmD Essex",
        "col2": "England",
        "col3": "1992-03-28",
        "col4": "1992-03-28"
    },
    {
        "col0": "N. Beer",
        "col1": "EuroInternational",
        "col2": "Denmark",
        "col3": "1996-04-05",
        "col4": "1996-04-05"
    },
    {
        "col0": "N. Armindo",
        "col1": "Matech Competition",
        "col2": "Colmar",
        "col3": "1982-03-08",
        "col4": "1982-03-08"
    },
    {
        "col0": "N. d. Marco",
        "col1": "MotorSport Vision",
        "col2": "Pordenone",
        "col3": "1990-08-28",
        "col4": "1990-08-28"
    },
    {
        "col0": "N. Verdonck",
        "col1": "DAMS",
        "col2": "Brussels",
        "col3": "1985-12-05",
        "col4": "1985-12-05"
    },
    {
        "col0": "N. Muller",
        "col1": "Abt Sportsline",
        "col2": "Switzerland",
        "col3": "1992-02-25",
        "col4": "1992-02-25"
    },
    {
        "col0": "N. Jonsson",
        "col1": "Krohn Racing",
        "col2": "Bankeryd",
        "col3": "1967-08-04",
        "col4": "1967-08-04"
    },
    {
        "col0": "N. Gronholm",
        "col1": "Olsbergs MSE",
        "col2": "Kauniainen",
        "col3": "1996-05-20",
        "col4": "1996-05-20"
    },
    {
        "col0": "N. Tandy",
        "col1": "KCMG",
        "col2": "Bedford",
        "col3": "1984-11-05",
        "col4": "1984-11-05"
    },
    {
        "col0": "N. Heidfeld",
        "col1": "Rebellion Racing",
        "col2": "Monchengladbach",
        "col3": "1977-05-10",
        "col4": "1977-05-10"
    },
    {
        "col0": "N. Foster",
        "col1": "West Surrey Racing",
        "col2": "Redditch",
        "col3": "1965-10-10",
        "col4": "1965-10-10"
    },
    {
        "col0": "N. Cassidy",
        "col1": "Prema Powerteam",
        "col2": "Auckland",
        "col3": "1994-08-19",
        "col4": "1994-08-19"
    },
    {
        "col0": "N. Latifi",
        "col1": "Arden International",
        "col2": "Toronto",
        "col3": "1995-06-29",
        "col4": "1995-06-29"
    },
    {
        "col0": "N. Wei",
        "col1": "Son Veng Racing Team",
        "col2": "China",
        "col3": "1981-03-21",
        "col4": "1981-03-21"
    },
    {
        "col0": "N. Panciatici",
        "col1": "Mofaz Racing",
        "col2": "Reims",
        "col3": "1988-09-26",
        "col4": "1988-09-26"
    },
    {
        "col0": "N. Mason",
        "col1": "Hilmer Motorsport",
        "col2": "Niagara Falls, Ontario",
        "col3": "1987-10-13",
        "col4": "1987-10-13"
    },
    {
        "col0": "N. Jani",
        "col1": "Porsche",
        "col2": "A1 Team Switzerland",
        "col3": "1983-12-08",
        "col4": "1983-12-08"
    },
    {
        "col0": "N. Hanjitkasen",
        "col1": "TBN MK Racing Team",
        "col2": "Bangkok",
        "col3": "1992-06-01",
        "col4": "1992-06-01"
    },
    {
        "col0": "N. Berthon",
        "col1": "Team Lazarus",
        "col2": "France",
        "col3": "1989-07-01",
        "col4": "1989-07-01"
    },
    {
        "col0": "N. Kowalska",
        "col1": "MotorSport Vision",
        "col2": "Koszalin",
        "col3": "1989-12-31",
        "col4": "1989-12-31"
    },
    {
        "col0": "N. Gachnang",
        "col1": "MotorSport Vision",
        "col2": "Vevey",
        "col3": "1987-10-27",
        "col4": "1987-10-27"
    },
    {
        "col0": "N. Ittiritpong",
        "col1": "Vattana Motorsport",
        "col2": "Thailand",
        "col3": "1983-07-30",
        "col4": "1983-07-30"
    },
    {
        "col0": "N. Jeffri",
        "col1": "Motopark Academy",
        "col2": "Kuala Lumpur",
        "col3": "1993-10-24",
        "col4": "1993-10-24"
    },
    {
        "col0": "M. Sathienthirakul",
        "col1": "Craft-Bamboo Racing",
        "col2": "Bangkok",
        "col3": "1985-10-06",
        "col4": "1985-10-06"
    },
    {
        "col0": "M. Dons",
        "col1": "University of Bolton",
        "col2": "Denmark",
        "col3": "1988-12-29",
        "col4": "1988-12-29"
    },
    {
        "col0": "M. Gilbert",
        "col1": "Carlin Motorsport",
        "col2": "Kuala Lumpur",
        "col3": "1994-05-10",
        "col4": "1994-05-10"
    },
    {
        "col0": "M. Evans",
        "col1": "Campos Racing",
        "col2": "Auckland",
        "col3": "1994-06-24",
        "col4": "1994-06-24"
    },
    {
        "col0": "M. Jensen",
        "col1": "Mucke Motorsport",
        "col2": "Aarhus",
        "col3": "1994-12-31",
        "col4": "1994-12-31"
    },
    {
        "col0": "M. Monras",
        "col1": "MotorSport Vision",
        "col2": "Barcelona",
        "col3": "1992-01-17",
        "col4": "1992-01-17"
    },
    {
        "col0": "M. Kozlovskiy",
        "col1": "Lada Sport",
        "col2": "Saint Petersburg",
        "col3": "1989-10-17",
        "col4": "1989-10-17"
    },
    {
        "col0": "M. Grachev",
        "col1": "WestCoast Racing",
        "col2": "Russia",
        "col3": "1988-01-04",
        "col4": "1988-01-04"
    },
    {
        "col0": "M. Aleshin",
        "col1": "Schmidt Peterson Motorsports",
        "col2": "Russian Soviet Federative Socialist Republic",
        "col3": "1987-05-22",
        "col4": "1987-05-22"
    },
    {
        "col0": "M. Rockenfeller",
        "col1": "Abt Sportsline",
        "col2": "West Germany",
        "col3": "1983-10-31",
        "col4": "1983-10-31"
    },
    {
        "col0": "M. Parisy",
        "col1": "Muhlner Motorsport",
        "col2": "Pau, Pyrenees-Atlantiques",
        "col3": "1984-10-08",
        "col4": "1984-10-08"
    },
    {
        "col0": "M. Conway",
        "col1": "Toyota Motorsport GmbH",
        "col2": "England",
        "col3": "1983-08-19",
        "col4": "1983-08-19"
    },
    {
        "col0": "M. Marinescu",
        "col1": "Zeta Corse",
        "col2": "Brasov",
        "col3": "1989-01-25",
        "col4": "1989-01-25"
    },
    {
        "col0": "M. Ramos",
        "col1": "Vitaphone Racing",
        "col2": "Porto",
        "col3": "1971-09-26",
        "col4": "1971-09-26"
    },
    {
        "col0": "M. Molina",
        "col1": "Abt Sportsline",
        "col2": "Spain",
        "col3": "1989-02-17",
        "col4": "1989-02-17"
    },
    {
        "col0": "M. Cerruti",
        "col1": "Romeo Ferraris",
        "col2": "Rome",
        "col3": "1987-02-18",
        "col4": "1987-02-18"
    },
    {
        "col0": "M. Rossi",
        "col1": "SUNRED Engineering",
        "col2": "Chambery",
        "col3": "1988-04-12",
        "col4": "1988-04-12"
    },
    {
        "col0": "M. Meadows",
        "col1": "Redline Racing",
        "col2": "Oxford",
        "col3": "1987-09-11",
        "col4": "1987-09-11"
    },
    {
        "col0": "M. Krumm",
        "col1": "Nismo",
        "col2": "Baden-Wurttemberg",
        "col3": "1970-03-19",
        "col4": "1970-03-19"
    },
    {
        "col0": "M. Epps",
        "col1": "Tony Gilham Racing",
        "col2": "Hemel Hempstead",
        "col3": "1992-03-12",
        "col4": "1992-03-12"
    },
    {
        "col0": "M. Christensen",
        "col1": "DAMS",
        "col2": "Karlslunde",
        "col3": "1990-08-28",
        "col4": "1990-08-28"
    },
    {
        "col0": "M. Choi",
        "col1": "Prince Racing",
        "col2": "Hong Kong",
        "col3": "1968-06-25",
        "col4": "1968-06-25"
    },
    {
        "col0": "M. Caine",
        "col1": "Motorbase Performance",
        "col2": "Cambridge",
        "col3": "1969-08-13",
        "col4": "1969-08-13"
    },
    {
        "col0": "M. Bartels",
        "col1": "Vitaphone Racing",
        "col2": "Plettenberg",
        "col3": "1968-03-08",
        "col4": "1968-03-08"
    },
    {
        "col0": "M. Andretti",
        "col1": "Andretti Autosport",
        "col2": "Bethlehem, Pennsylvania",
        "col3": "1962-10-05",
        "col4": "1962-10-05"
    },
    {
        "col0": "M. Ammermuller",
        "col1": "Walter Lechner Racing",
        "col2": "A1 Team Germany",
        "col3": "1986-02-14",
        "col4": "1986-02-14"
    },
    {
        "col0": "M. Rossi",
        "col1": "SUNRED Engineering",
        "col2": "Chambery",
        "col3": "1988-04-12",
        "col4": "1988-04-12"
    },
    {
        "col0": "M. Rojas",
        "col1": "DeltaWing",
        "col2": "Mexico",
        "col3": "1981-08-18",
        "col4": "1981-08-18"
    },
    {
        "col0": "M. Gidley",
        "col1": "GAINSCO/Bob Stallings Racing",
        "col2": "Mexico",
        "col3": "1970-09-29",
        "col4": "1970-09-29"
    },
    {
        "col0": "M. McKee",
        "col1": "Bamboo Engineering",
        "col2": "Singapore",
        "col3": "1994-08-19",
        "col4": "1994-08-19"
    },
    {
        "col0": "M. v. Buuren",
        "col1": "Pons Racing",
        "col2": "Rockanje",
        "col3": "1995-01-05",
        "col4": "1995-01-05"
    },
    {
        "col0": "M. Bennani",
        "col1": "Sebastien Loeb Racing",
        "col2": "Fez, Morocco",
        "col3": "1983-08-25",
        "col4": "1983-08-25"
    },
    {
        "col0": "M. Gunther",
        "col1": "Prema Powerteam",
        "col2": "Oberstdorf",
        "col3": "1997-07-02",
        "col4": "1997-07-02"
    },
    {
        "col0": "M. Gotz",
        "col1": "HWA Team",
        "col2": "West Germany",
        "col3": "1986-02-04",
        "col4": "1986-02-04"
    },
    {
        "col0": "M. Gunther",
        "col1": "Prema Powerteam",
        "col2": "Oberstdorf",
        "col3": "1997-07-02",
        "col4": "1997-07-02"
    },
    {
        "col0": "M. Gotz",
        "col1": "HWA Team",
        "col2": "West Germany",
        "col3": "1986-02-04",
        "col4": "1986-02-04"
    },
    {
        "col0": "M. Martin",
        "col1": "BMW Team RBM",
        "col2": "Uccle",
        "col3": "1986-03-20",
        "col4": "1986-03-20"
    },
    {
        "col0": "M. Wissel",
        "col1": "FC Basel 1893",
        "col2": "Alzenau",
        "col3": "1989-11-24",
        "col4": "1989-11-24"
    },
    {
        "col0": "M. Snegirev",
        "col1": "Virtuosi Racing",
        "col2": "Moscow",
        "col3": "1987-06-12",
        "col4": "1987-06-12"
    },
    {
        "col0": "M. Pucher",
        "col1": "World RX Team Austria",
        "col2": "Vienna",
        "col3": "1954-03-31",
        "col4": "1954-03-31"
    },
    {
        "col0": "M. Coates",
        "col1": "Pro Motorsport",
        "col2": "Northallerton",
        "col3": "1994-01-04",
        "col4": "1994-01-04"
    },
    {
        "col0": "M. Russo",
        "col1": "AF Corse",
        "col2": "Parana, Entre Rios",
        "col3": "1985-09-04",
        "col4": "1985-09-04"
    },
    {
        "col0": "M. Ekstrom",
        "col1": "Abt Sportsline",
        "col2": "Sweden",
        "col3": "1978-07-14",
        "col4": "1978-07-14"
    },
    {
        "col0": "M. Vaxiviere",
        "col1": "AF Corse",
        "col2": "Limoges",
        "col3": "1994-12-03",
        "col4": "1994-12-03"
    },
    {
        "col0": "M. Lahaye",
        "col1": "OAK Racing",
        "col2": "Rennes",
        "col3": "1984-11-22",
        "col4": "1984-11-22"
    },
    {
        "col0": "M. Brabham",
        "col1": "Andretti Autosport",
        "col2": "Boca Raton, Florida",
        "col3": "1994-02-25",
        "col4": "1994-02-25"
    },
    {
        "col0": "M. Simpson",
        "col1": "Speedworks Motorsport",
        "col2": "Berkshire",
        "col3": "1981-08-29",
        "col4": "1981-08-29"
    },
    {
        "col0": "M. Parry",
        "col1": "Koiranen GP",
        "col2": "Cardiff",
        "col3": "1994-01-14",
        "col4": "1994-01-14"
    },
    {
        "col0": "M. Neal",
        "col1": "Team Dynamics",
        "col2": "Stourbridge",
        "col3": "1966-12-20",
        "col4": "1966-12-20"
    },
    {
        "col0": "M. Laine",
        "col1": "Strakka Racing",
        "col2": "Joensuu",
        "col3": "1990-04-25",
        "col4": "1990-04-25"
    },
    {
        "col0": "M. Tuscher",
        "col1": "Jenzer Motorsport",
        "col2": "Noville, Switzerland",
        "col3": "1996-12-12",
        "col4": "1996-12-12"
    },
    {
        "col0": "M. Lauda",
        "col1": "Mucke Motorsport",
        "col2": "Salzburg",
        "col3": "1981-01-30",
        "col4": "1981-01-30"
    },
    {
        "col0": "M. Tuscher",
        "col1": "Jenzer Motorsport",
        "col2": "Noville, Switzerland",
        "col3": "1996-12-12",
        "col4": "1996-12-12"
    },
    {
        "col0": "M. Isaakyan",
        "col1": "JD Motorsport",
        "col2": "Moscow",
        "col3": "1998-04-17",
        "col4": "1998-04-17"
    },
    {
        "col0": "M. Jackson",
        "col1": "Motorbase Performance",
        "col2": "Henley-in-Arden",
        "col3": "1981-06-10",
        "col4": "1981-06-10"
    },
    {
        "col0": "M. Russo",
        "col1": "AF Corse",
        "col2": "Parana, Entre Rios",
        "col3": "1985-09-04",
        "col4": "1985-09-04"
    },
    {
        "col0": "M. Liverani",
        "col1": "Abarth",
        "col2": "Rocca San Casciano",
        "col3": "1961-09-19",
        "col4": "1961-09-19"
    },
    {
        "col0": "M. Mitchell",
        "col1": "Mason Mitchell Motorsports",
        "col2": "Iowa",
        "col3": "1994-06-25",
        "col4": "1994-06-25"
    },
    {
        "col0": "M. Kawabata",
        "col1": "Toyo Tire & Rubber Company",
        "col2": "Osaka",
        "col3": "1977-10-15",
        "col4": "1977-10-15"
    },
    {
        "col0": "M. Ida",
        "col1": "Formula Racing Development Limited",
        "col2": "Japan",
        "col3": "1961-07-25",
        "col4": "1961-07-25"
    },
    {
        "col0": "M. Kirchhofer",
        "col1": "Carlin Motorsport",
        "col2": "Leipzig",
        "col3": "1994-03-19",
        "col4": "1994-03-19"
    },
    {
        "col0": "M. Tomczyk",
        "col1": "Schnitzer Motorsport",
        "col2": "West Germany",
        "col3": "1981-12-07",
        "col4": "1981-12-07"
    },
    {
        "col0": "M. Plowman",
        "col1": "OAK Racing",
        "col2": "Staffordshire",
        "col3": "1987-10-03",
        "col4": "1987-10-03"
    },
    {
        "col0": "M. Donnelly",
        "col1": "Pro Motorsport",
        "col2": "Belfast",
        "col3": "1964-03-26",
        "col4": "1964-03-26"
    },
    {
        "col0": "M. Depper",
        "col1": "Eurotech Racing",
        "col2": "Kings Norton",
        "col3": "1968-07-05",
        "col4": "1968-07-05"
    },
    {
        "col0": "M. Cao",
        "col1": "Fortec Motorsport",
        "col2": "Hunan",
        "col3": "1993-02-17",
        "col4": "1993-02-17"
    },
    {
        "col0": "M. Engel",
        "col1": "Mercedes-AMG",
        "col2": "Munich",
        "col3": "1985-08-27",
        "col4": "1985-08-27"
    },
    {
        "col0": "M. Stockinger",
        "col1": "Status Grand Prix",
        "col2": "Manila",
        "col3": "1991-04-04",
        "col4": "1991-04-04"
    },
    {
        "col0": "M. Pommer",
        "col1": "Motopark Academy",
        "col2": "Heilbronn",
        "col3": "1991-01-27",
        "col4": "1991-01-27"
    },
    {
        "col0": "M. Palttala",
        "col1": "Turner Motorsport",
        "col2": "Nakkila",
        "col3": "1977-08-16",
        "col4": "1977-08-16"
    },
    {
        "col0": "M. Oestreich",
        "col1": "Campos Racing",
        "col2": "Fulda",
        "col3": "1963-07-03",
        "col4": "1963-07-03"
    },
    {
        "col0": "M. Niemela",
        "col1": "Jensen MotorSport",
        "col2": "Rauma, Finland",
        "col3": "1984-03-20",
        "col4": "1984-03-20"
    },
    {
        "col0": "M. Webber",
        "col1": "Porsche",
        "col2": "New South Wales",
        "col3": "1976-08-27",
        "col4": "1976-08-27"
    },
    {
        "col0": "M. Thompson",
        "col1": "Ken Schrader Racing",
        "col2": "Georgia",
        "col3": "1951-07-09",
        "col4": "1951-07-09"
    },
    {
        "col0": "M. Howard",
        "col1": "Team BKR",
        "col2": "Norfolk",
        "col3": "1965-01-09",
        "col4": "1965-01-09"
    },
    {
        "col0": "M. Romancini",
        "col1": "Conquest Racing",
        "col2": "Sao Paulo",
        "col3": "1987-12-15",
        "col4": "1987-12-15"
    },
    {
        "col0": "M. Dominguez",
        "col1": "Pacific Coast Motorsports",
        "col2": "Mexico City",
        "col3": "1975-12-01",
        "col4": "1975-12-01"
    },
    {
        "col0": "M. Zipoli",
        "col1": "Target Racing",
        "col2": "Genoa",
        "col3": "1990-06-16",
        "col4": "1990-06-16"
    },
    {
        "col0": "M. Wittmann",
        "col1": "Team RMG",
        "col2": "West Germany",
        "col3": "1989-11-24",
        "col4": "1989-11-24"
    },
    {
        "col0": "M. Sorensen",
        "col1": "Carlin Motorsport",
        "col2": "Aalborg",
        "col3": "1990-09-06",
        "col4": "1990-09-06"
    },
    {
        "col0": "M. Holzer",
        "col1": "Paul Miller Racing",
        "col2": "Germany",
        "col3": "1988-07-30",
        "col4": "1988-07-30"
    },
    {
        "col0": "M. Bonanomi",
        "col1": "Team Joest",
        "col2": "Italy",
        "col3": "1985-03-12",
        "col4": "1985-03-12"
    },
    {
        "col0": "M. Barba",
        "col1": "Campos Racing",
        "col2": "Seville",
        "col3": "1985-11-10",
        "col4": "1985-11-10"
    },
    {
        "col0": "M. Andretti",
        "col1": "Andretti Autosport",
        "col2": "Nazareth, Pennsylvania",
        "col3": "1987-03-13",
        "col4": "1987-03-13"
    },
    {
        "col0": "M. Hynes",
        "col1": "Triple Eight Race Engineering",
        "col2": "Guildford",
        "col3": "1978-02-26",
        "col4": "1978-02-26"
    },
    {
        "col0": "M. Gene",
        "col1": "Scuderia Ferrari",
        "col2": "Sabadell",
        "col3": "1974-3-29",
        "col4": "1974-3-29"
    },
    {
        "col0": "M. Giao",
        "col1": "Drivex",
        "col2": "Lisbon",
        "col3": "1971-06-28",
        "col4": "1971-06-28"
    },
    {
        "col0": "M. K. Lok",
        "col1": "RPM Racing",
        "col2": "Hong Kong",
        "col3": "1965-08-17",
        "col4": "1965-08-17"
    },
    {
        "col0": "M. H. Tak",
        "col1": "Campos Racing",
        "col2": "Hong Kong",
        "col3": "1959-10-28",
        "col4": "1959-10-28"
    },
    {
        "col0": "M. Qinghua",
        "col1": "Citroen Total WTCC",
        "col2": "Shanghai",
        "col3": "1987-12-25",
        "col4": "1987-12-25"
    },
    {
        "col0": "L. S. Silva",
        "col1": "Carlin Motorsport",
        "col2": "Benguela",
        "col3": "1990-08-23",
        "col4": "1990-08-23"
    },
    {
        "col0": "L. Razia",
        "col1": "Schmidt Peterson Motorsports",
        "col2": "Barreiras",
        "col3": "1989-04-04",
        "col4": "1989-04-04"
    },
    {
        "col0": "L. Leeds",
        "col1": "Arden International",
        "col2": "Australia",
        "col3": "2000-03-06",
        "col4": "2000-03-06"
    },
    {
        "col0": "L. Diaz",
        "col1": "Level 5 Motorsports",
        "col2": "Mexico City",
        "col3": "1977-12-01",
        "col4": "1977-12-01"
    },
    {
        "col0": "L. Ferrara",
        "col1": "Top Run Motorsport",
        "col2": "Bari",
        "col3": "1982-05-12",
        "col4": "1982-05-12"
    },
    {
        "col0": "L. Cypriano",
        "col1": "JSB Competition",
        "col2": "Hauts-de-Seine",
        "col3": "1996-09-02",
        "col4": "1996-09-02"
    },
    {
        "col0": "L. d. Grassi",
        "col1": "Joest Racing",
        "col2": "Sao Paulo",
        "col3": "1984-08-11",
        "col4": "1984-08-11"
    },
    {
        "col0": "L. Foresti",
        "col1": "Comtec Racing",
        "col2": "Brasilia",
        "col3": "1992-05-12",
        "col4": "1992-05-12"
    },
    {
        "col0": "L. Auer",
        "col1": "Mucke Motorsport",
        "col2": "Tyrol",
        "col3": "1994-09-11",
        "col4": "1994-09-11"
    },
    {
        "col0": "L. Ghiotto",
        "col1": "Trident Racing",
        "col2": "Arzignano",
        "col3": "1995-02-24",
        "col4": "1995-02-24"
    },
    {
        "col0": "L. Filippi",
        "col1": "Dale Coyne Racing",
        "col2": "Italy",
        "col3": "1985-08-09",
        "col4": "1985-08-09"
    },
    {
        "col0": "L. S. Silva",
        "col1": "Carlin Motorsport",
        "col2": "Benguela",
        "col3": "1990-08-23",
        "col4": "1990-08-23"
    },
    {
        "col0": "L. Duval",
        "col1": "Joest Racing",
        "col2": "Chartres",
        "col3": "1982-06-12",
        "col4": "1982-06-12"
    },
    {
        "col0": "L. Deletraz",
        "col1": "Fortec Motorsport",
        "col2": "Geneva",
        "col3": "1997-04-22",
        "col4": "1997-04-22"
    },
    {
        "col0": "L. Hezemans",
        "col1": "Target Competition",
        "col2": "Belgium",
        "col3": "1997-05-26",
        "col4": "1997-05-26"
    },
    {
        "col0": "L. Veglia",
        "col1": "Engstler Motorsport",
        "col2": "Italy",
        "col3": "1996-10-07",
        "col4": "1996-10-07"
    },
    {
        "col0": "L. Duval",
        "col1": "Joest Racing",
        "col2": "Chartres",
        "col3": "1982-06-12",
        "col4": "1982-06-12"
    },
    {
        "col0": "L. Read",
        "col1": "Bryan Herta Autosport",
        "col2": "Great Britain",
        "col3": "1990-11-29",
        "col4": "1990-11-29"
    },
    {
        "col0": "L. Griffin",
        "col1": "Motorbase Performance",
        "col2": "Chipping Barnet",
        "col3": "1973-03-09",
        "col4": "1973-03-09"
    },
    {
        "col0": "L. Williamson",
        "col1": "Bamboo Engineering",
        "col2": "Dundee",
        "col3": "1989-11-11",
        "col4": "1989-11-11"
    },
    {
        "col0": "L. Munter",
        "col1": "Venturini Motorsports",
        "col2": "Minnesota",
        "col3": "1974-02-18",
        "col4": "1974-02-18"
    },
    {
        "col0": "L. Keen",
        "col1": "Alex Job Racing",
        "col2": "Georgia",
        "col3": "1983-07-22",
        "col4": "1983-07-22"
    },
    {
        "col0": "L. Cazenave",
        "col1": "Wiechers-Sport",
        "col2": "Pau, Pyrenees-Atlantiques",
        "col3": "1978-04-25",
        "col4": "1978-04-25"
    },
    {
        "col0": "L. Vanthoor",
        "col1": "W Racing Team",
        "col2": "Hasselt",
        "col3": "1991-05-08",
        "col4": "1991-05-08"
    },
    {
        "col0": "L. Sorensen",
        "col1": "Manor Motorsport",
        "col2": "Aalborg",
        "col3": "1996-12-07",
        "col4": "1996-12-07"
    },
    {
        "col0": "L. Norris",
        "col1": "Josef Kaufmann Racing",
        "col2": "Bristol",
        "col3": "1999-11-13",
        "col4": "1999-11-13"
    },
    {
        "col0": "L. Stroll",
        "col1": "Prema Powerteam",
        "col2": "Montreal",
        "col3": "1998-10-29",
        "col4": "1998-10-29"
    },
    {
        "col0": "L. Sanz",
        "col1": "KTM",
        "col2": "Barcelona",
        "col3": "1985-12-11",
        "col4": "1985-12-11"
    },
    {
        "col0": "K. Estre",
        "col1": "OAK Racing",
        "col2": "Lyon",
        "col3": "1988-10-28",
        "col4": "1988-10-28"
    },
    {
        "col0": "K. Einar",
        "col1": "Team West-Tec",
        "col2": "Reykjavik",
        "col3": "1989-01-08",
        "col4": "1989-01-08"
    },
    {
        "col0": "K. Tereshchenko",
        "col1": "Campos Racing",
        "col2": "Moscow",
        "col3": "1994-06-17",
        "col4": "1994-06-17"
    },
    {
        "col0": "K. Hirate",
        "col1": "SARD",
        "col2": "Komaki",
        "col3": "1986-03-24",
        "col4": "1986-03-24"
    },
    {
        "col0": "K. Graf",
        "col1": "Muscle Milk Pickett Racing",
        "col2": "Germany",
        "col3": "1969-07-21",
        "col4": "1969-07-21"
    },
    {
        "col0": "K. Ladygin",
        "col1": "Russian Bears Motorsport",
        "col2": "Sverdlovsk, Luhansk Oblast",
        "col3": "1978-12-17",
        "col4": "1978-12-17"
    },
    {
        "col0": "K. Sato",
        "col1": "Campos Racing",
        "col2": "Kobe",
        "col3": "1989-10-05",
        "col4": "1989-10-05"
    },
    {
        "col0": "K. Gallagher",
        "col1": "Tony Gilham Racing",
        "col2": "Scotland",
        "col3": "1990-03-10",
        "col4": "1990-03-10"
    },
    {
        "col0": "K. Tse",
        "col1": "Teamwork Motorsport",
        "col2": "Hong Kong",
        "col3": "1979-01-19",
        "col4": "1979-01-19"
    },
    {
        "col0": "K. Korjus",
        "col1": "ART Grand Prix",
        "col2": "Tallinn",
        "col3": "1993-01-09",
        "col4": "1993-01-09"
    }
]