[
    {
        "col0": "M. Maloy",
        "col1": "New York City",
        "col2": "Davidson Wildcats men's basketball",
        "col3": "Boston Celtics"
    },
    {
        "col0": "M. Macaluso",
        "col1": "Buffalo, New York",
        "col2": "Canisius Golden Griffins men's basketball",
        "col3": "Buffalo Braves"
    },
    {
        "col0": "M. Lynn",
        "col1": "Covina, California",
        "col2": "UCLA Bruins men's basketball",
        "col3": "Chicago Bulls"
    },
    {
        "col0": "M. Lewis",
        "col1": "Missoula, Montana",
        "col2": "Duke Blue Devils men's basketball",
        "col3": "Boston Celtics"
    },
    {
        "col0": "M. Kearns",
        "col1": "Trenton, New Jersey",
        "col2": "Princeton Tigers men's basketball",
        "col3": "Philadelphia Warriors"
    },
    {
        "col0": "M. Jones",
        "col1": "Columbus, Georgia",
        "col2": "Auburn Tigers men's basketball",
        "col3": "Milwaukee Bucks"
    },
    {
        "col0": "M. Jackson",
        "col1": "Washington, D.C.",
        "col2": "Allan Hancock College",
        "col3": "Houston Rockets"
    },
    {
        "col0": "M. Iuzzolino",
        "col1": "Altoona, Pennsylvania",
        "col2": "Saint Francis Red Flash men's basketball",
        "col3": "Dallas Mavericks"
    },
    {
        "col0": "M. Harper",
        "col1": "Chicago",
        "col2": "North Park University",
        "col3": "Portland Trail Blazers"
    },
    {
        "col0": "M. Green",
        "col1": "McComb, Mississippi",
        "col2": "Louisiana Tech Bulldogs basketball",
        "col3": "Seattle SuperSonics"
    },
    {
        "col0": "M. Gminski",
        "col1": "Monroe, Connecticut",
        "col2": "Duke Blue Devils men's basketball",
        "col3": "New Jersey Nets"
    },
    {
        "col0": "M. Glenn",
        "col1": "Rome, Georgia",
        "col2": "Southern Illinois Salukis men's basketball",
        "col3": "Chicago Bulls"
    },
    {
        "col0": "M. Gibson",
        "col1": "Williamsburg County, South Carolina",
        "col2": "USC Upstate Spartans men's basketball",
        "col3": "Washington Bullets"
    },
    {
        "col0": "M. Gale",
        "col1": "Philadelphia",
        "col2": "Elizabeth City State Vikings",
        "col3": "Chicago Bulls"
    },
    {
        "col0": "M. Flynn",
        "col1": "Morocco",
        "col2": "Kentucky Wildcats men's basketball",
        "col3": "Philadelphia 76ers"
    },
    {
        "col0": "M. Farmer",
        "col1": "Oklahoma City",
        "col2": "San Francisco Dons men's basketball",
        "col3": "New York Knicks"
    },
    {
        "col0": "M. Evans",
        "col1": "Goldsboro, North Carolina",
        "col2": "Kansas State Wildcats men's basketball",
        "col3": "Denver Nuggets"
    },
    {
        "col0": "M. D. Sr.",
        "col1": "Brooklyn",
        "col2": "South Carolina Gamecocks men's basketball",
        "col3": "Philadelphia 76ers"
    },
    {
        "col0": "M. D. Jr.",
        "col1": "Fort Worth, Texas",
        "col2": "Duke Blue Devils men's basketball",
        "col3": "Golden State Warriors"
    },
    {
        "col0": "M. Davis",
        "col1": "Brooklyn",
        "col2": "Virginia Union University",
        "col3": "Baltimore Bullets"
    },
    {
        "col0": "M. C. Jr.",
        "col1": "Fayetteville, Arkansas",
        "col2": "Ohio State Buckeyes men's basketball",
        "col3": "Memphis Grizzlies"
    },
    {
        "col0": "M. Casey",
        "col1": "Simpsonville, Kentucky",
        "col2": "Kentucky Wildcats men's basketball",
        "col3": "Cleveland Cavaliers"
    },
    {
        "col0": "M. Butler",
        "col1": "Memphis, Tennessee",
        "col2": "Memphis Tigers men's basketball",
        "col3": "San Diego Rockets"
    },
    {
        "col0": "M. Brown",
        "col1": "Newark, New Jersey",
        "col2": "George Washington Colonials men's basketball",
        "col3": "Chicago Bulls"
    },
    {
        "col0": "M. Brittain",
        "col1": "Clearwater, Florida",
        "col2": "South Carolina Gamecocks men's basketball",
        "col3": "San Antonio Spurs"
    },
    {
        "col0": "M. Bratz",
        "col1": "Lompoc, California",
        "col2": "Stanford Cardinal men's basketball",
        "col3": "Phoenix Suns"
    },
    {
        "col0": "M. Bibby",
        "col1": "Cherry Hill, New Jersey",
        "col2": "Arizona Wildcats men's basketball",
        "col3": "Vancouver Grizzlies"
    },
    {
        "col0": "M. Barr",
        "col1": "Canton, Ohio",
        "col2": "Duquesne Dukes men's basketball",
        "col3": "Chicago Bulls"
    },
    {
        "col0": "M. Bantom",
        "col1": "Philadelphia",
        "col2": "Saint Joseph's Hawks men's basketball",
        "col3": "Phoenix Suns"
    },
    {
        "col0": "M. Ruef",
        "col1": "Dayton, Ohio",
        "col2": "Stanford Cardinal women's basketball",
        "col3": "Seattle Storm"
    },
    {
        "col0": "M. Johnson",
        "col1": "Chicago",
        "col2": "Aurora University",
        "col3": "Portland Trail Blazers"
    },
    {
        "col0": "M. Dillard",
        "col1": "Hollywood",
        "col2": "Florida State Seminoles men's basketball",
        "col3": "Cleveland Cavaliers"
    },
    {
        "col0": "M. Davis",
        "col1": "Rochester, Pennsylvania",
        "col2": "Duquesne Dukes men's basketball",
        "col3": "Milwaukee Bucks"
    },
    {
        "col0": "M. Snow",
        "col1": "Pensacola, Florida",
        "col2": "Tennessee Lady Volunteers basketball",
        "col3": "Houston Comets"
    },
    {
        "col0": "M. Plouffe",
        "col1": "Edmonton",
        "col2": "Utah Utes women's basketball",
        "col3": "Seattle Storm"
    },
    {
        "col0": "M. V. Gorp",
        "col1": "Warren, Michigan",
        "col2": "Duke Blue Devils women's basketball",
        "col3": "New York Liberty"
    },
    {
        "col0": "M. Williams",
        "col1": "Dallas",
        "col2": "Baylor Bears basketball",
        "col3": "Detroit Pistons"
    },
    {
        "col0": "M. R. Richardson",
        "col1": "Lubbock, Texas",
        "col2": "Montana Grizzlies men's basketball",
        "col3": "New York Knicks"
    },
    {
        "col0": "M. Young",
        "col1": "Houston",
        "col2": "Houston Cougars men's basketball",
        "col3": "Boston Celtics"
    },
    {
        "col0": "M. Wright",
        "col1": "Chicago",
        "col2": "Arizona Wildcats men's basketball",
        "col3": "New York Knicks"
    },
    {
        "col0": "M. Wiley",
        "col1": "Long Beach, California",
        "col2": "Long Beach State 49ers men's basketball",
        "col3": "San Antonio Spurs"
    },
    {
        "col0": "M. Sweetney",
        "col1": "Washington, D.C.",
        "col2": "Georgetown Hoyas men's basketball",
        "col3": "New York Knicks"
    },
    {
        "col0": "M. Smith",
        "col1": "Washington, D.C.",
        "col2": "Providence Friars men's basketball",
        "col3": "Sacramento Kings"
    },
    {
        "col0": "M. Smith",
        "col1": "Rochester, New York",
        "col2": "BYU Cougars men's basketball",
        "col3": "Boston Celtics"
    },
    {
        "col0": "M. Ruffin",
        "col1": "Colorado",
        "col2": "Tulsa Golden Hurricane men's basketball",
        "col3": "Chicago Bulls"
    },
    {
        "col0": "M. Redd",
        "col1": "Columbus, Ohio",
        "col2": "Ohio State Buckeyes men's basketball",
        "col3": "Milwaukee Bucks"
    },
    {
        "col0": "M. Olowokandi",
        "col1": "Lagos",
        "col2": "Pacific Tigers men's basketball",
        "col3": "Los Angeles Clippers"
    },
    {
        "col0": "M. McDonald",
        "col1": "Longview, Texas",
        "col2": "Utah Valley Wolverines men's basketball",
        "col3": "Golden State Warriors"
    },
    {
        "col0": "M. Kidd-Gilchrist",
        "col1": "Elizabeth, New Jersey",
        "col2": "Kentucky Wildcats men's basketball",
        "col3": "Charlotte Bobcats"
    },
    {
        "col0": "M. Jackson",
        "col1": "Fairfax, Virginia",
        "col2": "Georgetown Hoyas men's basketball",
        "col3": "New York Knicks"
    },
    {
        "col0": "M. Holton",
        "col1": "Seattle",
        "col2": "UCLA Bruins men's basketball",
        "col3": "Golden State Warriors"
    },
    {
        "col0": "M. Hackett",
        "col1": "Orangeburg, South Carolina",
        "col2": "Jacksonville Dolphins men's basketball",
        "col3": "Los Angeles Lakers"
    },
    {
        "col0": "M. Graham",
        "col1": "Washington, D.C.",
        "col2": "Georgetown Hoyas men's basketball",
        "col3": "Seattle SuperSonics"
    },
    {
        "col0": "M. Gbinije",
        "col1": "Hartford, Connecticut",
        "col2": "Duke Blue Devils men's basketball",
        "col3": "Detroit Pistons"
    },
    {
        "col0": "M. Finley",
        "col1": "Melrose Park, Illinois",
        "col2": "Wisconsin Badgers men's basketball",
        "col3": "Phoenix Suns"
    },
    {
        "col0": "M. Doleac",
        "col1": "San Antonio, Texas",
        "col2": "Utah Utes men's basketball",
        "col3": "Orlando Magic"
    },
    {
        "col0": "M. Dickerson",
        "col1": "Greenville, South Carolina",
        "col2": "Arizona Wildcats men's basketball",
        "col3": "Houston Rockets"
    },
    {
        "col0": "M. Cutright",
        "col1": "Zwolle, Louisiana",
        "col2": "McNeese State Cowboys basketball",
        "col3": "Denver Nuggets"
    },
    {
        "col0": "M. Cooper",
        "col1": "Los Angeles",
        "col2": "Pasadena City College",
        "col3": "Los Angeles Lakers"
    },
    {
        "col0": "M. Carter-Williams",
        "col1": "Hamilton, Massachusetts",
        "col2": "Syracuse Orange men's basketball",
        "col3": "Philadelphia 76ers"
    },
    {
        "col0": "M. Cage",
        "col1": "West Memphis, Arkansas",
        "col2": "San Diego State Aztecs men's basketball",
        "col3": "San Diego Clippers"
    },
    {
        "col0": "M. Brooks",
        "col1": "Philadelphia",
        "col2": "La Salle Explorers men's basketball",
        "col3": "San Diego Clippers"
    },
    {
        "col0": "M. Britt",
        "col1": "Suffolk, Virginia",
        "col2": "University of the District of Columbia",
        "col3": "Washington Bullets"
    },
    {
        "col0": "M. Bradley",
        "col1": "Worcester, Massachusetts",
        "col2": "Kentucky Wildcats men's basketball",
        "col3": "Toronto Raptors"
    },
    {
        "col0": "M. Beasley",
        "col1": "Frederick, Maryland",
        "col2": "Kansas State Wildcats men's basketball",
        "col3": "Miami Heat"
    },
    {
        "col0": "M. Ansley",
        "col1": "Birmingham, Alabama",
        "col2": "Alabama Crimson Tide men's basketball",
        "col3": "Orlando Magic"
    },
    {
        "col0": "M. Anderson",
        "col1": "Pennsylvania",
        "col2": "Drexel Dragons men's basketball",
        "col3": "Indiana Pacers"
    },
    {
        "col0": "M. Adams",
        "col1": "Hartford, Connecticut",
        "col2": "Boston College Eagles men's basketball",
        "col3": "Sacramento Kings"
    },
    {
        "col0": "M. Blunt",
        "col1": "New Orleans, Louisiana",
        "col2": "Tulane Green Wave men's basketball",
        "col3": "Los Angeles Lakers"
    },
    {
        "col0": "M. Leonard",
        "col1": "Robinson, Illinois",
        "col2": "Illinois Fighting Illini men's basketball",
        "col3": "Portland Trail Blazers"
    },
    {
        "col0": "M. W. Peace",
        "col1": "Queens",
        "col2": "St. John's Red Storm men's basketball",
        "col3": "Chicago Bulls"
    },
    {
        "col0": "M. Andrade",
        "col1": "Cape Verde",
        "col2": "Old Dominion Lady Monarchs basketball",
        "col3": "Charlotte Sting"
    },
    {
        "col0": "M. Jackson",
        "col1": "Savannah, Georgia",
        "col2": "Utah Utes men's basketball",
        "col3": "Phoenix Suns"
    },
    {
        "col0": "M. Jones",
        "col1": "Montgomery, Alabama",
        "col2": "Florida Gators women's basketball",
        "col3": "Cleveland Rockers"
    },
    {
        "col0": "M. Turpin",
        "col1": "Lexington, Kentucky",
        "col2": "Kentucky Wildcats men's basketball",
        "col3": "Washington Bullets"
    },
    {
        "col0": "M. Levett",
        "col1": "Cleveland",
        "col2": "Cincinnati Bearcats men's basketball",
        "col3": "Detroit Pistons"
    },
    {
        "col0": "M. Ely",
        "col1": "Harvey, Illinois",
        "col2": "Fresno State Bulldogs men's basketball",
        "col3": "Los Angeles Clippers"
    },
    {
        "col0": "M. Peterson",
        "col1": "Thief River Falls, Minnesota",
        "col2": "Wheaton College",
        "col3": "Detroit Pistons"
    },
    {
        "col0": "M. Payton",
        "col1": "Martinsville, Indiana",
        "col2": "Tulane Green Wave men's basketball",
        "col3": "Philadelphia Warriors"
    },
    {
        "col0": "M. Nowell",
        "col1": "Columbus, Ohio",
        "col2": "Ohio State Buckeyes men's basketball",
        "col3": "Chicago Zephyrs"
    },
    {
        "col0": "M. McGaha",
        "col1": "Bastrop, Louisiana",
        "col2": "Arkansas Razorbacks men's basketball",
        "col3": "New York Knicks"
    },
    {
        "col0": "M. Hutchins",
        "col1": "Sacramento, California",
        "col2": "BYU Cougars men's basketball",
        "col3": "Tri-Cities Blackhawks"
    },
    {
        "col0": "M. Gibson",
        "col1": "Cordova, North Carolina",
        "col2": "Western Carolina Catamounts men's basketball",
        "col3": "Los Angeles Lakers"
    },
    {
        "col0": "M. Davis",
        "col1": "New York City",
        "col2": "St. John's Red Storm men's basketball",
        "col3": "New York Knicks"
    },
    {
        "col0": "M. Daniels",
        "col1": "Detroit",
        "col2": "New Mexico Lobos men's basketball",
        "col3": "Cincinnati Royals"
    },
    {
        "col0": "M. Counts",
        "col1": "Coos Bay, Oregon",
        "col2": "Oregon State Beavers men's basketball",
        "col3": "Boston Celtics"
    },
    {
        "col0": "M. Simmons",
        "col1": "Fayetteville, North Carolina",
        "col2": "Tennessee Lady Volunteers basketball",
        "col3": "New York Liberty"
    },
    {
        "col0": "M. Mahoney",
        "col1": "Sturgis, South Dakota",
        "col2": "Kansas State Wildcats women's basketball",
        "col3": "Connecticut Sun"
    },
    {
        "col0": "M. Frazee",
        "col1": "Laredo, Texas",
        "col2": "Liberty Lady Flames basketball",
        "col3": "San Antonio Silver Stars"
    },
    {
        "col0": "M. Duffy",
        "col1": "Kettering, Ohio",
        "col2": "Notre Dame Fighting Irish women's basketball",
        "col3": "Minnesota Lynx"
    },
    {
        "col0": "M. McLemore",
        "col1": "Houston",
        "col2": "Moberly Area Community College",
        "col3": "San Francisco Warriors"
    },
    {
        "col0": "M. Moore",
        "col1": "Jefferson City, Missouri",
        "col2": "Connecticut Huskies women's basketball",
        "col3": "Minnesota Lynx"
    },
    {
        "col0": "M. Taylor",
        "col1": "Detroit",
        "col2": "Michigan Wolverines men's basketball",
        "col3": "Los Angeles Clippers"
    },
    {
        "col0": "M. Stokes",
        "col1": "Pittsburgh",
        "col2": "Saint Francis Red Flash men's basketball",
        "col3": "Rochester Royals"
    },
    {
        "col0": "M. McHartley",
        "col1": "Detroit",
        "col2": "North Carolina A&T Aggies men's basketball",
        "col3": "St. Louis Hawks"
    },
    {
        "col0": "M. Martin",
        "col1": "Liberty, New York",
        "col2": "Saint Joseph's Hawks men's basketball",
        "col3": "Denver Nuggets"
    },
    {
        "col0": "M. Lucas",
        "col1": "Pittsburgh",
        "col2": "Marquette Golden Eagles men's basketball",
        "col3": "Chicago Bulls"
    },
    {
        "col0": "M. King",
        "col1": "Kansas City, Missouri",
        "col2": "Kansas Jayhawks men's basketball",
        "col3": "Boston Celtics"
    },
    {
        "col0": "M. Jeffers",
        "col1": "Morrilton, Arkansas",
        "col2": "University of Arkansas - Fort Smith",
        "col3": "Sacramento Kings"
    },
    {
        "col0": "M. Harkless",
        "col1": "New York City",
        "col2": "St. John's Red Storm men's basketball",
        "col3": "Philadelphia 76ers"
    },
    {
        "col0": "M. Cheeks",
        "col1": "Chicago",
        "col2": "West Texas A&M Buffaloes",
        "col3": "Philadelphia 76ers"
    },
    {
        "col0": "M. Ager",
        "col1": "Detroit",
        "col2": "Michigan State Spartans men's basketball",
        "col3": "Dallas Mavericks"
    },
    {
        "col0": "M. White",
        "col1": "New York City",
        "col2": "Penn Quakers men's basketball",
        "col3": "Portland Trail Blazers"
    },
    {
        "col0": "M. Steigenga",
        "col1": "Grand Rapids, Michigan",
        "col2": "Michigan State Spartans men's basketball",
        "col3": "Chicago Bulls"
    },
    {
        "col0": "M. Harpring",
        "col1": "Cincinnati",
        "col2": "Georgia Tech Yellow Jackets men's basketball",
        "col3": "Orlando Magic"
    },
    {
        "col0": "M. Guokas",
        "col1": "Philadelphia",
        "col2": "Saint Joseph's Hawks men's basketball",
        "col3": "Philadelphia 76ers"
    },
    {
        "col0": "M. Geiger",
        "col1": "Salem, Massachusetts",
        "col2": "Auburn Tigers men's basketball",
        "col3": "Miami Heat"
    },
    {
        "col0": "M. Freije",
        "col1": "Overland Park, Kansas",
        "col2": "Vanderbilt Commodores men's basketball",
        "col3": "Miami Heat"
    },
    {
        "col0": "M. Fish",
        "col1": "Washington, Iowa",
        "col2": "UNC Wilmington Seahawks men's basketball",
        "col3": "Golden State Warriors"
    },
    {
        "col0": "M. Bonner",
        "col1": "Concord, New Hampshire",
        "col2": "Florida Gators men's basketball",
        "col3": "Chicago Bulls"
    },
    {
        "col0": "M. Barnes",
        "col1": "Santa Clara, California",
        "col2": "UCLA Bruins men's basketball",
        "col3": "Memphis Grizzlies"
    },
    {
        "col0": "M. Aitch",
        "col1": "Missouri",
        "col2": "Michigan State Spartans men's basketball",
        "col3": "Detroit Pistons"
    },
    {
        "col0": "M. Cleaves",
        "col1": "Flint, Michigan",
        "col2": "Michigan State Spartans men's basketball",
        "col3": "Detroit Pistons"
    },
    {
        "col0": "M. Ajavon",
        "col1": "Monrovia",
        "col2": "Rutgers Scarlet Knights women's basketball",
        "col3": "Houston Comets"
    },
    {
        "col0": "M. Plumlee",
        "col1": "Fort Wayne, Indiana",
        "col2": "Duke Blue Devils men's basketball",
        "col3": "Brooklyn Nets"
    },
    {
        "col0": "M. Williams",
        "col1": "Bremerton, Washington",
        "col2": "North Carolina Tar Heels men's basketball",
        "col3": "Atlanta Hawks"
    },
    {
        "col0": "M. Webster",
        "col1": "Baltimore",
        "col2": "Morgan State Bears men's basketball",
        "col3": "Atlanta Hawks"
    },
    {
        "col0": "M. Johnson",
        "col1": "DeRidder, Louisiana",
        "col2": "New Mexico Lobos men's basketball",
        "col3": "Chicago Bulls"
    },
    {
        "col0": "M. Delph",
        "col1": "Conway, Arkansas",
        "col2": "Arkansas Razorbacks men's basketball",
        "col3": "Buffalo Braves"
    },
    {
        "col0": "M. Barnes",
        "col1": "Providence, Rhode Island",
        "col2": "Providence Friars men's basketball",
        "col3": "Philadelphia 76ers"
    },
    {
        "col0": "M. Winkler",
        "col1": "Indianapolis",
        "col2": "Louisiana-Lafayette Ragin' Cajuns men's basketball",
        "col3": "Milwaukee Bucks"
    },
    {
        "col0": "M. Roberts",
        "col1": "Brooklyn",
        "col2": "Utah State Aggies men's basketball",
        "col3": "Detroit Pistons"
    },
    {
        "col0": "M. Byrnes",
        "col1": "Syracuse, New York",
        "col2": "Syracuse Orange men's basketball",
        "col3": "Phoenix Suns"
    },
    {
        "col0": "M. Nessley",
        "col1": "Columbus, Ohio",
        "col2": "Duke Blue Devils men's basketball",
        "col3": "Los Angeles Clippers"
    },
    {
        "col0": "M. Lewis",
        "col1": "Liberal, Kansas",
        "col2": "Butler Community College",
        "col3": "Golden State Warriors"
    }
]