[
    {
        "col0": "Your Show of Shows",
        "col1": "Max Liebman",
        "col2": "E. Herlihy",
        "col3": "I. Coca",
        "col4": "1954-06-05",
        "col5": "5400"
    },
    {
        "col0": "Woops!",
        "col1": "Gil Junger",
        "col2": "E. Handler",
        "col3": "L. Davies",
        "col4": "1992-12-06",
        "col5": "1800"
    },
    {
        "col0": "What's My Line?",
        "col1": "Mark Goodson",
        "col2": "J. Olson",
        "col3": "D. Kilgallen",
        "col4": "1975-09-03",
        "col5": "-1740"
    },
    {
        "col0": "Wendy and Me",
        "col1": "George Burns",
        "col2": "G. Burns",
        "col3": "C. Stevens",
        "col4": "1965-05-24",
        "col5": "1500"
    },
    {
        "col0": "Tudor Monastery Farm",
        "col1": "David Upshal",
        "col2": "G. James",
        "col3": "P. Ginn",
        "col4": "2013-12-18",
        "col5": "3600"
    },
    {
        "col0": "Too Rich: The Secret Life of Doris Duke",
        "col1": "John Erman",
        "col2": "L. Bacall",
        "col3": "H. Panettiere",
        "col4": "1999-02-24",
        "col5": "2880"
    },
    {
        "col0": "Todd McFarlane's Spawn",
        "col1": "Catherine Winder",
        "col2": "R. Dysart",
        "col3": "K. David",
        "col4": "1999-05-28",
        "col5": "1800"
    },
    {
        "col0": "The Young Indiana Jones Chronicles",
        "col1": "Rick McCallum",
        "col2": "G. Hall",
        "col3": "C. Carrier",
        "col4": "1996-06-16",
        "col5": "2700"
    },
    {
        "col0": "The World of David the Gnome",
        "col1": "Micheline Charest",
        "col2": "C. Plummer",
        "col3": "T. Bosley",
        "col4": "1985-09-23",
        "col5": "1440"
    },
    {
        "col0": "The Winds of War",
        "col1": "Dan Curtis",
        "col2": "W. Woodson",
        "col3": "A. MacGraw",
        "col4": "1983-02-13",
        "col5": "52980"
    },
    {
        "col0": "The Untouchables",
        "col1": "Stuart Rosenberg",
        "col2": "W. Winchell",
        "col3": "N. Brand",
        "col4": "1963-05-21",
        "col5": "3000"
    },
    {
        "col0": "The Tonight Show with Jay Leno",
        "col1": "Jay Leno",
        "col2": "W. Wingert",
        "col3": "B. Marsalis",
        "col4": "2014-02-06",
        "col5": "3720"
    },
    {
        "col0": "The Temptations",
        "col1": "Otis Williams",
        "col2": "C. M. Whitfield",
        "col3": "C. M. Whitfield",
        "col4": "1998-11-02",
        "col5": "5280"
    },
    {
        "col0": "The Super Mario Bros. Super Show!",
        "col1": "Troy Miller",
        "col2": "L. Albano",
        "col3": "L. Albano",
        "col4": "1989-12-08",
        "col5": "1320"
    },
    {
        "col0": "The Restless Gun",
        "col1": "David Dortort",
        "col2": "J. Payne",
        "col3": "J. Payne",
        "col4": "1959-06-22",
        "col5": "1800"
    },
    {
        "col0": "The Raggy Dolls",
        "col1": "Joy Whitby",
        "col2": "N. Innes",
        "col3": "N. Innes",
        "col4": "1994-12-20",
        "col5": "600"
    },
    {
        "col0": "The Pink Panther Show",
        "col1": "Friz Freleng",
        "col2": "M. Miller",
        "col3": "P. H. Jr.",
        "col4": "1980-09-01",
        "col5": "1800"
    },
    {
        "col0": "The Perils of Penelope Pitstop",
        "col1": "Alex Lovy",
        "col2": "G. Owens",
        "col3": "M. Blanc",
        "col4": "1970-01-17",
        "col5": "1260"
    },
    {
        "col0": "The National Dream",
        "col1": "Eric Till",
        "col2": "P. Berton",
        "col3": "J. Colicos",
        "col4": "1974-04-28",
        "col5": "3600"
    },
    {
        "col0": "The Lone Ranger",
        "col1": "Herbert Klynn",
        "col2": "M. Miller",
        "col3": "S. Menken",
        "col4": "1969-09-06",
        "col5": "1800"
    },
    {
        "col0": "The Invaders",
        "col1": "Alan Armer",
        "col2": "B. Woodson",
        "col3": "R. Thinnes",
        "col4": "1968-03-26",
        "col5": "3060"
    },
    {
        "col0": "The Inbetweeners",
        "col1": "Christopher Young",
        "col2": "S. Bird",
        "col3": "S. Bird",
        "col4": "2010-10-18",
        "col5": "1500"
    },
    {
        "col0": "The Hitchhiker's Guide to the Galaxy",
        "col1": "John Lloyd",
        "col2": "P. Jones",
        "col3": "D. Learner",
        "col4": "1981-02-09",
        "col5": "1980"
    },
    {
        "col0": "The Edge",
        "col1": "Julie Brown",
        "col2": "E. Hall",
        "col3": "W. Knight",
        "col4": "1993-05-02",
        "col5": "1800"
    },
    {
        "col0": "The Ed Wynn Show",
        "col1": "Harlan Thompson",
        "col2": "B. LeMond",
        "col3": "E. Wynn",
        "col4": "1950-06-15",
        "col5": "1800"
    },
    {
        "col0": "The Crow: Stairway to Heaven",
        "col1": "Bryce Zabel",
        "col2": "M. Dacascos",
        "col3": "K. Hardison",
        "col4": "1999-05-22",
        "col5": "2580"
    },
    {
        "col0": "The Comedy Annual",
        "col1": "ITV Studios",
        "col2": "D. Lamb",
        "col3": "J. Byrne",
        "col4": "2011-12-20",
        "col5": "3600"
    },
    {
        "col0": "The Celebrity Apprentice Australia",
        "col1": "FremantleMedia Australia",
        "col2": "A. Daddo",
        "col3": "M. Bouris",
        "col4": "2015-11-18",
        "col5": "-5400"
    },
    {
        "col0": "The Black Adder",
        "col1": "John Lloyd",
        "col2": "P. Allen",
        "col3": "B. Blessed",
        "col4": "1983-07-20",
        "col5": "1980"
    },
    {
        "col0": "The Bible",
        "col1": "Roma Downey",
        "col2": "R. Powell",
        "col3": "R. Downey",
        "col4": "2013-03-31",
        "col5": "26400"
    },
    {
        "col0": "The Apprentice Australia",
        "col1": "FremantleMedia Australia",
        "col2": "A. Daddo",
        "col3": "M. Bouris",
        "col4": "2009-11-23",
        "col5": "5400"
    },
    {
        "col0": "The A-Team",
        "col1": "John Ashley",
        "col2": "J. Ashley",
        "col3": "D. Benedict",
        "col4": "1987-03-08",
        "col5": "2880"
    },
    {
        "col0": "Teen Bahuraaniyaan",
        "col1": "Paresh Rawal",
        "col2": "P. Rawal",
        "col3": "T. Bahuraniyaan",
        "col4": "2009-01-09",
        "col5": "1440"
    },
    {
        "col0": "Tales from the Green Valley",
        "col1": "David Upshal",
        "col2": "O. Teale",
        "col3": "A. Langlands",
        "col4": "2005-11-04",
        "col5": "1800"
    },
    {
        "col0": "Taken",
        "col1": "Steven Spielberg",
        "col2": "D. Fanning",
        "col3": "J. Benz",
        "col4": "2002-12-13",
        "col5": "52620"
    },
    {
        "col0": "Supernanny",
        "col1": "Warner Bros. Television Productions UK",
        "col2": "N. Frost",
        "col3": "J. Frost",
        "col4": "2012-09-07",
        "col5": "2520"
    },
    {
        "col0": "Suburgatory",
        "col1": "Ken Whittingham",
        "col2": "J. Levy",
        "col3": "J. Sisto",
        "col4": "2014-05-14",
        "col5": "1320"
    },
    {
        "col0": "Stuart Little: The Animated Series",
        "col1": "Douglas Wick",
        "col2": "D. Kaufman",
        "col3": "H. Laurie",
        "col4": "2003-05-24",
        "col5": "1380"
    },
    {
        "col0": "Soap",
        "col1": "Susan Harris",
        "col2": "R. Roddy",
        "col3": "R. Urich",
        "col4": "1981-04-20",
        "col5": "1800"
    },
    {
        "col0": "Seven Wonders of the Industrial World",
        "col1": "Deborah Cadbury",
        "col2": "R. Lindsay",
        "col3": "S. Berkoff",
        "col4": "2003-10-16",
        "col5": "3000"
    },
    {
        "col0": "Seijuu Sentai Gingaman",
        "col1": "Toei Company",
        "col2": "N. Wakamoto",
        "col3": "K. Mizutani",
        "col4": "1999-02-14",
        "col5": "1500"
    },
    {
        "col0": "Sea Hunt",
        "col1": "Ivan Tors",
        "col2": "L. Bridges",
        "col3": "L. Bridges",
        "col4": "1961-09-23",
        "col5": "1800"
    },
    {
        "col0": "Samantha Who?",
        "col1": "Cecelia Ahern",
        "col2": "C. Applegate",
        "col3": "J. Esposito",
        "col4": "2009-07-23",
        "col5": "1320"
    },
    {
        "col0": "Ressha Sentai ToQger",
        "col1": "Kei Ishikawa",
        "col2": "K. Yamaguchi",
        "col3": "K. Ohkuchi",
        "col4": "2015-02-15",
        "col5": "-1500"
    },
    {
        "col0": "Real Stories",
        "col1": "Roving Enterprises",
        "col2": "G. Fleet",
        "col3": "A. Lee",
        "col4": "2006-10-10",
        "col5": "1800"
    },
    {
        "col0": "Racket Squad",
        "col1": "Hal Roach",
        "col2": "H. Beaumont",
        "col3": "R. Hadley",
        "col4": "1953-09-28",
        "col5": "1560"
    },
    {
        "col0": "Quantum Leap",
        "col1": "Donald P. Bellisario",
        "col2": "D. Pratt",
        "col3": "D. Stockwell",
        "col4": "1993-05-05",
        "col5": "2700"
    },
    {
        "col0": "Pradhanmantri",
        "col1": "ABP News",
        "col2": "S. Kapur",
        "col3": "S. Kapur",
        "col4": "2014-01-04",
        "col5": "3600"
    },
    {
        "col0": "PitchMen",
        "col1": "Thom Beers",
        "col2": "T. Beers",
        "col3": "B. Mays",
        "col4": "2011-03-08",
        "col5": "2580"
    },
    {
        "col0": "Operation Good Guys",
        "col1": "Hugo Blick",
        "col2": "H. Blick",
        "col3": "R. Burdis",
        "col4": "2000-08-31",
        "col5": "1800"
    },
    {
        "col0": "Nile",
        "col1": "Martha Holmes",
        "col2": "S. MacCorkindale",
        "col3": "M. Gough",
        "col4": "2004-03-12",
        "col5": "3600"
    },
    {
        "col0": "Nightmare Classics",
        "col1": "Shelley Duvall",
        "col2": "L. Hunt",
        "col3": "A. Irving",
        "col4": "1989-11-26",
        "col5": "3600"
    },
    {
        "col0": "Naked City",
        "col1": "Herbert B. Leonard",
        "col2": "L. Dobkin",
        "col3": "J. Franciscus",
        "col4": "1963-05-29",
        "col5": "1800"
    },
    {
        "col0": "My Name Is Earl",
        "col1": "Jason Lee",
        "col2": "J. Lee",
        "col3": "J. Lee",
        "col4": "2009-05-14",
        "col5": "-1440"
    },
    {
        "col0": "My Family",
        "col1": "Amy Wong",
        "col2": "H. Lau",
        "col3": "S. Yeung",
        "col4": "2005-02-25",
        "col5": "2700"
    },
    {
        "col0": "Mighty Morphin Power Rangers",
        "col1": "Jonathan Tzachor",
        "col2": "D. Mallow",
        "col3": "J. Narvy",
        "col4": "1995-11-27",
        "col5": "-1260"
    },
    {
        "col0": "Meet Corliss Archer",
        "col1": "Herbert L. Strock",
        "col2": "H. Averback",
        "col3": "M. Brian",
        "col4": "1954-12-24",
        "col5": "1800"
    },
    {
        "col0": "Medic",
        "col1": "Worthington Miner",
        "col2": "R. Boone",
        "col3": "R. Boone",
        "col4": "1956-08-27",
        "col5": "1800"
    },
    {
        "col0": "Man Against Crime",
        "col1": "Edward Montagne",
        "col2": "C. King",
        "col3": "F. Lovejoy",
        "col4": "1954-06-27",
        "col5": "1800"
    },
    {
        "col0": "Lost in Space",
        "col1": "Irwin Allen",
        "col2": "D. Tufeld",
        "col3": "P. Robinson",
        "col4": "1968-03-06",
        "col5": "3060"
    },
    {
        "col0": "Life with Elizabeth",
        "col1": "Betty White",
        "col2": "J. Narz",
        "col3": "D. Moore",
        "col4": "1955-09-01",
        "col5": "1500"
    },
    {
        "col0": "Lewis & Clark: The Journey of the Corps of Discovery",
        "col1": "Ken Burns",
        "col2": "H. Holbrook",
        "col3": "A. Arkin",
        "col4": "1997-11-05",
        "col5": "14400"
    },
    {
        "col0": "Law & Order: Criminal Intent",
        "col1": "John L. Roman",
        "col2": "S. Zirnkilton",
        "col3": "A. Sciorra",
        "col4": "2011-06-26",
        "col5": "2580"
    },
    {
        "col0": "LaLola",
        "col1": "Wilma Galvante",
        "col2": "K. d. Leon",
        "col3": "R. Ramos",
        "col4": "2009-02-06",
        "col5": "-2700"
    },
    {
        "col0": "Kyle XY",
        "col1": "Julie Plec",
        "col2": "M. Dallas",
        "col3": "J. Alexander",
        "col4": "2009-03-16",
        "col5": "2640"
    },
    {
        "col0": "Korg: 70,000 B.C.",
        "col1": "Richard O'Connor",
        "col2": "B. Meredith",
        "col3": "B. Ewing",
        "col4": "1975-08-30",
        "col5": "1800"
    },
    {
        "col0": "James May's Big Ideas",
        "col1": "Nigel Paterson",
        "col2": "J. May",
        "col3": "J. May",
        "col4": "2008-10-12",
        "col5": "3600"
    },
    {
        "col0": "Ja'mie: Private School Girl",
        "col1": "Chris Lilley",
        "col2": "C. Lilley",
        "col3": "C. Lilley",
        "col4": "2013-11-27",
        "col5": "-1620"
    },
    {
        "col0": "Instant Star",
        "col1": "Stephen Stohn",
        "col2": "A. Johnson",
        "col3": "A. Johnson",
        "col4": "2008-06-26",
        "col5": "1800"
    },
    {
        "col0": "In the Night Garden...",
        "col1": "Anne Wood",
        "col2": "D. Jacobi",
        "col3": "N. Kellington",
        "col4": "2009-03-06",
        "col5": "1800"
    },
    {
        "col0": "Ice Road Truckers",
        "col1": "Philip Segal",
        "col2": "T. Beers",
        "col3": "L. Kelly",
        "col4": "2011-12-18",
        "col5": "-2880"
    },
    {
        "col0": "I Led Three Lives",
        "col1": "Julius J. Epstein",
        "col2": "H. Philbrick",
        "col3": "R. Carlson",
        "col4": "1956-01-01",
        "col5": "1800"
    },
    {
        "col0": "How I Met Your Mother",
        "col1": "Tami Sagher",
        "col2": "B. Saget",
        "col3": "C. Milioti",
        "col4": "2014-03-31",
        "col5": "1320"
    },
    {
        "col0": "Home Time",
        "col1": "Ted Dowd",
        "col2": "E. Fryer",
        "col3": "P. Jackson",
        "col4": "2009-10-22",
        "col5": "1800"
    },
    {
        "col0": "Highway Patrol",
        "col1": "Herbert L. Strock",
        "col2": "A. Gilmore",
        "col3": "B. Crawford",
        "col4": "1959-09-01",
        "col5": "1800"
    },
    {
        "col0": "Have Gun - Will Travel",
        "col1": "Sam Rolfe",
        "col2": "R. Boone",
        "col3": "R. Boone",
        "col4": "1963-04-20",
        "col5": "1500"
    },
    {
        "col0": "Girls in Love",
        "col1": "Diane Whitley",
        "col2": "O. Hallinan",
        "col3": "O. Hallinan",
        "col4": "2005-05-20",
        "col5": "1800"
    },
    {
        "col0": "Fast Forward",
        "col1": "Steve Vizard",
        "col2": "J. Deeks",
        "col3": "M. Szubanski",
        "col4": "1992-11-26",
        "col5": "3600"
    },
    {
        "col0": "Ezel",
        "col1": "Kerem Catay",
        "col2": "T. Kurtiz",
        "col3": "T. Kurtiz",
        "col4": "2011-06-20",
        "col5": "7200"
    },
    {
        "col0": "Egypt",
        "col1": "Paul Bradshaw",
        "col2": "A. Sachs",
        "col3": "S. Graham",
        "col4": "2005-12-04",
        "col5": "3600"
    },
    {
        "col0": "Dragnet",
        "col1": "Jack Webb",
        "col2": "J. Webb",
        "col3": "B. Alexander",
        "col4": "2004-12-04",
        "col5": "1800"
    },
    {
        "col0": "Dragnet",
        "col1": "Jack Webb",
        "col2": "J. Webb",
        "col3": "B. Alexander",
        "col4": "1959-08-23",
        "col5": "1800"
    },
    {
        "col0": "Diary of a Bad Man",
        "col1": "Humza Arshad",
        "col2": "H. Arshad",
        "col3": "H. Arshad",
        "col4": "2013-10-10",
        "col5": "-1800"
    },
    {
        "col0": "Dexter",
        "col1": "Drew Z. Greenberg",
        "col2": "M. C. Hall",
        "col3": "J. Benz",
        "col4": "2013-09-22",
        "col5": "-3600"
    },
    {
        "col0": "Desperate Housewives",
        "col1": "Alexandra Cunningham",
        "col2": "B. Strong",
        "col3": "C. Mesure",
        "col4": "2012-05-13",
        "col5": "2580"
    },
    {
        "col0": "Dastardly and Muttley in Their Flying Machines",
        "col1": "William Hanna",
        "col2": "D. Messick",
        "col3": "P. Winchell",
        "col4": "1970-01-03",
        "col5": "1320"
    },
    {
        "col0": "Come Fly with Me",
        "col1": "Adam Tandy",
        "col2": "L. Duncan",
        "col3": "D. Walliams",
        "col4": "2011-01-27",
        "col5": "1680"
    },
    {
        "col0": "Casey, Crime Photographer",
        "col1": "Martin Manulis",
        "col2": "K. Roberts",
        "col3": "D. McGavin",
        "col4": "1952-06-05",
        "col5": "1800"
    },
    {
        "col0": "Brothers & Sisters",
        "col1": "David Marshall Grant",
        "col2": "S. Field",
        "col3": "C. Flockhart",
        "col4": "2011-05-08",
        "col5": "-2580"
    },
    {
        "col0": "Bill Nye the Science Guy",
        "col1": "Bill Nye",
        "col2": "P. Cashman",
        "col3": "B. Nye",
        "col4": "1998-06-20",
        "col5": "1800"
    },
    {
        "col0": "Bertha",
        "col1": "Ivor Wood",
        "col2": "R. Kinnear",
        "col3": "R. Kinnear",
        "col4": "1986-06-18",
        "col5": "900"
    },
    {
        "col0": "Alphas",
        "col1": "Nick Copus",
        "col2": "D. Strathairn",
        "col3": "D. Strathairn",
        "col4": "2012-10-22",
        "col5": "2580"
    },
    {
        "col0": "Alias Smith and Jones",
        "col1": "Glen A. Larson",
        "col2": "R. Story",
        "col3": "P. Duel",
        "col4": "1973-01-13",
        "col5": "2880"
    },
    {
        "col0": "Adventures of Superman",
        "col1": "Robert Maxwell",
        "col2": "S. Balter",
        "col3": "J. Larson",
        "col4": "1958-04-28",
        "col5": "-1500"
    },
    {
        "col0": "7 RCR",
        "col1": "ABP News",
        "col2": "C. Bhagat",
        "col3": "C. Bhagat",
        "col4": "2014-03-29",
        "col5": "3600"
    },
    {
        "col0": "30 Days",
        "col1": "Sebastian Doggart",
        "col2": "M. Spurlock",
        "col3": "M. Spurlock",
        "col4": "2008-07-08",
        "col5": "-2880"
    }
]