[
    {
        "col0": "Alnmouth Saltmarsh and Dunes",
        "col1": "Northumberland",
        "col2": "1084000",
        "col3": "Biological"
    },
    {
        "col0": "Allt Pontfaen - Coed Gelli-fawr",
        "col1": "Pembrokeshire",
        "col2": "731200",
        "col3": "Biological"
    },
    {
        "col0": "Allolee to Walltown",
        "col1": "Northumberland",
        "col2": "339000",
        "col3": "Biological"
    },
    {
        "col0": "Aller and Beer Woods",
        "col1": "Somerset",
        "col2": "568988",
        "col3": "Biological"
    },
    {
        "col0": "Aller Sand Pit",
        "col1": "Devon",
        "col2": "2200",
        "col3": "Geological"
    },
    {
        "col0": "Aller Hill",
        "col1": "Somerset",
        "col2": "184000",
        "col3": "Biological"
    },
    {
        "col0": "Allendale Moors",
        "col1": "Northumberland",
        "col2": "52828100",
        "col3": "Biological"
    },
    {
        "col0": "Allen Confluence Gravels",
        "col1": "Northumberland",
        "col2": "49000",
        "col3": "Biological"
    },
    {
        "col0": "Alderton Hill Quarry",
        "col1": "Gloucestershire",
        "col2": "3400",
        "col3": "Geological"
    },
    {
        "col0": "Aire Point to Carrick Du SSSI",
        "col1": "Cornwall",
        "col2": "7048100",
        "col3": "Biological/Geological"
    },
    {
        "col0": "Aber Afon Seiont",
        "col1": "West Gwynedd",
        "col2": "64000",
        "col3": "Geological"
    }
]