[
    {
        "col0": "Cupressus gigantea",
        "col1": "Cupressaceae",
        "col2": "IUCN2.3",
        "col3": "VU"
    },
    {
        "col0": "Cupressus funebris",
        "col1": "Cupressaceae",
        "col2": "IUCN2.3",
        "col3": "LR/lc"
    },
    {
        "col0": "Cupressus forbesii",
        "col1": "Cupressaceae",
        "col2": "IUCN2.3",
        "col3": "vu"
    },
    {
        "col0": "Cupressus dupreziana",
        "col1": "Cupressaceae",
        "col2": "iucn3.1",
        "col3": "EN"
    },
    {
        "col0": "Cupressus duclouxiana",
        "col1": "Cupressaceae",
        "col2": "IUCN3.1",
        "col3": "DD"
    },
    {
        "col0": "Cupressus chengiana",
        "col1": "Cupressaceae",
        "col2": "IUCN2.3",
        "col3": "VU"
    },
    {
        "col0": "Cupressus cashmeriana",
        "col1": "Cupressaceae",
        "col2": "IUCN3.1",
        "col3": "NT"
    },
    {
        "col0": "Cupressus bakeri",
        "col1": "Cupressaceae",
        "col2": "iucn2.3",
        "col3": "VU"
    },
    {
        "col0": "Cupressus atlantica",
        "col1": "Cupressaceae",
        "col2": "iucn2.3",
        "col3": "EN"
    },
    {
        "col0": "Cupressus arizonica var. glabra",
        "col1": "Cupressaceae",
        "col2": "IUCN3.1",
        "col3": "NT"
    },
    {
        "col0": "Cupressus arizonica",
        "col1": "Cupressaceae",
        "col2": "IUCN3.1",
        "col3": "LC"
    },
    {
        "col0": "Cupressus abramsiana",
        "col1": "Cupressaceae",
        "col2": "iucn2.3",
        "col3": "EN"
    },
    {
        "col0": "Cryptomeria",
        "col1": "Cupressaceae",
        "col2": "IUCN2.3",
        "col3": "LR/nt"
    },
    {
        "col0": "Coulter pine",
        "col1": "Pinaceae",
        "col2": "IUCN3.1",
        "col3": "NT"
    },
    {
        "col0": "Chamaecyparis thyoides",
        "col1": "Cupressaceae",
        "col2": "IUCN2.3",
        "col3": "LC"
    },
    {
        "col0": "Chamaecyparis taiwanensis",
        "col1": "Cupressaceae",
        "col2": "iucn3.1",
        "col3": "VU"
    },
    {
        "col0": "Chamaecyparis pisifera",
        "col1": "Cupressaceae",
        "col2": "IUCN3.1",
        "col3": "lc"
    },
    {
        "col0": "Chamaecyparis obtusa",
        "col1": "Cupressaceae",
        "col2": "IUCN2.3",
        "col3": "LR/nt"
    },
    {
        "col0": "Chamaecyparis lawsoniana",
        "col1": "Cupressaceae",
        "col2": "iucn3.1",
        "col3": "NT"
    },
    {
        "col0": "Chamaecyparis formosensis",
        "col1": "Cupressaceae",
        "col2": "IUCN3.1",
        "col3": "EN"
    },
    {
        "col0": "Cephalotaxus wilsoniana",
        "col1": "Cephalotaxaceae",
        "col2": "iucn3.1",
        "col3": "EN"
    },
    {
        "col0": "Cephalotaxus sinensis",
        "col1": "Cephalotaxaceae",
        "col2": "iucn2.3",
        "col3": "LR/lc"
    },
    {
        "col0": "Cephalotaxus oliveri",
        "col1": "Cephalotaxaceae",
        "col2": "iucn2.3",
        "col3": "VU"
    },
    {
        "col0": "Cephalotaxus mannii",
        "col1": "Cephalotaxaceae",
        "col2": "iucn2.3",
        "col3": "VU"
    },
    {
        "col0": "Cephalotaxus latifolia",
        "col1": "Cephalotaxaceae",
        "col2": "iucn2.3",
        "col3": "LR/lc"
    },
    {
        "col0": "Cephalotaxus lanceolata",
        "col1": "Cephalotaxaceae",
        "col2": "iucn2.3",
        "col3": "VU"
    },
    {
        "col0": "Cephalotaxus harringtonii",
        "col1": "Cephalotaxaceae",
        "col2": "iucn2.3",
        "col3": "LR/lc"
    },
    {
        "col0": "Cephalotaxus hainanensis",
        "col1": "Cephalotaxaceae",
        "col2": "iucn3.1",
        "col3": "EN"
    },
    {
        "col0": "Cephalotaxus griffithii",
        "col1": "Cephalotaxaceae",
        "col2": "iucn2.3",
        "col3": "LR/nt"
    },
    {
        "col0": "Cephalotaxus fortunei",
        "col1": "Cephalotaxaceae",
        "col2": "iucn2.3",
        "col3": "LR/lc"
    },
    {
        "col0": "Cedrus libani",
        "col1": "Pinaceae",
        "col2": "IUCN3.1",
        "col3": "VU"
    },
    {
        "col0": "Cedrus deodara",
        "col1": "Pinaceae",
        "col2": "IUCN3.1",
        "col3": "LC"
    },
    {
        "col0": "Cedrus atlantica",
        "col1": "Pinaceae",
        "col2": "IUCN3.1",
        "col3": "EN"
    },
    {
        "col0": "Cathaya",
        "col1": "Pinaceae",
        "col2": "IUCN3.1",
        "col3": "vu"
    },
    {
        "col0": "Caribbean pine",
        "col1": "Pine",
        "col2": "iucn2.3",
        "col3": "VU"
    },
    {
        "col0": "Calocedrus rupestris",
        "col1": "Cupressaceae",
        "col2": "iucn3.1",
        "col3": "EN"
    },
    {
        "col0": "Calocedrus macrolepis",
        "col1": "Cupressaceae",
        "col2": "IUCN3.1",
        "col3": "NT"
    },
    {
        "col0": "Calocedrus formosana",
        "col1": "Cupressaceae",
        "col2": "IUCN3.1",
        "col3": "EN"
    },
    {
        "col0": "Calocedrus decurrens",
        "col1": "Cupressaceae",
        "col2": "IUCN2.3",
        "col3": "LR/lc"
    },
    {
        "col0": "Callitris verrucosa",
        "col1": "Cupressaceae",
        "col2": "IUCN2.3",
        "col3": "LR/lc"
    },
    {
        "col0": "Callitris sulcata",
        "col1": "Cupressaceae",
        "col2": "iucn3.1",
        "col3": "EN"
    },
    {
        "col0": "Callitris roei",
        "col1": "Cupressaceae",
        "col2": "IUCN2.3",
        "col3": "VU"
    },
    {
        "col0": "Callitris rhomboidea",
        "col1": "Cupressaceae",
        "col2": "IUCN2.3",
        "col3": "LR/lc"
    },
    {
        "col0": "Callitris preissii",
        "col1": "Cupressaceae",
        "col2": "IUCN2.3",
        "col3": "LR/lc"
    },
    {
        "col0": "Callitris oblonga",
        "col1": "Cupressaceae",
        "col2": "IUCN2.3",
        "col3": "VU"
    },
    {
        "col0": "Callitris neocaledonica",
        "col1": "Cupressaceae",
        "col2": "IUCN2.3",
        "col3": "LR/cd"
    },
    {
        "col0": "Callitris muelleri",
        "col1": "Cupressaceae",
        "col2": "IUCN2.3",
        "col3": "LR/lc"
    },
    {
        "col0": "Callitris monticola",
        "col1": "Cupressaceae",
        "col2": "IUCN2.3",
        "col3": "VU"
    },
    {
        "col0": "Callitris macleayana",
        "col1": "Cupressaceae",
        "col2": "IUCN2.3",
        "col3": "LR/lc"
    },
    {
        "col0": "Callitris endlicheri",
        "col1": "Cupressaceae",
        "col2": "IUCN2.3",
        "col3": "LR/lc"
    },
    {
        "col0": "Callitris drummondii",
        "col1": "Cupressaceae",
        "col2": "IUCN2.3",
        "col3": "VU"
    },
    {
        "col0": "Callitris columellaris",
        "col1": "Cupressaceae",
        "col2": "IUCN2.3",
        "col3": "LR/lc"
    },
    {
        "col0": "Callitris canescens",
        "col1": "Cupressaceae",
        "col2": "IUCN2.3",
        "col3": "LR/lc"
    },
    {
        "col0": "Callitris baileyi",
        "col1": "Cupressaceae",
        "col2": "IUCN2.3",
        "col3": "VU"
    },
    {
        "col0": "Blue spruce",
        "col1": "Pinaceae",
        "col2": "IUCN3.1",
        "col3": "LC"
    },
    {
        "col0": "Bishop pine",
        "col1": "Pinaceae",
        "col2": "IUCN3.1",
        "col3": "VU"
    },
    {
        "col0": "Austrotaxus",
        "col1": "Taxaceae",
        "col2": "IUCN2.3",
        "col3": "LR/nt"
    },
    {
        "col0": "Austrocedrus",
        "col1": "Cupressaceae",
        "col2": "IUCN2.3",
        "col3": "VU"
    },
    {
        "col0": "Athrotaxis selaginoides",
        "col1": "Cupressaceae",
        "col2": "IUCN3.1",
        "col3": "VU"
    },
    {
        "col0": "Athrotaxis laxifolia",
        "col1": "Cupressaceae",
        "col2": "IUCN3.1",
        "col3": "VU"
    },
    {
        "col0": "Athrotaxis cupressoides",
        "col1": "Cupressaceae",
        "col2": "IUCN3.1",
        "col3": "VU"
    },
    {
        "col0": "Araucaria subulata",
        "col1": "Araucariaceae",
        "col2": "IUCN2.3",
        "col3": "LR/cd"
    },
    {
        "col0": "Araucaria scopulorum",
        "col1": "Araucariaceae",
        "col2": "IUCN3.1",
        "col3": "EN"
    },
    {
        "col0": "Araucaria schmidii",
        "col1": "Araucariaceae",
        "col2": "IUCN2.3",
        "col3": "VU"
    },
    {
        "col0": "Araucaria rulei",
        "col1": "Araucariaceae",
        "col2": "IUCN3.1",
        "col3": "EN"
    },
    {
        "col0": "Araucaria nemorosa",
        "col1": "Araucariaceae",
        "col2": "IUCN3.1",
        "col3": "CR"
    },
    {
        "col0": "Araucaria muelleri",
        "col1": "Araucariaceae",
        "col2": "IUCN3.1",
        "col3": "EN"
    },
    {
        "col0": "Araucaria montana",
        "col1": "Araucariaceae",
        "col2": "IUCN2.3",
        "col3": "VU"
    },
    {
        "col0": "Araucaria luxurians",
        "col1": "Araucariaceae",
        "col2": "IUCN3.1",
        "col3": "EN"
    },
    {
        "col0": "Araucaria laubenfelsii",
        "col1": "Araucariaceae",
        "col2": "IUCN2.3",
        "col3": "LR/cd"
    },
    {
        "col0": "Araucaria hunsteinii",
        "col1": "Araucariaceae",
        "col2": "IUCN2.3",
        "col3": "LR/nt"
    },
    {
        "col0": "Araucaria humboldtensis",
        "col1": "Araucariaceae",
        "col2": "IUCN2.3",
        "col3": "EN"
    },
    {
        "col0": "Araucaria heterophylla",
        "col1": "Araucariaceae",
        "col2": "IUCN3.1",
        "col3": "VU"
    },
    {
        "col0": "Araucaria cunninghamii",
        "col1": "Araucariaceae",
        "col2": "IUCN3.1",
        "col3": "LC"
    },
    {
        "col0": "Araucaria columnaris",
        "col1": "Araucariaceae",
        "col2": "IUCN2.3",
        "col3": "LC"
    },
    {
        "col0": "Araucaria biramulata",
        "col1": "Araucariaceae",
        "col2": "IUCN2.3",
        "col3": "VU"
    },
    {
        "col0": "Araucaria bidwillii",
        "col1": "Araucariaceae",
        "col2": "IUCN2.3",
        "col3": "LR/lc"
    },
    {
        "col0": "Araucaria bernieri",
        "col1": "Araucariaceae",
        "col2": "IUCN2.3",
        "col3": "VU"
    },
    {
        "col0": "Araucaria araucana",
        "col1": "Araucariaceae",
        "col2": "iucn3.1",
        "col3": "EN"
    },
    {
        "col0": "Araucaria angustifolia",
        "col1": "Araucariaceae",
        "col2": "iucn3.1",
        "col3": "CR"
    },
    {
        "col0": "Amentotaxus yunnanensis",
        "col1": "Taxaceae",
        "col2": "IUCN3.1",
        "col3": "VU"
    },
    {
        "col0": "Amentotaxus poilanei",
        "col1": "Taxaceae",
        "col2": "IUCN3.1",
        "col3": "VU"
    },
    {
        "col0": "Amentotaxus hatuyenensis",
        "col1": "Taxaceae",
        "col2": "IUCN3.1",
        "col3": "EN"
    },
    {
        "col0": "Amentotaxus formosana",
        "col1": "Taxaceae",
        "col2": "iucn3.1",
        "col3": "VU"
    },
    {
        "col0": "Amentotaxus assamica",
        "col1": "Taxaceae",
        "col2": "IUCN3.1",
        "col3": "EN"
    },
    {
        "col0": "Amentotaxus argotaenia",
        "col1": "Taxaceae",
        "col2": "IUCN2.3",
        "col3": "VU"
    },
    {
        "col0": "Agathis spathulata",
        "col1": "Araucariaceae",
        "col2": "IUCN2.3",
        "col3": "LR/nt"
    },
    {
        "col0": "Agathis silbae",
        "col1": "Araucariaceae",
        "col2": "IUCN2.3",
        "col3": "VU"
    },
    {
        "col0": "Agathis robusta",
        "col1": "Araucariaceae",
        "col2": "IUCN3.1",
        "col3": "LC"
    },
    {
        "col0": "Agathis philippinensis",
        "col1": "Araucariaceae",
        "col2": "IUCN2.3",
        "col3": "VU"
    },
    {
        "col0": "Agathis ovata",
        "col1": "Araucariaceae",
        "col2": "IUCN2.3",
        "col3": "LR/cd"
    },
    {
        "col0": "Agathis orbicula",
        "col1": "Araucariaceae",
        "col2": "IUCN2.3",
        "col3": "VU"
    },
    {
        "col0": "Agathis moorei",
        "col1": "Araucariaceae",
        "col2": "IUCN2.3",
        "col3": "VU"
    },
    {
        "col0": "Agathis montana",
        "col1": "Araucariaceae",
        "col2": "IUCN3.1",
        "col3": "CR"
    },
    {
        "col0": "Agathis microstachya",
        "col1": "Araucariaceae",
        "col2": "IUCN3.1",
        "col3": "NT"
    },
    {
        "col0": "Agathis macrophylla",
        "col1": "Araucariaceae",
        "col2": "IUCN2.3",
        "col3": "LR/nt"
    },
    {
        "col0": "Agathis lenticula",
        "col1": "Araucariaceae",
        "col2": "IUCN3.1",
        "col3": "VU"
    },
    {
        "col0": "Agathis lanceolata",
        "col1": "Araucariaceae",
        "col2": "IUCN2.3",
        "col3": "LR/cd"
    },
    {
        "col0": "Agathis labillardieri",
        "col1": "Araucariaceae",
        "col2": "IUCN3.1",
        "col3": "NT"
    },
    {
        "col0": "Agathis kinabaluensis",
        "col1": "Araucariaceae",
        "col2": "IUCN3.1",
        "col3": "EN"
    },
    {
        "col0": "Agathis flavescens",
        "col1": "Araucariaceae",
        "col2": "IUCN3.1",
        "col3": "VU"
    },
    {
        "col0": "Agathis endertii",
        "col1": "Araucariaceae",
        "col2": "IUCN2.3",
        "col3": "LR/nt"
    },
    {
        "col0": "Agathis dammara",
        "col1": "Araucariaceae",
        "col2": "IUCN3.1",
        "col3": "NE"
    },
    {
        "col0": "Agathis corbassonii",
        "col1": "Araucariaceae",
        "col2": "IUCN2.3",
        "col3": "VU"
    },
    {
        "col0": "Agathis australis",
        "col1": "Araucariaceae",
        "col2": "iucn2.3",
        "col3": "LR/cd"
    },
    {
        "col0": "Agathis atropurpurea",
        "col1": "Araucariaceae",
        "col2": "IUCN2.3",
        "col3": "LR/nt"
    },
    {
        "col0": "Afrocarpus usambarensis",
        "col1": "Podocarpaceae",
        "col2": "IUCN3.1",
        "col3": "VU"
    },
    {
        "col0": "Afrocarpus mannii",
        "col1": "Podocarpaceae",
        "col2": "iucn2.3",
        "col3": "VU"
    },
    {
        "col0": "Afrocarpus gracilior",
        "col1": "Podocarpaceae",
        "col2": "iucn3.1",
        "col3": "LC"
    },
    {
        "col0": "Afrocarpus gaussenii",
        "col1": "Podocarpaceae",
        "col2": "IUCN2.3",
        "col3": "DD"
    },
    {
        "col0": "Afrocarpus falcatus",
        "col1": "Podocarpaceae",
        "col2": "iucn3.1",
        "col3": "LC"
    },
    {
        "col0": "Afrocarpus dawei",
        "col1": "Podocarpaceae",
        "col2": "iucn3.1",
        "col3": "NT"
    }
]