[
    {
        "col0": "WestJet",
        "col1": "Calgary International Airport",
        "col2": "5129000000",
        "col3": "1958000000",
        "col4": "569000000"
    },
    {
        "col0": "Vueling",
        "col1": "Barcelona-El Prat Airport",
        "col2": "688700000",
        "col3": "237200000",
        "col4": "138100000"
    },
    {
        "col0": "Virgin Australia",
        "col1": "Auckland Airport",
        "col2": "5800000000",
        "col3": "1000000000",
        "col4": "49000000"
    },
    {
        "col0": "United Airlines",
        "col1": "Narita International Airport",
        "col2": "39210000000",
        "col3": "2396000000",
        "col4": "5166000000"
    },
    {
        "col0": "Turkish Airlines",
        "col1": "Esenboga International Airport",
        "col2": "16383000000",
        "col3": "4842000000",
        "col4": "2042000000"
    },
    {
        "col0": "Skymark Airlines",
        "col1": "Haneda Airport",
        "col2": "74100000000",
        "col3": "31100000000",
        "col4": "2500000000"
    },
    {
        "col0": "Qantas",
        "col1": "Adelaide Airport",
        "col2": "17500000000",
        "col3": "3450000000",
        "col4": "975000000"
    },
    {
        "col0": "Lufthansa",
        "col1": "Frankfurt Airport",
        "col2": "32462000000",
        "col3": "5845000000",
        "col4": "1676000000"
    },
    {
        "col0": "Delta Air Lines",
        "col1": "Amsterdam Airport Schiphol",
        "col2": "53134000000",
        "col3": "10850000000",
        "col4": "9520000000"
    },
    {
        "col0": "Atlas Air",
        "col1": "Huntsville International Airport",
        "col2": "4",
        "col3": "1",
        "col4": "123"
    },
    {
        "col0": "Air New Zealand",
        "col1": "Auckland Airport",
        "col2": "6775",
        "col3": "1965",
        "col4": "1161"
    },
    {
        "col0": "Air Greenland",
        "col1": "Kangerlussuaq Airport",
        "col2": "917500000",
        "col3": "653400000",
        "col4": "75600000"
    },
    {
        "col0": "Air Canada",
        "col1": "Calgary International Airport",
        "col2": "13127000000",
        "col3": "40000000",
        "col4": "1496000000"
    }
]