[
    {
        "col0": "You Need a Mess of Help to Stand Alone",
        "col1": "So Tough",
        "col2": "Saint Etienne",
        "col3": "2942"
    },
    {
        "col0": "You Nasty",
        "col1": "Can't Stay Away",
        "col2": "Erick Sermon",
        "col3": "3391"
    },
    {
        "col0": "You Must Not Be Drinking Enough",
        "col1": "Love Out Loud",
        "col2": "Randy Scruggs",
        "col3": "252"
    },
    {
        "col0": "You Must Love Me",
        "col1": "Love Don't Live Here Anymore",
        "col2": "Andrew Lloyd Webber",
        "col3": "189"
    },
    {
        "col0": "You Must Go On",
        "col1": "Friends and Lovers",
        "col2": "Bernard Butler",
        "col3": "205"
    },
    {
        "col0": "You Must First Learn to Draw the Real",
        "col1": "Now the Road of Knives",
        "col2": "Eric Cook",
        "col3": "2913"
    },
    {
        "col0": "You Must Believe in Spring",
        "col1": "We Will Meet Again",
        "col2": "Tommy LiPuma",
        "col3": "2028"
    },
    {
        "col0": "You Must Be Certain of the Devil",
        "col1": "Saint of the Pit",
        "col2": "Gareth Jones",
        "col3": "1907"
    },
    {
        "col0": "You Move Me",
        "col1": "Burnin' the Roadhouse Down",
        "col2": "Allen Reynolds",
        "col3": "275"
    },
    {
        "col0": "You Might Think",
        "col1": "Think It Over",
        "col2": "The Cars",
        "col3": "184"
    },
    {
        "col0": "You Mean the World to Me",
        "col1": "Seven Whole Days",
        "col2": "Kenneth \"Babyface\" Edmonds",
        "col3": "296"
    },
    {
        "col0": "You May Be Right",
        "col1": "All for Leyna",
        "col2": "Phil Ramone",
        "col3": "255"
    },
    {
        "col0": "You Make the Whole World Cry",
        "col1": "I Love the Heaven's Solo",
        "col2": "Tanita Tikaram",
        "col3": "221"
    },
    {
        "col0": "You Make the Rain Fall",
        "col1": "I Made It",
        "col2": "Kool Kojak",
        "col3": "174"
    },
    {
        "col0": "You Make Me Sick",
        "col1": "Most Girls",
        "col2": "Babyface",
        "col3": "246"
    },
    {
        "col0": "You Make Me Feel So Free",
        "col1": "Full Force Gale",
        "col2": "Van Morrison",
        "col3": "249"
    },
    {
        "col0": "You Make Me Feel Like a Man",
        "col1": "Country Boy",
        "col2": "Ricky Skaggs",
        "col3": "285"
    },
    {
        "col0": "You Make Me Feel Like Dancing",
        "col1": "Moonlighting",
        "col2": "Richard Perry",
        "col3": "7"
    },
    {
        "col0": "You Make Loving Fun",
        "col1": "Don't Stop",
        "col2": "Fleetwood Mac",
        "col3": "216"
    },
    {
        "col0": "You Made a Wanted Man of Me",
        "col1": "You're Gonna Ruin My Bad Reputation",
        "col2": "Buddy Killen",
        "col3": "180"
    },
    {
        "col0": "You Made a Rock of a Rolling Stone",
        "col1": "When You Get to the Heart",
        "col2": "Ron Chancey",
        "col3": "229"
    },
    {
        "col0": "You Made Me Realise",
        "col1": "Ecstasy",
        "col2": "My Bloody Valentine",
        "col3": "1026"
    },
    {
        "col0": "You Love the Thunder",
        "col1": "Stay",
        "col2": "Jackson Browne",
        "col3": "237"
    },
    {
        "col0": "You Look So Good in Love",
        "col1": "A Fire I Can't Put Out",
        "col2": "Ray Baker",
        "col3": "193"
    },
    {
        "col0": "You Look So Fine",
        "col1": "The Trick Is to Keep Breathing",
        "col2": "Garbage",
        "col3": "230"
    },
    {
        "col0": "You Look Like I Need a Drink",
        "col1": "This Kind of Town",
        "col2": "Jeremy Stover",
        "col3": "189"
    },
    {
        "col0": "You Look Good in My Shirt",
        "col1": "Everybody",
        "col2": "Keith Urban",
        "col3": "180"
    },
    {
        "col0": "You Little Thief",
        "col1": "A Good Heart",
        "col2": "David A. Stewart",
        "col3": "271"
    },
    {
        "col0": "You Light Up My Life",
        "col1": "How Do I Live",
        "col2": "Mike Curb",
        "col3": "209"
    },
    {
        "col0": "You Light Up My Life: Inspirational Songs",
        "col1": "Blue",
        "col2": "Mike Curb",
        "col3": "2613"
    },
    {
        "col0": "You Lied to Me",
        "col1": "Everybody Move",
        "col2": "Cathy Dennis",
        "col3": "249"
    },
    {
        "col0": "You Lie",
        "col1": "If I Die Young",
        "col2": "Paul Worley",
        "col3": "216"
    },
    {
        "col0": "You Lie",
        "col1": "Walk On",
        "col2": "Reba McEntire",
        "col3": "235"
    },
    {
        "col0": "You Learn",
        "col1": "Ironic",
        "col2": "Glen Ballard",
        "col3": "240"
    },
    {
        "col0": "You Lay a Whole Lot of Love on Me",
        "col1": "Dance with the One That Brought You",
        "col2": "Norro Wilson",
        "col3": "168"
    },
    {
        "col0": "You Lay So Easy on My Mind",
        "col1": "Christmas Present",
        "col2": "Billy Sherrill",
        "col3": "1758"
    },
    {
        "col0": "You Know You Like It",
        "col1": "Get Low",
        "col2": "DJ Snake",
        "col3": "247"
    },
    {
        "col0": "You Know You're Right",
        "col1": "Aneurysm",
        "col2": "Adam Kasper",
        "col3": "217"
    },
    {
        "col0": "You Know What to Do",
        "col1": "Why",
        "col2": "Mike Mainieri",
        "col3": "256"
    },
    {
        "col0": "You Know What It Is",
        "col1": "Big Things Poppin'",
        "col2": "Wyclef Jean",
        "col3": "225"
    },
    {
        "col0": "You Know My Name",
        "col1": "Come Together",
        "col2": "George Martin",
        "col3": "261"
    },
    {
        "col0": "You Know My Name",
        "col1": "Hold On to Me",
        "col2": "Michael Beinhorn",
        "col3": "164"
    },
    {
        "col0": "You Know My Name",
        "col1": "Preaching the End of the World",
        "col2": "Chris Cornell",
        "col3": "242"
    },
    {
        "col0": "You Know Me Better Than That",
        "col1": "If I Know Me",
        "col2": "Jimmy Bowen",
        "col3": "181"
    },
    {
        "col0": "You Know Me Better",
        "col1": "Let Me Know",
        "col2": "Andy Cato",
        "col3": "258"
    },
    {
        "col0": "You Know Me",
        "col1": "Bodies",
        "col2": "Trevor Horn",
        "col3": "230"
    },
    {
        "col0": "You Know Me",
        "col1": "She Got It",
        "col2": "J.U.S.T.I.C.E. League",
        "col3": "217"
    },
    {
        "col0": "You Know I Love You... Don't You?",
        "col1": "All I Want",
        "col2": "Arif Mardin",
        "col3": "244"
    },
    {
        "col0": "You Know I'm No Good",
        "col1": "Rehab",
        "col2": "Mark Ronson",
        "col3": "256"
    },
    {
        "col0": "You Know How to Love Me",
        "col1": "Somewhere in My Lifetime",
        "col2": "James Mtume",
        "col3": "2790"
    },
    {
        "col0": "You Know How We Do It",
        "col1": "Really Doe",
        "col2": "QDIII",
        "col3": "232"
    },
    {
        "col0": "You Know FaUSt",
        "col1": "Rien",
        "col2": "Hans Joachim Irmler",
        "col3": "3175"
    },
    {
        "col0": "You Keep Me Hangin' On",
        "col1": "Starting Over Again",
        "col2": "Reba McEntire",
        "col3": "167"
    },
    {
        "col0": "You Just Watch Me",
        "col1": "Hangin' In",
        "col2": "Jerry Crutchfield",
        "col3": "271"
    },
    {
        "col0": "You Just Gotta Love Christmas",
        "col1": "Another Perfect World",
        "col2": "Peter Cetera",
        "col3": "2385"
    },
    {
        "col0": "You Hold the Key",
        "col1": "Beth Nielsen Chapman",
        "col2": "Jim Ed Norman",
        "col3": "2963"
    },
    {
        "col0": "You Hold It All",
        "col1": "Fearless",
        "col2": "Travis Ryan",
        "col3": "1851"
    },
    {
        "col0": "You Have Placed a Chill in My Heart",
        "col1": "I Need a Man",
        "col2": "David A. Stewart",
        "col3": "232"
    },
    {
        "col0": "You Have Killed Me",
        "col1": "Redondo Beach",
        "col2": "Tony Visconti",
        "col3": "188"
    },
    {
        "col0": "You Have Been Loved",
        "col1": "Waltz Away Dreaming",
        "col2": "George Michael",
        "col3": "240"
    },
    {
        "col0": "You Had Me from Hello",
        "col1": "How Forever Feels",
        "col2": "Norro Wilson",
        "col3": "231"
    },
    {
        "col0": "You Had Me",
        "col1": "Super Duper Love",
        "col2": "Mike Mangini",
        "col3": "239"
    },
    {
        "col0": "You Had It Coming",
        "col1": "Who Else!",
        "col2": "Andy Wright",
        "col3": "2155"
    },
    {
        "col0": "You Guys Kill Me",
        "col1": "Ghost",
        "col2": "Matt Elliott",
        "col3": "2716"
    },
    {
        "col0": "You Gotta Take a Little Love",
        "col1": "Serenade to a Soul Sister",
        "col2": "Francis Wolff",
        "col3": "2346"
    },
    {
        "col0": "You Gotta Say Yes to Another Excess",
        "col1": "Claro Que Si",
        "col2": "Boris Blank",
        "col3": "2255"
    },
    {
        "col0": "You Gotta Problem with Me",
        "col1": "Dark Orgasm",
        "col2": "Julian Cope",
        "col3": "3397"
    },
    {
        "col0": "You Gotta Love That",
        "col1": "If I Was a Drinkin' Man",
        "col2": "Barry Beckett",
        "col3": "156"
    },
    {
        "col0": "You Gotta Love That",
        "col1": "No Doubt About It",
        "col2": "Barry Beckett",
        "col3": "1991"
    },
    {
        "col0": "You Gotta Love Someone",
        "col1": "Club at the End of the Street",
        "col2": "Don Was",
        "col3": "298"
    },
    {
        "col0": "You Gotta Go There to Come Back",
        "col1": "Just Enough Education to Perform",
        "col2": "Kelly Jones",
        "col3": "3552"
    },
    {
        "col0": "You Gotta Believe",
        "col1": "Music for the People",
        "col2": "Donnie Wahlberg",
        "col3": "3250"
    },
    {
        "col0": "You Gotta Be My Baby",
        "col1": "I'm Ragged But I'm Right",
        "col2": "Pappy Daily",
        "col3": "144"
    },
    {
        "col0": "You Got the Style",
        "col1": "Athlete",
        "col2": "Athlete",
        "col3": "208"
    },
    {
        "col0": "You Got the Love",
        "col1": "Drumming Song",
        "col2": "The Source",
        "col3": "168"
    },
    {
        "col0": "You Got That Right",
        "col1": "What's Your Name",
        "col2": "Tom Dowd",
        "col3": "224"
    },
    {
        "col0": "You Got Me Rocking",
        "col1": "Love Is Strong",
        "col2": "Don Was",
        "col3": "216"
    },
    {
        "col0": "You Got Lucky",
        "col1": "Woman in Love",
        "col2": "Jimmy Iovine",
        "col3": "218"
    },
    {
        "col0": "You Got It All - The Album",
        "col1": "Union J",
        "col2": "Simon Katz",
        "col3": "2532"
    },
    {
        "col0": "You Got It",
        "col1": "Please Don't Go Girl",
        "col2": "Maurice Starr",
        "col3": "253"
    },
    {
        "col0": "You Got It",
        "col1": "She's a Mystery to Me",
        "col2": "Jeff Lynne",
        "col3": "207"
    },
    {
        "col0": "You Gonna Fly",
        "col1": "Long Hot Summer",
        "col2": "Keith Urban",
        "col3": "216"
    },
    {
        "col0": "You Go Your Way",
        "col1": "So You Don't Have to Love Me Anymore",
        "col2": "Keith Stegall",
        "col3": "197"
    },
    {
        "col0": "You Go Now",
        "col1": "Dead Air for Radios",
        "col2": "Kevin Moore",
        "col3": "2353"
    },
    {
        "col0": "You Go First",
        "col1": "I Will Be There for You",
        "col2": "Byron Gallimore",
        "col3": "196"
    },
    {
        "col0": "You Give Love a Bad Name",
        "col1": "Silent Night",
        "col2": "Bruce Fairbairn",
        "col3": "222"
    },
    {
        "col0": "You Give Love a Bad Name",
        "col1": "Hated in the Nation",
        "col2": "Gerard Cosloy",
        "col3": "1892"
    },
    {
        "col0": "You Give Good Love",
        "col1": "Thinking About You",
        "col2": "Kashif",
        "col3": "246"
    },
    {
        "col0": "You Get What You Give",
        "col1": "Pass the Jar: Zac Brown Band and Friends Live from the Fabulous Fox Theatre In Atlanta",
        "col2": "Zac Brown",
        "col3": "3639"
    },
    {
        "col0": "You Gave Me the Answer",
        "col1": "Listen to What the Man Said",
        "col2": "Paul McCartney",
        "col3": "135"
    },
    {
        "col0": "You Gave Me Freedom",
        "col1": "Arrival",
        "col2": "Rosie Gaines",
        "col3": "3666"
    },
    {
        "col0": "You Found Me",
        "col1": "All at Once",
        "col2": "Aaron Johnson",
        "col3": "244"
    },
    {
        "col0": "You Follow Me",
        "col1": "On Leaving",
        "col2": "Steve Albini",
        "col3": "1878"
    },
    {
        "col0": "You Feel Good All Over",
        "col1": "Happy Together",
        "col2": "Buddy Killen",
        "col3": "196"
    },
    {
        "col0": "You Fail Me",
        "col1": "Unloved and Weeded Out",
        "col2": "Kurt Ballou",
        "col3": "2126"
    },
    {
        "col0": "You Dropped a Bomb on Me",
        "col1": "Early in the Morning",
        "col2": "Lonnie Simmons",
        "col3": "12"
    },
    {
        "col0": "You Drive Me Crazy",
        "col1": "This Ole House",
        "col2": "Stuart Colman",
        "col3": "171"
    },
    {
        "col0": "You Don't Seem to Miss Me",
        "col1": "The Trouble with the Truth",
        "col2": "Emory Gordy, Jr.",
        "col3": "247"
    },
    {
        "col0": "You Don't Own Me",
        "col1": "She's a Fool",
        "col2": "Quincy Jones",
        "col3": "151"
    },
    {
        "col0": "You Don't Need Me Now",
        "col1": "Loosen Up My Strings",
        "col2": "Clint Black",
        "col3": "222"
    },
    {
        "col0": "You Don't Miss Your Water",
        "col1": "Beautiful Waste",
        "col2": "The Triffids",
        "col3": "182"
    },
    {
        "col0": "You Don't Mess Around with Jim",
        "col1": "Jim & Ingrid Croce",
        "col2": "Terry Cashman",
        "col3": "2002"
    },
    {
        "col0": "You Don't Love Me Anymore",
        "col1": "Hearts on Fire",
        "col2": "David Malloy",
        "col3": "202"
    },
    {
        "col0": "You Don't Love Me Anymore",
        "col1": "Smells Like Nirvana",
        "col2": "\"Weird Al\" Yankovic",
        "col3": "240"
    },
    {
        "col0": "You Don't Love Me",
        "col1": "Sofa Song",
        "col2": "Tony Hoffer",
        "col3": "155"
    },
    {
        "col0": "You Don't Love Me",
        "col1": "Tonight",
        "col2": "Lee Hyori",
        "col3": "241"
    },
    {
        "col0": "You Don't Know Me: The Songs of Cindy Walker",
        "col1": "Countryman",
        "col2": "Fred Foster",
        "col3": "2348"
    },
    {
        "col0": "You Don't Know Love",
        "col1": "It Ain't Easy Bein' Easy",
        "col2": "Bob Montgomery",
        "col3": "196"
    },
    {
        "col0": "You Don't Know Love",
        "col1": "Papillon",
        "col2": "Flood",
        "col3": "280"
    },
    {
        "col0": "You Don't Know Her Like I Do",
        "col1": "Country Must Be Country Wide",
        "col2": "Dann Huff",
        "col3": "287"
    },
    {
        "col0": "You Don't Know",
        "col1": "Smack That",
        "col2": "Eminem",
        "col3": "257"
    },
    {
        "col0": "You Don't Know",
        "col1": "Come On Home",
        "col2": "Cyndi Lauper",
        "col3": "314"
    },
    {
        "col0": "You Don't Have to Worry",
        "col1": "Hit Me Off",
        "col2": "Sean Combs",
        "col3": "321"
    },
    {
        "col0": "You Don't Have to Worry",
        "col1": "Lies",
        "col2": "Denzil Foster",
        "col3": "47"
    },
    {
        "col0": "You Don't Fool Me",
        "col1": "Let Me Live",
        "col2": "Queen",
        "col3": "234"
    },
    {
        "col0": "You Don't Even Know Who I Am",
        "col1": "Here I Am",
        "col2": "Emory Gordy, Jr.",
        "col3": "244"
    },
    {
        "col0": "You Don't Count the Cost",
        "col1": "Somewhere in My Broken Heart",
        "col2": "Tom Shapiro",
        "col3": "199"
    },
    {
        "col0": "You Don't Bring Me Flowers",
        "col1": "I'm Glad You're Here with Me Tonight",
        "col2": "Bob Gaudio",
        "col3": "2505"
    },
    {
        "col0": "You Do Your Thing",
        "col1": "If You Ever Stop Loving Me",
        "col2": "Mark Wright",
        "col3": "223"
    },
    {
        "col0": "You Do Your Thing",
        "col1": "My Town",
        "col2": "Jeffrey Steele",
        "col3": "2869"
    },
    {
        "col0": "You Disgust Me",
        "col1": "Welcome to Los Santos",
        "col2": "Oh No",
        "col3": "2340"
    },
    {
        "col0": "You Didn't Have to Be So Nice",
        "col1": "Do You Believe in Magic",
        "col2": "Erik Jacobsen",
        "col3": "149"
    },
    {
        "col0": "You Decorated My Life",
        "col1": "'Til I Can Make It on My Own",
        "col2": "Larry Butler",
        "col3": "218"
    },
    {
        "col0": "You Cross My Path",
        "col1": "Collection",
        "col2": "The Charlatans",
        "col3": "2200"
    },
    {
        "col0": "You Could Have It So Much Better",
        "col1": "Franz Ferdinand",
        "col2": "Franz Ferdinand",
        "col3": "2476"
    },
    {
        "col0": "You Could Have Been with Me",
        "col1": "Take My Time",
        "col2": "Christopher Neil",
        "col3": "2103"
    },
    {
        "col0": "You Could Be Mine",
        "col1": "Nightrain",
        "col2": "Guns N' Roses",
        "col3": "344"
    },
    {
        "col0": "You Complete Me",
        "col1": "Playa Cardz Right",
        "col2": "Ron Fair",
        "col3": "231"
    },
    {
        "col0": "You Comb Her Hair",
        "col1": "Not What I Had in Mind",
        "col2": "Pappy Daily",
        "col3": "161"
    },
    {
        "col0": "You Caught Me Out",
        "col1": "You Broke My Heart in 17 Places",
        "col2": "Peter Collins",
        "col3": "3799"
    },
    {
        "col0": "You Can Win If You Want",
        "col1": "You're My Heart, You're My Soul",
        "col2": "Dieter Bohlen",
        "col3": "235"
    },
    {
        "col0": "You Can Tune a Piano, but You Can't Tuna Fish",
        "col1": "Live: You Get What You Play For",
        "col2": "Gary Richrath",
        "col3": "2027"
    },
    {
        "col0": "You Can Sleep While I Drive",
        "col1": "Thinkin' About You",
        "col2": "Garth Fundis",
        "col3": "195"
    },
    {
        "col0": "You Can Go Home",
        "col1": "Come a Little Closer",
        "col2": "Tony Brown",
        "col3": "213"
    },
    {
        "col0": "You Can Get It",
        "col1": "No More",
        "col2": "Olaf Jeglitza",
        "col3": "207"
    },
    {
        "col0": "You Can Dream of Me",
        "col1": "Some Fools Never Learn",
        "col2": "Jimmy Bowen",
        "col3": "244"
    },
    {
        "col0": "You Can Depend on Me",
        "col1": "Long Lost Friend",
        "col2": "Josh Leo",
        "col3": "158"
    },
    {
        "col0": "You Can't Win",
        "col1": "Ease on Down the Road",
        "col2": "Quincy Jones",
        "col3": "437"
    },
    {
        "col0": "You Can't Touch Me",
        "col1": "Boom",
        "col2": "Trackmasters",
        "col3": "236"
    },
    {
        "col0": "You Can't Take the Honky Tonk Out of the Girl",
        "col1": "Red Dirt Road",
        "col2": "Ronnie Dunn",
        "col3": "221"
    },
    {
        "col0": "You Can't Stop the Reign",
        "col1": "Shaq-Fu: Da Return",
        "col2": "Shaquille O'Neal",
        "col3": "4118"
    },
    {
        "col0": "You Can't Stop the Music",
        "col1": "Ducks on the Wall",
        "col2": "Ray Davies",
        "col3": "192"
    },
    {
        "col0": "You Can't Stop Rock 'n' Roll",
        "col1": "Under the Blade",
        "col2": "Stuart Epps",
        "col3": "2273"
    },
    {
        "col0": "You Can't Stop Me",
        "col1": "The Black Crown",
        "col2": "Steve Evetts",
        "col3": "2397"
    }
]