[
    {
        "col0": "W. Harmatz",
        "col1": "United States",
        "col2": "Vista, California",
        "col3": "2011-01-27",
        "col4": "1770",
        "col5": "1931-02-09",
        "col6": "1931-02-09"
    },
    {
        "col0": "W. Mehrtens",
        "col1": "Brooklyn",
        "col2": "United States",
        "col3": "1997-12-30",
        "col4": "614",
        "col5": "1920-11-05",
        "col6": "1920-11-05"
    },
    {
        "col0": "W. Dollase",
        "col1": "United States",
        "col2": "Kentucky",
        "col3": "2015-10-30",
        "col4": "522",
        "col5": "1937-08-01",
        "col6": "1937-08-01"
    },
    {
        "col0": "T. Forster",
        "col1": "Northamptonshire",
        "col2": "Shropshire",
        "col3": "1999-04-21",
        "col4": "1346",
        "col5": "1934-02-27",
        "col6": "1934-02-27"
    },
    {
        "col0": "R. Small",
        "col1": "Baltimore, Maryland",
        "col2": "Monkton, Maryland",
        "col3": "2014-04-04",
        "col4": "1182",
        "col5": "1945-12-02",
        "col6": "1945-12-02"
    },
    {
        "col0": "P. D. Anderson",
        "col1": "Long Island",
        "col2": "Florida",
        "col3": "2013-02-19",
        "col4": "80",
        "col5": "1931-11-20",
        "col6": "1931-11-20"
    },
    {
        "col0": "N. Holland",
        "col1": "Barrow-in-Furness",
        "col2": "Auckland",
        "col3": "2014-11-30",
        "col4": "900",
        "col5": "1924-03-24",
        "col6": "1924-03-24"
    },
    {
        "col0": "M. Venezia",
        "col1": "Brooklyn",
        "col2": "Elmont, New York",
        "col3": "1988-10-13",
        "col4": "2313",
        "col5": "1945-05-05",
        "col6": "1945-05-05"
    },
    {
        "col0": "M. Bacon",
        "col1": "United States",
        "col2": "United States",
        "col3": "1991-06-08",
        "col4": "286",
        "col5": "1948-01-01",
        "col6": "1948-01-01"
    },
    {
        "col0": "M. Mercer",
        "col1": "Bradford",
        "col2": "Ascot, Berkshire",
        "col3": "1959-09-26",
        "col4": "978",
        "col5": "1928-11-15",
        "col6": "1928-11-15"
    },
    {
        "col0": "M. Miller",
        "col1": "Kentucky",
        "col2": "Kentucky",
        "col3": "2010-12-10",
        "col4": "1103",
        "col5": "1921-10-16",
        "col6": "1921-10-16"
    },
    {
        "col0": "L. C. Jr.",
        "col1": "United States",
        "col2": "Canada",
        "col3": "2013-1-1",
        "col4": "2004",
        "col5": "1924-1-1",
        "col6": "1924-1-1"
    },
    {
        "col0": "J. Sellers",
        "col1": "Los Angeles",
        "col2": "United States",
        "col3": "2010-07-02",
        "col4": "2787",
        "col5": "1937-07-31",
        "col6": "1937-07-31"
    },
    {
        "col0": "J. Longden",
        "col1": "England",
        "col2": "Banning, California",
        "col3": "2003-02-14",
        "col4": "6032",
        "col5": "1907-02-14",
        "col6": "1907-02-14"
    },
    {
        "col0": "J. Ruane",
        "col1": "Ireland",
        "col2": "Somers Point, New Jersey",
        "col3": "2006-09-03",
        "col4": "1800",
        "col5": "1936-10-04",
        "col6": "1936-10-04"
    },
    {
        "col0": "J. A. Nerud",
        "col1": "Minatare, Nebraska",
        "col2": "Old Brookville, New York",
        "col3": "2015-08-13",
        "col4": "1000",
        "col5": "1913-02-09",
        "col6": "1913-02-09"
    },
    {
        "col0": "J. Culmone",
        "col1": "Italy",
        "col2": "Cherry Hill, New Jersey",
        "col3": "1996-07-23",
        "col4": "3000",
        "col5": "1931-05-13",
        "col6": "1931-05-13"
    },
    {
        "col0": "J. Dennis",
        "col1": "Rexburg, Idaho",
        "col2": "Solana Beach, California",
        "col3": "2004-02-22",
        "col4": "2677",
        "col5": "1923-05-09",
        "col6": "1923-05-09"
    },
    {
        "col0": "J. Lambert",
        "col1": "Kansas",
        "col2": "Santa Ynez, California",
        "col3": "2015-02-23",
        "col4": "2535",
        "col5": "1940-12-27",
        "col6": "1940-12-27"
    },
    {
        "col0": "J. Winkfield",
        "col1": "Kentucky",
        "col2": "Maisons-Laffitte",
        "col3": "1974-03-23",
        "col4": "2600",
        "col5": "1882-04-12",
        "col6": "1882-04-12"
    },
    {
        "col0": "J. E. Fitzsimmons",
        "col1": "New York",
        "col2": "Florida",
        "col3": "1966-03-11",
        "col4": "2275",
        "col5": "1874-07-23",
        "col6": "1874-07-23"
    },
    {
        "col0": "J. D. Nichols",
        "col1": "Las Cruces, New Mexico",
        "col2": "Fort Worth, Texas",
        "col3": "2003-02-27",
        "col4": "2446",
        "col5": "1928-3-0",
        "col6": "1928-3-0"
    },
    {
        "col0": "J. McNamara",
        "col1": "Limerick",
        "col2": "Limerick",
        "col3": "2016-07-26",
        "col4": "600",
        "col5": "1975-04-08",
        "col6": "1975-04-08"
    },
    {
        "col0": "I. H. Parke",
        "col1": "United States",
        "col2": "Gainesville, Florida",
        "col3": "1995-01-20",
        "col4": "419",
        "col5": "1908-11-01",
        "col6": "1908-11-01"
    },
    {
        "col0": "I. Valenzuela",
        "col1": "United States",
        "col2": "Santa Anita, California",
        "col3": "2009-09-02",
        "col4": "2545",
        "col5": "1934-12-25",
        "col6": "1934-12-25"
    },
    {
        "col0": "H. Trotsek",
        "col1": "United States",
        "col2": "United States",
        "col3": "1997-02-05",
        "col4": "1690",
        "col5": "1912-04-18",
        "col6": "1912-04-18"
    },
    {
        "col0": "G. Woolf",
        "col1": "Canada",
        "col2": "United States",
        "col3": "1946-01-04",
        "col4": "721",
        "col5": "1910-05-31",
        "col6": "1910-05-31"
    },
    {
        "col0": "G. Moore",
        "col1": "Mackay, Queensland",
        "col2": "Sydney",
        "col3": "2008-01-08",
        "col4": "2278",
        "col5": "1923-07-05",
        "col6": "1923-07-05"
    },
    {
        "col0": "G. Barrett",
        "col1": "Metfield",
        "col2": "England",
        "col3": "1898-02-25",
        "col4": "1401",
        "col5": "1863-05-29",
        "col6": "1863-05-29"
    },
    {
        "col0": "F. Archer",
        "col1": "Cheltenham",
        "col2": "Newmarket, Suffolk",
        "col3": "1886-11-08",
        "col4": "2748",
        "col5": "1857-01-11",
        "col6": "1857-01-11"
    },
    {
        "col0": "E. R. Jr.",
        "col1": "Mexico City",
        "col2": "Long Grove, Illinois",
        "col3": "2012-04-24",
        "col4": "2962",
        "col5": "1966-01-21",
        "col6": "1966-01-21"
    },
    {
        "col0": "E. J. Perrodin",
        "col1": "Rayne, Louisiana",
        "col2": "Haughton, Louisiana",
        "col3": "2012-06-10",
        "col4": "3083",
        "col5": "1956-12-14",
        "col6": "1956-12-14"
    },
    {
        "col0": "E. Arcaro",
        "col1": "Cincinnati",
        "col2": "Miami",
        "col3": "1997-11-14",
        "col4": "4779",
        "col5": "1916-02-19",
        "col6": "1916-02-19"
    },
    {
        "col0": "E. Avery",
        "col1": "Canada",
        "col2": "Canada",
        "col3": "1977-11-06",
        "col4": "4000",
        "col5": "1894-02-04",
        "col6": "1894-02-04"
    },
    {
        "col0": "D. Baird",
        "col1": "Martinsville, Illinois",
        "col2": "Hancock County, Indiana",
        "col3": "2007-12-23",
        "col4": "9445",
        "col5": "1935-04-17",
        "col6": "1935-04-17"
    },
    {
        "col0": "C. Kummer",
        "col1": "New York",
        "col2": "New York",
        "col3": "1930-12-18",
        "col4": "464",
        "col5": "1899-08-08",
        "col6": "1899-08-08"
    },
    {
        "col0": "C. Antley",
        "col1": "United States",
        "col2": "Pasadena, California",
        "col3": "2000-12-02",
        "col4": "3480",
        "col5": "1966-01-06",
        "col6": "1966-01-06"
    },
    {
        "col0": "B. Swatuk",
        "col1": "Canada",
        "col2": "Canada",
        "col3": "2014-12-13",
        "col4": "1679",
        "col5": "1949-07-09",
        "col6": "1949-07-09"
    },
    {
        "col0": "B. Skelton",
        "col1": "Cobden, New Zealand",
        "col2": "Melbourne",
        "col3": "2016-8-19",
        "col4": "2230",
        "col5": "1934-1-1",
        "col6": "1934-1-1"
    },
    {
        "col0": "B. Shoemaker",
        "col1": "United States",
        "col2": "San Marino, California",
        "col3": "2003-10-12",
        "col4": "8833",
        "col5": "1931-08-19",
        "col6": "1931-08-19"
    },
    {
        "col0": "B. Cummings",
        "col1": "Adelaide",
        "col2": "New South Wales",
        "col3": "2015-08-30",
        "col4": "12",
        "col5": "1927-11-14",
        "col6": "1927-11-14"
    }
]