[
    {
        "col0": "A. P. Adler",
        "col1": "Copenhagen",
        "col2": "1812-08-29",
        "col3": "1812-08-29",
        "col4": "1869"
    },
    {
        "col0": "A. Reinach",
        "col1": "Belgium",
        "col2": "1883-12-23",
        "col3": "1883-12-23",
        "col4": "1917"
    },
    {
        "col0": "A. Korais",
        "col1": "Paris",
        "col2": "1748-04-27",
        "col3": "1748-04-27",
        "col4": "1833"
    },
    {
        "col0": "A. Weishaupt",
        "col1": "Gotha",
        "col2": "1748-02-06",
        "col3": "1748-02-06",
        "col4": "1830"
    },
    {
        "col0": "A. Watson",
        "col1": "Royal Tunbridge Wells",
        "col2": "1914-08-10",
        "col3": "1914-08-10",
        "col4": "2007"
    },
    {
        "col0": "A. Smith",
        "col1": "Edinburgh",
        "col2": "1723-06-16",
        "col3": "1723-06-16",
        "col4": "1790"
    },
    {
        "col0": "A. Schaff",
        "col1": "Warsaw",
        "col2": "1913-03-10",
        "col3": "1913-03-10",
        "col4": "2006"
    },
    {
        "col0": "Adam Karl August von Eschenmayer",
        "col1": "Kingdom of Wurttemberg",
        "col2": "1768-07-04",
        "col3": "1768-07-04",
        "col4": "1852"
    },
    {
        "col0": "A. Ferguson",
        "col1": "Scotland",
        "col2": "1723-06-20",
        "col3": "1723-06-20",
        "col4": "1816"
    },
    {
        "col0": "Abul Hasan Ali Hasani Nadwi",
        "col1": "India",
        "col2": "1913-12-5",
        "col3": "1913-12-5",
        "col4": "1999"
    },
    {
        "col0": "A. a. al-Khoei",
        "col1": "Kufa",
        "col2": "1899-11-19",
        "col3": "1899-11-19",
        "col4": "1992"
    },
    {
        "col0": "A. Yusuf",
        "col1": "Baghdad",
        "col2": "731-1-1",
        "col3": "731-1-1",
        "col4": "798"
    },
    {
        "col0": "Abu'l-Fida",
        "col1": "Hama",
        "col2": "1273-0-0",
        "col3": "1273-0-0",
        "col4": "1331"
    }
]