[
    {
        "col0": "Volvo S70",
        "col1": "Peter Horbury",
        "col2": "Volvo V70",
        "col3": "2000"
    },
    {
        "col0": "Volkswagen Passat",
        "col1": "Robert LeA!nik",
        "col2": "Audi A3",
        "col3": "2010"
    },
    {
        "col0": "Volkswagen New Beetle",
        "col1": "Peter Schreyer",
        "col2": "Audi A3",
        "col3": "2011"
    },
    {
        "col0": "Tata Safari Storme",
        "col1": "Tata Motors",
        "col2": "Mahindra Scorpio",
        "col3": "2012"
    },
    {
        "col0": "Tata Movus",
        "col1": "Tata Motors",
        "col2": "Toyota Innova",
        "col3": "2014"
    },
    {
        "col0": "Tata GenX Nano",
        "col1": "Tata Motors",
        "col2": "Suzuki Alto",
        "col3": "2015"
    },
    {
        "col0": "Studebaker Sky Hawk",
        "col1": "Raymond Loewy",
        "col2": "Packard Hawk",
        "col3": "1956"
    },
    {
        "col0": "Saturn Sky",
        "col1": "Franz von Holzhausen",
        "col2": "Pontiac Solstice",
        "col3": "2010"
    },
    {
        "col0": "Renault Alliance",
        "col1": "Robert Opron",
        "col2": "Renault 9 & 11",
        "col3": "1987"
    },
    {
        "col0": "Porsche 918 Spyder",
        "col1": "Michael Mauer",
        "col2": "Porsche Carrera GT",
        "col3": "2015"
    },
    {
        "col0": "Pontiac Solstice",
        "col1": "Wayne Cherry",
        "col2": "Opel GT",
        "col3": "2010"
    },
    {
        "col0": "Pontiac Astre",
        "col1": "Bill Mitchell",
        "col2": "Chevrolet Vega",
        "col3": "1977"
    },
    {
        "col0": "Panther Lima",
        "col1": "Bob Jankel",
        "col2": "Vauxhall Magnum",
        "col3": "1982"
    },
    {
        "col0": "Micro Trend",
        "col1": "Pininfarina",
        "col2": "Hafei Lobo",
        "col3": "2008"
    },
    {
        "col0": "Mercedes-Benz E-Class",
        "col1": "Robert Lesnik",
        "col2": "Mercedes-Benz S-Class",
        "col3": "2017"
    },
    {
        "col0": "Mahindra TUV300",
        "col1": "Chennai",
        "col2": "Ford EcoSport",
        "col3": "2015"
    },
    {
        "col0": "Lincoln EL-series",
        "col1": "Eugene Turenne Gregorie",
        "col2": "Mercury Eight",
        "col3": "1951"
    },
    {
        "col0": "Lamborghini Gallardo",
        "col1": "Italdesign Giugiaro",
        "col2": "Audi R8",
        "col3": "2013"
    },
    {
        "col0": "Lamborghini Athon",
        "col1": "Gruppo Bertone",
        "col2": "Lamborghini Silhouette",
        "col3": "1980"
    },
    {
        "col0": "Jaguar S-Type",
        "col1": "Ian Callum",
        "col2": "Lincoln LS",
        "col3": "2009"
    },
    {
        "col0": "Jaguar R-Coupe",
        "col1": "Ian Callum",
        "col2": "Jaguar S-Type",
        "col3": "2001"
    },
    {
        "col0": "IKCO Dena",
        "col1": "Iran Khodro",
        "col2": "IKCO Samand",
        "col3": "2017"
    },
    {
        "col0": "Ford Thunderbird",
        "col1": "Jack Telnack",
        "col2": "Lincoln Continental Mark VII",
        "col3": "1988"
    },
    {
        "col0": "Ford Taurus SHO",
        "col1": "Jack Telnack",
        "col2": "Ford Taurus",
        "col3": "1999"
    },
    {
        "col0": "Ford Taurus",
        "col1": "Moray Callum",
        "col2": "Lincoln Continental",
        "col3": "2007"
    },
    {
        "col0": "Ford Five Hundred",
        "col1": "J Mays",
        "col2": "Volvo S60",
        "col3": "2007"
    },
    {
        "col0": "Ferrari Pinin",
        "col1": "Leonardo Fioravanti",
        "col2": "Ferrari 400",
        "col3": "1980"
    },
    {
        "col0": "Ferrari 348",
        "col1": "Pininfarina",
        "col2": "Ferrari Mondial",
        "col3": "1989"
    },
    {
        "col0": "Ferrari 328",
        "col1": "Leonardo Fioravanti",
        "col2": "Ferrari Mondial",
        "col3": "1989"
    },
    {
        "col0": "Chrysler Pacifica",
        "col1": "Freeman Thomas",
        "col2": "Chrysler Voyager",
        "col3": "2008"
    },
    {
        "col0": "Chrysler PT Cruiser",
        "col1": "Bryan Nesbitt",
        "col2": "Dodge Neon",
        "col3": "2010"
    },
    {
        "col0": "Chrysler Crossfire",
        "col1": "Eric Stoddard",
        "col2": "Mercedes-Benz SLK-Class",
        "col3": "2008"
    },
    {
        "col0": "Chevrolet Vega",
        "col1": "Bill Mitchell",
        "col2": "Buick Skyhawk",
        "col3": "1977"
    },
    {
        "col0": "Chevrolet HHR",
        "col1": "Bryan Nesbitt",
        "col2": "Chevrolet Cobalt",
        "col3": "2011"
    },
    {
        "col0": "Chevrolet Adra",
        "col1": "General Motors India Private Limited",
        "col2": "Ford Escape",
        "col3": "2015"
    },
    {
        "col0": "Cadillac Series 65",
        "col1": "Harley Earl",
        "col2": "Buick Roadmaster",
        "col3": "1938"
    },
    {
        "col0": "Cadillac Series 355",
        "col1": "Harley Earl",
        "col2": "Cadillac V-16",
        "col3": "1935"
    },
    {
        "col0": "Cadillac Fleetwood Brougham",
        "col1": "Bill Mitchell",
        "col2": "Buick Electra",
        "col3": "1986"
    },
    {
        "col0": "BMW 3 Series",
        "col1": "Pinky Lai",
        "col2": "BMW M3",
        "col3": "1999"
    },
    {
        "col0": "Aston Martin DB7",
        "col1": "Ian Callum",
        "col2": "Jaguar XK8",
        "col3": "1998"
    },
    {
        "col0": "Apollo",
        "col1": "Franco Scaglione",
        "col2": "Intermeccanica",
        "col3": "1965"
    },
    {
        "col0": "Alfa Romeo Spider",
        "col1": "Pininfarina",
        "col2": "Alfa Romeo Giulia",
        "col3": "1994"
    },
    {
        "col0": "AMC Hornet",
        "col1": "Richard A. Teague",
        "col2": "AMC Gremlin",
        "col3": "1977"
    },
    {
        "col0": "AMC Concord",
        "col1": "Richard A. Teague",
        "col2": "AMC Gremlin",
        "col3": "1983"
    }
]