[
    {
        "col0": "International Labour Review",
        "col1": "Wiley-Blackwell",
        "col2": "1921",
        "col3": "0020-7780",
        "col4": "ILREDT",
        "col5": "1642893"
    },
    {
        "col0": "International Journal of Wireless Information Networks",
        "col1": "Springer Science+Business Media",
        "col2": "1994",
        "col3": "1068-9605",
        "col4": "IJWNEY",
        "col5": "27870247"
    },
    {
        "col0": "International Journal of Toxicology",
        "col1": "SAGE Publications",
        "col2": "1982",
        "col3": "1091-5818",
        "col4": "IJTOFN",
        "col5": "35843664"
    },
    {
        "col0": "International Journal of Thermophysics",
        "col1": "Springer Science+Business Media",
        "col2": "1980",
        "col3": "0195-928X",
        "col4": "IJTHDY",
        "col5": "231029324"
    },
    {
        "col0": "International Journal of Systematic and Evolutionary Microbiology",
        "col1": "Society for General Microbiology",
        "col2": "1951",
        "col3": "1466-5026",
        "col4": "ISEMF5",
        "col5": "807119723"
    },
    {
        "col0": "International Journal of Surgical Pathology",
        "col1": "SAGE Publications",
        "col2": "1993",
        "col3": "1066-8969",
        "col4": "IJSPFL",
        "col5": "192031701"
    },
    {
        "col0": "International Journal of Stress Management",
        "col1": "American Psychological Association",
        "col2": "2003",
        "col3": "1072-5245",
        "col4": "ISMAE8",
        "col5": "44461463"
    },
    {
        "col0": "International Journal of STD & AIDS",
        "col1": "Sage Publications",
        "col2": "1990",
        "col3": "0956-4624",
        "col4": "INSAE3",
        "col5": "21176258"
    },
    {
        "col0": "International Journal of Research in Marketing",
        "col1": "Elsevier",
        "col2": "1984",
        "col3": "0167-8116",
        "col4": "IJRME6",
        "col5": "222765922"
    },
    {
        "col0": "International Journal of Psychology",
        "col1": "Wiley-Blackwell",
        "col2": "1966",
        "col3": "0020-7594",
        "col4": "IJPSBB",
        "col5": "71365089"
    },
    {
        "col0": "International Journal of Primatology",
        "col1": "Springer Science+Business Media",
        "col2": "1980",
        "col3": "0164-0291",
        "col4": "IJPRDA",
        "col5": "4556695"
    },
    {
        "col0": "International Journal of Politics, Culture, and Society",
        "col1": "Springer Science+Business Media",
        "col2": "1987",
        "col3": "0891-4486",
        "col4": "ICSOE2",
        "col5": "290582467"
    },
    {
        "col0": "International Journal of Pharmaceutics",
        "col1": "Elsevier",
        "col2": "1978",
        "col3": "0378-5173",
        "col4": "IJPHDE",
        "col5": "3687036"
    },
    {
        "col0": "International Journal of Oral and Maxillofacial Surgery",
        "col1": "Elsevier",
        "col2": "1972",
        "col3": "0901-5027",
        "col4": "IJOSE9",
        "col5": "13320581"
    },
    {
        "col0": "International Journal of Multiphase Flow",
        "col1": "Elsevier",
        "col2": "1973",
        "col3": "0301-9322",
        "col4": "IJMFBP",
        "col5": "31158553"
    },
    {
        "col0": "International Journal of Modelling and Simulation",
        "col1": "Taylor & Francis",
        "col2": "1981",
        "col3": "0228-6203",
        "col4": "IMSIEK",
        "col5": "77079238"
    },
    {
        "col0": "International Journal of Middle East Studies",
        "col1": "Cambridge University Press",
        "col2": "1970",
        "col3": "0020-7438",
        "col4": "IJMECN",
        "col5": "48536107"
    },
    {
        "col0": "International Journal of Medical Sciences",
        "col1": "Ivyspring International Publisher",
        "col2": "2004",
        "col3": "1449-1907",
        "col4": "IJMSGZ",
        "col5": "54900446"
    },
    {
        "col0": "International Journal of Medical Microbiology",
        "col1": "Urban and Fischer",
        "col2": "1887",
        "col3": "1438-4221",
        "col4": "IMEMFV",
        "col5": "44107614"
    },
    {
        "col0": "International Journal of Language & Communication Disorders",
        "col1": "Wiley-Blackwell",
        "col2": "1966",
        "col3": "1368-2822",
        "col4": "IJLDFI",
        "col5": "38452377"
    },
    {
        "col0": "International Journal of Impotence Research",
        "col1": "Nature Publishing Group",
        "col2": "1989",
        "col3": "0955-9930",
        "col4": "IJIRFB",
        "col5": "225097711"
    },
    {
        "col0": "International Journal of Hydrogen Energy",
        "col1": "Elsevier",
        "col2": "1976",
        "col3": "0360-3199",
        "col4": "IJHEDX",
        "col5": "884093395"
    },
    {
        "col0": "International Journal of Historical Archaeology",
        "col1": "Springer Science+Business Media",
        "col2": "1997",
        "col3": "1092-7697",
        "col4": "IJHAFN",
        "col5": "44169294"
    },
    {
        "col0": "International Journal of High Performance Computing Applications",
        "col1": "Sage Publications",
        "col2": "1987",
        "col3": "1094-3420",
        "col4": "IHPCFL",
        "col5": "40095711"
    },
    {
        "col0": "International Journal of Hematology",
        "col1": "Springer Science+Business Media",
        "col2": "1937",
        "col3": "0925-5710",
        "col4": "IJHEEY",
        "col5": "24372334"
    },
    {
        "col0": "International Journal of Gynecology & Obstetrics",
        "col1": "Elsevier",
        "col2": "1963",
        "col3": "0020-7292",
        "col4": "IJGOAL",
        "col5": "20761200"
    },
    {
        "col0": "International Journal of Geriatric Psychiatry",
        "col1": "John Wiley & Sons",
        "col2": "1986",
        "col3": "0885-6230",
        "col4": "IJGPES",
        "col5": "609890091"
    },
    {
        "col0": "International Journal of Geographical Information Science",
        "col1": "Taylor & Francis",
        "col2": "1997",
        "col3": "1362-3087",
        "col4": "IGISFR",
        "col5": "38277271"
    },
    {
        "col0": "International Journal of Forecasting",
        "col1": "Elsevier",
        "col2": "1985",
        "col3": "0169-2070",
        "col4": "IJFOEK",
        "col5": "12658569"
    },
    {
        "col0": "International Journal of Food Sciences and Nutrition",
        "col1": "Informa",
        "col2": "1947",
        "col3": "0963-7486",
        "col4": "IJFNEH",
        "col5": "39035507"
    },
    {
        "col0": "International Journal of Epidemiology",
        "col1": "Oxford University Press",
        "col2": "1972",
        "col3": "0300-5771",
        "col4": "IJEPBF",
        "col5": "1784923"
    },
    {
        "col0": "International Journal of Energy Research",
        "col1": "John Wiley & Sons",
        "col2": "1977",
        "col3": "0363-907X",
        "col4": "IJERDN",
        "col5": "42621034"
    },
    {
        "col0": "International Journal of Developmental Neuroscience",
        "col1": "Elsevier",
        "col2": "1983",
        "col3": "0736-5748",
        "col4": "IJDND6",
        "col5": "9161012"
    },
    {
        "col0": "International Journal of Damage Mechanics",
        "col1": "Sage Publications",
        "col2": "1992",
        "col3": "1056-7895",
        "col4": "IDMEEH",
        "col5": "44486409"
    },
    {
        "col0": "International Journal of Clinical Rheumatology",
        "col1": "Pulsus Group",
        "col2": "2007",
        "col3": "1758-4272",
        "col4": "IJCRHH",
        "col5": "500671671"
    },
    {
        "col0": "International Journal of Clinical Practice",
        "col1": "John Wiley & Sons",
        "col2": "1947",
        "col3": "1368-5031",
        "col4": "IJCPF9",
        "col5": "37259930"
    },
    {
        "col0": "International Journal of Clinical Pharmacy",
        "col1": "Springer Science+Business Media",
        "col2": "1979",
        "col3": "2210-7703",
        "col4": "IJCPKE",
        "col5": "747224479"
    },
    {
        "col0": "International Journal of Cardiology",
        "col1": "Elsevier",
        "col2": "1981",
        "col3": "0167-5273",
        "col4": "IJCDD5",
        "col5": "7833068"
    },
    {
        "col0": "International Journal of Cancer",
        "col1": "John Wiley & Sons",
        "col2": "1966",
        "col3": "0020-7136",
        "col4": "IJCNAW",
        "col5": "474772933"
    },
    {
        "col0": "International Journal of Biological Sciences",
        "col1": "Ivyspring International Publisher",
        "col2": "2005",
        "col3": "1449-2288",
        "col4": "IJBSB9",
        "col5": "57564437"
    },
    {
        "col0": "International Journal of Biological Macromolecules",
        "col1": "Elsevier",
        "col2": "1979",
        "col3": "0141-8130",
        "col4": "IJBMDR",
        "col5": "5059673"
    },
    {
        "col0": "International Journal of Bilingualism",
        "col1": "SAGE Publications",
        "col2": "1997",
        "col3": "1367-0069",
        "col4": "IJBIFH",
        "col5": "614170119"
    },
    {
        "col0": "International Journal of Behavioral Development",
        "col1": "SAGE Publications",
        "col2": "1978",
        "col3": "0165-0254",
        "col4": "IJBDDY",
        "col5": "300286882"
    },
    {
        "col0": "International Journal of Astrobiology",
        "col1": "Cambridge University Press",
        "col2": "2002",
        "col3": "1473-5504",
        "col4": "IJANFR",
        "col5": "50515202"
    },
    {
        "col0": "International Journal of Acarology",
        "col1": "Taylor & Francis",
        "col2": "1975",
        "col3": "0168-8162",
        "col4": "IJOADM",
        "col5": "3357196"
    },
    {
        "col0": "International Journal for the Psychology of Religion",
        "col1": "Routledge",
        "col2": "1991",
        "col3": "1050-8619",
        "col4": "IPRLEB",
        "col5": "45255134"
    },
    {
        "col0": "International Journal for Parasitology",
        "col1": "Elsevier",
        "col2": "1971",
        "col3": "0020-7519",
        "col4": "IJPYBT",
        "col5": "1771044"
    },
    {
        "col0": "International Journal for Numerical Methods in Fluids",
        "col1": "John Wiley & Sons",
        "col2": "1981",
        "col3": "0271-2091",
        "col4": "IJNFDW",
        "col5": "6569528"
    },
    {
        "col0": "International Immunology",
        "col1": "Oxford University Press",
        "col2": "1989",
        "col3": "0953-8178",
        "col4": "INIMEN",
        "col5": "20567176"
    },
    {
        "col0": "International Clinical Psychopharmacology",
        "col1": "Wolters Kluwer Health",
        "col2": "1986",
        "col3": "0268-1315",
        "col4": "ICLPE4",
        "col5": "14076534"
    },
    {
        "col0": "International Archives of Occupational and Environmental Health",
        "col1": "Springer Science+Business Media",
        "col2": "1930",
        "col3": "0340-0131",
        "col4": "IAEHDW",
        "col5": "657616541"
    },
    {
        "col0": "International Angiology",
        "col1": "Minerva Medica",
        "col2": "1982",
        "col3": "0392-9590",
        "col4": "INANEK",
        "col5": "10637543"
    },
    {
        "col0": "Intensive Care Medicine",
        "col1": "Springer Science+Business Media",
        "col2": "1975",
        "col3": "0342-4642",
        "col4": "ICMED9",
        "col5": "884609077"
    },
    {
        "col0": "Intelligence",
        "col1": "Elsevier",
        "col2": "1977",
        "col3": "0160-2896",
        "col4": "NTLLDT",
        "col5": "3334510"
    },
    {
        "col0": "Inorganica Chimica Acta",
        "col1": "Elsevier",
        "col2": "1967",
        "col3": "0020-1693",
        "col4": "ICHAA3",
        "col5": "2242336"
    },
    {
        "col0": "Innovative Food Science and Emerging Technologies",
        "col1": "Elsevier",
        "col2": "2000",
        "col3": "1466-8564",
        "col4": "IFSEBO",
        "col5": "610588124"
    },
    {
        "col0": "Innate Immunity",
        "col1": "Sage Publications",
        "col2": "1994",
        "col3": "1753-4259",
        "col4": "IINMCB",
        "col5": "226438859"
    },
    {
        "col0": "Injury",
        "col1": "Elsevier",
        "col2": "1969",
        "col3": "0020-1383",
        "col4": "INJUBF",
        "col5": "1715915"
    },
    {
        "col0": "Information Systems Research",
        "col1": "Institute for Operations Research and the Management Sciences",
        "col2": "1990",
        "col3": "1047-7047",
        "col4": "ISYREH",
        "col5": "20750174"
    },
    {
        "col0": "Information Systems Journal",
        "col1": "Wiley-Blackwell",
        "col2": "1991",
        "col3": "1350-1917",
        "col4": "ISYJER",
        "col5": "46544344"
    },
    {
        "col0": "Information Systems",
        "col1": "Elsevier",
        "col2": "1975",
        "col3": "0306-4379",
        "col4": "INSYD6",
        "col5": "885211187"
    },
    {
        "col0": "Information Services & Use",
        "col1": "IOS Press",
        "col2": "1981",
        "col3": "0167-5265",
        "col4": "ISUSDX",
        "col5": "41949073"
    },
    {
        "col0": "Inflammation Research",
        "col1": "Springer Science+Business Media",
        "col2": "1969",
        "col3": "1023-3830",
        "col4": "INREFB",
        "col5": "32011438"
    },
    {
        "col0": "Infection and Immunity",
        "col1": "American Society for Microbiology",
        "col2": "1967",
        "col3": "0019-9567",
        "col4": "INFIBR",
        "col5": "1753126"
    },
    {
        "col0": "Infection",
        "col1": "Springer Science+Business Media",
        "col2": "1973",
        "col3": "0300-8126",
        "col4": "IFTNAL",
        "col5": "3388280"
    },
    {
        "col0": "Industrial & Engineering Chemistry Research",
        "col1": "American Chemical Society",
        "col2": "1909",
        "col3": "0888-5885",
        "col4": "IECRED",
        "col5": "13659424"
    },
    {
        "col0": "Indoor and Built Environment",
        "col1": "Sage Publications",
        "col2": "1992",
        "col3": "1420-326X",
        "col4": "IBENFP",
        "col5": "44723764"
    },
    {
        "col0": "Indian Journal of Pharmacology",
        "col1": "Medknow Publications",
        "col2": "1969",
        "col3": "0253-7613",
        "col4": "INJPD2",
        "col5": "4896540"
    },
    {
        "col0": "Indian Journal of Pharmaceutical Sciences",
        "col1": "OMICS International",
        "col2": "1939",
        "col3": "0250-474X",
        "col4": "IJSID",
        "col5": "4237329"
    },
    {
        "col0": "Indian Journal of Pathology & Microbiology",
        "col1": "Medknow Publications",
        "col2": "1958",
        "col3": "0377-4929",
        "col4": "IJPMDT",
        "col5": "746947022"
    },
    {
        "col0": "Indian Journal of Ophthalmology",
        "col1": "Medknow Publications",
        "col2": "1953",
        "col3": "0301-4738",
        "col4": "IJOMBM",
        "col5": "1590475"
    },
    {
        "col0": "Indian Journal of Medical Research",
        "col1": "Medknow Publications",
        "col2": "1913",
        "col3": "0971-5916",
        "col4": "IMIREV",
        "col5": "475425104"
    },
    {
        "col0": "Indian Journal of Medical Microbiology",
        "col1": "Medknow Publications",
        "col2": "1983",
        "col3": "0255-0857",
        "col4": "IJMMEF",
        "col5": "15085386"
    },
    {
        "col0": "Indian Journal of Gender Studies",
        "col1": "Sage Publications",
        "col2": "1994",
        "col3": "0971-5215",
        "col4": "IJGSF4",
        "col5": "60628369"
    },
    {
        "col0": "Indian Journal of Dermatology, Venereology and Leprology",
        "col1": "Medknow Publications",
        "col2": "1990",
        "col3": "0378-6323",
        "col4": "IJDLDY",
        "col5": "2884822"
    },
    {
        "col0": "Indian Journal of Dermatology",
        "col1": "Medknow Publications",
        "col2": "1955",
        "col3": "0019-5154",
        "col4": "IJDEAA",
        "col5": "1715007"
    },
    {
        "col0": "Indian Journal of Cancer",
        "col1": "Medknow Publications",
        "col2": "1964",
        "col3": "0019-509X",
        "col4": "IJCAAR",
        "col5": "1752894"
    },
    {
        "col0": "Indian Journal of Anaesthesia",
        "col1": "Medknow Publications",
        "col2": "2002",
        "col3": "0019-5049",
        "col4": "IJANBN",
        "col5": "1752890"
    },
    {
        "col0": "In Practice",
        "col1": "BMJ Group",
        "col2": "1979",
        "col3": "0263-841X",
        "col4": "IPRCDH",
        "col5": "4752211"
    },
    {
        "col0": "Immunotherapy",
        "col1": "Future Medicine",
        "col2": "2009",
        "col3": "1750-743X",
        "col4": "IMMUCO",
        "col5": "495368971"
    },
    {
        "col0": "Immunology",
        "col1": "Wiley-Blackwell",
        "col2": "1958",
        "col3": "0019-2805",
        "col4": "IMMUAM",
        "col5": "265405229"
    },
    {
        "col0": "Immunogenetics",
        "col1": "Springer Science+Business Media",
        "col2": "1974",
        "col3": "0093-7711",
        "col4": "IMNGBK",
        "col5": "1793392"
    },
    {
        "col0": "Immunity",
        "col1": "Cell Press",
        "col2": "1994",
        "col3": "1074-7613",
        "col4": "IUNIEH",
        "col5": "37832296"
    },
    {
        "col0": "Imaging in Medicine",
        "col1": "Pulsus Group",
        "col2": "2009",
        "col3": "1755-5191",
        "col4": "IMMECA",
        "col5": "651888195"
    },
    {
        "col0": "IEEE Wireless Communications",
        "col1": "IEEE Microwave Theory and Techniques Society",
        "col2": "2002",
        "col3": "1536-1284",
        "col4": "IWCEAS",
        "col5": "424000866"
    },
    {
        "col0": "IEEE Transactions on Wireless Communications",
        "col1": "Institute of Electrical and Electronics Engineers",
        "col2": "2002",
        "col3": "1536-1276",
        "col4": "ITWCAX",
        "col5": "47360896"
    },
    {
        "col0": "IEEE Transactions on Terahertz Science and Technology",
        "col1": "IEEE Microwave Theory and Techniques Society",
        "col2": "2011",
        "col3": "2156-342X",
        "col4": "ITTSBX",
        "col5": "646065946"
    },
    {
        "col0": "IEEE Transactions on Software Engineering",
        "col1": "IEEE Computer Society",
        "col2": "1975",
        "col3": "0098-5589",
        "col4": "IESEDJ",
        "col5": "1434336"
    },
    {
        "col0": "IEEE Transactions on Signal Processing",
        "col1": "Institute of Electrical and Electronics Engineers",
        "col2": "1953",
        "col3": "1053-587X",
        "col4": "ITPRED",
        "col5": "464907408"
    },
    {
        "col0": "IEEE Transactions on Pattern Analysis and Machine Intelligence",
        "col1": "IEEE Computer Society",
        "col2": "1979",
        "col3": "0162-8828",
        "col4": "ITPIDJ",
        "col5": "4253074"
    },
    {
        "col0": "IEEE Transactions on Multimedia",
        "col1": "Institute of Electrical and Electronics Engineers",
        "col2": "1999",
        "col3": "1520-9210",
        "col4": "ITMUF8",
        "col5": "39625562"
    },
    {
        "col0": "IEEE Transactions on Magnetics",
        "col1": "IEEE Magnetics Society",
        "col2": "1965",
        "col3": "0018-9464",
        "col4": "IEMGAQ",
        "col5": "44580412"
    },
    {
        "col0": "IEEE Transactions on Information Theory",
        "col1": "IEEE Information Theory Society",
        "col2": "1953",
        "col3": "0018-9448",
        "col4": "IETTAW",
        "col5": "1752552"
    },
    {
        "col0": "IEEE Transactions on Fuzzy Systems",
        "col1": "IEEE Computational Intelligence Society",
        "col2": "1993",
        "col3": "1063-6706",
        "col4": "IEFSEV",
        "col5": "26109022"
    },
    {
        "col0": "IEEE Transactions on Evolutionary Computation",
        "col1": "IEEE Computational Intelligence Society",
        "col2": "1997",
        "col3": "1089-778X",
        "col4": "ITEVF5",
        "col5": "35127428"
    },
    {
        "col0": "IEEE Transactions on Electron Devices",
        "col1": "IEEE Electron Devices Society",
        "col2": "1954",
        "col3": "0018-9383",
        "col4": "IETDAJ",
        "col5": "755663637"
    },
    {
        "col0": "IEEE Transactions on Education",
        "col1": "IEEE Education Society",
        "col2": "1958",
        "col3": "0018-9359",
        "col4": "IEEDAB",
        "col5": "1752549"
    },
    {
        "col0": "IEEE Transactions on Control Systems and Technology",
        "col1": "IEEE Control Systems Society",
        "col2": "1993",
        "col3": "1063-6536",
        "col4": "IETTE2",
        "col5": "807599104"
    },
    {
        "col0": "IEEE Transactions on Computers",
        "col1": "IEEE Computer Society",
        "col2": "1952",
        "col3": "0018-9340",
        "col4": "ITCOB4",
        "col5": "1799331"
    },
    {
        "col0": "IEEE Transactions on Computer-Aided Design of Integrated Circuits and Systems",
        "col1": "Institute of Electrical and Electronics Engineers",
        "col2": "1982",
        "col3": "0278-0070",
        "col4": "ITCSDI",
        "col5": "7677291"
    },
    {
        "col0": "IEEE Transactions on Communications",
        "col1": "IEEE Communications Society",
        "col2": "1972",
        "col3": "0090-6778",
        "col4": "IECMBT",
        "col5": "6063510"
    },
    {
        "col0": "IEEE Transactions on Applied Superconductivity",
        "col1": "IEEE Council on Superconductivity",
        "col2": "1991",
        "col3": "1051-8223",
        "col4": "ITASE9",
        "col5": "22134485"
    },
    {
        "col0": "IEEE Transactions on Antennas and Propagation",
        "col1": "IEEE Antennas & Propagation Society",
        "col2": "1952",
        "col3": "0018-926X",
        "col4": "IETPAK",
        "col5": "807591715"
    },
    {
        "col0": "IEEE Transactions on Aerospace and Electronic Systems",
        "col1": "IEEE Aerospace and Electronic Systems Society",
        "col2": "1966",
        "col3": "0018-9251",
        "col4": "IEARAX",
        "col5": "39742480"
    },
    {
        "col0": "IEEE Transactions on Advanced Packaging",
        "col1": "IEEE Components, Packaging & Manufacturing Technology Society",
        "col2": "1999",
        "col3": "1521-3323",
        "col4": "ITAPFZ",
        "col5": "39742480"
    },
    {
        "col0": "IEEE Sensors Journal",
        "col1": "IEEE Sensors Council",
        "col2": "2001",
        "col3": "1530-437X",
        "col4": "ISJEAZ",
        "col5": "44160724"
    },
    {
        "col0": "IEEE Journal on Selected Areas in Communications",
        "col1": "Institute of Electrical and Electronics Engineers",
        "col2": "1983",
        "col3": "0733-8716",
        "col4": "ISACEM",
        "col5": "311074712"
    },
    {
        "col0": "IEEE Journal of Quantum Electronics",
        "col1": "IEEE Photonics Society",
        "col2": "1965",
        "col3": "0018-9197",
        "col4": "IEJQA7",
        "col5": "4760477"
    },
    {
        "col0": "IEEE Communications Letters",
        "col1": "IEEE Communications Society",
        "col2": "1997",
        "col3": "1089-7798",
        "col4": "ICLEF6",
        "col5": "35127453"
    },
    {
        "col0": "IEEE Antennas and Wireless Propagation Letters",
        "col1": "IEEE Antennas & Propagation Society",
        "col2": "2002",
        "col3": "1536-1225",
        "col4": "IAWPA7",
        "col5": "50289256"
    },
    {
        "col0": "IEEE Annals of the History of Computing",
        "col1": "IEEE",
        "col2": "1979",
        "col3": "1058-6180",
        "col4": "IAHCEX",
        "col5": "44452888"
    },
    {
        "col0": "IEEE/ACM Transactions on Networking",
        "col1": "Association for Computing Machinery",
        "col2": "1993",
        "col3": "1063-6692",
        "col4": "IEANEP",
        "col5": "26108948"
    },
    {
        "col0": "Hypertension in Pregnancy",
        "col1": "Informa",
        "col2": "1982",
        "col3": "1064-1955",
        "col4": "HYPPEV",
        "col5": "26226712"
    },
    {
        "col0": "Hypertension",
        "col1": "American Heart Association",
        "col2": "1979",
        "col3": "0194-911X",
        "col4": "HPRTDN",
        "col5": "4798824"
    },
    {
        "col0": "Human Reproduction",
        "col1": "Oxford University Press",
        "col2": "1986",
        "col3": "0268-1161",
        "col4": "HRUPF8",
        "col5": "13829792"
    },
    {
        "col0": "Human Relations",
        "col1": "Sage Publications",
        "col2": "1947",
        "col3": "0018-7267",
        "col4": "HUREAA",
        "col5": "1752393"
    },
    {
        "col0": "Human Pathology",
        "col1": "Saunders",
        "col2": "1970",
        "col3": "0046-8177",
        "col4": "0046-8177",
        "col5": "1752392"
    },
    {
        "col0": "Human Mutation",
        "col1": "Wiley-Liss",
        "col2": "1992",
        "col3": "1059-7794",
        "col4": "HUMUE3",
        "col5": "610376555"
    },
    {
        "col0": "Human Immunology",
        "col1": "Elsevier",
        "col2": "1980",
        "col3": "0198-8859",
        "col4": "HUIMDQ",
        "col5": "806501374"
    },
    {
        "col0": "Human Ecology",
        "col1": "Springer Science + Business Media",
        "col2": "1972",
        "col3": "0300-7839",
        "col4": "HMECAJ",
        "col5": "1057949"
    },
    {
        "col0": "Human Brain Mapping",
        "col1": "John Wiley & Sons",
        "col2": "1993",
        "col3": "1065-9471",
        "col4": "HBMAEE",
        "col5": "474770986"
    },
    {
        "col0": "Human Biology",
        "col1": "Wayne State University Press",
        "col2": "1929",
        "col3": "0018-7143",
        "col4": "HUBIAA",
        "col5": "1752384"
    },
    {
        "col0": "Human Affairs",
        "col1": "Walter de Gruyter",
        "col2": "1991",
        "col3": "1210-3055",
        "col4": "HUAFFZ",
        "col5": "60617903"
    }
]