[
    {
        "col0": "Z. Lowe",
        "col1": "1973-08-07",
        "col2": "1973-08-07",
        "col3": "Alexander Zane Reid Lowe"
    },
    {
        "col0": "W. B. Williams",
        "col1": "1923-08-06",
        "col2": "1923-08-06",
        "col3": "William Breitbard"
    },
    {
        "col0": "W. Slow",
        "col1": "1990-08-15",
        "col2": "1990-08-15",
        "col3": "Warwick Slow"
    },
    {
        "col0": "W. Chapman",
        "col1": "1969-0-0",
        "col2": "1969-0-0",
        "col3": "Walesi Leslie Chapman"
    },
    {
        "col0": "V. Galloway",
        "col1": "1972-08-04",
        "col2": "1972-08-04",
        "col3": "Michael Galloway"
    },
    {
        "col0": "V. Corea",
        "col1": "1927-09-11",
        "col2": "1927-09-11",
        "col3": "Hector Vernon Ivan Corea"
    },
    {
        "col0": "T. Haynes",
        "col1": "1926-11-23",
        "col2": "1926-11-23",
        "col3": "Gertrude Daniels"
    },
    {
        "col0": "T. Delroy",
        "col1": "1953-1-1",
        "col2": "1953-1-1",
        "col3": "Anthony Eric Delroy"
    },
    {
        "col0": "T. Neal",
        "col1": "1976-02-17",
        "col2": "1976-02-17",
        "col3": "Tanisha Yarndriciaes Delores Neal"
    },
    {
        "col0": "T. Griswold",
        "col1": "1953-04-22",
        "col2": "1953-04-22",
        "col3": "Thomas Bruce Griswold"
    },
    {
        "col0": "T. Crowther",
        "col1": "1958-11-19",
        "col2": "1958-11-19",
        "col3": "Tim Crowther"
    },
    {
        "col0": "T. Tevan",
        "col1": "1933-03-01",
        "col2": "1933-03-01",
        "col3": "Theodore \"Oral\" Tevan"
    },
    {
        "col0": "T. Quillin",
        "col1": "1930-02-17",
        "col2": "1930-02-17",
        "col3": "Theodore Quillin"
    },
    {
        "col0": "S. Waldman",
        "col1": "1946-09-07",
        "col2": "1946-09-07",
        "col3": "Suzyn Waldman"
    },
    {
        "col0": "S. Wright",
        "col1": "1954-08-26",
        "col2": "1954-08-26",
        "col3": "Stephen Richard Wright"
    },
    {
        "col0": "S. Lamacq",
        "col1": "1964-10-16",
        "col2": "1964-10-16",
        "col3": "Stephen Paul Lamacq"
    },
    {
        "col0": "S. Arterburn",
        "col1": "1953-06-18",
        "col2": "1953-06-18",
        "col3": "Stephen Arterburn"
    },
    {
        "col0": "S. Capen",
        "col1": "1946-02-28",
        "col2": "1946-02-28",
        "col3": "Stephen Harold Capen"
    },
    {
        "col0": "S. Mayo",
        "col1": "1958-09-21",
        "col2": "1958-09-21",
        "col3": "Simon Andrew Hicks Mayo"
    },
    {
        "col0": "S. Barnett",
        "col1": "1967-03-23",
        "col2": "1967-03-23",
        "col3": "Simon Andrew Barnett"
    },
    {
        "col0": "S. Connors",
        "col1": "1952-0-0",
        "col2": "1952-0-0",
        "col3": "David Jeffrey Newfield"
    },
    {
        "col0": "R. Lyons",
        "col1": "1905-10-04",
        "col2": "1905-10-04",
        "col3": "Ruth Evelyn Reeves"
    },
    {
        "col0": "R. Martin",
        "col1": "1960-10-04",
        "col2": "1960-10-04",
        "col3": "Russell Dale Martin"
    },
    {
        "col0": "R. Masters",
        "col1": "1928-04-02",
        "col2": "1928-04-02",
        "col3": "Reuben Obermeister"
    },
    {
        "col0": "R. Leonard",
        "col1": "1931-01-19",
        "col2": "1931-01-19",
        "col3": "LeRoy Stewart Leonard"
    },
    {
        "col0": "R. Bingenheimer",
        "col1": "1947-12-15",
        "col2": "1947-12-15",
        "col3": "Rodney Bingenheimer"
    },
    {
        "col0": "R. W. Morgan",
        "col1": "1937-07-23",
        "col2": "1937-07-23",
        "col3": "Robert Wilbur Morgan"
    },
    {
        "col0": "R. Stenders",
        "col1": "1965-04-18",
        "col2": "1965-04-18",
        "col3": "Rob Zieltjens"
    },
    {
        "col0": "R. Sharp",
        "col1": "1953-1-1",
        "col2": "1953-1-1",
        "col3": "Rhoderick Sharp"
    },
    {
        "col0": "R. Rayner",
        "col1": "1919-07-23",
        "col2": "1919-07-23",
        "col3": "Raymond M. Rahner"
    },
    {
        "col0": "P. Robert",
        "col1": "1955-08-01",
        "col2": "1955-08-01",
        "col3": "William Pierre Robert"
    },
    {
        "col0": "P. Price",
        "col1": "1946-01-25",
        "col2": "1946-01-25",
        "col3": "Peter Lloyd Price"
    },
    {
        "col0": "P. W. Smith",
        "col1": "1953-0-0",
        "col2": "1953-0-0",
        "col3": "Paul William Smith"
    },
    {
        "col0": "N. L. Vegas",
        "col1": "1984-12-18",
        "col2": "1984-12-18",
        "col3": "Nina Elizabeth Agzarian"
    },
    {
        "col0": "N. Barraclough",
        "col1": "1951-1-1",
        "col2": "1951-1-1",
        "col3": "Nicholas Stanley Barraclough"
    },
    {
        "col0": "Nessa",
        "col1": "1981-5-6",
        "col2": "1981-5-6",
        "col3": "Nessa Diab"
    },
    {
        "col0": "N. Rogers",
        "col1": "1942-11-05",
        "col2": "1942-11-05",
        "col3": "Nelson Roger Behelfer"
    },
    {
        "col0": "N. Sawyer",
        "col1": "1979-10-23",
        "col2": "1979-10-23",
        "col3": "Natalie Lorraine Sawyer"
    },
    {
        "col0": "M. Stone",
        "col1": "1958-1-1",
        "col2": "1958-1-1",
        "col3": "Michael Stone"
    },
    {
        "col0": "M. O'Meara",
        "col1": "1959-06-22",
        "col2": "1959-06-22",
        "col3": "Michael Sean Patrick O'Meara"
    },
    {
        "col0": "M. Greenberg",
        "col1": "1967-08-06",
        "col2": "1967-08-06",
        "col3": "Michael Darrow Greenberg"
    },
    {
        "col0": "M. Tearson",
        "col1": "1948-1-1",
        "col2": "1948-1-1",
        "col3": "Michael Tearson"
    },
    {
        "col0": "M. Bannister",
        "col1": "1957-03-16",
        "col2": "1957-03-16",
        "col3": "Richard Matthew Bannister"
    },
    {
        "col0": "M. A. Guzman",
        "col1": "1984-10-04",
        "col2": "1984-10-04",
        "col3": "Maria Alejandra Guzman Carmona"
    },
    {
        "col0": "M. Kelner",
        "col1": "1949-1-1",
        "col2": "1949-1-1",
        "col3": "Martin Barry Kelner"
    },
    {
        "col0": "M. Ingram",
        "col1": "1965-3-21",
        "col2": "1965-3-21",
        "col3": "Martin Ingram"
    },
    {
        "col0": "M. Krabbe",
        "col1": "1968-03-26",
        "col2": "1968-03-26",
        "col3": "Martijn Joop Krabbe"
    },
    {
        "col0": "M. Radcliffe",
        "col1": "1958-06-29",
        "col2": "1958-06-29",
        "col3": "Mark Radcliffe"
    },
    {
        "col0": "M. Levin",
        "col1": "1957-09-21",
        "col2": "1957-09-21",
        "col3": "Mark Reed Levin"
    },
    {
        "col0": "M. Chapman",
        "col1": "1973-10-11",
        "col2": "1973-10-11",
        "col3": "Andrew Mark Chapman"
    },
    {
        "col0": "M. A. Guzman",
        "col1": "1984-10-04",
        "col2": "1984-10-04",
        "col3": "Maria Alejandra Guzman Carmona"
    },
    {
        "col0": "L. Garcia",
        "col1": "1977-04-15",
        "col2": "1977-04-15",
        "col3": "Luz Margarita Cecilia Garcia Guzman"
    },
    {
        "col0": "L. Burbank",
        "col1": "1976-05-08",
        "col2": "1976-05-08",
        "col3": "Luke Burbank"
    },
    {
        "col0": "L. Wilde",
        "col1": "1971-10-27",
        "col2": "1971-10-27",
        "col3": "Anne Whittemore"
    },
    {
        "col0": "L. a. Davey",
        "col1": "1988-07-02",
        "col2": "1988-07-02",
        "col3": "* Alexander Gough"
    },
    {
        "col0": "L. Laporte",
        "col1": "1956-11-29",
        "col2": "1956-11-29",
        "col3": "Leo Gordon Laporte"
    },
    {
        "col0": "K. Sandilands",
        "col1": "1971-06-10",
        "col2": "1971-06-10",
        "col3": "Kyle Dalton Sandilands"
    },
    {
        "col0": "K. Lee",
        "col1": "1960-07-15",
        "col2": "1960-07-15",
        "col3": "Theresa Renee Rose"
    },
    {
        "col0": "K. Nnamdi",
        "col1": "1945-1-8",
        "col2": "1945-1-8",
        "col3": "Rex Orville Montague Paul"
    },
    {
        "col0": "K. K. Rike",
        "col1": "1944-07-12",
        "col2": "1944-07-12",
        "col3": "Kjell Kristian Rike"
    },
    {
        "col0": "K. Wilbur",
        "col1": "1953-11-11",
        "col2": "1953-11-11",
        "col3": "Kirby Allen Wilbur"
    },
    {
        "col0": "K. Kraddick",
        "col1": "1959-08-22",
        "col2": "1959-08-22",
        "col3": "David Peter Cradick"
    },
    {
        "col0": "K. Prewitt",
        "col1": "1946-12-14",
        "col2": "1946-12-14",
        "col3": "Kenneth Bernard Prewitt"
    },
    {
        "col0": "K. Bruce",
        "col1": "1951-02-02",
        "col2": "1951-02-02",
        "col3": "Kenneth Robertson Bruce"
    },
    {
        "col0": "K. Keech",
        "col1": "1895-06-28",
        "col2": "1895-06-28",
        "col3": "Kelvin Kirkwood Keech"
    },
    {
        "col0": "K. Lengyelova",
        "col1": "1972-07-11",
        "col2": "1972-07-11",
        "col3": "Katarina Mravcova"
    },
    {
        "col0": "K-Swift",
        "col1": "1978-10-19",
        "col2": "1978-10-19",
        "col3": "Khia Danielle Edgerton"
    },
    {
        "col0": "J. Adenuga",
        "col1": "1988-07-15",
        "col2": "1988-07-15",
        "col3": "Julie Adenuga"
    },
    {
        "col0": "J. Lund",
        "col1": "1979-04-24",
        "col2": "1979-04-24",
        "col3": "Jules Lund"
    },
    {
        "col0": "J. Pryor",
        "col1": "1982-1-1",
        "col2": "1982-1-1",
        "col3": "Jonathan Richard Pryor"
    },
    {
        "col0": "J. Faine",
        "col1": "1956-09-21",
        "col2": "1956-09-21",
        "col3": "Jonathan Eric Faine"
    },
    {
        "col0": "J. Dare",
        "col1": "1968-08-27",
        "col2": "1968-08-27",
        "col3": "John William Caprefoli"
    },
    {
        "col0": "J. Walker",
        "col1": "1945-03-30",
        "col2": "1945-03-30",
        "col3": "Peter Waters Dingley"
    },
    {
        "col0": "J. Gilliland",
        "col1": "1935-10-18",
        "col2": "1935-10-18",
        "col3": "John Sanford Gilliland, Jr."
    },
    {
        "col0": "J. Dease",
        "col1": "1906-05-26",
        "col2": "1906-05-26",
        "col3": "Conly John Paget Dease"
    },
    {
        "col0": "J. Taruc",
        "col1": "1947-09-17",
        "col2": "1947-09-17",
        "col3": "Jose Malgapo Taruc, Jr."
    },
    {
        "col0": "J. Whiley",
        "col1": "1965-07-04",
        "col2": "1965-07-04",
        "col3": "Johanne Whiley"
    },
    {
        "col0": "J. Good",
        "col1": "1955-01-15",
        "col2": "1955-01-15",
        "col3": "JoAnne Dorothy Good"
    },
    {
        "col0": "J. Wallington",
        "col1": "1907-09-15",
        "col2": "1907-09-15",
        "col3": "James Wallington"
    },
    {
        "col0": "J. Staggs",
        "col1": "1935-10-07",
        "col2": "1935-10-07",
        "col3": "Jimmy Pearson Staggs"
    },
    {
        "col0": "J. Rome",
        "col1": "1964-10-14",
        "col2": "1964-10-14",
        "col3": "James Phillip Rome"
    },
    {
        "col0": "J. Gellatly",
        "col1": "1968-03-04",
        "col2": "1968-03-04",
        "col3": "James Norman Gellatly"
    },
    {
        "col0": "J. Riley",
        "col1": "1982-02-02",
        "col2": "1982-02-02",
        "col3": "Jill Riley"
    },
    {
        "col0": "J. Blavat",
        "col1": "1940-07-03",
        "col2": "1940-07-03",
        "col3": "Gerald Joseph Blavat"
    },
    {
        "col0": "J. Wells",
        "col1": "1977-01-19",
        "col2": "1977-01-19",
        "col3": "Jeremy Wells"
    },
    {
        "col0": "J. Ace",
        "col1": "1897-10-12",
        "col2": "1897-10-12",
        "col3": "Jane Epstein"
    },
    {
        "col0": "J. Naughtie",
        "col1": "1951-08-09",
        "col2": "1951-08-09",
        "col3": "Alexander James Naughtie"
    },
    {
        "col0": "J. Weaver",
        "col1": "1920-09-03",
        "col2": "1920-09-03",
        "col3": "Jackson J. Weaver"
    },
    {
        "col0": "J. P. McCarthy",
        "col1": "1933-03-22",
        "col2": "1933-03-22",
        "col3": "Joseph Priestley McCarthy II"
    },
    {
        "col0": "I. Fermin",
        "col1": "1984-12-03",
        "col2": "1984-12-03",
        "col3": "Iamdra Fermin Hernandez"
    }
]