[
    {
        "col0": "Yellow Balloon",
        "col1": "G. Zekley",
        "col2": "The Yellow Balloon",
        "col3": "136",
        "col4": "\"Noollab Wolley\""
    },
    {
        "col0": "Yellow",
        "col1": "G. Berryman",
        "col2": "Coldplay",
        "col3": "269",
        "col4": "\"Help Is Round the Corner\""
    },
    {
        "col0": "Yeh, Yeh",
        "col1": "R. Grant",
        "col2": "Georgie Fame and the Blue Flames",
        "col3": "163",
        "col4": "\"Preach and Teach\""
    },
    {
        "col0": "Years May Come, Years May Go",
        "col1": "A. Popp",
        "col2": "Herman's Hermits",
        "col3": "217",
        "col4": "\"Smile Please\""
    },
    {
        "col0": "Years After You",
        "col1": "T. Schuyler",
        "col2": "John Conlee",
        "col3": "201",
        "col4": "\"But She Loves Me\""
    },
    {
        "col0": "Year of the Cat",
        "col1": "A. Stewart",
        "col2": "Al Stewart",
        "col3": "278",
        "col4": "\"Broadway Hotel\""
    },
    {
        "col0": "Yeah Yeah Yeah Yeah Yeah",
        "col1": "S. MacGowan",
        "col2": "The Pogues",
        "col3": "196",
        "col4": "\"The Limerick Rake\""
    },
    {
        "col0": "Yeah Yeah U Know It",
        "col1": "E. Sermon",
        "col2": "Redman",
        "col3": "252",
        "col4": "\"Fatty Girl\""
    },
    {
        "col0": "Yeah",
        "col1": "J. Murphy",
        "col2": "LCD Soundsystem",
        "col3": "560",
        "col4": "Clap-a-Pella"
    },
    {
        "col0": "Yeah! Yeah! Yeah!",
        "col1": "M. Hammer",
        "col2": "Oaktown's 357",
        "col3": "319",
        "col4": "\"3.5.7 Straight at You\""
    },
    {
        "col0": "Yeah!",
        "col1": "L. Jon",
        "col2": "Ludacris",
        "col3": "250",
        "col4": "\"Red Light\""
    },
    {
        "col0": "Yassassin",
        "col1": "D. Bowie",
        "col2": "David Bowie",
        "col3": "186",
        "col4": "\"Red Money\" (Turkey)"
    },
    {
        "col0": "Yasashii Kimochi",
        "col1": "Chara",
        "col2": "Chara",
        "col3": "209",
        "col4": "Junior Sweet"
    },
    {
        "col0": "Yard Sale",
        "col1": "D. Blackwell",
        "col2": "Sammy Kershaw",
        "col3": "208",
        "col4": "\"\"What Am I Worth\""
    },
    {
        "col0": "Yakismaz",
        "col1": "E. J. Sandal",
        "col2": "Emina Sandal",
        "col3": "263",
        "col4": "\"NedostajeA!\""
    },
    {
        "col0": "Yakety Yak",
        "col1": "J. Leiber",
        "col2": "The Coasters",
        "col3": "112",
        "col4": "\"Zing! Went the Strings of My Heart\""
    },
    {
        "col0": "Yakety Sax",
        "col1": "B. Randolph",
        "col2": "Boots Randolph",
        "col3": "120",
        "col4": "\"I Really Don't Want to Know\""
    },
    {
        "col0": "Yakismaz",
        "col1": "E. J. Sandal",
        "col2": "Emina Sandal",
        "col3": "263",
        "col4": "\"NedostajeA!\""
    },
    {
        "col0": "Ya Rayah",
        "col1": "D. E. Harrachi",
        "col2": "Rachid Taha",
        "col3": "373",
        "col4": "\"Jungle Fiction\""
    },
    {
        "col0": "YOLO",
        "col1": "A. Samberg",
        "col2": "Kendrick Lamar",
        "col3": "188",
        "col4": "\"YOLO\" (Sam F. Remix)"
    },
    {
        "col0": "Y.M.C.A.",
        "col1": "V. Willis",
        "col2": "Village People",
        "col3": "287",
        "col4": "\"The Women\""
    },
    {
        "col0": "Y'all Come Back Saloon",
        "col1": "S. Vaughn",
        "col2": "The Oak Ridge Boys",
        "col3": "174",
        "col4": "\"Emmylou\""
    },
    {
        "col0": "YA<<hi o Miteiru ka?",
        "col1": "Y. Akimoto",
        "col2": "AKB48",
        "col3": "298",
        "col4": "\"Viva!Hurricane\""
    },
    {
        "col0": "YA<<gure",
        "col1": "H. Komoto",
        "col2": "The Blue Hearts",
        "col3": "11",
        "col4": "Sutegoma"
    },
    {
        "col0": "Ye ke ye ke",
        "col1": "M. Kante",
        "col2": "Mory Kante",
        "col3": "238",
        "col4": "\"Akwaba Beach\""
    },
    {
        "col0": "Xanadu",
        "col1": "J. Lynne",
        "col2": "Olivia Newton-John",
        "col3": "208",
        "col4": "\"Fool Country\"[Olivia Newton-John](UK)"
    },
    {
        "col0": "X X X",
        "col1": "Hyde",
        "col2": "L'Arc-en-Ciel",
        "col3": "1054",
        "col4": "I'm so Happy -L'Acoustic version-"
    },
    {
        "col0": "X Offender",
        "col1": "D. Harry",
        "col2": "Blondie",
        "col3": "195",
        "col4": "\"In The Sun\" (US)"
    },
    {
        "col0": "XXX's and OOO's",
        "col1": "A. Randall",
        "col2": "Trisha Yearwood",
        "col3": "169",
        "col4": "\"One in a Row\""
    },
    {
        "col0": "XXL",
        "col1": "M. Farmer",
        "col2": "Mylene Farmer",
        "col3": "265",
        "col4": "Remix"
    },
    {
        "col0": "Www.memory",
        "col1": "A. Jackson",
        "col2": "Alan Jackson",
        "col3": "156",
        "col4": "\"It's Alright to Be a Redneck\""
    },
    {
        "col0": "Wuthering Heights",
        "col1": "K. Bush",
        "col2": "Kate Bush",
        "col3": "268",
        "col4": "\"Kite\""
    },
    {
        "col0": "Wrong for Each Other",
        "col1": "D. Pomus",
        "col2": "Andy Williams",
        "col3": "138",
        "col4": "\"Madrigal\""
    },
    {
        "col0": "Wrong Side of Memphis",
        "col1": "M. Berg",
        "col2": "Trisha Yearwood",
        "col3": "166",
        "col4": "\"Lonesome Dove\""
    },
    {
        "col0": "Wrong Night",
        "col1": "J. Leo",
        "col2": "Reba McEntire",
        "col3": "171",
        "col4": "\"Up and Flying\""
    },
    {
        "col0": "Wrong Impression",
        "col1": "N. Imbruglia",
        "col2": "Natalie Imbruglia",
        "col3": "193",
        "col4": "\"Always Never\""
    },
    {
        "col0": "Wrong Ideas",
        "col1": "S. Silverstein",
        "col2": "Brenda Lee",
        "col3": "188",
        "col4": "\"Something For a Rainy Day\""
    },
    {
        "col0": "Wrong Again",
        "col1": "T. L. James",
        "col2": "Martina McBride",
        "col3": "195",
        "col4": "\"Happy Girl\""
    },
    {
        "col0": "Wrong",
        "col1": "S. Seskin",
        "col2": "Waylon Jennings",
        "col3": "178",
        "col4": "\"Waking Up with You\""
    },
    {
        "col0": "Wrong",
        "col1": "B. Watt",
        "col2": "Everything but the Girl",
        "col3": "235",
        "col4": "Remix"
    },
    {
        "col0": "Wrong",
        "col1": "M. Gore",
        "col2": "Depeche Mode",
        "col3": "193",
        "col4": "\"Oh Well\""
    },
    {
        "col0": "Written on Ya Kitten",
        "col1": "D. Byrd",
        "col2": "Naughty by Nature",
        "col3": "261",
        "col4": "\"Klickow-Klickow\""
    },
    {
        "col0": "Write This Down",
        "col1": "K. Robbins",
        "col2": "George Strait",
        "col3": "221",
        "col4": "\"4 Minus 3 Equals Zero\""
    },
    {
        "col0": "Wrapping Paper",
        "col1": "J. Bruce",
        "col2": "Cream",
        "col3": "145",
        "col4": "\"Cat's Squirrel\""
    },
    {
        "col0": "Wrapped Around Your Finger",
        "col1": "Sting",
        "col2": "The Police",
        "col3": "313",
        "col4": "\"Someone to Talk To\" (UK)"
    },
    {
        "col0": "Wrapped Around",
        "col1": "B. Paisley",
        "col2": "Brad Paisley",
        "col3": "186",
        "col4": "\"All You Really Need Is Love\""
    },
    {
        "col0": "Wrap Your Arms Around Me",
        "col1": "M. Chapman",
        "col2": "Agnetha Faltskog",
        "col3": "232",
        "col4": "\"Take Good Care of Your Children\""
    },
    {
        "col0": "Wraith",
        "col1": "Peace",
        "col2": "Peace",
        "col3": "191",
        "col4": "\"Scumbag\""
    },
    {
        "col0": "Wow",
        "col1": "K. Bush",
        "col2": "Kate Bush",
        "col3": "221",
        "col4": "\"Fullhouse\""
    },
    {
        "col0": "Wouldn't It Be Nice",
        "col1": "B. Wilson",
        "col2": "The Beach Boys",
        "col3": "153",
        "col4": "\"God Only Knows\""
    },
    {
        "col0": "Wouldn't It Be Good",
        "col1": "N. Kershaw",
        "col2": "Nik Kershaw",
        "col3": "272",
        "col4": "\"Monkey Business\""
    },
    {
        "col0": "Wouldn't I Be Someone",
        "col1": "Barry, Robin & Maurice Gibb",
        "col2": "Bee Gees",
        "col3": "210",
        "col4": "\"Elisa\""
    },
    {
        "col0": "Would You Lay with Me",
        "col1": "D. A. Coe",
        "col2": "Tanya Tucker",
        "col3": "143",
        "col4": "\"No Man's Land\""
    },
    {
        "col0": "Would You Fight for My Love?",
        "col1": "J. White",
        "col2": "Jack White",
        "col3": "249",
        "col4": "\"Parallel\""
    },
    {
        "col0": "Would You Catch a Falling Star",
        "col1": "B. Braddock",
        "col2": "John Anderson",
        "col3": "176",
        "col4": "\"I Danced with the San Antonio Rose\""
    },
    {
        "col0": "Would You Be Happier?",
        "col1": "T. Corrs",
        "col2": "The Corrs",
        "col3": "204",
        "col4": "The Long and Winding Road"
    },
    {
        "col0": "Would Jesus Wear a Rolex",
        "col1": "C. Atkins",
        "col2": "Ray Stevens",
        "col3": "170",
        "col4": "\"Cool Down Willard\""
    },
    {
        "col0": "Wot",
        "col1": "C. Sensible",
        "col2": "Captain Sensible",
        "col3": "7",
        "col4": "\"Strawberry Dross\""
    },
    {
        "col0": "Worth Every Mile",
        "col1": "T. Tritt",
        "col2": "Travis Tritt",
        "col3": "306",
        "col4": "\"I Wish I Could Go Back Home\""
    },
    {
        "col0": "Worse Comes to Worst",
        "col1": "B. Joel",
        "col2": "Billy Joel",
        "col3": "168",
        "col4": "\"Somewhere Along the Line\""
    },
    {
        "col0": "Worried About Ray",
        "col1": "A. Gordon",
        "col2": "The Hoosiers",
        "col3": "166",
        "col4": "\"We Didn't Start the Fire\""
    },
    {
        "col0": "Worlds Apart",
        "col1": "B. DiPiero",
        "col2": "Vince Gill",
        "col3": "238",
        "col4": "\"Down to New Orleans\""
    },
    {
        "col0": "World in Perfect Harmony",
        "col1": "K. Wilde",
        "col2": "Kim Wilde",
        "col3": "7",
        "col4": "\"Can't Get Enough (Of Your Love) (Remix)\""
    },
    {
        "col0": "World in My Eyes",
        "col1": "M. Gore",
        "col2": "Depeche Mode",
        "col3": "266",
        "col4": "\"Happiest Girl\", \"Sea of Sin\""
    },
    {
        "col0": "World in Motion",
        "col1": "B. Sumner",
        "col2": "New Order",
        "col3": "270",
        "col4": "\"Such a Good Thing\" (2002)"
    },
    {
        "col0": "World Wide Suicide",
        "col1": "E. Vedder",
        "col2": "Pearl Jam",
        "col3": "209",
        "col4": "\"Unemployable\""
    },
    {
        "col0": "World Shut Your Mouth",
        "col1": "J. Cope",
        "col2": "Julian Cope",
        "col3": "185",
        "col4": "\"Umpteenth Unnatural Blues\""
    },
    {
        "col0": "World",
        "col1": "J. Brown",
        "col2": "James Brown",
        "col3": "178",
        "col4": "\"World (Part 2)\""
    },
    {
        "col0": "World! Wide! Love!",
        "col1": "Hitomi",
        "col2": "Hitomi",
        "col3": "913",
        "col4": "\"kokoronoCao Yuan \""
    },
    {
        "col0": "Working in the Coal Mine",
        "col1": "A. Toussaint",
        "col2": "Devo",
        "col3": "162",
        "col4": "\"Planet Earth\""
    },
    {
        "col0": "Working for Vacation",
        "col1": "C. Matto",
        "col2": "Cibo Matto",
        "col3": "195",
        "col4": "\"Everybody Loves the Sunshine\""
    },
    {
        "col0": "Working Woman",
        "col1": "R. Crosby",
        "col2": "Rob Crosby",
        "col3": "184",
        "col4": "\"The Woman in You\""
    },
    {
        "col0": "Working My Way Back to You",
        "col1": "D. Randell",
        "col2": "Boyzone",
        "col3": "153",
        "col4": "\"Disco Ride\""
    },
    {
        "col0": "Workin' for the Weekend",
        "col1": "K. Mellons",
        "col2": "Ken Mellons",
        "col3": "141",
        "col4": "\"Keepin' It Country\""
    },
    {
        "col0": "Workin' at the Car Wash Blues",
        "col1": "J. Croce",
        "col2": "Jim Croce",
        "col3": "152",
        "col4": "\"Thursday\""
    },
    {
        "col0": "Workin' On a Groovy Thing",
        "col1": "N. Sedaka",
        "col2": "The 5th Dimension",
        "col3": "189",
        "col4": "\"Broken Wing Bird\""
    },
    {
        "col0": "Workin' Man Blues",
        "col1": "M. Haggard",
        "col2": "Merle Haggard",
        "col3": "153",
        "col4": "\"Silver Wings\""
    },
    {
        "col0": "Workin' Man's Ph.D.",
        "col1": "A. Tippin",
        "col2": "Aaron Tippin",
        "col3": "211",
        "col4": "\"When Country Took the Throne\""
    },
    {
        "col0": "Work to Do",
        "col1": "T. I. Brothers",
        "col2": "The Isley Brothers",
        "col3": "191",
        "col4": "\"Beautiful\""
    },
    {
        "col0": "Work for Love",
        "col1": "A. Jourgensen",
        "col2": "Ministry",
        "col3": "284",
        "col4": "\"Work for Love\" (7\" edit)"
    },
    {
        "col0": "Work It Out",
        "col1": "S. Hurley",
        "col2": "Steve \"Silk\" Hurley",
        "col3": "263",
        "col4": "Remix"
    },
    {
        "col0": "Work",
        "col1": "I. Wroldsen",
        "col2": "The Saturdays",
        "col3": "193",
        "col4": "\"Unofficial\""
    },
    {
        "col0": "Work",
        "col1": "M. Elliott",
        "col2": "Ciara",
        "col3": "245",
        "col4": "\"Fit of Love\""
    },
    {
        "col0": "Words of Love",
        "col1": "J. Phillips",
        "col2": "The Mamas & the Papas",
        "col3": "133",
        "col4": "\"Dancing in the Street\""
    },
    {
        "col0": "Words of Love",
        "col1": "B. Holly",
        "col2": "Buddy Holly",
        "col3": "116",
        "col4": "\"Mailman, Bring Me No More Blues\""
    },
    {
        "col0": "Words by Heart",
        "col1": "M. Powell",
        "col2": "Billy Ray Cyrus",
        "col3": "187",
        "col4": "\"Throwin' Stones\""
    },
    {
        "col0": "Words and Music",
        "col1": "A. Gibb",
        "col2": "Andy Gibb",
        "col3": "215",
        "col4": "\"Westfield Mansions\""
    },
    {
        "col0": "Words Get in the Way",
        "col1": "G. Estefan",
        "col2": "Miami Sound Machine",
        "col3": "210",
        "col4": "\"Movies\""
    },
    {
        "col0": "Words Are Not Enough/I Know Him So Well",
        "col1": "L. Scott-Lee",
        "col2": "Steps",
        "col3": "203",
        "col4": "\"Bittersweet\" \"I Know Him So Well\""
    },
    {
        "col0": "Words",
        "col1": "F. R. David",
        "col2": "F. R. David",
        "col3": "211",
        "col4": "\"When the Sun Goes Down\""
    },
    {
        "col0": "Words",
        "col1": "B. Gibb",
        "col2": "Bee Gees",
        "col3": "193",
        "col4": "\"Sinking Ships\""
    },
    {
        "col0": "Word of Mouth",
        "col1": "M. Rutherford",
        "col2": "Mike + The Mechanics",
        "col3": "235",
        "col4": "\"Let's Pretend It Didn't Happen\""
    },
    {
        "col0": "Word Up!",
        "col1": "L. Blackmon",
        "col2": "Gun",
        "col3": "173",
        "col4": "\"Sophisticated Lady\""
    },
    {
        "col0": "Word Is Love",
        "col1": "S. Hurley",
        "col2": "Voices of Life",
        "col3": "212",
        "col4": "Remix"
    },
    {
        "col0": "Wooly Bully",
        "col1": "D. Samudio",
        "col2": "Sam the Sham",
        "col3": "140",
        "col4": "\"Ain't Gonna Move\""
    },
    {
        "col0": "Woody Boogie",
        "col1": "Baltimora",
        "col2": "Baltimora",
        "col3": "226",
        "col4": "Woody Boogie (Instrumental)"
    },
    {
        "col0": "Woodstock",
        "col1": "J. Mitchell",
        "col2": "Joni Mitchell",
        "col3": "234",
        "col4": "Ballad Of Obray Ramsey (US)"
    },
    {
        "col0": "Wooden Heart",
        "col1": "B. Weisman",
        "col2": "Elvis Presley",
        "col3": "123",
        "col4": "\"Tonight is All Right for Love\" (UK 1961)"
    },
    {
        "col0": "Wonderman",
        "col1": "T. Tempah",
        "col2": "Tinie Tempah",
        "col3": "221",
        "col4": "\"Simply Unstoppable\""
    },
    {
        "col0": "Wonderland by Night",
        "col1": "K. Neumann",
        "col2": "Bert Kaempfert",
        "col3": "194",
        "col4": "\"Dreaming The Blues\""
    },
    {
        "col0": "Wonderland",
        "col1": "S. Adamson",
        "col2": "Big Country",
        "col3": "239",
        "col4": "\"Giant\""
    },
    {
        "col0": "Wonderkids",
        "col1": "L. Muhl",
        "col2": "Warm Guns",
        "col3": "210",
        "col4": "Public Enemies"
    },
    {
        "col0": "Wonderful World",
        "col1": "S. Cooke",
        "col2": "Herman's Hermits",
        "col3": "117",
        "col4": "\"Along the Navajo Trail\""
    },
    {
        "col0": "Wonderful Tonight",
        "col1": "E. Clapton",
        "col2": "Eric Clapton",
        "col3": "223",
        "col4": "\"I'm Ready\""
    },
    {
        "col0": "Wonderful Shadow",
        "col1": "T. Tikaram",
        "col2": "Tanita Tikaram",
        "col3": "212",
        "col4": "Have You Lost Your Way?, Good Tradition, Wonderful Shadow (reconstruction), Out on the Town"
    },
    {
        "col0": "Wonderful Life",
        "col1": "Hurts",
        "col2": "Hurts",
        "col3": "254",
        "col4": "\"Affair\""
    },
    {
        "col0": "Wonderful Life",
        "col1": "Black",
        "col2": "Tina Cousins",
        "col3": "289",
        "col4": "\"Life Calls\""
    },
    {
        "col0": "Wonderful Land",
        "col1": "J. Lordan",
        "col2": "Mike Oldfield",
        "col3": "128",
        "col4": "\"Sheba\""
    },
    {
        "col0": "Wonderful Christmastime",
        "col1": "P. McCartney",
        "col2": "Paul McCartney",
        "col3": "225",
        "col4": "\"Rudolph the Red-Nosed Reggae\""
    },
    {
        "col0": "Wonderful Baby",
        "col1": "D. McLean",
        "col2": "Don McLean",
        "col3": "120",
        "col4": "\"Birthday Song\""
    },
    {
        "col0": "Won't You",
        "col1": "Moby",
        "col2": "Nero",
        "col3": "242",
        "col4": "\"Etude\""
    },
    {
        "col0": "Won't Go Home Without You",
        "col1": "A. Levine",
        "col2": "Maroon 5",
        "col3": "225",
        "col4": "\"Miss You Love You\""
    },
    {
        "col0": "Won't Get Fooled Again",
        "col1": "P. Townshend",
        "col2": "The Who",
        "col3": "216",
        "col4": "\"I Don't Even Know Myself\""
    },
    {
        "col0": "Women in Uniform",
        "col1": "G. Macainsh",
        "col2": "Iron Maiden",
        "col3": "188",
        "col4": "\"Do The Hook\""
    },
    {
        "col0": "Women I've Never Had",
        "col1": "H. W. Jr.",
        "col2": "Hank Williams Jr.",
        "col3": "171",
        "col4": "\"Tired of Being Johnny B. Good\""
    },
    {
        "col0": "Women",
        "col1": "M. Jones",
        "col2": "Foreigner",
        "col3": "205",
        "col4": "\"The Modern Day\""
    },
    {
        "col0": "Women",
        "col1": "J. Elliott",
        "col2": "Def Leppard",
        "col3": "297",
        "col4": "Tear It Down"
    },
    {
        "col0": "Women",
        "col1": "A. Lear",
        "col2": "Amanda Lear",
        "col3": "248",
        "col4": "\"Women Wow Wow\""
    },
    {
        "col0": "Woman to Woman",
        "col1": "H. Banks",
        "col2": "Shirley Brown",
        "col3": "233",
        "col4": "\"Yes, Sir Brother\""
    },
    {
        "col0": "Woman in Love",
        "col1": "B. Gibb",
        "col2": "Barbra Streisand",
        "col3": "229",
        "col4": "\"Run Wild\""
    },
    {
        "col0": "Woman in Chains",
        "col1": "R. Orzabal",
        "col2": "Tears for Fears",
        "col3": "390",
        "col4": "\"Always in the Past\""
    },
    {
        "col0": "Woman Is the Nigger of the World",
        "col1": "J. Lennon",
        "col2": "John Lennon",
        "col3": "315",
        "col4": "\"Sisters, O Sisters\" (Yoko Ono)"
    },
    {
        "col0": "Woman",
        "col1": "G. S. Paxton",
        "col2": "Don Gibson",
        "col3": "192",
        "col4": "\"Til a Better Memory Comes Along"
    },
    {
        "col0": "Woman",
        "col1": "P. McCartney",
        "col2": "Peter and Gordon",
        "col3": "145",
        "col4": "\"Wrong from the Start\""
    },
    {
        "col0": "Woman",
        "col1": "J. Lennon",
        "col2": "John Lennon",
        "col3": "212",
        "col4": "\"Beautiful Boys\" (Yoko Ono)"
    },
    {
        "col0": "Woman, Woman",
        "col1": "J. Glaser",
        "col2": "Gary Puckett & The Union Gap",
        "col3": "197",
        "col4": "\"Don't Make Promises\""
    },
    {
        "col0": "Woman's Work",
        "col1": "S. Jeacocke",
        "col2": "Tina Arena",
        "col3": "198",
        "col4": "\"I Believe\""
    },
    {
        "col0": "Woman's Gotta Have It",
        "col1": "B. Womack",
        "col2": "Bobby Womack",
        "col3": "210",
        "col4": "\"(If You Don't Want My Love) Give It Back\""
    },
    {
        "col0": "Wolverton Mountain",
        "col1": "C. King",
        "col2": "Claude King",
        "col3": "179",
        "col4": "\"Little Bitty Heart\""
    },
    {
        "col0": "Wolf at the Door",
        "col1": "R. Hughes",
        "col2": "Keane",
        "col3": "257",
        "col4": "\"Call Me What You Like\""
    },
    {
        "col0": "Without Your Love",
        "col1": "C. Wiseman",
        "col2": "Aaron Tippin",
        "col3": "209",
        "col4": "\"She Made a Man Out of a Mountain of Stone\""
    },
    {
        "col0": "Without You I'm Nothing",
        "col1": "B. Molko",
        "col2": "Placebo",
        "col3": "248",
        "col4": "Remixes of \"Without You I'm Nothing\""
    },
    {
        "col0": "Without You",
        "col1": "D. G. Sells",
        "col2": "The Feeling",
        "col3": "213",
        "col4": "\"Different for Girls\""
    },
    {
        "col0": "Without You",
        "col1": "L. Dozier",
        "col2": "Peabo Bryson",
        "col3": "270",
        "col4": "\"The Higher You Climb\""
    },
    {
        "col0": "Without You",
        "col1": "Jyongri",
        "col2": "Jyongri",
        "col3": "313",
        "col4": "\"Story\""
    },
    {
        "col0": "Without You",
        "col1": "D. Bowie",
        "col2": "David Bowie",
        "col3": "188",
        "col4": "\"Criminal World\""
    },
    {
        "col0": "Without Her",
        "col1": "H. Nilsson",
        "col2": "Harry Nilsson",
        "col3": "138",
        "col4": "\"Cuddly Toy\""
    },
    {
        "col0": "Without",
        "col1": "J. Savoretti",
        "col2": "Jack Savoretti",
        "col3": "280",
        "col4": "Apologies, Lay You Down, Weightless"
    },
    {
        "col0": "With or Without You",
        "col1": "Bono",
        "col2": "U2",
        "col3": "296",
        "col4": "\"Luminous Times (Hold on to Love)\""
    },
    {
        "col0": "With a Little Luck",
        "col1": "C. Decker",
        "col2": "T'Pau",
        "col3": "220",
        "col4": "\"Giving Up the Ghost\""
    },
    {
        "col0": "With a Little Luck",
        "col1": "P. McCartney",
        "col2": "Wings",
        "col3": "193",
        "col4": "\"Backwards Traveller\"/\"Cuff Link\""
    },
    {
        "col0": "With a Girl Like You",
        "col1": "R. Presley",
        "col2": "The Troggs",
        "col3": "128",
        "col4": "\"I Want You\""
    },
    {
        "col0": "With a Child's Heart",
        "col1": "H. Cosby",
        "col2": "Michael Jackson",
        "col3": "214",
        "col4": "\"Morning Glow\""
    },
    {
        "col0": "With You",
        "col1": "R. L. Bruce",
        "col2": "Lila McCann",
        "col3": "211",
        "col4": "\"When You Walked into My Life\""
    },
    {
        "col0": "With You",
        "col1": "J. Simpson",
        "col2": "Jessica Simpson",
        "col3": "192",
        "col4": "\"Fly\""
    },
    {
        "col0": "With Pen in Hand",
        "col1": "B. Goldsboro",
        "col2": "Vikki Carr",
        "col3": "235",
        "col4": "\"Can't Take My Eyes Off You\""
    },
    {
        "col0": "With Me",
        "col1": "B. James",
        "col2": "Lonestar",
        "col3": "233",
        "col4": "\"Out Go the Lights\""
    },
    {
        "col0": "With Just One Look in Your Eyes",
        "col1": "D. Morgan",
        "col2": "Charly McClain",
        "col3": "200",
        "col4": "\"Tangled in a Tightrope\""
    },
    {
        "col0": "With Every Heartbeat",
        "col1": "W. Braithwaite",
        "col2": "Five Star",
        "col3": "251",
        "col4": "\"Sound Sweet\""
    },
    {
        "col0": "With Every Heartbeat",
        "col1": "Robyn",
        "col2": "Robyn",
        "col3": "253",
        "col4": "\"Konichiwa Bitches\""
    },
    {
        "col0": "With Every Bit of Me",
        "col1": "A. Carlsson",
        "col2": "Kevin Borg",
        "col3": "420",
        "col4": "\"With Every Bit of Me\" (instrumental version)"
    },
    {
        "col0": "With Every Beat of My Heart",
        "col1": "A. Baker",
        "col2": "Taylor Dayne",
        "col3": "252",
        "col4": "\"All I Ever Wanted\""
    },
    {
        "col0": "Witchy Woman",
        "col1": "D. Henley",
        "col2": "Eagles",
        "col3": "254",
        "col4": "\"Early Bird\""
    },
    {
        "col0": "Witches' Brew",
        "col1": "K. B",
        "col2": "Katy B",
        "col3": "200",
        "col4": "\"See Through\""
    },
    {
        "col0": "Witchcraft",
        "col1": "C. Coleman",
        "col2": "Frank Sinatra",
        "col3": "174",
        "col4": "Tell Her You Love Her"
    },
    {
        "col0": "Witch Doctor",
        "col1": "R. B. Sr.",
        "col2": "Ross Bagdasarian, Sr.",
        "col3": "135",
        "col4": "\"Don't Whistle at Me, Baby\""
    }
]