[
    {
        "col0": "Just Can't Get Enough",
        "col1": "The Saturdays",
        "col2": "New Life",
        "col3": "London",
        "col4": "Silver (BPI)"
    },
    {
        "col0": "Joyride",
        "col1": "Roxette",
        "col2": "It Must Have Been Love",
        "col3": "Stockholm",
        "col4": "Gold (Austria,Canada,Germany,NZ)"
    },
    {
        "col0": "Jour de neige",
        "col1": "Elsa Lunghini",
        "col2": "Un Roman d'amitie",
        "col3": "Boulogne-Billancourt",
        "col4": "Gold(France, 1989)"
    },
    {
        "col0": "Jive Talkin'",
        "col1": "Bee Gees",
        "col2": "Charade",
        "col3": "Criteria Studios",
        "col4": "Gold (RIAA), Silver (BPI)"
    },
    {
        "col0": "Jesus Walks",
        "col1": "Kanye West",
        "col2": "All Falls Down",
        "col3": "New York, New York",
        "col4": "2x Platinum (RIAA)"
    },
    {
        "col0": "Jeremy",
        "col1": "Pearl Jam",
        "col2": "Even Flow",
        "col3": "Seattle",
        "col4": "Gold (RIAA)"
    },
    {
        "col0": "Jean",
        "col1": "Oliver",
        "col2": "Good Morning Starshine",
        "col3": "1969 in music",
        "col4": "Gold(RIAA)"
    },
    {
        "col0": "Je serai",
        "col1": "Lorie",
        "col2": "Pres de moi",
        "col3": "France",
        "col4": "Gold(France, 2001 -Belgium, 2002)"
    },
    {
        "col0": "Je marche seul",
        "col1": "Jean-Jacques Goldman",
        "col2": "Long Is the Road",
        "col3": "France",
        "col4": "Gold(France, 1995)"
    },
    {
        "col0": "Jailhouse Rock",
        "col1": "Elvis Presley",
        "col2": "(Let Me Be Your) Teddy Bear",
        "col3": "Hollywood, California",
        "col4": "X2Gold(RIAA)"
    },
    {
        "col0": "Jack & Diane",
        "col1": "John Mellencamp",
        "col2": "Hurts So Good",
        "col3": "Criteria Studios",
        "col4": "Gold (RIAA)"
    },
    {
        "col0": "J'ai besoin d'amour",
        "col1": "Lorie",
        "col2": "Toute seule",
        "col3": "France",
        "col4": "Gold(France, 2003)"
    },
    {
        "col0": "It Don't Come Easy",
        "col1": "Ringo Starr",
        "col2": "Beaucoups of Blues",
        "col3": "Trident Studios",
        "col4": "Gold (US)"
    },
    {
        "col0": "It's Your Thing",
        "col1": "The Isley Brothers",
        "col2": "Put Yourself in My Place",
        "col3": "New York City",
        "col4": "Gold(RIAA)"
    },
    {
        "col0": "It's Now or Never",
        "col1": "Elvis Presley",
        "col2": "Stuck on You",
        "col3": "Nashville, Tennessee",
        "col4": "Platinum(RIAA)"
    },
    {
        "col0": "It's Not My Time",
        "col1": "3 Doors Down",
        "col2": "Citizen/Soldier",
        "col3": "Tokyo, Japan",
        "col4": "Platinum (RIAA)"
    },
    {
        "col0": "Islands in the Stream",
        "col1": "Kenny Rogers",
        "col2": "Too Much Heaven",
        "col3": "Miami Beach",
        "col4": "Platinum (US)"
    },
    {
        "col0": "Instant Karma!",
        "col1": "John Lennon",
        "col2": "Cold Turkey",
        "col3": "Abbey Road Studios",
        "col4": "Gold(US)"
    },
    {
        "col0": "Incomplete",
        "col1": "Backstreet Boys",
        "col2": "Drowning",
        "col3": "California",
        "col4": "Gold (RIAA)"
    },
    {
        "col0": "In the Still of the Night",
        "col1": "Boyz II Men",
        "col2": "End of the Road",
        "col3": "1992 in music",
        "col4": "Gold(U.S.)"
    },
    {
        "col0": "In the Ghetto",
        "col1": "Elvis Presley",
        "col2": "His Hand in Mine",
        "col3": "Memphis, Tennessee",
        "col4": "Platinum(RIAA)"
    },
    {
        "col0": "Imagine",
        "col1": "John Lennon",
        "col2": "Power to the People",
        "col3": "New York City",
        "col4": ")"
    },
    {
        "col0": "If You Tolerate This Your Children Will Be Next",
        "col1": "Manic Street Preachers",
        "col2": "Australia",
        "col3": "Wales",
        "col4": "Gold"
    },
    {
        "col0": "If I Let You Go",
        "col1": "Westlife",
        "col2": "Swear It Again",
        "col3": "Stockholm",
        "col4": "Silver (United Kingdom)"
    },
    {
        "col0": "If",
        "col1": "Janet Jackson",
        "col2": "That's the Way Love Goes",
        "col3": "Minnesota",
        "col4": "Gold (RIAA)"
    },
    {
        "col0": "I Wish It Would Rain",
        "col1": "The Temptations",
        "col2": "(Loneliness Made Me Realize) It's You That I Need",
        "col3": "Hitsville USA",
        "col4": "Gold(RIAA)"
    },
    {
        "col0": "I Want to Hold Your Hand",
        "col1": "The Beatles",
        "col2": "She Loves You",
        "col3": "Abbey Road Studios",
        "col4": "Gold (RIAA)"
    },
    {
        "col0": "I Want You to Want Me",
        "col1": "Cheap Trick",
        "col2": "California Man",
        "col3": "Nippon Budokan",
        "col4": "Gold"
    },
    {
        "col0": "I Want You Back",
        "col1": "The Jackson 5",
        "col2": "Steeltown Records",
        "col3": "West Hollywood",
        "col4": "Platinum(RIAA),Silver(BPIA)"
    },
    {
        "col0": "I Want You, I Need You, I Love You",
        "col1": "Elvis Presley",
        "col2": "Heartbreak Hotel",
        "col3": "Nashville, Tennessee",
        "col4": "Platinum(RIAA)"
    },
    {
        "col0": "I Wanna Be with You",
        "col1": "Mandy Moore",
        "col2": "So Real",
        "col3": "Australia",
        "col4": "Gold (ARIA)"
    },
    {
        "col0": "I Wanna Be Your Lover",
        "col1": "Prince",
        "col2": "Just as Long as We're Together",
        "col3": "Burbank, California",
        "col4": "Gold- March 18, 1980"
    },
    {
        "col0": "I Still Haven't Found What I'm Looking For",
        "col1": "U2",
        "col2": "With or Without You",
        "col3": "Dublin",
        "col4": "Gold (Music Canada)"
    },
    {
        "col0": "I Say a Little Prayer",
        "col1": "Aretha Franklin",
        "col2": "Think",
        "col3": "Phil Ramone",
        "col4": "Certified RIAA Million Seller Gold Single Award"
    },
    {
        "col0": "I Made It",
        "col1": "Jay Sean",
        "col2": "Shooting Star",
        "col3": "2009 in music",
        "col4": "Platinum (RIAA)"
    },
    {
        "col0": "I Love a Rainy Night",
        "col1": "Eddie Rabbitt",
        "col2": "Drivin' My Life Away",
        "col3": "1980 in country music",
        "col4": "Gold(RIAA)"
    },
    {
        "col0": "I Just Want to Be Your Everything",
        "col1": "Andy Gibb",
        "col2": "Words and Music",
        "col3": "Criteria Studios",
        "col4": "Gold(U.S.)"
    },
    {
        "col0": "I Have a Dream",
        "col1": "ABBA",
        "col2": "Gimme! Gimme! Gimme!",
        "col3": "London, UK",
        "col4": "Gold (UK,Netherlands)"
    },
    {
        "col0": "I Get Around",
        "col1": "The Beach Boys",
        "col2": "Fun, Fun, Fun",
        "col3": "United Western Recorders",
        "col4": "Gold(RIAA)"
    },
    {
        "col0": "I Feel You",
        "col1": "Depeche Mode",
        "col2": "World in My Eyes",
        "col3": "Hamburg",
        "col4": "Gold (RIAA)"
    },
    {
        "col0": "I Feel Love",
        "col1": "Donna Summer",
        "col2": "State of Independence",
        "col3": "Munich, Germany",
        "col4": "Gold (RIAA)"
    },
    {
        "col0": "I Feel Fine",
        "col1": "The Beatles",
        "col2": "A Hard Day's Night",
        "col3": "Abbey Road Studios",
        "col4": "Gold (RIAA)"
    },
    {
        "col0": "I Don't Care",
        "col1": "Fall Out Boy",
        "col2": "Beat It",
        "col3": "Los Angeles",
        "col4": "Platinum (RIAA), Gold (ARIA)"
    },
    {
        "col0": "I Can See Clearly Now",
        "col1": "Johnny Nash",
        "col2": "Stir It Up",
        "col3": "1972 in music",
        "col4": "Gold(RIAA)"
    },
    {
        "col0": "I Can't Stop Loving You",
        "col1": "Ray Charles",
        "col2": "Oh Lonesome Me",
        "col3": "Hollywood, California",
        "col4": "Gold"
    },
    {
        "col0": "I Believe",
        "col1": "Nikki Yanofsky",
        "col2": "I Got Rhythm",
        "col3": "Montreal, Quebec",
        "col4": "5x Platinum (CRIA)"
    },
    {
        "col0": "I Am",
        "col1": "Killing Heidi",
        "col2": "Outside of Me",
        "col3": "Melbourne, Australia",
        "col4": "Gold (ARIA)"
    },
    {
        "col0": "I'm a Believer",
        "col1": "The Monkees",
        "col2": "Last Train to Clarksville",
        "col3": "New York City",
        "col4": "Gold(RIAA)"
    },
    {
        "col0": "I'm Your Baby Tonight",
        "col1": "Whitney Houston",
        "col2": "It Isn't, It Wasn't, It Ain't Never Gonna Be",
        "col3": "Los Angeles, CA",
        "col4": "Gold(RIAA)"
    },
    {
        "col0": "I'm Gonna Make You Love Me",
        "col1": "The Supremes",
        "col2": "Love Child",
        "col3": "Hitsville USA",
        "col4": "Platinum (RIAA)"
    },
    {
        "col0": "I'm Alive",
        "col1": "Electric Light Orchestra",
        "col2": "Last Train to London",
        "col3": "Munich",
        "col4": "RIAA: Gold"
    },
    {
        "col0": "I'll Stand by You",
        "col1": "Carrie Underwood",
        "col2": "Love Machine",
        "col3": "2004 in music",
        "col4": "Silver"
    },
    {
        "col0": "I'd Lie for You",
        "col1": "Meat Loaf",
        "col2": "Objects in the Rear View Mirror May Appear Closer than They Are",
        "col3": "Virgin Records",
        "col4": "Gold(RIAA)"
    },
    {
        "col0": "Hurt",
        "col1": "Johnny Cash",
        "col2": "Piggy",
        "col3": "Record Plant Studios",
        "col4": "Gold(RIAA)"
    },
    {
        "col0": "Humpin' Around",
        "col1": "Bobby Brown",
        "col2": "She Ain't Worth It",
        "col3": "Atlanta, Georgia",
        "col4": "Gold (RIAA)"
    },
    {
        "col0": "How Do I Live",
        "col1": "LeAnn Rimes",
        "col2": "The Light in Your Eyes",
        "col3": "Nashville, Tennessee",
        "col4": "2x platinum (ARIA)"
    },
    {
        "col0": "How Deep Is Your Love",
        "col1": "Bee Gees",
        "col2": "Edge of the Universe",
        "col3": "Herouville",
        "col4": "Gold(RIAA), Platinum ( (BPI)"
    },
    {
        "col0": "How Can You Mend a Broken Heart",
        "col1": "Bee Gees",
        "col2": "Lonely Days",
        "col3": "London",
        "col4": "Gold(RIAA)"
    },
    {
        "col0": "Hot Summer",
        "col1": "F",
        "col2": "Even Heaven Cries",
        "col3": "Germany",
        "col4": "Gold (AUT, GER)"
    },
    {
        "col0": "Hot",
        "col1": "Avril Lavigne",
        "col2": "When You're Gone",
        "col3": "California",
        "col4": "Gold(ARIA)"
    },
    {
        "col0": "Honky Tonk Women",
        "col1": "The Rolling Stones",
        "col2": "Street Fighting Man",
        "col3": "London Records",
        "col4": "Gold(RIAA)"
    },
    {
        "col0": "Home",
        "col1": "Blake Shelton",
        "col2": "The Rose",
        "col3": "London",
        "col4": "Gold (RIAA)"
    },
    {
        "col0": "Hey Jude",
        "col1": "The Beatles",
        "col2": "Lady Madonna",
        "col3": "London",
        "col4": "4x Platinum (RIAA)"
    },
    {
        "col0": "Hey Girl",
        "col1": "Billy Joel",
        "col2": "Make You Feel My Love",
        "col3": "New York",
        "col4": "Gold (RIAA)"
    },
    {
        "col0": "Here",
        "col1": "Hellogoodbye",
        "col2": "Shimmy Shimmy Quarter Turn",
        "col3": "2006 in music",
        "col4": "Platinum(RIAA)"
    },
    {
        "col0": "Help!",
        "col1": "Bananarama",
        "col2": "Ticket to Ride",
        "col3": "Abbey Road Studios",
        "col4": "Gold (RIAA)"
    },
    {
        "col0": "Hello, Goodbye",
        "col1": "The Beatles",
        "col2": "All You Need Is Love",
        "col3": "Abbey Road Studios",
        "col4": "Gold (RIAA)"
    },
    {
        "col0": "Heaven",
        "col1": "Bryan Adams",
        "col2": "Somebody",
        "col3": "New York City",
        "col4": "Gold(Canada)"
    },
    {
        "col0": "Heartbreak Hotel",
        "col1": "Elvis Presley",
        "col2": "Baby Let's Play House",
        "col3": "Nashville, Tennessee",
        "col4": "2x Platinum (RIAA)"
    },
    {
        "col0": "Heart of Gold",
        "col1": "Neil Young",
        "col2": "When You Dance I Can Really Love",
        "col3": "Nashville, Tennessee",
        "col4": "Gold(RIAA)"
    },
    {
        "col0": "Heart of Glass",
        "col1": "Blondie",
        "col2": "All Day and All of the Night",
        "col3": "New York City",
        "col4": "[[#Certifications and sales"
    },
    {
        "col0": "Hear the Crowd",
        "col1": "A-Lee",
        "col2": "The One",
        "col3": "Norway",
        "col4": "Gold (IFPINorway)"
    },
    {
        "col0": "He Said She Said",
        "col1": "Ashley Tisdale",
        "col2": "Be Good to Me",
        "col3": "California",
        "col4": "Gold (RIAA)"
    },
    {
        "col0": "He Don't Love You",
        "col1": "Human Nature",
        "col2": "Be There With You",
        "col3": "Australia",
        "col4": "Platinum"
    },
    {
        "col0": "Hasta la Vista",
        "col1": "MC Solaar",
        "col2": "Solaar pleure",
        "col3": "France",
        "col4": "Gold(France, 2001)"
    },
    {
        "col0": "Hard Headed Woman",
        "col1": "Elvis Presley",
        "col2": "Wear My Ring Around Your Neck",
        "col3": "Hollywood, California",
        "col4": "Platinum(RIAA)"
    },
    {
        "col0": "Happy",
        "col1": "Pharrell Williams",
        "col2": "Lose Yourself to Dance",
        "col3": "Florida",
        "col4": "[[#Certifications"
    },
    {
        "col0": "Hand on Your Heart",
        "col1": "Kylie Minogue",
        "col2": "Turn It into Love",
        "col3": "London",
        "col4": "Gold"
    },
    {
        "col0": "Guilty",
        "col1": "Barbra Streisand",
        "col2": "Woman in Love",
        "col3": "Australia",
        "col4": "Gold(U.S.)"
    },
    {
        "col0": "Green River",
        "col1": "Creedence Clearwater Revival",
        "col2": "Bad Moon Rising",
        "col3": "California",
        "col4": "Gold (RIAA)"
    },
    {
        "col0": "Great Balls of Fire",
        "col1": "Jerry Lee Lewis",
        "col2": "Whole Lotta Shakin' Goin' On",
        "col3": "Memphis, Tennessee",
        "col4": "Gold(RIAA)"
    },
    {
        "col0": "Goodbye Yellow Brick Road",
        "col1": "Elton John",
        "col2": "Saturday Night's Alright for Fighting",
        "col3": "Chateau d'Herouville",
        "col4": "Platinum(RIAA)"
    },
    {
        "col0": "Goodbye Stranger",
        "col1": "Supertramp",
        "col2": "Breakfast in America",
        "col3": "California",
        "col4": "Gold (CRIA)"
    },
    {
        "col0": "Good Vibrations",
        "col1": "The Beach Boys",
        "col2": "Wouldn't It Be Nice",
        "col3": "Hollywood",
        "col4": "Platinum(RIAA)"
    },
    {
        "col0": "Good Luck Charm",
        "col1": "Elvis Presley",
        "col2": "Rock-A-Hula Baby",
        "col3": "Nashville, Tennessee",
        "col4": "Platinum(RIAA)"
    },
    {
        "col0": "Gold on the Ceiling",
        "col1": "The Black Keys",
        "col2": "Lonely Boy",
        "col3": "Nashville, Tennessee",
        "col4": "Gold (RIAA)"
    },
    {
        "col0": "Going in Circles",
        "col1": "Luther Vandross",
        "col2": "Grazing in the Grass",
        "col3": "Hollywood, California",
        "col4": "Gold(U.S.)"
    },
    {
        "col0": "Go Your Own Way",
        "col1": "Fleetwood Mac",
        "col2": "Say You Love Me",
        "col3": "Criteria Studios",
        "col4": "Gold(BPI)"
    },
    {
        "col0": "Give Me Just a Little More Time",
        "col1": "Kylie Minogue",
        "col2": "Keep on Pumpin' It",
        "col3": "Detroit",
        "col4": "Gold"
    },
    {
        "col0": "Girls Just Want to Have Fun",
        "col1": "Cyndi Lauper",
        "col2": "Hat Full of Stars",
        "col3": "1994 in music",
        "col4": "Silver (BPI)"
    },
    {
        "col0": "Gimme That",
        "col1": "Chris Brown",
        "col2": "Yo",
        "col3": "Florida",
        "col4": "Gold (RIAA)"
    },
    {
        "col0": "Gett Off",
        "col1": "Prince",
        "col2": "New Power Generation",
        "col3": "Paisley Park Studios",
        "col4": "Gold ( (RIAA) - October 23, 1991)"
    },
    {
        "col0": "Get on the Good Foot",
        "col1": "James Brown",
        "col2": "Honky Tonk",
        "col3": "1972 in music",
        "col4": "Gold"
    },
    {
        "col0": "Get Ur Freak On",
        "col1": "Missy Elliott",
        "col2": "Is That Yo Chick",
        "col3": "Westlake Recording Studios",
        "col4": "Platinum (RIAA)"
    },
    {
        "col0": "Fuck Them All",
        "col1": "Mylene Farmer",
        "col2": "Pardonne-moi",
        "col3": "France",
        "col4": "Silver(SNEP, 2005)"
    },
    {
        "col0": "Freek'n You",
        "col1": "Jodeci",
        "col2": "What About Us",
        "col3": "Rochester, New York",
        "col4": "Gold (RIAA)"
    },
    {
        "col0": "Free as a Bird",
        "col1": "The Beatles",
        "col2": "Baby It's You",
        "col3": "England",
        "col4": "Gold (RIAA)"
    },
    {
        "col0": "Free Bird",
        "col1": "Lynyrd Skynyrd",
        "col2": "Sweet Home Alabama",
        "col3": "Doraville, Georgia",
        "col4": "Silver (UK)"
    },
    {
        "col0": "Free",
        "col1": "Mya",
        "col2": "Girls Dem Sugar",
        "col3": "Edina, Minnesota",
        "col4": "Platinum (ARIA)"
    },
    {
        "col0": "Freak like Me",
        "col1": "Adina Howard",
        "col2": "Soul Sound",
        "col3": "England",
        "col4": "Gold (RIAA)"
    },
    {
        "col0": "Fox on the Run",
        "col1": "The Sweet",
        "col2": "Peppermint Twist",
        "col3": "1975 in music",
        "col4": "Gold(RIAA)"
    },
    {
        "col0": "Fortune Faded",
        "col1": "Red Hot Chili Peppers",
        "col2": "Universally Speaking",
        "col3": "Los Angeles, California",
        "col4": "Gold (ARIA)"
    },
    {
        "col0": "Forever Love",
        "col1": "X Japan",
        "col2": "Dahlia",
        "col3": "Tokyo Dome",
        "col4": "Platinum (RIAJ)"
    },
    {
        "col0": "For Your Entertainment",
        "col1": "Adam Lambert",
        "col2": "Time for Miracles",
        "col3": "California",
        "col4": ")"
    },
    {
        "col0": "Flying Without Wings",
        "col1": "Westlife",
        "col2": "If I Let You Go",
        "col3": "London",
        "col4": "3x Platinum (CRIA)"
    },
    {
        "col0": "Flava in Ya Ear",
        "col1": "Craig Mack",
        "col2": "You Don't Have to Worry",
        "col3": "New York",
        "col4": "Platinum ( (RIAA)"
    },
    {
        "col0": "Flash",
        "col1": "Princess Stephanie of Monaco",
        "col2": "Ouragan",
        "col3": "Paris",
        "col4": "Silver(France, 1986)"
    },
    {
        "col0": "Firestarter",
        "col1": "The Prodigy",
        "col2": "Poison",
        "col3": "Essex",
        "col4": "Gold"
    },
    {
        "col0": "Fire",
        "col1": "Bruce Springsteen and the E Street Band",
        "col2": "War",
        "col3": "San Francisco",
        "col4": "Gold"
    },
    {
        "col0": "Feels Like Woah",
        "col1": "Wes Carr",
        "col2": "You",
        "col3": "2008 in music",
        "col4": "Gold (ARIA)"
    },
    {
        "col0": "Feel Like Makin' Love",
        "col1": "Roberta Flack",
        "col2": "Send It On",
        "col3": "New York, New York",
        "col4": "Gold(U.S.)"
    },
    {
        "col0": "Fall to Pieces",
        "col1": "Velvet Revolver",
        "col2": "Slither",
        "col3": "Los Angeles, California",
        "col4": "Gold"
    },
    {
        "col0": "Faith",
        "col1": "Limp Bizkit",
        "col2": "Counterfeit",
        "col3": "Malibu, California",
        "col4": "Gold"
    },
    {
        "col0": "Everything Counts",
        "col1": "Depeche Mode",
        "col2": "Get the Balance Right!",
        "col3": "London",
        "col4": "Silver (BPI)"
    },
    {
        "col0": "Everybody's Somebody's Fool",
        "col1": "Connie Francis",
        "col2": "Mama",
        "col3": "Radio Recorders",
        "col4": "Gold(U.S.)"
    },
    {
        "col0": "Every Breath You Take",
        "col1": "The Police",
        "col2": "Secret Journey",
        "col3": "Montserrat",
        "col4": "Gold,"
    },
    {
        "col0": "Eternal Flame",
        "col1": "Atomic Kitten",
        "col2": "In Your Room",
        "col3": "Ocean Way Recording",
        "col4": "Gold"
    },
    {
        "col0": "Escapade",
        "col1": "Janet Jackson",
        "col2": "Rhythm Nation",
        "col3": "Minneapolis, Minnesota",
        "col4": "Gold (RIAA)"
    },
    {
        "col0": "Epic",
        "col1": "Faith No More",
        "col2": "From Out of Nowhere",
        "col3": "Sausalito, California",
        "col4": "Gold ( (RIAA)"
    },
    {
        "col0": "Envole-moi",
        "col1": "Jean-Jacques Goldman",
        "col2": "Merci d'etre",
        "col3": "France",
        "col4": "Gold"
    },
    {
        "col0": "End of the Road",
        "col1": "Boyz II Men",
        "col2": "Please Don't Go",
        "col3": "Philadelphia",
        "col4": "Platinum"
    },
    {
        "col0": "Emotion",
        "col1": "Destiny's Child",
        "col2": "Bootylicious",
        "col3": "Criteria Studios",
        "col4": "Platinum(RIAA)"
    },
    {
        "col0": "Elle, tu l'aimes...",
        "col1": "Helene Segara",
        "col2": "Il y a trop de gens qui t'aiment",
        "col3": "SNEP",
        "col4": "Platinum(France, 2000)"
    },
    {
        "col0": "Ella, elle l'a",
        "col1": "France Gall",
        "col2": "Babacar",
        "col3": "France",
        "col4": "10x Platinum (Spain)"
    },
    {
        "col0": "Ego",
        "col1": "Beyonce",
        "col2": "Halo",
        "col3": "Atlanta",
        "col4": "Gold (RIAA)"
    },
    {
        "col0": "Desenchantee",
        "col1": "Kate Ryan",
        "col2": "UR",
        "col3": "1991 in music",
        "col4": "Gold(France, 1991)"
    },
    {
        "col0": "Drop the World",
        "col1": "Lil Wayne",
        "col2": "Revolver",
        "col3": "Ferndale, Michigan",
        "col4": "4x Platinum(RIAA)"
    },
    {
        "col0": "Drivin' My Life Away",
        "col1": "Eddie Rabbitt",
        "col2": "Gone Too Far",
        "col3": "1980 in country music",
        "col4": "Gold(RIAA)"
    },
    {
        "col0": "Dressed for Success",
        "col1": "Roxette",
        "col2": "The Look",
        "col3": "Stockholm",
        "col4": "Gold (Canada,Sweden)"
    },
    {
        "col0": "Dr. Feelgood",
        "col1": "Motley Crue",
        "col2": "You're All I Need",
        "col3": "Canada",
        "col4": "Gold (RIAA)"
    },
    {
        "col0": "Don't You Want Me",
        "col1": "The Human League",
        "col2": "Open Your Heart",
        "col3": "1981",
        "col4": "BPI: Platinum"
    }
]