[
    {
        "col0": "'O Re",
        "col1": "Giovanni Di Clemente",
        "col2": "G. Giannini",
        "col3": "5700"
    },
    {
        "col0": "A eki snima, pazi se",
        "col1": "Jadran Film",
        "col2": "D. A ekularac",
        "col3": "6000"
    },
    {
        "col0": "Cetverored",
        "col1": "Jakov Sedlar",
        "col2": "E. Begovic",
        "col3": "7380"
    },
    {
        "col0": "Onskas",
        "col1": "Katinka Farago",
        "col2": "R. Lassgard",
        "col3": "4440"
    },
    {
        "col0": "Extasis",
        "col1": "Gerardo Herrero",
        "col2": "J. Bardem",
        "col3": "5580"
    },
    {
        "col0": "Etoile",
        "col1": "Achille Manzotti",
        "col2": "J. Connelly",
        "col3": "6060"
    },
    {
        "col0": "Elisa",
        "col1": "Christian Fechner",
        "col2": "F. Richard",
        "col3": "6900"
    },
    {
        "col0": "E arrivato mio fratello",
        "col1": "Achille Manzotti",
        "col2": "M. Boldi",
        "col3": "5520"
    },
    {
        "col0": "AEon Flux",
        "col1": "Gary Lucchesi",
        "col2": "C. Theron",
        "col3": "5520"
    },
    {
        "col0": "Animas Trujano",
        "col1": "Ismael Rodriguez",
        "col2": "C. Dominguez",
        "col3": "6000"
    },
    {
        "col0": "A tout prendre",
        "col1": "Claude Jutra",
        "col2": "C. Jutra",
        "col3": "5940"
    },
    {
        "col0": "A ton image",
        "col1": "Virginie Silla",
        "col2": "C. Lambert",
        "col3": "5640"
    },
    {
        "col0": "A mort l'arbitre",
        "col1": "Raymond Danon",
        "col2": "C. Laure",
        "col3": "4920"
    },
    {
        "col0": "A la folie",
        "col1": "Alexandre Arcady",
        "col2": "B. Dalle",
        "col3": "5880"
    },
    {
        "col0": "?Donde estas amor de mi vida que no te puedo encontrar?",
        "col1": "Juan Jose Jusid",
        "col2": "O. Martinez",
        "col3": "5700"
    },
    {
        "col0": "!Three Amigos!",
        "col1": "Lorne Michaels",
        "col2": "P. Martinez",
        "col3": "6180"
    },
    {
        "col0": "Zartliche Haie",
        "col1": "Aldo von Pinelli",
        "col2": "A. Karina",
        "col3": "5340"
    },
    {
        "col0": "Zyzzyx Road",
        "col1": "John Penney",
        "col2": "K. Heigl",
        "col3": "5160"
    },
    {
        "col0": "Zweiohrkuken",
        "col1": "Til Schweiger",
        "col2": "T. Schweiger",
        "col3": "7440"
    },
    {
        "col0": "Zuma Beach",
        "col1": "Brian Grazer",
        "col2": "M. Wheeler",
        "col3": "6000"
    },
    {
        "col0": "Zulu Dawn",
        "col1": "James Sebastian Faulkner",
        "col2": "B. Hoskins",
        "col3": "6900"
    },
    {
        "col0": "Zulu",
        "col1": "Stanley Baker",
        "col2": "M. Caine",
        "col3": "8340"
    },
    {
        "col0": "Zu Warriors from the Magic Mountain",
        "col1": "Raymond Chow",
        "col2": "S. Hung",
        "col3": "5880"
    },
    {
        "col0": "Zotz!",
        "col1": "William Castle",
        "col2": "C. Kellaway",
        "col3": "5220"
    },
    {
        "col0": "Zorro and Son",
        "col1": "Kevin Corcoran",
        "col2": "H. Darrow",
        "col3": "1440"
    },
    {
        "col0": "Zorro Rides Again",
        "col1": "Sol C. Siegel",
        "col2": "N. B. Sr.",
        "col3": "4080"
    },
    {
        "col0": "Zorba the Greek",
        "col1": "Michael Cacoyannis",
        "col2": "A. Quinn",
        "col3": "8520"
    },
    {
        "col0": "Zootopia",
        "col1": "Clark Spencer",
        "col2": "J. K. Simmons",
        "col3": "6480"
    },
    {
        "col0": "Zoom",
        "col1": "Niv Fichman",
        "col2": "T. Labine",
        "col3": "5820"
    },
    {
        "col0": "Zoom",
        "col1": "Jennifer Todd",
        "col2": "C. Chase",
        "col3": "5280"
    },
    {
        "col0": "Zoolander",
        "col1": "Scott Rudin",
        "col2": "C. Taylor",
        "col3": "5340"
    },
    {
        "col0": "Zookeeper",
        "col1": "Kevin James",
        "col2": "J. Apatow",
        "col3": "6120"
    },
    {
        "col0": "Zoo in Budapest",
        "col1": "Jesse L. Lasky",
        "col2": "G. Raymond",
        "col3": "5640"
    },
    {
        "col0": "Zone of the Dead",
        "col1": "Milan Todorovic",
        "col2": "K. Foree",
        "col3": "6060"
    },
    {
        "col0": "Zone Troopers",
        "col1": "Paul De Meo",
        "col2": "T. Thomerson",
        "col3": "5160"
    },
    {
        "col0": "Zombies on Broadway",
        "col1": "Benjamin Stoloff",
        "col2": "B. Lugosi",
        "col3": "4080"
    },
    {
        "col0": "Zombies of the Stratosphere",
        "col1": "Franklin Adreon",
        "col2": "L. Nimoy",
        "col3": "4200"
    },
    {
        "col0": "Zombies of Mora Tau",
        "col1": "Sam Katzman",
        "col2": "M. Eaton",
        "col3": "4200"
    },
    {
        "col0": "Zombiegeddon",
        "col1": "Andrew J. Rausch",
        "col2": "L. Quigley",
        "col3": "4920"
    },
    {
        "col0": "Zombie Wars",
        "col1": "Ted Prior",
        "col2": "A. Mayfield",
        "col3": "4800"
    },
    {
        "col0": "Zombie Night",
        "col1": "David Michael Latt",
        "col2": "A. M. Hall",
        "col3": "5280"
    },
    {
        "col0": "Zombie High",
        "col1": "Elliott Kastner",
        "col2": "V. Madsen",
        "col3": "5580"
    },
    {
        "col0": "Zombie Apocalypse",
        "col1": "David Michael Latt",
        "col2": "V. Rhames",
        "col3": "5400"
    },
    {
        "col0": "Zoey 101",
        "col1": "Bryan Spears",
        "col2": "J. L. Spears",
        "col3": "-1500"
    },
    {
        "col0": "Zoetrope",
        "col1": "Rouzbeh Rashidi",
        "col2": "R. Rashidi",
        "col3": "4380"
    },
    {
        "col0": "Zodiac Killers",
        "col1": "Eric Tsang",
        "col2": "A. Lau",
        "col3": "5700"
    },
    {
        "col0": "Zodiac",
        "col1": "Cean Chaffin",
        "col2": "J. C. Lynch",
        "col3": "9480"
    },
    {
        "col0": "Zizek!",
        "col1": "Lawrence Konner",
        "col2": "S. Zizek",
        "col3": "4260"
    },
    {
        "col0": "Zis Boom Bah",
        "col1": "Sam Katzman",
        "col2": "M. Healy",
        "col3": "3660"
    },
    {
        "col0": "Zipper",
        "col1": "Mark Heyman",
        "col2": "D. Agron",
        "col3": "6720"
    },
    {
        "col0": "Zion and His Brother",
        "col1": "Marin Karmitz",
        "col2": "R. Elkabetz",
        "col3": "5040"
    },
    {
        "col0": "Zindagi Wins",
        "col1": "Prem Krishen",
        "col2": "Z. Wins",
        "col3": "2460"
    },
    {
        "col0": "Zindagi Na Milegi Dobara",
        "col1": "Farhan Akhtar",
        "col2": "H. Roshan",
        "col3": "9180"
    },
    {
        "col0": "Zindagi Gulzar Hai",
        "col1": "Momina Duraid",
        "col2": "F. A. Khan",
        "col3": "-2700"
    },
    {
        "col0": "Zindagi 50-50",
        "col1": "Rajiv S Ruia",
        "col2": "R. Sen",
        "col3": "7800"
    },
    {
        "col0": "Zinda Lash",
        "col1": "New Theatres",
        "col2": "K. L. Saigal",
        "col3": "7680"
    },
    {
        "col0": "Zinda Bhaag",
        "col1": "Mazhar Zaidi",
        "col2": "N. Shah",
        "col3": "7200"
    },
    {
        "col0": "Zinda",
        "col1": "Sanjay Gupta",
        "col2": "J. Abraham",
        "col3": "6960"
    },
    {
        "col0": "Zina",
        "col1": "Ken McMullen",
        "col2": "I. McKellen",
        "col3": "5400"
    },
    {
        "col0": "Zila Ghaziabad",
        "col1": "Soundrya Production",
        "col2": "A. Warsi",
        "col3": "8580"
    },
    {
        "col0": "Ziggy Stardust and the Spiders from Mars",
        "col1": "Miramax",
        "col2": "D. Bowie",
        "col3": "5400"
    },
    {
        "col0": "Zigeunerweisen",
        "col1": "Genjiro Arato",
        "col2": "T. Fujita",
        "col3": "8700"
    },
    {
        "col0": "Zig Zag",
        "col1": "Andrew Stevens",
        "col2": "J. Leguizamo",
        "col3": "6060"
    },
    {
        "col0": "Ziegfeld Girl",
        "col1": "Pandro S. Berman",
        "col2": "J. Stewart",
        "col3": "7920"
    },
    {
        "col0": "Ziegfeld Follies",
        "col1": "Arthur Freed",
        "col2": "E. Arnold",
        "col3": "6600"
    },
    {
        "col0": "Zid",
        "col1": "Momina Duraid",
        "col2": "A. Malik",
        "col3": "-2400"
    },
    {
        "col0": "Zhou Yu's Train",
        "col1": "Huang Jianxin",
        "col2": "G. Li",
        "col3": "5520"
    },
    {
        "col0": "Zeus and Roxanne",
        "col1": "Hilton A. Green",
        "col2": "S. Guttenberg",
        "col3": "5880"
    },
    {
        "col0": "Zero to Sixty",
        "col1": "Kathie Browne",
        "col2": "J. Collins",
        "col3": "6060"
    },
    {
        "col0": "Zero for Conduct",
        "col1": "Jean Vigo",
        "col2": "J. Daste",
        "col3": "2460"
    },
    {
        "col0": "Zero Tolerance",
        "col1": "Joseph Merhi",
        "col2": "M. Fleetwood",
        "col3": "5280"
    },
    {
        "col0": "Zero Patience",
        "col1": "Louise Garfield",
        "col2": "M. Callen",
        "col3": "5700"
    },
    {
        "col0": "Zero Hour!",
        "col1": "Hall Bartlett",
        "col2": "L. Darnell",
        "col3": "4860"
    },
    {
        "col0": "Zero Effect",
        "col1": "Lisa Henson",
        "col2": "A. Featherstone",
        "col3": "6960"
    },
    {
        "col0": "Zero Dark Thirty",
        "col1": "Megan Ellison",
        "col2": "J. Chastain",
        "col3": "9420"
    },
    {
        "col0": "Zero4",
        "col1": "Middle East Broadcasting Center",
        "col2": "R. Hayek",
        "col3": "-2700"
    },
    {
        "col0": "Zenon: Z3",
        "col1": "Suzanne de Passe",
        "col2": "Raven-Symone",
        "col3": "4860"
    },
    {
        "col0": "Zenon: The Zequel",
        "col1": "Suzanne de Passe",
        "col2": "K. Storms",
        "col3": "5340"
    },
    {
        "col0": "Zenobia",
        "col1": "Hal Roach",
        "col2": "B. Burke",
        "col3": "3900"
    },
    {
        "col0": "Zenith",
        "col1": "Vladan Nikolic",
        "col2": "P. Scanavino",
        "col3": "5580"
    },
    {
        "col0": "Zelly and Me",
        "col1": "Tina Rathborne",
        "col2": "D. Lynch",
        "col3": "5220"
    },
    {
        "col0": "Zelig",
        "col1": "Robert Greenhut",
        "col2": "M. Farrow",
        "col3": "4740"
    },
    {
        "col0": "Zeiten andern dich",
        "col1": "Jimmy Iovine",
        "col2": "U. Ochsenknecht",
        "col3": "5640"
    },
    {
        "col0": "Zeit der Storche",
        "col1": "DEFA",
        "col2": "W. Glatzeder",
        "col3": "5400"
    },
    {
        "col0": "Zeher",
        "col1": "Mukesh Bhatt",
        "col2": "S. Shetty",
        "col3": "7920"
    },
    {
        "col0": "Zee and Co.",
        "col1": "Jay Kanter",
        "col2": "M. Caine",
        "col3": "6600"
    },
    {
        "col0": "Zeder",
        "col1": "Gianni Minervini",
        "col2": "G. Lavia",
        "col3": "5880"
    },
    {
        "col0": "Zebrahead",
        "col1": "Jeff Dowd",
        "col2": "M. Rapaport",
        "col3": "6000"
    },
    {
        "col0": "Zeb vs. Paprika",
        "col1": "Hal Roach",
        "col2": "S. Laurel",
        "col3": "1200"
    },
    {
        "col0": "Zazie dans le Metro",
        "col1": "Louis Malle",
        "col2": "P. Noiret",
        "col3": "5340"
    },
    {
        "col0": "Zaza",
        "col1": "Albert Lewin",
        "col2": "B. Lahr",
        "col3": "4980"
    },
    {
        "col0": "Zaza",
        "col1": "Allan Dwan",
        "col2": "G. Swanson",
        "col3": "3960"
    },
    {
        "col0": "Zaza",
        "col1": "Adolph Zukor",
        "col2": "P. Frederick",
        "col3": "3000"
    },
    {
        "col0": "Zaytoun",
        "col1": "Gareth Unwin",
        "col2": "S. Dorff",
        "col3": "6600"
    },
    {
        "col0": "Zatoichi",
        "col1": "Masayuki Mori",
        "col2": "T. Kitano",
        "col3": "6960"
    },
    {
        "col0": "Zatoichi the Outlaw",
        "col1": "Masaichi Nagata",
        "col2": "S. Katsu",
        "col3": "5760"
    },
    {
        "col0": "Zatoichi the Fugitive",
        "col1": "Masaichi Nagata",
        "col2": "S. Katsu",
        "col3": "5160"
    },
    {
        "col0": "Zatoichi and the One-Armed Swordsman",
        "col1": "Katsu Shintaroh",
        "col2": "J. Wang",
        "col3": "5640"
    },
    {
        "col0": "Zatoichi Meets Yojimbo",
        "col1": "Shintaro Katsu",
        "col2": "A. Wakao",
        "col3": "4740"
    },
    {
        "col0": "Zatoichi Goes to the Fire Festival",
        "col1": "Shintaro Katsu",
        "col2": "S. Katsu",
        "col3": "5760"
    },
    {
        "col0": "Zatoichi's Flashing Sword",
        "col1": "Masaichi Nagata",
        "col2": "S. Katsu",
        "col3": "4920"
    },
    {
        "col0": "Zatoichi",
        "col1": "Masayuki Mori",
        "col2": "T. Kitano",
        "col3": "6960"
    },
    {
        "col0": "Zardoz",
        "col1": "John Boorman",
        "col2": "S. Connery",
        "col3": "-6300"
    },
    {
        "col0": "Zarak",
        "col1": "Irving Allen",
        "col2": "M. Wilding",
        "col3": "5940"
    },
    {
        "col0": "Zara",
        "col1": "Shahrina Ramphaul",
        "col2": "S. Ramphaul",
        "col3": "2400"
    },
    {
        "col0": "Zapatlela 2",
        "col1": "Mahesh Kothare",
        "col2": "M. Anaspure",
        "col3": "10500"
    },
    {
        "col0": "Zanjeer",
        "col1": "Reliance Entertainment",
        "col2": "P. Chopra",
        "col3": "8280"
    },
    {
        "col0": "Zanjeer",
        "col1": "Prakash Mehra",
        "col2": "Pran",
        "col3": "8760"
    },
    {
        "col0": "Zamindar",
        "col1": "Tammareddy Krishna Murthy",
        "col2": "A. N. Rao",
        "col3": "10440"
    },
    {
        "col0": "Zameen Se Aassman Tak",
        "col1": "Aruna Irani",
        "col2": "Zameen Se Aassman Tak",
        "col3": "1440"
    },
    {
        "col0": "Zamaanat",
        "col1": "S. Ramanathan",
        "col2": "A. Bachchan",
        "col3": "9840"
    },
    {
        "col0": "Zamaana Deewana",
        "col1": "G. P. Sippy",
        "col2": "A. Kher",
        "col3": "10800"
    },
    {
        "col0": "Zakhm",
        "col1": "Pooja Bhatt",
        "col2": "A. Devgn",
        "col3": "7560"
    },
    {
        "col0": "Zachariah",
        "col1": "George Englund",
        "col2": "D. V. Patten",
        "col3": "5580"
    },
    {
        "col0": "Zabriskie Point",
        "col1": "Carlo Ponti",
        "col2": "D. Halprin",
        "col3": "6600"
    },
    {
        "col0": "Z for Zachariah",
        "col1": "Sigurjon Sighvatsson",
        "col2": "C. Pine",
        "col3": "5700"
    },
    {
        "col0": "Z",
        "col1": "Jacques Perrin",
        "col2": "J. Trintignant",
        "col3": "7620"
    },
    {
        "col0": "ZZZap!",
        "col1": "Neil Buchanan",
        "col2": "S. Aldred",
        "col3": "900"
    },
    {
        "col0": "ZTS: State of Entropy",
        "col1": "Shane Kavanagh",
        "col2": "J. Koutrae",
        "col3": "4860"
    },
    {
        "col0": "ZOS: Zone of Separation",
        "col1": "Paul Gross",
        "col2": "M. Nolden",
        "col3": "28800"
    },
    {
        "col0": "Z: The Beginning of Everything",
        "col1": "Therese Anne Fowler",
        "col2": "D. Strathairn",
        "col3": "1620"
    },
    {
        "col0": "Z.P.G.",
        "col1": "Max Simon Ehrlich",
        "col2": "G. Chaplin",
        "col3": "5820"
    },
    {
        "col0": "Zartliche Haie",
        "col1": "Aldo von Pinelli",
        "col2": "A. Karina",
        "col3": "5340"
    },
    {
        "col0": "Yves Saint Laurent",
        "col1": "Yannick Bollore",
        "col2": "L. Smet",
        "col3": "6300"
    },
    {
        "col0": "Yuvvraaj",
        "col1": "Subhash Ghai",
        "col2": "Z. Khan",
        "col3": "9540"
    },
    {
        "col0": "Yuva",
        "col1": "Mani Ratnam",
        "col2": "A. Bachchan",
        "col3": "9720"
    },
    {
        "col0": "Yuri Nosenko: Double Agent",
        "col1": "Graham Massey",
        "col2": "T. L. Jones",
        "col3": "5340"
    },
    {
        "col0": "Yun Hota Toh Kya Hota",
        "col1": "Prashant Shah",
        "col2": "I. Khan",
        "col3": "7080"
    },
    {
        "col0": "Yummy Yummy",
        "col1": "Amy Wong",
        "col2": "R. Lam",
        "col3": "2700"
    },
    {
        "col0": "Yumeji",
        "col1": "Genjiro Arato",
        "col2": "K. Sawada",
        "col3": "7680"
    },
    {
        "col0": "Yuma",
        "col1": "Aaron Spelling",
        "col2": "C. Walker",
        "col3": "4380"
    },
    {
        "col0": "Yukon Vengeance",
        "col1": "William F. Broidy",
        "col2": "K. Grant",
        "col3": "4080"
    },
    {
        "col0": "Yukon Manhunt",
        "col1": "William F. Broidy",
        "col2": "M. Hyer",
        "col3": "3660"
    },
    {
        "col0": "Yukon Gold",
        "col1": "William F. Broidy",
        "col2": "H. Lauter",
        "col3": "3720"
    },
    {
        "col0": "Yugant",
        "col1": "National Film Development Corporation of India",
        "col2": "A. Dutt",
        "col3": "7260"
    },
    {
        "col0": "Yuddho",
        "col1": "Shree Venkatesh Films",
        "col2": "M. Chakraborty",
        "col3": "9960"
    },
    {
        "col0": "Yuddham Sei",
        "col1": "AGS Entertainment",
        "col2": "Jayaprakash",
        "col3": "9120"
    },
    {
        "col0": "Yu-Gi-Oh!: The Dark Side of Dimensions",
        "col1": "Kazuki Takahashi",
        "col2": "R. Matsumoto",
        "col3": "7800"
    },
    {
        "col0": "Youthful Folly",
        "col1": "Norman Loudon",
        "col2": "I. Vanbrugh",
        "col3": "4440"
    },
    {
        "col0": "Youth in Revolt",
        "col1": "David Permut",
        "col2": "S. Buscemi",
        "col3": "5340"
    },
    {
        "col0": "Youth Without Youth",
        "col1": "Francis Ford Coppola",
        "col2": "A. M. Lara",
        "col3": "7440"
    },
    {
        "col0": "Youth Runs Wild",
        "col1": "Val Lewton",
        "col2": "V. Brown",
        "col3": "4020"
    },
    {
        "col0": "Youth Never Returns",
        "col1": "Manfred Wong",
        "col2": "J. Chen",
        "col3": "5520"
    },
    {
        "col0": "Yours Truly, Blake",
        "col1": "Ignace Morgenstern",
        "col2": "E. Constantine",
        "col3": "5820"
    },
    {
        "col0": "Yours, Mine & Ours",
        "col1": "Robert Simonds",
        "col2": "D. Quaid",
        "col3": "5700"
    },
    {
        "col0": "Your Witness",
        "col1": "Joan Harrison",
        "col2": "R. Montgomery",
        "col3": "6000"
    },
    {
        "col0": "Your Whole Life Ahead of You",
        "col1": "Paolo Virzi",
        "col2": "E. Germano",
        "col3": "7020"
    },
    {
        "col0": "Your Vice Is a Locked Room and Only I Have the Key",
        "col1": "Luciano Martino",
        "col2": "E. Fenech",
        "col3": "5760"
    },
    {
        "col0": "Your Uncle Dudley",
        "col1": "Edward T. Lowe, Jr.",
        "col2": "E. E. Horton",
        "col3": "4200"
    },
    {
        "col0": "Your Show of Shows",
        "col1": "Max Liebman",
        "col2": "H. Morris",
        "col3": "5400"
    },
    {
        "col0": "Your Highness",
        "col1": "Scott Stuber",
        "col2": "J. Franco",
        "col3": "6120"
    },
    {
        "col0": "Your Friends & Neighbors",
        "col1": "Jason Patric",
        "col2": "A. Eckhart",
        "col3": "6000"
    },
    {
        "col0": "Your Friend the Rat",
        "col1": "Brad Bird",
        "col2": "P. Oswalt",
        "col3": "660"
    },
    {
        "col0": "Your Cheatin' Heart",
        "col1": "Sam Katzman",
        "col2": "R. Buttons",
        "col3": "5940"
    },
    {
        "col0": "Younger and Younger",
        "col1": "Percy Adlon",
        "col2": "D. Sutherland",
        "col3": "5940"
    },
    {
        "col0": "Youngblood Hawke",
        "col1": "Delmer Daves",
        "col2": "S. Pleshette",
        "col3": "8220"
    },
    {
        "col0": "Youngblood",
        "col1": "Peter Bart",
        "col2": "P. Swayze",
        "col3": "6600"
    },
    {
        "col0": "Young at Heart",
        "col1": "Henry Blanke",
        "col2": "D. Day",
        "col3": "7020"
    },
    {
        "col0": "Young as You Feel",
        "col1": "Sol M. Wurtzel",
        "col2": "S. Byington",
        "col3": "3600"
    },
    {
        "col0": "Young and Willing",
        "col1": "Edward H. Griffith",
        "col2": "R. Benchley",
        "col3": "4980"
    },
    {
        "col0": "Young and Innocent",
        "col1": "Edward Black",
        "col2": "D. D. Marney",
        "col3": "4980"
    },
    {
        "col0": "Young and Dangerous 5",
        "col1": "Manfred Wong",
        "col2": "S. Qi",
        "col3": "6840"
    }
]