[
    {
        "col0": "T. L. Johnson",
        "col1": "Cleveland",
        "col2": "1854-07-18",
        "col3": "Tom Loftin Johnson"
    },
    {
        "col0": "M. AmruA!",
        "col1": "Zagreb",
        "col2": "1848-10-01",
        "col3": "Milan Emil AmruA!"
    },
    {
        "col0": "L. Silva",
        "col1": "Manila",
        "col2": "1937-10-21",
        "col3": "Hilarion Silva"
    },
    {
        "col0": "J. C. Gardner",
        "col1": "Louisiana",
        "col2": "1924-06-17",
        "col3": "James Creswell Gardner"
    },
    {
        "col0": "J. Sensenbrenner",
        "col1": "Ohio",
        "col2": "1902-09-18",
        "col3": "Maynard Edward Sensenbrenner"
    },
    {
        "col0": "E. C. 2nd",
        "col1": "Boston",
        "col2": "1909-10-07",
        "col3": "Erastus Corning II"
    },
    {
        "col0": "D. Geeben",
        "col1": "Stuart, Florida",
        "col2": "1908-03-31",
        "col3": "Dorothy P. Colleen"
    },
    {
        "col0": "D. Strauch",
        "col1": "Scottsdale, Arizona",
        "col2": "1926-0-0",
        "col3": "Donald William Strauch, Jr."
    },
    {
        "col0": "C. Stokes",
        "col1": "Cleveland",
        "col2": "1927-06-21",
        "col3": "Carl Burton Stokes"
    },
    {
        "col0": "B. Rinehart",
        "col1": "Columbus, Ohio",
        "col2": "1946-02-24",
        "col3": "Dana Gillman Rinehart"
    },
    {
        "col0": "A. B. Coutinho",
        "col1": "Lisbon",
        "col2": "1923-05-03",
        "col3": "Antonio Eduardo Borges Coutinho de Medeiros"
    },
    {
        "col0": "A. Massavanhane",
        "col1": "Stockholm",
        "col2": "1930-02-09",
        "col3": "Alberto Massavanhane"
    }
]