[
    {
        "col0": "Zonocypretta",
        "col1": "Cyprididae",
        "col2": "VU",
        "col3": "IUCN2.3"
    },
    {
        "col0": "Zarigani",
        "col1": "Cambaridae",
        "col2": "DD",
        "col3": "iucn3.1"
    },
    {
        "col0": "Uramphisopus",
        "col1": "Phreatoicidae",
        "col2": "VU",
        "col3": "IUCN2.3"
    },
    {
        "col0": "Typhlocypris trigonella",
        "col1": "Candonidae",
        "col2": "VU",
        "col3": "IUCN2.3"
    },
    {
        "col0": "Typhlocypris cavicola",
        "col1": "Candonidae",
        "col2": "VU",
        "col3": "IUCN2.3"
    },
    {
        "col0": "Tropocyclops nananae",
        "col1": "Cyclopidae",
        "col2": "VU",
        "col3": "IUCN2.3"
    },
    {
        "col0": "Tropocyclops federensis",
        "col1": "Cyclopidae",
        "col2": "VU",
        "col3": "IUCN2.3"
    },
    {
        "col0": "Troglocaris anophthalmus",
        "col1": "Atyidae",
        "col2": "LC",
        "col3": "IUCN3.1"
    },
    {
        "col0": "Troglocambarus",
        "col1": "Cambaridae",
        "col2": "NT",
        "col3": "iucn3.1"
    },
    {
        "col0": "Thymopsis nilenta",
        "col1": "Lobster",
        "col2": "LC",
        "col3": "iucn3.1"
    },
    {
        "col0": "Thymops",
        "col1": "Lobster",
        "col2": "LC",
        "col3": "iucn3.1"
    },
    {
        "col0": "Thermosphaeroma thermophilum",
        "col1": "Sphaeromatidae",
        "col2": "EW",
        "col3": "iucn2.3"
    },
    {
        "col0": "Thermomesochra",
        "col1": "Canthocamptidae",
        "col2": "DD",
        "col3": "IUCN2.3"
    },
    {
        "col0": "Thermocyclops parvus",
        "col1": "Cyclopidae",
        "col2": "LR/cd",
        "col3": "IUCN2.3"
    },
    {
        "col0": "Thenus",
        "col1": "Slipper lobster",
        "col2": "LC",
        "col3": "iucn3.1"
    },
    {
        "col0": "Tenuibranchiurus",
        "col1": "Parastacidae",
        "col2": "EN",
        "col3": "iucn3.1"
    },
    {
        "col0": "Tasmanian giant freshwater crayfish",
        "col1": "Parastacidae",
        "col2": "EN",
        "col3": "iucn3.1"
    },
    {
        "col0": "Tachypleus tridentatus",
        "col1": "Limulidae",
        "col2": "DD",
        "col3": "iucn2.3"
    },
    {
        "col0": "Syntripsa flavichela",
        "col1": "Parathelphusidae",
        "col2": "LC",
        "col3": "iucn3.1"
    },
    {
        "col0": "Syncaris pasadenae",
        "col1": "Atyidae",
        "col2": "EX",
        "col3": "IUCN2.3"
    },
    {
        "col0": "Syncaris pacifica",
        "col1": "Atyidae",
        "col2": "EN",
        "col3": "IUCN2.3"
    },
    {
        "col0": "Stygodiaptomus petkovskii",
        "col1": "Diaptomidae",
        "col2": "VU",
        "col3": "IUCN2.3"
    },
    {
        "col0": "Stygodiaptomus kieferi",
        "col1": "Diaptomidae",
        "col2": "VU",
        "col3": "IUCN2.3"
    },
    {
        "col0": "Stygobromus pecki",
        "col1": "Crangonyctidae",
        "col2": "G1",
        "col3": "TNC"
    },
    {
        "col0": "Stygobromus lucifugus",
        "col1": "Crangonyctidae",
        "col2": "EX",
        "col3": "IUCN2.3"
    },
    {
        "col0": "Stygobromus kenki",
        "col1": "Crangonyctidae",
        "col2": "G2",
        "col3": "TNC"
    },
    {
        "col0": "Stygobromus hayi",
        "col1": "Crangonyctidae",
        "col2": "G1",
        "col3": "TNC"
    },
    {
        "col0": "Streptocephalus woottoni",
        "col1": "Streptocephalidae",
        "col2": "EN",
        "col3": "IUCN2.3"
    },
    {
        "col0": "Streptocephalus moorei",
        "col1": "Streptocephalidae",
        "col2": "CR",
        "col3": "IUCN2.3"
    },
    {
        "col0": "Streptocephalus kargesi",
        "col1": "Streptocephalidae",
        "col2": "DD",
        "col3": "IUCN2.3"
    },
    {
        "col0": "Streptocephalus guzmani",
        "col1": "Streptocephalidae",
        "col2": "EN",
        "col3": "IUCN2.3"
    },
    {
        "col0": "Streptocephalus gracilis",
        "col1": "Streptocephalidae",
        "col2": "CR",
        "col3": "IUCN2.3"
    },
    {
        "col0": "Streptocephalus dendyi",
        "col1": "Streptocephalidae",
        "col2": "EN",
        "col3": "IUCN2.3"
    },
    {
        "col0": "Streptocephalus dendrophorus",
        "col1": "Streptocephalidae",
        "col2": "EN",
        "col3": "IUCN2.3"
    },
    {
        "col0": "Sri Lanka tree crab",
        "col1": "Gecarcinucidae",
        "col2": "LC",
        "col3": "iucn3.1"
    },
    {
        "col0": "Speocirolana thermydronis",
        "col1": "Cirolanidae",
        "col2": "EN",
        "col3": "IUCN2.3"
    },
    {
        "col0": "Speleophria scottodicarloi",
        "col1": "Speleophriidae",
        "col2": "CR",
        "col3": "IUCN2.3"
    },
    {
        "col0": "Speleophria bivexilla",
        "col1": "Speleophriidae",
        "col2": "CR",
        "col3": "IUCN2.3"
    },
    {
        "col0": "Speleoithona bermudensis",
        "col1": "Speleoithonidae",
        "col2": "CR",
        "col3": "IUCN2.3"
    },
    {
        "col0": "Spelaeorchestia",
        "col1": "Talitridae",
        "col2": "EN",
        "col3": "iucn2.3"
    },
    {
        "col0": "Spelaeodiaptomus",
        "col1": "Diaptomidae",
        "col2": "DD",
        "col3": "IUCN2.3"
    },
    {
        "col0": "Smalleyus",
        "col1": "Pseudothelphusidae",
        "col2": "DD",
        "col3": "iucn3.1"
    },
    {
        "col0": "Signal crayfish",
        "col1": "Astacidae",
        "col2": "LC",
        "col3": "iucn3.1"
    }
]