[
    {
        "col0": "Would You Love a Monsterman?",
        "col1": "Devil Is A Loser",
        "col2": "M. Lordi",
        "col3": "Lordi"
    },
    {
        "col0": "Would You Lay with Me",
        "col1": "The Man That Turned My Mama On",
        "col2": "D. A. Coe",
        "col3": "Tanya Tucker"
    },
    {
        "col0": "Would You Go with Me",
        "col1": "Me and God",
        "col2": "J. S. Sherrill",
        "col3": "Josh Turner"
    },
    {
        "col0": "Would You Catch a Falling Star",
        "col1": "Wild and Blue",
        "col2": "B. Braddock",
        "col3": "John Anderson"
    },
    {
        "col0": "Would You Be Happier?",
        "col1": "When the Stars Go Blue",
        "col2": "T. Corrs",
        "col3": "The Corrs"
    },
    {
        "col0": "Would You...?",
        "col1": "Straight to... Number One",
        "col2": "D. Lowe",
        "col3": "Touch and Go"
    },
    {
        "col0": "Would?",
        "col1": "Them Bones",
        "col2": "J. Cantrell",
        "col3": "Alice in Chains"
    },
    {
        "col0": "Worth It",
        "col1": "I'm in Love with a Monster",
        "col2": "Stargate",
        "col3": "Fifth Harmony"
    },
    {
        "col0": "Worth Every Mile",
        "col1": "Take It Easy",
        "col2": "T. Tritt",
        "col3": "Travis Tritt"
    },
    {
        "col0": "Worst Part Is Over",
        "col1": "Stereo",
        "col2": "A. Abreu",
        "col3": "Anna Abreu"
    },
    {
        "col0": "Worst Behavior",
        "col1": "0 to 100 / The Catch Up",
        "col2": "Drake",
        "col3": "Drake"
    },
    {
        "col0": "Worse Comes to Worst",
        "col1": "Travelin Prayer",
        "col2": "B. Joel",
        "col3": "Billy Joel"
    },
    {
        "col0": "Worrisome Heart",
        "col1": "Goodnite",
        "col2": "M. Gardot",
        "col3": "Melody Gardot"
    },
    {
        "col0": "Worried About Ray",
        "col1": "Goodbye Mr A",
        "col2": "A. Gordon",
        "col3": "The Hoosiers"
    },
    {
        "col0": "Worm Tamer",
        "col1": "Palaces of Montezuma",
        "col2": "N. Cave",
        "col3": "Grinderman"
    },
    {
        "col0": "Worlock",
        "col1": "Tormentor",
        "col2": "N. Ogre",
        "col3": "Skinny Puppy"
    },
    {
        "col0": "Worlds Apart",
        "col1": "Pretty Little Adriana",
        "col2": "V. Gill",
        "col3": "Vince Gill"
    },
    {
        "col0": "Worlds Apart",
        "col1": "Crazy Times",
        "col2": "D. Haseltine",
        "col3": "Jars of Clay"
    },
    {
        "col0": "World of Our Own",
        "col1": "Bop Bop Baby",
        "col2": "S. Mac",
        "col3": "Westlife"
    },
    {
        "col0": "World in Your Hands",
        "col1": "Inside Out",
        "col2": "T. Fenslau",
        "col3": "Culture Beat"
    },
    {
        "col0": "World in Perfect Harmony",
        "col1": "Love Is Holy",
        "col2": "K. Wilde",
        "col3": "Kim Wilde"
    },
    {
        "col0": "World in My Eyes",
        "col1": "I Feel You",
        "col2": "M. Gore",
        "col3": "Depeche Mode"
    },
    {
        "col0": "World in Motion",
        "col1": "Regret",
        "col2": "B. Sumner",
        "col3": "New Order"
    },
    {
        "col0": "World at Your Feet",
        "col1": "Target",
        "col2": "M. Glover",
        "col3": "Embrace"
    },
    {
        "col0": "World Wide Suicide",
        "col1": "Life Wasted",
        "col2": "E. Vedder",
        "col3": "Pearl Jam"
    },
    {
        "col0": "World Where You Live",
        "col1": "Now We're Getting Somewhere",
        "col2": "N. Finn",
        "col3": "Crowded House"
    },
    {
        "col0": "World So Cold",
        "col1": "Lost in You",
        "col2": "N. Sanderson",
        "col3": "Three Days Grace"
    },
    {
        "col0": "World So Cold",
        "col1": "Determined",
        "col2": "R. Martinie",
        "col3": "Mudvayne"
    },
    {
        "col0": "World So Cold",
        "col1": "The One",
        "col2": "A-Lee",
        "col3": "A-Lee"
    },
    {
        "col0": "World Shut Your Mouth",
        "col1": "Trampolene",
        "col2": "J. Cope",
        "col3": "Julian Cope"
    },
    {
        "col0": "World Scum",
        "col1": "Bloodshed",
        "col2": "M. Cavalera",
        "col3": "Soulfly"
    },
    {
        "col0": "World Peace Is None of Your Business",
        "col1": "Istanbul",
        "col2": "Morrissey",
        "col3": "Morrissey"
    },
    {
        "col0": "World Machine",
        "col1": "A Physical Presence",
        "col2": "M. King",
        "col3": "Level 42"
    },
    {
        "col0": "World Goes Round",
        "col1": "Lost In America",
        "col2": "R. Mintzer",
        "col3": "Ross Mintzer"
    },
    {
        "col0": "World Go Round",
        "col1": "C'mon",
        "col2": "B. Rhymes",
        "col3": "Busta Rhymes"
    },
    {
        "col0": "World Filled with Love",
        "col1": "You Don't Miss Your Water",
        "col2": "C. David",
        "col3": "Craig David"
    },
    {
        "col0": "World",
        "col1": "Spooky",
        "col2": "B. Sumner",
        "col3": "New Order"
    },
    {
        "col0": "World",
        "col1": "Let a Man Come In and Do the Popcorn",
        "col2": "J. Brown",
        "col3": "James Brown"
    },
    {
        "col0": "World, Hold On",
        "col1": "Rock This Party",
        "col2": "B. Sinclar",
        "col3": "Bob Sinclar"
    },
    {
        "col0": "Workout",
        "col1": "People Are People",
        "col2": "F. Knuckles",
        "col3": "RuPaul"
    },
    {
        "col0": "Working on a Dream",
        "col1": "My Lucky Day",
        "col2": "B. Springsteen",
        "col3": "Bruce Springsteen"
    },
    {
        "col0": "Working for the Weekend",
        "col1": "When It's Over",
        "col2": "M. Reno",
        "col3": "Loverboy"
    },
    {
        "col0": "Working My Way Back to You",
        "col1": "Cupid",
        "col2": "S. Linzer",
        "col3": "The Spinners"
    },
    {
        "col0": "Working Day and Night",
        "col1": "Get on the Floor",
        "col2": "M. Jackson",
        "col3": "Michael Jackson"
    },
    {
        "col0": "Working Class Hero",
        "col1": "Happy Xmas",
        "col2": "J. Lennon",
        "col3": "John Lennon"
    },
    {
        "col0": "Workin' for the Weekend",
        "col1": "Rub-a-Dubbin'",
        "col2": "K. Mellons",
        "col3": "Ken Mellons"
    },
    {
        "col0": "Workin' for a Livin'",
        "col1": "Heart and Soul",
        "col2": "H. Lewis",
        "col3": "Huey Lewis and the News"
    },
    {
        "col0": "Workin' at the Car Wash Blues",
        "col1": "Chain Gang",
        "col2": "J. Croce",
        "col3": "Jim Croce"
    },
    {
        "col0": "Workin' On a Groovy Thing",
        "col1": "Wedding Bell Blues",
        "col2": "N. Sedaka",
        "col3": "The 5th Dimension"
    },
    {
        "col0": "Workin' Man Blues",
        "col1": "Okie from Muskogee",
        "col2": "M. Haggard",
        "col3": "Merle Haggard"
    },
    {
        "col0": "Workin' Man's Ph.D.",
        "col1": "The Call of the Wild",
        "col2": "A. Tippin",
        "col3": "Aaron Tippin"
    },
    {
        "col0": "Work to Do",
        "col1": "That Lady",
        "col2": "T. I. Brothers",
        "col3": "The Isley Brothers"
    },
    {
        "col0": "Work of Art",
        "col1": "Brother Oh Brother",
        "col2": "M. Zelmerlow",
        "col3": "Mans Zelmerlow"
    },
    {
        "col0": "Work in Progress",
        "col1": "That'd Be Alright",
        "col2": "A. Jackson",
        "col3": "Alan Jackson"
    },
    {
        "col0": "Work from Home",
        "col1": "All in My Head",
        "col2": "T. D. Sign",
        "col3": "Fifth Harmony"
    },
    {
        "col0": "Work That",
        "col1": "Stay Down",
        "col2": "M. J. Blige",
        "col3": "Mary J. Blige"
    },
    {
        "col0": "Work Song",
        "col1": "Someone New",
        "col2": "Hozier",
        "col3": "Hozier"
    },
    {
        "col0": "Work Out",
        "col1": "Trouble",
        "col2": "J. Legend",
        "col3": "J. Cole"
    },
    {
        "col0": "Work It",
        "col1": "Pimp Juice",
        "col2": "J. Timberlake",
        "col3": "Nelly"
    },
    {
        "col0": "Work It",
        "col1": "Honk Your Horn",
        "col2": "M. Elliott",
        "col3": "Missy Elliott"
    },
    {
        "col0": "Work Hard, Play Hard",
        "col1": "Celebration",
        "col2": "Stargate",
        "col3": "Wiz Khalifa"
    },
    {
        "col0": "Work",
        "col1": "Forever Is Over",
        "col2": "I. Wroldsen",
        "col3": "The Saturdays"
    },
    {
        "col0": "Work",
        "col1": "Kiss It Better",
        "col2": "Drake",
        "col3": "Rihanna"
    },
    {
        "col0": "Work",
        "col1": "Daylight",
        "col2": "K. Rowland",
        "col3": "Kelly Rowland"
    },
    {
        "col0": "Work",
        "col1": "Futures",
        "col2": "J. Adkins",
        "col3": "Jimmy Eat World"
    },
    {
        "col0": "Work",
        "col1": "There Is a River",
        "col2": "D. Haseltine",
        "col3": "Jars of Clay"
    },
    {
        "col0": "Work",
        "col1": "Bounce",
        "col2": "I. Azalea",
        "col3": "Iggy Azalea"
    },
    {
        "col0": "Wordy Rappinghood",
        "col1": "Genius of Love",
        "col2": "T. Weymouth",
        "col3": "Tom Tom Club"
    },
    {
        "col0": "Words with the Shaman",
        "col1": "Taking the Veil",
        "col2": "D. Sylvian",
        "col3": "David Sylvian"
    },
    {
        "col0": "Words of Love",
        "col1": "Dancing in the Street",
        "col2": "J. Phillips",
        "col3": "The Mamas & the Papas"
    },
    {
        "col0": "Words of Love",
        "col1": "That'll Be the Day",
        "col2": "B. Holly",
        "col3": "Buddy Holly"
    },
    {
        "col0": "Words as Weapons",
        "col1": "Same Damn Life",
        "col2": "S. Morgan",
        "col3": "Seether"
    },
    {
        "col0": "Words as Weapons",
        "col1": "Let It All Go",
        "col2": "R. Tedder",
        "col3": "Birdy"
    },
    {
        "col0": "Words and Music",
        "col1": "I Just Want to Be Your Everything",
        "col2": "A. Gibb",
        "col3": "Andy Gibb"
    },
    {
        "col0": "Words I Never Said",
        "col1": "Out of My Head",
        "col2": "S. Grey",
        "col3": "Skylar Grey"
    },
    {
        "col0": "Words Get in the Way",
        "col1": "Falling in Love",
        "col2": "G. Estefan",
        "col3": "Miami Sound Machine"
    },
    {
        "col0": "Words Are Not Enough/I Know Him So Well",
        "col1": "Light up the world steps song",
        "col2": "L. Scott-Lee",
        "col3": "Steps"
    },
    {
        "col0": "Words",
        "col1": "Jumbo",
        "col2": "B. Gibb",
        "col3": "Bee Gees"
    },
    {
        "col0": "Wordplay",
        "col1": "Geek in the Pink",
        "col2": "J. Mraz",
        "col3": "Jason Mraz"
    },
    {
        "col0": "Word to the Mutha!",
        "col1": "The Best Things in Life Are Free",
        "col2": "M. Bivins",
        "col3": "Johnny Gill"
    },
    {
        "col0": "Word on a Wing",
        "col1": "TVC 15",
        "col2": "D. Bowie",
        "col3": "David Bowie"
    },
    {
        "col0": "Word Up!",
        "col1": "Candy",
        "col2": "L. Blackmon",
        "col3": "Gun"
    },
    {
        "col0": "Word",
        "col1": "Night Fishing Is Good",
        "col2": "I. Yamaguchi",
        "col3": "Sakanaction"
    },
    {
        "col0": "Woof",
        "col1": "Cali Chronic",
        "col2": "Mystikal",
        "col3": "Snoop Dogg"
    },
    {
        "col0": "Woody Boogie",
        "col1": "Living in the Background",
        "col2": "Baltimora",
        "col3": "Baltimora"
    },
    {
        "col0": "Woodstock",
        "col1": "Carey",
        "col2": "J. Mitchell",
        "col3": "Joni Mitchell"
    },
    {
        "col0": "Wooden Ships",
        "col1": "Lady of the Island",
        "col2": "S. Stills",
        "col3": "Crosby, Stills & Nash"
    },
    {
        "col0": "Wooden Heart",
        "col1": "Do the Clam",
        "col2": "B. Weisman",
        "col3": "Elvis Presley"
    },
    {
        "col0": "Woo Hah!! Got You All in Check",
        "col1": "It's a Party",
        "col2": "Trevor Tahiem Smith, Jr.",
        "col3": "Busta Rhymes"
    },
    {
        "col0": "Wonderman",
        "col1": "Simply Unstoppable",
        "col2": "T. Tempah",
        "col3": "Tinie Tempah"
    },
    {
        "col0": "Wonderland",
        "col1": "Champagne Showers",
        "col2": "T. Feemster",
        "col3": "Natalia Kills"
    },
    {
        "col0": "Wonderkids",
        "col1": "4 Heartbreakers Only",
        "col2": "L. Muhl",
        "col3": "Warm Guns"
    },
    {
        "col0": "Wondering",
        "col1": "Tired of England",
        "col2": "C. Barat",
        "col3": "Dirty Pretty Things"
    },
    {
        "col0": "Wonderful You",
        "col1": "The Ones You Love",
        "col2": "R. Astley",
        "col3": "Rick Astley"
    },
    {
        "col0": "Wonderful World",
        "col1": "Since I Don't Have You",
        "col2": "S. Cooke",
        "col3": "Sam Cooke"
    },
    {
        "col0": "Wonderful Tonight",
        "col1": "Promises",
        "col2": "E. Clapton",
        "col3": "Eric Clapton"
    },
    {
        "col0": "Wonderful Shadow",
        "col1": "Yodelling Song",
        "col2": "T. Tikaram",
        "col3": "Tanita Tikaram"
    },
    {
        "col0": "Wonderful Life",
        "col1": "Stay",
        "col2": "Hurts",
        "col3": "Hurts"
    },
    {
        "col0": "Wonderful Land",
        "col1": "The Singles",
        "col2": "J. Lordan",
        "col3": "Mike Oldfield"
    },
    {
        "col0": "Wonderful Christmastime",
        "col1": "Coming Up",
        "col2": "P. McCartney",
        "col3": "Paul McCartney"
    },
    {
        "col0": "Wonderful Baby",
        "col1": "Crying",
        "col2": "D. McLean",
        "col3": "Don McLean"
    },
    {
        "col0": "Wonderful",
        "col1": "I Love Her",
        "col2": "Ne-Yo",
        "col3": "Marques Houston"
    },
    {
        "col0": "Wonderful",
        "col1": "Time After Time",
        "col2": "P. Ighile",
        "col3": "Angel"
    },
    {
        "col0": "Wonderboy",
        "col1": "POD",
        "col2": "J. Black",
        "col3": "Tenacious D"
    },
    {
        "col0": "Wonder",
        "col1": "La La La",
        "col2": "E. Sande",
        "col3": "Naughty Boy"
    },
    {
        "col0": "Won't You",
        "col1": "Satisfy",
        "col2": "Moby",
        "col3": "Nero"
    },
    {
        "col0": "Won't Make a Fool Out of You",
        "col1": "In & Out",
        "col2": "J. Austin",
        "col3": "Marcus Canty"
    },
    {
        "col0": "Won't Go Home Without You",
        "col1": "If I Never See Your Face Again",
        "col2": "A. Levine",
        "col3": "Maroon 5"
    },
    {
        "col0": "Won't Get Fooled Again",
        "col1": "Let's See Action",
        "col2": "P. Townshend",
        "col3": "The Who"
    },
    {
        "col0": "Won't Be Lonely Long",
        "col1": "Comin' Around",
        "col2": "G. Ducas",
        "col3": "Josh Thompson"
    },
    {
        "col0": "Won't Be Broken",
        "col1": "Tear Up This Town",
        "col2": "T. Rice-Oxley",
        "col3": "Keane"
    },
    {
        "col0": "Won't Back Down",
        "col1": "Falls on Me",
        "col2": "C. Bell",
        "col3": "Fuel"
    },
    {
        "col0": "Women of Ireland",
        "col1": "The X-Files",
        "col2": "S. O. Riada",
        "col3": "Mike Oldfield"
    },
    {
        "col0": "Women in Uniform",
        "col1": "Twilight Zone",
        "col2": "G. Macainsh",
        "col3": "Iron Maiden"
    },
    {
        "col0": "Women I've Never Had",
        "col1": "Kaw-Liga",
        "col2": "H. W. Jr.",
        "col3": "Hank Williams Jr."
    },
    {
        "col0": "Women",
        "col1": "I'll Get Even with You",
        "col2": "M. Jones",
        "col3": "Foreigner"
    },
    {
        "col0": "Women",
        "col1": "Animal",
        "col2": "J. Elliott",
        "col3": "Def Leppard"
    },
    {
        "col0": "Woman in Love",
        "col1": "Guilty",
        "col2": "B. Gibb",
        "col3": "Barbra Streisand"
    },
    {
        "col0": "Woman in Chains",
        "col1": "Advice for the Young at Heart",
        "col2": "R. Orzabal",
        "col3": "Tears for Fears"
    },
    {
        "col0": "Woman Is the Nigger of the World",
        "col1": "Mind Games",
        "col2": "J. Lennon",
        "col3": "John Lennon"
    },
    {
        "col0": "Woman",
        "col1": "Love Train",
        "col2": "A. Stockdale",
        "col3": "Wolfmother"
    },
    {
        "col0": "Woman",
        "col1": "She Dreams",
        "col2": "G. S. Paxton",
        "col3": "Don Gibson"
    },
    {
        "col0": "Woman",
        "col1": "Watching the Wheels",
        "col2": "J. Lennon",
        "col3": "John Lennon"
    },
    {
        "col0": "Woman, Woman",
        "col1": "Young Girl",
        "col2": "J. Glaser",
        "col3": "Gary Puckett & The Union Gap"
    },
    {
        "col0": "Woman's Work",
        "col1": "Chains",
        "col2": "S. Jeacocke",
        "col3": "Tina Arena"
    },
    {
        "col0": "Wolves of Winter",
        "col1": "Animal Style",
        "col2": "S. Neil",
        "col3": "Biffy Clyro"
    },
    {
        "col0": "Wolf at the Door",
        "col1": "Everybody's Changing",
        "col2": "T. Rice-Oxley",
        "col3": "Keane"
    },
    {
        "col0": "Wolf Like Me",
        "col1": "Province",
        "col2": "G. Smith",
        "col3": "TV on the Radio"
    },
    {
        "col0": "Woke Up with a Monster",
        "col1": "You're All I Wanna Do",
        "col2": "R. Zander",
        "col3": "Cheap Trick"
    },
    {
        "col0": "Wizard",
        "col1": "Helicopter",
        "col2": "M. Garrix",
        "col3": "Martin Garrix"
    },
    {
        "col0": "Without a Fight",
        "col1": "Today",
        "col2": "B. Paisley",
        "col3": "Brad Paisley"
    },
    {
        "col0": "Without Your Love",
        "col1": "Walking in My Sleep",
        "col2": "B. Nicholls",
        "col3": "Roger Daltrey"
    },
    {
        "col0": "Without You I'm Nothing",
        "col1": "Burger Queen Francais",
        "col2": "B. Molko",
        "col3": "Placebo"
    },
    {
        "col0": "Without You",
        "col1": "Fire in the Hole",
        "col2": "E. V. Halen",
        "col3": "Van Halen"
    },
    {
        "col0": "Without You",
        "col1": "Turn It Up",
        "col2": "D. G. Sells",
        "col3": "The Feeling"
    },
    {
        "col0": "Without You",
        "col1": "Luv Your Life",
        "col2": "D. Johns",
        "col3": "Silverchair"
    },
    {
        "col0": "Without You",
        "col1": "Don't Go Away Mad",
        "col2": "N. Sixx",
        "col3": "Motley Crue"
    },
    {
        "col0": "Without You",
        "col1": "Just Right for Me",
        "col2": "J. Jones",
        "col3": "Monica"
    },
    {
        "col0": "Without You",
        "col1": "Don't Go Away Mad",
        "col2": "N. Sixx",
        "col3": "Motley Crue"
    },
    {
        "col0": "Without You",
        "col1": "Long Hot Summer",
        "col2": "D. Pahanish",
        "col3": "Keith Urban"
    },
    {
        "col0": "Without You",
        "col1": "Half Mast",
        "col2": "L. Steele",
        "col3": "Empire of the Sun"
    },
    {
        "col0": "Without You",
        "col1": "If I Fall You're Going Down with Me",
        "col2": "N. Maines",
        "col3": "Dixie Chicks"
    },
    {
        "col0": "Without You",
        "col1": "White Light/White Heat",
        "col2": "D. Bowie",
        "col3": "David Bowie"
    },
    {
        "col0": "Without Her",
        "col1": "One",
        "col2": "H. Nilsson",
        "col3": "Harry Nilsson"
    },
    {
        "col0": "Within Me",
        "col1": "Spellbound",
        "col2": "C. Scabbia",
        "col3": "Lacuna Coil"
    },
    {
        "col0": "Withdrawals",
        "col1": "Better in Boots",
        "col2": "G. Sampson",
        "col3": "Tyler Farr"
    },
    {
        "col0": "With or Without You",
        "col1": "I Still Haven't Found What I'm Looking For",
        "col2": "Bono",
        "col3": "U2"
    },
    {
        "col0": "With a Little Luck",
        "col1": "I've Had Enough",
        "col2": "P. McCartney",
        "col3": "Wings"
    },
    {
        "col0": "With a Little Help from My Friends",
        "col1": "Lucy in the Sky with Diamonds",
        "col2": "Lennon-McCartney",
        "col3": "The Beatles"
    },
    {
        "col0": "With a Child's Heart",
        "col1": "Grazing in the Grass",
        "col2": "H. Cosby",
        "col3": "Michael Jackson"
    },
    {
        "col0": "With You",
        "col1": "Take My Breath Away",
        "col2": "J. Simpson",
        "col3": "Jessica Simpson"
    },
    {
        "col0": "With You",
        "col1": "Shawty Get Loose",
        "col2": "C. Brown",
        "col3": "Chris Brown"
    },
    {
        "col0": "With Ur Love",
        "col1": "Want U Back",
        "col2": "M. Martin",
        "col3": "Cher Lloyd"
    },
    {
        "col0": "With U",
        "col1": "Feedback",
        "col2": "J. Dupri",
        "col3": "Janet Jackson"
    },
    {
        "col0": "With My Own Two Hands",
        "col1": "Diamonds On the Inside",
        "col2": "B. Harper",
        "col3": "Ben Harper"
    },
    {
        "col0": "With Me",
        "col1": "Screaming Bloody Murder",
        "col2": "D. Whibley",
        "col3": "Sum 41"
    },
    {
        "col0": "With Me",
        "col1": "Not a Day Goes By",
        "col2": "B. James",
        "col3": "Lonestar"
    },
    {
        "col0": "With Just One Look in Your Eyes",
        "col1": "You Are My Music, You Are My Song",
        "col2": "D. Morgan",
        "col3": "Charly McClain"
    },
    {
        "col0": "With Every Heartbeat",
        "col1": "Treat Me Like a Lady",
        "col2": "W. Braithwaite",
        "col3": "Five Star"
    },
    {
        "col0": "With Every Heartbeat",
        "col1": "Cobrastyle",
        "col2": "Robyn",
        "col3": "Robyn"
    },
    {
        "col0": "With Every Beat of My Heart",
        "col1": "Love Will Lead You Back",
        "col2": "A. Baker",
        "col3": "Taylor Dayne"
    },
    {
        "col0": "Witchy Woman",
        "col1": "Peaceful Easy Feeling",
        "col2": "D. Henley",
        "col3": "Eagles"
    },
    {
        "col0": "Witches' Brew",
        "col1": "Anywhere in the World",
        "col2": "K. B",
        "col3": "Katy B"
    },
    {
        "col0": "Witchcraft",
        "col1": "The Island",
        "col2": "R. Swire",
        "col3": "Pendulum"
    },
    {
        "col0": "Witchcraft",
        "col1": "Mistletoe and Holly",
        "col2": "C. Coleman",
        "col3": "Frank Sinatra"
    },
    {
        "col0": "Witch Doctor",
        "col1": "The Bird on My Head",
        "col2": "R. B. Sr.",
        "col3": "Ross Bagdasarian, Sr."
    },
    {
        "col0": "Wit' Me",
        "col1": "I Wish",
        "col2": "L. Wayne",
        "col3": "T.I."
    },
    {
        "col0": "Wishlist",
        "col1": "Last Kiss",
        "col2": "E. Vedder",
        "col3": "Pearl Jam"
    },
    {
        "col0": "Wishing on the Same Star",
        "col1": "Shine More",
        "col2": "D. Warren",
        "col3": "Namie Amuro"
    },
    {
        "col0": "Wishing on a Star",
        "col1": "Check on It",
        "col2": "J. Z",
        "col3": "Beyonce"
    },
    {
        "col0": "Wishing You Were Here",
        "col1": "This House",
        "col2": "A. Moyet",
        "col3": "Alison Moyet"
    },
    {
        "col0": "Wishing You Were Here",
        "col1": "Harry Truman",
        "col2": "P. Cetera",
        "col3": "Chicago"
    },
    {
        "col0": "Wishing I Was There",
        "col1": "Smoke",
        "col2": "N. Imbruglia",
        "col3": "Natalie Imbruglia"
    },
    {
        "col0": "Wishing I Was Lucky",
        "col1": "Sweet Little Mystery",
        "col2": "M. Pellow",
        "col3": "Wet Wet Wet"
    },
    {
        "col0": "Wishful Thinking",
        "col1": "Hanna Hanna",
        "col2": "G. Daly",
        "col3": "China Crisis"
    },
    {
        "col0": "Wishful Sinful",
        "col1": "Tell All the People",
        "col2": "R. Krieger",
        "col3": "The Doors"
    },
    {
        "col0": "Wish You Were Mine",
        "col1": "Alone No More",
        "col2": "S. Wonder",
        "col3": "Philip George"
    },
    {
        "col0": "Wish You Were Here",
        "col1": "She's in Love",
        "col2": "B. Anderson",
        "col3": "Mark Wills"
    },
    {
        "col0": "Wish You Were Here",
        "col1": "Nice to Know You",
        "col2": "A. Katunich",
        "col3": "Incubus"
    },
    {
        "col0": "Wish You Were Here",
        "col1": "'Till You're Gone",
        "col2": "D. Morgan",
        "col3": "Barbara Mandrell"
    },
    {
        "col0": "Wish U Were Here",
        "col1": "They Don't Know About Us",
        "col2": "T. Cruz",
        "col3": "Cody Simpson"
    },
    {
        "col0": "Wish I Had an Angel",
        "col1": "Kuolema Tekee Taiteilijan",
        "col2": "T. Holopainen",
        "col3": "Nightwish"
    },
    {
        "col0": "Wish I Didn't Know Now",
        "col1": "Who's That Man",
        "col2": "T. Keith",
        "col3": "Toby Keith"
    },
    {
        "col0": "Wish I Could Fly",
        "col1": "Anyone",
        "col2": "P. Gessle",
        "col3": "Roxette"
    },
    {
        "col0": "Wish",
        "col1": "March of the Pigs",
        "col2": "T. Reznor",
        "col3": "Nine Inch Nails"
    },
    {
        "col0": "Wise Up",
        "col1": "Sharayah",
        "col2": "W. Kirkpatrick",
        "col3": "Amy Grant"
    }
]