[
    {
        "col0": "S. B. Raskin",
        "col1": "J. Raskin",
        "col2": "United States",
        "col3": "1961-04-15",
        "col4": "1961-04-15"
    },
    {
        "col0": "Rosalyn Higgins, Baroness Higgins",
        "col1": "Terence Higgins, Baron Higgins",
        "col2": "United Kingdom",
        "col3": "1937-06-02",
        "col4": "1937-06-02"
    },
    {
        "col0": "R. Wilson",
        "col1": "N. a. birth",
        "col2": "Australia",
        "col3": "1922-08-23",
        "col4": "1922-08-23"
    },
    {
        "col0": "R. Freisler",
        "col1": "M. Freisler",
        "col2": "Nazi Germany",
        "col3": "1893-10-30",
        "col4": "1893-10-30"
    },
    {
        "col0": "M. McHugh",
        "col1": "J. McHugh",
        "col2": "Australian",
        "col3": "1935-11-01",
        "col4": "1935-11-01"
    },
    {
        "col0": "M. Arden",
        "col1": "Jonathan Mance, Baron Mance",
        "col2": "United Kingdom",
        "col3": "1947-01-23",
        "col4": "1947-01-23"
    },
    {
        "col0": "K. Warsh",
        "col1": "J. Lauder",
        "col2": "United States",
        "col3": "1970-04-13",
        "col4": "1970-04-13"
    },
    {
        "col0": "K. Hayne",
        "col1": "M. Gordon",
        "col2": "Australian",
        "col3": "1945-06-05",
        "col4": "1945-06-05"
    },
    {
        "col0": "K. Sukumaran",
        "col1": "K. Usha",
        "col2": "India",
        "col3": "1930-07-12",
        "col4": "1930-07-12"
    },
    {
        "col0": "K. K. Usha",
        "col1": "K. Sukumaran",
        "col2": "India",
        "col3": "1939-07-03",
        "col4": "1939-07-03"
    },
    {
        "col0": "J. Katz",
        "col1": "P. Rubin",
        "col2": "United States",
        "col3": "1953-02-03",
        "col4": "1953-02-03"
    },
    {
        "col0": "J. Iqbal",
        "col1": "N. Iqbal",
        "col2": "British India",
        "col3": "1924-10-05",
        "col4": "1924-10-05"
    },
    {
        "col0": "Hugh Griffiths, Baron Griffiths",
        "col1": "Heather Brigstocke, Baroness Brigstocke",
        "col2": "United Kingdom",
        "col3": "1923-09-26",
        "col4": "1923-09-26"
    },
    {
        "col0": "E. Gloster",
        "col1": "O. Popplewell",
        "col2": "United Kingdom",
        "col3": "1949-06-05",
        "col4": "1949-06-05"
    },
    {
        "col0": "C. Nugee",
        "col1": "E. Thornberry",
        "col2": "United Kingdom",
        "col3": "1959-01-23",
        "col4": "1959-01-23"
    },
    {
        "col0": "C. Caesar",
        "col1": "E. Barkham",
        "col2": "UK",
        "col3": "1590-02-27",
        "col4": "1590-02-27"
    },
    {
        "col0": "C. Swift",
        "col1": "P. Openshaw",
        "col2": "United Kingdom",
        "col3": "1955-05-30",
        "col4": "1955-05-30"
    },
    {
        "col0": "B. O'Keefe",
        "col1": "N. a. birth",
        "col2": "Australia",
        "col3": "1933-05-20",
        "col4": "1933-05-20"
    }
]