[
    {
        "col0": "R. Brown",
        "col1": "Chicago",
        "col2": "Kansas Jayhawks men's basketball",
        "col3": "Los Angeles Lakers"
    },
    {
        "col0": "R. Rhodes",
        "col1": "Jersey City, New Jersey",
        "col2": "Kentucky Wildcats men's basketball",
        "col3": "Houston Rockets"
    },
    {
        "col0": "R. White",
        "col1": "Pennsylvania",
        "col2": "Charlotte 49ers men's basketball",
        "col3": "Detroit Pistons"
    },
    {
        "col0": "R. Stuckey",
        "col1": "Seattle, Washington",
        "col2": "Eastern Washington Eagles men's basketball",
        "col3": "Detroit Pistons"
    },
    {
        "col0": "R. Rogers",
        "col1": "Durham, North Carolina",
        "col2": "Wake Forest Demon Deacons men's basketball",
        "col3": "Denver Nuggets"
    },
    {
        "col0": "R. Monroe",
        "col1": "Baltimore",
        "col2": "NC State Wolfpack men's basketball",
        "col3": "Atlanta Hawks"
    },
    {
        "col0": "R. McCray",
        "col1": "Mount Vernon, New York",
        "col2": "Louisville Cardinals men's basketball",
        "col3": "Houston Rockets"
    },
    {
        "col0": "R. Hood",
        "col1": "Meridian, Mississippi",
        "col2": "Duke Blue Devils men's basketball",
        "col3": "Utah Jazz"
    },
    {
        "col0": "R. Dent",
        "col1": "Edison, Georgia",
        "col2": "Kentucky Wildcats men's basketball",
        "col3": "Orlando Magic"
    },
    {
        "col0": "R. Carney",
        "col1": "Memphis, Tennessee",
        "col2": "Memphis Tigers men's basketball",
        "col3": "Chicago Bulls"
    },
    {
        "col0": "R. Buford",
        "col1": "Milwaukee",
        "col2": "Creighton Bluejays men's basketball",
        "col3": "Miami Heat"
    },
    {
        "col0": "R. McDonald",
        "col1": "Jacksonville, Florida",
        "col2": "Whitworth University",
        "col3": "Seattle SuperSonics"
    },
    {
        "col0": "R. Thorn",
        "col1": "Princeton, West Virginia",
        "col2": "West Virginia Mountaineers men's basketball",
        "col3": "Baltimore Bullets"
    },
    {
        "col0": "R. Strickland",
        "col1": "New York",
        "col2": "DePaul Blue Demons men's basketball",
        "col3": "New York Knicks"
    },
    {
        "col0": "R. Knowles",
        "col1": "Washington, North Carolina",
        "col2": "Davidson Wildcats men's basketball",
        "col3": "Phoenix Suns"
    },
    {
        "col0": "R. Higgins",
        "col1": "Monroe, Louisiana",
        "col2": "Fresno State Bulldogs men's basketball",
        "col3": "Chicago Bulls"
    },
    {
        "col0": "R. Grizzard",
        "col1": "Birmingham, Alabama",
        "col2": "Alabama Crimson Tide men's basketball",
        "col3": "Washington Wizards"
    },
    {
        "col0": "R. Foster",
        "col1": "Birmingham, Alabama",
        "col2": "UCLA Bruins men's basketball",
        "col3": "Phoenix Suns"
    },
    {
        "col0": "R. Derline",
        "col1": "Elma, Washington",
        "col2": "Seattle Redhawks men's basketball",
        "col3": "Seattle SuperSonics"
    },
    {
        "col0": "R. Lopez",
        "col1": "North Hollywood, Los Angeles",
        "col2": "Stanford Cardinal men's basketball",
        "col3": "Phoenix Suns"
    },
    {
        "col0": "R. Freeman",
        "col1": "Cincinnati",
        "col2": "Ohio State Buckeyes men's basketball",
        "col3": "St. Louis Hawks"
    },
    {
        "col0": "R. Bergersen",
        "col1": "Seattle",
        "col2": "College of Southern Idaho",
        "col3": "Atlanta Hawks"
    },
    {
        "col0": "R. Javtokas",
        "col1": "Soviet Union",
        "col2": "Arizona Wildcats men's basketball",
        "col3": "San Antonio Spurs"
    },
    {
        "col0": "R. Whaley",
        "col1": "Benton Harbor, Michigan",
        "col2": "Cincinnati Bearcats men's basketball",
        "col3": "Utah Jazz"
    },
    {
        "col0": "R. Werdann",
        "col1": "Queens",
        "col2": "St. John's Red Storm men's basketball",
        "col3": "Denver Nuggets"
    },
    {
        "col0": "R. Vaden",
        "col1": "Indianapolis",
        "col2": "UAB Blazers men's basketball",
        "col3": "Charlotte Bobcats"
    },
    {
        "col0": "R. Traylor",
        "col1": "Detroit",
        "col2": "Michigan Wolverines men's basketball",
        "col3": "Dallas Mavericks"
    },
    {
        "col0": "R. Smith",
        "col1": "Los Angeles",
        "col2": "UNLV Runnin' Rebels basketball",
        "col3": "Denver Nuggets"
    },
    {
        "col0": "R. Sacre",
        "col1": "Baton Rouge, Louisiana",
        "col2": "Gonzaga Bulldogs men's basketball",
        "col3": "Los Angeles Lakers"
    },
    {
        "col0": "R. Reid",
        "col1": "Atlanta",
        "col2": "St. Mary's University, Texas",
        "col3": "Houston Rockets"
    },
    {
        "col0": "R. Parish",
        "col1": "Shreveport, Louisiana",
        "col2": "Centenary Gentlemen basketball",
        "col3": "Golden State Warriors"
    },
    {
        "col0": "R. Horry",
        "col1": "Harford County, Maryland",
        "col2": "Alabama Crimson Tide men's basketball",
        "col3": "Houston Rockets"
    },
    {
        "col0": "R. Hawkins",
        "col1": "Detroit",
        "col2": "Illinois State Redbirds men's basketball",
        "col3": "Golden State Warriors"
    },
    {
        "col0": "R. Dozier",
        "col1": "Lithonia, Georgia",
        "col2": "Memphis Tigers men's basketball",
        "col3": "Miami Heat"
    },
    {
        "col0": "R. Archibald",
        "col1": "Paisley, Renfrewshire",
        "col2": "Illinois Fighting Illini men's basketball",
        "col3": "Memphis Grizzlies"
    },
    {
        "col0": "R. Hummel",
        "col1": "Valparaiso, Indiana",
        "col2": "Purdue Boilermakers men's basketball",
        "col3": "Minnesota Timberwolves"
    },
    {
        "col0": "R. Williams",
        "col1": "Houston",
        "col2": "Houston Cougars men's basketball",
        "col3": "Denver Nuggets"
    },
    {
        "col0": "R. Lock",
        "col1": "Reedley, California",
        "col2": "Kentucky Wildcats men's basketball",
        "col3": "Los Angeles Clippers"
    },
    {
        "col0": "R. Williams",
        "col1": "Norwalk, Connecticut",
        "col2": "Connecticut Huskies women's basketball",
        "col3": "Washington Mystics"
    },
    {
        "col0": "R. Williams",
        "col1": "Pahokee, Florida",
        "col2": "Miami Hurricanes women's basketball",
        "col3": "Tulsa Shock"
    },
    {
        "col0": "R. Smits",
        "col1": "Eindhoven",
        "col2": "Marist Red Foxes men's basketball",
        "col3": "Indiana Pacers"
    },
    {
        "col0": "R. Hill",
        "col1": "Oceanside, California",
        "col2": "Illinois State Redbirds men's basketball",
        "col3": "Los Angeles Clippers"
    },
    {
        "col0": "R. Wilson",
        "col1": "Hampton, Virginia",
        "col2": "George Mason Patriots men's basketball",
        "col3": "Chicago Bulls"
    },
    {
        "col0": "R. Sobers",
        "col1": "The Bronx",
        "col2": "College of Southern Idaho",
        "col3": "Phoenix Suns"
    },
    {
        "col0": "R. Pierce",
        "col1": "Dallas",
        "col2": "Rice Owls men's basketball",
        "col3": "Detroit Pistons"
    },
    {
        "col0": "R. Minard",
        "col1": "Mansfield, Ohio",
        "col2": "Morehead State Eagles men's basketball",
        "col3": "Sacramento Kings"
    },
    {
        "col0": "R. Marsh",
        "col1": "New York City",
        "col2": "Manhattan Jaspers basketball",
        "col3": "Golden State Warriors"
    },
    {
        "col0": "R. Grace",
        "col1": "Dallas",
        "col2": "Midland College",
        "col3": "Utah Jazz"
    },
    {
        "col0": "R. Frazier",
        "col1": "Charleston, Missouri",
        "col2": "Missouri Tigers men's basketball",
        "col3": "Chicago Bulls"
    },
    {
        "col0": "R. Davis",
        "col1": "Nevada",
        "col2": "Iowa Hawkeyes men's basketball",
        "col3": "Charlotte Hornets"
    },
    {
        "col0": "R. Blanton",
        "col1": "Florida",
        "col2": "LSU Tigers basketball",
        "col3": "Phoenix Suns"
    },
    {
        "col0": "R. Berry",
        "col1": "Lansing, Michigan",
        "col2": "San Jose State Spartans",
        "col3": "Sacramento Kings"
    },
    {
        "col0": "R. Winslow",
        "col1": "Houston",
        "col2": "Houston Cougars men's basketball",
        "col3": "Chicago Bulls"
    },
    {
        "col0": "R. Williams",
        "col1": "Buffalo, New York",
        "col2": "New Mexico Lobos men's basketball",
        "col3": "New Orleans Jazz"
    },
    {
        "col0": "R. Paulding",
        "col1": "Detroit",
        "col2": "Missouri Tigers men's basketball",
        "col3": "Detroit Pistons"
    },
    {
        "col0": "R. Green",
        "col1": "Chicago",
        "col2": "Michigan Wolverines men's basketball",
        "col3": "Golden State Warriors"
    },
    {
        "col0": "R. Brown",
        "col1": "Madison County, Mississippi",
        "col2": "Mississippi State Bulldogs men's basketball",
        "col3": "Golden State Warriors"
    },
    {
        "col0": "R. Wilson",
        "col1": "Louisville, Kentucky",
        "col2": "Louisville Cardinals men's basketball",
        "col3": "Atlanta Hawks"
    },
    {
        "col0": "R. Weitzman",
        "col1": "Brookline, Massachusetts",
        "col2": "Northeastern Huskies men's basketball",
        "col3": "Boston Celtics"
    },
    {
        "col0": "R. Robey",
        "col1": "Coral Gables, Florida",
        "col2": "Kentucky Wildcats men's basketball",
        "col3": "Indiana Pacers"
    },
    {
        "col0": "R. Roberson",
        "col1": "Memphis, Tennessee",
        "col2": "Cincinnati Bearcats men's basketball",
        "col3": "Los Angeles Lakers"
    },
    {
        "col0": "R. Rickert",
        "col1": "Duluth, Minnesota",
        "col2": "Minnesota Golden Gophers men's basketball",
        "col3": "Minnesota Timberwolves"
    },
    {
        "col0": "R. Mount",
        "col1": "Lebanon, Indiana",
        "col2": "Purdue Boilermakers men's basketball",
        "col3": "Los Angeles Lakers"
    },
    {
        "col0": "R. Mahorn",
        "col1": "Hartford, Connecticut",
        "col2": "Hampton Pirates men's basketball",
        "col3": "Washington Bullets"
    },
    {
        "col0": "R. Fox",
        "col1": "Toronto",
        "col2": "North Carolina Tar Heels men's basketball",
        "col3": "Boston Celtics"
    },
    {
        "col0": "R. Carlisle",
        "col1": "Ogdensburg, New York",
        "col2": "Virginia Cavaliers men's basketball",
        "col3": "Boston Celtics"
    },
    {
        "col0": "R. Barry",
        "col1": "Elizabeth, New Jersey",
        "col2": "Miami Hurricanes men's basketball",
        "col3": "San Francisco Warriors"
    },
    {
        "col0": "R. Adelman",
        "col1": "Lynwood, California",
        "col2": "Loyola Marymount Lions men's basketball",
        "col3": "San Diego Rockets"
    },
    {
        "col0": "R. Regan",
        "col1": "Newark, New Jersey",
        "col2": "Seton Hall Pirates men's basketball",
        "col3": "Rochester Royals"
    },
    {
        "col0": "R. Guerin",
        "col1": "Bronx, New York",
        "col2": "Iona Gaels men's basketball",
        "col3": "New York Knicks"
    },
    {
        "col0": "R. Holmes",
        "col1": "Lockport, Illinois",
        "col2": "Moraine Valley Community College",
        "col3": "Philadelphia 76ers"
    },
    {
        "col0": "R. Washington",
        "col1": "Portland, Oregon",
        "col2": "UCLA Bruins men's basketball",
        "col3": "Kansas City Kings"
    },
    {
        "col0": "R. Rinaldi",
        "col1": "Poughkeepsie, New York",
        "col2": "Saint Peter's Peacocks basketball",
        "col3": "Baltimore Bullets"
    },
    {
        "col0": "R. Rellford",
        "col1": "Riviera Beach, Florida",
        "col2": "Michigan Wolverines men's basketball",
        "col3": "Indiana Pacers"
    },
    {
        "col0": "R. PetruA!ka",
        "col1": "Czechoslovakia",
        "col2": "UCLA Bruins men's basketball",
        "col3": "Houston Rockets"
    },
    {
        "col0": "R. Jefferson",
        "col1": "Los Angeles",
        "col2": "Arizona Wildcats men's basketball",
        "col3": "Houston Rockets"
    },
    {
        "col0": "R. Hendrix",
        "col1": "Decatur, Alabama",
        "col2": "Alabama Crimson Tide men's basketball",
        "col3": "Golden State Warriors"
    },
    {
        "col0": "R. Hamilton",
        "col1": "Coatesville, Pennsylvania",
        "col2": "Connecticut Huskies men's basketball",
        "col3": "Washington Wizards"
    },
    {
        "col0": "R. Dumas",
        "col1": "Tulsa, Oklahoma",
        "col2": "Oklahoma State Cowboys basketball",
        "col3": "Phoenix Suns"
    },
    {
        "col0": "R. Atha",
        "col1": "Lafayette, Indiana",
        "col2": "Indiana State Sycamores men's basketball",
        "col3": "New York Knicks"
    }
]