[
    {
        "col0": "2004 Cannes Film Festival",
        "col1": "De-Lovely",
        "col2": "Bad Education",
        "col3": "2004-05-12"
    },
    {
        "col0": "2003 Toronto International Film Festival",
        "col1": "Danny Deckchair",
        "col2": "The Barbarian Invasions",
        "col3": "2003-09-04"
    },
    {
        "col0": "2003 Cannes Film Festival",
        "col1": "Charlie: The Life and Art of Charles Chaplin",
        "col2": "Fanfan la Tulipe",
        "col3": "2003-05-14"
    },
    {
        "col0": "2002 Toronto International Film Festival",
        "col1": "Femme Fatale",
        "col2": "Ararat",
        "col3": "2002-09-05"
    },
    {
        "col0": "2002 Cannes Film Festival",
        "col1": "And Now... Ladies and Gentlemen",
        "col2": "Hollywood Ending",
        "col3": "2002-05-15"
    },
    {
        "col0": "2001 Cannes Film Festival",
        "col1": "Savage Souls",
        "col2": "Moulin Rouge!",
        "col3": "2001-05-14"
    },
    {
        "col0": "2000 Cannes Film Festival",
        "col1": "Stardom",
        "col2": "Vatel",
        "col3": "2000-05-14"
    },
    {
        "col0": "1999 Toronto International Film Festival",
        "col1": "Eugene Onegin",
        "col2": "Felicia's Journey",
        "col3": "1999-09-09"
    },
    {
        "col0": "1999 Cannes Film Festival",
        "col1": "An Ideal Husband",
        "col2": "The Barber of Siberia",
        "col3": "1999-05-12"
    },
    {
        "col0": "1998 Toronto International Film Festival",
        "col1": "Antz",
        "col2": "The Red Violin",
        "col3": "1998-09-10"
    },
    {
        "col0": "1998 Cannes Film Festival",
        "col1": "Godzilla",
        "col2": "Primary Colors",
        "col3": "1998-05-13"
    },
    {
        "col0": "1997 Toronto International Film Festival",
        "col1": "Jackie Brown",
        "col2": "The Sweet Hereafter",
        "col3": "1997-09-04"
    },
    {
        "col0": "1997 Cannes Film Festival",
        "col1": "Absolute Power",
        "col2": "The Fifth Element",
        "col3": "1997-05-07"
    },
    {
        "col0": "1996 Cannes Film Festival",
        "col1": "Flirting with Disaster",
        "col2": "Ridicule",
        "col3": "1996-05-09"
    },
    {
        "col0": "1995 Toronto International Film Festival",
        "col1": "Devil in a Blue Dress",
        "col2": "The Confessional",
        "col3": "1995-09-07"
    },
    {
        "col0": "1995 Cannes Film Festival",
        "col1": "The Quick and the Dead",
        "col2": "The City of Lost Children",
        "col3": "1995-05-17"
    },
    {
        "col0": "1994 Cannes Film Festival",
        "col1": "Serial Mom",
        "col2": "The Hudsucker Proxy",
        "col3": "1994-05-12"
    },
    {
        "col0": "1992 Cannes Film Festival",
        "col1": "Far and Away",
        "col2": "Basic Instinct",
        "col3": "1992-05-07"
    },
    {
        "col0": "1991 Cannes Film Festival",
        "col1": "Thelma & Louise",
        "col2": "Homicide",
        "col3": "1991-05-09"
    },
    {
        "col0": "1990 Cannes Film Festival",
        "col1": "The Comfort of Strangers",
        "col2": "Dreams",
        "col3": "1990-05-10"
    }
]