[
    {
        "col0": "Ambitle",
        "col1": "Papua New Guinea",
        "col2": "Papua New Guinea",
        "col3": "-350"
    },
    {
        "col0": "Ambang",
        "col1": "Dutch East Indies",
        "col2": "Dutch East Indies",
        "col3": "1850"
    },
    {
        "col0": "Amak Volcano",
        "col1": "Alaska",
        "col2": "Alaska",
        "col3": "1796"
    },
    {
        "col0": "Alney-Chashakondzha",
        "col1": "Kamchatka Peninsula",
        "col2": "Kamchatka Peninsula",
        "col3": "1600"
    },
    {
        "col0": "Almolonga",
        "col1": "Guatemala",
        "col2": "Guatemala",
        "col3": "1818"
    },
    {
        "col0": "Alcedo Volcano",
        "col1": "Ecuador",
        "col2": "Ecuador",
        "col3": "1993"
    },
    {
        "col0": "Alban Hills",
        "col1": "Italy",
        "col2": "Italy",
        "col3": "5"
    },
    {
        "col0": "Akita-Yake-Yama",
        "col1": "Akita Prefecture",
        "col2": "Akita Prefecture",
        "col3": "1997"
    },
    {
        "col0": "Akademia Nauk",
        "col1": "Kamchatka Peninsula",
        "col2": "Kamchatka Peninsula",
        "col3": "1996"
    },
    {
        "col0": "Aira Caldera",
        "col1": "Japan",
        "col2": "Japan",
        "col3": "22"
    },
    {
        "col0": "Aguilera",
        "col1": "Chile",
        "col2": "Chile",
        "col3": "-1250"
    },
    {
        "col0": "Agua Poca",
        "col1": "Argentina",
        "col2": "Argentina",
        "col3": "600"
    },
    {
        "col0": "Afdera",
        "col1": "Ethiopia",
        "col2": "Ethiopia",
        "col3": "1907"
    },
    {
        "col0": "Aden Crater",
        "col1": "New Mexico",
        "col2": "New Mexico",
        "col3": "16"
    },
    {
        "col0": "Acigol-Nevsehir",
        "col1": "Turkey",
        "col2": "Turkey",
        "col3": "-2080"
    },
    {
        "col0": "Acatenango",
        "col1": "Guatemala",
        "col2": "Guatemala",
        "col3": "1972"
    },
    {
        "col0": "Acigol-Nevsehir",
        "col1": "Turkey",
        "col2": "Turkey",
        "col3": "-2080"
    },
    {
        "col0": "Abu",
        "col1": "Honshu",
        "col2": "Honshu",
        "col3": "-6850"
    },
    {
        "col0": "2010 eruptions of Mount Merapi",
        "col1": "Yogyakarta",
        "col2": "Yogyakarta",
        "col3": "2014"
    },
    {
        "col0": "Oraefajokull",
        "col1": "Iceland",
        "col2": "Iceland",
        "col3": "1727"
    }
]