[
    {
        "col0": "Winters Lane Historic District",
        "col1": "1867",
        "col2": "2007-12-21",
        "col3": "7001285"
    },
    {
        "col0": "Winters House",
        "col1": "1890",
        "col2": "1999-01-25",
        "col3": "98001634"
    },
    {
        "col0": "Winters-Wimberley House",
        "col1": "1856",
        "col2": "2002-05-22",
        "col3": "2000527"
    },
    {
        "col0": "Winterport Congregational Church",
        "col1": "1831",
        "col2": "1973-04-24",
        "col3": "73000151"
    },
    {
        "col0": "Winterham",
        "col1": "1855",
        "col2": "2002-10-15",
        "col3": "2001183"
    },
    {
        "col0": "Wintergreen County Store",
        "col1": "1908",
        "col2": "2005-11-09",
        "col3": "5001233"
    },
    {
        "col0": "Winter Street Historic District",
        "col1": "1873",
        "col2": "1982-04-13",
        "col3": "82001986"
    },
    {
        "col0": "Winter Street Church",
        "col1": "1843",
        "col2": "1971-07-27",
        "col3": "71000044"
    },
    {
        "col0": "Winter Saloon",
        "col1": "1890",
        "col2": "1980-01-04",
        "col3": "80001979"
    },
    {
        "col0": "Winter Quarters State Historic Site",
        "col1": "1803",
        "col2": "1978-11-21",
        "col3": "78001437"
    },
    {
        "col0": "Winter Inn",
        "col1": "1902",
        "col2": "1980-04-17",
        "col3": "80001883"
    },
    {
        "col0": "Winston Tower",
        "col1": "1963",
        "col2": "2001-04-19",
        "col3": "1000376"
    },
    {
        "col0": "Winston Place",
        "col1": "1838",
        "col2": "1987-03-19",
        "col3": "87000476"
    },
    {
        "col0": "Winston County Courthouse",
        "col1": "1894",
        "col2": "1987-08-27",
        "col3": "87001416"
    },
    {
        "col0": "Winston-Salem Tobacco Historic District",
        "col1": "1890",
        "col2": "2009-08-05",
        "col3": "9000602"
    },
    {
        "col0": "Winston-Salem Southbound Railway Freight Warehouse and Office",
        "col1": "1913",
        "col2": "1991-11-29",
        "col3": "91001747"
    },
    {
        "col0": "Winston-Salem City Hall",
        "col1": "1926",
        "col2": "2001-10-20",
        "col3": "1001130"
    },
    {
        "col0": "Winsted",
        "col1": "1805",
        "col2": "1979-09-19",
        "col3": "79003266"
    },
    {
        "col0": "Winstead House",
        "col1": "1870",
        "col2": "1979-04-18",
        "col3": "79002486"
    },
    {
        "col0": "Winstead Hill",
        "col1": "1864",
        "col2": "1974-11-29",
        "col3": "74001930"
    },
    {
        "col0": "Winsor Building",
        "col1": "1904",
        "col2": "1979-09-13",
        "col3": "79001513"
    },
    {
        "col0": "Winsor-Swan-Whitman Farm",
        "col1": "1750",
        "col2": "1974-05-01",
        "col3": "74000006"
    },
    {
        "col0": "Winslow House",
        "col1": "1893",
        "col2": "1970-04-17",
        "col3": "70000242"
    },
    {
        "col0": "Winslow Homer Studio",
        "col1": "1884",
        "col2": "1966-10-15",
        "col3": "66000092"
    },
    {
        "col0": "Winslow Congregational Church",
        "col1": "1897",
        "col2": "1984-07-05",
        "col3": "84002288"
    },
    {
        "col0": "Winslow Chemical Laboratory",
        "col1": "1866",
        "col2": "1994-11-04",
        "col3": "94001284"
    },
    {
        "col0": "Winslow Ames House",
        "col1": "1933",
        "col2": "1995-03-23",
        "col3": "95000283"
    },
    {
        "col0": "Winslow-Turner Carriage House",
        "col1": "1876",
        "col2": "1982-11-12",
        "col3": "82001114"
    },
    {
        "col0": "Winslow-Haskell Mansion",
        "col1": "1870",
        "col2": "1979-10-25",
        "col3": "79000362"
    },
    {
        "col0": "Winooski Street Bridge",
        "col1": "1928",
        "col2": "2006-08-09",
        "col3": "6000703"
    },
    {
        "col0": "Winona Masonic Temple",
        "col1": "1908",
        "col2": "1998-02-26",
        "col3": "98000152"
    },
    {
        "col0": "Winona Lake Historic District",
        "col1": "1887",
        "col2": "1993-12-10",
        "col3": "93001411"
    },
    {
        "col0": "Winona Hotel",
        "col1": "1889",
        "col2": "1983-03-31",
        "col3": "83000947"
    },
    {
        "col0": "Winona County Courthouse",
        "col1": "1889",
        "col2": "1970-12-02",
        "col3": "70000313"
    },
    {
        "col0": "Winona Church and School",
        "col1": "1893",
        "col2": "1991-06-05",
        "col3": "91000688"
    },
    {
        "col0": "Winona",
        "col1": "1681",
        "col2": "1969-10-01",
        "col3": "69000264"
    },
    {
        "col0": "Winona",
        "col1": "1909",
        "col2": "2001-07-05",
        "col3": "1000702"
    },
    {
        "col0": "Winnsboro Historic District",
        "col1": "1785",
        "col2": "1971-10-14",
        "col3": "71000780"
    },
    {
        "col0": "Winnona Park Historic District",
        "col1": "1923",
        "col2": "2002-05-30",
        "col3": "2000565"
    },
    {
        "col0": "Winnifred Street Bridge",
        "col1": "1941",
        "col2": "1995-03-28",
        "col3": "95000259"
    },
    {
        "col0": "Winnie Davis Hall",
        "col1": "1904",
        "col2": "1977-04-29",
        "col3": "77001219"
    },
    {
        "col0": "Winnibigoshish Lake Dam",
        "col1": "1899",
        "col2": "1982-05-11",
        "col3": "82004629"
    },
    {
        "col0": "Winnemucca Main Post Office",
        "col1": "1921",
        "col2": "1990-02-28",
        "col3": "90000137"
    },
    {
        "col0": "Winnemucca Hotel",
        "col1": "1863",
        "col2": "2005-05-26",
        "col3": "5000471"
    },
    {
        "col0": "Winnemucca Grammar School",
        "col1": "1927",
        "col2": "1991-11-14",
        "col3": "91001654"
    },
    {
        "col0": "Winnebago County Courthouse",
        "col1": "1894",
        "col2": "1981-07-02",
        "col3": "81000275"
    },
    {
        "col0": "Winn Road School",
        "col1": "1846",
        "col2": "1984-03-22",
        "col3": "84001364"
    },
    {
        "col0": "Winn Memorial Library",
        "col1": "1879",
        "col2": "1976-11-13",
        "col3": "76000290"
    },
    {
        "col0": "Winn Farm",
        "col1": "1820",
        "col2": "1985-04-18",
        "col3": "85001051"
    },
    {
        "col0": "Winks Panorama",
        "col1": "1925",
        "col2": "1980-03-28",
        "col3": "80000901"
    },
    {
        "col0": "Winkelman Bridge",
        "col1": "1916",
        "col2": "1988-09-30",
        "col3": "88001649"
    },
    {
        "col0": "Wingspread",
        "col1": "1937",
        "col2": "1975-01-08",
        "col3": "75000076"
    },
    {
        "col0": "Wingmead",
        "col1": "1939",
        "col2": "2011-05-23",
        "col3": "11000302"
    },
    {
        "col0": "Wingate Commercial Historic District",
        "col1": "1888",
        "col2": "2014-12-01",
        "col3": "14000992"
    },
    {
        "col0": "Wing Park Golf Course",
        "col1": "1908",
        "col2": "2009-02-18",
        "col3": "9000027"
    },
    {
        "col0": "Wing Hall",
        "col1": "1912",
        "col2": "1984-09-24",
        "col3": "84003204"
    },
    {
        "col0": "Wing Fort House",
        "col1": "1641",
        "col2": "1976-06-03",
        "col3": "76000227"
    },
    {
        "col0": "Wing Family Cemetery",
        "col1": "1867",
        "col2": "1991-10-16",
        "col3": "91001514"
    },
    {
        "col0": "Wing-Northup House",
        "col1": "1815",
        "col2": "2008-09-12",
        "col3": "8000862"
    },
    {
        "col0": "Wing's Neck Light",
        "col1": "1849",
        "col2": "1987-06-15",
        "col3": "87001503"
    },
    {
        "col0": "Winfield Toll Bridge",
        "col1": "1955",
        "col2": "2011-12-15",
        "col3": "11000931"
    },
    {
        "col0": "Winfield Smouse House",
        "col1": "1916",
        "col2": "1983-01-27",
        "col3": "83000409"
    },
    {
        "col0": "Winfield Methodist Church",
        "col1": "1921",
        "col2": "1982-12-22",
        "col3": "82000935"
    },
    {
        "col0": "Winfield House",
        "col1": "1880",
        "col2": "1989-09-20",
        "col3": "89001347"
    },
    {
        "col0": "Winfield Corners Stone House",
        "col1": "1732",
        "col2": "1999-08-12",
        "col3": "99000993"
    },
    {
        "col0": "Winfall Historic District",
        "col1": "1881",
        "col2": "2003-01-15",
        "col3": "2001715"
    },
    {
        "col0": "Winehaven, California",
        "col1": "1907",
        "col2": "1978-10-02",
        "col3": "78000658"
    },
    {
        "col0": "Windy Run Grade School",
        "col1": "1889",
        "col2": "1984-01-12",
        "col3": "84003518"
    },
    {
        "col0": "Windswept Farm",
        "col1": "1823",
        "col2": "1989-09-07",
        "col3": "89001390"
    },
    {
        "col0": "Windswept Acres-Powers House",
        "col1": "1800",
        "col2": "1985-06-21",
        "col3": "85001325"
    },
    {
        "col0": "Windswept",
        "col1": "1936",
        "col2": "2007-05-08",
        "col3": "7000411"
    },
    {
        "col0": "Windsor W. Calkins House",
        "col1": "1902",
        "col2": "1981-12-09",
        "col3": "81000498"
    },
    {
        "col0": "Windsor Village Historic District",
        "col1": "1810",
        "col2": "1980-07-30",
        "col3": "80002593"
    },
    {
        "col0": "Windsor Shades",
        "col1": "1785",
        "col2": "1978-05-22",
        "col3": "78003025"
    },
    {
        "col0": "Windsor Ruins",
        "col1": "1859",
        "col2": "1971-11-23",
        "col3": "71000447"
    },
    {
        "col0": "Windsor Print Works",
        "col1": "1872",
        "col2": "1973-05-17",
        "col3": "73000296"
    },
    {
        "col0": "Windsor Plantation",
        "col1": "1857",
        "col2": "1974-07-23",
        "col3": "74001837"
    },
    {
        "col0": "Windsor Mills Christ Church Episcopal",
        "col1": "1832",
        "col2": "1975-05-29",
        "col3": "75001319"
    },
    {
        "col0": "Windsor House",
        "col1": "1836",
        "col2": "1971-12-29",
        "col3": "71000060"
    },
    {
        "col0": "Windsor Historic District",
        "col1": "1768",
        "col2": "1991-07-29",
        "col3": "86003146"
    },
    {
        "col0": "Windsor Harbor Road Bridge",
        "col1": "1874",
        "col2": "1983-09-08",
        "col3": "83001024"
    },
    {
        "col0": "Windsor Forge Mansion",
        "col1": "1742",
        "col2": "1990-01-04",
        "col3": "89002283"
    },
    {
        "col0": "Windsor Cotton Mills Office",
        "col1": "1890",
        "col2": "1984-05-31",
        "col3": "84001930"
    },
    {
        "col0": "Windsor Castle",
        "col1": "1760",
        "col2": "1987-12-14",
        "col3": "87002149"
    },
    {
        "col0": "Windsor Castle",
        "col1": "1750",
        "col2": "2000-08-02",
        "col3": "897"
    },
    {
        "col0": "Windsor Avenue Congregational Church",
        "col1": "1871",
        "col2": "1993-04-03",
        "col3": "93000174"
    },
    {
        "col0": "Windsor",
        "col1": "1862",
        "col2": "1980-07-30",
        "col3": "80004211"
    },
    {
        "col0": "Windom Mill Farm",
        "col1": "1780",
        "col2": "1994-08-30",
        "col3": "94001062"
    },
    {
        "col0": "Windmill at Water Mill",
        "col1": "1800",
        "col2": "1978-12-27",
        "col3": "78001919"
    },
    {
        "col0": "Windmill Quaker State",
        "col1": "1928",
        "col2": "1982-10-08",
        "col3": "82001795"
    },
    {
        "col0": "Windmill Hill",
        "col1": "1934",
        "col2": "1983-12-18",
        "col3": "83004087"
    },
    {
        "col0": "Windmill Cottage",
        "col1": "1790",
        "col2": "1973-05-22",
        "col3": "73000051"
    },
    {
        "col0": "Windham Village Historic District",
        "col1": "1785",
        "col2": "1984-11-01",
        "col3": "84000428"
    },
    {
        "col0": "Windham Center Historic District",
        "col1": "1750",
        "col2": "1979-06-04",
        "col3": "79002655"
    },
    {
        "col0": "Windfall Harbor Shelter Cabin",
        "col1": "1936",
        "col2": "1995-11-02",
        "col3": "95001299"
    },
    {
        "col0": "Windermere Town Hall",
        "col1": "1922",
        "col2": "1994-06-03",
        "col3": "94000539"
    },
    {
        "col0": "Windermere",
        "col1": "1891",
        "col2": "1979-11-14",
        "col3": "79000195"
    },
    {
        "col0": "Winder Building",
        "col1": "1848",
        "col2": "1969-03-24",
        "col3": "69000303"
    },
    {
        "col0": "Windego Park Auditorium/Open Air Theater",
        "col1": "1914",
        "col2": "1980-01-08",
        "col3": "80001934"
    },
    {
        "col0": "Windber Historic District",
        "col1": "1897",
        "col2": "1991-11-14",
        "col3": "91001705"
    },
    {
        "col0": "Wind Cave National Park Administrative and Utility Area Historic District",
        "col1": "1905",
        "col2": "1984-07-11",
        "col3": "84003259"
    },
    {
        "col0": "Winchester Town Hall",
        "col1": "1911",
        "col2": "1987-08-27",
        "col3": "87001419"
    },
    {
        "col0": "Winchester Town Hall",
        "col1": "1887",
        "col2": "1983-03-31",
        "col3": "83000837"
    },
    {
        "col0": "Winchester Square Historic District",
        "col1": "1875",
        "col2": "1979-05-10",
        "col3": "79000350"
    },
    {
        "col0": "Winchester Savings Bank",
        "col1": "1892",
        "col2": "1979-06-19",
        "col3": "79000361"
    },
    {
        "col0": "Winchester Residential Historic District",
        "col1": "1837",
        "col2": "2011-03-21",
        "col3": "11000123"
    },
    {
        "col0": "Winchester Repeating Arms Company Historic District",
        "col1": "1912",
        "col2": "1988-01-28",
        "col3": "87002552"
    },
    {
        "col0": "Winchester Mystery House",
        "col1": "1884",
        "col2": "1974-08-07",
        "col3": "74000559"
    },
    {
        "col0": "Winchester Mountain Lookout",
        "col1": "1935",
        "col2": "1987-07-14",
        "col3": "87001188"
    }
]