[
    {
        "col0": "SM U-20",
        "col1": "1910-11-25",
        "col2": "6",
        "col3": "1913-08-05"
    },
    {
        "col0": "SM U-20",
        "col1": "1915-03-27",
        "col2": "3",
        "col3": "1917-10-20"
    },
    {
        "col0": "SM U-1",
        "col1": "1904-12-03",
        "col2": "3",
        "col3": "1906-12-14"
    },
    {
        "col0": "SM U-1",
        "col1": "1906-11-24",
        "col2": "4",
        "col3": "1911-04-15"
    },
    {
        "col0": "SM U-19",
        "col1": "1910-11-25",
        "col2": "6",
        "col3": "1913-07-06"
    },
    {
        "col0": "SM U-18",
        "col1": "1910-05-06",
        "col2": "6",
        "col3": "1912-11-17"
    },
    {
        "col0": "SM U-17",
        "col1": "1915-04-01",
        "col2": "3",
        "col3": "1915-10-06"
    },
    {
        "col0": "SM U-16",
        "col1": "1909-08-26",
        "col2": "6",
        "col3": "1911-12-28"
    },
    {
        "col0": "SM U-16",
        "col1": "1915-04-01",
        "col2": "3",
        "col3": "1915-10-06"
    },
    {
        "col0": "SM U-167",
        "col1": "1917-06-27",
        "col2": "4",
        "col3": "1919-04-18"
    },
    {
        "col0": "SM U-166",
        "col1": "1917-06-27",
        "col2": "4",
        "col3": "1919-03-21"
    },
    {
        "col0": "SM U-165",
        "col1": "1917-06-27",
        "col2": "4",
        "col3": "1918-11-06"
    },
    {
        "col0": "SM U-163",
        "col1": "1917-02-09",
        "col2": "4",
        "col3": "1918-08-21"
    },
    {
        "col0": "SM U-162",
        "col1": "1917-02-09",
        "col2": "4",
        "col3": "1918-07-31"
    },
    {
        "col0": "SM U-161",
        "col1": "1917-02-09",
        "col2": "4",
        "col3": "1918-06-29"
    },
    {
        "col0": "SM U-160",
        "col1": "1917-02-09",
        "col2": "4",
        "col3": "1918-05-26"
    },
    {
        "col0": "SM U-15",
        "col1": "1909-02-23",
        "col2": "6",
        "col3": "1912-07-07"
    },
    {
        "col0": "SM U-157",
        "col1": "1916-11-29",
        "col2": "5",
        "col3": "1917-09-22"
    },
    {
        "col0": "SM U-156",
        "col1": "1916-11-29",
        "col2": "5",
        "col3": "1917-08-22"
    },
    {
        "col0": "SM U-154",
        "col1": "1916-11-29",
        "col2": "5",
        "col3": "1917-12-12"
    },
    {
        "col0": "SM U-153",
        "col1": "1916-11-29",
        "col2": "5",
        "col3": "1917-11-17"
    },
    {
        "col0": "SM U-152",
        "col1": "1916-11-29",
        "col2": "5",
        "col3": "1917-10-17"
    },
    {
        "col0": "SM U-151",
        "col1": "1916-11-29",
        "col2": "5",
        "col3": "1917-07-21"
    },
    {
        "col0": "SM U-14",
        "col1": "1909-02-23",
        "col2": "6",
        "col3": "1912-04-24"
    },
    {
        "col0": "SM U-142",
        "col1": "1916-11-29",
        "col2": "5",
        "col3": "1918-11-10"
    },
    {
        "col0": "SM U-141",
        "col1": "1916-08-01",
        "col2": "5",
        "col3": "1918-06-24"
    },
    {
        "col0": "SM U-140",
        "col1": "1916-08-01",
        "col2": "5",
        "col3": "1918-03-28"
    },
    {
        "col0": "SM U-139",
        "col1": "1916-08-01",
        "col2": "5",
        "col3": "1918-05-18"
    },
    {
        "col0": "SM U-138",
        "col1": "1916-05-27",
        "col2": "4",
        "col3": "1918-03-26"
    },
    {
        "col0": "SM U-137",
        "col1": "1916-05-27",
        "col2": "4",
        "col3": "1918-01-08"
    },
    {
        "col0": "SM U-136",
        "col1": "1916-05-27",
        "col2": "4",
        "col3": "1918-08-15"
    },
    {
        "col0": "SM U-135",
        "col1": "1916-05-27",
        "col2": "4",
        "col3": "1918-06-20"
    },
    {
        "col0": "SM U-13",
        "col1": "1909-02-23",
        "col2": "6",
        "col3": "1912-04-25"
    },
    {
        "col0": "SM U-12",
        "col1": "1908-07-15",
        "col2": "6",
        "col3": "1911-08-13"
    },
    {
        "col0": "SM U-126",
        "col1": "1916-05-27",
        "col2": "7",
        "col3": "1918-10-07"
    },
    {
        "col0": "SM U-125",
        "col1": "1916-05-27",
        "col2": "7",
        "col3": "1918-09-04"
    },
    {
        "col0": "SM U-124",
        "col1": "1916-05-27",
        "col2": "7",
        "col3": "1918-07-12"
    },
    {
        "col0": "SM U-123",
        "col1": "1916-05-27",
        "col2": "7",
        "col3": "1918-07-20"
    },
    {
        "col0": "SM U-122",
        "col1": "1916-05-27",
        "col2": "7",
        "col3": "1918-05-04"
    },
    {
        "col0": "SM U-120",
        "col1": "1916-05-27",
        "col2": "7",
        "col3": "1918-08-31"
    },
    {
        "col0": "SM U-11",
        "col1": "1908-07-15",
        "col2": "6",
        "col3": "1910-09-21"
    },
    {
        "col0": "SM U-11",
        "col1": "1914-10-15",
        "col2": "3",
        "col3": "1915-04-11"
    },
    {
        "col0": "SM U-119",
        "col1": "1916-05-27",
        "col2": "7",
        "col3": "1918-06-20"
    },
    {
        "col0": "SM U-118",
        "col1": "1916-05-27",
        "col2": "7",
        "col3": "1918-05-08"
    },
    {
        "col0": "SM U-114",
        "col1": "1916-05-05",
        "col2": "4",
        "col3": "1918-06-19"
    },
    {
        "col0": "SM U-113",
        "col1": "1916-05-05",
        "col2": "4",
        "col3": "1918-02-23"
    },
    {
        "col0": "SM U-112",
        "col1": "1916-05-05",
        "col2": "4",
        "col3": "1918-06-30"
    },
    {
        "col0": "SM U-111",
        "col1": "1916-05-05",
        "col2": "4",
        "col3": "1917-12-30"
    },
    {
        "col0": "SM U-110",
        "col1": "1916-05-05",
        "col2": "4",
        "col3": "1917-09-25"
    },
    {
        "col0": "SM U-10",
        "col1": "1908-07-15",
        "col2": "6",
        "col3": "1911-08-31"
    },
    {
        "col0": "SM U-109",
        "col1": "1916-05-05",
        "col2": "4",
        "col3": "1917-11-07"
    },
    {
        "col0": "SM U-108",
        "col1": "1916-05-05",
        "col2": "4",
        "col3": "1917-12-05"
    },
    {
        "col0": "SM U-107",
        "col1": "1916-05-05",
        "col2": "4",
        "col3": "1917-08-18"
    },
    {
        "col0": "SM U-106",
        "col1": "1916-05-05",
        "col2": "4",
        "col3": "1917-07-28"
    },
    {
        "col0": "SM U-105",
        "col1": "1916-05-05",
        "col2": "4",
        "col3": "1917-07-04"
    },
    {
        "col0": "SM U-104",
        "col1": "1915-09-15",
        "col2": "4",
        "col3": "1917-08-12"
    },
    {
        "col0": "SM U-103",
        "col1": "1915-09-15",
        "col2": "4",
        "col3": "1917-07-15"
    },
    {
        "col0": "SM U-102",
        "col1": "1915-09-15",
        "col2": "4",
        "col3": "1917-06-18"
    },
    {
        "col0": "SM U-101",
        "col1": "1915-09-15",
        "col2": "4",
        "col3": "1917-05-15"
    },
    {
        "col0": "SM U-100",
        "col1": "1915-09-15",
        "col2": "4",
        "col3": "1917-04-16"
    },
    {
        "col0": "SMS Von der Tann",
        "col1": "1907-09-26",
        "col2": "26",
        "col3": "1910-09-01"
    },
    {
        "col0": "SMS Seydlitz",
        "col1": "1910-03-21",
        "col2": "28",
        "col3": "1913-05-22"
    },
    {
        "col0": "SMS Schleswig-Holstein",
        "col1": "1904-06-11",
        "col2": "22",
        "col3": "1908-07-06"
    },
    {
        "col0": "SMS Moltke",
        "col1": "1908-09-17",
        "col2": "30",
        "col3": "1911-08-30"
    },
    {
        "col0": "SMS Goeben",
        "col1": "1909-04-08",
        "col2": "30",
        "col3": "1912-07-02"
    },
    {
        "col0": "SLNS Gajabahu",
        "col1": "1943-02-01",
        "col2": "11",
        "col3": "1944-08-08"
    },
    {
        "col0": "SAS Spioenkop",
        "col1": "1999-12-03",
        "col2": "16",
        "col3": "2007-02-16"
    },
    {
        "col0": "SAS Mendi",
        "col1": "1999-12-03",
        "col2": "16",
        "col3": "2007-03-20"
    },
    {
        "col0": "SAS Isandlwana",
        "col1": "1999-12-03",
        "col2": "16",
        "col3": "2006-07-20"
    },
    {
        "col0": "SAS Assegaai",
        "col1": "1967-02-10",
        "col2": "6",
        "col3": "1971-08-21"
    },
    {
        "col0": "SAS Amatola",
        "col1": "1999-12-03",
        "col2": "16",
        "col3": "2006-02-16"
    },
    {
        "col0": "Russian yacht Livadia",
        "col1": "1879-09-05",
        "col2": "46",
        "col3": "1880-09-30"
    },
    {
        "col0": "Russian ironclad Pervenets",
        "col1": "1861-11-18",
        "col2": "16",
        "col3": "1864-07-28"
    },
    {
        "col0": "Russian ironclad Ne Tron Menia",
        "col1": "1862-03-31",
        "col2": "16",
        "col3": "1865-07-18"
    },
    {
        "col0": "Russian battleship Tsesarevich",
        "col1": "1898-07-20",
        "col2": "23",
        "col3": "1903-08-31"
    },
    {
        "col0": "Russian battleship Retvizan",
        "col1": "1898-05-02",
        "col2": "21",
        "col3": "1902-03-23"
    },
    {
        "col0": "Russian battleship Imperator Nikolai I",
        "col1": "1886-01-01",
        "col2": "20",
        "col3": "1905-06-06"
    },
    {
        "col0": "Russian aircraft carrier Admiral Kuznetsov",
        "col1": "1981-03-03",
        "col2": "35",
        "col3": "1990-12-25"
    },
    {
        "col0": "ROKS Dokdo",
        "col1": "2002-10-28",
        "col2": "31",
        "col3": "2007-07-03"
    },
    {
        "col0": "ROCS Cheng Kung",
        "col1": "1989-05-08",
        "col2": "14",
        "col3": "1993-05-07"
    },
    {
        "col0": "ROCS Cheng Ho",
        "col1": "1989-05-08",
        "col2": "14",
        "col3": "1994-03-28"
    },
    {
        "col0": "RFA Wave Sovereign",
        "col1": "1943-05-29",
        "col2": "19",
        "col3": "1946-02-28"
    },
    {
        "col0": "RFA Wave Ruler",
        "col1": "1997-03-12",
        "col2": "28",
        "col3": "2003-04-27"
    },
    {
        "col0": "RFA Wave Knight",
        "col1": "1997-03-12",
        "col2": "28",
        "col3": "2003-04-08"
    },
    {
        "col0": "RFA Wave Emperor",
        "col1": "1943-02-03",
        "col2": "19",
        "col3": "1944-12-20"
    },
    {
        "col0": "RFA Tidespring",
        "col1": "1961-02-28",
        "col2": "21",
        "col3": "1963-01-18"
    },
    {
        "col0": "RFA Tidepool",
        "col1": "1961-02-28",
        "col2": "21",
        "col3": "1963-06-28"
    },
    {
        "col0": "RFA Tarbatness",
        "col1": "1964-12-07",
        "col2": "21",
        "col3": "1967-08-10"
    },
    {
        "col0": "RFA Sir Galahad",
        "col1": "1984-09-06",
        "col2": "19",
        "col3": "1987-11-25"
    },
    {
        "col0": "RFA Sea Crusader",
        "col1": "1995-03-17",
        "col2": "25",
        "col3": "1996-10-10"
    },
    {
        "col0": "RFA Salviola",
        "col1": "1943-06-07",
        "col2": "11",
        "col3": "1945-07-25"
    },
    {
        "col0": "RFA Salvigil",
        "col1": "1943-06-07",
        "col2": "11",
        "col3": "1945-05-23"
    },
    {
        "col0": "RFA Salvictor",
        "col1": "1942-08-13",
        "col2": "11",
        "col3": "1944-03-31"
    },
    {
        "col0": "RFA Salvalour",
        "col1": "1943-04-17",
        "col2": "11",
        "col3": "1945-09-04"
    },
    {
        "col0": "RFA Rowenol",
        "col1": "1944-09-27",
        "col2": "11",
        "col3": "1946-08-21"
    },
    {
        "col0": "RFA Resource",
        "col1": "1963-01-24",
        "col2": "23",
        "col3": "1967-06-06"
    },
    {
        "col0": "RFA Regent",
        "col1": "1963-01-24",
        "col2": "23",
        "col3": "1967-05-16"
    },
    {
        "col0": "RFA Prince Salvor",
        "col1": "1941-12-25",
        "col2": "11",
        "col3": "1943-09-08"
    },
    {
        "col0": "RFA Olwen",
        "col1": "1963-02-04",
        "col2": "25",
        "col3": "1965-06-21"
    },
    {
        "col0": "RFA Ocean Salvor",
        "col1": "1942-05-22",
        "col2": "11",
        "col3": "1943-09-23"
    },
    {
        "col0": "RFA Oakol",
        "col1": "1944-09-27",
        "col2": "11",
        "col3": "1946-11-01"
    },
    {
        "col0": "RFA Nasprite",
        "col1": "1939-10-09",
        "col2": "10",
        "col3": "1941-02-11"
    },
    {
        "col0": "RFA Lyness",
        "col1": "1964-12-07",
        "col2": "21",
        "col3": "1966-12-22"
    },
    {
        "col0": "RFA King Salvor",
        "col1": "1941-01-10",
        "col2": "11",
        "col3": "1942-07-17"
    },
    {
        "col0": "RFA Gray Ranger",
        "col1": "1939-08-28",
        "col2": "14",
        "col3": "1941-09-25"
    },
    {
        "col0": "RFA Gold Ranger",
        "col1": "1939-08-28",
        "col2": "14",
        "col3": "1941-07-04"
    },
    {
        "col0": "RFA Fort Victoria",
        "col1": "1986-04-23",
        "col2": "30",
        "col3": "1994-06-24"
    },
    {
        "col0": "RFA Fort George",
        "col1": "1987-12-18",
        "col2": "30",
        "col3": "1993-07-16"
    },
    {
        "col0": "RFA Engadine",
        "col1": "1964-08-18",
        "col2": "17",
        "col3": "1967-12-15"
    },
    {
        "col0": "RFA Brown Ranger",
        "col1": "1939-08-28",
        "col2": "14",
        "col3": "1941-04-10"
    },
    {
        "col0": "RFA Blue Ranger",
        "col1": "1939-08-28",
        "col2": "14",
        "col3": "1941-06-05"
    },
    {
        "col0": "RFA Black Ranger",
        "col1": "1939-08-28",
        "col2": "14",
        "col3": "1941-01-27"
    },
    {
        "col0": "RFA Bacchus",
        "col1": "1935-12-17",
        "col2": "14",
        "col3": "1936-09-20"
    },
    {
        "col0": "RFA Airsprite",
        "col1": "1941-07-02",
        "col2": "10",
        "col3": "1943-02-16"
    },
    {
        "col0": "ORP Wicher",
        "col1": "1926-04-02",
        "col2": "10",
        "col3": "1930-07-08"
    },
    {
        "col0": "ORP Piorun",
        "col1": "1939-04-15",
        "col2": "10",
        "col3": "1940-11-04"
    },
    {
        "col0": "ORP Gryf",
        "col1": "1934-05-11",
        "col2": "13",
        "col3": "1938-02-27"
    },
    {
        "col0": "ORP General Tadeusz Kosciuszko",
        "col1": "1976-02-27",
        "col2": "13",
        "col3": "2000-06-25"
    },
    {
        "col0": "ORP General Kazimierz Pulaski",
        "col1": "1976-02-27",
        "col2": "13",
        "col3": "2000-06-25"
    },
    {
        "col0": "ORP General Tadeusz Kosciuszko",
        "col1": "1976-02-27",
        "col2": "13",
        "col3": "2000-06-25"
    },
    {
        "col0": "ORP General Kazimierz Pulaski",
        "col1": "1976-02-27",
        "col2": "13",
        "col3": "2000-06-25"
    },
    {
        "col0": "ORP Burza",
        "col1": "1926-04-02",
        "col2": "10",
        "col3": "1932-07-10"
    },
    {
        "col0": "National Register of Historic Places listings in Baldwin County, Alabama",
        "col1": "1862-09-15",
        "col2": "13",
        "col3": "1864-04-19"
    },
    {
        "col0": "MV Doulos Phos",
        "col1": "1913-08-28",
        "col2": "16",
        "col3": "1914-09-29"
    },
    {
        "col0": "Kommuna-class salvage vessel",
        "col1": "1911-12-30",
        "col2": "18",
        "col3": "1915-07-14"
    },
    {
        "col0": "Jaakarhu",
        "col1": "1924-04-17",
        "col2": "18",
        "col3": "1926-03-02"
    },
    {
        "col0": "Japanese destroyer Akigumo",
        "col1": "1939-03-04",
        "col2": "10",
        "col3": "1941-09-27"
    },
    {
        "col0": "Japanese cruiser Nisshin",
        "col1": "1901-12-23",
        "col2": "18",
        "col3": "1904-01-07"
    },
    {
        "col0": "Japanese cruiser Kasuga",
        "col1": "1901-12-23",
        "col2": "18",
        "col3": "1904-01-07"
    },
    {
        "col0": "Japanese battleship Mikasa",
        "col1": "1898-09-26",
        "col2": "23",
        "col3": "1902-03-01"
    },
    {
        "col0": "Japanese battleship Kawachi",
        "col1": "1907-06-22",
        "col2": "25",
        "col3": "1912-03-31"
    },
    {
        "col0": "Jaakarhu",
        "col1": "1924-04-17",
        "col2": "18",
        "col3": "1926-03-02"
    },
    {
        "col0": "Italian ship Etna",
        "col1": "1995-01-03",
        "col2": "21",
        "col3": "1998-08-29"
    },
    {
        "col0": "Italian destroyer Caio Duilio",
        "col1": "2000-10-27",
        "col2": "20",
        "col3": "2009-04-03"
    },
    {
        "col0": "Italian destroyer Andrea Doria",
        "col1": "2000-10-27",
        "col2": "20",
        "col3": "2007-12-22"
    },
    {
        "col0": "Italian cruiser Luigi Cadorna",
        "col1": "1929-10-29",
        "col2": "15",
        "col3": "1933-08-11"
    },
    {
        "col0": "Italian cruiser Armando Diaz",
        "col1": "1929-10-29",
        "col2": "15",
        "col3": "1933-04-29"
    },
    {
        "col0": "Italian battleship Vittorio Veneto",
        "col1": "1934-06-10",
        "col2": "32",
        "col3": "1940-04-28"
    },
    {
        "col0": "Italian battleship Littorio",
        "col1": "1934-06-10",
        "col2": "32",
        "col3": "1940-05-06"
    },
    {
        "col0": "INS Vikramaditya",
        "col1": "2004-01-20",
        "col2": "59",
        "col3": "1987-12-11"
    },
    {
        "col0": "INS Trishul",
        "col1": "1997-11-17",
        "col2": "15",
        "col3": "2003-06-25"
    },
    {
        "col0": "INS Talwar",
        "col1": "1997-11-17",
        "col2": "15",
        "col3": "2003-06-18"
    },
    {
        "col0": "INS Tabar",
        "col1": "1997-11-17",
        "col2": "15",
        "col3": "2004-04-19"
    },
    {
        "col0": "INS Mysore",
        "col1": "1992-03-20",
        "col2": "17",
        "col3": "1999-06-02"
    },
    {
        "col0": "INS Mumbai",
        "col1": "1992-03-20",
        "col2": "17",
        "col3": "2001-01-22"
    },
    {
        "col0": "INS Ganga",
        "col1": "1939-09-04",
        "col2": "9",
        "col3": "1953-06-18"
    },
    {
        "col0": "INS Delhi",
        "col1": "1992-03-20",
        "col2": "17",
        "col3": "1997-11-15"
    },
    {
        "col0": "Huascar",
        "col1": "1864-08-04",
        "col2": "10",
        "col3": "1866-11-08"
    },
    {
        "col0": "HTMS Chakri Naruebet",
        "col1": "1992-03-27",
        "col2": "22",
        "col3": "1997-03-27"
    },
    {
        "col0": "HNoMS Uredd",
        "col1": "1940-03-11",
        "col2": "4",
        "col3": "1941-12-12"
    },
    {
        "col0": "HNoMS King Haakon VII",
        "col1": "1940-07-19",
        "col2": "7",
        "col3": "1942-06-20"
    },
    {
        "col0": "HNLMS O 4",
        "col1": "1911-12-18",
        "col2": "3",
        "col3": "1914-06-17"
    }
]