[
    {
        "col0": "Yugoslav torpedo boat T3",
        "col1": "1943-09-16",
        "col2": "1913-10-22",
        "col3": "1914-03-04"
    },
    {
        "col0": "Yugoslav destroyer Dubrovnik",
        "col1": "1941-04-17",
        "col2": "1930-06-10",
        "col3": "1931-10-11"
    },
    {
        "col0": "Winnemucca",
        "col1": "1966-04-05",
        "col2": "1965-09-23",
        "col3": "1965-12-23"
    },
    {
        "col0": "Weehawken",
        "col1": "1965-10-22",
        "col2": "1964-08-13",
        "col3": "1965-08-06"
    },
    {
        "col0": "Waxahachie",
        "col1": "1972-01-02",
        "col2": "1971-04-01",
        "col3": "1971-09-09"
    },
    {
        "col0": "Wathena",
        "col1": "1973-10-16",
        "col2": "1973-04-04",
        "col3": "1973-09-06"
    },
    {
        "col0": "Washtucna",
        "col1": "1973-12-11",
        "col2": "1973-05-01",
        "col3": "1973-10-09"
    },
    {
        "col0": "Wapato",
        "col1": "1966-06-21",
        "col2": "1966-01-14",
        "col3": "1966-04-18"
    },
    {
        "col0": "Wapakoneta",
        "col1": "1963-07-25",
        "col2": "1962-08-01",
        "col3": "1963-06-11"
    },
    {
        "col0": "Wanamassa",
        "col1": "1973-07-28",
        "col2": "1972-10-28",
        "col3": "1973-05-04"
    },
    {
        "col0": "United States lightship Relief",
        "col1": "1951-02-15",
        "col2": "1949-03-01",
        "col3": "1950-05-04"
    },
    {
        "col0": "United States lightship LV-117",
        "col1": "1930-09-13",
        "col2": "1929-05-01",
        "col3": "1930-03-14"
    },
    {
        "col0": "United States lightship Frying Pan",
        "col1": "1930-04-08",
        "col2": "1929-01-30",
        "col3": "1929-08-30"
    },
    {
        "col0": "United States lightship Chesapeake",
        "col1": "1930-06-23",
        "col2": "1929-02-06",
        "col3": "1930-10-22"
    },
    {
        "col0": "Ukrainian corvette Ternopil",
        "col1": "2006-02-02",
        "col2": "1991-04-15",
        "col3": "2002-03-15"
    },
    {
        "col0": "USS Zephyr",
        "col1": "1994-08-16",
        "col2": "1993-03-06",
        "col3": "1993-12-03"
    },
    {
        "col0": "USS Zenobia",
        "col1": "1946-12-09",
        "col2": "1945-05-12",
        "col3": "1945-07-06"
    },
    {
        "col0": "USS Zellars",
        "col1": "1971-03-19",
        "col2": "1943-12-24",
        "col3": "1944-07-19"
    },
    {
        "col0": "USS Zebra",
        "col1": "1943-10-01",
        "col2": "1943-03-18",
        "col3": "1943-04-11"
    },
    {
        "col0": "USS Zaurak",
        "col1": "1943-11-27",
        "col2": "1943-10-07",
        "col3": "1943-11-18"
    },
    {
        "col0": "USS Zaniah",
        "col1": "1943-11-02",
        "col2": "1943-10-29",
        "col3": "1943-12-12"
    },
    {
        "col0": "USS Yew",
        "col1": "1944-11-30",
        "col2": "1941-05-22",
        "col3": "1941-10-04"
    },
    {
        "col0": "USS Yarnall",
        "col1": "1968-06-10",
        "col2": "1942-12-05",
        "col3": "1943-07-25"
    },
    {
        "col0": "USS Yarnall",
        "col1": "1944-08-26",
        "col2": "1918-02-12",
        "col3": "1918-06-19"
    },
    {
        "col0": "USS Yakutat",
        "col1": "1948-08-31",
        "col2": "1942-04-01",
        "col3": "1943-07-02"
    },
    {
        "col0": "USS Xanthus",
        "col1": "1944-08-16",
        "col2": "1944-06-06",
        "col3": "1944-07-31"
    },
    {
        "col0": "USS Wyffels",
        "col1": "1945-08-28",
        "col2": "1942-10-17",
        "col3": "1942-12-07"
    },
    {
        "col0": "USS Worden",
        "col1": "1971-01-08",
        "col2": "1961-09-19",
        "col3": "1962-06-02"
    },
    {
        "col0": "USS Winston",
        "col1": "1945-01-18",
        "col2": "1944-07-10",
        "col3": "1944-11-30"
    },
    {
        "col0": "USS Winifred",
        "col1": "1918-06-21",
        "col2": "1898-01-31",
        "col3": "1898-07-08"
    },
    {
        "col0": "USS Wingfield",
        "col1": "1950-09-15",
        "col2": "1943-10-07",
        "col3": "1943-12-30"
    },
    {
        "col0": "USS Winged Arrow",
        "col1": "1944-04-21",
        "col2": "1943-01-26",
        "col3": "1943-04-03"
    },
    {
        "col0": "USS Willoughby",
        "col1": "1946-06-26",
        "col2": "1943-03-15",
        "col3": "1943-08-21"
    },
    {
        "col0": "USS Williamsburg",
        "col1": "1931-01-15",
        "col2": "1930-03-19",
        "col3": "1930-12-08"
    },
    {
        "col0": "USS William V. Pratt",
        "col1": "1961-10-19",
        "col2": "1958-03-01",
        "col3": "1960-03-06"
    },
    {
        "col0": "USS William H. Standley",
        "col1": "1966-06-28",
        "col2": "1963-07-29",
        "col3": "1964-12-19"
    },
    {
        "col0": "USS Willard Keith",
        "col1": "1972-07-01",
        "col2": "1944-03-05",
        "col3": "1944-08-29"
    },
    {
        "col0": "USS Whitfield County",
        "col1": "1977-03-01",
        "col2": "1952-11-26",
        "col3": "1953-08-22"
    },
    {
        "col0": "USS Whirlwind",
        "col1": "1995-04-11",
        "col2": "1994-03-04",
        "col3": "1994-09-09"
    },
    {
        "col0": "USS Whippoorwill",
        "col1": "2002-03-21",
        "col2": "1954-01-07",
        "col3": "1954-08-13"
    },
    {
        "col0": "USS Whipple",
        "col1": "1970-08-13",
        "col2": "1967-04-24",
        "col3": "1968-04-12"
    },
    {
        "col0": "USS Whidbey Island",
        "col1": "1985-01-08",
        "col2": "1981-08-04",
        "col3": "1983-06-10"
    },
    {
        "col0": "USS Wharton",
        "col1": "1939-11-08",
        "col2": "1918-10-08",
        "col3": "1919-07-20"
    },
    {
        "col0": "USS Westchester County",
        "col1": "1974-08-27",
        "col2": "1952-01-11",
        "col3": "1953-04-18"
    },
    {
        "col0": "USS West Lianga",
        "col1": "1918-08-19",
        "col2": "1918-02-14",
        "col3": "1918-04-20"
    },
    {
        "col0": "USS West Ekonk",
        "col1": "1918-07-13",
        "col2": "1918-04-16",
        "col3": "1918-06-22"
    },
    {
        "col0": "USS West Apaum",
        "col1": "1918-06-20",
        "col2": "1918-03-19",
        "col3": "1918-05-23"
    },
    {
        "col0": "USS Wesson",
        "col1": "1951-01-10",
        "col2": "1943-07-29",
        "col3": "1943-10-17"
    },
    {
        "col0": "USS Welles",
        "col1": "1940-09-09",
        "col2": "1918-11-13",
        "col3": "1919-05-08"
    },
    {
        "col0": "USS Weight",
        "col1": "1943-01-11",
        "col2": "1942-04-07",
        "col3": "1943-04-21"
    },
    {
        "col0": "USS Weaver",
        "col1": "1952-02-21",
        "col2": "1943-03-13",
        "col3": "1943-07-04"
    },
    {
        "col0": "USS Wayne E. Meyer",
        "col1": "2009-07-10",
        "col2": "2007-05-18",
        "col3": "2008-10-19"
    },
    {
        "col0": "USS Wayne",
        "col1": "1943-04-30",
        "col2": "1942-04-20",
        "col3": "1942-12-06"
    },
    {
        "col0": "USS Waxwing",
        "col1": "1965-10-14",
        "col2": "1944-05-24",
        "col3": "1945-03-10"
    },
    {
        "col0": "USS Waxsaw",
        "col1": "1977-12-01",
        "col2": "1944-05-01",
        "col3": "1944-09-15"
    },
    {
        "col0": "USS Waubansee",
        "col1": "1944-10-11",
        "col2": "1944-04-24",
        "col3": "1944-06-10"
    },
    {
        "col0": "USS Waterman",
        "col1": "1952-02-21",
        "col2": "1943-02-24",
        "col3": "1943-06-20"
    },
    {
        "col0": "USS Washakie",
        "col1": "1944-06-30",
        "col2": "1943-10-13",
        "col3": "1944-02-13"
    },
    {
        "col0": "USS Wasatch",
        "col1": "1943-12-31",
        "col2": "1943-08-07",
        "col3": "1943-10-08"
    },
    {
        "col0": "USS Warrior",
        "col1": "1992-12-30",
        "col2": "1989-09-15",
        "col3": "1990-12-08"
    },
    {
        "col0": "USS Warren",
        "col1": "1943-02-19",
        "col2": "1942-04-19",
        "col3": "1942-09-07"
    },
    {
        "col0": "USS Warbler",
        "col1": "1975-10-14",
        "col2": "1953-10-15",
        "col3": "1954-06-18"
    },
    {
        "col0": "USS Waneta",
        "col1": "1944-04-25",
        "col2": "1943-09-08",
        "col3": "1943-12-24"
    },
    {
        "col0": "USS Wallace L. Lind",
        "col1": "1973-12-04",
        "col2": "1944-02-14",
        "col3": "1944-06-14"
    },
    {
        "col0": "USS Walker",
        "col1": "1969-07-02",
        "col2": "1942-08-31",
        "col3": "1943-01-31"
    },
    {
        "col0": "USS Waldron",
        "col1": "1973-10-30",
        "col2": "1943-11-16",
        "col3": "1944-03-26"
    },
    {
        "col0": "USS Wakefield",
        "col1": "1941-06-06",
        "col2": "1930-12-06",
        "col3": "1931-12-05"
    },
    {
        "col0": "USS Wainwright",
        "col1": "1926-04-02",
        "col2": "1914-09-01",
        "col3": "1915-06-12"
    },
    {
        "col0": "USS Wadsworth",
        "col1": "1959-10-06",
        "col2": "1942-08-18",
        "col3": "1943-01-10"
    },
    {
        "col0": "USS Wadleigh",
        "col1": "1962-07-26",
        "col2": "1943-04-05",
        "col3": "1943-08-07"
    },
    {
        "col0": "USS Waddell",
        "col1": "1964-08-21",
        "col2": "1962-02-06",
        "col3": "1963-02-26"
    },
    {
        "col0": "USS Wachapreague",
        "col1": "1946-05-27",
        "col2": "1943-02-01",
        "col3": "1943-07-10"
    },
    {
        "col0": "USS Vreeland",
        "col1": "1970-05-30",
        "col2": "1968-03-20",
        "col3": "1969-06-14"
    },
    {
        "col0": "USS Volador",
        "col1": "1972-08-18",
        "col2": "1945-06-15",
        "col3": "1948-05-21"
    },
    {
        "col0": "USS Vogelgesang",
        "col1": "1982-02-24",
        "col2": "1944-08-03",
        "col3": "1945-01-15"
    },
    {
        "col0": "USS Voge",
        "col1": "1966-11-15",
        "col2": "1963-11-21",
        "col3": "1965-02-04"
    },
    {
        "col0": "USS Virginia",
        "col1": "1976-08-27",
        "col2": "1972-08-19",
        "col3": "1974-12-14"
    },
    {
        "col0": "USS Vincennes",
        "col1": "1985-06-03",
        "col2": "1982-10-19",
        "col3": "1984-04-14"
    },
    {
        "col0": "USS Viking",
        "col1": "1923-01-23",
        "col2": "1917-10-18",
        "col3": "1918-08-24"
    },
    {
        "col0": "USS Vigor",
        "col1": "1972-04-04",
        "col2": "1952-06-16",
        "col3": "1953-06-23"
    },
    {
        "col0": "USS Vigilance",
        "col1": "1967-08-19",
        "col2": "1942-11-28",
        "col3": "1943-04-05"
    },
    {
        "col0": "USS Vicksburg",
        "col1": "1897-06-27",
        "col2": "1896-01-17",
        "col3": "1896-12-05"
    },
    {
        "col0": "USS Vicksburg",
        "col1": "1992-09-21",
        "col2": "1990-05-30",
        "col3": "1991-09-07"
    },
    {
        "col0": "USS Vernon County",
        "col1": "1973-06-29",
        "col2": "1952-04-14",
        "col3": "1952-11-25"
    },
    {
        "col0": "USS Venus",
        "col1": "1943-11-06",
        "col2": "1942-07-05",
        "col3": "1942-08-21"
    },
    {
        "col0": "USS Velocity",
        "col1": "1972-07-01",
        "col2": "1941-07-21",
        "col3": "1942-04-15"
    },
    {
        "col0": "USS Vella Gulf",
        "col1": "1993-07-12",
        "col2": "1991-04-22",
        "col3": "1992-06-13"
    },
    {
        "col0": "USS Vega",
        "col1": "1921-12-02",
        "col2": "1918-07-08",
        "col3": "1919-07-18"
    },
    {
        "col0": "USS Vancouver",
        "col1": "1963-05-10",
        "col2": "1960-11-19",
        "col3": "1962-09-15"
    },
    {
        "col0": "USS Vanadis",
        "col1": "1955-04-14",
        "col2": "1945-04-18",
        "col3": "1945-06-08"
    },
    {
        "col0": "USS Van Valkenburgh",
        "col1": "1967-02-28",
        "col2": "1942-11-15",
        "col3": "1943-12-19"
    },
    {
        "col0": "USS Valdez",
        "col1": "1974-07-12",
        "col2": "1972-06-30",
        "col3": "1973-03-24"
    },
    {
        "col0": "USS Unimak",
        "col1": "1948-09-14",
        "col2": "1942-02-15",
        "col3": "1942-05-27"
    },
    {
        "col0": "USS Underwood",
        "col1": "1983-01-14",
        "col2": "1981-07-30",
        "col3": "1982-02-06"
    },
    {
        "col0": "USS Umpqua",
        "col1": "1971-07-01",
        "col2": "1944-12-16",
        "col3": "1945-02-02"
    },
    {
        "col0": "USS Ulysses",
        "col1": "1961-06-07",
        "col2": "1944-11-02",
        "col3": "1944-12-02"
    },
    {
        "col0": "USS Typhoon",
        "col1": "1993-12-01",
        "col2": "1992-05-15",
        "col3": "1993-03-03"
    },
    {
        "col0": "USS Twining",
        "col1": "1971-08-16",
        "col2": "1942-11-20",
        "col3": "1943-07-11"
    },
    {
        "col0": "USS Twiggs",
        "col1": "1940-10-23",
        "col2": "1918-01-23",
        "col3": "1918-09-28"
    },
    {
        "col0": "USS Tutuila",
        "col1": "1942-02-16",
        "col2": "1926-10-17",
        "col3": "1927-06-14"
    },
    {
        "col0": "USS Tusk",
        "col1": "1973-10-18",
        "col2": "1943-08-23",
        "col3": "1945-07-08"
    },
    {
        "col0": "USS Tuscana",
        "col1": "1944-01-08",
        "col2": "1943-12-05",
        "col3": "1943-12-29"
    },
    {
        "col0": "USS Turquoise",
        "col1": "1940-08-21",
        "col2": "1922-08-01",
        "col3": "1922-09-16"
    },
    {
        "col0": "USS Turner Joy",
        "col1": "1959-07-27",
        "col2": "1957-09-30",
        "col3": "1958-05-05"
    },
    {
        "col0": "USS Tulare",
        "col1": "1956-01-10",
        "col2": "1953-02-16",
        "col3": "1953-12-22"
    },
    {
        "col0": "USS Tucker",
        "col1": "1926-03-26",
        "col2": "1914-11-09",
        "col3": "1915-05-04"
    },
    {
        "col0": "USS Tryon",
        "col1": "1946-07-17",
        "col2": "1941-03-26",
        "col3": "1941-10-21"
    },
    {
        "col0": "USS Truxtun",
        "col1": "2008-10-24",
        "col2": "2005-04-11",
        "col3": "2007-04-17"
    },
    {
        "col0": "USS Truxtun",
        "col1": "1967-05-26",
        "col2": "1963-06-17",
        "col3": "1964-12-19"
    },
    {
        "col0": "USS Truxtun",
        "col1": "1965-11-22",
        "col2": "1943-12-13",
        "col3": "1944-03-09"
    },
    {
        "col0": "USS Trutta",
        "col1": "1972-07-01",
        "col2": "1944-05-22",
        "col3": "1944-08-18"
    },
    {
        "col0": "USS Trumpetfish",
        "col1": "1973-10-15",
        "col2": "1943-08-23",
        "col3": "1945-05-13"
    },
    {
        "col0": "USS Truett",
        "col1": "1974-05-24",
        "col2": "1972-04-27",
        "col3": "1973-02-03"
    },
    {
        "col0": "USS Triumph",
        "col1": "1961-01-27",
        "col2": "1942-10-27",
        "col3": "1943-02-25"
    },
    {
        "col0": "USS Trippe",
        "col1": "1970-09-11",
        "col2": "1968-07-29",
        "col3": "1969-11-01"
    },
    {
        "col0": "USS Trippe",
        "col1": "1924-06-07",
        "col2": "1910-04-12",
        "col3": "1910-12-20"
    },
    {
        "col0": "USS Triangulum",
        "col1": "1943-06-19",
        "col2": "1943-05-14",
        "col3": "1943-06-06"
    },
    {
        "col0": "USS Tracer",
        "col1": "1957-05-21",
        "col2": "1944-12-24",
        "col3": "1945-01-31"
    },
    {
        "col0": "USS Towers",
        "col1": "1961-05-31",
        "col2": "1958-04-01",
        "col3": "1959-04-23"
    },
    {
        "col0": "USS Tourmaline",
        "col1": "1930-07-02",
        "col2": "1930-01-09",
        "col3": "1930-05-24"
    },
    {
        "col0": "USS Toucan",
        "col1": "1964-12-22",
        "col2": "1944-02-16",
        "col3": "1944-09-15"
    },
    {
        "col0": "USS Torrance",
        "col1": "1944-06-20",
        "col2": "1944-04-01",
        "col3": "1944-06-06"
    },
    {
        "col0": "USS Tornado",
        "col1": "2000-03-13",
        "col2": "1998-08-25",
        "col3": "1999-06-07"
    },
    {
        "col0": "USS Tonawanda",
        "col1": "1960-05-25",
        "col2": "1944-09-12",
        "col3": "1944-11-14"
    },
    {
        "col0": "USS Tombigbee",
        "col1": "1972-07-07",
        "col2": "1942-10-23",
        "col3": "1943-11-18"
    },
    {
        "col0": "USS Tom Green County",
        "col1": "1972-01-05",
        "col2": "1952-09-02",
        "col3": "1953-07-02"
    },
    {
        "col0": "USS Tollberg",
        "col1": "1965-08-14",
        "col2": "1943-12-30",
        "col3": "1944-02-12"
    },
    {
        "col0": "USS Tipton",
        "col1": "1945-09-07",
        "col2": "1944-12-28",
        "col3": "1945-03-13"
    },
    {
        "col0": "USS Tippecanoe",
        "col1": "1922-03-06",
        "col2": "1919-10-01",
        "col3": "1920-06-05"
    },
    {
        "col0": "USS Tinian",
        "col1": "1946-07-30",
        "col2": "1945-03-20",
        "col3": "1945-09-05"
    }
]