[
    {
        "col0": "J. Mieses",
        "col1": "Germany",
        "col2": "London",
        "col3": "1865-02-27",
        "col4": "1954-02-23",
        "col5": "1865-02-27"
    },
    {
        "col0": "J. Piatigorsky",
        "col1": "French Third Republic",
        "col2": "California",
        "col3": "1911-11-06",
        "col4": "2012-07-15",
        "col5": "1911-11-06"
    },
    {
        "col0": "J. Bednarski",
        "col1": "Poland",
        "col2": "Poland",
        "col3": "1939-03-12",
        "col4": "2008-10-19",
        "col5": "1939-03-12"
    },
    {
        "col0": "J. Klovans",
        "col1": "Latvia",
        "col2": "Latvia",
        "col3": "1935-04-09",
        "col4": "2010-10-05",
        "col5": "1935-04-09"
    },
    {
        "col0": "J. Randviir",
        "col1": "Estonia",
        "col2": "Estonia",
        "col3": "1927-05-28",
        "col4": "1996-08-08",
        "col5": "1927-05-28"
    },
    {
        "col0": "J. Gromek",
        "col1": "Ostrowiec Swietokrzyski",
        "col2": "Poland",
        "col3": "1931-04-20",
        "col4": "1985-04-19",
        "col5": "1931-04-20"
    },
    {
        "col0": "J. Flesch",
        "col1": "Budapest",
        "col2": "London",
        "col3": "1933-9-30",
        "col4": "1983-12-9",
        "col5": "1933-9-30"
    },
    {
        "col0": "I. Aloni",
        "col1": "Buchach",
        "col2": "Israel",
        "col3": "1905-04-05",
        "col4": "1985-1-1",
        "col5": "1905-04-05"
    },
    {
        "col0": "I. Nemet",
        "col1": "Yugoslavia",
        "col2": "Basel",
        "col3": "1943-04-14",
        "col4": "2007-12-16",
        "col5": "1943-04-14"
    },
    {
        "col0": "I. Bukavshin",
        "col1": "Rostov-on-Don",
        "col2": "Tolyatti",
        "col3": "1995-05-03",
        "col4": "2016-01-12",
        "col5": "1995-05-03"
    },
    {
        "col0": "I. Bilek",
        "col1": "Budapest",
        "col2": "Budapest",
        "col3": "1932-08-11",
        "col4": "2010-03-20",
        "col5": "1932-08-11"
    },
    {
        "col0": "I. Gunsberg",
        "col1": "Budapest",
        "col2": "England",
        "col3": "1854-11-01",
        "col4": "1930-05-02",
        "col5": "1854-11-01"
    },
    {
        "col0": "I. Lipnitsky",
        "col1": "Kiev",
        "col2": "Kiev",
        "col3": "1923-06-25",
        "col4": "1959-03-25",
        "col5": "1923-06-25"
    },
    {
        "col0": "I. Kashdan",
        "col1": "New York City",
        "col2": "Los Angeles",
        "col3": "1905-11-19",
        "col4": "1985-2-20",
        "col5": "1905-11-19"
    },
    {
        "col0": "I. Boleslavsky",
        "col1": "Ukrainian SSR",
        "col2": "Minsk",
        "col3": "1919-06-09",
        "col4": "1977-02-15",
        "col5": "1919-06-09"
    },
    {
        "col0": "I. V. Ivanov",
        "col1": "Saint Petersburg",
        "col2": "United States",
        "col3": "1947-01-08",
        "col4": "2005-11-17",
        "col5": "1947-01-08"
    },
    {
        "col0": "I. Platonov",
        "col1": "Odessa",
        "col2": "Kiev",
        "col3": "1934-1-18",
        "col4": "1994-11-13",
        "col5": "1934-1-18"
    },
    {
        "col0": "I. Kurnosov",
        "col1": "Chelyabinsk",
        "col2": "Russia",
        "col3": "1985-05-30",
        "col4": "2013-08-08",
        "col5": "1985-05-30"
    },
    {
        "col0": "I. Bondarevsky",
        "col1": "Russia",
        "col2": "Pyatigorsk",
        "col3": "1913-05-12",
        "col4": "1979-06-14",
        "col5": "1913-05-12"
    },
    {
        "col0": "I. Kolisch",
        "col1": "Austrian Empire",
        "col2": "Austro-Hungarian Empire",
        "col3": "1837-04-06",
        "col4": "1889-04-30",
        "col5": "1837-04-06"
    },
    {
        "col0": "H. Suchting",
        "col1": "Bosau",
        "col2": "Luttow-Valluhn",
        "col3": "1874-10-08",
        "col4": "1916-12-27",
        "col5": "1874-10-08"
    },
    {
        "col0": "H. Myers",
        "col1": "Decatur, Illinois",
        "col2": "Davenport, Iowa",
        "col3": "1930-01-23",
        "col4": "2008-12-22",
        "col5": "1930-01-23"
    },
    {
        "col0": "H. Blandford",
        "col1": "England",
        "col2": "England",
        "col3": "1917-01-24",
        "col4": "1981-09-20",
        "col5": "1917-01-24"
    },
    {
        "col0": "H. A. Kennedy",
        "col1": "Bath, Somerset",
        "col2": "Reading, Berkshire",
        "col3": "1809-08-22",
        "col4": "1878-10-22",
        "col5": "1809-08-22"
    },
    {
        "col0": "H. Bartolovic",
        "col1": "Zagreb",
        "col2": "Zagreb",
        "col3": "1932-6-15",
        "col4": "2005-12-3",
        "col5": "1932-6-15"
    },
    {
        "col0": "H. Staunton",
        "col1": "Westmorland",
        "col2": "London",
        "col3": "1810-4-1",
        "col4": "1874-06-22",
        "col5": "1810-4-1"
    },
    {
        "col0": "H. v. Gottschall",
        "col1": "Poznan",
        "col2": "Gorlitz",
        "col3": "1862-10-16",
        "col4": "1933-03-07",
        "col5": "1862-10-16"
    },
    {
        "col0": "H. Pilnik",
        "col1": "Stuttgart",
        "col2": "Caracas",
        "col3": "1914-01-08",
        "col4": "1981-11-12",
        "col5": "1914-01-08"
    },
    {
        "col0": "H. Hosmer",
        "col1": "Massachusetts",
        "col2": "Chicago",
        "col3": "1837-04-07",
        "col4": "1892-01-01",
        "col5": "1837-04-07"
    },
    {
        "col0": "H. E. Atkins",
        "col1": "Leicester",
        "col2": "Huddersfield",
        "col3": "1872-08-20",
        "col4": "1955-01-31",
        "col5": "1872-08-20"
    },
    {
        "col0": "H. Charlick",
        "col1": "England",
        "col2": "Adelaide",
        "col3": "1845-07-08",
        "col4": "1916-07-26",
        "col5": "1845-07-08"
    },
    {
        "col0": "H. Luik",
        "col1": "Estonia",
        "col2": "Estonia",
        "col3": "1928-02-28",
        "col4": "2009-05-05",
        "col5": "1928-02-28"
    },
    {
        "col0": "H. N. Pillsbury",
        "col1": "Somerville, Massachusetts",
        "col2": "Philadelphia",
        "col3": "1872-12-05",
        "col4": "1906-06-17",
        "col5": "1872-12-05"
    },
    {
        "col0": "H. Golombek",
        "col1": "London",
        "col2": "London",
        "col3": "1911-03-01",
        "col4": "1995-01-07",
        "col5": "1911-03-01"
    },
    {
        "col0": "G. Stoltz",
        "col1": "Stockholm",
        "col2": "Stockholm",
        "col3": "1904-5-9",
        "col4": "1963-7-25",
        "col5": "1904-5-9"
    },
    {
        "col0": "G. Maroczy",
        "col1": "Szeged",
        "col2": "Budapest",
        "col3": "1870-03-03",
        "col4": "1951-05-29",
        "col5": "1870-03-03"
    },
    {
        "col0": "G. Sax",
        "col1": "Hungary",
        "col2": "Budapest",
        "col3": "1951-06-18",
        "col4": "2014-01-25",
        "col5": "1951-06-18"
    },
    {
        "col0": "G. Breyer",
        "col1": "Budapest",
        "col2": "Bratislava",
        "col3": "1893-04-30",
        "col4": "1921-11-09",
        "col5": "1893-04-30"
    },
    {
        "col0": "G. Levenfish",
        "col1": "Piotrkow Trybunalski",
        "col2": "Moscow",
        "col3": "1889-3-9",
        "col4": "1961-2-9",
        "col5": "1889-3-9"
    },
    {
        "col0": "G. Alekhine",
        "col1": "New Jersey",
        "col2": "France",
        "col3": "1876-10-26",
        "col4": "1956-02-21",
        "col5": "1876-10-26"
    },
    {
        "col0": "Giovanni Leonardo Di Bona",
        "col1": "Calabria",
        "col2": "Bisignano",
        "col3": "1542-1-1",
        "col4": "1597-1-1",
        "col5": "1542-1-1"
    },
    {
        "col0": "G. Porreca",
        "col1": "Naples",
        "col2": "Naples",
        "col3": "1927-08-30",
        "col4": "1988-01-05",
        "col5": "1927-08-30"
    },
    {
        "col0": "G. Andruet",
        "col1": "Versailles",
        "col2": "France",
        "col3": "1958-03-30",
        "col4": "1995-08-22",
        "col5": "1958-03-30"
    },
    {
        "col0": "G. Stahlberg",
        "col1": "Gothenburg",
        "col2": "Saint Petersburg",
        "col3": "1908-01-26",
        "col4": "1967-05-26",
        "col5": "1908-01-26"
    },
    {
        "col0": "G. Barbero",
        "col1": "Argentina",
        "col2": "Budapest",
        "col3": "1961-08-21",
        "col4": "2001-03-04",
        "col5": "1961-08-21"
    },
    {
        "col0": "G. Borisenko",
        "col1": "Ukraine",
        "col2": "Tashkent",
        "col3": "1922-05-25",
        "col4": "2012-12-03",
        "col5": "1922-05-25"
    },
    {
        "col0": "G. Agzamov",
        "col1": "Olmaliq",
        "col2": "Sevastopol",
        "col3": "1954-9-6",
        "col4": "1986-8-27",
        "col5": "1954-9-6"
    },
    {
        "col0": "G. Tringov",
        "col1": "Plovdiv",
        "col2": "Plovdiv",
        "col3": "1937-3-7",
        "col4": "2000-7-2",
        "col5": "1937-3-7"
    },
    {
        "col0": "G. Koltanowski",
        "col1": "Antwerp",
        "col2": "San Francisco",
        "col3": "1903-09-17",
        "col4": "2000-02-05",
        "col5": "1903-09-17"
    },
    {
        "col0": "G. H. Mackenzie",
        "col1": "Aberdeen",
        "col2": "New York City",
        "col3": "1837-03-24",
        "col4": "1891-04-14",
        "col5": "1837-03-24"
    },
    {
        "col0": "George H. D. Gossip",
        "col1": "New York City",
        "col2": "Liphook",
        "col3": "1841-12-06",
        "col4": "1907-05-11",
        "col5": "1841-12-06"
    },
    {
        "col0": "G. Kasparyan",
        "col1": "Georgia",
        "col2": "Armenia",
        "col3": "1910-02-27",
        "col4": "1995-12-27",
        "col5": "1910-02-27"
    },
    {
        "col0": "G. Barcza",
        "col1": "Kisujszallas",
        "col2": "Budapest",
        "col3": "1911-08-21",
        "col4": "1986-02-27",
        "col5": "1911-08-21"
    },
    {
        "col0": "G. Veresov",
        "col1": "Belarus",
        "col2": "Belarus",
        "col3": "1912-07-28",
        "col4": "1979-11-12",
        "col5": "1912-07-28"
    },
    {
        "col0": "G. H. Diggle",
        "col1": "Lincolnshire",
        "col2": "Brighton",
        "col3": "1902-12-06",
        "col4": "1993-02-13",
        "col5": "1902-12-06"
    },
    {
        "col0": "G. Stoltz",
        "col1": "Stockholm",
        "col2": "Stockholm",
        "col3": "1904-5-9",
        "col4": "1963-7-25",
        "col5": "1904-5-9"
    },
    {
        "col0": "G. Maroczy",
        "col1": "Hungary",
        "col2": "Budapest",
        "col3": "1870-03-03",
        "col4": "1951-05-29",
        "col5": "1870-03-03"
    },
    {
        "col0": "F. Zhensong",
        "col1": "China",
        "col2": "Guangzhou",
        "col3": "1872-1-1",
        "col4": "1953-1-1",
        "col5": "1872-1-1"
    },
    {
        "col0": "F. Samisch",
        "col1": "Charlottenburg",
        "col2": "Wannsee",
        "col3": "1896-9-20",
        "col4": "1975-8-16",
        "col5": "1896-9-20"
    },
    {
        "col0": "F. Yates",
        "col1": "England",
        "col2": "England",
        "col3": "1884-01-16",
        "col4": "1932-11-11",
        "col5": "1884-01-16"
    },
    {
        "col0": "F. D. Philidor",
        "col1": "France",
        "col2": "England",
        "col3": "1726-09-07",
        "col4": "1795-08-31",
        "col5": "1726-09-07"
    },
    {
        "col0": "F. Marshall",
        "col1": "New York City",
        "col2": "New York City",
        "col3": "1877-08-10",
        "col4": "1944-11-09",
        "col5": "1877-08-10"
    },
    {
        "col0": "F. J. Lee",
        "col1": "London",
        "col2": "London",
        "col3": "1857-0-0",
        "col4": "1909-09-12",
        "col5": "1857-0-0"
    },
    {
        "col0": "F. D. Philidor",
        "col1": "France",
        "col2": "England",
        "col3": "1726-09-07",
        "col4": "1795-08-31",
        "col5": "1726-09-07"
    },
    {
        "col0": "F. Bohatyrchuk",
        "col1": "Kiev",
        "col2": "Ottawa",
        "col3": "1892-11-14",
        "col4": "1984-09-04",
        "col5": "1892-11-14"
    },
    {
        "col0": "E. German",
        "col1": "Uba",
        "col2": "Belo Horizonte",
        "col3": "1930-10-24",
        "col4": "2001-04-01",
        "col5": "1930-10-24"
    },
    {
        "col0": "E. Grunfeld",
        "col1": "Austria",
        "col2": "Vienna",
        "col3": "1893-11-21",
        "col4": "1962-04-03",
        "col5": "1893-11-21"
    },
    {
        "col0": "E. Andersen",
        "col1": "Gentofte Municipality",
        "col2": "Copenhagen",
        "col3": "1904-04-10",
        "col4": "1938-02-27",
        "col5": "1904-04-10"
    }
]