[
    {
        "col0": "Zubron",
        "col1": "Bos taurus",
        "col2": "Bovidae",
        "col3": "DOM"
    },
    {
        "col0": "Yakalo",
        "col1": "Yak",
        "col2": "Bovidae",
        "col3": "DOM"
    },
    {
        "col0": "Verticordia insignis subsp. eomagis",
        "col1": "Verticordia insignis",
        "col2": "Myrtaceae",
        "col3": "P3"
    },
    {
        "col0": "Verticordia fimbrilepis subsp. fimbrilepis",
        "col1": "Verticordia fimbrilepis",
        "col2": "Myrtaceae",
        "col3": "EN"
    },
    {
        "col0": "Verticordia fimbrilepis subsp. australis",
        "col1": "Verticordia fimbrilepis",
        "col2": "Myrtaceae",
        "col3": "VU"
    },
    {
        "col0": "Verticordia endlicheriana var. angustifolia",
        "col1": "Verticordia endlicheriana",
        "col2": "Myrtaceae",
        "col3": "P3"
    },
    {
        "col0": "Verticordia densiflora var. rosteostella",
        "col1": "Verticordia densiflora",
        "col2": "Myrtaceae",
        "col3": "P3"
    },
    {
        "col0": "Verticordia densiflora var. pedunculata",
        "col1": "Verticordia densiflora",
        "col2": "Myrtaceae",
        "col3": "EN"
    },
    {
        "col0": "Taxus x media",
        "col1": "Taxus cuspidata",
        "col2": "Taxaceae",
        "col3": "LR/lc"
    },
    {
        "col0": "Sidalcea oregana var. calva",
        "col1": "Sidalcea oregana",
        "col2": "Malvaceae",
        "col3": "LE"
    },
    {
        "col0": "Sambucus racemosa subsp. racemosa",
        "col1": "Sambucus racemosa",
        "col2": "Adoxaceae",
        "col3": "VU"
    },
    {
        "col0": "Saint Helena olive",
        "col1": "Extinction",
        "col2": "Rhamnaceae",
        "col3": "EX"
    },
    {
        "col0": "Oenothera deltoides subsp. howellii",
        "col1": "Oenothera deltoides",
        "col2": "Onagraceae",
        "col3": "LE"
    },
    {
        "col0": "Mauna Kea silversword",
        "col1": "Argyroxiphium sandwicense",
        "col2": "Asteraceae",
        "col3": "CR"
    },
    {
        "col0": "Lupinus latifolius var. barbatus",
        "col1": "Lupinus latifolius",
        "col2": "Fabaceae",
        "col3": "G1"
    },
    {
        "col0": "Lilium pardalinum subsp. pitkinense",
        "col1": "Lilium pardalinum",
        "col2": "Liliaceae",
        "col3": "T1"
    },
    {
        "col0": "Japanese river otter",
        "col1": "European otter",
        "col2": "Mustelidae",
        "col3": "EX"
    },
    {
        "col0": "Hybrid camel",
        "col1": "Bactrian camel",
        "col2": "Camelid",
        "col3": "DOM"
    },
    {
        "col0": "Huarizo",
        "col1": "Llama",
        "col2": "Camelid",
        "col3": "DOM"
    },
    {
        "col0": "Grevillea brachystylis subsp. grandis",
        "col1": "Grevillea brachystylis",
        "col2": "Proteaceae",
        "col3": "CR"
    },
    {
        "col0": "Golden takin",
        "col1": "Budorcas taxicolor",
        "col2": "Bovidae",
        "col3": "EN"
    },
    {
        "col0": "Eucalyptus scias subsp. apoda",
        "col1": "Eucalyptus scias",
        "col2": "Myrtaceae",
        "col3": "VU"
    },
    {
        "col0": "Eucalyptus gunnii subsp. divaricata",
        "col1": "Eucalyptus gunnii",
        "col2": "Myrtaceae",
        "col3": "EN"
    },
    {
        "col0": "Eriogonum longifolium var. gnaphalifolium",
        "col1": "Eriogonum longifolium",
        "col2": "Polygonaceae",
        "col3": "LT"
    },
    {
        "col0": "Endiandra muelleri subsp. bracteata",
        "col1": "Endiandra muelleri",
        "col2": "Lauraceae",
        "col3": "EN"
    },
    {
        "col0": "Dzo",
        "col1": "Yak",
        "col2": "Bovidae",
        "col3": "Domesticated"
    },
    {
        "col0": "Cypripedium macranthum var. rebunense",
        "col1": "Cypripedium macranthum",
        "col2": "Orchidaceae",
        "col3": "EN"
    },
    {
        "col0": "Cupressus arizonica var. glabra",
        "col1": "Cupressus arizonica",
        "col2": "Cupressaceae",
        "col3": "NT"
    },
    {
        "col0": "Chicken",
        "col1": "Red junglefowl",
        "col2": "Phasianidae",
        "col3": "DOM"
    },
    {
        "col0": "Cama",
        "col1": "Dromedary",
        "col2": "Camelidae",
        "col3": "DOM"
    },
    {
        "col0": "Calothamnus quadrifidus subsp. teretifolius",
        "col1": "Calothamnus quadrifidus",
        "col2": "Fabaceae",
        "col3": "P4"
    },
    {
        "col0": "Calothamnus quadrifidus subsp. asper",
        "col1": "Calothamnus quadrifidus",
        "col2": "Fabaceae",
        "col3": "P2"
    },
    {
        "col0": "Banksia sessilis var. cordata",
        "col1": "Banksia sessilis",
        "col2": "Proteaceae",
        "col3": "P4"
    },
    {
        "col0": "Athabasca rainbow trout",
        "col1": "Oncorhynchus mykiss",
        "col2": "Salmonidae",
        "col3": "NE"
    },
    {
        "col0": "Argyroxiphium sandwicense subsp. macrocephalum",
        "col1": "Argyroxiphium sandwicense",
        "col2": "Asteraceae",
        "col3": "VU"
    },
    {
        "col0": "Acaciella angustissima var. suffrutescens",
        "col1": "Acaciella angustissima",
        "col2": "Fabaceae",
        "col3": "G5"
    },
    {
        "col0": "Abarema leucophylla var. vaupesensis",
        "col1": "Abarema leucophylla",
        "col2": "Fabaceae",
        "col3": "VU"
    },
    {
        "col0": "Abarema curvicarpa var. rodriguesii",
        "col1": "Abarema curvicarpa",
        "col2": "Fabaceae",
        "col3": "VU"
    },
    {
        "col0": "Abarema cochleata var. moniliformis",
        "col1": "Abarema cochleata",
        "col2": "Fabaceae",
        "col3": "VU"
    },
    {
        "col0": "Abarema alexandri var. troyana",
        "col1": "Abarema alexandri",
        "col2": "Fabaceae",
        "col3": "NT"
    },
    {
        "col0": "Zubron",
        "col1": "Bos taurus",
        "col2": "Bovidae",
        "col3": "DOM"
    }
]