[
    {
        "col0": "Child Abuse Review",
        "col1": "Wiley-Blackwell",
        "col2": "CABEEB",
        "col3": "93643754"
    },
    {
        "col0": "Child: Care, Health and Development",
        "col1": "Wiley-Blackwell",
        "col2": "CCHDDH",
        "col3": "2007205010"
    },
    {
        "col0": "Chest",
        "col1": "American College of Chest Physicians",
        "col2": "CHETBF",
        "col3": "91645423"
    },
    {
        "col0": "Chemotherapy",
        "col1": "Karger Publishers",
        "col2": "CHTHBK",
        "col3": "sf98086361"
    },
    {
        "col0": "Chemistry of Natural Compounds",
        "col1": "Springer Science+Business Media",
        "col2": "CHNCA8",
        "col3": "sf78000632"
    },
    {
        "col0": "Chemistry Letters",
        "col1": "Chemical Society of Japan",
        "col2": "CMLTAG",
        "col3": "73644589"
    },
    {
        "col0": "Chemistry: A European Journal",
        "col1": "Wiley-VCH",
        "col2": "CEUJED",
        "col3": "sn95026440"
    },
    {
        "col0": "Chemical Society Reviews",
        "col1": "Royal Society of Chemistry",
        "col2": "CSRVBR",
        "col3": "73640983"
    },
    {
        "col0": "Chemical Reviews",
        "col1": "American Chemical Society",
        "col2": "CHREAY",
        "col3": "25015032"
    },
    {
        "col0": "Chemical Engineering Science",
        "col1": "Elsevier",
        "col2": "CESCAC",
        "col3": "56034685"
    },
    {
        "col0": "Chemical Communications",
        "col1": "Royal Society of Chemistry",
        "col2": "CHCOFS",
        "col3": "96660034"
    },
    {
        "col0": "Chemical & Engineering News",
        "col1": "American Chemical Society",
        "col2": "CENEAR",
        "col3": "a41002413"
    },
    {
        "col0": "ChemSusChem",
        "col1": "Wiley-VCH",
        "col2": "CHEMIZ",
        "col3": "2008254268"
    },
    {
        "col0": "ChemPlusChem",
        "col1": "Wiley-VCH",
        "col2": "CCCCAK",
        "col3": "76642104"
    },
    {
        "col0": "ChemPhysChem",
        "col1": "Wiley-VCH",
        "col2": "CPCHFT",
        "col3": "256045"
    },
    {
        "col0": "Chelonian Conservation and Biology",
        "col1": "Allen Press",
        "col2": "CCOBED",
        "col3": "94645031"
    },
    {
        "col0": "Chaos",
        "col1": "American Institute of Physics",
        "col2": "CHAOEH",
        "col3": "91657086"
    },
    {
        "col0": "Central Asiatic Journal",
        "col1": "Harrassowitz Verlag",
        "col2": "CAJOFE",
        "col3": "57024650"
    },
    {
        "col0": "Cellular and Molecular Life Sciences",
        "col1": "Springer Science+Business Media",
        "col2": "CMLSFI",
        "col3": "97647616"
    },
    {
        "col0": "Cell Research",
        "col1": "Nature Publishing Group",
        "col2": "CREEB6",
        "col3": "sn96039534"
    },
    {
        "col0": "Cell Cycle",
        "col1": "Landes Bioscience",
        "col2": "CCEYAS",
        "col3": "2002212522"
    },
    {
        "col0": "Cell Biology International",
        "col1": "Portland Press",
        "col2": "CBIIEV",
        "col3": "93655029"
    },
    {
        "col0": "Cell Biochemistry and Biophysics",
        "col1": "Springer Science+Business Media",
        "col2": "CBBIFV",
        "col3": "97645818"
    },
    {
        "col0": "Cell",
        "col1": "Cell Press",
        "col2": "CELLB5",
        "col3": "74641498"
    },
    {
        "col0": "Celestial Mechanics and Dynamical Astronomy",
        "col1": "Springer Science+Business Media",
        "col2": "CLMCAV",
        "col3": "90656563"
    },
    {
        "col0": "Cataloging & Classification Quarterly",
        "col1": "Taylor and Francis",
        "col2": "CCQUDB",
        "col3": "81642892"
    },
    {
        "col0": "Carbohydrate Research",
        "col1": "Elsevier",
        "col2": "CRBRAT",
        "col3": "65009978"
    },
    {
        "col0": "Cancer Science",
        "col1": "Wiley-Blackwell",
        "col2": "CSACCM",
        "col3": "2003243167"
    },
    {
        "col0": "Cancer Research",
        "col1": "American Association for Cancer Research",
        "col2": "CNREA8",
        "col3": "44002733"
    },
    {
        "col0": "Cancer Letters",
        "col1": "Elsevier",
        "col2": "CALEDQ",
        "col3": "77640685"
    },
    {
        "col0": "Cancer Cell",
        "col1": "Cell Press",
        "col2": "CCAECI",
        "col3": "2001215081"
    },
    {
        "col0": "Cancer",
        "col1": "Wiley-Blackwell",
        "col2": "CANCAR",
        "col3": "50001289"
    },
    {
        "col0": "Canadian Psychology",
        "col1": "American Psychological Association",
        "col2": "CPSGD2",
        "col3": "80648594"
    },
    {
        "col0": "Canadian Journal of Zoology",
        "col1": "NRC Research Press",
        "col2": "CJZOAG",
        "col3": "53031088"
    },
    {
        "col0": "Canadian Journal of Physiology and Pharmacology",
        "col1": "NRC Research Press",
        "col2": "CJPPA3",
        "col3": "67033839"
    },
    {
        "col0": "Canadian Journal of Physics",
        "col1": "NRC Research Press",
        "col2": "CJPHAD",
        "col3": "53035015"
    },
    {
        "col0": "Canadian Journal of Microbiology",
        "col1": "NRC Research Press",
        "col2": "CJMIAZ",
        "col3": "59004206"
    },
    {
        "col0": "Canadian Journal of Law and Society",
        "col1": "Cambridge University Press",
        "col2": "CJLSEU",
        "col3": "91641212"
    },
    {
        "col0": "Canadian Journal of Information and Library Science",
        "col1": "University of Toronto Press",
        "col2": "CJISEF",
        "col3": "94641502"
    },
    {
        "col0": "Canadian Journal of Earth Sciences",
        "col1": "NRC Research Press",
        "col2": "CJESAP",
        "col3": "65009875"
    },
    {
        "col0": "Canadian Journal of Chemistry",
        "col1": "NRC Research Press",
        "col2": "CJCHAG",
        "col3": "54024664"
    },
    {
        "col0": "Canadian Journal of Behavioural Science",
        "col1": "American Psychological Association",
        "col2": "CJBSAA",
        "col3": "78010238"
    },
    {
        "col0": "Calcified Tissue International",
        "col1": "Springer Science+Business Media",
        "col2": "CTINDZ",
        "col3": "79649796"
    },
    {
        "col0": "CA",
        "col1": "Wiley-Blackwell",
        "col2": "CAMCAM",
        "col3": "55030061"
    },
    {
        "col0": "Business and Society Review",
        "col1": "Wiley-Blackwell",
        "col2": "BUSRAM",
        "col3": "75640253"
    },
    {
        "col0": "Business Information Review",
        "col1": "Sage Publications",
        "col2": "BIREEY",
        "col3": "sn86015890"
    },
    {
        "col0": "Business Ethics: A European Review",
        "col1": "John Wiley & Sons",
        "col2": "BUETFV",
        "col3": "93641302"
    },
    {
        "col0": "Bulletin of the World Health Organization",
        "col1": "World Health Organization",
        "col2": "BWHOA6",
        "col3": "52004897"
    }
]