[
    {
        "col0": "F. Devlin",
        "col1": "1988-10-27",
        "col2": "1900-1-19",
        "col3": "1900-1-19"
    },
    {
        "col0": "F. Kobbero",
        "col1": "2009-1-21",
        "col2": "1936-3-13",
        "col3": "1936-3-13"
    },
    {
        "col0": "F. Sonneville",
        "col1": "2003-11-20",
        "col2": "1931-1-3",
        "col3": "1931-1-3"
    },
    {
        "col0": "E. Hawthorn",
        "col1": "2000-1-1",
        "col2": "1878-1-1",
        "col3": "1878-1-1"
    },
    {
        "col0": "E. Choong",
        "col1": "2013-1-28",
        "col2": "1930-5-29",
        "col3": "1930-5-29"
    },
    {
        "col0": "D. Cundall",
        "col1": "1954-2-8",
        "col2": "1882-0-0",
        "col3": "1882-0-0"
    },
    {
        "col0": "D. Sudirman",
        "col1": "1986-6-10",
        "col2": "1922-4-29",
        "col3": "1922-4-29"
    },
    {
        "col0": "D. G. Freeman",
        "col1": "2001-6-28",
        "col2": "1920-9-6",
        "col3": "1920-9-6"
    },
    {
        "col0": "David E. L. Choong",
        "col1": "2011-9-10",
        "col2": "1929-4-5",
        "col3": "1929-4-5"
    },
    {
        "col0": "C. Jepsen",
        "col1": "1989-2-3",
        "col2": "1921-1-8",
        "col3": "1921-1-8"
    },
    {
        "col0": "B. Uber",
        "col1": "1983-4-30",
        "col2": "1906-6-2",
        "col3": "1906-6-2"
    },
    {
        "col0": "A. Engelbach",
        "col1": "1961-12-14",
        "col2": "1881-1-1",
        "col3": "1881-1-1"
    },
    {
        "col0": "A. H. Hansen",
        "col1": "2000-1-1",
        "col2": "1930-1-1",
        "col3": "1930-1-1"
    },
    {
        "col0": "A. Bairstow",
        "col1": "2016-2-13",
        "col2": "1943-1-1",
        "col3": "1943-1-1"
    },
    {
        "col0": "A. Gowenlock",
        "col1": "1957-10-1",
        "col2": "1878-1-1",
        "col3": "1878-1-1"
    },
    {
        "col0": "A. Prebble",
        "col1": "1946-8-27",
        "col2": "1873-10-22",
        "col3": "1873-10-22"
    },
    {
        "col0": "A. Titherley",
        "col1": "1963-6-24",
        "col2": "1903-1-1",
        "col3": "1903-1-1"
    }
]