[
    {
        "col0": "Zinc",
        "col1": "Waxy",
        "col2": "Sir Peter Teazle",
        "col3": "George FitzRoy, 4th Duke of Grafton"
    },
    {
        "col0": "Zenda",
        "col1": "Gone West",
        "col2": "Dancing Brave",
        "col3": "J. Farms"
    },
    {
        "col0": "Zeal",
        "col1": "Walton",
        "col2": "Sir Peter Teazle",
        "col3": "George FitzRoy, 4th Duke of Grafton"
    },
    {
        "col0": "Zarathustra",
        "col1": "Bahram",
        "col2": "Sansovino",
        "col3": "H. S. Gray"
    },
    {
        "col0": "Zambezi Sun",
        "col1": "Danehill",
        "col2": "Zafonic",
        "col3": "J. Farms"
    },
    {
        "col0": "Zahrat Dubai",
        "col1": "Northern Dancer",
        "col2": "Star Appeal",
        "col3": "Ahmed Bin Rashid Al Maktoum"
    },
    {
        "col0": "Zagreb",
        "col1": "Nureyev",
        "col2": "Wollow",
        "col3": "A. Paulson"
    },
    {
        "col0": "Zafonic",
        "col1": "Mr. Prospector",
        "col2": "The Minstrel",
        "col3": "J. Farms"
    },
    {
        "col0": "Zabeel",
        "col1": "Sir Ivor",
        "col2": "Nureyev",
        "col3": "C. Stud"
    },
    {
        "col0": "Your Majesty",
        "col1": "St. Simon",
        "col2": "Melton",
        "col3": "J. B. Joel"
    },
    {
        "col0": "Your Host",
        "col1": "Hyperion",
        "col2": "Mahmoud",
        "col3": "L. B. Mayer"
    },
    {
        "col0": "Young Giantess",
        "col1": "Florizel",
        "col2": "Matchem",
        "col3": "Sir Charles Bunbury, 6th Baronet"
    },
    {
        "col0": "Yagli",
        "col1": "Mr. Prospector",
        "col2": "Nijinsky II",
        "col3": "A. E. Paulson"
    },
    {
        "col0": "Xaar",
        "col1": "Gone West",
        "col2": "Sir Ivor",
        "col3": "J. Farms"
    },
    {
        "col0": "Workforce",
        "col1": "Kingmambo",
        "col2": "Sadler's Wells",
        "col3": "J. Farms"
    },
    {
        "col0": "Wool Winder",
        "col1": "Bend Or",
        "col2": "St. Simon",
        "col3": "N. Baird"
    },
    {
        "col0": "Winsili",
        "col1": "Danehill",
        "col2": "Pivotal",
        "col3": "J. Farms"
    },
    {
        "col0": "Wings of Desire",
        "col1": "Polar Falcon",
        "col2": "In the Wings",
        "col3": "A. Bamford"
    },
    {
        "col0": "Wince",
        "col1": "Sharpen Up",
        "col2": "Lyphard",
        "col3": "J. Farms"
    },
    {
        "col0": "White Moonstone",
        "col1": "Roberto",
        "col2": "Seeking The Gold",
        "col3": "S. Stable"
    },
    {
        "col0": "Whiskery",
        "col1": "Broomstick",
        "col2": "Peter Pan I",
        "col3": "H. P. Whitney"
    },
    {
        "col0": "Whirlaway",
        "col1": "Blandford",
        "col2": "Sweep",
        "col3": "C. Farm"
    },
    {
        "col0": "What a Treat",
        "col1": "Owen Tudor",
        "col2": "Stymie",
        "col3": "George D. Widener, Jr."
    },
    {
        "col0": "Westerner",
        "col1": "Danzig",
        "col2": "Troy",
        "col3": "D. Wildenstein"
    },
    {
        "col0": "Weekend Surprise",
        "col1": "Bold Ruler",
        "col2": "Buckpasser",
        "col3": "L. E. Farm"
    },
    {
        "col0": "Weapon's Amnesty",
        "col1": "Mtoto",
        "col2": "Old Vic",
        "col3": "G. H. Stud"
    },
    {
        "col0": "Warning",
        "col1": "In Reality",
        "col2": "Roberto",
        "col3": "J. Farms"
    },
    {
        "col0": "War Relic",
        "col1": "Fair Play",
        "col2": "Friar Rock",
        "col3": "S. D. Riddle"
    },
    {
        "col0": "War Command",
        "col1": "Danzig",
        "col2": "Red Ransom",
        "col3": "H. J. Allen"
    },
    {
        "col0": "War Admiral",
        "col1": "Fair Play",
        "col2": "Sweep",
        "col3": "S. D. Riddle"
    },
    {
        "col0": "Volksraad",
        "col1": "Danzig",
        "col2": "Secretariat",
        "col3": "W. P. Stud"
    },
    {
        "col0": "Vintage Crop",
        "col1": "Riverman",
        "col2": "Bustino",
        "col3": "Bertram & Diana Firestone"
    },
    {
        "col0": "Victorian",
        "col1": "Broomstick",
        "col2": "Peter Pan I",
        "col3": "H. P. Whitney"
    },
    {
        "col0": "Victoria Park",
        "col1": "Flares",
        "col2": "Windfields",
        "col3": "E. P. Taylor"
    },
    {
        "col0": "Victoire Pisa",
        "col1": "Sunday Silence",
        "col2": "Machiavellian",
        "col3": "S. Farm"
    },
    {
        "col0": "Vespa",
        "col1": "Orville",
        "col2": "Waxy",
        "col3": "W. baronets"
    },
    {
        "col0": "Ventura",
        "col1": "Mr. Prospector",
        "col2": "Be My Guest",
        "col3": "J. Farms"
    },
    {
        "col0": "Vayrann",
        "col1": "Queen's Hussar",
        "col2": "Val de Loir",
        "col3": "A. K. IV"
    },
    {
        "col0": "Val Royal",
        "col1": "Nijinsky II",
        "col2": "Bikala",
        "col3": "J. Lagardere"
    },
    {
        "col0": "Vagrancy",
        "col1": "Teddy",
        "col2": "Man o' War",
        "col3": "B. Stud"
    },
    {
        "col0": "Unfuwain",
        "col1": "Nearctic",
        "col2": "Bustino",
        "col3": "Hamdan bin Rashid Al Maktoum"
    },
    {
        "col0": "Unbreakable",
        "col1": "Phalaris",
        "col2": "Prince Palatine",
        "col3": "J. E. Widener"
    },
    {
        "col0": "Typhoon Tracy",
        "col1": "Roberto",
        "col2": "Last Tycoon",
        "col3": "Queensland"
    },
    {
        "col0": "Twilight Tear",
        "col1": "Bull Dog",
        "col2": "Blue Larkspur",
        "col3": "C. Farm"
    },
    {
        "col0": "Twice Over",
        "col1": "Distant View",
        "col2": "Caerleon",
        "col3": "J. Farms"
    },
    {
        "col0": "Turkish Trousers",
        "col1": "Double Jay",
        "col2": "Nasrullah",
        "col3": "H. B. Keck"
    },
    {
        "col0": "Tulyar",
        "col1": "Bois Roussel",
        "col2": "Nearco",
        "col3": "A. K. III"
    },
    {
        "col0": "Try My Best",
        "col1": "Nearctic",
        "col2": "Buckpasser",
        "col3": "E. P. Taylor"
    },
    {
        "col0": "True North III",
        "col1": "Nearctic",
        "col2": "Rosemont",
        "col3": "N. Farm"
    },
    {
        "col0": "Tristan",
        "col1": "Newminster",
        "col2": "Stockwell",
        "col3": "Robert St Clair-Erskine, 4th Earl of Rosslyn"
    },
    {
        "col0": "Triptych",
        "col1": "Never Bend",
        "col2": "Hail To Reason",
        "col3": "N. B. Hunt"
    },
    {
        "col0": "Trillion",
        "col1": "Turn-To",
        "col2": "Tulyar",
        "col3": "N. B. Hunt"
    },
    {
        "col0": "Treve",
        "col1": "Montjeu",
        "col2": "Anabaa",
        "col3": "H. d. Quesnay"
    },
    {
        "col0": "Trading Leather",
        "col1": "Galileo",
        "col2": "Sinndar",
        "col3": "J. Bolger"
    },
    {
        "col0": "Tracery",
        "col1": "Sainfoin",
        "col2": "Orme",
        "col3": "A. B. Jr."
    },
    {
        "col0": "Toussaud",
        "col1": "Northern Dancer",
        "col2": "In Reality",
        "col3": "J. Farms"
    },
    {
        "col0": "Toulon",
        "col1": "High Top",
        "col2": "Mill Reef",
        "col3": "J. Farms"
    },
    {
        "col0": "Touch Gold",
        "col1": "Vice Regent",
        "col2": "Buckpasser",
        "col3": "Hill 'n' Dale Farms"
    },
    {
        "col0": "Topsider",
        "col1": "Nearctic",
        "col2": "Round Table",
        "col3": "P. Mellon"
    },
    {
        "col0": "Top Ville",
        "col1": "Derring-Do",
        "col2": "Charlottesville",
        "col3": "A. K. IV"
    },
    {
        "col0": "Top Flight",
        "col1": "Sardanapale",
        "col2": "Peter Pan I",
        "col3": "H. P. Whitney"
    },
    {
        "col0": "Tontine",
        "col1": "Gohanna",
        "col2": "Waxy",
        "col3": "George FitzRoy, 4th Duke of Grafton"
    },
    {
        "col0": "Tompion",
        "col1": "Menow",
        "col2": "Count Fleet",
        "col3": "C. V. Whitney"
    },
    {
        "col0": "Titled Hero",
        "col1": "Windfields",
        "col2": "Bull Page",
        "col3": "E. P. Taylor"
    },
    {
        "col0": "Tiresias",
        "col1": "Sorcerer",
        "col2": "Waxy",
        "col3": "William Bentinck, 4th Duke of Portland"
    },
    {
        "col0": "Tippity Witchet",
        "col1": "Ben Brush",
        "col2": "St. Simon",
        "col3": "H. P. Whitney"
    },
    {
        "col0": "Tinners Way",
        "col1": "Bold Ruler",
        "col2": "The Minstrel",
        "col3": "J. Farms"
    },
    {
        "col0": "Timepiece",
        "col1": "Gone West",
        "col2": "Sadler's Wells",
        "col3": "J. Farms"
    },
    {
        "col0": "Tim Tam",
        "col1": "Menow",
        "col2": "Bull Lea",
        "col3": "C. Farm"
    },
    {
        "col0": "Tiffin",
        "col1": "The Tetrarch",
        "col2": "Sunstar",
        "col3": "Sir John Rutherford, 1st Baronet"
    },
    {
        "col0": "Tiago",
        "col1": "Pleasant Colony",
        "col2": "Stop The Music",
        "col3": "J. Moss"
    },
    {
        "col0": "Thunder Gulch",
        "col1": "Mr. Prospector",
        "col2": "Storm Bird",
        "col3": "P. M. Brant"
    },
    {
        "col0": "Thornfield",
        "col1": "Nijinsky II",
        "col2": "Conquistador Cielo",
        "col3": "K. H. Stable"
    },
    {
        "col0": "Theatrical",
        "col1": "Northern Dancer",
        "col2": "Sassafras",
        "col3": "Bertram & Diana Firestone"
    },
    {
        "col0": "The Minstrel",
        "col1": "Nearctic",
        "col2": "Victoria Park",
        "col3": "W. Farm"
    },
    {
        "col0": "Teofilo",
        "col1": "Sadler's Wells",
        "col2": "Danehill",
        "col3": "J. Bolger"
    },
    {
        "col0": "Tempera",
        "col1": "Seattle Slew",
        "col2": "Mr. Prospector",
        "col3": "D. Stud"
    },
    {
        "col0": "Tapestry",
        "col1": "Sadlers Wells",
        "col2": "Danehill",
        "col3": "S. Niarchos"
    },
    {
        "col0": "Tanya",
        "col1": "St. Gatien",
        "col2": "Hanover",
        "col3": "W. C. Whitney"
    },
    {
        "col0": "Tale of Ekati",
        "col1": "Storm Cat",
        "col2": "Sunday Silence",
        "col3": "C. E. Fipke"
    },
    {
        "col0": "Take Your Place",
        "col1": "Princequillo",
        "col2": "Nasrullah",
        "col3": "G. Farm"
    },
    {
        "col0": "Taghrooda",
        "col1": "Cape Cross",
        "col2": "Sadler's Wells",
        "col3": "S. Stud"
    },
    {
        "col0": "Taboun",
        "col1": "Tehran",
        "col2": "Fair Trial",
        "col3": "A. Khan"
    },
    {
        "col0": "Swynford",
        "col1": "Isinglass",
        "col2": "Tristan",
        "col3": "Frederick Stanley, 16th Earl of Derby"
    },
    {
        "col0": "Sweet Vendetta",
        "col1": "A P Indy",
        "col2": "Desert Wine",
        "col3": "D. Cassidy"
    }
]