[
    {
        "col0": "S. Seifert",
        "col1": "Philippines",
        "col2": "City University of New York",
        "col3": "Brown"
    },
    {
        "col0": "M. Leonardo",
        "col1": "New Jersey",
        "col2": "Suffolk University",
        "col3": "Brown"
    },
    {
        "col0": "M. Young",
        "col1": "Philippines",
        "col2": "Trinity University of Asia",
        "col3": "Brown"
    },
    {
        "col0": "L. Goncalves",
        "col1": "Porto",
        "col2": "New University of Lisbon",
        "col3": "Green"
    },
    {
        "col0": "F. Jenkins",
        "col1": "Louisiana",
        "col2": "Louisiana Tech University",
        "col3": "Brown"
    },
    {
        "col0": "C. Nwadike",
        "col1": "Awka South",
        "col2": "Nnamdi Azikiwe University",
        "col3": "Black"
    },
    {
        "col0": "B. Pamarthi",
        "col1": "Chapel Hill, North Carolina",
        "col2": "University of North Carolina at Chapel Hill",
        "col3": "Brown"
    },
    {
        "col0": "B. Guidotti",
        "col1": "Philippines",
        "col2": "Ateneo de Manila University",
        "col3": "Brown"
    },
    {
        "col0": "A. Bhat",
        "col1": "Bhadravati, Karnataka",
        "col2": "Bachelor's degree",
        "col3": "Dark Brown"
    }
]