[
    {
        "col0": "Zygote",
        "col1": "Gamete",
        "col2": "5",
        "col3": "45"
    },
    {
        "col0": "Yolk sac",
        "col1": "Endoderm",
        "col2": "11",
        "col3": "54"
    },
    {
        "col0": "Vitelline duct",
        "col1": "Midgut",
        "col2": "10",
        "col3": "54"
    },
    {
        "col0": "Urogenital sinus",
        "col1": "Cloaca",
        "col2": "252",
        "col3": "1213"
    },
    {
        "col0": "Stomodeum",
        "col1": "Surface ectoderm",
        "col2": "241",
        "col3": "1101"
    },
    {
        "col0": "Splanchnopleuric mesenchyme",
        "col1": "Endoderm",
        "col2": "6",
        "col3": "50"
    },
    {
        "col0": "Somite",
        "col1": "Paraxial mesoderm",
        "col2": "9",
        "col3": "52"
    },
    {
        "col0": "Somatopleuric mesenchyme",
        "col1": "Ectoderm",
        "col2": "6",
        "col3": "50"
    },
    {
        "col0": "Septum transversum",
        "col1": "Mesenchyme",
        "col2": "250",
        "col3": "1193"
    },
    {
        "col0": "Secondary palate development",
        "col1": "Maxillary prominence",
        "col2": "13",
        "col3": "70"
    },
    {
        "col0": "Respiratory bud",
        "col1": "Foregut",
        "col2": "235",
        "col3": "1071"
    },
    {
        "col0": "Pronephros",
        "col1": "Nephrotome",
        "col2": "252",
        "col3": "1205"
    },
    {
        "col0": "Pronephric duct",
        "col1": "Intermediate mesoderm",
        "col2": "252",
        "col3": "1205"
    },
    {
        "col0": "Proctodeum",
        "col1": "Surface ectoderm",
        "col2": "241",
        "col3": "1110"
    },
    {
        "col0": "Primary palate",
        "col1": "Intermaxillary segment",
        "col2": "13",
        "col3": "70"
    },
    {
        "col0": "Paramesonephric duct",
        "col1": "Intermediate mesoderm",
        "col2": "252",
        "col3": "1206"
    },
    {
        "col0": "Otic vesicle",
        "col1": "Otic placode",
        "col2": "228",
        "col3": "1030"
    },
    {
        "col0": "Otic pit",
        "col1": "Otic placode",
        "col2": "228",
        "col3": "1029"
    },
    {
        "col0": "Optic cup",
        "col1": "Optic vesicles",
        "col2": "224",
        "col3": "1001"
    },
    {
        "col0": "Notochord",
        "col1": "Chordamesoderm",
        "col2": "8",
        "col3": "52"
    },
    {
        "col0": "Neural tube",
        "col1": "Neural groove",
        "col2": "7",
        "col3": "50"
    },
    {
        "col0": "Neural groove",
        "col1": "Neural plate",
        "col2": "7",
        "col3": "50"
    },
    {
        "col0": "Neural fold",
        "col1": "Neural plate",
        "col2": "7",
        "col3": "50"
    },
    {
        "col0": "Morula",
        "col1": "Zygote",
        "col2": "6",
        "col3": "46"
    },
    {
        "col0": "Mesonephros",
        "col1": "Intermediate mesoderm",
        "col2": "252",
        "col3": "1205"
    },
    {
        "col0": "Mesonephric duct",
        "col1": "Intermediate mesoderm",
        "col2": "252",
        "col3": "1205"
    },
    {
        "col0": "Medial nasal prominence",
        "col1": "Frontonasal prominence",
        "col2": "13",
        "col3": "67"
    },
    {
        "col0": "Meckel's cartilage",
        "col1": "First pharyngeal arch",
        "col2": "13",
        "col3": "66"
    },
    {
        "col0": "Maxillary prominence",
        "col1": "First branchial arch",
        "col2": "13",
        "col3": "69"
    },
    {
        "col0": "Lateral plate mesoderm",
        "col1": "Mesoderm",
        "col2": "6",
        "col3": "50"
    },
    {
        "col0": "Lateral nasal prominence",
        "col1": "Frontonasal prominence",
        "col2": "13",
        "col3": "67"
    },
    {
        "col0": "Laryngotracheal groove",
        "col1": "Endoderm",
        "col2": "235",
        "col3": "1071"
    },
    {
        "col0": "Labioscrotal swelling",
        "col1": "Genital tubercle",
        "col2": "252",
        "col3": "1214"
    },
    {
        "col0": "Intermaxillary segment",
        "col1": "Medial nasal prominence",
        "col2": "13",
        "col3": "68"
    },
    {
        "col0": "Inner cell mass",
        "col1": "Blastocyst",
        "col2": "6",
        "col3": "46"
    },
    {
        "col0": "Hindgut",
        "col1": "Mesenchyme",
        "col2": "241",
        "col3": "1101"
    },
    {
        "col0": "Gubernaculum testis",
        "col1": "Gubernaculum",
        "col2": "252",
        "col3": "1211"
    },
    {
        "col0": "Gubernaculum",
        "col1": "Intermediate mesoderm",
        "col2": "252",
        "col3": "1211"
    },
    {
        "col0": "Gonadal ridge",
        "col1": "Urogenital folds",
        "col2": "252",
        "col3": "1207"
    },
    {
        "col0": "Genital tubercle",
        "col1": "Somatopleure",
        "col2": "252",
        "col3": "1213"
    },
    {
        "col0": "Foregut",
        "col1": "Mesenchyme",
        "col2": "241",
        "col3": "1101"
    },
    {
        "col0": "Endoderm",
        "col1": "Hypoblast",
        "col2": "6",
        "col3": "49"
    },
    {
        "col0": "Endocardial cushions",
        "col1": "Lateral plate mesoderm",
        "col2": "135",
        "col3": "512"
    },
    {
        "col0": "Cloacal membrane",
        "col1": "Primitive streak",
        "col2": "6",
        "col3": "47"
    },
    {
        "col0": "Cloaca",
        "col1": "Endoderm",
        "col2": "241",
        "col3": "1109"
    },
    {
        "col0": "Blood islands",
        "col1": "Mesoderm",
        "col2": "135",
        "col3": "506"
    },
    {
        "col0": "Basal plate",
        "col1": "Neural tube",
        "col2": "184",
        "col3": "735"
    },
    {
        "col0": "Axial mesoderm",
        "col1": "Mesoderm",
        "col2": "6",
        "col3": "50"
    },
    {
        "col0": "Aorticopulmonary septum",
        "col1": "Neural crest",
        "col2": "135",
        "col3": "514"
    },
    {
        "col0": "Aortic sac",
        "col1": "Neural crest",
        "col2": "135",
        "col3": "514"
    },
    {
        "col0": "Allantois",
        "col1": "Yolk sac",
        "col2": "12",
        "col3": "54"
    },
    {
        "col0": "Alar plate",
        "col1": "Neural tube",
        "col2": "184",
        "col3": "735"
    }
]