[
    {
        "col0": "Franklin School",
        "col1": "Kilham, Hopkins & Greeley",
        "col2": "12140",
        "col3": "2009-09-25"
    },
    {
        "col0": "Franklin County Courthouse",
        "col1": "W. Chamberlain & Co.",
        "col2": "8093",
        "col3": "1980-09-18"
    },
    {
        "col0": "Frank Thomas House",
        "col1": "F. L. Wright",
        "col2": "1214",
        "col3": "1972-09-14"
    },
    {
        "col0": "Frank Lloyd Wright Home and Studio",
        "col1": "F. L. Wright",
        "col2": "1618",
        "col3": "1972-09-14"
    },
    {
        "col0": "Frank Lloyd Wright-Prairie School of Architecture Historic District",
        "col1": "F. L. Wright",
        "col2": "1849413",
        "col3": "1973-12-04"
    },
    {
        "col0": "Frank Evans High School",
        "col1": "Lockwood, Greene & Co.",
        "col2": "18575",
        "col3": "2012-06-27"
    },
    {
        "col0": "Frank Chamberlain Clark House",
        "col1": "F. C. Clark",
        "col2": "3237",
        "col3": "1982-10-29"
    },
    {
        "col0": "Frank C. Stettler House",
        "col1": "L. &. Holford",
        "col2": "809",
        "col3": "1990-02-23"
    },
    {
        "col0": "Francis R. Chown House",
        "col1": "O. K. Kleeman",
        "col2": "404",
        "col3": "1990-02-23"
    },
    {
        "col0": "Francis Quadrangle",
        "col1": "M. F. Bell",
        "col2": "133141",
        "col3": "1973-12-18"
    },
    {
        "col0": "Francis M. Drexel School",
        "col1": "J. Anschutz",
        "col2": "4046",
        "col3": "1986-12-04"
    },
    {
        "col0": "Fourth and Gill, Knoxville, Tennessee",
        "col1": "G. F. Barber",
        "col2": "291373",
        "col3": "1985-04-29"
    },
    {
        "col0": "Foster-Buell Estate",
        "col1": "W. E. Fisher",
        "col2": "14568",
        "col3": "1998-04-01"
    },
    {
        "col0": "Fort Wayne Old City Hall Building",
        "col1": "W. &. Mahurin",
        "col2": "4046",
        "col3": "1973-06-04"
    },
    {
        "col0": "Fort Wayne",
        "col1": "M. C. Meigs",
        "col2": "388498",
        "col3": "1971-05-06"
    },
    {
        "col0": "Fort Washington",
        "col1": "R. Gridley",
        "col2": "2832",
        "col3": "1973-04-03"
    },
    {
        "col0": "Fort Warren",
        "col1": "United States Army Corps of Engineers",
        "col2": "161874",
        "col3": "1970-08-29"
    },
    {
        "col0": "Fort Union Trading Post National Historic Site",
        "col1": "A. F. Company",
        "col2": "1796804",
        "col3": "1966-10-15"
    },
    {
        "col0": "Fort Tryon Park",
        "col1": "Frederick Law Olmsted, Jr.",
        "col2": "269115",
        "col3": "1978-12-19"
    },
    {
        "col0": "Fort Ticonderoga",
        "col1": "Michel Chartier de Lotbiniere, Marquis de Lotbiniere",
        "col2": "88828498",
        "col3": "1966-10-15"
    },
    {
        "col0": "Fort Smith Masonic Temple",
        "col1": "G. R. Mann",
        "col2": "3642",
        "col3": "1992-11-20"
    },
    {
        "col0": "Fort Pocahontas",
        "col1": "United States Colored Troops",
        "col2": "242811",
        "col3": "1999-07-27"
    },
    {
        "col0": "Fort Ord Station Veterinary Hospital",
        "col1": "United States Army Corps of Engineers",
        "col2": "7284",
        "col3": "2014-06-17"
    },
    {
        "col0": "Fort Negley",
        "col1": "James St. Clair Morton",
        "col2": "16722",
        "col3": "1975-04-21"
    },
    {
        "col0": "Fort Loudoun",
        "col1": "John William Gerard de Brahm",
        "col2": "202342",
        "col3": "1966-10-15"
    },
    {
        "col0": "Fort Ligonier",
        "col1": "C. M. Stotz",
        "col2": "60702",
        "col3": "1975-01-21"
    },
    {
        "col0": "Fort Knox",
        "col1": "J. G. Totten",
        "col2": "501810",
        "col3": "1969-10-01"
    },
    {
        "col0": "Fort Harrison National Cemetery",
        "col1": "M. C. Meigs",
        "col2": "8093",
        "col3": "1995-08-10"
    },
    {
        "col0": "Fort Golgotha and the Old Burial Hill Cemetery",
        "col1": "B. Thompson",
        "col2": "10117",
        "col3": "1981-03-02"
    },
    {
        "col0": "Fort George Wright",
        "col1": "Federal government of the United States",
        "col2": "1011714",
        "col3": "1976-05-17"
    },
    {
        "col0": "Fort Dobbs",
        "col1": "A. Dobbs",
        "col2": "38445",
        "col3": "1970-09-15"
    },
    {
        "col0": "Fort Delaware",
        "col1": "J. G. Totten",
        "col2": "1165494",
        "col3": "1971-12-16"
    },
    {
        "col0": "Fort Dearborn Hotel",
        "col1": "H. &. Roche",
        "col2": "809",
        "col3": "1982-11-12"
    },
    {
        "col0": "Fort Davis National Historic Site",
        "col1": "W. Merritt",
        "col2": "2116505",
        "col3": "1966-10-15"
    },
    {
        "col0": "Fort Boise",
        "col1": "U. S. Army",
        "col2": "704153",
        "col3": "1972-11-09"
    },
    {
        "col0": "Former Reidsville High School",
        "col1": "W. C. Northup",
        "col2": "6474",
        "col3": "1994-01-21"
    },
    {
        "col0": "Former Berwick High School",
        "col1": "J. E. Richardson",
        "col2": "4046",
        "col3": "2012-01-27"
    },
    {
        "col0": "Forest Park Hotel",
        "col1": "P. J. Bradshaw",
        "col2": "4856",
        "col3": "1984-03-22"
    },
    {
        "col0": "Forest Hill, Ohio",
        "col1": "A. J. Thomas",
        "col2": "101171",
        "col3": "1986-08-14"
    },
    {
        "col0": "Forest City Baptist Church",
        "col1": "J. M. McMichael",
        "col2": "6879",
        "col3": "1989-09-14"
    },
    {
        "col0": "Ford Valve Plant",
        "col1": "A. Kahn",
        "col2": "16187",
        "col3": "1995-08-01"
    },
    {
        "col0": "Ford Motor Company Edgewater Assembly Plant",
        "col1": "A. Kahn",
        "col2": "150543",
        "col3": "1983-09-15"
    },
    {
        "col0": "Ford City Armory",
        "col1": "J. F. Kuntz",
        "col2": "1214",
        "col3": "1989-12-22"
    },
    {
        "col0": "Ford Building",
        "col1": "W. D. Teague",
        "col2": "20234",
        "col3": "1973-04-26"
    },
    {
        "col0": "Fontainebleau Miami Beach",
        "col1": "M. Lapidus",
        "col2": "180525",
        "col3": "2008-12-22"
    },
    {
        "col0": "Florida Governor's Mansion",
        "col1": "M. S. Wyeth",
        "col2": "1393",
        "col3": "2006-07-20"
    },
    {
        "col0": "Flagg Township Public Library",
        "col1": "C. a. Starck",
        "col2": "4046",
        "col3": "1973-10-25"
    },
    {
        "col0": "Fisk University Carnegie Library",
        "col1": "M. &. McKissack",
        "col2": "1214",
        "col3": "1985-01-02"
    },
    {
        "col0": "Fisher Hill Historic District",
        "col1": "F. L. Olmsted",
        "col2": "607028",
        "col3": "1985-10-17"
    },
    {
        "col0": "Fisher Building",
        "col1": "A. Kahn",
        "col2": "45242",
        "col3": "1980-10-14"
    },
    {
        "col0": "First Ward School",
        "col1": "A. C. Lyons",
        "col2": "4046",
        "col3": "2009-12-30"
    },
    {
        "col0": "First Universalist Church",
        "col1": "C. W. Damon",
        "col2": "809",
        "col3": "1979-12-26"
    },
    {
        "col0": "First Unitarian Society in Newton",
        "col1": "Cram, Goodhue & Ferguson",
        "col2": "5260",
        "col3": "1986-09-04"
    },
    {
        "col0": "First Unitarian Church",
        "col1": "J. W. McLaughlin",
        "col2": "4046",
        "col3": "1976-05-28"
    },
    {
        "col0": "First Presbyterian Church of Oyster Bay",
        "col1": "J. C. Cady",
        "col2": "4046",
        "col3": "1976-12-12"
    },
    {
        "col0": "First Presbyterian Church of Le Roy",
        "col1": "C. Bragdon",
        "col2": "4046",
        "col3": "2014-09-10"
    },
    {
        "col0": "First Presbyterian Church of Far Rockaway",
        "col1": "O. Brothers",
        "col2": "12140",
        "col3": "1986-09-22"
    },
    {
        "col0": "First Presbyterian Church and Lewis Pintard House",
        "col1": "J. R. Pope",
        "col2": "12140",
        "col3": "1979-09-07"
    },
    {
        "col0": "First Presbyterian Church",
        "col1": "L. Bradley",
        "col2": "1214",
        "col3": "1973-03-20"
    },
    {
        "col0": "First Presbyterian Church",
        "col1": "C. Shryock",
        "col2": "2023",
        "col3": "1974-12-30"
    },
    {
        "col0": "First Presbyterian Church",
        "col1": "H. Upjohn",
        "col2": "24281",
        "col3": "1976-04-30"
    },
    {
        "col0": "First Presbyterian Church",
        "col1": "P. Belluschi",
        "col2": "4046",
        "col3": "1974-12-31"
    },
    {
        "col0": "First Presbyterian Church, Leavenworth",
        "col1": "W. P. Feth",
        "col2": "2832",
        "col3": "2006-01-11"
    },
    {
        "col0": "First National State Bank Building",
        "col1": "C. Gilbert",
        "col2": "404",
        "col3": "1977-08-10"
    },
    {
        "col0": "First National Bank of Hood River",
        "col1": "W. a. Lewis",
        "col2": "464",
        "col3": "2006-01-26"
    },
    {
        "col0": "First National Bank of Charleroi",
        "col1": "W. L. Stoddart",
        "col2": "3642",
        "col3": "2007-02-07"
    },
    {
        "col0": "First National Bank Building",
        "col1": "C. &. Shattuck",
        "col2": "1214",
        "col3": "1974-10-15"
    },
    {
        "col0": "First Methodist Church, Gatlinburg",
        "col1": "C. I. Barber",
        "col2": "4046",
        "col3": "2007-07-03"
    },
    {
        "col0": "First Lutheran Church",
        "col1": "Pretzinger",
        "col2": "4046",
        "col3": "1983-03-29"
    },
    {
        "col0": "First Houses",
        "col1": "F. L. Ackerman",
        "col2": "4856",
        "col3": "1979-12-18"
    },
    {
        "col0": "First Cumberland Presbyterian Church-McKenzie",
        "col1": "M. Brothers",
        "col2": "5260",
        "col3": "1993-06-17"
    },
    {
        "col0": "First Congregational Church of Western Springs",
        "col1": "G. G. Elmslie",
        "col2": "6474",
        "col3": "2006-08-08"
    },
    {
        "col0": "First Congregational Church of Cheshire",
        "col1": "D. Hoadley",
        "col2": "8093",
        "col3": "1973-02-16"
    },
    {
        "col0": "First Congregational Church of Austin",
        "col1": "W. E. Drummond",
        "col2": "4046",
        "col3": "1977-11-17"
    },
    {
        "col0": "First Congregational Church",
        "col1": "E. T. Mix",
        "col2": "2832",
        "col3": "1979-09-04"
    },
    {
        "col0": "First Congregational Church",
        "col1": "F. A. Hale",
        "col2": "1618",
        "col3": "1985-02-08"
    },
    {
        "col0": "First Congregational Church",
        "col1": "H. J. Hefty",
        "col2": "1214",
        "col3": "1975-05-02"
    },
    {
        "col0": "First Church of Jamaica Plain",
        "col1": "N. J. Bradlee",
        "col2": "5665",
        "col3": "1988-07-15"
    },
    {
        "col0": "First Church of Christ, Unitarian",
        "col1": "C. Bulfinch",
        "col2": "8093",
        "col3": "1970-12-30"
    },
    {
        "col0": "First Church of Christ, Scientist",
        "col1": "P. R. Williams",
        "col2": "2428",
        "col3": "1999-08-20"
    },
    {
        "col0": "First Church of Christ, Scientist",
        "col1": "S. S. Beman",
        "col2": "12140",
        "col3": "1989-03-08"
    },
    {
        "col0": "First Christian Church",
        "col1": "M. &. Dodd",
        "col2": "4451",
        "col3": "1979-07-16"
    },
    {
        "col0": "First Christian Church",
        "col1": "E. Saarinen",
        "col2": "16187",
        "col3": "2001-01-03"
    },
    {
        "col0": "First Baptist Church of Vermillion",
        "col1": "B. a. Arnold",
        "col2": "4046",
        "col3": "1982-03-05"
    },
    {
        "col0": "First Baptist Church of Ventura",
        "col1": "R. B. Stacy-Judd",
        "col2": "1214",
        "col3": "2009-07-03"
    },
    {
        "col0": "First Baptist Church Education Building",
        "col1": "R. H. Hunt",
        "col2": "4046",
        "col3": "1980-02-29"
    },
    {
        "col0": "First Baptist Church",
        "col1": "F. H. Fassett",
        "col2": "8093",
        "col3": "1976-11-07"
    },
    {
        "col0": "First Baptist Church",
        "col1": "B. S. Deane",
        "col2": "40063",
        "col3": "1973-04-24"
    },
    {
        "col0": "First Baptist Church",
        "col1": "J. R. Thomas",
        "col2": "4046",
        "col3": "1982-09-09"
    },
    {
        "col0": "First Baptist Church",
        "col1": "D. &. Gardner",
        "col2": "12140",
        "col3": "1997-03-08"
    },
    {
        "col0": "First Baptist Church",
        "col1": "J. Y. Hill",
        "col2": "2023",
        "col3": "1974-12-31"
    },
    {
        "col0": "First African New Church",
        "col1": "P. J. Pelz",
        "col2": "809",
        "col3": "2009-01-29"
    },
    {
        "col0": "Fifth Regiment Armory",
        "col1": "W. &. Nolting",
        "col2": "4856",
        "col3": "1985-09-25"
    },
    {
        "col0": "Fields Corner Municipal Building",
        "col1": "G. A. Clough",
        "col2": "404",
        "col3": "1981-11-12"
    },
    {
        "col0": "Fewell School",
        "col1": "Oklahoma State Dept. of Education",
        "col2": "8093",
        "col3": "1988-09-08"
    },
    {
        "col0": "Feurt Mounds and Village Site",
        "col1": "F. A. culture",
        "col2": "16187",
        "col3": "1973-06-18"
    },
    {
        "col0": "Ferry Street-Thorofare Canal bridge",
        "col1": "Wayne County Road Commission",
        "col2": "3642",
        "col3": "2000-02-18"
    },
    {
        "col0": "Fergus Falls Regional Treatment Center",
        "col1": "W. Dunnell",
        "col2": "44515",
        "col3": "1986-06-26"
    },
    {
        "col0": "Fellwock Garage",
        "col1": "S. &. Company",
        "col2": "404",
        "col3": "1984-04-06"
    },
    {
        "col0": "Federal Hall",
        "col1": "J. Frazee",
        "col2": "1821",
        "col3": "1966-10-15"
    },
    {
        "col0": "Federal Building and United States Courthouse",
        "col1": "J. A. Wetmore",
        "col2": "809",
        "col3": "1980-11-22"
    },
    {
        "col0": "Federal Building and Post Office",
        "col1": "M. E. Bell",
        "col2": "6070",
        "col3": "1974-10-09"
    },
    {
        "col0": "Federal Building",
        "col1": "A. B. Mullet",
        "col2": "2023",
        "col3": "1971-05-06"
    },
    {
        "col0": "Federal Building",
        "col1": "C. &. Howe",
        "col2": "0",
        "col3": "1972-04-13"
    },
    {
        "col0": "Federal Building, United States Post Office and Courthouse",
        "col1": "L. A. Simon",
        "col2": "4046",
        "col3": "1974-10-01"
    },
    {
        "col0": "Farwell Mill",
        "col1": "W. H. Stevens",
        "col2": "8093",
        "col3": "1985-06-20"
    },
    {
        "col0": "Farmville Historic District",
        "col1": "B. &. Benton",
        "col2": "469435",
        "col3": "1993-10-21"
    },
    {
        "col0": "Farmington Historic District",
        "col1": "G. M. Coombs",
        "col2": "343982",
        "col3": "1995-01-20"
    },
    {
        "col0": "Falls Village, Connecticut",
        "col1": "L. &. Bunnell",
        "col2": "283279",
        "col3": "1979-06-14"
    },
    {
        "col0": "Fallon City Hall",
        "col1": "F. DeLongchamps",
        "col2": "2832",
        "col3": "2004-10-27"
    },
    {
        "col0": "Faith Mission",
        "col1": "P. J. Barber",
        "col2": "404",
        "col3": "1982-01-11"
    },
    {
        "col0": "Fairmount Park",
        "col1": "F. L. Olmsted",
        "col2": "16592111",
        "col3": "1972-02-07"
    },
    {
        "col0": "Fairmount Boulevard District",
        "col1": "W. &. Weeks",
        "col2": "526091",
        "col3": "1976-12-12"
    },
    {
        "col0": "Fairfield County Courthouse",
        "col1": "W. R. Briggs",
        "col2": "8093",
        "col3": "1982-01-21"
    },
    {
        "col0": "Fairfield",
        "col1": "J. Ariss",
        "col2": "2266239",
        "col3": "1970-02-26"
    },
    {
        "col0": "Fairbanks City Hall",
        "col1": "T. &. Hummel",
        "col2": "7284",
        "col3": "1990-09-27"
    },
    {
        "col0": "Fair Park Medical Careers Magnet High School",
        "col1": "E. F. Neild",
        "col2": "20234",
        "col3": "2001-01-11"
    },
    {
        "col0": "Exchange Street Historic District",
        "col1": "William R. Walker & Son",
        "col2": "42491",
        "col3": "2002-09-06"
    },
    {
        "col0": "Evergreen Museum & Library",
        "col1": "N. &. Nielson",
        "col2": "68796",
        "col3": "1983-01-17"
    },
    {
        "col0": "Evergreen Cemetery",
        "col1": "F. A. Tompson",
        "col2": "566559",
        "col3": "1992-06-18"
    },
    {
        "col0": "Eustace Hall",
        "col1": "L. H. Bailey",
        "col2": "4046",
        "col3": "1971-09-03"
    },
    {
        "col0": "Eudora Plantation",
        "col1": "J. Wind",
        "col2": "2271095",
        "col3": "1974-12-16"
    },
    {
        "col0": "Essex County Jail",
        "col1": "J. Haviland",
        "col2": "6070",
        "col3": "1991-09-03"
    },
    {
        "col0": "Essex County Courthouse",
        "col1": "C. Gilbert",
        "col2": "4856",
        "col3": "1975-06-26"
    },
    {
        "col0": "Ernest W. Smith House",
        "col1": "G. &. Greene",
        "col2": "7689",
        "col3": "1988-01-14"
    },
    {
        "col0": "Ernest Street Sewage Pumping Station",
        "col1": "Office of City Engineer, Providence",
        "col2": "4046",
        "col3": "1989-01-13"
    },
    {
        "col0": "Erie Armory",
        "col1": "J. F. Kuntz",
        "col2": "8093",
        "col3": "1989-12-22"
    },
    {
        "col0": "Equitable Trust Building",
        "col1": "H. Trumbauer",
        "col2": "2428",
        "col3": "1986-07-03"
    },
    {
        "col0": "English Evangelical Church of the Reformation and Parish House",
        "col1": "G. &. Kaelber",
        "col2": "2428",
        "col3": "1992-03-12"
    },
    {
        "col0": "Engine House No. 3",
        "col1": "W. &. Mahurin",
        "col2": "4046",
        "col3": "1979-07-27"
    },
    {
        "col0": "Emory Place Historic District",
        "col1": "C. I. Barber",
        "col2": "40468",
        "col3": "1994-11-10"
    },
    {
        "col0": "Emmanuel Episcopal Church",
        "col1": "A. J. Davis",
        "col2": "8093",
        "col3": "1990-12-27"
    }
]