[
    {
        "col0": "5176 Yoichi",
        "col1": "12",
        "col2": "1989-01-04",
        "col3": "526980550266",
        "col4": "277466785318"
    },
    {
        "col0": "5175 Ables",
        "col1": "13",
        "col2": "1988-11-04",
        "col3": "305643409627",
        "col4": "282874613706"
    },
    {
        "col0": "5171 Augustesen",
        "col1": "13",
        "col2": "1988-09-08",
        "col3": "410661114858",
        "col4": "315172793990"
    },
    {
        "col0": "516 Amherstia",
        "col1": "8",
        "col2": "1903-09-20",
        "col3": "510173618448",
        "col4": "291956700436"
    },
    {
        "col0": "5160 Camoes",
        "col1": "13",
        "col2": "1979-12-23",
        "col3": "384705884292",
        "col4": "334007165911"
    },
    {
        "col0": "515 Athalia",
        "col1": "11",
        "col2": "1903-09-20",
        "col3": "548440753773",
        "col4": "387832479789"
    },
    {
        "col0": "514 Armida",
        "col1": "9",
        "col2": "1903-08-24",
        "col3": "474554365434",
        "col4": "436780903082"
    },
    {
        "col0": "5148 Giordano",
        "col1": "14",
        "col2": "1960-10-17",
        "col3": "534033072604",
        "col4": "398509967971"
    },
    {
        "col0": "5145 Pholus",
        "col1": "7",
        "col2": "1992-01-09",
        "col3": "4791918994262",
        "col4": "1301710912108"
    },
    {
        "col0": "5144 Achates",
        "col1": "9",
        "col2": "1991-12-02",
        "col3": "989709592977",
        "col4": "567574321435"
    },
    {
        "col0": "5143 Heracles",
        "col1": "13",
        "col2": "1991-11-07",
        "col3": "486180766374",
        "col4": "62445098308"
    },
    {
        "col0": "513 Centesima",
        "col1": "9",
        "col2": "1903-08-24",
        "col3": "488407128261",
        "col4": "414071946310"
    },
    {
        "col0": "5130 Ilioneus",
        "col1": "9",
        "col2": "1989-09-30",
        "col3": "787917025189",
        "col4": "772568283656"
    },
    {
        "col0": "5120 Bitias",
        "col1": "9",
        "col2": "1988-10-13",
        "col3": "876703361450",
        "col4": "702810796548"
    },
    {
        "col0": "511 Davida",
        "col1": "6",
        "col2": "1903-05-30",
        "col3": "561926799560",
        "col4": "384951037802"
    },
    {
        "col0": "510 Mabella",
        "col1": "9",
        "col2": "1903-05-20",
        "col3": "465189538728",
        "col4": "316354617169"
    },
    {
        "col0": "5101 Akhmerov",
        "col1": "12",
        "col2": "1985-10-22",
        "col3": "501855976837",
        "col4": "397391783727"
    },
    {
        "col0": "50 Virginia",
        "col1": "9",
        "col2": "1857-10-04",
        "col3": "509817000000",
        "col4": "283389000000"
    },
    {
        "col0": "509 Iolanda",
        "col1": "8",
        "col2": "1903-04-28",
        "col3": "501661499605",
        "col4": "414655378006"
    },
    {
        "col0": "508 Princetonia",
        "col1": "8",
        "col2": "1903-04-20",
        "col3": "476753454133",
        "col4": "469034204005"
    },
    {
        "col0": "5088 Tancredi",
        "col1": "12",
        "col2": "1979-08-22",
        "col3": "537475229850",
        "col4": "391213391667"
    },
    {
        "col0": "5080 Oja",
        "col1": "12",
        "col2": "1976-03-02",
        "col3": "376947544240",
        "col4": "293821781970"
    },
    {
        "col0": "507 Laodica",
        "col1": "9",
        "col2": "1903-02-19",
        "col3": "518775496013",
        "col4": "424872912575"
    },
    {
        "col0": "506 Marion",
        "col1": "8",
        "col2": "1903-02-17",
        "col3": "521917051298",
        "col4": "387293927455"
    },
    {
        "col0": "505 Cava",
        "col1": "8",
        "col2": "1902-08-21",
        "col3": "500135601324",
        "col4": "302621532639"
    },
    {
        "col0": "504 Cora",
        "col1": "9",
        "col2": "1902-06-30",
        "col3": "495572866267",
        "col4": "318404107997"
    },
    {
        "col0": "5040 Rabinowitz",
        "col1": "12",
        "col2": "1972-09-15",
        "col3": "443542726838",
        "col4": "279927535653"
    },
    {
        "col0": "503 Evelyn",
        "col1": "9",
        "col2": "1903-01-19",
        "col3": "479176939639",
        "col4": "335368506535"
    },
    {
        "col0": "502 Sigune",
        "col1": "10",
        "col2": "1903-01-19",
        "col3": "420384976454",
        "col4": "292403998070"
    },
    {
        "col0": "5028 Halaesus",
        "col1": "10",
        "col2": "1988-01-23",
        "col3": "889493979395",
        "col4": "685218086954"
    },
    {
        "col0": "5027 Androgeos",
        "col1": "9",
        "col2": "1988-01-21",
        "col3": "844958693287",
        "col4": "742424312709"
    }
]