[
    {
        "col0": "KLST",
        "col1": "KSAN-TV",
        "col2": "11 (VHF)",
        "col3": "427",
        "col4": "8 (VHF, 1953-2009)"
    },
    {
        "col0": "KLSR-TV",
        "col1": "KEVU-CD",
        "col2": "31 (UHF)",
        "col3": "372",
        "col4": "34 (UHF, 1991-2009)"
    },
    {
        "col0": "KLKN",
        "col1": "WLNE-TV",
        "col2": "8 (VHF)",
        "col3": "437",
        "col4": "31 (UHF, 2002-2009)"
    },
    {
        "col0": "KLJB",
        "col1": "WHBF-TV",
        "col2": "49 (UHF)",
        "col3": "334",
        "col4": "18 (UHF, 1985-2009)"
    },
    {
        "col0": "KLDO-TV",
        "col1": "KXOF-CD",
        "col2": "19 (UHF)",
        "col3": "132",
        "col4": "27 (UHF, 1984-2009)"
    },
    {
        "col0": "KLCW-TV",
        "col1": "KMYL-LD",
        "col2": "43 (UHF)",
        "col3": "280",
        "col4": "22 (UHF, 2001-2009)"
    },
    {
        "col0": "KLBK-TV",
        "col1": "KAMC",
        "col2": "40 (UHF)",
        "col3": "219",
        "col4": "13 (VHF, 1952-2009)"
    },
    {
        "col0": "KLAX-TV",
        "col1": "KIEM-TV",
        "col2": "31 (UHF)",
        "col3": "333",
        "col4": "31 (UHFanalog, 1983-2009)"
    },
    {
        "col0": "KKYK-CD",
        "col1": "KWNL-CD",
        "col2": "16 (UHF)",
        "col3": "405",
        "col4": "58 (PSIP, 1995-2013)"
    },
    {
        "col0": "KKEY-LP",
        "col1": "KGET-DT2",
        "col2": "13 and 25.3 (KGET/UHF)",
        "col3": "377",
        "col4": "14 (UHF) (1997-2003)"
    },
    {
        "col0": "KKCO",
        "col1": "KJCT-LP",
        "col2": "12 (VHF)",
        "col3": "452",
        "col4": "11 (VHFanalog, 1996-2009)"
    },
    {
        "col0": "KJZZ-TV",
        "col1": "KUTV",
        "col2": "46 (UHF)",
        "col3": "1266",
        "col4": "14 (UHF, 1989-2009)"
    },
    {
        "col0": "KJUD",
        "col1": "KTBY",
        "col2": "11 (VHF)",
        "col3": "-290",
        "col4": "8 (VHF, 1956-2009)"
    },
    {
        "col0": "KJTV-TV",
        "col1": "KJTV-CD",
        "col2": "35 (UHF)",
        "col3": "273",
        "col4": "34 (UHF, 1981-2009)"
    }
]