[
    {
        "col0": "Russian invasion of East Prussia",
        "col1": "Province of East Prussia",
        "col2": "Eastern Front",
        "col3": "German victory",
        "col4": "I Army"
    },
    {
        "col0": "Russian conquest of Bukhara",
        "col1": "Samarkand",
        "col2": "Asia",
        "col3": "Russian victory",
        "col4": "Unknown"
    },
    {
        "col0": "Russian Revolution",
        "col1": "Russian Empire",
        "col2": "Revolutions of 1917-23",
        "col3": "*AbdicationofNicholas II",
        "col4": "Imperial Russian Army"
    },
    {
        "col0": "Rus'-Byzantine War",
        "col1": "Constantinople",
        "col2": "Rus'-Byzantine War",
        "col3": "Draw",
        "col4": "1,000 ships, c. 40,000 men"
    },
    {
        "col0": "Rus'-Byzantine War",
        "col1": "Constantinople",
        "col2": "Rus'-Byzantine War",
        "col3": "Rus' victory",
        "col4": "2,000 ships"
    },
    {
        "col0": "Rus'-Byzantine War",
        "col1": "Constantinople",
        "col2": "Rus'-Byzantine War",
        "col3": "Draw",
        "col4": "1,000 ships, c. 40,000 men"
    },
    {
        "col0": "Rus'-Byzantine War",
        "col1": "Constantinople",
        "col2": "Rus'-Byzantine War",
        "col3": "Rus' victory",
        "col4": "2,000 ships"
    },
    {
        "col0": "Ruhr uprising",
        "col1": "Germany",
        "col2": "Revolutions of 1917-23",
        "col3": "Uprising crushed",
        "col4": "50,000"
    },
    {
        "col0": "Ruhr Pocket",
        "col1": "Germany",
        "col2": "World War II",
        "col3": "DecisiveAlliedvictory",
        "col4": "300,000"
    },
    {
        "col0": "Royalton raid",
        "col1": "Vermont Republic",
        "col2": "American Revolutionary War",
        "col3": "British victory",
        "col4": "1grenadier"
    },
    {
        "col0": "Rout of Winchester",
        "col1": "England",
        "col2": "The Anarchy",
        "col3": "Blesevin victory",
        "col4": "Unknown"
    },
    {
        "col0": "Rough Wooing",
        "col1": "Scotland",
        "col2": "Anglo-Scottish Wars",
        "col3": "Scottish victory",
        "col4": "unknown"
    },
    {
        "col0": "Rotterdam Blitz",
        "col1": "Rotterdam",
        "col2": "Battle of the Netherlands",
        "col3": "884 civilian dead",
        "col4": "No remaining operational fighter aircraft"
    },
    {
        "col0": "Roquebert's expedition to the Caribbean",
        "col1": "Antigua",
        "col2": "Napoleonic Wars",
        "col3": "British victory",
        "col4": "Flutes Loire and Seine with support from batteries on shore"
    },
    {
        "col0": "Romanian occupation of Pokuttya",
        "col1": "Ukraine",
        "col2": "Polish-Ukrainian War",
        "col3": "Romanian victory",
        "col4": "7th Infantry division"
    },
    {
        "col0": "Romanian armies in the Battle of Stalingrad",
        "col1": "USSR",
        "col2": "World War II",
        "col3": "Decisive Soviet victory",
        "col4": "1,183 tanks"
    },
    {
        "col0": "Romanian War of Independence",
        "col1": "Balkans",
        "col2": "Russo-Turkish War of 1877-78",
        "col3": "Romanian / Bulgarian / Russian victory",
        "col4": "186,000 troops"
    },
    {
        "col0": "Romania during World War I",
        "col1": "Romania",
        "col2": "Eastern Front",
        "col3": "* May 1918:Central Powersvictory,Treaty of Bucharest",
        "col4": "1,000,000"
    },
    {
        "col0": "Romani ambush",
        "col1": "Sinai",
        "col2": "Yom Kippur War",
        "col3": "Israeli victory",
        "col4": "162nd Division"
    },
    {
        "col0": "Roman invasion of Caledonia 208-210",
        "col1": "Caledonia",
        "col2": "Roman conquest of Britain",
        "col3": "Romans temporarily occupy Caledonia but withdraw toHadrian's Wall",
        "col4": "40,000+ (estimate)"
    },
    {
        "col0": "Roman conquest of Anglesey",
        "col1": "Anglesey",
        "col2": "Roman conquest of Britain",
        "col3": "Roman victory",
        "col4": "?"
    },
    {
        "col0": "Rio de Janeiro Affair",
        "col1": "Guanabara Bay",
        "col2": "Brazilian Naval Revolt",
        "col3": "*End of rebel blockade",
        "col4": "1fort"
    },
    {
        "col0": "Rineen ambush",
        "col1": "County Clare",
        "col2": "Irish War of Independence",
        "col3": "RIC reprisals on local civilians",
        "col4": "10 lorries of British troops (c. 100 men) arrived later"
    },
    {
        "col0": "Rif War",
        "col1": "Rif",
        "col2": "Interwar period",
        "col3": "Dissolution of theRepublic of the Rif",
        "col4": "+200aircraft"
    },
    {
        "col0": "Rif Dimashq offensive",
        "col1": "Syria",
        "col2": "Syrian Civil War",
        "col3": "* Government forces capture seven towns south and southeast of Damascus",
        "col4": "* 750-1,000 al-Nusra fighters"
    },
    {
        "col0": "Rif Dimashq offensive",
        "col1": "Syria",
        "col2": "Syrian Civil War",
        "col3": "Indecisive; Limited rebel gains",
        "col4": "(reinforcements)"
    },
    {
        "col0": "Rif Dimashq offensive",
        "col1": "Syria",
        "col2": "Syrian Civil War",
        "col3": "* Government forces capture seven towns south and southeast of Damascus",
        "col4": "* 750-1,000 al-Nusra fighters"
    },
    {
        "col0": "Rif Dimashq offensive",
        "col1": "Syria",
        "col2": "Rif Dimashq Governorate campaign",
        "col3": "* Army launches a major offensive on rebel-held Darayya in mid-January",
        "col4": "*750-1,000 al-Nusra fighters"
    },
    {
        "col0": "Rif Dimashq offensive",
        "col1": "Syria",
        "col2": "Syrian Civil War",
        "col3": "*Ghouta gas attacksleave 281-1,729 people dead",
        "col4": "*750-1,000 al-Nusra fighters"
    },
    {
        "col0": "Rif Dimashq offensive",
        "col1": "Ghouta",
        "col2": "Rif Dimashq Governorate campaign",
        "col3": "* Army and Hezbollah capture Mayda'a Al-Bahariyah,  Hawsh Al-Farah, Hawsh Nasri",
        "col4": "15,000"
    },
    {
        "col0": "Rif Dimashq offensive",
        "col1": "Syria",
        "col2": "Syrian Civil War",
        "col3": "* Rebels launchtheir own offensivein mid-November",
        "col4": "40,000+ soldiers"
    },
    {
        "col0": "Rif Dimashq offensive",
        "col1": "Damascus",
        "col2": "Syrian Civil War",
        "col3": "*Army captures Heteta al-Jersh,Adra, Tal Kurdi, Al-Rayhan, the al-Alia farms, Wadi 'Ayn Tarma, Hosh Al-Farah, Al-Mayda'a, Balaa Al-Jadeeda and most of Jobar",
        "col4": "30,000"
    },
    {
        "col0": "Rif Dimashq offensive",
        "col1": "Syria",
        "col2": "Syrian Civil War",
        "col3": "* Rebels launchtheir own offensivein mid-November",
        "col4": "40,000+ soldiers"
    },
    {
        "col0": "Rif Dimashq offensive",
        "col1": "Damascus",
        "col2": "Syrian Civil War",
        "col3": "*Army captures Heteta al-Jersh,Adra, Tal Kurdi, Al-Rayhan, the al-Alia farms, Wadi 'Ayn Tarma, Hosh Al-Farah, Al-Mayda'a, Balaa Al-Jadeeda and most of Jobar",
        "col4": "30,000"
    },
    {
        "col0": "Rif Dimashq clashes",
        "col1": "Rif Dimashq Governorate",
        "col2": "Syrian Civil War",
        "col3": "*Damascus centre under government control",
        "col4": "50,000 soldiers and policemen"
    },
    {
        "col0": "Rhine Campaign of 1795",
        "col1": "Germany",
        "col2": "War of the First Coalition",
        "col3": "Austrian victory",
        "col4": "175,000"
    },
    {
        "col0": "Rhamu Incident",
        "col1": "Kenya",
        "col2": "Ogaden War",
        "col3": "Somali army successfully crossed into theSidamoRegion ofEthiopia",
        "col4": "1500"
    },
    {
        "col0": "Resadiye shooting",
        "col1": "Turkey",
        "col2": "Kurdish-Turkish conflict",
        "col3": "PKK tactical victory",
        "col4": "7"
    },
    {
        "col0": "Revolutions and interventions in Hungary",
        "col1": "Hungarian Democratic Republic",
        "col2": "Revolutions of 1917-23",
        "col3": "Hungarian Republic of Councils,",
        "col4": "Czechoslovakia: 20,000"
    },
    {
        "col0": "Revolta da Armada",
        "col1": "Rio de Janeiro",
        "col2": "Federalist Riograndense Revolution",
        "col3": "Loyalist victory",
        "col4": "1fort"
    },
    {
        "col0": "Revolt of the Batavi",
        "col1": "Gaul",
        "col2": "Year of the Four Emperors",
        "col3": "Roman strategic victory; subjugation of the Batavi",
        "col4": "* One Batavialaand eightcohorts; 5,000+ Batavi (mostly cavalry)"
    },
    {
        "col0": "Retreat to Montalban",
        "col1": "Cavite",
        "col2": "Philippine Revolution",
        "col3": "Spanish Victory",
        "col4": "unknown"
    },
    {
        "col0": "Resistance at Nenjiang Bridge",
        "col1": "Republic of China",
        "col2": "Second Sino-Japanese War",
        "col3": "Japanese victory",
        "col4": "2,500"
    },
    {
        "col0": "Repatriation of Cossacks after World War II",
        "col1": "Austria",
        "col2": "Aftermath of World War II",
        "col3": "45,000 - 50,000 repatriated Cossacks",
        "col4": ">50,000"
    },
    {
        "col0": "Relief of Thionville",
        "col1": "Thionville",
        "col2": "Thirty Years' War",
        "col3": "Decisive Spanish victory",
        "col4": "14,000 infantry"
    },
    {
        "col0": "Relief of Qasr al-Bahili",
        "col1": "Samarkand",
        "col2": "Muslim conquest of Transoxiana",
        "col3": "Arab victory; successful evacuation of Qasr al-Bahili",
        "col4": "100 families in the fort, ca. 1000 men in the relief force"
    },
    {
        "col0": "Relief of Newark",
        "col1": "Nottinghamshire",
        "col2": "English Civil War",
        "col3": "Royalistvictory",
        "col4": "13 siege guns"
    },
    {
        "col0": "Relief of Montgomery Castle",
        "col1": "Montgomery, Powys",
        "col2": "First English Civil War",
        "col3": "Parliamentarian victory",
        "col4": "1,400 cavalry,"
    },
    {
        "col0": "Relief of Goes",
        "col1": "Goes",
        "col2": "Eighty Years' War",
        "col3": "Spanish victory",
        "col4": "3,000"
    },
    {
        "col0": "Relief of Genoa",
        "col1": "Genoa",
        "col2": "Thirty Years' War",
        "col3": "* France surrenders its claims onSavoyandValtellinaand withdraws its troops from thePiedmontand theRepublic of Genoa, stipulated by theTreaty of Monzon",
        "col4": "(After the relief)"
    },
    {
        "col0": "Red River Canyon Affair",
        "col1": "New Mexico",
        "col2": "Mexican-American War",
        "col3": "United States victory",
        "col4": "200"
    },
    {
        "col0": "Red River Campaign",
        "col1": "Louisiana",
        "col2": "American Civil War",
        "col3": "Confederatevictory",
        "col4": "30,000"
    },
    {
        "col0": "Red Cloud's War",
        "col1": "Powder River Country",
        "col2": "Sioux Wars",
        "col3": "Lakota, Northern Cheyenne, and Northern Arapaho victory",
        "col4": "1,500 to 2,000"
    },
    {
        "col0": "Red Army invasion of Georgia",
        "col1": "Transcaucasia",
        "col2": "Russian Civil War",
        "col3": "Democratic Republic of Georgiagovernment exiled toLeuville-sur-Orge,Franceand theUnited Kingdom.",
        "col4": "(20,000 men)"
    },
    {
        "col0": "Recovery of Re island",
        "col1": "Ile de Re",
        "col2": "Huguenot rebellions",
        "col3": "Victory of Louis XIII",
        "col4": "20 Dutch warships"
    },
    {
        "col0": "Recapture of Recife",
        "col1": "Brazil",
        "col2": "Dutch-Portuguese War",
        "col3": "Decisive Portuguese victory",
        "col4": "2,500 men"
    },
    {
        "col0": "Recapture of Fort Zeelandia",
        "col1": "Suriname",
        "col2": "Second Anglo-Dutch War",
        "col3": "English Victory",
        "col4": "300 men"
    },
    {
        "col0": "Recapture of Bahia",
        "col1": "Salvador da Bahia",
        "col2": "Eighty Years' War",
        "col3": "Spanish-Portuguese victory",
        "col4": "12,000 men"
    },
    {
        "col0": "Recapture of Angola",
        "col1": "Luanda, Angola",
        "col2": "Dutch-Portuguese War",
        "col3": "Portuguese victory",
        "col4": "1,200 Dutch"
    },
    {
        "col0": "Resadiye shooting",
        "col1": "Turkey",
        "col2": "Kurdish-Turkish conflict",
        "col3": "PKK tactical victory",
        "col4": "7"
    },
    {
        "col0": "Rajnandgaon ambush",
        "col1": "Rajnandgaon",
        "col2": "Naxalite-Maoist insurgency",
        "col3": "Naxalite victory",
        "col4": "300"
    },
    {
        "col0": "Rainbow Bluff Expedition",
        "col1": "Roanoke, North Carolina",
        "col2": "American Civil War",
        "col3": "Confederatevictory",
        "col4": "2Gunboats,WyalusingandOtsego, 1Tugboat,Bazely"
    },
    {
        "col0": "Raids on Boulogne",
        "col1": "Boulogne",
        "col2": "French Revolutionary Wars",
        "col3": "French victory",
        "col4": "1 schooner"
    },
    {
        "col0": "Raid on the Suez Canal",
        "col1": "Egypt",
        "col2": "Middle Eastern theatre of World War I",
        "col3": "British victory",
        "col4": "11,400 (400 officers and 11,000 soldiers)"
    },
    {
        "col0": "Raid on the Medway",
        "col1": "Chatham, Medway",
        "col2": "Second Anglo-Dutch War",
        "col3": "Decisive Dutch victory",
        "col4": "About 60 ships; 1500marines"
    },
    {
        "col0": "Raid on York",
        "col1": "York, Maine",
        "col2": "King William's War",
        "col3": "French and native victory",
        "col4": "200-300 Abenaki and Canadiens"
    },
    {
        "col0": "Raid on Yarmouth",
        "col1": "England",
        "col2": "World War I",
        "col3": "Inconclusive",
        "col4": "1armoured cruiser"
    },
    {
        "col0": "Raid on Wells",
        "col1": "Wells, Maine",
        "col2": "King William's War",
        "col3": "English colonial victory",
        "col4": "31 New England troops"
    },
    {
        "col0": "Raid on Taihoku",
        "col1": "Taiwan",
        "col2": "World War II",
        "col3": "Allied victory",
        "col4": "117B-24"
    },
    {
        "col0": "Raid on Tabasco",
        "col1": "Mexico",
        "col2": "Anglo-Spanish War",
        "col3": "English victory",
        "col4": "180 soldiers"
    },
    {
        "col0": "Raid on Symi",
        "col1": "Aegean islands",
        "col2": "Battle of the Mediterranean",
        "col3": "*Facilities destroyed",
        "col4": "Garrison company"
    },
    {
        "col0": "Raid on St Malo",
        "col1": "France",
        "col2": "Seven Years' War",
        "col3": "Tactical British victory",
        "col4": "13,000"
    },
    {
        "col0": "Raid on St. Augustine",
        "col1": "Florida",
        "col2": "Anglo-Spanish War",
        "col3": "English victory",
        "col4": "1,000 troops"
    },
    {
        "col0": "Raid on Souda Bay",
        "col1": "Mediterranean Sea",
        "col2": "Battle of the Mediterranean",
        "col3": "Italian victory",
        "col4": "2 destroyers"
    },
    {
        "col0": "Raid on Scarborough, Hartlepool and Whitby",
        "col1": "England",
        "col2": "World War I",
        "col3": "German victory",
        "col4": "1 armoured cruiser"
    },
    {
        "col0": "Raid on Saratoga",
        "col1": "Saratoga, New York",
        "col2": "King George's War",
        "col3": "French victory",
        "col4": "600"
    },
    {
        "col0": "Raid on Santorini",
        "col1": "Santorini",
        "col2": "Battle of the Mediterranean",
        "col3": "Allied victory",
        "col4": "Garrison company"
    },
    {
        "col0": "Raid on Samana",
        "col1": "Era de Francia",
        "col2": "Napoleonic Wars",
        "col3": "British victory",
        "col4": "1 Fort"
    },
    {
        "col0": "Raid on Salmon Falls",
        "col1": "Berwick, Maine",
        "col2": "King William's War",
        "col3": "Acadian andWabanaki Confederacyvictory",
        "col4": "unknown"
    },
    {
        "col0": "Raid on Saint-Paul",
        "col1": "Saint-Paul, Reunion",
        "col2": "Napoleonic Wars",
        "col3": "British victory",
        "col4": "604 troops on shore,ship of the lineHMS Raisonnable,frigatesHMS Nereide,HMS Sirius,HMS Boadiceaand smaller vessels."
    },
    {
        "col0": "Raid on Rochefort",
        "col1": "France",
        "col2": "Seven Years' War",
        "col3": "French victory. British withdraw without capturing Rochefort.",
        "col4": "3,000"
    },
    {
        "col0": "Raid on Puerto Caballos",
        "col1": "Honduras",
        "col2": "Anglo-Spanish War",
        "col3": "English victory",
        "col4": "1 prize frigate"
    },
    {
        "col0": "Raid on Port Dover",
        "col1": "Upper Canada",
        "col2": "War of 1812",
        "col3": "American victory",
        "col4": "750 regulars and militia"
    },
    {
        "col0": "Raid on Pebble Island",
        "col1": "Falkland Islands",
        "col2": "Falklands War",
        "col3": "British victory",
        "col4": "45 SAS troopers and one Naval gunfire observer"
    },
    {
        "col0": "Raid on Oyster River",
        "col1": "Durham, New Hampshire",
        "col2": "King William's War",
        "col3": "New France andAbenakivictory",
        "col4": "250 Abenaki Indians"
    },
    {
        "col0": "Raid on Newry",
        "col1": "Kingdom of Ireland",
        "col2": "Williamite War in Ireland",
        "col3": "Williamite victory",
        "col4": "1,700+"
    },
    {
        "col0": "Raid on Nassau",
        "col1": "Bahamas",
        "col2": "War of the Spanish Succession",
        "col3": "Franco-Spanish victory, Nassau is briefly occupied and destroyed.",
        "col4": "2Frigates"
    },
    {
        "col0": "Raid on Malaga",
        "col1": "Malaga",
        "col2": "Anglo-Spanish War",
        "col3": "English victory",
        "col4": "10 ships"
    },
    {
        "col0": "Raid on Manila",
        "col1": "Manila",
        "col2": "French Revolutionary Wars",
        "col3": "British victory at Manila; Spanish victory at Zamboanga",
        "col4": "Defences of Manila"
    },
    {
        "col0": "Raid on Malaga",
        "col1": "Spain",
        "col2": "Anglo-Spanish War",
        "col3": "English victory",
        "col4": "10 ships"
    },
    {
        "col0": "Raid on Lunenburg, Nova Scotia",
        "col1": "Lunenburg, Nova Scotia",
        "col2": "American Revolution",
        "col3": "US privateer victory",
        "col4": "170 crew members"
    },
    {
        "col0": "Raid on Lunenburg, Nova Scotia",
        "col1": "Lunenburg, Nova Scotia",
        "col2": "French and Indian War",
        "col3": "French, Acadian,Wabanaki Confederacy(Mi'kmaq) victory",
        "col4": "30"
    },
    {
        "col0": "Raid on Lorient",
        "col1": "France",
        "col2": "War of the Austrian Succession",
        "col3": "French victory",
        "col4": "1  regiment of dragoons, 4,000-6,000 coast-guards and members of the local militia"
    },
    {
        "col0": "Raid on Le Havre",
        "col1": "France",
        "col2": "Seven Years' War",
        "col3": "British victory",
        "col4": "* 1"
    },
    {
        "col0": "Raid on Kirkenes and Petsamo",
        "col1": "Finland",
        "col2": "Continuation War",
        "col3": "Axis victory",
        "col4": "15 Fulmar  escort fighters"
    },
    {
        "col0": "Raid on Havre de Grace",
        "col1": "Havre de Grace, Maryland",
        "col2": "War of 1812",
        "col3": "Successful British raid",
        "col4": "150Royal Marines"
    },
    {
        "col0": "Raid on Haverhill",
        "col1": "Province of Massachusetts Bay",
        "col2": "Queen Anne's War",
        "col3": "French victory",
        "col4": "250 native warriors and French Canadian militia"
    },
    {
        "col0": "Raid on Haverhill",
        "col1": "Province of Massachusetts Bay",
        "col2": "King William's War",
        "col3": "French and native victory",
        "col4": "approximately 20"
    },
    {
        "col0": "Raid on Groton",
        "col1": "Groton, Massachusetts",
        "col2": "King William's War",
        "col3": "New France andAbenakivictory",
        "col4": "250 Abenaki Indians"
    },
    {
        "col0": "Raid on Griessie",
        "col1": "Dutch East Indies",
        "col2": "Napoleonic Wars",
        "col3": "British victory",
        "col4": "Two out of commissionships of the lineand shore defences"
    },
    {
        "col0": "Raid on Grand Pre",
        "col1": "Acadia",
        "col2": "Queen Anne's War",
        "col3": "New England victory",
        "col4": "500 New England volunteers and native warriors"
    },
    {
        "col0": "Raid on Godfrey Ranch",
        "col1": "Colorado Territory",
        "col2": "Colorado War",
        "col3": "American victory",
        "col4": "130warriors"
    },
    {
        "col0": "Raid on Genoa",
        "col1": "Genoa",
        "col2": "French Revolutionary Wars",
        "col3": "British victory",
        "col4": "FrigateModeste, two armedtartanes"
    },
    {
        "col0": "Raid on Gananoque",
        "col1": "Gananoque",
        "col2": "War of 1812",
        "col3": "* Stores seized and government depot burned",
        "col4": "About 200 regulars and militia"
    },
    {
        "col0": "Raid on Fraustadt",
        "col1": "Nazi Germany",
        "col2": "Invasion of Poland",
        "col3": "*Geyersdorf briefly occupied",
        "col4": "55th Poznan Infantry Regiment"
    },
    {
        "col0": "Raid on Elizabethtown",
        "col1": "Upper Canada",
        "col2": "War of 1812",
        "col3": "American victory",
        "col4": "200 regulars and volunteers"
    },
    {
        "col0": "Raid on Dunkirk",
        "col1": "Dunkirk",
        "col2": "French Revolutionary Wars",
        "col3": "British victory",
        "col4": "FrigatesHMS Andromeda,HMS Nemesis,sloopHMS Dartand various small craft."
    },
    {
        "col0": "Raid on Dover",
        "col1": "Dover, New Hampshire",
        "col2": "King William's War",
        "col3": "French andWabanaki Confederacyvictory",
        "col4": "unknown"
    },
    {
        "col0": "Raid on Deerfield",
        "col1": "Province of Massachusetts Bay",
        "col2": "Queen Anne's War",
        "col3": "French and Native American victory",
        "col4": "20 outside militia"
    },
    {
        "col0": "Raid on Darwin",
        "col1": "Darwin, Northern Territory",
        "col2": "Pacific War",
        "col3": "Indecisive",
        "col4": "25 bombers"
    },
    {
        "col0": "Raid on Dartmouth",
        "col1": "Nova Scotia",
        "col2": "Father Le Loutre's War",
        "col3": "Acadian and Mi'kmaq victory",
        "col4": "60 Acadian and Mi'kmaq"
    },
    {
        "col0": "Raid on Dartmouth",
        "col1": "Nova Scotia",
        "col2": "Father Le Loutre's War",
        "col3": "Mi'kmaq victory",
        "col4": "40 Mi'kmaq"
    },
    {
        "col0": "Raid on Choiseul",
        "col1": "Solomon Islands",
        "col2": "Pacific War",
        "col3": "Indecisive",
        "col4": "3,000-7,000"
    },
    {
        "col0": "Raid on Chignecto",
        "col1": "Acadia",
        "col2": "King William's War",
        "col3": "New England victory",
        "col4": "400 New England troops and native warriors,"
    },
    {
        "col0": "Raid on Cherbourg",
        "col1": "France",
        "col2": "Seven Years' War",
        "col3": "British victory",
        "col4": "3,000"
    },
    {
        "col0": "Raid on Canso",
        "col1": "Canso, Nova Scotia",
        "col2": "King George's War",
        "col3": "French victory",
        "col4": "*1 sloop"
    },
    {
        "col0": "Raid on Black Rock",
        "col1": "Black Rock, New York",
        "col2": "War of 1812",
        "col3": "Pyrrhic British Victory",
        "col4": "240"
    },
    {
        "col0": "Raid on Berlin",
        "col1": "Berlin",
        "col2": "Seven Years' War",
        "col3": "Berlin occupied for four days",
        "col4": "15,000 Austrians"
    },
    {
        "col0": "Raid on Batavia",
        "col1": "Dutch East Indies",
        "col2": "Napoleonic Wars",
        "col3": "British victory",
        "col4": "Fourships of the line, twofrigatesand abrig"
    },
    {
        "col0": "Raid on Anuradhapura Air Force Base",
        "col1": "Sri Lanka",
        "col2": "Sri Lankan Civil War",
        "col3": "Successful LTTE commando raid",
        "col4": "2 light aircraft"
    },
    {
        "col0": "Raid on Algiers",
        "col1": "Algiers",
        "col2": "Battle of the Mediterranean",
        "col3": "Italian victory",
        "col4": "1 submarine"
    },
    {
        "col0": "Raid on Alexandria",
        "col1": "Alexandria",
        "col2": "Battle of the Mediterranean",
        "col3": "Italian victory",
        "col4": "1submarine"
    },
    {
        "col0": "Raid on Alexandria",
        "col1": "Alexandria, Virginia",
        "col2": "War of 1812",
        "col3": "British victory",
        "col4": "6 warships"
    },
    {
        "col0": "Raid of A>>ejtun",
        "col1": "Southern Region, Malta",
        "col2": "Ottoman-Habsburg wars",
        "col3": "Maltesevictory",
        "col4": "5,000-6,000 men"
    },
    {
        "col0": "Raid of the Redeswire",
        "col1": "Cheviot Hills",
        "col2": "Anglo-Scottish Wars",
        "col3": "Scottish victory",
        "col4": "Unknown"
    },
    {
        "col0": "Raid of Scone",
        "col1": "Scone, Scotland",
        "col2": "First War of Scottish Independence",
        "col3": "Decisive Scottish victory",
        "col4": "Unknown"
    },
    {
        "col0": "Raid of Richmond",
        "col1": "Richmond, Virginia",
        "col2": "American Revolutionary War",
        "col3": "British Victory, and severe damage to Richmond.",
        "col4": "1,600 troops of theLoyalistAmerican Legion"
    },
    {
        "col0": "Raid of A>>ejtun",
        "col1": "Southern Region, Malta",
        "col2": "Ottoman-Habsburg wars",
        "col3": "Maltesevictory",
        "col4": "5,000-6,000 men"
    },
    {
        "col0": "Raid at Renacer Prison",
        "col1": "Panama Canal",
        "col2": "United States invasion of Panama",
        "col3": "American victory",
        "col4": "1 (LCM) landing craft medium"
    },
    {
        "col0": "Raid at Paombong",
        "col1": "Paombong",
        "col2": "Philippine Revolution",
        "col3": "Tactical Filipino Victory",
        "col4": "unknown"
    },
    {
        "col0": "Raid at Los Banos",
        "col1": "Philippines",
        "col2": "Pacific War",
        "col3": "Successful Allied military rescue operation",
        "col4": "150-250 Japanese guards"
    },
    {
        "col0": "Raid at Cabanatuan",
        "col1": "Philippines",
        "col2": "Pacific War",
        "col3": "Alliedvictory; liberation of 552 Allied prisoners of war",
        "col4": "133 U.S. soldiers from the6th Ranger BattalionandAlamo Scouts"
    },
    {
        "col0": "Raid at Altenburg",
        "col1": "Saxe-Gotha-Altenburg",
        "col2": "War of the Sixth Coalition",
        "col3": "Decisive Coalition victory",
        "col4": "1,500"
    },
    {
        "col0": "Radfan Campaign",
        "col1": "Radfan",
        "col2": "Aden Emergency",
        "col3": "British victory",
        "col4": "45 Royal Marine Commando"
    }
]