[
    {
        "col0": "Myelofibrosis",
        "col1": "C94.4,D47.4",
        "col2": "9932,",
        "col3": "D055728"
    },
    {
        "col0": "Myelodysplastic syndrome",
        "col1": "D46",
        "col2": "9980/0-",
        "col3": "D009190"
    },
    {
        "col0": "Multiple endocrine neoplasia type 1",
        "col1": "D44.8",
        "col2": "8360/1",
        "col3": "D018761"
    },
    {
        "col0": "Multiple endocrine neoplasia",
        "col1": "E31.20",
        "col2": "8360/1",
        "col3": "D009377"
    },
    {
        "col0": "Mucinous cystadenocarcinoma",
        "col1": "C56.9",
        "col2": "8470/3",
        "col3": "D018282"
    },
    {
        "col0": "Monoclonal gammopathy of undetermined significance",
        "col1": "D47.2",
        "col2": "9765/1",
        "col3": "D008998"
    },
    {
        "col0": "Mesothelioma",
        "col1": "C45",
        "col2": "-9055",
        "col3": "D008654"
    },
    {
        "col0": "Merkel-cell carcinoma",
        "col1": "C44(ILDSC44.L44)",
        "col2": "M8247/3",
        "col3": "D015266"
    },
    {
        "col0": "Menkes disease",
        "col1": "E83.0",
        "col2": "?",
        "col3": "D007706"
    },
    {
        "col0": "Mastocytosis",
        "col1": "Q82.2,C96.2",
        "col2": "9741/3",
        "col3": "D008415"
    },
    {
        "col0": "Mastocytoma",
        "col1": "C96.2,D47.0",
        "col2": "M9740/1",
        "col3": "D034801"
    },
    {
        "col0": "Lymphomatoid papulosis",
        "col1": "L41.2",
        "col2": "9718/1",
        "col3": "D017731"
    },
    {
        "col0": "Lymphoma",
        "col1": "C81-C96",
        "col2": "9590-9999",
        "col3": "D008223"
    },
    {
        "col0": "Lymphangioleiomyomatosis",
        "col1": "J84.81",
        "col2": "9174/1",
        "col3": "D018192"
    },
    {
        "col0": "Luteoma",
        "col1": "C56.9",
        "col2": "8610/0",
        "col3": "D018311"
    },
    {
        "col0": "Leukemia",
        "col1": "C91-C95",
        "col2": "9800-9940",
        "col3": "D007938"
    }
]