[
    {
        "col0": "J. Staley",
        "col1": "San Francisco 49ers",
        "col2": "San Francisco 49ers",
        "col3": "1984-08-30",
        "col4": "28"
    },
    {
        "col0": "J. Schobert",
        "col1": "Cleveland Browns",
        "col2": "Cleveland Browns",
        "col3": "1993-11-06",
        "col4": "99"
    },
    {
        "col0": "J. Looney",
        "col1": "Dallas Cowboys",
        "col2": "Dallas Cowboys",
        "col3": "1990-08-31",
        "col4": "117"
    },
    {
        "col0": "J. Haeg",
        "col1": "Indianapolis Colts",
        "col2": "Indianapolis Colts",
        "col3": "1993-03-11",
        "col4": "155"
    },
    {
        "col0": "J. Dahl",
        "col1": "Detroit Lions",
        "col2": "Detroit Lions",
        "col3": "1993-04-09",
        "col4": "151"
    },
    {
        "col0": "J. Cardona",
        "col1": "New England Patriots",
        "col2": "New England Patriots",
        "col3": "1992-04-16",
        "col4": "166"
    },
    {
        "col0": "J. Berger",
        "col1": "Carolina Panthers",
        "col2": "Minnesota Vikings",
        "col3": "1982-05-25",
        "col4": "207"
    },
    {
        "col0": "J. Barksdale",
        "col1": "Oakland Raiders",
        "col2": "San Diego Chargers",
        "col3": "1989-01-04",
        "col4": "92"
    },
    {
        "col0": "J. Williams",
        "col1": "Atlanta Falcons",
        "col2": "Free agent",
        "col3": "1984-03-08",
        "col4": "37"
    },
    {
        "col0": "J. Staten",
        "col1": "Chicago Bears",
        "col2": "Chicago Bears",
        "col3": "1991-05-04",
        "col4": "172"
    },
    {
        "col0": "J. Smith",
        "col1": "Baltimore Ravens",
        "col2": "Baltimore Ravens",
        "col3": "1988-7-26",
        "col4": "27"
    },
    {
        "col0": "J. Landes",
        "col1": "Detroit Lions",
        "col2": "Detroit Lions",
        "col3": "1992-08-13",
        "col4": "210"
    },
    {
        "col0": "J. Graham",
        "col1": "New Orleans Saints",
        "col2": "Seattle Seahawks",
        "col3": "1986-11-24",
        "col4": "95"
    },
    {
        "col0": "J. Ward",
        "col1": "San Francisco 49ers",
        "col2": "San Francisco 49ers",
        "col3": "1991-07-18",
        "col4": "30"
    },
    {
        "col0": "J. Ward",
        "col1": "Oakland Raiders",
        "col2": "Oakland Raiders",
        "col3": "1994-05-11",
        "col4": "44"
    },
    {
        "col0": "J. James",
        "col1": "Pittsburgh Steelers",
        "col2": "Pittsburgh Steelers",
        "col3": "1994-06-04",
        "col4": "160"
    },
    {
        "col0": "J. McMillian",
        "col1": "Green Bay Packers",
        "col2": "Free agent",
        "col3": "1989-04-02",
        "col4": "133"
    },
    {
        "col0": "J. Pendleton",
        "col1": "Indianapolis Colts",
        "col2": "Free agent",
        "col3": "1983-11-07",
        "col4": "228"
    },
    {
        "col0": "J. McKinnon",
        "col1": "Minnesota Vikings",
        "col2": "Minnesota Vikings",
        "col3": "1992-05-03",
        "col4": "96"
    },
    {
        "col0": "J. Zuttah",
        "col1": "Baltimore Ravens",
        "col2": "Baltimore Ravens",
        "col3": "1986-06-01",
        "col4": "83"
    },
    {
        "col0": "J. Lane",
        "col1": "Seattle Seahawks",
        "col2": "Seattle Seahawks",
        "col3": "1990-7-14",
        "col4": "172"
    },
    {
        "col0": "J. Hill",
        "col1": "Cincinnati Bengals",
        "col2": "Cincinnati Bengals",
        "col3": "1992-10-20",
        "col4": "55"
    },
    {
        "col0": "J. Poutasi",
        "col1": "Jacksonville Jaguars",
        "col2": "Jacksonville Jaguars",
        "col3": "1994-08-07",
        "col4": "66"
    },
    {
        "col0": "J. George",
        "col1": "Dallas Cowboys",
        "col2": "Dallas Cowboys",
        "col3": "1992-1-24",
        "col4": "154"
    },
    {
        "col0": "J. Attaochu",
        "col1": "San Diego Chargers",
        "col2": "San Diego Chargers",
        "col3": "1993-01-17",
        "col4": "50"
    },
    {
        "col0": "J. Adams",
        "col1": "New York Giants",
        "col2": "New York Giants",
        "col3": "1992-12-31",
        "col4": "184"
    },
    {
        "col0": "J. Worthy",
        "col1": "Buffalo Bills",
        "col2": "Buffalo Bills",
        "col3": "1990-04-26",
        "col4": "51"
    },
    {
        "col0": "J. Hawkins",
        "col1": "Pittsburgh Steelers",
        "col2": "Pittsburgh Steelers",
        "col3": "1993-10-16",
        "col4": "123"
    },
    {
        "col0": "J. Jenkins",
        "col1": "Miami Dolphins",
        "col2": "Miami Dolphins",
        "col3": "1992-03-13",
        "col4": "104"
    },
    {
        "col0": "J. Ulbrich",
        "col1": "San Francisco 49ers",
        "col2": "Atlanta Falcons",
        "col3": "1977-02-17",
        "col4": "86"
    },
    {
        "col0": "J. Locke",
        "col1": "Minnesota Vikings",
        "col2": "Minnesota Vikings",
        "col3": "1989-09-27",
        "col4": "155"
    },
    {
        "col0": "J. Janis",
        "col1": "Green Bay Packers",
        "col2": "Green Bay Packers",
        "col3": "1991-6-9",
        "col4": "236"
    },
    {
        "col0": "J. Heuerman",
        "col1": "Denver Broncos",
        "col2": "Denver Broncos",
        "col3": "1992-11-24",
        "col4": "92"
    },
    {
        "col0": "J. Allen",
        "col1": "Houston Texans",
        "col2": "Houston Texans",
        "col3": "1990-01-08",
        "col4": "44"
    },
    {
        "col0": "J. Smith",
        "col1": "Dallas Cowboys",
        "col2": "Dallas Cowboys",
        "col3": "1994-6-14",
        "col4": "34"
    },
    {
        "col0": "J. Watkins",
        "col1": "Buffalo Bills",
        "col2": "Philadelphia Eagles",
        "col3": "1992-11-27",
        "col4": "101"
    },
    {
        "col0": "J. Howard",
        "col1": "Kansas City Chiefs",
        "col2": "Kansas City Chiefs",
        "col3": "1988-12-20",
        "col4": "114"
    },
    {
        "col0": "J. Prosch",
        "col1": "Houston Texans",
        "col2": "Houston Texans",
        "col3": "1992-08-21",
        "col4": "211"
    },
    {
        "col0": "J. Alford",
        "col1": "New York Giants",
        "col2": "Free agent",
        "col3": "1983-05-28",
        "col4": "81"
    },
    {
        "col0": "J. Ajayi",
        "col1": "Miami Dolphins",
        "col2": "Miami Dolphins",
        "col3": "1993-06-15",
        "col4": "149"
    },
    {
        "col0": "J. Allen",
        "col1": "Baltimore Ravens",
        "col2": "Baltimore Ravens",
        "col3": "1991-08-27",
        "col4": "125"
    },
    {
        "col0": "J. Hargrave",
        "col1": "Pittsburgh Steelers",
        "col2": "Pittsburgh Steelers",
        "col3": "1993-02-07",
        "col4": "89"
    },
    {
        "col0": "J. Brown",
        "col1": "San Diego Chargers",
        "col2": "San Diego Chargers",
        "col3": "1994-02-18",
        "col4": "175"
    },
    {
        "col0": "J. Witten",
        "col1": "Dallas Cowboys",
        "col2": "Dallas Cowboys",
        "col3": "1982-05-06",
        "col4": "69"
    },
    {
        "col0": "J. Williams",
        "col1": "Carolina Panthers",
        "col2": "Free agent",
        "col3": "1986-04-23",
        "col4": "69"
    },
    {
        "col0": "J. Verrett",
        "col1": "San Diego Chargers",
        "col2": "San Diego Chargers",
        "col3": "1991-06-18",
        "col4": "25"
    },
    {
        "col0": "J. Spriggs",
        "col1": "Green Bay Packers",
        "col2": "Green Bay Packers",
        "col3": "1994-05-17",
        "col4": "48"
    },
    {
        "col0": "J. Shirley",
        "col1": "Carolina Panthers",
        "col2": "Free agent",
        "col3": "1985-09-30",
        "col4": "145"
    },
    {
        "col0": "J. Landry",
        "col1": "Miami Dolphins",
        "col2": "Miami Dolphins",
        "col3": "1992-11-28",
        "col4": "63"
    },
    {
        "col0": "J. Jones",
        "col1": "Pittsburgh Steelers",
        "col2": "Pittsburgh Steelers",
        "col3": "1989-10-13",
        "col4": "17"
    },
    {
        "col0": "J. Reed",
        "col1": "Seattle Seahawks",
        "col2": "Seattle Seahawks",
        "col3": "1992-12-16",
        "col4": "49"
    },
    {
        "col0": "J. Wright",
        "col1": "Minnesota Vikings",
        "col2": "Minnesota Vikings",
        "col3": "1989-11-25",
        "col4": "118"
    },
    {
        "col0": "J. Veldheer",
        "col1": "Arizona Cardinals",
        "col2": "Arizona Cardinals",
        "col3": "1987-06-14",
        "col4": "69"
    },
    {
        "col0": "J. Smith",
        "col1": "Atlanta Falcons",
        "col2": "Dallas Cowboys",
        "col3": "1990-3-20",
        "col4": "241"
    },
    {
        "col0": "J. Crick",
        "col1": "Denver Broncos",
        "col2": "Denver Broncos",
        "col3": "1989-08-21",
        "col4": "126"
    },
    {
        "col0": "J. Cook",
        "col1": "Green Bay Packers",
        "col2": "Green Bay Packers",
        "col3": "1987-04-07",
        "col4": "89"
    },
    {
        "col0": "J. Abbrederis",
        "col1": "Green Bay Packers",
        "col2": "Green Bay Packers",
        "col3": "1990-12-17",
        "col4": "176"
    },
    {
        "col0": "J. Tartt",
        "col1": "San Francisco 49ers",
        "col2": "San Francisco 49ers",
        "col3": "1992-02-18",
        "col4": "46"
    },
    {
        "col0": "J. Jenkins",
        "col1": "New York Giants",
        "col2": "New York Giants",
        "col3": "1988-10-29",
        "col4": "39"
    },
    {
        "col0": "J. Brown",
        "col1": "Los Angeles Rams",
        "col2": "Los Angeles Rams",
        "col3": "1993-03-15",
        "col4": "72"
    },
    {
        "col0": "J. Crowder",
        "col1": "Washington Redskins",
        "col2": "Washington Redskins",
        "col3": "1993-06-17",
        "col4": "105"
    },
    {
        "col0": "J. Douglas",
        "col1": "Miami Dolphins",
        "col2": "New England Patriots",
        "col3": "1992-02-28",
        "col4": "114"
    },
    {
        "col0": "J. Wright",
        "col1": "Cincinnati Bengals",
        "col2": "Cincinnati Bengals",
        "col3": "1991-12-31",
        "col4": "239"
    },
    {
        "col0": "J. White",
        "col1": "New England Patriots",
        "col2": "New England Patriots",
        "col3": "1992-02-03",
        "col4": "130"
    },
    {
        "col0": "J. Starks",
        "col1": "Green Bay Packers",
        "col2": "Green Bay Packers",
        "col3": "1986-02-25",
        "col4": "193"
    },
    {
        "col0": "J. Sample",
        "col1": "Jacksonville Jaguars",
        "col2": "Jacksonville Jaguars",
        "col3": "1992-06-23",
        "col4": "104"
    },
    {
        "col0": "J. O'Shaughnessy",
        "col1": "Kansas City Chiefs",
        "col2": "Kansas City Chiefs",
        "col3": "1992-01-14",
        "col4": "173"
    },
    {
        "col0": "J. Jones",
        "col1": "Green Bay Packers",
        "col2": "Free agent",
        "col3": "1984-03-31",
        "col4": "78"
    },
    {
        "col0": "J. Hanna",
        "col1": "Dallas Cowboys",
        "col2": "Dallas Cowboys",
        "col3": "1989-07-14",
        "col4": "186"
    },
    {
        "col0": "J. Winston",
        "col1": "Tampa Bay Buccaneers",
        "col2": "Tampa Bay Buccaneers",
        "col3": "1994-12-30",
        "col4": "1"
    },
    {
        "col0": "J. Taylor",
        "col1": "Cleveland Browns",
        "col2": "Cleveland Browns",
        "col3": "1990-09-29",
        "col4": "54"
    },
    {
        "col0": "J. Fowler",
        "col1": "Tennessee Titans",
        "col2": "Tennessee Titans",
        "col3": "1990-07-26",
        "col4": "108"
    },
    {
        "col0": "J. Ramsey",
        "col1": "Jacksonville Jaguars",
        "col2": "Jacksonville Jaguars",
        "col3": "1994-10-24",
        "col4": "5"
    },
    {
        "col0": "J. Mills",
        "col1": "Philadelphia Eagles",
        "col2": "Philadelphia Eagles",
        "col3": "1994-04-06",
        "col4": "233"
    },
    {
        "col0": "J. Collins",
        "col1": "Atlanta Falcons",
        "col2": "Atlanta Falcons",
        "col3": "1993-03-20",
        "col4": "42"
    },
    {
        "col0": "J. Grant",
        "col1": "Miami Dolphins",
        "col2": "Miami Dolphins",
        "col3": "1992-10-30",
        "col4": "186"
    },
    {
        "col0": "J. Ryan",
        "col1": "Green Bay Packers",
        "col2": "Green Bay Packers",
        "col3": "1992-02-27",
        "col4": "219"
    },
    {
        "col0": "J. Matthews",
        "col1": "Atlanta Falcons",
        "col2": "Atlanta Falcons",
        "col3": "1992-02-11",
        "col4": "6"
    },
    {
        "col0": "J. Fisher",
        "col1": "Cincinnati Bengals",
        "col2": "Cincinnati Bengals",
        "col3": "1993-04-27",
        "col4": "53"
    },
    {
        "col0": "J. Thomas",
        "col1": "Indianapolis Colts",
        "col2": "Free agent",
        "col3": "1986-08-22",
        "col4": "236"
    },
    {
        "col0": "J. Strong",
        "col1": "Houston Texans",
        "col2": "Houston Texans",
        "col3": "1994-01-25",
        "col4": "70"
    },
    {
        "col0": "J. Clowney",
        "col1": "Houston Texans",
        "col2": "Houston Texans",
        "col3": "1993-02-14",
        "col4": "1"
    },
    {
        "col0": "J. Tamme",
        "col1": "Atlanta Falcons",
        "col2": "Atlanta Falcons",
        "col3": "1985-03-15",
        "col4": "127"
    },
    {
        "col0": "J. Bender",
        "col1": "Carolina Panthers",
        "col2": "York Capitals",
        "col3": "1985-04-25",
        "col4": "177"
    }
]