[
    {
        "col0": "Annals of the Association of American Geographers",
        "col1": "45608",
        "col2": "1911",
        "col3": "1514553"
    },
    {
        "col0": "Annals of Probability",
        "col1": "911798",
        "col2": "1973",
        "col3": "1786664"
    },
    {
        "col0": "Annals of Mathematics",
        "col1": "0003486X",
        "col2": "1874",
        "col3": "1481391"
    },
    {
        "col0": "Analysis",
        "col1": "32638",
        "col2": "1933",
        "col3": "49855776"
    },
    {
        "col0": "Analecta Hibernica",
        "col1": "7916167",
        "col2": "1930",
        "col3": "448038414"
    },
    {
        "col0": "American Studies",
        "col1": "263079",
        "col2": "1960",
        "col3": "818197"
    },
    {
        "col0": "American Sociological Review",
        "col1": "31224",
        "col2": "1936",
        "col3": "38161061"
    },
    {
        "col0": "American Quarterly",
        "col1": "30678",
        "col2": "1949",
        "col3": "1480637"
    },
    {
        "col0": "American Political Science Review",
        "col1": "30554",
        "col2": "1906",
        "col3": "805068983"
    },
    {
        "col0": "American Philosophical Quarterly",
        "col1": "30481",
        "col2": "1964",
        "col3": "60623498"
    },
    {
        "col0": "American Midland Naturalist",
        "col1": "30031",
        "col2": "1909",
        "col3": "5731039"
    },
    {
        "col0": "American Literature",
        "col1": "29831",
        "col2": "1929",
        "col3": "1480320"
    },
    {
        "col0": "American Literary History",
        "col1": "8967148",
        "col2": "1989",
        "col3": "50709474"
    },
    {
        "col0": "American Journal of Sociology",
        "col1": "29602",
        "col2": "1895",
        "col3": "42017129"
    }
]