[
    {
        "col0": "P. W. Schramm",
        "col1": "Ashland, Ohio",
        "col2": "1946-12-03",
        "col3": "1946-12-03",
        "col4": "2015"
    },
    {
        "col0": "P. Lipton",
        "col1": "Cambridge",
        "col2": "1954-10-09",
        "col3": "1954-10-09",
        "col4": "2007"
    },
    {
        "col0": "P. Kropotkin",
        "col1": "Russian SFSR",
        "col2": "1842-12-09",
        "col3": "1842-12-09",
        "col4": "1921"
    },
    {
        "col0": "P. Geach",
        "col1": "Cambridge",
        "col2": "1916-03-29",
        "col3": "1916-03-29",
        "col4": "2013"
    },
    {
        "col0": "P. Coffey",
        "col1": "Maynooth",
        "col2": "1876-04-09",
        "col3": "1876-04-09",
        "col4": "1943"
    },
    {
        "col0": "P. Blau",
        "col1": "New York City",
        "col2": "1918-02-07",
        "col3": "1918-02-07",
        "col4": "2002"
    },
    {
        "col0": "P. Abelard",
        "col1": "Chalon-sur-SaA'ne",
        "col2": "1079-1-1",
        "col3": "1079-1-1",
        "col4": "1142"
    },
    {
        "col0": "P. I. Petrovic-Njegos",
        "col1": "Cetinje",
        "col2": "1813-11-13",
        "col3": "1813-11-13",
        "col4": "1851"
    },
    {
        "col0": "P. d. Man",
        "col1": "New Haven, Connecticut",
        "col2": "1919-12-06",
        "col3": "1919-12-06",
        "col4": "1983"
    },
    {
        "col0": "P. Weiss",
        "col1": "Washington, D.C.",
        "col2": "1901-05-19",
        "col3": "1901-05-19",
        "col4": "2002"
    },
    {
        "col0": "P. Watzlawick",
        "col1": "Palo Alto, California",
        "col2": "1921-07-25",
        "col3": "1921-07-25",
        "col4": "1925"
    },
    {
        "col0": "P. Thieme",
        "col1": "London",
        "col2": "1905-03-18",
        "col3": "1905-03-18",
        "col4": "2001"
    },
    {
        "col0": "P. Souriau",
        "col1": "Nancy, France",
        "col2": "1852-10-21",
        "col3": "1852-10-21",
        "col4": "1926"
    },
    {
        "col0": "P. Ricoeur",
        "col1": "Chatenay-Malabry",
        "col2": "1913-02-27",
        "col3": "1913-02-27",
        "col4": "2005"
    },
    {
        "col0": "P. L. Landsberg",
        "col1": "Sachsenhausen concentration camp",
        "col2": "1901-12-03",
        "col3": "1901-12-03",
        "col4": "1944"
    }
]