[
    {
        "col0": "Taudu River",
        "col1": "Salaj County",
        "col2": "Salaj County",
        "col3": "Salaj County"
    },
    {
        "col0": "Tata River",
        "col1": "Dambovita County",
        "col2": "Dambovita County",
        "col3": "Dambovita County"
    },
    {
        "col0": "Tantareni River",
        "col1": "Gorj County",
        "col2": "Gorj County",
        "col3": "Tantareni, Gorj"
    },
    {
        "col0": "Tuturele River",
        "col1": "Dolj",
        "col2": "Cosoveni, Dolj",
        "col3": "Dolj"
    },
    {
        "col0": "Turcatele River",
        "col1": "Maramures County",
        "col2": "Maramures County",
        "col3": "Maramures County"
    },
    {
        "col0": "Tolici River",
        "col1": "Neamt County",
        "col2": "Neamt County",
        "col3": "Neamt County"
    },
    {
        "col0": "Tipaul Mare River",
        "col1": "Vrancea County",
        "col2": "Vrancea County",
        "col3": "Vrancea County"
    },
    {
        "col0": "Tinta River",
        "col1": "Vrancea County",
        "col2": "Vrancea County",
        "col3": "Vrancea County"
    },
    {
        "col0": "Tigla River",
        "col1": "Mures County",
        "col2": "Mures County",
        "col3": "Mures County"
    },
    {
        "col0": "Tiganu River",
        "col1": "Gorj County",
        "col2": "Gorj County",
        "col3": "Gorj County"
    },
    {
        "col0": "Tiganu River",
        "col1": "Sibiu County",
        "col2": "Sibiu County",
        "col3": "Sibiu County"
    },
    {
        "col0": "Tiganu River",
        "col1": "Brasov County",
        "col2": "Brasov County",
        "col3": "Brasov County"
    },
    {
        "col0": "Tiganu River",
        "col1": "Hunedoara",
        "col2": "Hunedoara",
        "col3": "Hunedoara"
    },
    {
        "col0": "Tiganu River",
        "col1": "Gorj County",
        "col2": "Gorj County",
        "col3": "Gorj County"
    },
    {
        "col0": "Tiganu River",
        "col1": "Gorj County",
        "col2": "Gorj County",
        "col3": "Gorj County"
    },
    {
        "col0": "Tiganu River",
        "col1": "Covasna",
        "col2": "Covasna",
        "col3": "Covasna"
    },
    {
        "col0": "Tiganca River",
        "col1": "Bacau County",
        "col2": "Bacau County",
        "col3": "Bacau County"
    },
    {
        "col0": "Tiganca River",
        "col1": "Neamt County",
        "col2": "Neamt County",
        "col3": "Neamt County"
    },
    {
        "col0": "Tiganca River",
        "col1": "Caras-Severin County",
        "col2": "Caras-Severin County",
        "col3": "Caras-Severin County"
    },
    {
        "col0": "Tigana River",
        "col1": "Hunedoara",
        "col2": "Hunedoara",
        "col3": "Hunedoara"
    },
    {
        "col0": "Tigan River",
        "col1": "Harghita County",
        "col2": "Harghita County",
        "col3": "Harghita County"
    },
    {
        "col0": "Tiflic River",
        "col1": "Neamt County",
        "col2": "Neamt County",
        "col3": "Neamt County"
    },
    {
        "col0": "Ticlau River",
        "col1": "Cluj County",
        "col2": "Cluj County",
        "col3": "Cluj County"
    },
    {
        "col0": "Tichindeal River",
        "col1": "Sibiu County",
        "col2": "Sibiu County",
        "col3": "Sibiu County"
    },
    {
        "col0": "Tibau River",
        "col1": "Suceava County",
        "col2": "Suceava County",
        "col3": "Suceava County"
    },
    {
        "col0": "Tibrin River",
        "col1": "Constanta County",
        "col2": "Gherghina, Constanta",
        "col3": "Gherghina, Constanta"
    },
    {
        "col0": "Tibles River",
        "col1": "Maramures County",
        "col2": "Maramures County",
        "col3": "Maramures County"
    },
    {
        "col0": "Tibles",
        "col1": "Bistrita-Nasaud County",
        "col2": "Poienile Zagrei",
        "col3": "Bistrita-Nasaud County"
    },
    {
        "col0": "Tibana River",
        "col1": "Iasi County",
        "col2": "Iasi County",
        "col3": "Iasi County"
    },
    {
        "col0": "Terova River",
        "col1": "Caras-Severin County",
        "col2": "Caras-Severin County",
        "col3": "Caras-Severin County"
    },
    {
        "col0": "Terova River",
        "col1": "Caras-Severin County",
        "col2": "Caras-Severin County",
        "col3": "Caras-Severin County"
    },
    {
        "col0": "Terova River",
        "col1": "Caras-Severin County",
        "col2": "Caras-Severin County",
        "col3": "Caras-Severin County"
    },
    {
        "col0": "Tepeseni River",
        "col1": "Neamt County",
        "col2": "Neamt County",
        "col3": "Neamt County"
    },
    {
        "col0": "Telna River",
        "col1": "Alba County",
        "col2": "Alba County",
        "col3": "Alba County"
    },
    {
        "col0": "Tefeleica River",
        "col1": "Arges County",
        "col2": "Arges County",
        "col3": "Arges County"
    },
    {
        "col0": "Tebea River",
        "col1": "Hunedoara",
        "col2": "Hunedoara",
        "col3": "Hunedoara"
    },
    {
        "col0": "Tarinii River",
        "col1": "Bihor County",
        "col2": "Bihor County",
        "col3": "Bihor County"
    },
    {
        "col0": "Tapu River",
        "col1": "Neamt County",
        "col2": "Neamt County",
        "col3": "Neamt County"
    },
    {
        "col0": "Tapu River",
        "col1": "Vrancea County",
        "col2": "Vrancea County",
        "col3": "Vrancea County"
    },
    {
        "col0": "Tancuri River",
        "col1": "Suceava County",
        "col2": "Suceava County",
        "col3": "Suceava County"
    },
    {
        "col0": "Taia River",
        "col1": "Suceava",
        "col2": "Suceava",
        "col3": "Suceava"
    },
    {
        "col0": "Sausa River",
        "col1": "Mures County",
        "col2": "Mures County",
        "col3": "Mures County"
    },
    {
        "col0": "Sapca River",
        "col1": "Alba County",
        "col2": "Alba County",
        "col3": "Alba County"
    },
    {
        "col0": "Suta River",
        "col1": "Dambovita County",
        "col2": "Dambovita County",
        "col3": "Odobesti, Dambovita"
    },
    {
        "col0": "Susu River",
        "col1": "Alba County",
        "col2": "Alba County",
        "col3": "Alba County"
    },
    {
        "col0": "Susita River",
        "col1": "Vrancea County",
        "col2": "Vrancea County",
        "col3": "Vrancea County"
    },
    {
        "col0": "Susita River",
        "col1": "Stanesti, Gorj",
        "col2": "Gorj County",
        "col3": "Stanesti, Gorj"
    },
    {
        "col0": "Susita River",
        "col1": "Mehedinti County",
        "col2": "Ionesti, Gorj",
        "col3": "Ionesti, Gorj"
    },
    {
        "col0": "Susara River",
        "col1": "Sasca Montana",
        "col2": "Caras-Severin County",
        "col3": "Caras-Severin County"
    },
    {
        "col0": "Sutila River",
        "col1": "Dambovita County",
        "col2": "Dambovita County",
        "col3": "Dambovita County"
    },
    {
        "col0": "Surgani River",
        "col1": "Cheveresu Mare",
        "col2": "Buzias",
        "col3": "Cheveresu Mare"
    },
    {
        "col0": "Sumuleul Mare River",
        "col1": "Harghita County",
        "col2": "Harghita County",
        "col3": "Harghita County"
    },
    {
        "col0": "Sumuleu River",
        "col1": "Harghita County",
        "col2": "Harghita County",
        "col3": "Harghita County"
    },
    {
        "col0": "Sumuleu River",
        "col1": "Harghita County",
        "col2": "Harghita County",
        "col3": "Harghita County"
    },
    {
        "col0": "Suica River",
        "col1": "Suica",
        "col2": "Olt County",
        "col3": "Olt County"
    },
    {
        "col0": "Suia River",
        "col1": "Cluj County",
        "col2": "Cluj County",
        "col3": "Cluj County"
    },
    {
        "col0": "Sugaul Mic River",
        "col1": "Covasna",
        "col2": "Covasna",
        "col3": "Covasna"
    },
    {
        "col0": "Sugaul Mare River",
        "col1": "Covasna",
        "col2": "Covasna",
        "col3": "Covasna"
    },
    {
        "col0": "Sugau River",
        "col1": "Covasna County",
        "col2": "Covasna",
        "col3": "Covasna"
    },
    {
        "col0": "Sugau River",
        "col1": "Harghita County",
        "col2": "Harghita County",
        "col3": "Harghita County"
    },
    {
        "col0": "Sugau River",
        "col1": "Harghita County",
        "col2": "Harghita County",
        "col3": "Harghita County"
    },
    {
        "col0": "Sugau River",
        "col1": "Maramures County",
        "col2": "Maramures County",
        "col3": "Maramures County"
    },
    {
        "col0": "Sugau River",
        "col1": "Neamt County",
        "col2": "Neamt County",
        "col3": "Neamt County"
    }
]