[
    {
        "col0": "J. Hancock",
        "col1": "Harvard University",
        "col2": "D. Quincy",
        "col3": "1793-10-08",
        "col4": "1737-01-23"
    },
    {
        "col0": "J. C. West",
        "col1": "The Citadel",
        "col2": "L. R. West",
        "col3": "2004-03-21",
        "col4": "1922-08-27"
    },
    {
        "col0": "J. C. Fremont",
        "col1": "College of Charleston",
        "col2": "J. B. Fremont",
        "col3": "1890-07-13",
        "col4": "1813-01-21"
    },
    {
        "col0": "H. Gibbs",
        "col1": "Trinity College, Cambridge",
        "col2": "Order of the British Empire",
        "col3": "1990-11-05",
        "col4": "1902-11-22"
    },
    {
        "col0": "H. M. Mathews",
        "col1": "University of Virginia",
        "col2": "L. F. Mathews",
        "col3": "1884-04-28",
        "col4": "1834-03-29"
    },
    {
        "col0": "H. L. III",
        "col1": "Princeton University",
        "col2": "Anne Hill Carter Lee",
        "col3": "1818-03-25",
        "col4": "1756-01-29"
    },
    {
        "col0": "Harold Alexander, 1st Earl Alexander of Tunis",
        "col1": "Harrow School",
        "col2": "Margaret Alexander, Countess Alexander of Tunis",
        "col3": "1969-06-16",
        "col4": "1891-12-10"
    },
    {
        "col0": "E. W. Marland",
        "col1": "University of Michigan Law School",
        "col2": "L. R. Marland",
        "col3": "1941-10-03",
        "col4": "1874-05-08"
    },
    {
        "col0": "D. F. Bartlett",
        "col1": "Princeton University",
        "col2": "A. Bartlett",
        "col3": "1979-03-01",
        "col4": "1919-03-28"
    },
    {
        "col0": "D. Moody",
        "col1": "University of Texas Law School",
        "col2": "M. P. Moody",
        "col3": "1966-05-22",
        "col4": "1893-06-01"
    },
    {
        "col0": "B. Mboi",
        "col1": "University of Indonesia",
        "col2": "N. Mboi",
        "col3": "2015-06-23",
        "col4": "1935-05-22"
    },
    {
        "col0": "A. Ames",
        "col1": "United States Military Academy",
        "col2": "B. B. Ames",
        "col3": "1933-04-13",
        "col4": "1835-10-31"
    }
]