[
    {
        "col0": "Ljosufjoll",
        "col1": "Iceland",
        "col2": "Iceland",
        "col3": "960"
    },
    {
        "col0": "Lewotolo",
        "col1": "Dutch East Indies",
        "col2": "Dutch East Indies",
        "col3": "2012"
    },
    {
        "col0": "Lewotobi",
        "col1": "Dutch East Indies",
        "col2": "Dutch East Indies",
        "col3": "2014"
    },
    {
        "col0": "Leutongey",
        "col1": "Kamchatka Peninsula",
        "col2": "Russia",
        "col3": "-800"
    },
    {
        "col0": "Leroboleng",
        "col1": "Indonesia",
        "col2": "Dutch East Indies",
        "col3": "2003"
    },
    {
        "col0": "Leonard Kniaseff",
        "col1": "Mindanao",
        "col2": "Mindanao",
        "col3": "120"
    },
    {
        "col0": "Lemei Rock",
        "col1": "Washington",
        "col2": "Washington",
        "col3": "8"
    },
    {
        "col0": "Lava Butte",
        "col1": "Oregon",
        "col2": "Oregon",
        "col3": "7"
    },
    {
        "col0": "Lautaro",
        "col1": "Chile",
        "col2": "Chile",
        "col3": "1979"
    },
    {
        "col0": "Lassen Peak",
        "col1": "Shasta County, California",
        "col2": "Shasta County, California",
        "col3": "1914"
    },
    {
        "col0": "Lascar",
        "col1": "Chile",
        "col2": "Chile",
        "col3": "2015"
    },
    {
        "col0": "Las Pilas",
        "col1": "Nicaragua",
        "col2": "Nicaragua",
        "col3": "1954"
    },
    {
        "col0": "Larch Mountain",
        "col1": "Oregon",
        "col2": "United States",
        "col3": "1"
    },
    {
        "col0": "Lanin",
        "col1": "Argentina",
        "col2": "Argentina",
        "col3": "560"
    },
    {
        "col0": "Langila",
        "col1": "Papua New Guinea",
        "col2": "Papua New Guinea",
        "col3": "2012"
    },
    {
        "col0": "Lanin",
        "col1": "Argentina",
        "col2": "Argentina",
        "col3": "560"
    },
    {
        "col0": "Laki",
        "col1": "Iceland",
        "col2": "Iceland",
        "col3": "1784"
    },
    {
        "col0": "Lake Ilopango",
        "col1": "El Salvador",
        "col2": "El Salvador",
        "col3": "1879"
    },
    {
        "col0": "Laguna del Maule",
        "col1": "Chile",
        "col2": "Chile",
        "col3": "2"
    },
    {
        "col0": "Laguna Volcanic Field",
        "col1": "Philippines",
        "col2": "Philippines",
        "col3": "1350"
    },
    {
        "col0": "Laguna Amarga",
        "col1": "Argentina",
        "col2": "Argentina",
        "col3": "3"
    },
    {
        "col0": "La Soufriere",
        "col1": "Saint Vincent and the Grenadines",
        "col2": "Saint Vincent and the Grenadines",
        "col3": "1979"
    },
    {
        "col0": "La Grande Soufriere",
        "col1": "Caribbean",
        "col2": "Caribbean",
        "col3": "1976"
    },
    {
        "col0": "La Garita Caldera",
        "col1": "Colorado",
        "col2": "Colorado",
        "col3": "26"
    },
    {
        "col0": "La Cumbre",
        "col1": "Galapagos Islands",
        "col2": "Galapagos Islands",
        "col3": "2009"
    },
    {
        "col0": "KA<<lauea",
        "col1": "United States",
        "col2": "United States",
        "col3": "1983"
    },
    {
        "col0": "Kuwae",
        "col1": "Vanuatu",
        "col2": "Vanuatu",
        "col3": "1974"
    },
    {
        "col0": "Kunlun Volcanic Group",
        "col1": "China",
        "col2": "China",
        "col3": "1951"
    }
]