[
    {
        "col0": "Podocarpus aristulatus",
        "col1": "Podocarpaceae",
        "col2": "iucn2.3",
        "col3": "VU"
    },
    {
        "col0": "Podocarpus archboldii",
        "col1": "Podocarpaceae",
        "col2": "IUCN2.3",
        "col3": "LR/lc"
    },
    {
        "col0": "Podocarpus aracensis",
        "col1": "Podocarpaceae",
        "col2": "IUCN2.3",
        "col3": "LR/lc"
    },
    {
        "col0": "Podocarpus annamiensis",
        "col1": "Podocarpaceae",
        "col2": "IUCN3.1",
        "col3": "DD"
    },
    {
        "col0": "Podocarpus angustifolius",
        "col1": "Podocarpaceae",
        "col2": "IUCN3.1",
        "col3": "VU"
    },
    {
        "col0": "Podocarpus affinis",
        "col1": "Podocarpaceae",
        "col2": "IUCN3.1",
        "col3": "NT"
    },
    {
        "col0": "Podocarpus acutifolius",
        "col1": "Podocarpaceae",
        "col2": "IUCN2.3",
        "col3": "LR/lc"
    },
    {
        "col0": "Podocarpus acuminatus",
        "col1": "Podocarpaceae",
        "col2": "IUCN3.1",
        "col3": "NT"
    },
    {
        "col0": "Platycladus",
        "col1": "Cupressaceae",
        "col2": "IUCN2.3",
        "col3": "LR/nt"
    },
    {
        "col0": "Pinus yunnanensis",
        "col1": "Pinaceae",
        "col2": "IUCN3.1",
        "col3": "lc"
    },
    {
        "col0": "Pinus wangii",
        "col1": "Pinaceae",
        "col2": "IUCN3.1",
        "col3": "EN"
    },
    {
        "col0": "Pinus wallichiana",
        "col1": "Pinaceae",
        "col2": "IUCN3.1",
        "col3": "LC"
    },
    {
        "col0": "Pinus virginiana",
        "col1": "Pinaceae",
        "col2": "iucn3.1",
        "col3": "LC"
    },
    {
        "col0": "Pinus tropicalis",
        "col1": "Pinaceae",
        "col2": "IUCN2.3",
        "col3": "LR/lc"
    },
    {
        "col0": "Pinus thunbergii",
        "col1": "Pinaceae",
        "col2": "IUCN2.3",
        "col3": "LR/lc"
    },
    {
        "col0": "Pinus teocote",
        "col1": "Pinaceae",
        "col2": "IUCN2.3",
        "col3": "LR/lc"
    },
    {
        "col0": "Pinus tecunumanii",
        "col1": "Pinaceae",
        "col2": "IUCN2.3",
        "col3": "VU"
    },
    {
        "col0": "Pinus taiwanensis",
        "col1": "Pinaceae",
        "col2": "IUCN3.1",
        "col3": "LC"
    },
    {
        "col0": "Pinus taeda",
        "col1": "Pinaceae",
        "col2": "IUCN3.1",
        "col3": "LC"
    },
    {
        "col0": "Pinus tabuliformis",
        "col1": "Pinaceae",
        "col2": "IUCN3.1",
        "col3": "LC"
    },
    {
        "col0": "Pinus strobiformis",
        "col1": "Pinaceae",
        "col2": "IUCN2.3",
        "col3": "LR/lc"
    },
    {
        "col0": "Pinus squamata",
        "col1": "Pinaceae",
        "col2": "IUCN3.1",
        "col3": "CR"
    },
    {
        "col0": "Pinus sibirica",
        "col1": "Pinaceae",
        "col2": "IUCN2.3",
        "col3": "LR/lc"
    },
    {
        "col0": "Pinus serotina",
        "col1": "Pinaceae",
        "col2": "IUCN2.3",
        "col3": "LR/lc"
    },
    {
        "col0": "Pinus sabiniana",
        "col1": "Pinaceae",
        "col2": "IUCN2.3",
        "col3": "LC"
    },
    {
        "col0": "Pinus rzedowskii",
        "col1": "Pinaceae",
        "col2": "IUCN3.1",
        "col3": "VU"
    },
    {
        "col0": "Pinus roxburghii",
        "col1": "Pinaceae",
        "col2": "IUCN3.1",
        "col3": "LC"
    },
    {
        "col0": "Pinus rigida",
        "col1": "Pinaceae",
        "col2": "IUCN3.1",
        "col3": "LC"
    },
    {
        "col0": "Pinus resinosa",
        "col1": "Pinaceae",
        "col2": "IUCN3.1",
        "col3": "LC"
    },
    {
        "col0": "Pinus remota",
        "col1": "Pinaceae",
        "col2": "IUCN2.3",
        "col3": "LR/lc"
    },
    {
        "col0": "Pinus radiata",
        "col1": "Pinaceae",
        "col2": "IUCN3.1",
        "col3": "EN"
    },
    {
        "col0": "Pinus quadrifolia",
        "col1": "Pinaceae",
        "col2": "IUCN3.1",
        "col3": "LC"
    },
    {
        "col0": "Pinus pumila",
        "col1": "Pinaceae",
        "col2": "IUCN3.1",
        "col3": "LC"
    },
    {
        "col0": "Pinus pseudostrobus",
        "col1": "Pinaceae",
        "col2": "IUCN2.3",
        "col3": "LR/lc"
    },
    {
        "col0": "Pinus pringlei",
        "col1": "Pinaceae",
        "col2": "IUCN2.3",
        "col3": "LR/lc"
    },
    {
        "col0": "Pinus praetermissa",
        "col1": "Pinaceae",
        "col2": "IUCN2.3",
        "col3": "LR/lc"
    },
    {
        "col0": "Pinus ponderosa",
        "col1": "Pinaceae",
        "col2": "IUCN2.3",
        "col3": "LR/lc"
    },
    {
        "col0": "Pinus pinceana",
        "col1": "Pinaceae",
        "col2": "IUCN2.3",
        "col3": "LR/nt"
    },
    {
        "col0": "Pinus pinaster",
        "col1": "Pinaceae",
        "col2": "IUCN3.1",
        "col3": "LC"
    },
    {
        "col0": "Pinus peuce",
        "col1": "Pinaceae",
        "col2": "IUCN2.3",
        "col3": "LR/nt"
    },
    {
        "col0": "Pinus patula",
        "col1": "Pinaceae",
        "col2": "IUCN2.3",
        "col3": "LR/lc"
    },
    {
        "col0": "Pinus parviflora",
        "col1": "Pinaceae",
        "col2": "IUCN2.3",
        "col3": "LR/lc"
    },
    {
        "col0": "Pinus palustris",
        "col1": "Pinaceae",
        "col2": "iucn3.1",
        "col3": "EN"
    },
    {
        "col0": "Pinus orizabensis",
        "col1": "Pinaceae",
        "col2": "IUCN2.3",
        "col3": "LR/nt"
    },
    {
        "col0": "Pinus oocarpa",
        "col1": "Pinaceae",
        "col2": "IUCN2.3",
        "col3": "LR/lc"
    },
    {
        "col0": "Pinus occidentalis",
        "col1": "Pinaceae",
        "col2": "IUCN2.3",
        "col3": "EN"
    },
    {
        "col0": "Pinus nigra",
        "col1": "Pinaceae",
        "col2": "IUCN3.1",
        "col3": "LC"
    },
    {
        "col0": "Pinus nelsonii",
        "col1": "Pinaceae",
        "col2": "IUCN3.1",
        "col3": "EN"
    },
    {
        "col0": "Pinus mugo",
        "col1": "Pinaceae",
        "col2": "IUCN2.3",
        "col3": "LR/lc"
    },
    {
        "col0": "Pinus morrisonicola",
        "col1": "Pinaceae",
        "col2": "IUCN2.3",
        "col3": "LR/lc"
    },
    {
        "col0": "Pinus montezumae",
        "col1": "Pinaceae",
        "col2": "IUCN2.3",
        "col3": "LR/lc"
    },
    {
        "col0": "Pinus monophylla",
        "col1": "Pinaceae",
        "col2": "IUCN3.1",
        "col3": "LC"
    },
    {
        "col0": "Pinus merkusii",
        "col1": "Pinaceae",
        "col2": "iucn2.3",
        "col3": "VU"
    },
    {
        "col0": "Pinus maximinoi",
        "col1": "Pinaceae",
        "col2": "IUCN2.3",
        "col3": "LR/lc"
    },
    {
        "col0": "Pinus maximartinezii",
        "col1": "Pinaceae",
        "col2": "iucn3.1",
        "col3": "EN"
    },
    {
        "col0": "Pinus massoniana",
        "col1": "Pinaceae",
        "col2": "IUCN2.3",
        "col3": "LR/lc"
    },
    {
        "col0": "Pinus luzmariae",
        "col1": "Pinaceae",
        "col2": "IUCN2.3",
        "col3": "LR/lc"
    },
    {
        "col0": "Pinus lumholtzii",
        "col1": "Pinaceae",
        "col2": "IUCN2.3",
        "col3": "LR/lc"
    },
    {
        "col0": "Pinus luchuensis",
        "col1": "Pinaceae",
        "col2": "IUCN3.1",
        "col3": "LC"
    },
    {
        "col0": "Pinus longaeva",
        "col1": "Pinaceae",
        "col2": "iucn3.1",
        "col3": "LC"
    },
    {
        "col0": "Pinus leiophylla",
        "col1": "Pinaceae",
        "col2": "IUCN2.3",
        "col3": "LR/lc"
    },
    {
        "col0": "Pinus lawsonii",
        "col1": "Pinaceae",
        "col2": "IUCN2.3",
        "col3": "LR/lc"
    },
    {
        "col0": "Pinus latteri",
        "col1": "Pinaceae",
        "col2": "IUCN2.3",
        "col3": "LR/nt"
    },
    {
        "col0": "Pinus krempfii",
        "col1": "Pinaceae",
        "col2": "IUCN2.3",
        "col3": "VU"
    },
    {
        "col0": "Pinus koraiensis",
        "col1": "Pinaceae",
        "col2": "IUCN2.3",
        "col3": "LR/lc"
    },
    {
        "col0": "Pinus kesiya",
        "col1": "Pinaceae",
        "col2": "IUCN2.3",
        "col3": "LR/lc"
    },
    {
        "col0": "Pinus jaliscana",
        "col1": "Pinaceae",
        "col2": "IUCN2.3",
        "col3": "LR/nt"
    },
    {
        "col0": "Pinus hwangshanensis",
        "col1": "Pinaceae",
        "col2": "IUCN2.3",
        "col3": "LR/lc"
    },
    {
        "col0": "Pinus herrerae",
        "col1": "Pinaceae",
        "col2": "IUCN2.3",
        "col3": "LR/lc"
    },
    {
        "col0": "Pinus henryi",
        "col1": "Pinaceae",
        "col2": "IUCN2.3",
        "col3": "LR/nt"
    },
    {
        "col0": "Pinus heldreichii",
        "col1": "Pinaceae",
        "col2": "IUCN2.3",
        "col3": "LR/lc"
    },
    {
        "col0": "Pinus hartwegii",
        "col1": "Pinaceae",
        "col2": "IUCN2.3",
        "col3": "LR/lc"
    },
    {
        "col0": "Pinus halepensis",
        "col1": "Pinaceae",
        "col2": "IUCN2.3",
        "col3": "LR/lc"
    },
    {
        "col0": "Pinus hakkodensis",
        "col1": "Pinaceae",
        "col2": "IUCN2.3",
        "col3": "LR/lc"
    },
    {
        "col0": "Pinus greggii",
        "col1": "Pinaceae",
        "col2": "IUCN3.1",
        "col3": "NT"
    },
    {
        "col0": "Pinus glabra",
        "col1": "Pinaceae",
        "col2": "IUCN2.3",
        "col3": "LR/lc"
    },
    {
        "col0": "Pinus gerardiana",
        "col1": "Pinaceae",
        "col2": "IUCN2.3",
        "col3": "LR/nt"
    },
    {
        "col0": "Pinus flexilis",
        "col1": "Pinaceae",
        "col2": "IUCN2.3",
        "col3": "LR/lc"
    },
    {
        "col0": "Pinus fenzeliana",
        "col1": "Pinaceae",
        "col2": "IUCN2.3",
        "col3": "LR/nt"
    },
    {
        "col0": "Pinus engelmannii",
        "col1": "Pinaceae",
        "col2": "IUCN2.3",
        "col3": "LR/lc"
    },
    {
        "col0": "Pinus elliottii",
        "col1": "Pinaceae",
        "col2": "IUCN2.3",
        "col3": "LR/lc"
    },
    {
        "col0": "Pinus edulis",
        "col1": "Pinaceae",
        "col2": "iucn3.1",
        "col3": "LC"
    },
    {
        "col0": "Pinus echinata",
        "col1": "Pinaceae",
        "col2": "IUCN2.3",
        "col3": "LR/lc"
    },
    {
        "col0": "Pinus durangensis",
        "col1": "Pinaceae",
        "col2": "IUCN2.3",
        "col3": "LR/lc"
    },
    {
        "col0": "Pinus douglasiana",
        "col1": "Pinaceae",
        "col2": "IUCN2.3",
        "col3": "LR/lc"
    },
    {
        "col0": "Pinus devoniana",
        "col1": "Pinaceae",
        "col2": "IUCN2.3",
        "col3": "LR/lc"
    },
    {
        "col0": "Pinus densiflora",
        "col1": "Pinaceae",
        "col2": "IUCN2.3",
        "col3": "LR/lc"
    },
    {
        "col0": "Pinus densata",
        "col1": "Pinaceae",
        "col2": "IUCN2.3",
        "col3": "LR/lc"
    },
    {
        "col0": "Pinus dalatensis",
        "col1": "Pinaceae",
        "col2": "IUCN3.1",
        "col3": "NT"
    },
    {
        "col0": "Pinus dabeshanensis",
        "col1": "Pinaceae",
        "col2": "IUCN2.3",
        "col3": "VU"
    },
    {
        "col0": "Pinus cubensis",
        "col1": "Pinaceae",
        "col2": "IUCN2.3",
        "col3": "LR/lc"
    },
    {
        "col0": "Pinus contorta",
        "col1": "Pinaceae",
        "col2": "iucn2.3",
        "col3": "LR/lc"
    },
    {
        "col0": "Pinus clausa",
        "col1": "Pinaceae",
        "col2": "IUCN3.1",
        "col3": "LC"
    },
    {
        "col0": "Pinus chiapensis",
        "col1": "Pinaceae",
        "col2": "IUCN3.1",
        "col3": "EN"
    },
    {
        "col0": "Pinus cembroides",
        "col1": "Pinaceae",
        "col2": "IUCN2.3",
        "col3": "LR/lc"
    },
    {
        "col0": "Pinus cembra",
        "col1": "Pinaceae",
        "col2": "IUCN2.3",
        "col3": "LR/lc"
    },
    {
        "col0": "Pinus canariensis",
        "col1": "Pinaceae",
        "col2": "IUCN3.1",
        "col3": "LC"
    },
    {
        "col0": "Pinus bungeana",
        "col1": "Pinaceae",
        "col2": "iucn3.1",
        "col3": "LC"
    }
]