[
    {
        "col0": "WANE-TV",
        "col1": "CBS",
        "col2": "15.1CBS",
        "col3": "31 (UHF)",
        "col4": "1000000"
    },
    {
        "col0": "WALV-CD",
        "col1": "NBC",
        "col2": "46.1 MeTV",
        "col3": "46 (UHF)",
        "col4": "14900"
    },
    {
        "col0": "WALE-LD",
        "col1": "Justice Network",
        "col2": "17.1Justice Network",
        "col3": "17 (UHF)",
        "col4": "15000"
    },
    {
        "col0": "WAGT",
        "col1": "NBC",
        "col2": "26.1NBC",
        "col3": "30 (UHF)",
        "col4": "400000"
    },
    {
        "col0": "WAFB",
        "col1": "CBS",
        "col2": "9.1CBS",
        "col3": "9 (VHF)",
        "col4": "5570"
    },
    {
        "col0": "WACH",
        "col1": "Fox Broadcasting Company",
        "col2": "[[#Digital television",
        "col3": "48 (UHF)",
        "col4": "520000"
    },
    {
        "col0": "WABI-TV",
        "col1": "CBS",
        "col2": "5.1CBS",
        "col3": "13 (VHF)",
        "col4": "12000"
    },
    {
        "col0": "WABG-TV",
        "col1": "American Broadcasting Company",
        "col2": "[[#Digital channels",
        "col3": "32 (UHF)",
        "col4": "1000000"
    },
    {
        "col0": "W47EI-D",
        "col1": "Independent station",
        "col2": "47.1Religious broadcasting",
        "col3": "47 (UHF)",
        "col4": "15000"
    },
    {
        "col0": "W43DL-D",
        "col1": "Religious Broadcasting",
        "col2": "43.1 Total Praise Channel",
        "col3": "43 (UHF/PSIP)",
        "col4": "15000"
    },
    {
        "col0": "W21AU",
        "col1": "MundoMax",
        "col2": "21.1 MundoMax",
        "col3": "21 (UHF)",
        "col4": "11430"
    },
    {
        "col0": "W07DP-D",
        "col1": "Cornerstone Television Network",
        "col2": "35.1Cornerstone",
        "col3": "7 (VHF)",
        "col4": "250"
    },
    {
        "col0": "TV Osaka",
        "col1": "TX Network",
        "col2": "72",
        "col3": "18 (UHF, 2003-,Virtual7)",
        "col4": "21000"
    },
    {
        "col0": "Southern Oregon Public Television",
        "col1": "PBS",
        "col2": "x.1PBS",
        "col3": "KFTS: 22 (PSIP)",
        "col4": "9600"
    },
    {
        "col0": "Pioneer Public TV",
        "col1": "Public Broadcasting Service",
        "col2": "10.1/20.1PBS(HD)",
        "col3": "Digital: KSMN: 15 (UHF)",
        "col4": "50000"
    },
    {
        "col0": "MHz Networks",
        "col1": "Non-commercial educational",
        "col2": "(see article)",
        "col3": "WNVC: 24 (UHF)",
        "col4": "160000"
    },
    {
        "col0": "MBS TV",
        "col1": "Japan News Network",
        "col2": "042, 043",
        "col3": "16 (UHF, 2003-,Virtual: 4)",
        "col4": "25000"
    },
    {
        "col0": "KZTV",
        "col1": "CBS",
        "col2": "10.1CBS",
        "col3": "10 (VHF)",
        "col4": "39000"
    },
    {
        "col0": "KZKC-LP",
        "col1": "Azteca America",
        "col2": "42.2Azteca America",
        "col3": "23 (UHF)CP",
        "col4": "150000"
    },
    {
        "col0": "KYUU-LD",
        "col1": "The CW Plus",
        "col2": "35.1The CW",
        "col3": "28 (UHF)",
        "col4": "150000"
    },
    {
        "col0": "KYUM-LP",
        "col1": "Tele Vida Abundante",
        "col2": "15.1 TVA",
        "col3": "15 (UHF)",
        "col4": "100"
    },
    {
        "col0": "KYTV",
        "col1": "NBC",
        "col2": "3.1 NBC",
        "col3": "44 (UHF)",
        "col4": "967000"
    },
    {
        "col0": "KYCW-LD",
        "col1": "The CW",
        "col2": "33.2 The CW",
        "col3": "15 (UHF)",
        "col4": "3900"
    },
    {
        "col0": "KYAZ",
        "col1": "Azteca America",
        "col2": "[[#Digital television",
        "col3": "47 (UHF)",
        "col4": "1000000"
    }
]