[
    {
        "col0": "The Desert Fox: The Story of Rommel",
        "col1": "N. Brodine",
        "col2": "M. Rennie",
        "col3": "D. Amfitheatrof",
        "col4": "5280"
    },
    {
        "col0": "The Delhi Way",
        "col1": "J. Ivory",
        "col2": "L. Genn",
        "col3": "U. V. Khan",
        "col4": "3000"
    },
    {
        "col0": "The Dark Crystal",
        "col1": "O. Morris",
        "col2": "J. O'Conor",
        "col3": "T. Jones",
        "col4": "5580"
    },
    {
        "col0": "The Curse of the Werewolf",
        "col1": "A. Grant",
        "col2": "C. Evans",
        "col3": "B. Frankel",
        "col4": "5460"
    },
    {
        "col0": "The Crew",
        "col1": "J. R. Anchia",
        "col2": "R. Dreyfuss",
        "col3": "S. Bartek",
        "col4": "5220"
    },
    {
        "col0": "The Conquest of Everest",
        "col1": "G. Lowe",
        "col2": "M. Edwards",
        "col3": "A. Benjamin",
        "col4": "4680"
    },
    {
        "col0": "The Comebacks",
        "col1": "A. B. Richmond",
        "col2": "C. Weathers",
        "col3": "C. Lennertz",
        "col4": "5040"
    },
    {
        "col0": "The Clan of the Cave Bear",
        "col1": "J. d. Bont",
        "col2": "S. Jens",
        "col3": "A. Silvestri",
        "col4": "5880"
    },
    {
        "col0": "The Chess Players",
        "col1": "S. Roy",
        "col2": "A. Bachchan",
        "col3": "S. Ray",
        "col4": "7740"
    },
    {
        "col0": "The Cat in the Hat",
        "col1": "E. Lubezki",
        "col2": "V. Brandt",
        "col3": "D. Newman",
        "col4": "4920"
    },
    {
        "col0": "The Bucket List",
        "col1": "J. Schwartzman",
        "col2": "M. Freeman",
        "col3": "M. Shaiman",
        "col4": "5820"
    },
    {
        "col0": "The Brothers Bloom",
        "col1": "S. Yedlin",
        "col2": "R. Jay",
        "col3": "N. Johnson",
        "col4": "6840"
    },
    {
        "col0": "The Book Thief",
        "col1": "F. Ballhaus",
        "col2": "R. Allam",
        "col3": "J. Williams",
        "col4": "7500"
    },
    {
        "col0": "The Body",
        "col1": "T. Imi",
        "col2": "F. Finlay",
        "col3": "R. Waters",
        "col4": "5580"
    },
    {
        "col0": "The Big Sleep",
        "col1": "R. Paynter",
        "col2": "R. Mitchum",
        "col3": "J. Fielding",
        "col4": "5940"
    },
    {
        "col0": "The Big Knife",
        "col1": "E. Laszlo",
        "col2": "R. Boone",
        "col3": "F. D. Vol",
        "col4": "6660"
    },
    {
        "col0": "The Bible: In the Beginning...",
        "col1": "G. Rotunno",
        "col2": "J. Huston",
        "col3": "E. Morricone",
        "col4": "10440"
    },
    {
        "col0": "The Betrayal - Nerakhoon",
        "col1": "E. Kuras",
        "col2": "T. Phrasavath",
        "col3": "H. Shore",
        "col4": "5220"
    },
    {
        "col0": "The Best of Walt Disney's True-Life Adventures",
        "col1": "J. Couffer",
        "col2": "W. Hibler",
        "col3": "O. Wallace",
        "col4": "5340"
    },
    {
        "col0": "The Battle of the River Plate",
        "col1": "C. Challis",
        "col2": "D. Farrar",
        "col3": "B. Easdale",
        "col4": "7140"
    },
    {
        "col0": "The Battle of Midway",
        "col1": "J. Ford",
        "col2": "D. Crisp",
        "col3": "A. Newman",
        "col4": "1080"
    },
    {
        "col0": "The Barbarian and the Geisha",
        "col1": "C. G. Clarke",
        "col2": "E. Ando",
        "col3": "H. W. Friedhofer",
        "col4": "6300"
    },
    {
        "col0": "The Babe Ruth Story",
        "col1": "P. Tannura",
        "col2": "K. Manning",
        "col3": "E. Ward",
        "col4": "6360"
    },
    {
        "col0": "The Angelic Conversation",
        "col1": "D. Jarman",
        "col2": "J. Dench",
        "col3": "Coil",
        "col4": "4680"
    },
    {
        "col0": "The Alligator People",
        "col1": "K. Struss",
        "col2": "B. Garland",
        "col3": "I. Gertz",
        "col4": "4440"
    },
    {
        "col0": "The Age of Innocence",
        "col1": "M. Ballhaus",
        "col2": "J. Woodward",
        "col3": "E. Bernstein",
        "col4": "8340"
    },
    {
        "col0": "The Age of Innocence",
        "col1": "J. V. Trees",
        "col2": "J. Boles",
        "col3": "M. Steiner",
        "col4": "4860"
    },
    {
        "col0": "The Adventures of Rocky and Bullwinkle",
        "col1": "T. E. Ackerman",
        "col2": "K. Scott",
        "col3": "M. Mothersbaugh",
        "col4": "5520"
    },
    {
        "col0": "The Adventures of Picasso",
        "col1": "T. Forsberg",
        "col2": "R. Bussieres",
        "col3": "E. Satie",
        "col4": "6540"
    },
    {
        "col0": "The A-Team",
        "col1": "M. Fiore",
        "col2": "C. Burton",
        "col3": "A. Silvestri",
        "col4": "7140"
    },
    {
        "col0": "The 400 Million",
        "col1": "R. Capa",
        "col2": "F. March",
        "col3": "H. Eisler",
        "col4": "3120"
    },
    {
        "col0": "Texas Rangers",
        "col1": "D. Okada",
        "col2": "J. Coburn",
        "col3": "T. Rabin",
        "col4": "5400"
    },
    {
        "col0": "Tension",
        "col1": "H. Stradling",
        "col2": "B. Sullivan",
        "col3": "A. Previn",
        "col4": "5700"
    },
    {
        "col0": "Tees Maar Khan",
        "col1": "P. S. Vinod",
        "col2": "S. Dutt",
        "col3": "S. Kunder",
        "col4": "7800"
    },
    {
        "col0": "Ted 2",
        "col1": "M. Barrett",
        "col2": "P. Stewart",
        "col3": "W. Murphy",
        "col4": "6900"
    },
    {
        "col0": "Ted",
        "col1": "M. Barrett",
        "col2": "P. Stewart",
        "col3": "W. Murphy",
        "col4": "6360"
    },
    {
        "col0": "Teaching to See",
        "col1": "A. Severny",
        "col2": "I. Druckrey",
        "col3": "Beethoven",
        "col4": "2220"
    },
    {
        "col0": "Task Force",
        "col1": "P. Mantz",
        "col2": "G. Cooper",
        "col3": "F. Waxman",
        "col4": "6960"
    },
    {
        "col0": "Target - Berlin",
        "col1": "G. McLean",
        "col2": "L. Greene",
        "col3": "L. Applebaum",
        "col4": "900"
    },
    {
        "col0": "Tales of Terror",
        "col1": "F. Crosby",
        "col2": "V. Price",
        "col3": "L. Baxter",
        "col4": "5340"
    },
    {
        "col0": "TN 07 AL 4777",
        "col1": "R. B. Gurudev",
        "col2": "Jeeva",
        "col3": "V. Antony",
        "col4": "6900"
    },
    {
        "col0": "Suspiria",
        "col1": "L. Tovoli",
        "col2": "D. Argento",
        "col3": "Goblin",
        "col4": "5880"
    },
    {
        "col0": "Super Mario Bros.",
        "col1": "D. Semler",
        "col2": "D. Castellaneta",
        "col3": "A. Silvestri",
        "col4": "6240"
    },
    {
        "col0": "Summer of '42",
        "col1": "R. Surtees",
        "col2": "R. Mulligan",
        "col3": "M. Legrand",
        "col4": "6240"
    },
    {
        "col0": "Submarine Command",
        "col1": "L. Lindon",
        "col2": "W. Holden",
        "col3": "D. Buttolph",
        "col4": "5220"
    },
    {
        "col0": "Student of the Year",
        "col1": "A. Bose",
        "col2": "Student of the Year",
        "col3": "N. Hassan",
        "col4": "8760"
    },
    {
        "col0": "Stick It",
        "col1": "D. Okada",
        "col2": "M. Peregrym",
        "col3": "M. Simpson",
        "col4": "6180"
    },
    {
        "col0": "Stealing Harvard",
        "col1": "U. Steiger",
        "col2": "J. Lee",
        "col3": "C. Beck",
        "col4": "5100"
    },
    {
        "col0": "Stars in My Crown",
        "col1": "C. Schoenbaum",
        "col2": "M. Thompson",
        "col3": "A. Deutsch",
        "col4": "5340"
    },
    {
        "col0": "Stardust",
        "col1": "B. Davis",
        "col2": "I. McKellen",
        "col3": "I. Eshkeri",
        "col4": "7320"
    },
    {
        "col0": "Stand by Me",
        "col1": "T. D. Ruth",
        "col2": "R. Dreyfuss",
        "col3": "J. Nitzsche",
        "col4": "5280"
    },
    {
        "col0": "Stalag 17",
        "col1": "E. Laszlo",
        "col2": "G. Stratton",
        "col3": "F. Waxman",
        "col4": "7200"
    },
    {
        "col0": "Squadron 992",
        "col1": "J. Jones",
        "col2": "L. Gamlin",
        "col3": "M. Mathieson",
        "col4": "1371"
    },
    {
        "col0": "Spirit",
        "col1": "V. Isc",
        "col2": "Ranjith",
        "col3": "S. Aman",
        "col4": "8700"
    },
    {
        "col0": "Spartacus",
        "col1": "R. Metty",
        "col2": "V. Perrin",
        "col3": "A. North",
        "col4": "11040"
    },
    {
        "col0": "Spanglish",
        "col1": "J. Seale",
        "col2": "A. Garcia",
        "col3": "H. Zimmer",
        "col4": "7860"
    },
    {
        "col0": "Space Station 3D",
        "col1": "J. Neihouse",
        "col2": "T. Cruise",
        "col3": "M. Solomon",
        "col4": "2820"
    },
    {
        "col0": "Soul Men",
        "col1": "M. F. Leonetti",
        "col2": "R. Jackson",
        "col3": "S. Clarke",
        "col4": "6000"
    },
    {
        "col0": "Soul Food",
        "col1": "P. Elliott",
        "col2": "B. Hammond",
        "col3": "L. Coleman",
        "col4": "6900"
    },
    {
        "col0": "Sophie's Choice",
        "col1": "N. Almendros",
        "col2": "J. Sommer",
        "col3": "M. Hamlisch",
        "col4": "9060"
    },
    {
        "col0": "Something Wicked This Way Comes",
        "col1": "S. H. Burum",
        "col2": "A. Hill",
        "col3": "J. Horner",
        "col4": "5700"
    },
    {
        "col0": "Slattery's Hurricane",
        "col1": "C. G. Clarke",
        "col2": "G. Merrill",
        "col3": "C. J. Mockridge",
        "col4": "4980"
    },
    {
        "col0": "Sins of Jezebel",
        "col1": "G. Warrenton",
        "col2": "J. Hoyt",
        "col3": "B. Shefter",
        "col4": "4440"
    },
    {
        "col0": "Sinbad of the Seven Seas",
        "col1": "B. Giurato",
        "col2": "D. Nicolodi",
        "col3": "D. Seltzer",
        "col4": "5580"
    },
    {
        "col0": "Simon Birch",
        "col1": "A. Schneider",
        "col2": "J. Carrey",
        "col3": "M. Shaiman",
        "col4": "6840"
    },
    {
        "col0": "Silver Bullet",
        "col1": "A. Nannuzzi",
        "col2": "T. Feldshuh",
        "col3": "J. Chattaway",
        "col4": "5700"
    },
    {
        "col0": "Silsiilay",
        "col1": "S. Sivan",
        "col2": "S. Khan",
        "col3": "H. Reshammiya",
        "col4": "7920"
    },
    {
        "col0": "Side Street",
        "col1": "J. Ruttenberg",
        "col2": "P. Kelly",
        "col3": "L. Hayton",
        "col4": "4980"
    },
    {
        "col0": "She-Devil",
        "col1": "O. Stapleton",
        "col2": "R. Barr",
        "col3": "H. Shore",
        "col4": "5940"
    },
    {
        "col0": "Shattered Glass",
        "col1": "M. Walker",
        "col2": "H. Christensen",
        "col3": "M. Danna",
        "col4": "5640"
    },
    {
        "col0": "Shake Hands with the Devil",
        "col1": "E. Hillier",
        "col2": "M. Rennie",
        "col3": "W. Alwyn",
        "col4": "6660"
    },
    {
        "col0": "Shadrach",
        "col1": "H. Narita",
        "col2": "M. Sheen",
        "col3": "V. D. Parks",
        "col4": "5340"
    },
    {
        "col0": "Shadow of a Woman",
        "col1": "B. Glennon",
        "col2": "A. King",
        "col3": "A. Deutsch",
        "col4": "4680"
    },
    {
        "col0": "Shackleton's Antarctic Adventure",
        "col1": "R. Smoot",
        "col2": "K. Spacey",
        "col3": "S. Cardon",
        "col4": "2400"
    },
    {
        "col0": "Serpent of the Nile",
        "col1": "H. Freulich",
        "col2": "F. F. Sears",
        "col3": "M. Bakaleinikoff",
        "col4": "4860"
    },
    {
        "col0": "Secrets of the Gods",
        "col1": "R. D. Bode",
        "col2": "William",
        "col3": "G. Schyman",
        "col4": "5100"
    },
    {
        "col0": "Secrets of Life",
        "col1": "R. Vishniac",
        "col2": "W. Hibler",
        "col3": "P. Smith",
        "col4": "4200"
    },
    {
        "col0": "Seabiscuit",
        "col1": "J. Schwartzman",
        "col2": "D. McCullough",
        "col3": "R. Newman",
        "col4": "7740"
    },
    {
        "col0": "Savage Pampas",
        "col1": "J. M. Beltran",
        "col2": "E. Muino",
        "col3": "L. Demare",
        "col4": "5880"
    }
]