[
    {
        "col0": "Wood Lake",
        "col1": "British Columbia",
        "col2": "British Columbia",
        "col3": "21"
    },
    {
        "col0": "Tatla Lake",
        "col1": "British Columbia",
        "col2": "British Columbia",
        "col3": "10"
    },
    {
        "col0": "Taseko Lakes",
        "col1": "British Columbia",
        "col2": "British Columbia",
        "col3": "43"
    },
    {
        "col0": "Skaha Lake",
        "col1": "British Columbia",
        "col2": "British Columbia",
        "col3": "26"
    },
    {
        "col0": "Quesnel Lake",
        "col1": "British Columbia",
        "col2": "British Columbia",
        "col3": "157"
    },
    {
        "col0": "Pavilion Lake",
        "col1": "British Columbia",
        "col2": "British Columbia",
        "col3": "65"
    },
    {
        "col0": "Nimpo Lake",
        "col1": "British Columbia",
        "col2": "British Columbia",
        "col3": "27"
    },
    {
        "col0": "Ness Lake",
        "col1": "British Columbia",
        "col2": "British Columbia",
        "col3": "6"
    },
    {
        "col0": "Muncho Lake",
        "col1": "British Columbia",
        "col2": "British Columbia",
        "col3": "223"
    },
    {
        "col0": "Howard Lake",
        "col1": "British Columbia",
        "col2": "British Columbia",
        "col3": "33"
    },
    {
        "col0": "Gun Lake",
        "col1": "British Columbia",
        "col2": "British Columbia",
        "col3": "100"
    },
    {
        "col0": "Grand Lake",
        "col1": "Newfoundland and Labrador",
        "col2": "Newfoundland and Labrador",
        "col3": "475"
    },
    {
        "col0": "Gander Lake",
        "col1": "Newfoundland and Labrador",
        "col2": "Newfoundland and Labrador",
        "col3": "105"
    },
    {
        "col0": "Francois Lake",
        "col1": "British Columbia",
        "col2": "British Columbia",
        "col3": "244"
    },
    {
        "col0": "Eagle Lake",
        "col1": "British Columbia",
        "col2": "British Columbia",
        "col3": "17"
    },
    {
        "col0": "Charlotte Lake",
        "col1": "British Columbia",
        "col2": "British Columbia",
        "col3": "40"
    },
    {
        "col0": "Canim Lake",
        "col1": "British Columbia",
        "col2": "British Columbia",
        "col3": "84"
    },
    {
        "col0": "Badin Lake",
        "col1": "North Carolina",
        "col2": "North Carolina",
        "col3": "57"
    },
    {
        "col0": "Anderson Lake",
        "col1": "British Columbia",
        "col2": "British Columbia",
        "col3": "215"
    }
]