[
    {
        "col0": "Eurasian Development Bank",
        "col1": "Almaty",
        "col2": "6 countries",
        "col3": "2006-01-12"
    },
    {
        "col0": "Erasmus Student Network",
        "col1": "Belgium",
        "col2": "Student organisations",
        "col3": "1989-10-16"
    },
    {
        "col0": "English Heritage",
        "col1": "Swindon",
        "col2": "1.34 million",
        "col3": "2015-04-01"
    },
    {
        "col0": "Education, Audiovisual and Culture Executive Agency",
        "col1": "Belgium",
        "col2": "28 countries",
        "col3": "2006-01-01"
    },
    {
        "col0": "East Asian Football Federation",
        "col1": "Japan",
        "col2": "10 member associations",
        "col3": "2002-05-28"
    },
    {
        "col0": "Drachenfels Club",
        "col1": "Bad Durkheim",
        "col2": "ca. 530",
        "col3": "1873-04-14"
    },
    {
        "col0": "Divers Alert Network",
        "col1": "Durham, North Carolina",
        "col2": "10,561 (June 2014)",
        "col3": "1997-01-17"
    },
    {
        "col0": "Dhaka Club",
        "col1": "Bangladesh",
        "col2": "1500",
        "col3": "1911-08-19"
    },
    {
        "col0": "Deutscher Verband fur Freikorperkultur",
        "col1": "Germany",
        "col2": "about 50,000 members, either direct or in the 160 German naturist clubs",
        "col3": "1949-11-06"
    },
    {
        "col0": "Deutsche Gesellschaft fur Luft- und Raumfahrt",
        "col1": "Bonn",
        "col2": "3000",
        "col3": "1912-04-03"
    },
    {
        "col0": "De Vrije Gedachte",
        "col1": "Utrecht",
        "col2": "500",
        "col3": "1856-10-12"
    },
    {
        "col0": "Danish Association of Architects",
        "col1": "Copenhagen",
        "col2": "c. 7,000 architects",
        "col3": "1879-11-21"
    },
    {
        "col0": "Croatian Bishops' Conference",
        "col1": "Zagreb",
        "col2": "Active and retired Catholic bishops of Croatia",
        "col3": "1993-05-15"
    },
    {
        "col0": "Council of Christian Hospitals",
        "col1": "Pithapuram",
        "col2": "4 participating hospitals and 1 nursing school",
        "col3": "1973-04-13"
    },
    {
        "col0": "Congressional Black Caucus",
        "col1": "Washington, D.C.",
        "col2": "* 1Senator",
        "col3": "1971-03-30"
    },
    {
        "col0": "Confederation Interalliee des Sous-Officiers de Reserve",
        "col1": "Finland",
        "col2": "Albania",
        "col3": "1963-06-01"
    },
    {
        "col0": "Confraternity of Catholic Saints",
        "col1": "Philippines",
        "col2": "6 fraters (3 from the Diocese of Cubao, 3 from the Diocese of Kalookan), 7 scholars, 100 cooperators (census as of 2010)",
        "col3": "2003-10-01"
    },
    {
        "col0": "Confederation Interalliee des Sous-Officiers de Reserve",
        "col1": "Finland",
        "col2": "Albania",
        "col3": "1963-06-01"
    },
    {
        "col0": "Community of Physics",
        "col1": "Dhaka",
        "col2": "100",
        "col3": "2013-12-16"
    },
    {
        "col0": "Committee for a Workers' International",
        "col1": "London",
        "col2": "46 sections",
        "col3": "1974-04-21"
    },
    {
        "col0": "Commission on Science and Technology for Sustainable Development in the South",
        "col1": "Islamabad",
        "col2": "22 Countries fromAsia,AfricaandLatin America",
        "col3": "1994-10-05"
    },
    {
        "col0": "College of Policing",
        "col1": "Coventry",
        "col2": "All Police Officers, Police Staff, specials and volunteers",
        "col3": "2013-02-04"
    },
    {
        "col0": "Club de Radioexperimentadores de Nicaragua",
        "col1": "Managua",
        "col2": "200",
        "col3": "1945-09-15"
    },
    {
        "col0": "Cities Development Initiative for Asia",
        "col1": "Philippines",
        "col2": "ADB; Germany; Sweden; Austria; Shanghai",
        "col3": "2007-10-19"
    },
    {
        "col0": "Church of Sweden Youth",
        "col1": "Sweden",
        "col2": "13 000",
        "col3": "1993-01-01"
    },
    {
        "col0": "Chiltan Adventurers Association Balochistan",
        "col1": "Pakistan",
        "col2": "OCC(UK), ACP (PAK),SCDL(Lebanon)",
        "col3": "1948-08-14"
    },
    {
        "col0": "Chelsea Arts Club",
        "col1": "London",
        "col2": "2,400+",
        "col3": "1891-03-21"
    },
    {
        "col0": "Caribbean Football Union",
        "col1": "Jamaica",
        "col2": "31 Member Associations",
        "col3": "1978-01-28"
    },
    {
        "col0": "Canal & River Trust",
        "col1": "Milton Keynes",
        "col2": "Friends of the Canal & River Trust scheme",
        "col3": "2012-07-02"
    },
    {
        "col0": "Cambodian Red Cross",
        "col1": "Cambodia",
        "col2": "International Federation of Red Cross and Red Crescent Societies,International Red Cross and Red Crescent Movement",
        "col3": "1955-02-18"
    },
    {
        "col0": "COCERAL",
        "col1": "Belgium",
        "col2": "26 National Associations in 18 countries",
        "col3": "1958-06-08"
    },
    {
        "col0": "CLARIN",
        "col1": "Netherlands",
        "col2": "Austria,Bulgaria,Czech Republic,Denmark,Estonia,Finland,Germany,Greece,Hungary,Italy,Latvia,Lithuania,Netherlands,Norway,Poland,Portugal,Slovenia,Sweden;intergovernmental organization:Dutch Language Union; Observer:United Kingdom;",
        "col3": "2012-02-29"
    },
    {
        "col0": "Bureau of International Expositions",
        "col1": "France",
        "col2": "169 members",
        "col3": "1928-11-22"
    },
    {
        "col0": "Birla Industrial & Technological Museum",
        "col1": "Kolkata",
        "col2": "Schools and l public",
        "col3": "1959-05-02"
    },
    {
        "col0": "Bermudez Scholar Foundation",
        "col1": "Berkeley, CA",
        "col2": "5 major companies and 40 professionals",
        "col3": "2010-08-20"
    },
    {
        "col0": "Benelux Court of Justice",
        "col1": "Luxembourg",
        "col2": "Belgium, Netherlands and Luxembourg",
        "col3": "1974-01-01"
    },
    {
        "col0": "Bath Preservation Trust",
        "col1": "No. 1 Royal Crescent",
        "col2": "1,470 (as of 2016)",
        "col3": "1934-12-07"
    },
    {
        "col0": "Bar of Quebec",
        "col1": "Montreal",
        "col2": "22,500",
        "col3": "1849-05-30"
    },
    {
        "col0": "Badminton Pan Am",
        "col1": "Lima",
        "col2": "33 member associations",
        "col3": "1976-02-13"
    },
    {
        "col0": "Badminton Europe",
        "col1": "Denmark",
        "col2": "51 member associations",
        "col3": "1967-09-27"
    },
    {
        "col0": "Badger Boys State",
        "col1": "Portage, WI",
        "col2": "68,000",
        "col3": "1939-04-08"
    },
    {
        "col0": "BSAC London Branch",
        "col1": "London",
        "col2": "70",
        "col3": "1954-05-04"
    },
    {
        "col0": "Association of Universities Entrusted to the Society of Jesus in Latin America",
        "col1": "Caracas",
        "col2": "31 Jesuit schools",
        "col3": "1985-11-10"
    },
    {
        "col0": "Association of Research Libraries",
        "col1": "Washington, D.C.",
        "col2": "125",
        "col3": "1932-12-29"
    },
    {
        "col0": "Association of Municipalities of the Republic of Croatia",
        "col1": "Zagreb",
        "col2": "284 municipalities",
        "col3": "2002-06-19"
    },
    {
        "col0": "Association of Indonesia Futsal Club",
        "col1": "Bandung",
        "col2": "12 clubs",
        "col3": "2013-06-14"
    },
    {
        "col0": "Association for Psychological Science",
        "col1": "Washington, D.C.",
        "col2": "26,000",
        "col3": "1988-08-12"
    },
    {
        "col0": "Asociacion de Clubs de Baloncesto",
        "col1": "Barcelona",
        "col2": "18 basketball clubs",
        "col3": "1982-03-03"
    },
    {
        "col0": "Asian Infrastructure Investment Bank",
        "col1": "Beijing",
        "col2": "57 Members",
        "col3": "2015-12-25"
    },
    {
        "col0": "Asian Handball Federation",
        "col1": "Kuwait",
        "col2": "44 Members",
        "col3": "1974-08-26"
    },
    {
        "col0": "Asian Development Bank",
        "col1": "Philippines",
        "col2": "67 countries",
        "col3": "1966-12-19"
    },
    {
        "col0": "Asian Cricket Council",
        "col1": "Colombo",
        "col2": "25 associations",
        "col3": "1983-09-13"
    },
    {
        "col0": "Armenian General Benevolent Union",
        "col1": "New York",
        "col2": "22,000",
        "col3": "1906-04-15"
    },
    {
        "col0": "Arab Chess Federation",
        "col1": "United Arab Emirates",
        "col2": "18 member states",
        "col3": "1975-07-27"
    },
    {
        "col0": "American Society of Civil Engineers",
        "col1": "Reston, Virginia",
        "col2": "150,000+",
        "col3": "1852-11-05"
    }
]