[
    {
        "col0": "Wrestling at the 2012 Summer Olympics - Women's freestyle 63 kg",
        "col1": "S. Battsetseg",
        "col2": "Wrestling at the 2016 Summer Olympics - Women's freestyle 63 kg",
        "col3": "Wrestling at the 2008 Summer Olympics - Women's freestyle 63 kg"
    },
    {
        "col0": "Wrestling at the 2012 Summer Olympics - Women's freestyle 48 kg",
        "col1": "C. Huynh",
        "col2": "Wrestling at the 2016 Summer Olympics - Women's freestyle 48 kg",
        "col3": "Wrestling at the 2008 Summer Olympics - Women's freestyle 48 kg"
    },
    {
        "col0": "Wrestling at the 2012 Summer Olympics - Men's freestyle 96 kg",
        "col1": "G. Gogshelidze",
        "col2": "Wrestling at the 2016 Summer Olympics - Men's freestyle 97 kg",
        "col3": "Wrestling at the 2008 Summer Olympics - Men's freestyle 96 kg"
    },
    {
        "col0": "Wrestling at the 2012 Summer Olympics - Men's freestyle 84 kg",
        "col1": "D. Marsagishvili",
        "col2": "Wrestling at the 2016 Summer Olympics - Men's freestyle 86 kg",
        "col3": "Wrestling at the 2008 Summer Olympics - Men's freestyle 84 kg"
    },
    {
        "col0": "Wrestling at the 2012 Summer Olympics - Men's freestyle 74 kg",
        "col1": "G. Hatos",
        "col2": "Wrestling at the 2016 Summer Olympics - Men's freestyle 74 kg",
        "col3": "Wrestling at the 2008 Summer Olympics - Men's freestyle 74 kg"
    },
    {
        "col0": "Wrestling at the 2012 Summer Olympics - Men's freestyle 66 kg",
        "col1": "A. Tanatarov",
        "col2": "Wrestling at the 2016 Summer Olympics - Men's freestyle 65 kg",
        "col3": "Wrestling at the 2008 Summer Olympics - Men's freestyle 66 kg"
    },
    {
        "col0": "Wrestling at the 2012 Summer Olympics - Men's freestyle 55 kg",
        "col1": "Y. Kyong-il",
        "col2": "Wrestling at the 2016 Summer Olympics - Men's freestyle 57 kg",
        "col3": "Wrestling at the 2008 Summer Olympics - Men's freestyle 55 kg"
    },
    {
        "col0": "Wrestling at the 2012 Summer Olympics - Men's Greco-Roman 96 kg",
        "col1": "A. Aleksanyan",
        "col2": "Wrestling at the 2016 Summer Olympics - Men's Greco-Roman 98 kg",
        "col3": "Wrestling at the 2008 Summer Olympics - Men's Greco-Roman 96 kg"
    },
    {
        "col0": "Wrestling at the 2012 Summer Olympics - Men's Greco-Roman 74 kg",
        "col1": "A. Kazakevic",
        "col2": "Wrestling at the 2016 Summer Olympics - Men's Greco-Roman 75 kg",
        "col3": "Wrestling at the 2008 Summer Olympics - Men's Greco-Roman 74 kg"
    },
    {
        "col0": "Wrestling at the 2012 Summer Olympics - Men's Greco-Roman 66 kg",
        "col1": "M. Tskhadaia",
        "col2": "Wrestling at the 2016 Summer Olympics - Men's Greco-Roman 66 kg",
        "col3": "Wrestling at the 2008 Summer Olympics - Men's Greco-Roman 66 kg"
    },
    {
        "col0": "Wrestling at the 2012 Summer Olympics - Men's Greco-Roman 55 kg",
        "col1": "P. Modos",
        "col2": "Wrestling at the 2016 Summer Olympics - Men's Greco-Roman 59 kg",
        "col3": "Wrestling at the 2008 Summer Olympics - Men's Greco-Roman 55 kg"
    },
    {
        "col0": "Wrestling at the 2012 Summer Olympics - Men's Greco-Roman 120 kg",
        "col1": "R. Kayaalp",
        "col2": "Wrestling at the 2016 Summer Olympics - Men's Greco-Roman 130 kg",
        "col3": "Wrestling at the 2008 Summer Olympics - Men's Greco-Roman 120 kg"
    },
    {
        "col0": "Wrestling at the 2012 Summer Olympics - Women's freestyle 63 kg",
        "col1": "S. Battsetseg",
        "col2": "Wrestling at the 2016 Summer Olympics - Women's freestyle 63 kg",
        "col3": "Wrestling at the 2008 Summer Olympics - Women's freestyle 63 kg"
    },
    {
        "col0": "Wrestling at the 2012 Summer Olympics - Women's freestyle 48 kg",
        "col1": "C. Huynh",
        "col2": "Wrestling at the 2016 Summer Olympics - Women's freestyle 48 kg",
        "col3": "Wrestling at the 2008 Summer Olympics - Women's freestyle 48 kg"
    },
    {
        "col0": "Wrestling at the 2012 Summer Olympics - Men's freestyle 96 kg",
        "col1": "G. Gogshelidze",
        "col2": "Wrestling at the 2016 Summer Olympics - Men's freestyle 97 kg",
        "col3": "Wrestling at the 2008 Summer Olympics - Men's freestyle 96 kg"
    },
    {
        "col0": "Wrestling at the 2012 Summer Olympics - Men's freestyle 84 kg",
        "col1": "D. Marsagishvili",
        "col2": "Wrestling at the 2016 Summer Olympics - Men's freestyle 86 kg",
        "col3": "Wrestling at the 2008 Summer Olympics - Men's freestyle 84 kg"
    }
]