[
    {
        "col0": "Swimming at the 1996 Summer Olympics - Women's 4 x 100 metre medley relay",
        "col1": "Swimming at the 2000 Summer Olympics - Women's 4 x 100 metre medley relay",
        "col2": "C. Huijue",
        "col3": "Swimming at the 1992 Summer Olympics - Men's 50 metre freestyle"
    },
    {
        "col0": "Swimming at the 1996 Summer Olympics - Women's 400 metre individual medley",
        "col1": "Swimming at the 2000 Summer Olympics - Women's 400 metre individual medley",
        "col2": "K. Egerszegi",
        "col3": "Swimming at the 1992 Summer Olympics - Women's 400 metre individual medley"
    },
    {
        "col0": "Swimming at the 1996 Summer Olympics - Women's 400 metre freestyle",
        "col1": "Swimming at the 2000 Summer Olympics - Women's 400 metre freestyle",
        "col2": "K. Vlieghuis",
        "col3": "Swimming at the 1992 Summer Olympics - Women's 400 metre freestyle"
    },
    {
        "col0": "Swimming at the 1996 Summer Olympics - Women's 200 metre individual medley",
        "col1": "Swimming at the 2000 Summer Olympics - Women's 200 metre individual medley",
        "col2": "L. Li",
        "col3": "Swimming at the 1992 Summer Olympics - Women's 200 metre individual medley"
    },
    {
        "col0": "Swimming at the 1996 Summer Olympics - Women's 200 metre freestyle",
        "col1": "Swimming at the 2000 Summer Olympics - Women's 200 metre freestyle",
        "col2": "D. Hase",
        "col3": "Swimming at the 1992 Summer Olympics - Women's 200 metre freestyle"
    },
    {
        "col0": "Swimming at the 1996 Summer Olympics - Women's 200 metre butterfly",
        "col1": "Swimming at the 2000 Summer Olympics - Women's 200 metre butterfly",
        "col2": "M. Smith",
        "col3": "Swimming at the 1992 Summer Olympics - Women's 200 metre butterfly"
    },
    {
        "col0": "Swimming at the 1996 Summer Olympics - Women's 200 metre breaststroke",
        "col1": "Swimming at the 2000 Summer Olympics - Women's 200 metre breaststroke",
        "col2": "A. Kovacs",
        "col3": "Swimming at the 1992 Summer Olympics - Women's 200 metre breaststroke"
    },
    {
        "col0": "Swimming at the 1996 Summer Olympics - Women's 200 metre backstroke",
        "col1": "Swimming at the 2000 Summer Olympics - Women's 200 metre backstroke",
        "col2": "C. Rund",
        "col3": "Swimming at the 1992 Summer Olympics - Women's 200 metre backstroke"
    },
    {
        "col0": "Swimming at the 1996 Summer Olympics - Women's 100 metre freestyle",
        "col1": "Swimming at the 2000 Summer Olympics - Women's 100 metre freestyle",
        "col2": "A. Martino",
        "col3": "Swimming at the 1992 Summer Olympics - Women's 100 metre freestyle"
    },
    {
        "col0": "Swimming at the 1996 Summer Olympics - Women's 100 metre butterfly",
        "col1": "Swimming at the 2000 Summer Olympics - Women's 100 metre butterfly",
        "col2": "A. Martino",
        "col3": "Swimming at the 1992 Summer Olympics - Women's 100 metre butterfly"
    },
    {
        "col0": "Swimming at the 1996 Summer Olympics - Women's 100 metre breaststroke",
        "col1": "Swimming at the 2000 Summer Olympics - Women's 100 metre breaststroke",
        "col2": "S. Riley",
        "col3": "Swimming at the 1992 Summer Olympics - Women's 100 metre breaststroke"
    },
    {
        "col0": "Swimming at the 1996 Summer Olympics - Women's 100 metre backstroke",
        "col1": "Swimming at the 2000 Summer Olympics - Women's 100 metre backstroke",
        "col2": "M. Kriel",
        "col3": "Swimming at the 1992 Summer Olympics - Women's 100 metre backstroke"
    },
    {
        "col0": "Swimming at the 1996 Summer Olympics - Men's 50 metre freestyle",
        "col1": "Swimming at the 2000 Summer Olympics - Men's 50 metre freestyle",
        "col2": "F. Scherer",
        "col3": "Swimming at the 1992 Summer Olympics - Men's 50 metre freestyle"
    },
    {
        "col0": "Swimming at the 1996 Summer Olympics - Men's 4 x 100 metre medley relay",
        "col1": "Swimming at the 2000 Summer Olympics - Men's 4 x 100 metre medley relay",
        "col2": "M. Klim",
        "col3": "Swimming at the 1992 Summer Olympics - Men's 4 x 100 metre medley relay"
    },
    {
        "col0": "Swimming at the 1996 Summer Olympics - Men's 400 metre individual medley",
        "col1": "Swimming at the 2000 Summer Olympics - Men's 400 metre individual medley",
        "col2": "C. Myden",
        "col3": "Swimming at the 1992 Summer Olympics - Men's 400 metre individual medley"
    },
    {
        "col0": "Swimming at the 1996 Summer Olympics - Men's 400 metre freestyle",
        "col1": "Swimming at the 2000 Summer Olympics - Men's 400 metre freestyle",
        "col2": "D. Kowalski",
        "col3": "Swimming at the 1992 Summer Olympics - Men's 400 metre freestyle"
    },
    {
        "col0": "Swimming at the 1996 Summer Olympics - Men's 200 metre individual medley",
        "col1": "Swimming at the 2000 Summer Olympics - Men's 200 metre individual medley",
        "col2": "C. Myden",
        "col3": "Swimming at the 1992 Summer Olympics - Men's 200 metre individual medley"
    },
    {
        "col0": "Swimming at the 1996 Summer Olympics - Men's 200 metre freestyle",
        "col1": "Swimming at the 2000 Summer Olympics - Men's 200 metre freestyle",
        "col2": "D. Kowalski",
        "col3": "Swimming at the 1992 Summer Olympics - Men's 200 metre freestyle"
    },
    {
        "col0": "Swimming at the 1996 Summer Olympics - Men's 200 metre butterfly",
        "col1": "Swimming at the 2000 Summer Olympics - Men's 200 metre butterfly",
        "col2": "S. Goodman",
        "col3": "Swimming at the 1992 Summer Olympics - Men's 200 metre butterfly"
    },
    {
        "col0": "Swimming at the 1996 Summer Olympics - Men's 200 metre breaststroke",
        "col1": "Swimming at the 2000 Summer Olympics - Men's 200 metre breaststroke",
        "col2": "A. Korneyev",
        "col3": "Swimming at the 1992 Summer Olympics - Men's 200 metre breaststroke"
    },
    {
        "col0": "Swimming at the 1996 Summer Olympics - Men's 200 metre backstroke",
        "col1": "Swimming at the 2000 Summer Olympics - Men's 200 metre backstroke",
        "col2": "E. Merisi",
        "col3": "Swimming at the 1992 Summer Olympics - Men's 200 metre backstroke"
    },
    {
        "col0": "Swimming at the 1996 Summer Olympics - Men's 1500 metre freestyle",
        "col1": "Swimming at the 2000 Summer Olympics - Men's 1500 metre freestyle",
        "col2": "G. Smith",
        "col3": "Swimming at the 1992 Summer Olympics - Men's 1500 metre freestyle"
    },
    {
        "col0": "Swimming at the 1996 Summer Olympics - Men's 100 metre freestyle",
        "col1": "Swimming at the 2000 Summer Olympics - Men's 100 metre freestyle",
        "col2": "G. Borges",
        "col3": "Swimming at the 1992 Summer Olympics - Men's 100 metre freestyle"
    },
    {
        "col0": "Swimming at the 1996 Summer Olympics - Men's 100 metre butterfly",
        "col1": "Swimming at the 2000 Summer Olympics - Men's 100 metre butterfly",
        "col2": "V. Kulikov",
        "col3": "Swimming at the 1992 Summer Olympics - Men's 100 metre butterfly"
    },
    {
        "col0": "Swimming at the 1996 Summer Olympics - Men's 100 metre breaststroke",
        "col1": "Swimming at the 2000 Summer Olympics - Men's 100 metre breaststroke",
        "col2": "M. Warnecke",
        "col3": "Swimming at the 1992 Summer Olympics - Men's 100 metre breaststroke"
    },
    {
        "col0": "Swimming at the 1996 Summer Olympics - Men's 100 metre backstroke",
        "col1": "Swimming at the 2000 Summer Olympics - Men's 100 metre backstroke",
        "col2": "N. Bent",
        "col3": "Swimming at the 1992 Summer Olympics - Men's 100 metre backstroke"
    },
    {
        "col0": "Swimming at the 1996 Summer Olympics - Women's 800 metre freestyle",
        "col1": "Swimming at the 2000 Summer Olympics - Women's 800 metre freestyle",
        "col2": "K. Vlieghuis",
        "col3": "Swimming at the 1992 Summer Olympics - Women's 800 metre freestyle"
    },
    {
        "col0": "Swimming at the 1996 Summer Olympics - Women's 50 metre freestyle",
        "col1": "Swimming at the 2000 Summer Olympics - Women's 50 metre freestyle",
        "col2": "S. Volker",
        "col3": "Swimming at the 1992 Summer Olympics - Women's 50 metre freestyle"
    },
    {
        "col0": "Swimming at the 1996 Summer Olympics - Women's 4 x 100 metre medley relay",
        "col1": "Swimming at the 2000 Summer Olympics - Women's 4 x 100 metre medley relay",
        "col2": "C. Huijue",
        "col3": "Swimming at the 1992 Summer Olympics - Men's 50 metre freestyle"
    },
    {
        "col0": "Swimming at the 1996 Summer Olympics - Women's 400 metre individual medley",
        "col1": "Swimming at the 2000 Summer Olympics - Women's 400 metre individual medley",
        "col2": "K. Egerszegi",
        "col3": "Swimming at the 1992 Summer Olympics - Women's 400 metre individual medley"
    },
    {
        "col0": "Swimming at the 1996 Summer Olympics - Women's 400 metre freestyle",
        "col1": "Swimming at the 2000 Summer Olympics - Women's 400 metre freestyle",
        "col2": "K. Vlieghuis",
        "col3": "Swimming at the 1992 Summer Olympics - Women's 400 metre freestyle"
    },
    {
        "col0": "Swimming at the 1996 Summer Olympics - Women's 200 metre individual medley",
        "col1": "Swimming at the 2000 Summer Olympics - Women's 200 metre individual medley",
        "col2": "L. Li",
        "col3": "Swimming at the 1992 Summer Olympics - Women's 200 metre individual medley"
    },
    {
        "col0": "Swimming at the 1996 Summer Olympics - Women's 200 metre freestyle",
        "col1": "Swimming at the 2000 Summer Olympics - Women's 200 metre freestyle",
        "col2": "D. Hase",
        "col3": "Swimming at the 1992 Summer Olympics - Women's 200 metre freestyle"
    },
    {
        "col0": "Swimming at the 1996 Summer Olympics - Women's 200 metre butterfly",
        "col1": "Swimming at the 2000 Summer Olympics - Women's 200 metre butterfly",
        "col2": "M. Smith",
        "col3": "Swimming at the 1992 Summer Olympics - Women's 200 metre butterfly"
    },
    {
        "col0": "Swimming at the 1996 Summer Olympics - Women's 200 metre breaststroke",
        "col1": "Swimming at the 2000 Summer Olympics - Women's 200 metre breaststroke",
        "col2": "A. Kovacs",
        "col3": "Swimming at the 1992 Summer Olympics - Women's 200 metre breaststroke"
    },
    {
        "col0": "Swimming at the 1996 Summer Olympics - Women's 200 metre backstroke",
        "col1": "Swimming at the 2000 Summer Olympics - Women's 200 metre backstroke",
        "col2": "C. Rund",
        "col3": "Swimming at the 1992 Summer Olympics - Women's 200 metre backstroke"
    },
    {
        "col0": "Swimming at the 1996 Summer Olympics - Women's 100 metre freestyle",
        "col1": "Swimming at the 2000 Summer Olympics - Women's 100 metre freestyle",
        "col2": "A. Martino",
        "col3": "Swimming at the 1992 Summer Olympics - Women's 100 metre freestyle"
    },
    {
        "col0": "Swimming at the 1996 Summer Olympics - Women's 100 metre butterfly",
        "col1": "Swimming at the 2000 Summer Olympics - Women's 100 metre butterfly",
        "col2": "A. Martino",
        "col3": "Swimming at the 1992 Summer Olympics - Women's 100 metre butterfly"
    },
    {
        "col0": "Swimming at the 1996 Summer Olympics - Women's 100 metre breaststroke",
        "col1": "Swimming at the 2000 Summer Olympics - Women's 100 metre breaststroke",
        "col2": "S. Riley",
        "col3": "Swimming at the 1992 Summer Olympics - Women's 100 metre breaststroke"
    },
    {
        "col0": "Swimming at the 1996 Summer Olympics - Women's 100 metre backstroke",
        "col1": "Swimming at the 2000 Summer Olympics - Women's 100 metre backstroke",
        "col2": "M. Kriel",
        "col3": "Swimming at the 1992 Summer Olympics - Women's 100 metre backstroke"
    },
    {
        "col0": "Swimming at the 1996 Summer Olympics - Men's 50 metre freestyle",
        "col1": "Swimming at the 2000 Summer Olympics - Men's 50 metre freestyle",
        "col2": "F. Scherer",
        "col3": "Swimming at the 1992 Summer Olympics - Men's 50 metre freestyle"
    },
    {
        "col0": "Swimming at the 1996 Summer Olympics - Men's 4 x 100 metre medley relay",
        "col1": "Swimming at the 2000 Summer Olympics - Men's 4 x 100 metre medley relay",
        "col2": "M. Klim",
        "col3": "Swimming at the 1992 Summer Olympics - Men's 4 x 100 metre medley relay"
    },
    {
        "col0": "Swimming at the 1996 Summer Olympics - Men's 400 metre individual medley",
        "col1": "Swimming at the 2000 Summer Olympics - Men's 400 metre individual medley",
        "col2": "C. Myden",
        "col3": "Swimming at the 1992 Summer Olympics - Men's 400 metre individual medley"
    },
    {
        "col0": "Swimming at the 1996 Summer Olympics - Men's 400 metre freestyle",
        "col1": "Swimming at the 2000 Summer Olympics - Men's 400 metre freestyle",
        "col2": "D. Kowalski",
        "col3": "Swimming at the 1992 Summer Olympics - Men's 400 metre freestyle"
    },
    {
        "col0": "Swimming at the 1996 Summer Olympics - Men's 200 metre individual medley",
        "col1": "Swimming at the 2000 Summer Olympics - Men's 200 metre individual medley",
        "col2": "C. Myden",
        "col3": "Swimming at the 1992 Summer Olympics - Men's 200 metre individual medley"
    },
    {
        "col0": "Swimming at the 1996 Summer Olympics - Men's 200 metre freestyle",
        "col1": "Swimming at the 2000 Summer Olympics - Men's 200 metre freestyle",
        "col2": "D. Kowalski",
        "col3": "Swimming at the 1992 Summer Olympics - Men's 200 metre freestyle"
    },
    {
        "col0": "Swimming at the 1996 Summer Olympics - Men's 200 metre butterfly",
        "col1": "Swimming at the 2000 Summer Olympics - Men's 200 metre butterfly",
        "col2": "S. Goodman",
        "col3": "Swimming at the 1992 Summer Olympics - Men's 200 metre butterfly"
    },
    {
        "col0": "Swimming at the 1996 Summer Olympics - Men's 200 metre breaststroke",
        "col1": "Swimming at the 2000 Summer Olympics - Men's 200 metre breaststroke",
        "col2": "A. Korneyev",
        "col3": "Swimming at the 1992 Summer Olympics - Men's 200 metre breaststroke"
    },
    {
        "col0": "Swimming at the 1996 Summer Olympics - Men's 200 metre backstroke",
        "col1": "Swimming at the 2000 Summer Olympics - Men's 200 metre backstroke",
        "col2": "E. Merisi",
        "col3": "Swimming at the 1992 Summer Olympics - Men's 200 metre backstroke"
    },
    {
        "col0": "Swimming at the 1996 Summer Olympics - Men's 1500 metre freestyle",
        "col1": "Swimming at the 2000 Summer Olympics - Men's 1500 metre freestyle",
        "col2": "G. Smith",
        "col3": "Swimming at the 1992 Summer Olympics - Men's 1500 metre freestyle"
    },
    {
        "col0": "Swimming at the 1996 Summer Olympics - Men's 100 metre freestyle",
        "col1": "Swimming at the 2000 Summer Olympics - Men's 100 metre freestyle",
        "col2": "G. Borges",
        "col3": "Swimming at the 1992 Summer Olympics - Men's 100 metre freestyle"
    },
    {
        "col0": "Swimming at the 1996 Summer Olympics - Men's 100 metre butterfly",
        "col1": "Swimming at the 2000 Summer Olympics - Men's 100 metre butterfly",
        "col2": "V. Kulikov",
        "col3": "Swimming at the 1992 Summer Olympics - Men's 100 metre butterfly"
    },
    {
        "col0": "Swimming at the 1996 Summer Olympics - Men's 100 metre breaststroke",
        "col1": "Swimming at the 2000 Summer Olympics - Men's 100 metre breaststroke",
        "col2": "M. Warnecke",
        "col3": "Swimming at the 1992 Summer Olympics - Men's 100 metre breaststroke"
    },
    {
        "col0": "Swimming at the 1996 Summer Olympics - Men's 100 metre backstroke",
        "col1": "Swimming at the 2000 Summer Olympics - Men's 100 metre backstroke",
        "col2": "N. Bent",
        "col3": "Swimming at the 1992 Summer Olympics - Men's 100 metre backstroke"
    },
    {
        "col0": "Swimming at the 1992 Summer Olympics - Women's 800 metre freestyle",
        "col1": "Swimming at the 1996 Summer Olympics - Women's 800 metre freestyle",
        "col2": "J. Henke",
        "col3": "Swimming at the 1988 Summer Olympics - Women's 800 metre freestyle"
    },
    {
        "col0": "Swimming at the 1992 Summer Olympics - Women's 4 x 100 metre medley relay",
        "col1": "Swimming at the 1996 Summer Olympics - Women's 4 x 100 metre medley relay",
        "col2": "N. Zhivanevskaya",
        "col3": "Swimming at the 1988 Summer Olympics - Women's 4 x 100 metre medley relay"
    },
    {
        "col0": "Swimming at the 1992 Summer Olympics - Women's 400 metre individual medley",
        "col1": "Swimming at the 1996 Summer Olympics - Women's 400 metre individual medley",
        "col2": "S. Sanders",
        "col3": "Swimming at the 1988 Summer Olympics - Women's 400 metre individual medley"
    },
    {
        "col0": "Swimming at the 1992 Summer Olympics - Women's 400 metre freestyle",
        "col1": "Swimming at the 1996 Summer Olympics - Women's 400 metre freestyle",
        "col2": "H. Lewis",
        "col3": "Swimming at the 1988 Summer Olympics - Women's 400 metre freestyle"
    },
    {
        "col0": "Swimming at the 1992 Summer Olympics - Women's 200 metre individual medley",
        "col1": "Swimming at the 1996 Summer Olympics - Women's 200 metre individual medley",
        "col2": "D. Hunger",
        "col3": "Swimming at the 1988 Summer Olympics - Women's 200 metre individual medley"
    },
    {
        "col0": "Swimming at the 1992 Summer Olympics - Women's 200 metre freestyle",
        "col1": "Swimming at the 1996 Summer Olympics - Women's 200 metre freestyle",
        "col2": "K. Kielgass",
        "col3": "Swimming at the 1988 Summer Olympics - Women's 200 metre freestyle"
    },
    {
        "col0": "Swimming at the 1992 Summer Olympics - Women's 200 metre butterfly",
        "col1": "Swimming at the 1996 Summer Olympics - Women's 200 metre butterfly",
        "col2": "S. O'Neill",
        "col3": "Swimming at the 1988 Summer Olympics - Women's 200 metre butterfly"
    },
    {
        "col0": "Swimming at the 1992 Summer Olympics - Women's 200 metre breaststroke",
        "col1": "Swimming at the 1996 Summer Olympics - Women's 200 metre breaststroke",
        "col2": "A. Nall",
        "col3": "Swimming at the 1988 Summer Olympics - Women's 200 metre breaststroke"
    },
    {
        "col0": "Swimming at the 1992 Summer Olympics - Women's 100 metre freestyle",
        "col1": "Swimming at the 1996 Summer Olympics - Women's 100 metre freestyle",
        "col2": "F. v. Almsick",
        "col3": "Swimming at the 1988 Summer Olympics - Women's 100 metre freestyle"
    },
    {
        "col0": "Swimming at the 1992 Summer Olympics - Women's 100 metre butterfly",
        "col1": "Swimming at the 1996 Summer Olympics - Women's 100 metre butterfly",
        "col2": "C. Plewinski",
        "col3": "Swimming at the 1988 Summer Olympics - Women's 100 metre butterfly"
    },
    {
        "col0": "Swimming at the 1992 Summer Olympics - Men's 400 metre individual medley",
        "col1": "Swimming at the 1996 Summer Olympics - Men's 400 metre individual medley",
        "col2": "L. Sacchi",
        "col3": "Swimming at the 1988 Summer Olympics - Men's 400 metre individual medley"
    },
    {
        "col0": "Swimming at the 1992 Summer Olympics - Men's 400 metre freestyle",
        "col1": "Swimming at the 1996 Summer Olympics - Men's 400 metre freestyle",
        "col2": "A. Holmertz",
        "col3": "Swimming at the 1988 Summer Olympics - Men's 400 metre freestyle"
    },
    {
        "col0": "Swimming at the 1992 Summer Olympics - Men's 200 metre individual medley",
        "col1": "Swimming at the 1996 Summer Olympics - Men's 200 metre individual medley",
        "col2": "A. Czene",
        "col3": "Swimming at the 1988 Summer Olympics - Men's 200 metre individual medley"
    },
    {
        "col0": "Swimming at the 1992 Summer Olympics - Men's 200 metre freestyle",
        "col1": "Swimming at the 1996 Summer Olympics - Men's 200 metre freestyle",
        "col2": "A. Kasvio",
        "col3": "Swimming at the 1988 Summer Olympics - Men's 200 metre freestyle"
    },
    {
        "col0": "Swimming at the 1992 Summer Olympics - Men's 200 metre butterfly",
        "col1": "Swimming at the 1996 Summer Olympics - Men's 200 metre butterfly",
        "col2": "F. Esposito",
        "col3": "Swimming at the 1988 Summer Olympics - Men's 200 metre butterfly"
    },
    {
        "col0": "Swimming at the 1992 Summer Olympics - Men's 200 metre breaststroke",
        "col1": "Swimming at the 1996 Summer Olympics - Men's 200 metre breaststroke",
        "col2": "N. Gillingham",
        "col3": "Swimming at the 1988 Summer Olympics - Men's 200 metre breaststroke"
    },
    {
        "col0": "Swimming at the 1992 Summer Olympics - Men's 1500 metre freestyle",
        "col1": "Swimming at the 1996 Summer Olympics - Men's 1500 metre freestyle",
        "col2": "J. Hoffmann",
        "col3": "Swimming at the 1988 Summer Olympics - Men's 1500 metre freestyle"
    },
    {
        "col0": "Swimming at the 1992 Summer Olympics - Men's 100 metre butterfly",
        "col1": "Swimming at the 1996 Summer Olympics - Men's 100 metre butterfly",
        "col2": "A. Nesty",
        "col3": "Swimming at the 1988 Summer Olympics - Men's 100 metre butterfly"
    },
    {
        "col0": "Swimming at the 1992 Summer Olympics - Women's 800 metre freestyle",
        "col1": "Swimming at the 1996 Summer Olympics - Women's 800 metre freestyle",
        "col2": "J. Henke",
        "col3": "Swimming at the 1988 Summer Olympics - Women's 800 metre freestyle"
    },
    {
        "col0": "Swimming at the 1992 Summer Olympics - Women's 4 x 100 metre medley relay",
        "col1": "Swimming at the 1996 Summer Olympics - Women's 4 x 100 metre medley relay",
        "col2": "N. Zhivanevskaya",
        "col3": "Swimming at the 1988 Summer Olympics - Women's 4 x 100 metre medley relay"
    },
    {
        "col0": "Swimming at the 1992 Summer Olympics - Women's 400 metre individual medley",
        "col1": "Swimming at the 1996 Summer Olympics - Women's 400 metre individual medley",
        "col2": "S. Sanders",
        "col3": "Swimming at the 1988 Summer Olympics - Women's 400 metre individual medley"
    },
    {
        "col0": "Swimming at the 1992 Summer Olympics - Women's 400 metre freestyle",
        "col1": "Swimming at the 1996 Summer Olympics - Women's 400 metre freestyle",
        "col2": "H. Lewis",
        "col3": "Swimming at the 1988 Summer Olympics - Women's 400 metre freestyle"
    },
    {
        "col0": "Swimming at the 1992 Summer Olympics - Women's 200 metre individual medley",
        "col1": "Swimming at the 1996 Summer Olympics - Women's 200 metre individual medley",
        "col2": "D. Hunger",
        "col3": "Swimming at the 1988 Summer Olympics - Women's 200 metre individual medley"
    },
    {
        "col0": "Swimming at the 1992 Summer Olympics - Women's 200 metre freestyle",
        "col1": "Swimming at the 1996 Summer Olympics - Women's 200 metre freestyle",
        "col2": "K. Kielgass",
        "col3": "Swimming at the 1988 Summer Olympics - Women's 200 metre freestyle"
    },
    {
        "col0": "Swimming at the 1992 Summer Olympics - Women's 200 metre butterfly",
        "col1": "Swimming at the 1996 Summer Olympics - Women's 200 metre butterfly",
        "col2": "S. O'Neill",
        "col3": "Swimming at the 1988 Summer Olympics - Women's 200 metre butterfly"
    },
    {
        "col0": "Swimming at the 1992 Summer Olympics - Women's 200 metre breaststroke",
        "col1": "Swimming at the 1996 Summer Olympics - Women's 200 metre breaststroke",
        "col2": "A. Nall",
        "col3": "Swimming at the 1988 Summer Olympics - Women's 200 metre breaststroke"
    },
    {
        "col0": "Swimming at the 1992 Summer Olympics - Women's 100 metre freestyle",
        "col1": "Swimming at the 1996 Summer Olympics - Women's 100 metre freestyle",
        "col2": "F. v. Almsick",
        "col3": "Swimming at the 1988 Summer Olympics - Women's 100 metre freestyle"
    },
    {
        "col0": "Swimming at the 1992 Summer Olympics - Women's 100 metre butterfly",
        "col1": "Swimming at the 1996 Summer Olympics - Women's 100 metre butterfly",
        "col2": "C. Plewinski",
        "col3": "Swimming at the 1988 Summer Olympics - Women's 100 metre butterfly"
    },
    {
        "col0": "Swimming at the 1992 Summer Olympics - Men's 400 metre individual medley",
        "col1": "Swimming at the 1996 Summer Olympics - Men's 400 metre individual medley",
        "col2": "L. Sacchi",
        "col3": "Swimming at the 1988 Summer Olympics - Men's 400 metre individual medley"
    },
    {
        "col0": "Swimming at the 1992 Summer Olympics - Men's 400 metre freestyle",
        "col1": "Swimming at the 1996 Summer Olympics - Men's 400 metre freestyle",
        "col2": "A. Holmertz",
        "col3": "Swimming at the 1988 Summer Olympics - Men's 400 metre freestyle"
    },
    {
        "col0": "Swimming at the 1992 Summer Olympics - Men's 200 metre individual medley",
        "col1": "Swimming at the 1996 Summer Olympics - Men's 200 metre individual medley",
        "col2": "A. Czene",
        "col3": "Swimming at the 1988 Summer Olympics - Men's 200 metre individual medley"
    },
    {
        "col0": "Swimming at the 1992 Summer Olympics - Men's 200 metre freestyle",
        "col1": "Swimming at the 1996 Summer Olympics - Men's 200 metre freestyle",
        "col2": "A. Kasvio",
        "col3": "Swimming at the 1988 Summer Olympics - Men's 200 metre freestyle"
    },
    {
        "col0": "Swimming at the 1992 Summer Olympics - Men's 200 metre butterfly",
        "col1": "Swimming at the 1996 Summer Olympics - Men's 200 metre butterfly",
        "col2": "F. Esposito",
        "col3": "Swimming at the 1988 Summer Olympics - Men's 200 metre butterfly"
    },
    {
        "col0": "Swimming at the 1992 Summer Olympics - Men's 200 metre breaststroke",
        "col1": "Swimming at the 1996 Summer Olympics - Men's 200 metre breaststroke",
        "col2": "N. Gillingham",
        "col3": "Swimming at the 1988 Summer Olympics - Men's 200 metre breaststroke"
    },
    {
        "col0": "Swimming at the 1992 Summer Olympics - Men's 1500 metre freestyle",
        "col1": "Swimming at the 1996 Summer Olympics - Men's 1500 metre freestyle",
        "col2": "J. Hoffmann",
        "col3": "Swimming at the 1988 Summer Olympics - Men's 1500 metre freestyle"
    },
    {
        "col0": "Swimming at the 1992 Summer Olympics - Men's 100 metre butterfly",
        "col1": "Swimming at the 1996 Summer Olympics - Men's 100 metre butterfly",
        "col2": "A. Nesty",
        "col3": "Swimming at the 1988 Summer Olympics - Men's 100 metre butterfly"
    },
    {
        "col0": "Swimming at the 1988 Summer Olympics - Women's 800 metre freestyle",
        "col1": "Swimming at the 1992 Summer Olympics - Women's 800 metre freestyle",
        "col2": "J. McDonald",
        "col3": "Swimming at the 1984 Summer Olympics - Women's 800 metre freestyle"
    },
    {
        "col0": "Swimming at the 1988 Summer Olympics - Women's 200 metre breaststroke",
        "col1": "Swimming at the 1992 Summer Olympics - Women's 200 metre breaststroke",
        "col2": "A. Frenkeva",
        "col3": "Swimming at the 1984 Summer Olympics - Women's 200 metre breaststroke"
    },
    {
        "col0": "Swimming at the 1988 Summer Olympics - Men's 400 metre freestyle",
        "col1": "Swimming at the 1992 Summer Olympics - Men's 400 metre freestyle",
        "col2": "A. Wojdat",
        "col3": "Swimming at the 1984 Summer Olympics - Men's 400 metre freestyle"
    },
    {
        "col0": "Swimming at the 1988 Summer Olympics - Men's 200 metre freestyle",
        "col1": "Swimming at the 1992 Summer Olympics - Men's 200 metre freestyle",
        "col2": "M. Biondi",
        "col3": "Swimming at the 1984 Summer Olympics - Men's 200 metre freestyle"
    },
    {
        "col0": "Swimming at the 1988 Summer Olympics - Men's 1500 metre freestyle",
        "col1": "Swimming at the 1992 Summer Olympics - Men's 1500 metre freestyle",
        "col2": "U. Dassler",
        "col3": "Swimming at the 1984 Summer Olympics - Men's 1500 metre freestyle"
    },
    {
        "col0": "Swimming at the 1988 Summer Olympics - Men's 100 metre freestyle",
        "col1": "Swimming at the 1992 Summer Olympics - Men's 100 metre freestyle",
        "col2": "S. Caron",
        "col3": "Swimming at the 1984 Summer Olympics - Men's 100 metre freestyle"
    },
    {
        "col0": "Swimming at the 1988 Summer Olympics - Women's 800 metre freestyle",
        "col1": "Swimming at the 1992 Summer Olympics - Women's 800 metre freestyle",
        "col2": "J. McDonald",
        "col3": "Swimming at the 1984 Summer Olympics - Women's 800 metre freestyle"
    },
    {
        "col0": "Swimming at the 1988 Summer Olympics - Women's 200 metre breaststroke",
        "col1": "Swimming at the 1992 Summer Olympics - Women's 200 metre breaststroke",
        "col2": "A. Frenkeva",
        "col3": "Swimming at the 1984 Summer Olympics - Women's 200 metre breaststroke"
    },
    {
        "col0": "Swimming at the 1988 Summer Olympics - Men's 400 metre freestyle",
        "col1": "Swimming at the 1992 Summer Olympics - Men's 400 metre freestyle",
        "col2": "A. Wojdat",
        "col3": "Swimming at the 1984 Summer Olympics - Men's 400 metre freestyle"
    },
    {
        "col0": "Swimming at the 1988 Summer Olympics - Men's 200 metre freestyle",
        "col1": "Swimming at the 1992 Summer Olympics - Men's 200 metre freestyle",
        "col2": "M. Biondi",
        "col3": "Swimming at the 1984 Summer Olympics - Men's 200 metre freestyle"
    },
    {
        "col0": "Swimming at the 1988 Summer Olympics - Men's 1500 metre freestyle",
        "col1": "Swimming at the 1992 Summer Olympics - Men's 1500 metre freestyle",
        "col2": "U. Dassler",
        "col3": "Swimming at the 1984 Summer Olympics - Men's 1500 metre freestyle"
    },
    {
        "col0": "Swimming at the 1988 Summer Olympics - Men's 100 metre freestyle",
        "col1": "Swimming at the 1992 Summer Olympics - Men's 100 metre freestyle",
        "col2": "S. Caron",
        "col3": "Swimming at the 1984 Summer Olympics - Men's 100 metre freestyle"
    },
    {
        "col0": "Swimming at the 1984 Summer Olympics - Women's 800 metre freestyle",
        "col1": "Swimming at the 1988 Summer Olympics - Women's 800 metre freestyle",
        "col2": "S. Hardcastle",
        "col3": "Swimming at the 1980 Summer Olympics - Women's 800 metre freestyle"
    },
    {
        "col0": "Swimming at the 1984 Summer Olympics - Women's 400 metre freestyle",
        "col1": "Swimming at the 1988 Summer Olympics - Women's 400 metre freestyle",
        "col2": "J. Croft",
        "col3": "Swimming at the 1980 Summer Olympics - Women's 400 metre freestyle"
    },
    {
        "col0": "Swimming at the 1984 Summer Olympics - Women's 200 metre freestyle",
        "col1": "Swimming at the 1988 Summer Olympics - Women's 200 metre freestyle",
        "col2": "A. Verstappen",
        "col3": "Swimming at the 1980 Summer Olympics - Women's 200 metre freestyle"
    },
    {
        "col0": "Swimming at the 1984 Summer Olympics - Women's 200 metre breaststroke",
        "col1": "Swimming at the 1988 Summer Olympics - Women's 200 metre breaststroke",
        "col2": "I. Lempereur",
        "col3": "Swimming at the 1980 Summer Olympics - Women's 200 metre breaststroke"
    },
    {
        "col0": "Swimming at the 1984 Summer Olympics - Women's 100 metre freestyle",
        "col1": "Swimming at the 1988 Summer Olympics - Women's 100 metre freestyle",
        "col2": "A. Verstappen",
        "col3": "Swimming at the 1980 Summer Olympics - Women's 100 metre freestyle"
    },
    {
        "col0": "Swimming at the 1984 Summer Olympics - Men's 400 metre freestyle",
        "col1": "Swimming at the 1988 Summer Olympics - Men's 400 metre freestyle",
        "col2": "J. Lemberg",
        "col3": "Swimming at the 1980 Summer Olympics - Men's 400 metre freestyle"
    },
    {
        "col0": "Swimming at the 1984 Summer Olympics - Men's 200 metre freestyle",
        "col1": "Swimming at the 1988 Summer Olympics - Men's 200 metre freestyle",
        "col2": "T. Fahrner",
        "col3": "Swimming at the 1980 Summer Olympics - Men's 200 metre freestyle"
    },
    {
        "col0": "Swimming at the 1984 Summer Olympics - Men's 1500 metre freestyle",
        "col1": "Swimming at the 1988 Summer Olympics - Men's 1500 metre freestyle",
        "col2": "S. Pfeiffer",
        "col3": "Swimming at the 1980 Summer Olympics - Men's 1500 metre freestyle"
    },
    {
        "col0": "Swimming at the 1984 Summer Olympics - Men's 100 metre freestyle",
        "col1": "Swimming at the 1988 Summer Olympics - Men's 100 metre freestyle",
        "col2": "P. Johansson",
        "col3": "Swimming at the 1980 Summer Olympics - Men's 100 metre freestyle"
    },
    {
        "col0": "Swimming at the 1984 Summer Olympics - Women's 800 metre freestyle",
        "col1": "Swimming at the 1988 Summer Olympics - Women's 800 metre freestyle",
        "col2": "S. Hardcastle",
        "col3": "Swimming at the 1980 Summer Olympics - Women's 800 metre freestyle"
    },
    {
        "col0": "Swimming at the 1984 Summer Olympics - Women's 400 metre freestyle",
        "col1": "Swimming at the 1988 Summer Olympics - Women's 400 metre freestyle",
        "col2": "J. Croft",
        "col3": "Swimming at the 1980 Summer Olympics - Women's 400 metre freestyle"
    },
    {
        "col0": "Swimming at the 1984 Summer Olympics - Women's 200 metre freestyle",
        "col1": "Swimming at the 1988 Summer Olympics - Women's 200 metre freestyle",
        "col2": "A. Verstappen",
        "col3": "Swimming at the 1980 Summer Olympics - Women's 200 metre freestyle"
    },
    {
        "col0": "Swimming at the 1984 Summer Olympics - Women's 200 metre breaststroke",
        "col1": "Swimming at the 1988 Summer Olympics - Women's 200 metre breaststroke",
        "col2": "I. Lempereur",
        "col3": "Swimming at the 1980 Summer Olympics - Women's 200 metre breaststroke"
    },
    {
        "col0": "Swimming at the 1984 Summer Olympics - Women's 100 metre freestyle",
        "col1": "Swimming at the 1988 Summer Olympics - Women's 100 metre freestyle",
        "col2": "A. Verstappen",
        "col3": "Swimming at the 1980 Summer Olympics - Women's 100 metre freestyle"
    },
    {
        "col0": "Swimming at the 1984 Summer Olympics - Men's 400 metre freestyle",
        "col1": "Swimming at the 1988 Summer Olympics - Men's 400 metre freestyle",
        "col2": "J. Lemberg",
        "col3": "Swimming at the 1980 Summer Olympics - Men's 400 metre freestyle"
    },
    {
        "col0": "Swimming at the 1984 Summer Olympics - Men's 200 metre freestyle",
        "col1": "Swimming at the 1988 Summer Olympics - Men's 200 metre freestyle",
        "col2": "T. Fahrner",
        "col3": "Swimming at the 1980 Summer Olympics - Men's 200 metre freestyle"
    },
    {
        "col0": "Swimming at the 1984 Summer Olympics - Men's 1500 metre freestyle",
        "col1": "Swimming at the 1988 Summer Olympics - Men's 1500 metre freestyle",
        "col2": "S. Pfeiffer",
        "col3": "Swimming at the 1980 Summer Olympics - Men's 1500 metre freestyle"
    },
    {
        "col0": "Swimming at the 1984 Summer Olympics - Men's 100 metre freestyle",
        "col1": "Swimming at the 1988 Summer Olympics - Men's 100 metre freestyle",
        "col2": "P. Johansson",
        "col3": "Swimming at the 1980 Summer Olympics - Men's 100 metre freestyle"
    },
    {
        "col0": "Swimming at the 1980 Summer Olympics - Women's 800 metre freestyle",
        "col1": "Swimming at the 1984 Summer Olympics - Women's 800 metre freestyle",
        "col2": "H. Dahne",
        "col3": "Swimming at the 1976 Summer Olympics - Women's 800 metre freestyle"
    },
    {
        "col0": "Swimming at the 1980 Summer Olympics - Women's 400 metre freestyle",
        "col1": "Swimming at the 1984 Summer Olympics - Women's 400 metre freestyle",
        "col2": "C. Schmidt",
        "col3": "Swimming at the 1976 Summer Olympics - Women's 400 metre freestyle"
    },
    {
        "col0": "Swimming at the 1980 Summer Olympics - Women's 200 metre freestyle",
        "col1": "Swimming at the 1984 Summer Olympics - Women's 200 metre freestyle",
        "col2": "C. Schmidt",
        "col3": "Swimming at the 1976 Summer Olympics - Women's 200 metre freestyle"
    },
    {
        "col0": "Swimming at the 1980 Summer Olympics - Women's 200 metre breaststroke",
        "col1": "Swimming at the 1984 Summer Olympics - Women's 200 metre breaststroke",
        "col2": "Y. Bogdanova",
        "col3": "Swimming at the 1976 Summer Olympics - Women's 200 metre breaststroke"
    },
    {
        "col0": "Swimming at the 1980 Summer Olympics - Women's 100 metre freestyle",
        "col1": "Swimming at the 1984 Summer Olympics - Women's 100 metre freestyle",
        "col2": "I. Diers",
        "col3": "Swimming at the 1976 Summer Olympics - Women's 100 metre freestyle"
    },
    {
        "col0": "Swimming at the 1980 Summer Olympics - Men's 4 x 100 metre medley relay",
        "col1": "Swimming at the 1984 Summer Olympics - Men's 4 x 100 metre medley relay",
        "col2": "D. Goodhew",
        "col3": "Swimming at the 1976 Summer Olympics - Men's 4 x 100 metre medley relay"
    },
    {
        "col0": "Swimming at the 1980 Summer Olympics - Men's 400 metre freestyle",
        "col1": "Swimming at the 1984 Summer Olympics - Men's 400 metre freestyle",
        "col2": "I. Stukolkin",
        "col3": "Swimming at the 1976 Summer Olympics - Men's 400 metre freestyle"
    },
    {
        "col0": "Swimming at the 1980 Summer Olympics - Men's 200 metre freestyle",
        "col1": "Swimming at the 1984 Summer Olympics - Men's 200 metre freestyle",
        "col2": "G. Brewer",
        "col3": "Swimming at the 1976 Summer Olympics - Men's 200 metre freestyle"
    },
    {
        "col0": "Swimming at the 1980 Summer Olympics - Men's 1500 metre freestyle",
        "col1": "Swimming at the 1984 Summer Olympics - Men's 1500 metre freestyle",
        "col2": "M. Metzker",
        "col3": "Swimming at the 1976 Summer Olympics - Men's 1500 metre freestyle"
    },
    {
        "col0": "Swimming at the 1980 Summer Olympics - Men's 100 metre freestyle",
        "col1": "Swimming at the 1984 Summer Olympics - Men's 100 metre freestyle",
        "col2": "P. Johansson",
        "col3": "Swimming at the 1976 Summer Olympics - Men's 100 metre freestyle"
    },
    {
        "col0": "Swimming at the 1980 Summer Olympics - Women's 800 metre freestyle",
        "col1": "Swimming at the 1984 Summer Olympics - Women's 800 metre freestyle",
        "col2": "H. Dahne",
        "col3": "Swimming at the 1976 Summer Olympics - Women's 800 metre freestyle"
    },
    {
        "col0": "Swimming at the 1980 Summer Olympics - Women's 400 metre freestyle",
        "col1": "Swimming at the 1984 Summer Olympics - Women's 400 metre freestyle",
        "col2": "C. Schmidt",
        "col3": "Swimming at the 1976 Summer Olympics - Women's 400 metre freestyle"
    },
    {
        "col0": "Swimming at the 1980 Summer Olympics - Women's 200 metre freestyle",
        "col1": "Swimming at the 1984 Summer Olympics - Women's 200 metre freestyle",
        "col2": "C. Schmidt",
        "col3": "Swimming at the 1976 Summer Olympics - Women's 200 metre freestyle"
    },
    {
        "col0": "Swimming at the 1980 Summer Olympics - Women's 200 metre breaststroke",
        "col1": "Swimming at the 1984 Summer Olympics - Women's 200 metre breaststroke",
        "col2": "Y. Bogdanova",
        "col3": "Swimming at the 1976 Summer Olympics - Women's 200 metre breaststroke"
    },
    {
        "col0": "Swimming at the 1980 Summer Olympics - Women's 100 metre freestyle",
        "col1": "Swimming at the 1984 Summer Olympics - Women's 100 metre freestyle",
        "col2": "I. Diers",
        "col3": "Swimming at the 1976 Summer Olympics - Women's 100 metre freestyle"
    },
    {
        "col0": "Swimming at the 1980 Summer Olympics - Men's 4 x 100 metre medley relay",
        "col1": "Swimming at the 1984 Summer Olympics - Men's 4 x 100 metre medley relay",
        "col2": "D. Goodhew",
        "col3": "Swimming at the 1976 Summer Olympics - Men's 4 x 100 metre medley relay"
    },
    {
        "col0": "Swimming at the 1980 Summer Olympics - Men's 400 metre freestyle",
        "col1": "Swimming at the 1984 Summer Olympics - Men's 400 metre freestyle",
        "col2": "I. Stukolkin",
        "col3": "Swimming at the 1976 Summer Olympics - Men's 400 metre freestyle"
    },
    {
        "col0": "Swimming at the 1980 Summer Olympics - Men's 200 metre freestyle",
        "col1": "Swimming at the 1984 Summer Olympics - Men's 200 metre freestyle",
        "col2": "G. Brewer",
        "col3": "Swimming at the 1976 Summer Olympics - Men's 200 metre freestyle"
    },
    {
        "col0": "Swimming at the 1980 Summer Olympics - Men's 1500 metre freestyle",
        "col1": "Swimming at the 1984 Summer Olympics - Men's 1500 metre freestyle",
        "col2": "M. Metzker",
        "col3": "Swimming at the 1976 Summer Olympics - Men's 1500 metre freestyle"
    },
    {
        "col0": "Swimming at the 1980 Summer Olympics - Men's 100 metre freestyle",
        "col1": "Swimming at the 1984 Summer Olympics - Men's 100 metre freestyle",
        "col2": "P. Johansson",
        "col3": "Swimming at the 1976 Summer Olympics - Men's 100 metre freestyle"
    },
    {
        "col0": "Swimming at the 1976 Summer Olympics - Women's 800 metre freestyle",
        "col1": "Swimming at the 1980 Summer Olympics - Women's 800 metre freestyle",
        "col2": "W. Weinberg",
        "col3": "Swimming at the 1972 Summer Olympics"
    },
    {
        "col0": "Swimming at the 1976 Summer Olympics - Women's 400 metre freestyle",
        "col1": "Swimming at the 1980 Summer Olympics - Women's 400 metre freestyle",
        "col2": "S. Smith",
        "col3": "Swimming at the 1972 Summer Olympics"
    },
    {
        "col0": "Swimming at the 1976 Summer Olympics - Women's 200 metre freestyle",
        "col1": "Swimming at the 1980 Summer Olympics - Women's 200 metre freestyle",
        "col2": "E. Brigitha",
        "col3": "Swimming at the 1972 Summer Olympics"
    },
    {
        "col0": "Swimming at the 1976 Summer Olympics - Women's 200 metre breaststroke",
        "col1": "Swimming at the 1980 Summer Olympics - Women's 200 metre breaststroke",
        "col2": "L. Rusanova",
        "col3": "Swimming at the 1972 Summer Olympics - Women's 200 metre breaststroke"
    },
    {
        "col0": "Swimming at the 1976 Summer Olympics - Women's 100 metre freestyle",
        "col1": "Swimming at the 1980 Summer Olympics - Women's 100 metre freestyle",
        "col2": "E. Brigitha",
        "col3": "Swimming at the 1976 Summer Olympics - Women's 100 metre freestyle"
    },
    {
        "col0": "Swimming at the 1976 Summer Olympics - Men's 400 metre freestyle",
        "col1": "Swimming at the 1980 Summer Olympics - Men's 400 metre freestyle",
        "col2": "V. Raskatov",
        "col3": "Swimming at the 1972 Summer Olympics"
    },
    {
        "col0": "Swimming at the 1976 Summer Olympics - Men's 200 metre freestyle",
        "col1": "Swimming at the 1980 Summer Olympics - Men's 200 metre freestyle",
        "col2": "J. Montgomery",
        "col3": "Swimming at the 1972 Summer Olympics"
    },
    {
        "col0": "Swimming at the 1976 Summer Olympics - Men's 1500 metre freestyle",
        "col1": "Swimming at the 1980 Summer Olympics - Men's 1500 metre freestyle",
        "col2": "S. Holland",
        "col3": "Swimming at the 1972 Summer Olympics - Men's 1500 metre freestyle"
    },
    {
        "col0": "Swimming at the 1976 Summer Olympics - Men's 100 metre freestyle",
        "col1": "Swimming at the 1980 Summer Olympics - Men's 100 metre freestyle",
        "col2": "P. Nocke",
        "col3": "Swimming at the 1972 Summer Olympics"
    },
    {
        "col0": "Swimming at the 1976 Summer Olympics - Women's 800 metre freestyle",
        "col1": "Swimming at the 1980 Summer Olympics - Women's 800 metre freestyle",
        "col2": "W. Weinberg",
        "col3": "Swimming at the 1972 Summer Olympics"
    },
    {
        "col0": "Swimming at the 1976 Summer Olympics - Women's 400 metre freestyle",
        "col1": "Swimming at the 1980 Summer Olympics - Women's 400 metre freestyle",
        "col2": "S. Smith",
        "col3": "Swimming at the 1972 Summer Olympics"
    },
    {
        "col0": "Swimming at the 1976 Summer Olympics - Women's 200 metre freestyle",
        "col1": "Swimming at the 1980 Summer Olympics - Women's 200 metre freestyle",
        "col2": "E. Brigitha",
        "col3": "Swimming at the 1972 Summer Olympics"
    },
    {
        "col0": "Swimming at the 1976 Summer Olympics - Women's 200 metre breaststroke",
        "col1": "Swimming at the 1980 Summer Olympics - Women's 200 metre breaststroke",
        "col2": "L. Rusanova",
        "col3": "Swimming at the 1972 Summer Olympics - Women's 200 metre breaststroke"
    },
    {
        "col0": "Swimming at the 1976 Summer Olympics - Women's 100 metre freestyle",
        "col1": "Swimming at the 1980 Summer Olympics - Women's 100 metre freestyle",
        "col2": "E. Brigitha",
        "col3": "Swimming at the 1976 Summer Olympics - Women's 100 metre freestyle"
    },
    {
        "col0": "Swimming at the 1976 Summer Olympics - Men's 400 metre freestyle",
        "col1": "Swimming at the 1980 Summer Olympics - Men's 400 metre freestyle",
        "col2": "V. Raskatov",
        "col3": "Swimming at the 1972 Summer Olympics"
    },
    {
        "col0": "Swimming at the 1976 Summer Olympics - Men's 200 metre freestyle",
        "col1": "Swimming at the 1980 Summer Olympics - Men's 200 metre freestyle",
        "col2": "J. Montgomery",
        "col3": "Swimming at the 1972 Summer Olympics"
    },
    {
        "col0": "Swimming at the 1976 Summer Olympics - Men's 1500 metre freestyle",
        "col1": "Swimming at the 1980 Summer Olympics - Men's 1500 metre freestyle",
        "col2": "S. Holland",
        "col3": "Swimming at the 1972 Summer Olympics - Men's 1500 metre freestyle"
    },
    {
        "col0": "Swimming at the 1976 Summer Olympics - Men's 100 metre freestyle",
        "col1": "Swimming at the 1980 Summer Olympics - Men's 100 metre freestyle",
        "col2": "P. Nocke",
        "col3": "Swimming at the 1972 Summer Olympics"
    },
    {
        "col0": "Swimming at the 1972 Summer Olympics - Women's 200 metre breaststroke",
        "col1": "Swimming at the 1976 Summer Olympics - Women's 200 metre breaststroke",
        "col2": "G. Prozumenshchikova",
        "col3": "Swimming at the 1968 Summer Olympics - Women's 200 metre breaststroke"
    },
    {
        "col0": "Swimming at the 1968 Summer Olympics - Women's 200 metre breaststroke",
        "col1": "Swimming at the 1972 Summer Olympics - Women's 200 metre breaststroke",
        "col2": "G. Prozumenshchikova",
        "col3": "Swimming at the 1964 Summer Olympics - Women's 200 metre breaststroke"
    },
    {
        "col0": "Swimming at the 1964 Summer Olympics - Women's 200 metre breaststroke",
        "col1": "Swimming at the 1968 Summer Olympics - Women's 200 metre breaststroke",
        "col2": "S. Babanina",
        "col3": "Swimming at the 1960 Summer Olympics - Women's 200 metre breaststroke"
    },
    {
        "col0": "Swimming at the 1960 Summer Olympics - Women's 200 metre breaststroke",
        "col1": "Swimming at the 1964 Summer Olympics - Women's 200 metre breaststroke",
        "col2": "B. Gobel",
        "col3": "Swimming at the 1956 Summer Olympics - Women's 200 metre breaststroke"
    },
    {
        "col0": "Swimming at the 1956 Summer Olympics - Women's 200 metre breaststroke",
        "col1": "Swimming at the 1960 Summer Olympics - Women's 200 metre breaststroke",
        "col2": "E. t. Elsen",
        "col3": "Swimming at the 1952 Summer Olympics - Women's 200 metre breaststroke"
    },
    {
        "col0": "Swimming at the 1956 Summer Olympics - Women's 100 metre freestyle",
        "col1": "Swimming at the 1960 Summer Olympics - Women's 100 metre freestyle",
        "col2": "F. Leech",
        "col3": "Swimming at the 1952 Summer Olympics - Women's 100 metre freestyle"
    },
    {
        "col0": "Swimming at the 1956 Summer Olympics - Women's 200 metre breaststroke",
        "col1": "Swimming at the 1960 Summer Olympics - Women's 200 metre breaststroke",
        "col2": "E. t. Elsen",
        "col3": "Swimming at the 1952 Summer Olympics - Women's 200 metre breaststroke"
    },
    {
        "col0": "Swimming at the 1956 Summer Olympics - Women's 100 metre freestyle",
        "col1": "Swimming at the 1960 Summer Olympics - Women's 100 metre freestyle",
        "col2": "F. Leech",
        "col3": "Swimming at the 1952 Summer Olympics - Women's 100 metre freestyle"
    },
    {
        "col0": "Swimming at the 1952 Summer Olympics - Women's 200 metre breaststroke",
        "col1": "Swimming at the 1956 Summer Olympics - Women's 200 metre breaststroke",
        "col2": "E. Gordon",
        "col3": "Swimming at the 1948 Summer Olympics - Women's 200 metre breaststroke"
    },
    {
        "col0": "Swimming at the 1948 Summer Olympics - Women's 200 metre breaststroke",
        "col1": "Swimming at the 1952 Summer Olympics - Women's 200 metre breaststroke",
        "col2": "E. Novak-Gerard",
        "col3": "Swimming at the 1936 Summer Olympics - Women's 200 metre breaststroke"
    },
    {
        "col0": "Swimming at the 1936 Summer Olympics - Women's 200 metre breaststroke",
        "col1": "Swimming at the 1948 Summer Olympics - Women's 200 metre breaststroke",
        "col2": "I. Sorensen",
        "col3": "Swimming at the 1932 Summer Olympics - Women's 200 metre breaststroke"
    },
    {
        "col0": "Swimming at the 1924 Summer Olympics - Women's 4 x 100 metre freestyle relay",
        "col1": "Swimming at the 1928 Summer Olympics - Women's 4 x 100 metre freestyle relay",
        "col2": "A. Berg",
        "col3": "Swimming at the 1920 Summer Olympics - Women's 4 x 100 metre freestyle relay"
    }
]