[
    {
        "col0": "Craspedoma lyonnetianum",
        "col1": "Cyclophoroidea",
        "col2": "LR/cd",
        "col3": "IUCN2.3"
    },
    {
        "col0": "Craspedoma hespericum",
        "col1": "Cyclophoroidea",
        "col2": "LR/cd",
        "col3": "IUCN2.3"
    },
    {
        "col0": "Craspedoma costata",
        "col1": "Cyclophoroidea",
        "col2": "LR/lc",
        "col3": "IUCN2.3"
    },
    {
        "col0": "Cralopa kaputarensis",
        "col1": "Charopidae",
        "col2": "DD",
        "col3": "IUCN2.3"
    },
    {
        "col0": "Cralopa colliveri",
        "col1": "Charopidae",
        "col2": "VU",
        "col3": "IUCN2.3"
    },
    {
        "col0": "Cracking pearlymussel",
        "col1": "Unionidae",
        "col2": "CR",
        "col3": "iucn2.3"
    },
    {
        "col0": "Corseria corsica",
        "col1": "Truncatelloidea",
        "col2": "VU",
        "col3": "IUCN2.3"
    },
    {
        "col0": "Corpulent hornsnail",
        "col1": "Cerithioidea",
        "col2": "VU",
        "col3": "IUCN2.3"
    },
    {
        "col0": "Corded purg",
        "col1": "Hydrobiidae",
        "col2": "EX",
        "col3": "IUCN2.3"
    },
    {
        "col0": "Coosa rocksnail",
        "col1": "Cerithioidea",
        "col2": "EX",
        "col3": "IUCN2.3"
    },
    {
        "col0": "Coosa pigtoe",
        "col1": "Unionidae",
        "col2": "EX",
        "col3": "IUCN2.3"
    },
    {
        "col0": "Coosa pebblesnail",
        "col1": "Hydrobiidae",
        "col2": "CR",
        "col3": "IUCN2.3"
    },
    {
        "col0": "Coosa moccasinshell",
        "col1": "Unionidae",
        "col2": "CR",
        "col3": "IUCN2.3"
    },
    {
        "col0": "Coosa elktoe",
        "col1": "Unionidae",
        "col2": "EX",
        "col3": "IUCN3.1"
    },
    {
        "col0": "Cooperconcha centralis",
        "col1": "Camaenidae",
        "col2": "LR/nt",
        "col3": "IUCN2.3"
    },
    {
        "col0": "Cookeconcha contorta",
        "col1": "Punctoidea",
        "col2": "CR",
        "col3": "IUCN2.3"
    },
    {
        "col0": "Conturbatia crenata",
        "col1": "Streptaxoidea",
        "col2": "CR",
        "col3": "IUCN3.1"
    },
    {
        "col0": "Constricted elimia",
        "col1": "Cerithioidea",
        "col2": "EX",
        "col3": "IUCN2.3"
    },
    {
        "col0": "Concentrated snail",
        "col1": "Helicoidea",
        "col2": "VU",
        "col3": "IUCN2.3"
    },
    {
        "col0": "Conacmella vagans",
        "col1": "Rissooidea",
        "col2": "DD",
        "col3": "IUCN2.3"
    },
    {
        "col0": "Columbia pebblesnail",
        "col1": "Lithoglyphidae",
        "col2": "DD",
        "col3": "IUCN2.3"
    },
    {
        "col0": "Colparion madgei",
        "col1": "Gastrodontoidea",
        "col2": "EX",
        "col3": "IUCN2.3"
    },
    {
        "col0": "Colossal squid",
        "col1": "Taoniinae",
        "col2": "LC",
        "col3": "IUCN3.1"
    },
    {
        "col0": "Coldwater elimia",
        "col1": "Cerithioidea",
        "col2": "LC",
        "col3": "IUCN3.1"
    },
    {
        "col0": "Coenocharopa yessabahensis",
        "col1": "Charopidae",
        "col2": "DD",
        "col3": "IUCN2.3"
    },
    {
        "col0": "Coelatura ratidota",
        "col1": "Unionidae",
        "col2": "DD",
        "col3": "IUCN3.1"
    },
    {
        "col0": "Coelatura horei",
        "col1": "Unionidae",
        "col2": "LC",
        "col3": "IUCN3.1"
    },
    {
        "col0": "Coelatura cridlandi",
        "col1": "Unionidae",
        "col2": "DD",
        "col3": "IUCN3.1"
    },
    {
        "col0": "Coelatura alluaudi",
        "col1": "Unionidae",
        "col2": "DD",
        "col3": "IUCN3.1"
    },
    {
        "col0": "Codringtonia parnassia",
        "col1": "Helicidae",
        "col2": "VU",
        "col3": "IUCN3.1"
    },
    {
        "col0": "Codringtonia neocrassa",
        "col1": "Helicidae",
        "col2": "VU",
        "col3": "IUCN3.1"
    },
    {
        "col0": "Codringtonia intusplicata",
        "col1": "Helicidae",
        "col2": "VU",
        "col3": "IUCN3.1"
    },
    {
        "col0": "Codringtonia helenae",
        "col1": "Helicidae",
        "col2": "VU",
        "col3": "IUCN3.1"
    },
    {
        "col0": "Codringtonia gittenbergeri",
        "col1": "Helicidae",
        "col2": "VU",
        "col3": "IUCN3.1"
    },
    {
        "col0": "Codringtonia eucineta",
        "col1": "Helicidae",
        "col2": "VU",
        "col3": "IUCN3.1"
    },
    {
        "col0": "Codringtonia elisabethae",
        "col1": "Helicidae",
        "col2": "VU",
        "col3": "IUCN3.1"
    },
    {
        "col0": "Cochlostoma septemspirale",
        "col1": "Cochlostomatidae",
        "col2": "LC",
        "col3": "iucn3.1"
    },
    {
        "col0": "Cochlostoma parnonis",
        "col1": "Cochlostomatidae",
        "col2": "NT",
        "col3": "iucn3.1"
    },
    {
        "col0": "Cochlostoma pageti",
        "col1": "Cochlostomatidae",
        "col2": "NT",
        "col3": "iucn3.1"
    },
    {
        "col0": "Cochlostoma hellenicum",
        "col1": "Cochlostomatidae",
        "col2": "LC",
        "col3": "iucn3.1"
    },
    {
        "col0": "Cochlostoma euboicum",
        "col1": "Cochlostomatidae",
        "col2": "NT",
        "col3": "iucn3.1"
    },
    {
        "col0": "Cochlostoma canestrinii",
        "col1": "Cochlostomatidae",
        "col2": "VU",
        "col3": "iucn3.1"
    },
    {
        "col0": "Cochlostoma achaicum",
        "col1": "Cochlostomatidae",
        "col2": "LC",
        "col3": "iucn3.1"
    },
    {
        "col0": "Cochliopina compacta",
        "col1": "Hydrobiidae",
        "col2": "DD",
        "col3": "IUCN2.3"
    },
    {
        "col0": "Cochlicopa nitens",
        "col1": "Cochlicopoidea",
        "col2": "LR/lc",
        "col3": "IUCN2.3"
    },
    {
        "col0": "Cobble elimia",
        "col1": "Cerithioidea",
        "col2": "EX",
        "col3": "IUCN2.3"
    },
    {
        "col0": "Coahuilix de hubbs snail",
        "col1": "Hydrobiidae",
        "col2": "CR",
        "col3": "IUCN2.3"
    },
    {
        "col0": "Club naiad",
        "col1": "Unionidae",
        "col2": "CR",
        "col3": "IUCN2.3"
    },
    {
        "col0": "Closed elimia",
        "col1": "Cerithioidea",
        "col2": "EX",
        "col3": "IUCN2.3"
    },
    {
        "col0": "Clithon spinosum",
        "col1": "Neritidae",
        "col2": "NE",
        "col3": "iucn3.1"
    },
    {
        "col0": "Clithon oualaniense",
        "col1": "Neritidae",
        "col2": "LC",
        "col3": "iucn3.1"
    },
    {
        "col0": "Clithon faba",
        "col1": "Neritidae",
        "col2": "LC",
        "col3": "IUCN3.1"
    },
    {
        "col0": "Cleopatra guillemei",
        "col1": "Cerithioidea",
        "col2": "DD",
        "col3": "IUCN3.1"
    },
    {
        "col0": "Cleopatra grandidieri",
        "col1": "Cerithioidea",
        "col2": "LR/nt",
        "col3": "IUCN2.3"
    },
    {
        "col0": "Cleopatra ferruginea",
        "col1": "Cerithioidea",
        "col2": "LC",
        "col3": "IUCN3.1"
    },
    {
        "col0": "Cleopatra exarata",
        "col1": "Cerithioidea",
        "col2": "VU",
        "col3": "IUCN3.1"
    },
    {
        "col0": "Cleopatra cridlandi",
        "col1": "Cerithioidea",
        "col2": "VU",
        "col3": "IUCN3.1"
    },
    {
        "col0": "Cleopatra broecki",
        "col1": "Cerithioidea",
        "col2": "DD",
        "col3": "IUCN3.1"
    },
    {
        "col0": "Cleopatra africana",
        "col1": "Cerithioidea",
        "col2": "LC",
        "col3": "IUCN3.1"
    },
    {
        "col0": "Clea wykoffi",
        "col1": "Buccinidae",
        "col2": "NE",
        "col3": "iucn3.1"
    },
    {
        "col0": "Clea spinosa",
        "col1": "Buccinidae",
        "col2": "DD",
        "col3": "iucn3.1"
    },
    {
        "col0": "Clea scalarina",
        "col1": "Buccinidae",
        "col2": "NE",
        "col3": "iucn3.1"
    },
    {
        "col0": "Clea paviei",
        "col1": "Buccinidae",
        "col2": "NE",
        "col3": "iucn3.1"
    },
    {
        "col0": "Clea nigricans",
        "col1": "Buccinidae",
        "col2": "NE",
        "col3": "iucn3.1"
    },
    {
        "col0": "Clea jullieni",
        "col1": "Buccinidae",
        "col2": "DD",
        "col3": "iucn3.1"
    },
    {
        "col0": "Clea hidalgoi",
        "col1": "Buccinidae",
        "col2": "NE",
        "col3": "iucn3.1"
    },
    {
        "col0": "Clea helena",
        "col1": "Buccinidae",
        "col2": "NE",
        "col3": "iucn3.1"
    },
    {
        "col0": "Clea fusca",
        "col1": "Buccinidae",
        "col2": "NE",
        "col3": "iucn3.1"
    },
    {
        "col0": "Clea cambojiensis",
        "col1": "Buccinidae",
        "col2": "NE",
        "col3": "iucn3.1"
    },
    {
        "col0": "Clea broti",
        "col1": "Buccinidae",
        "col2": "DD",
        "col3": "iucn3.1"
    },
    {
        "col0": "Clea bockii",
        "col1": "Buccinidae",
        "col2": "NE",
        "col3": "iucn3.1"
    },
    {
        "col0": "Clea bangueyensis",
        "col1": "Buccinidae",
        "col2": "NE",
        "col3": "iucn3.1"
    },
    {
        "col0": "Clavator moreleti",
        "col1": "Acavoidea",
        "col2": "VU",
        "col3": "IUCN2.3"
    },
    {
        "col0": "Clappia umbilicata",
        "col1": "Lithoglyphidae",
        "col2": "EX",
        "col3": "IUCN2.3"
    },
    {
        "col0": "Cipangopaludina cathayensis",
        "col1": "Viviparidae",
        "col2": "LC",
        "col3": "IUCN3.1"
    },
    {
        "col0": "Cipangocharax placeonovitas",
        "col1": "Cyclophoroidea",
        "col2": "DD",
        "col3": "IUCN2.3"
    },
    {
        "col0": "Cipangocharax okamurai",
        "col1": "Cyclophoroidea",
        "col2": "DD",
        "col3": "IUCN2.3"
    },
    {
        "col0": "Cipangocharax kiuchii",
        "col1": "Cyclophoroidea",
        "col2": "DD",
        "col3": "IUCN2.3"
    },
    {
        "col0": "Cipangocharax biexcisus",
        "col1": "Cyclophoroidea",
        "col2": "DD",
        "col3": "IUCN2.3"
    },
    {
        "col0": "Ciliellopsis oglasae",
        "col1": "Helicoidea",
        "col2": "VU",
        "col3": "IUCN2.3"
    },
    {
        "col0": "Chytra kirki",
        "col1": "Cerithioidea",
        "col2": "LC",
        "col3": "IUCN3.1"
    },
    {
        "col0": "Chupadera springsnail",
        "col1": "Hydrobiidae",
        "col2": "DD",
        "col3": "IUCN2.3"
    },
    {
        "col0": "Christianoconcha quintalia",
        "col1": "Punctoidea",
        "col2": "VU",
        "col3": "IUCN2.3"
    },
    {
        "col0": "Chondropoma callipeplum",
        "col1": "Littorinoidea",
        "col2": "DD",
        "col3": "IUCN2.3"
    },
    {
        "col0": "Chondrina oligodonta",
        "col1": "Pupilloidea",
        "col2": "VU",
        "col3": "IUCN3.1"
    },
    {
        "col0": "Choctaw bean",
        "col1": "Unionidae",
        "col2": "EN",
        "col3": "iucn3.1"
    },
    {
        "col0": "Choanomphalus maacki",
        "col1": "Planorbidae",
        "col2": "LC",
        "col3": "IUCN3.1"
    },
    {
        "col0": "Choanomphalus aorus",
        "col1": "Planorbidae",
        "col2": "NE",
        "col3": "IUCN3.1"
    },
    {
        "col0": "Choanomphalus amauronius",
        "col1": "Planorbidae",
        "col2": "NE",
        "col3": "IUCN3.1"
    },
    {
        "col0": "Chittenango ovate amber snail",
        "col1": "Succineidae",
        "col2": "DD",
        "col3": "IUCN2.3"
    },
    {
        "col0": "Chipola slabshell",
        "col1": "Unionidae",
        "col2": "EN",
        "col3": "IUCN2.3"
    },
    {
        "col0": "Chinese mystery snail",
        "col1": "Viviparidae",
        "col2": "LC",
        "col3": "IUCN3.1"
    }
]