[
    {
        "col0": "Z. Gashi",
        "col1": "Kosovo",
        "col2": "Prishtina",
        "col3": "1957-08-14",
        "col4": "Zyrafete Gashi"
    },
    {
        "col0": "W. Kan",
        "col1": "Nijmegen",
        "col2": "Scheveningen",
        "col3": "1911-01-15",
        "col4": "Willem Cornelis Kan"
    },
    {
        "col0": "V. Chistiakov",
        "col1": "Kharkiv",
        "col2": "Saint Petersburg",
        "col3": "1943-06-30",
        "col4": "Viktor Ivanovich Chistyakov"
    },
    {
        "col0": "T. Leutwiler",
        "col1": "Salt Lake City",
        "col2": "St. Louis, Missouri",
        "col3": "1948-09-07",
        "col4": "Tom Leutwiler"
    },
    {
        "col0": "T. Davis",
        "col1": "Hudson, New York",
        "col2": "St. Paul, Minnesota",
        "col3": "1952-08-13",
        "col4": "Thomas James Davis"
    },
    {
        "col0": "Tado",
        "col1": "Philippines",
        "col2": "Philippines",
        "col3": "1974-03-24",
        "col4": "Arvin Impuesto Jimenez"
    },
    {
        "col0": "S. Sales",
        "col1": "New York City",
        "col2": "Franklinton, North Carolina",
        "col3": "1926-01-08",
        "col4": "Milton Supman"
    },
    {
        "col0": "S. Stephenson",
        "col1": "Los Angeles, California",
        "col2": "Omaha, Nebraska",
        "col3": "1940-04-18",
        "col4": "Charles Frederick Stephenson"
    },
    {
        "col0": "S. James",
        "col1": "England",
        "col2": "Johannesburg",
        "col3": "1913-05-08",
        "col4": "Solomon Joel Cohen"
    },
    {
        "col0": "Shaolin",
        "col1": "Paraiba",
        "col2": "Paraiba",
        "col3": "1971-05-08",
        "col4": "Francisco Jozenilton Veloso"
    },
    {
        "col0": "S. Petrillo",
        "col1": "Bronxville, New York",
        "col2": "The Bronx, New York",
        "col3": "1934-10-24",
        "col4": "Sam Patrello"
    },
    {
        "col0": "S. Kinison",
        "col1": "Needles, California",
        "col2": "Yakima, Washington",
        "col3": "1953-12-08",
        "col4": "Samuel Burl Kinison"
    },
    {
        "col0": "R. Williams",
        "col1": "Paradise Cay, California",
        "col2": "Chicago",
        "col3": "1951-07-21",
        "col4": "Robin McLaurin Williams"
    },
    {
        "col0": "R. Harris",
        "col1": "Chicago",
        "col2": "Chicago",
        "col3": "1953-08-30",
        "col4": "Robin Hughes Harris"
    },
    {
        "col0": "R. Schimmel",
        "col1": "Scottsdale, Arizona",
        "col2": "New York City",
        "col3": "1950-01-16",
        "col4": "Robert George Schimmel"
    },
    {
        "col0": "R. Pryor",
        "col1": "California",
        "col2": "Peoria, Illinois",
        "col3": "1940-12-01",
        "col4": "Richard Franklin Lennox Thomas Pryor"
    },
    {
        "col0": "R. Jeni",
        "col1": "California",
        "col2": "Brooklyn",
        "col3": "1957-04-14",
        "col4": "Richard John Colangelo"
    },
    {
        "col0": "R. Foxx",
        "col1": "California",
        "col2": "Missouri",
        "col3": "1922-12-09",
        "col4": "John Elroy Sanford"
    },
    {
        "col0": "R. Skelton",
        "col1": "Rancho Mirage, California",
        "col2": "Vincennes",
        "col3": "1913-07-18",
        "col4": "Richard Bernard Skelton"
    },
    {
        "col0": "P. Fernandez",
        "col1": "San Juan, Puerto Rico",
        "col2": "Cuba",
        "col3": "1927-09-02",
        "col4": "Leopoldo Fernandez II"
    },
    {
        "col0": "P. Silvers",
        "col1": "California",
        "col2": "Brooklyn",
        "col3": "1911-05-11",
        "col4": "Philip Silver"
    },
    {
        "col0": "P. Lynde",
        "col1": "Beverly Hills, California",
        "col2": "Mount Vernon, Ohio",
        "col3": "1926-06-13",
        "col4": "Paul Edward Lynde"
    },
    {
        "col0": "P. O'Neal",
        "col1": "United States",
        "col2": "New York City",
        "col3": "1969-12-07",
        "col4": "Patrice Malcolm Oneal"
    },
    {
        "col0": "N. Sanlley",
        "col1": "Dominican Republic",
        "col2": "Dominican Republic",
        "col3": "1952-09-18",
        "col4": "Nuryn Sanlley Pou"
    },
    {
        "col0": "N. Wisdom",
        "col1": "Isle of Man",
        "col2": "London",
        "col3": "1915-02-04",
        "col4": "Norman Joseph Wisdom"
    },
    {
        "col0": "N. Russell",
        "col1": "New York",
        "col2": "Atlanta",
        "col3": "1918-09-15",
        "col4": "Julius Russell"
    },
    {
        "col0": "N. Marshall",
        "col1": "Buenos Aires",
        "col2": "Buenos Aires",
        "col3": "1903-06-01",
        "col4": "Marina Esther Traveso"
    },
    {
        "col0": "M. Nori",
        "col1": "Dutch East Indies",
        "col2": "Dutch East Indies",
        "col3": "1930-08-10",
        "col4": "Nuri Sarinuri"
    },
    {
        "col0": "M. Mabley",
        "col1": "White Plains, New York",
        "col2": "Brevard, North Carolina",
        "col3": "1894-03-19",
        "col4": "Loretta Mary Aiken"
    },
    {
        "col0": "M. Reid",
        "col1": "Province of Malaga",
        "col2": "London",
        "col3": "1940-01-19",
        "col4": "Michael Reid"
    },
    {
        "col0": "M. Smith",
        "col1": "London",
        "col2": "London",
        "col3": "1952-12-03",
        "col4": "Melvin Kenneth Smith"
    },
    {
        "col0": "M. Miller",
        "col1": "Brighton",
        "col2": "Brighton",
        "col3": "1894-11-21",
        "col4": "Thomas Henry Sargent"
    },
    {
        "col0": "M. E. Velasco",
        "col1": "Mexico",
        "col2": "Mexico",
        "col3": "1940-12-17",
        "col4": "Maria Elena Velasco-Fragoso"
    },
    {
        "col0": "M. A. Campos",
        "col1": "Mexico",
        "col2": "Mexico",
        "col3": "1919-07-09",
        "col4": "Marco Antonio Campos Contreras"
    },
    {
        "col0": "M. E. Velasco",
        "col1": "Mexico",
        "col2": "Mexico",
        "col3": "1940-12-17",
        "col4": "Maria Elena Velasco-Fragoso"
    },
    {
        "col0": "M. Taylor",
        "col1": "England",
        "col2": "Cheshire",
        "col3": "1978-09-08",
        "col4": "Andrew Iain Mackenzie Taylor"
    },
    {
        "col0": "L. Raul",
        "col1": "Puerto Rico",
        "col2": "Puerto Rico",
        "col3": "1962-03-06",
        "col4": "Luis Raul Martinez Rodriguez"
    },
    {
        "col0": "L. Weinstock",
        "col1": "California",
        "col2": "Pennsylvania",
        "col3": "1943-0-0",
        "col4": "Marlene Weinstock"
    },
    {
        "col0": "L. Barr",
        "col1": "Burbank, California",
        "col2": "West Virginia",
        "col3": "1903-09-27",
        "col4": "Leonard Barra"
    },
    {
        "col0": "L. Bruce",
        "col1": "Hollywood",
        "col2": "Mineola, New York",
        "col3": "1925-10-13",
        "col4": "Leonard Alfred Schneider"
    },
    {
        "col0": "L. Eriksson",
        "col1": "Uppsala",
        "col2": "Pitea",
        "col3": "1949-04-01",
        "col4": "Lars Gunnar Eriksson"
    },
    {
        "col0": "L. Grayson",
        "col1": "Warwickshire",
        "col2": "Oxfordshire",
        "col3": "1923-08-31",
        "col4": "William Sulley White"
    },
    {
        "col0": "L. Page",
        "col1": "California",
        "col2": "Cleveland",
        "col3": "1920-10-19",
        "col4": "Alberta Peal"
    },
    {
        "col0": "K. Everett",
        "col1": "London",
        "col2": "Lancashire",
        "col3": "1944-12-25",
        "col4": "Maurice James Christopher Cole"
    },
    {
        "col0": "K. Williams",
        "col1": "London",
        "col2": "London",
        "col3": "1926-02-22",
        "col4": "Kenneth Charles Williams"
    },
    {
        "col0": "K. Goodwin",
        "col1": "Rhos-on-Sea",
        "col2": "Lancashire",
        "col3": "1933-04-07",
        "col4": "William Kenneth Unwin"
    },
    {
        "col0": "J. Winters",
        "col1": "Montecito, California",
        "col2": "Dayton, Ohio",
        "col3": "1925-11-11",
        "col4": "Jonathan Harshman Winters III"
    },
    {
        "col0": "J. Carson",
        "col1": "California",
        "col2": "Corning, Iowa",
        "col3": "1925-10-23",
        "col4": "John William Carson"
    },
    {
        "col0": "J. Belushi",
        "col1": "Chateau Marmont Hotel",
        "col2": "Chicago",
        "col3": "1949-01-24",
        "col4": "John Adam Belushi"
    },
    {
        "col0": "J. Clower",
        "col1": "Jackson, Mississippi",
        "col2": "Liberty, Mississippi",
        "col3": "1926-09-28",
        "col4": "Howard Gerald Clower"
    },
    {
        "col0": "J. Paar",
        "col1": "Greenwich, Connecticut",
        "col2": "Canton, Ohio",
        "col3": "1918-05-01",
        "col4": "Jack Harold Paar"
    },
    {
        "col0": "I. Ilyinsky",
        "col1": "Moscow",
        "col2": "Moscow",
        "col3": "1901-07-24",
        "col4": "Igor Vladimirovich Ilyinsky"
    },
    {
        "col0": "H. Morgan",
        "col1": "New York City",
        "col2": "New York City",
        "col3": "1915-03-31",
        "col4": "Henry Lerner Van Ost, Jr."
    },
    {
        "col0": "Henfil",
        "col1": "Rio de Janeiro",
        "col2": "Minas Gerais",
        "col3": "1944-02-05",
        "col4": "Henrique de Souza Filho"
    },
    {
        "col0": "H. Korman",
        "col1": "California",
        "col2": "Chicago",
        "col3": "1927-02-15",
        "col4": "Harvey Herschel Korman"
    },
    {
        "col0": "H. Wittels",
        "col1": "California",
        "col2": "Oklahoma",
        "col3": "1984-04-20",
        "col4": "Harris Lee Wittels"
    },
    {
        "col0": "H. Ritz",
        "col1": "California",
        "col2": "New Jersey",
        "col3": "1907-05-22",
        "col4": "Harold Joachim"
    },
    {
        "col0": "H. Lloyd",
        "col1": "California",
        "col2": "United States",
        "col3": "1893-04-20",
        "col4": "Harold Clayton Lloyd"
    },
    {
        "col0": "G. Marx",
        "col1": "California",
        "col2": "New York",
        "col3": "1890-10-02",
        "col4": "Julius Henry Marx"
    },
    {
        "col0": "G. Giraldo",
        "col1": "New Jersey",
        "col2": "New York",
        "col3": "1965-12-10",
        "col4": "Gregory C. Giraldo"
    },
    {
        "col0": "G. Nutt",
        "col1": "Vinemont, Alabama",
        "col2": "Amarillo, Texas",
        "col3": "1934-09-02",
        "col4": "Grady Lee Nutt"
    },
    {
        "col0": "G. Roper",
        "col1": "Cheshire",
        "col2": "Lancashire",
        "col3": "1934-05-15",
        "col4": "George Francis Furnival"
    },
    {
        "col0": "G. Henaine",
        "col1": "Mexico",
        "col2": "Mexico",
        "col3": "1926-01-06",
        "col4": "Gaspar Henaine Perez"
    },
    {
        "col0": "G. Shandling",
        "col1": "California",
        "col2": "Chicago",
        "col3": "1949-11-29",
        "col4": "Garry Emmanuel Shandling"
    },
    {
        "col0": "F. Travalena",
        "col1": "Encino, California",
        "col2": "New York",
        "col3": "1942-10-06",
        "col4": "Frederick Albert Travalena III"
    },
    {
        "col0": "F. Suero",
        "col1": "Dominican Republic",
        "col2": "Dominican Republic",
        "col3": "1960-06-04",
        "col4": "Francisco de la Cruz Suero"
    },
    {
        "col0": "F. Potenza",
        "col1": "Los Angeles, California",
        "col2": "Brooklyn, New York",
        "col3": "1933-11-11",
        "col4": "Francis Potenza"
    },
    {
        "col0": "F. Carson",
        "col1": "Blackpool",
        "col2": "Belfast, Northern Ireland",
        "col3": "1926-11-06",
        "col4": "Hugh Francis Carson"
    },
    {
        "col0": "F. Wilson",
        "col1": "Malibu, California",
        "col2": "Jersey City, New Jersey",
        "col3": "1933-12-08",
        "col4": "Clerow Wilson, Jr."
    },
    {
        "col0": "F. Holzmann",
        "col1": "Chemnitz",
        "col2": "Czechoslovakia",
        "col3": "1921-07-08",
        "col4": "Felix Holzmann"
    },
    {
        "col0": "E. Kovacs",
        "col1": "California",
        "col2": "Trenton, New Jersey",
        "col3": "1919-01-23",
        "col4": "Ernest Edward Kovacs"
    },
    {
        "col0": "D. Gee",
        "col1": "Merseyside",
        "col2": "York",
        "col3": "1942-06-24",
        "col4": "Gerald Harrison"
    },
    {
        "col0": "D. Harron",
        "col1": "Ontario",
        "col2": "Ontario",
        "col3": "1924-09-19",
        "col4": "Donald Hugh Harron"
    },
    {
        "col0": "Dolphy",
        "col1": "Philippines",
        "col2": "Tondo, Manila",
        "col3": "1928-07-25",
        "col4": "Rodolfo Vera Quizon, Sr."
    },
    {
        "col0": "D. Martin",
        "col1": "Santa Monica, California",
        "col2": "United States",
        "col3": "1922-01-30",
        "col4": "Thomas Richard Martin"
    },
    {
        "col0": "D. Frye",
        "col1": "Las Vegas, Nevada",
        "col2": "Brooklyn, New York",
        "col3": "1933-11-21",
        "col4": "David Shapiro"
    },
    {
        "col0": "D. Brenner",
        "col1": "New York City",
        "col2": "Philadelphia",
        "col3": "1936-02-04",
        "col4": "David Norris Brenner"
    },
    {
        "col0": "D. Morris",
        "col1": "Blackpool",
        "col2": "Middlesbrough",
        "col3": "1896-07-05",
        "col4": "David Morris"
    },
    {
        "col0": "D. Gans",
        "col1": "Henderson, Nevada",
        "col2": "California",
        "col3": "1956-10-25",
        "col4": "Daniel Davies Gans"
    },
    {
        "col0": "D. Rowan",
        "col1": "Siesta Key, Florida",
        "col2": "Beggs, Oklahoma",
        "col3": "1922-07-22",
        "col4": "Daniel Hale Rowan"
    },
    {
        "col0": "Chichay",
        "col1": "Manila",
        "col2": "Insular Government of the Philippine Islands",
        "col3": "1918-01-21",
        "col4": "Ampario Robles Custodio"
    },
    {
        "col0": "C. Callas",
        "col1": "Las Vegas",
        "col2": "Brooklyn",
        "col3": "1924-12-20",
        "col4": "Charles Callias"
    },
    {
        "col0": "B. Anduk",
        "col1": "Dutch East Indies",
        "col2": "Dutch East Indies",
        "col3": "1968-02-08",
        "col4": "Budi Prihatin"
    },
    {
        "col0": "Bombolo",
        "col1": "Rome",
        "col2": "Rome",
        "col3": "1931-05-22",
        "col4": "Franco Lechner"
    },
    {
        "col0": "B. Knoxall",
        "col1": "Sunderland, Tyne and Wear",
        "col2": "Sunderland, Tyne and Wear",
        "col3": "1933-12-24",
        "col4": "Robert McKenna"
    },
    {
        "col0": "B. Hicks",
        "col1": "Little Rock, Arkansas",
        "col2": "Valdosta, Georgia",
        "col3": "1961-12-16",
        "col4": "William Melvin Hicks"
    }
]