[
    {
        "col0": "KATC",
        "col1": "American Broadcasting Company",
        "col2": "3.1ABC",
        "col3": "28 (UHF)",
        "col4": "1000000"
    },
    {
        "col0": "KASA-TV",
        "col1": "Telemundo",
        "col2": "2.1Fox",
        "col3": "27 (UHF)",
        "col4": "255000"
    },
    {
        "col0": "KAMU-TV",
        "col1": "PBS",
        "col2": "12.1PBS",
        "col3": "12 (VHF)",
        "col4": "3200"
    },
    {
        "col0": "KAMR-TV",
        "col1": "NBC",
        "col2": "4.1NBC",
        "col3": "19 (UHF)",
        "col4": "400000"
    },
    {
        "col0": "KAKW-DT",
        "col1": "Univision",
        "col2": "62.1Univision",
        "col3": "13 (VHF)",
        "col4": "45000"
    },
    {
        "col0": "KAKM",
        "col1": "PBS",
        "col2": "7.1/10.1PBS",
        "col3": "KAKM: 7 (PSIP)",
        "col4": "1000"
    },
    {
        "col0": "KAJL-LD",
        "col1": "Telemundo",
        "col2": "16.1Telemundo",
        "col3": "16 (UHF)",
        "col4": "4000"
    },
    {
        "col0": "KAJF-LD",
        "col1": "Dark",
        "col2": "16.1 Silent",
        "col3": "16 (UHF)",
        "col4": "15000"
    },
    {
        "col0": "KAIL",
        "col1": "MyNetworkTV",
        "col2": "7.1 MyNetworkTV",
        "col3": "7 (VHF)",
        "col4": "38000"
    },
    {
        "col0": "KAGS-LD",
        "col1": "KCEN-TV",
        "col2": "[[#Digital channels",
        "col3": "23 (UHF)",
        "col4": "2100"
    },
    {
        "col0": "KACV-TV",
        "col1": "PBS",
        "col2": "2.1PBS",
        "col3": "8 (VHF)",
        "col4": "5000"
    },
    {
        "col0": "KABE-CD",
        "col1": "Univision",
        "col2": "39.1Univision",
        "col3": "39 (UHF)",
        "col4": "15000"
    },
    {
        "col0": "KAAH-TV",
        "col1": "Owned-and-operated",
        "col2": "26.1TBN",
        "col3": "27 (UHF)",
        "col4": "262000"
    }
]