[
    {
        "col0": "Wee1",
        "col1": "12761",
        "col2": "Mitosis inhibitor protein kinase Wee1",
        "col3": "-q32",
        "col4": "2.7.11.1"
    },
    {
        "col0": "VEGF receptor",
        "col1": "3763",
        "col2": "FLK1, VEGFR, VEGFR2, CD309",
        "col3": "-q12",
        "col4": "2.7.1.112"
    },
    {
        "col0": "TIE1",
        "col1": "11809",
        "col2": "TIE, JTK14",
        "col3": "-p33",
        "col4": "2.7.1.112"
    },
    {
        "col0": "Sucrase-isomaltase",
        "col1": "10856",
        "col2": "SI",
        "col3": "-26",
        "col4": "3.2.1.10"
    },
    {
        "col0": "Spermidine synthase",
        "col1": "11296",
        "col2": "SRM",
        "col3": "-p22",
        "col4": "2.5.1.16"
    },
    {
        "col0": "Sorbitol dehydrogenase",
        "col1": "11184",
        "col2": "SORD",
        "col3": "-q21.1",
        "col4": "1.1.1.14"
    },
    {
        "col0": "Rho-associated protein kinase",
        "col1": "10251",
        "col2": "ROCK1",
        "col3": "-q32",
        "col4": "2.7.11.1"
    },
    {
        "col0": "Receptor tyrosine kinase-like orphan receptor",
        "col1": "10256",
        "col2": "NTRKR1",
        "col3": "-p31",
        "col4": "2.7.10.1"
    },
    {
        "col0": "Protein phosphatase 2",
        "col1": "9299",
        "col2": "PPP2CA",
        "col3": "-q31",
        "col4": "3.1.3.16"
    },
    {
        "col0": "Presenilin",
        "col1": "9508",
        "col2": "AD3",
        "col3": "-q42",
        "col4": "3.4.23.-"
    },
    {
        "col0": "Phosphoglycerate mutase",
        "col1": "8888",
        "col2": "PGAM",
        "col3": "-p12",
        "col4": "5.4.2.11"
    },
    {
        "col0": "Phosphogluconate dehydrogenase",
        "col1": "8891",
        "col2": "6PGD",
        "col3": "-36",
        "col4": "1.1.1.44"
    }
]