[
    {
        "col0": "W. Miller",
        "col1": "Glasgow",
        "col2": "1810-8-0",
        "col3": "1872-8-20",
        "col4": "1810-8-0"
    },
    {
        "col0": "W. J. Mickle",
        "col1": "Langholm",
        "col2": "1734-9-29",
        "col3": "1788-10-28",
        "col4": "1734-9-29"
    },
    {
        "col0": "W. Hamilton",
        "col1": "West Lothian",
        "col2": "1704-1-1",
        "col3": "1754-03-25",
        "col4": "1704-1-1"
    },
    {
        "col0": "W. B. Rands",
        "col1": "Chelsea, London",
        "col2": "1823-12-24",
        "col3": "1882-04-23",
        "col4": "1823-12-24"
    },
    {
        "col0": "W. Ambrose",
        "col1": "Bangor, Gwynedd",
        "col2": "1813-8-1",
        "col3": "1873-10-31",
        "col4": "1813-8-1"
    },
    {
        "col0": "W. Lyon",
        "col1": "North Berwick",
        "col2": "1887-1-1",
        "col3": "1915-5-8",
        "col4": "1887-1-1"
    },
    {
        "col0": "T. Conran",
        "col1": "India",
        "col2": "1931-4-7",
        "col3": "2013-1-14",
        "col4": "1931-4-7"
    },
    {
        "col0": "T. O. Mordaunt",
        "col1": "London",
        "col2": "1730-1-1",
        "col3": "1809-1-1",
        "col4": "1730-1-1"
    },
    {
        "col0": "T. Tiller",
        "col1": "Truro",
        "col2": "1916-9-19",
        "col3": "1987-12-24",
        "col4": "1916-9-19"
    },
    {
        "col0": "S. Roberts",
        "col1": "Llanllyfni",
        "col2": "1871-03-28",
        "col3": "1930-08-15",
        "col4": "1871-03-28"
    }
]