[
    {
        "col0": "USS Allegan",
        "col1": "1944-08-07",
        "col2": "1943-12-21",
        "col3": "1944-01-21"
    },
    {
        "col0": "USS Alkes",
        "col1": "1943-10-05",
        "col2": "1943-06-10",
        "col3": "1943-06-29"
    },
    {
        "col0": "USS Alkaid",
        "col1": "1943-11-19",
        "col2": "1943-09-13",
        "col3": "1943-11-08"
    },
    {
        "col0": "USS Alhena",
        "col1": "1941-05-31",
        "col2": "1940-06-19",
        "col3": "1941-01-18"
    },
    {
        "col0": "USS Algorab",
        "col1": "1941-06-06",
        "col2": "1938-08-10",
        "col3": "1939-06-15"
    },
    {
        "col0": "USS Alger",
        "col1": "1945-03-10",
        "col2": "1943-01-02",
        "col3": "1943-07-08"
    },
    {
        "col0": "USS Alexandria",
        "col1": "1991-06-13",
        "col2": "1987-06-19",
        "col3": "1990-06-23"
    },
    {
        "col0": "USS Alderamin",
        "col1": "1943-11-25",
        "col2": "1943-10-05",
        "col3": "1943-11-13"
    },
    {
        "col0": "USS Aldebaran",
        "col1": "1940-12-22",
        "col2": "1938-11-28",
        "col3": "1939-06-21"
    },
    {
        "col0": "USS Alcyone",
        "col1": "1941-05-31",
        "col2": "1939-01-12",
        "col3": "1939-08-28"
    },
    {
        "col0": "USS Alcor",
        "col1": "1951-07-16",
        "col2": "1944-02-28",
        "col3": "1944-04-29"
    },
    {
        "col0": "USS Alcona",
        "col1": "1944-09-15",
        "col2": "1943-11-27",
        "col3": "1944-05-09"
    },
    {
        "col0": "USS Alchiba",
        "col1": "1941-06-02",
        "col2": "1938-08-15",
        "col3": "1939-07-06"
    },
    {
        "col0": "USS Albuquerque",
        "col1": "1945-08-16",
        "col2": "1943-07-20",
        "col3": "1943-09-14"
    },
    {
        "col0": "USS Albireo",
        "col1": "1943-03-09",
        "col2": "1943-01-17",
        "col3": "1943-02-25"
    },
    {
        "col0": "USS Albert David",
        "col1": "1968-10-11",
        "col2": "1964-04-29",
        "col3": "1964-12-19"
    },
    {
        "col0": "USS Albatross",
        "col1": "1940-08-09",
        "col2": "1930-10-25",
        "col3": "1931-03-19"
    },
    {
        "col0": "USS Albany",
        "col1": "1898-03-16",
        "col2": "1897-12-08",
        "col3": "1899-01-14"
    },
    {
        "col0": "USS Alarka",
        "col1": "1945-04-05",
        "col2": "1944-08-31",
        "col3": "1945-01-20"
    },
    {
        "col0": "USS Alamo",
        "col1": "1990-11-12",
        "col2": "1954-10-11",
        "col3": "1956-01-20"
    },
    {
        "col0": "USS Alameda County",
        "col1": "1962-11-20",
        "col2": "1943-02-17",
        "col3": "1943-05-22"
    },
    {
        "col0": "USS Alameda",
        "col1": "1919-10-17",
        "col2": "1918-12-16",
        "col3": "1919-07-15"
    },
    {
        "col0": "USS Ainsworth",
        "col1": "1973-02-01",
        "col2": "1971-06-11",
        "col3": "1972-04-15"
    },
    {
        "col0": "USS Agenor",
        "col1": "1951-03-02",
        "col2": "1943-01-24",
        "col3": "1943-04-03"
    },
    {
        "col0": "USS Aegir",
        "col1": "1943-11-20",
        "col2": "1943-03-31",
        "col3": "1943-09-15"
    },
    {
        "col0": "USS Adopt",
        "col1": "1945-07-19",
        "col2": "1942-04-08",
        "col3": "1942-10-18"
    },
    {
        "col0": "USS Admiral W. L. Capps",
        "col1": "1944-09-18",
        "col2": "1942-12-15",
        "col3": "1944-02-20"
    },
    {
        "col0": "USS Admirable",
        "col1": "1945-07-19",
        "col2": "1942-04-08",
        "col3": "1942-10-18"
    },
    {
        "col0": "USS Acubens",
        "col1": "1944-02-09",
        "col2": "1943-11-25",
        "col3": "1944-01-08"
    },
    {
        "col0": "USS Action",
        "col1": "1942-11-21",
        "col2": "1942-01-06",
        "col3": "1942-07-28"
    },
    {
        "col0": "USS Acontius",
        "col1": "1943-12-22",
        "col2": "1943-06-05",
        "col3": "1943-10-12"
    },
    {
        "col0": "USS Acoma",
        "col1": "1946-03-12",
        "col2": "1945-07-02",
        "col3": "1945-08-30"
    },
    {
        "col0": "USS Achilles",
        "col1": "1947-09-08",
        "col2": "1942-08-03",
        "col3": "1942-10-17"
    },
    {
        "col0": "USS Absecon",
        "col1": "1949-01-05",
        "col2": "1941-07-23",
        "col3": "1942-03-08"
    },
    {
        "col0": "USS Abnaki",
        "col1": "1978-09-30",
        "col2": "1942-11-28",
        "col3": "1943-04-22"
    },
    {
        "col0": "USS Abinago",
        "col1": "1945-06-14",
        "col2": "1944-09-25",
        "col3": "1944-12-22"
    },
    {
        "col0": "USS Abilene",
        "col1": "1947-05-05",
        "col2": "1943-05-06",
        "col3": "1943-08-21"
    },
    {
        "col0": "USS Aaron Ward",
        "col1": "1940-09-09",
        "col2": "1918-08-11",
        "col3": "1919-04-10"
    },
    {
        "col0": "USS ARL-6",
        "col1": "1943-08-02",
        "col2": "1943-03-25",
        "col3": "1943-06-09"
    },
    {
        "col0": "USS ARL-5",
        "col1": "1943-07-29",
        "col2": "1943-03-08",
        "col3": "1943-05-28"
    },
    {
        "col0": "USNS Wyman",
        "col1": "1971-11-03",
        "col2": "1968-07-18",
        "col3": "1969-10-30"
    },
    {
        "col0": "USNS William McLean",
        "col1": "2011-09-28",
        "col2": "2010-03-26",
        "col3": "2011-04-16"
    },
    {
        "col0": "USNS Wally Schirra",
        "col1": "2009-09-01",
        "col2": "2008-04-14",
        "col3": "2009-03-08"
    },
    {
        "col0": "USNS Vindicator",
        "col1": "1984-11-21",
        "col2": "1983-04-14",
        "col3": "1984-06-01"
    },
    {
        "col0": "USNS Victorious",
        "col1": "1991-08-13",
        "col2": "1988-04-12",
        "col3": "1988-05-03"
    },
    {
        "col0": "USNS Triumph",
        "col1": "1985-02-19",
        "col2": "1984-01-03",
        "col3": "1984-09-17"
    },
    {
        "col0": "USNS Tonti",
        "col1": "1948-06-24",
        "col2": "1945-05-16",
        "col3": "1945-08-23"
    },
    {
        "col0": "USNS Titan",
        "col1": "1989-03-08",
        "col2": "1986-10-30",
        "col3": "1988-06-18"
    },
    {
        "col0": "USNS Thomas Washington",
        "col1": "1965-09-17",
        "col2": "1963-09-12",
        "col3": "1964-08-01"
    },
    {
        "col0": "USNS Thomas G. Thompson",
        "col1": "1965-08-01",
        "col2": "1963-09-12",
        "col3": "1964-07-18"
    },
    {
        "col0": "USNS Stalwart",
        "col1": "2004-05-14",
        "col2": "1982-11-03",
        "col3": "1983-07-11"
    },
    {
        "col0": "USNS Spica",
        "col1": "1981-11-01",
        "col2": "1965-04-01",
        "col3": "1967-02-01"
    },
    {
        "col0": "USNS Sirius",
        "col1": "1981-01-01",
        "col2": "1965-04-01",
        "col3": "1966-04-01"
    },
    {
        "col0": "USNS Sioux",
        "col1": "1981-05-01",
        "col2": "1979-03-22",
        "col3": "1980-11-15"
    },
    {
        "col0": "USNS Silas Bent",
        "col1": "1965-07-23",
        "col2": "1964-03-02",
        "col3": "1964-05-15"
    },
    {
        "col0": "USNS Sgt. Truman Kimbro",
        "col1": "1950-08-05",
        "col2": "1944-09-30",
        "col3": "1944-11-30"
    },
    {
        "col0": "USNS Sgt. Sylvester Antolak",
        "col1": "1945-07-18",
        "col2": "1945-05-03",
        "col3": "1945-06-16"
    },
    {
        "col0": "USNS Sgt. Morris E. Crain",
        "col1": "1945-04-21",
        "col2": "1945-02-14",
        "col3": "1945-03-28"
    },
    {
        "col0": "USNS Sgt. George D Keathley",
        "col1": "1945-03-30",
        "col2": "1944-06-16",
        "col3": "1944-12-07"
    },
    {
        "col0": "USNS Sgt. Archer T. Gammon",
        "col1": "1946-06-18",
        "col2": "1944-12-13",
        "col3": "1945-01-31"
    },
    {
        "col0": "USNS Sgt. Andrew Miller",
        "col1": "1946-07-26",
        "col2": "1945-02-22",
        "col3": "1945-04-04"
    },
    {
        "col0": "USNS Schuyler Otis Bland",
        "col1": "1961-08-04",
        "col2": "1950-05-09",
        "col3": "1951-01-30"
    },
    {
        "col0": "USNS Sands",
        "col1": "1965-02-02",
        "col2": "1962-08-23",
        "col3": "1963-09-14"
    },
    {
        "col0": "USNS Sagitta",
        "col1": "1944-07-18",
        "col2": "1944-01-24",
        "col3": "1944-07-09"
    },
    {
        "col0": "USNS S. P. Lee",
        "col1": "1968-12-02",
        "col2": "1966-06-27",
        "col3": "1967-10-19"
    },
    {
        "col0": "USNS Robert D. Conrad",
        "col1": "1962-11-29",
        "col2": "1961-01-19",
        "col3": "1962-05-26"
    },
    {
        "col0": "USNS Rincon",
        "col1": "1950-07-01",
        "col2": "1945-02-24",
        "col3": "1945-06-05"
    },
    {
        "col0": "USNS Relentless",
        "col1": "1993-03-17",
        "col2": "1988-04-22",
        "col3": "1989-05-12"
    },
    {
        "col0": "USNS Provo",
        "col1": "1963-03-02",
        "col2": "1945-04-28",
        "col3": "1945-06-17"
    },
    {
        "col0": "USNS Private Leonard C. Brostrom",
        "col1": "1948-03-27",
        "col2": "1942-12-05",
        "col3": "1943-05-10"
    },
    {
        "col0": "USNS Private Jose F. Valdez",
        "col1": "1945-07-05",
        "col2": "1944-04-22",
        "col3": "1944-10-27"
    },
    {
        "col0": "USNS Private Joe P. Martinez",
        "col1": "1946-09-05",
        "col2": "1945-04-13",
        "col3": "1945-05-29"
    },
    {
        "col0": "USNS Powhatan",
        "col1": "1979-06-15",
        "col2": "1976-09-30",
        "col3": "1978-06-24"
    },
    {
        "col0": "USNS Potomac",
        "col1": "1976-01-12",
        "col2": "1964-03-01",
        "col3": "1964-10-10"
    },
    {
        "col0": "USNS Phoenix",
        "col1": "1962-11-25",
        "col2": "1945-02-27",
        "col3": "1945-04-10"
    },
    {
        "col0": "USNS Petrolite",
        "col1": "1944-01-31",
        "col2": "1943-10-12",
        "col3": "1944-01-13"
    },
    {
        "col0": "USNS Observation Island",
        "col1": "1954-02-24",
        "col2": "1952-09-15",
        "col3": "1953-08-15"
    },
    {
        "col0": "USNS Navajo",
        "col1": "1980-06-13",
        "col2": "1977-12-14",
        "col3": "1979-12-20"
    },
    {
        "col0": "USNS Narragansett",
        "col1": "1979-11-09",
        "col2": "1977-05-05",
        "col3": "1979-05-12"
    },
    {
        "col0": "USNS Montford Point",
        "col1": "2013-05-14",
        "col2": "2012-01-19",
        "col3": "2012-11-13"
    },
    {
        "col0": "USNS Mission Soledad",
        "col1": "1947-10-16",
        "col2": "1943-07-12",
        "col3": "1943-09-28"
    },
    {
        "col0": "USNS Mission Solano",
        "col1": "1944-03-30",
        "col2": "1943-10-08",
        "col3": "1944-01-14"
    },
    {
        "col0": "USNS Mission Santa Cruz",
        "col1": "1947-10-24",
        "col2": "1943-06-26",
        "col3": "1943-09-08"
    },
    {
        "col0": "USNS Mission Santa Clara",
        "col1": "1947-11-05",
        "col2": "1944-03-15",
        "col3": "1944-05-18"
    },
    {
        "col0": "USNS Mission Santa Barbara",
        "col1": "1947-10-20",
        "col2": "1944-04-08",
        "col3": "1944-06-08"
    },
    {
        "col0": "USNS Mission Santa Ana",
        "col1": "1945-10-25",
        "col2": "1945-04-18",
        "col3": "1945-07-25"
    },
    {
        "col0": "USNS Mission San Miguel",
        "col1": "1947-11-04",
        "col2": "1943-08-11",
        "col3": "1943-10-31"
    },
    {
        "col0": "USNS Mission San Luis Rey",
        "col1": "1947-10-23",
        "col2": "1943-10-15",
        "col3": "1944-01-29"
    },
    {
        "col0": "USNS Mission San Jose",
        "col1": "1947-11-05",
        "col2": "1943-07-17",
        "col3": "1943-10-07"
    },
    {
        "col0": "USNS Mission San Gabriel",
        "col1": "1944-05-27",
        "col2": "1944-01-31",
        "col3": "1944-04-17"
    },
    {
        "col0": "USNS Mission San Diego",
        "col1": "1944-04-30",
        "col2": "1943-12-20",
        "col3": "1944-03-14"
    },
    {
        "col0": "USNS Mission San Carlos",
        "col1": "1947-11-12",
        "col2": "1943-11-01",
        "col3": "1944-02-12"
    },
    {
        "col0": "USNS Mission San Antonio",
        "col1": "1947-10-22",
        "col2": "1944-01-15",
        "col3": "1944-04-08"
    },
    {
        "col0": "USNS Mission Purisima",
        "col1": "1947-10-15",
        "col2": "1943-06-10",
        "col3": "1943-08-25"
    },
    {
        "col0": "USNS Mission Loreto",
        "col1": "1947-11-20",
        "col2": "1944-04-27",
        "col3": "1944-06-28"
    },
    {
        "col0": "USNS Mission Dolores",
        "col1": "1947-10-20",
        "col2": "1944-02-18",
        "col3": "1944-04-26"
    },
    {
        "col0": "USNS Mission Carmel",
        "col1": "1947-10-21",
        "col2": "1944-01-01",
        "col3": "1944-03-28"
    },
    {
        "col0": "USNS Mission Capistrano",
        "col1": "1944-06-14",
        "col2": "1944-02-29",
        "col3": "1944-05-07"
    },
    {
        "col0": "USNS Mission Buenaventura",
        "col1": "1947-11-18",
        "col2": "1944-03-29",
        "col3": "1944-05-28"
    },
    {
        "col0": "USNS Michelson",
        "col1": "1958-02-08",
        "col2": "1944-05-05",
        "col3": "1944-06-14"
    },
    {
        "col0": "USNS Matthew Perry",
        "col1": "2010-02-24",
        "col2": "2008-10-03",
        "col3": "2009-08-16"
    },
    {
        "col0": "USNS Marine Fiddler",
        "col1": "1945-08-31",
        "col2": "1944-12-15",
        "col3": "1945-05-15"
    },
    {
        "col0": "USNS Marine Adder",
        "col1": "1950-07-24",
        "col2": "1945-03-07",
        "col3": "1945-05-16"
    },
    {
        "col0": "USNS Lynch",
        "col1": "1965-07-23",
        "col2": "1962-09-07",
        "col3": "1964-03-17"
    },
    {
        "col0": "USNS Lt. Robert Craig",
        "col1": "1950-08-09",
        "col2": "1945-06-21",
        "col3": "1945-08-28"
    },
    {
        "col0": "USNS Lt. Raymond O. Beaudoin",
        "col1": "1950-07-22",
        "col2": "1945-04-04",
        "col3": "1945-05-21"
    },
    {
        "col0": "USNS Loyal",
        "col1": "1993-07-01",
        "col2": "1991-10-07",
        "col3": "1992-09-19"
    },
    {
        "col0": "USNS Lone Jack",
        "col1": "1956-11-28",
        "col2": "1944-07-11",
        "col3": "1944-10-21"
    },
    {
        "col0": "USNS Lewis B. Puller",
        "col1": "2015-06-12",
        "col2": "2013-11-05",
        "col3": "2014-11-06"
    },
    {
        "col0": "USNS Kingsport",
        "col1": "1944-07-12",
        "col2": "1944-04-04",
        "col3": "1944-05-29"
    },
    {
        "col0": "USNS Kilauea",
        "col1": "1968-06-12",
        "col2": "1966-03-10",
        "col3": "1967-08-09"
    },
    {
        "col0": "USNS Kane",
        "col1": "1967-05-19",
        "col2": "1964-12-19",
        "col3": "1965-11-20"
    },
    {
        "col0": "USNS James M. Gilliss",
        "col1": "1962-10-05",
        "col2": "1961-05-31",
        "col3": "1961-05-19"
    },
    {
        "col0": "USNS Indomitable",
        "col1": "1985-11-26",
        "col2": "1985-01-26",
        "col3": "1985-07-16"
    },
    {
        "col0": "USNS Huntsville",
        "col1": "1960-08-11",
        "col2": "1945-03-02",
        "col3": "1945-04-13"
    },
    {
        "col0": "USNS Howard O. Lorenzen",
        "col1": "2012-01-10",
        "col2": "2008-08-13",
        "col3": "2010-06-30"
    },
    {
        "col0": "USNS Henry Gibbins",
        "col1": "1943-02-27",
        "col2": "1941-08-23",
        "col3": "1942-11-11"
    },
    {
        "col0": "USNS Hayes",
        "col1": "1971-07-21",
        "col2": "1969-11-12",
        "col3": "1970-07-02"
    },
    {
        "col0": "USNS Harris County",
        "col1": "1976-09-13",
        "col2": "1944-09-20",
        "col3": "1944-11-01"
    },
    {
        "col0": "USNS Haiti Victory",
        "col1": "1948-04-14",
        "col2": "1944-04-24",
        "col3": "1944-07-20"
    },
    {
        "col0": "USNS Gyre",
        "col1": "1973-11-14",
        "col2": "1972-10-09",
        "col3": "1973-05-23"
    },
    {
        "col0": "USNS Grommet Reefer",
        "col1": "1950-03-01",
        "col2": "1944-01-01",
        "col3": "1944-07-29"
    },
    {
        "col0": "USNS George W. Goethals",
        "col1": "1942-09-18",
        "col2": "1941-01-07",
        "col3": "1942-01-23"
    },
    {
        "col0": "USNS General Hoyt S. Vandenberg",
        "col1": "1944-03-29",
        "col2": "1943-02-22",
        "col3": "1943-10-10"
    },
    {
        "col0": "USNS Effective",
        "col1": "1993-01-27",
        "col2": "1991-02-15",
        "col3": "1991-09-26"
    },
    {
        "col0": "USNS De Steiguer",
        "col1": "1969-02-28",
        "col2": "1965-11-12",
        "col3": "1966-03-21"
    },
    {
        "col0": "USNS Dalton Victory",
        "col1": "1948-04-02",
        "col2": "1944-04-08",
        "col3": "1944-06-06"
    },
    {
        "col0": "USNS Courier",
        "col1": "1962-12-11",
        "col2": "1961-07-07",
        "col3": "1962-04-05"
    },
    {
        "col0": "USNS Contender",
        "col1": "1984-06-09",
        "col2": "1983-01-10",
        "col3": "1983-12-20"
    },
    {
        "col0": "USNS Concord",
        "col1": "1968-11-21",
        "col2": "1966-03-26",
        "col3": "1966-12-17"
    },
    {
        "col0": "USNS Coastal Sentry",
        "col1": "1945-09-20",
        "col2": "1944-10-09",
        "col3": "1945-01-21"
    },
    {
        "col0": "USNS Chattahoochee",
        "col1": "1957-10-22",
        "col2": "1956-05-01",
        "col3": "1956-12-04"
    },
    {
        "col0": "USNS Charles Drew",
        "col1": "2010-07-14",
        "col2": "2009-03-17",
        "col3": "2010-02-27"
    },
    {
        "col0": "USNS Catawba",
        "col1": "1980-05-28",
        "col2": "1977-12-14",
        "col3": "1979-09-22"
    },
    {
        "col0": "USNS Brunswick",
        "col1": "2016-01-14",
        "col2": "2014-12-02",
        "col3": "2015-05-19"
    },
    {
        "col0": "USNS Bowditch",
        "col1": "1957-08-02",
        "col2": "1945-05-11",
        "col3": "1945-06-30"
    },
    {
        "col0": "USNS Bold",
        "col1": "1989-10-16",
        "col2": "1988-06-13",
        "col3": "1989-05-24"
    },
    {
        "col0": "USNS Blue Jacket",
        "col1": "1950-03-01",
        "col2": "1941-10-23",
        "col3": "1942-02-14"
    },
    {
        "col0": "USNS Bartlett",
        "col1": "1969-03-31",
        "col2": "1965-11-18",
        "col3": "1966-05-24"
    },
    {
        "col0": "USNS Asterion",
        "col1": "1961-11-07",
        "col2": "1944-06-10",
        "col3": "1944-07-27"
    },
    {
        "col0": "USNS Assertive",
        "col1": "1986-09-09",
        "col2": "1985-07-30",
        "col3": "1986-06-20"
    },
    {
        "col0": "USNS Apache",
        "col1": "1981-07-23",
        "col2": "1979-03-22",
        "col3": "1981-03-28"
    },
    {
        "col0": "USNS Andrew J. Higgins",
        "col1": "2009-05-19",
        "col2": "1985-11-21",
        "col3": "1987-01-17"
    },
    {
        "col0": "USNS Alatna",
        "col1": "1957-07-17",
        "col2": "1956-03-15",
        "col3": "1956-09-06"
    },
    {
        "col0": "USNS Aiken Victory",
        "col1": "1950-07-21",
        "col2": "1944-10-13",
        "col3": "1944-11-30"
    },
    {
        "col0": "USNS Adventurous",
        "col1": "1992-06-05",
        "col2": "1985-12-19",
        "col3": "1987-09-23"
    },
    {
        "col0": "USNS Able",
        "col1": "1992-07-22",
        "col2": "1989-03-23",
        "col3": "1991-02-16"
    },
    {
        "col0": "USCGC Westwind",
        "col1": "1945-02-21",
        "col2": "1942-08-24",
        "col3": "1943-03-31"
    },
    {
        "col0": "USCGC Vigorous",
        "col1": "1969-05-02",
        "col2": "1967-11-10",
        "col3": "1968-05-04"
    },
    {
        "col0": "USCGC Stratton",
        "col1": "2011-09-02",
        "col2": "2009-07-20",
        "col3": "2010-07-23"
    },
    {
        "col0": "USCGC Staten Island",
        "col1": "1951-12-19",
        "col2": "1942-06-09",
        "col3": "1942-12-28"
    },
    {
        "col0": "USCGC Southwind",
        "col1": "1945-03-25",
        "col2": "1942-07-20",
        "col3": "1943-03-08"
    },
    {
        "col0": "USCGC Gentian",
        "col1": "2007-10-15",
        "col2": "1941-10-03",
        "col3": "1942-05-23"
    },
    {
        "col0": "USCGC Bittersweet",
        "col1": "1997-09-05",
        "col2": "1943-09-16",
        "col3": "1943-11-11"
    },
    {
        "col0": "USCGC Alex Haley",
        "col1": "1999-07-10",
        "col2": "1967-03-28",
        "col3": "1968-05-15"
    },
    {
        "col0": "USC&GS Pioneer",
        "col1": "1922-04-07",
        "col2": "1917-11-14",
        "col3": "1918-11-14"
    },
    {
        "col0": "USC&GS Guide",
        "col1": "1923-01-23",
        "col2": "1917-10-18",
        "col3": "1918-08-24"
    }
]