[
    {
        "col0": "B. Geoffrion",
        "col1": "Georgia",
        "col2": "Montreal Canadiens",
        "col3": "2006-03-11"
    },
    {
        "col0": "B. Guidolin",
        "col1": "Canada",
        "col2": "Boston Bruins",
        "col3": "2008-11-24"
    },
    {
        "col0": "B. Akerblom",
        "col1": "Mora",
        "col2": "Djurgardens IF Hockey",
        "col3": "1995-10-15"
    },
    {
        "col0": "B. Bastien",
        "col1": "Pennsylvania",
        "col2": "Toronto Maple Leafs",
        "col3": "1983-03-15"
    },
    {
        "col0": "B. Wilkins",
        "col1": "United States",
        "col2": "Boston Bruins",
        "col3": "2011-06-26"
    },
    {
        "col0": "B. Tabobondung",
        "col1": "Canada",
        "col2": "American Hockey League",
        "col3": "2000-07-11"
    },
    {
        "col0": "B. Smith",
        "col1": "Tennessee",
        "col2": "Boston Bruins",
        "col3": "2013-09-07"
    },
    {
        "col0": "B. Potomski",
        "col1": "Canada",
        "col2": "Los Angeles Kings",
        "col3": "2011-05-24"
    },
    {
        "col0": "B. Ashbee",
        "col1": "Pennsylvania",
        "col2": "Boston Bruins",
        "col3": "1977-05-12"
    },
    {
        "col0": "B. Stanley",
        "col1": "Alberta",
        "col2": "Chicago Black Hawks",
        "col3": "1971-05-16"
    },
    {
        "col0": "B. Holden",
        "col1": "British Columbia",
        "col2": "Quebec Bulldogs",
        "col3": "1948-10-27"
    },
    {
        "col0": "B. Plager",
        "col1": "Missouri",
        "col2": "St. Louis Blues",
        "col3": "1988-02-06"
    },
    {
        "col0": "B. Siebert",
        "col1": "Canada",
        "col2": "Boston Bruins",
        "col3": "1939-08-25"
    },
    {
        "col0": "B. Pratt",
        "col1": "Canada",
        "col2": "Boston Bruins",
        "col3": "1988-12-16"
    },
    {
        "col0": "B. Dye",
        "col1": "Chicago",
        "col2": "Chicago Blackhawks",
        "col3": "1962-01-03"
    },
    {
        "col0": "B. Donnelly",
        "col1": "Canada",
        "col2": "Montreal Maroons",
        "col3": "1968-07-27"
    },
    {
        "col0": "B. J. Young",
        "col1": "British Columbia",
        "col2": "Detroit Red Wings",
        "col3": "2005-11-30"
    },
    {
        "col0": "A. Erickson",
        "col1": "California",
        "col2": "Boston Bruins",
        "col3": "2010-08-21"
    },
    {
        "col0": "A. Joliat",
        "col1": "Canada",
        "col2": "Montreal Canadiens",
        "col3": "1986-06-02"
    },
    {
        "col0": "A. Webster",
        "col1": "Canada",
        "col2": "Montreal Maroons",
        "col3": "1999-11-01"
    },
    {
        "col0": "A. Javanainen",
        "col1": "Finland",
        "col2": "National Hockey League",
        "col3": "2011-01-25"
    },
    {
        "col0": "A. Throop",
        "col1": "Canada",
        "col2": "Portland Rosebuds",
        "col3": "1973-06-24"
    },
    {
        "col0": "A. Sixsmith",
        "col1": "Florida",
        "col2": "Ottawa Senators",
        "col3": "1969-03-15"
    },
    {
        "col0": "A. Farrell",
        "col1": "Canada",
        "col2": "Montreal Shamrocks",
        "col3": "1909-02-07"
    },
    {
        "col0": "Arthur A. C. Moore",
        "col1": "Canada",
        "col2": "Montreal Hockey Club",
        "col3": "1935-01-07"
    },
    {
        "col0": "A. Yarchuk",
        "col1": "Russia",
        "col2": "Lokomotiv Yaroslavl",
        "col3": "2011-09-07"
    },
    {
        "col0": "A. Ross",
        "col1": "Medford, Massachusetts",
        "col2": "Montreal Wanderers",
        "col3": "1964-08-05"
    },
    {
        "col0": "A. Jackson",
        "col1": "Canada",
        "col2": "Boston Bruins",
        "col3": "1971-05-15"
    },
    {
        "col0": "A. Hodgins",
        "col1": "England",
        "col2": "Nottingham Panthers",
        "col3": "1988-3-1"
    },
    {
        "col0": "A. Giroux",
        "col1": "Alberta",
        "col2": "Boston Bruins",
        "col3": "1982-06-05"
    },
    {
        "col0": "A. Gagne",
        "col1": "British Columbia",
        "col2": "Boston Bruins",
        "col3": "1988-10-05"
    },
    {
        "col0": "A. Coulter",
        "col1": "Alabama",
        "col2": "Chicago Blackhawks",
        "col3": "2000-10-14"
    },
    {
        "col0": "A. Chapman",
        "col1": "Long Beach, California",
        "col2": "Boston Bruins",
        "col3": "1962-12-31"
    },
    {
        "col0": "A. Schmautz",
        "col1": "Oregon",
        "col2": "Victoria Cougars",
        "col3": "2016-09-13"
    },
    {
        "col0": "A. Raymond",
        "col1": "Canada",
        "col2": "Montreal Canadiens",
        "col3": "1993-01-22"
    },
    {
        "col0": "A. Lemieux",
        "col1": "Ontario",
        "col2": "Springfield Indians",
        "col3": "2015-12-30"
    },
    {
        "col0": "A. Gaudreault",
        "col1": "Canada",
        "col2": "Boston Bruins",
        "col3": "2013-07-02"
    },
    {
        "col0": "A. Wilcox",
        "col1": "Canada",
        "col2": "Boston Bruins",
        "col3": "1993-08-27"
    },
    {
        "col0": "A. McLean",
        "col1": "British Columbia",
        "col2": "Toronto Blueshirts",
        "col3": "1960-08-21"
    },
    {
        "col0": "A. Hooper",
        "col1": "Canada",
        "col2": "Montreal Hockey Club",
        "col3": "1904-10-11"
    },
    {
        "col0": "A. Atkinson",
        "col1": "Ottawa",
        "col2": "Montreal Wanderers",
        "col3": "1968-08-04"
    },
    {
        "col0": "A. Duford",
        "col1": "Canada",
        "col2": "Ottawa Senators",
        "col3": "1950-05-21"
    },
    {
        "col0": "A. D. Campbell",
        "col1": "Canada",
        "col2": "Cobalt Silver Kings",
        "col3": "1976-03-05"
    },
    {
        "col0": "A. Bathgate",
        "col1": "Canada",
        "col2": "National Hockey League",
        "col3": "2016-02-26"
    },
    {
        "col0": "A. Aitkenhead",
        "col1": "Oregon",
        "col2": "New York Rangers",
        "col3": "1968-10-21"
    },
    {
        "col0": "A. Binette",
        "col1": "Canada",
        "col2": "Montreal Canadiens",
        "col3": "2004-08-16"
    },
    {
        "col0": "A. Troschinsky",
        "col1": "Kazakhstan",
        "col2": "Metallurg Magnitogorsk",
        "col3": "2015-12-21"
    },
    {
        "col0": "A. Lomakin",
        "col1": "United States",
        "col2": "Eisbaren Berlin",
        "col3": "2006-12-09"
    },
    {
        "col0": "A. Gill",
        "col1": "Canada",
        "col2": "Boston Bruins",
        "col3": "2014-12-02"
    },
    {
        "col0": "A. Binette",
        "col1": "Canada",
        "col2": "Montreal Canadiens",
        "col3": "2004-08-16"
    },
    {
        "col0": "A. Andersson",
        "col1": "Sweden",
        "col2": "Farjestad BK",
        "col3": "1989-12-15"
    },
    {
        "col0": "A. Firsov",
        "col1": "Moscow",
        "col2": "HC CSKA Moscow",
        "col3": "2000-07-24"
    },
    {
        "col0": "A. Arbour",
        "col1": "Orillia",
        "col2": "Toronto St. Patricks",
        "col3": "1943-11-01"
    },
    {
        "col0": "A. Jones",
        "col1": "Florida",
        "col2": "Detroit Red Wings",
        "col3": "2007-08-23"
    },
    {
        "col0": "A. Fisher",
        "col1": "Canada",
        "col2": "Toronto St. Pats",
        "col3": "1937-03-01"
    },
    {
        "col0": "A. Sibbetts",
        "col1": "California",
        "col2": "Edmonton Eskimos",
        "col3": "1980-03-04"
    },
    {
        "col0": "A. Lacroix",
        "col1": "Maine",
        "col2": "Montreal Canadiens",
        "col3": "1973-04-12"
    },
    {
        "col0": "A. Jette",
        "col1": "Canada",
        "col2": "Montreal Canadiens",
        "col3": "1944-06-11"
    },
    {
        "col0": "A. Kuhn",
        "col1": "Germany",
        "col2": "EV Fussen",
        "col3": "1996-02-12"
    },
    {
        "col0": "A. Woodman",
        "col1": "Canada",
        "col2": "Winnipeg Falcons",
        "col3": "1963-04-17"
    },
    {
        "col0": "A. Stanley",
        "col1": "Canada",
        "col2": "Chicago Blackhawks",
        "col3": "2013-10-18"
    },
    {
        "col0": "A. Parr",
        "col1": "British Columbia",
        "col2": "Vancouver Millionaires",
        "col3": "1954-07-07"
    }
]