[
    {
        "col0": "Belgian railway line 94",
        "col1": "France",
        "col2": "Halle, Belgium",
        "col3": "78000"
    },
    {
        "col0": "Belgian railway line 75",
        "col1": "France",
        "col2": "Gent-Sint-Pieters railway station",
        "col3": "57000"
    },
    {
        "col0": "Belgian railway line 59",
        "col1": "Gent-Dampoort railway station",
        "col2": "Antwerp",
        "col3": "56000"
    },
    {
        "col0": "Belgian railway line 50A",
        "col1": "Ostend",
        "col2": "Brussels-South railway station",
        "col3": "114000"
    },
    {
        "col0": "Belgian railway line 50",
        "col1": "Gent-Sint-Pieters railway station",
        "col2": "Brussels-North railway station",
        "col3": "56000"
    },
    {
        "col0": "Belgian railway line 37",
        "col1": "Aachen Hauptbahnhof",
        "col2": "Liege-Guillemins railway station",
        "col3": "54000"
    },
    {
        "col0": "Belgian railway line 36",
        "col1": "Liege-Guillemins railway station",
        "col2": "Brussels-North railway station",
        "col3": "100000"
    },
    {
        "col0": "Belgian railway line 26",
        "col1": "Halle, Belgium",
        "col2": "Schaarbeek railway station",
        "col3": "28000"
    },
    {
        "col0": "Belgian railway line 25",
        "col1": "Antwerp",
        "col2": "Brussels-North railway station",
        "col3": "48000"
    },
    {
        "col0": "Belgian railway line 162",
        "col1": "Luxembourg",
        "col2": "Namur railway station",
        "col3": "147000"
    },
    {
        "col0": "Belgian railway line 161",
        "col1": "Namur railway station",
        "col2": "Brussels-North railway station",
        "col3": "62000"
    },
    {
        "col0": "Belgian railway line 15",
        "col1": "Hasselt",
        "col2": "Antwerp",
        "col3": "92000"
    },
    {
        "col0": "Belgian railway line 130A",
        "col1": "Erquelinnes",
        "col2": "Charleroi-South railway station",
        "col3": "29000"
    },
    {
        "col0": "Belgian railway line 130",
        "col1": "Charleroi-South railway station",
        "col2": "Namur railway station",
        "col3": "37000"
    },
    {
        "col0": "Belgian railway line 125",
        "col1": "Namur railway station",
        "col2": "Liege-Guillemins railway station",
        "col3": "60000"
    },
    {
        "col0": "Belgian railway line 124",
        "col1": "Charleroi-South railway station",
        "col2": "Brussels-South railway station",
        "col3": "56000"
    },
    {
        "col0": "Belair railway line",
        "col1": "Belair railway station",
        "col2": "Adelaide railway station",
        "col3": "21500"
    },
    {
        "col0": "Beijing-Tianjin Intercity Railway",
        "col1": "Tianjin Railway Station",
        "col2": "Beijing South Railway Station",
        "col3": "44000"
    },
    {
        "col0": "Beijing-Tangshan Intercity Railway",
        "col1": "Tangshan Railway Station",
        "col2": "Beijing Railway Station",
        "col3": "163000"
    },
    {
        "col0": "Beijing-Shijiazhuang High-Speed Railway",
        "col1": "Shijiazhuang Railway Station",
        "col2": "Beijing West Railway Station",
        "col3": "281000"
    },
    {
        "col0": "Beijing-Shanghai Railway",
        "col1": "Shanghai Railway Station",
        "col2": "Beijing Railway Station",
        "col3": "1462000"
    },
    {
        "col0": "Beijing-Shanghai High-Speed Railway",
        "col1": "Shanghai Hongqiao Railway Station",
        "col2": "Beijing South Railway Station",
        "col3": "1302000"
    },
    {
        "col0": "Beijing-Qinhuangdao Railway",
        "col1": "Qinhuangdao",
        "col2": "Beijing",
        "col3": "294000"
    },
    {
        "col0": "Beijing-Kowloon Railway",
        "col1": "Hung Hom Station",
        "col2": "Beijing West Railway Station",
        "col3": "2311000"
    },
    {
        "col0": "Beijing-Harbin High-Speed Railway",
        "col1": "Harbin West Railway Station",
        "col2": "Beijing South Railway Station",
        "col3": "1700000"
    },
    {
        "col0": "Beijing-Guangzhou-Shenzhen-Hong Kong High-Speed Railway",
        "col1": "West Kowloon Terminus",
        "col2": "Beijing West Railway Station",
        "col3": "2230000"
    },
    {
        "col0": "Beijing-Guangzhou Railway",
        "col1": "Guangzhou",
        "col2": "Beijing",
        "col3": "2324000"
    },
    {
        "col0": "Beijing Underground Cross City Railway",
        "col1": "Beijing West Railway Station",
        "col2": "Beijing Railway Station",
        "col3": "9156"
    },
    {
        "col0": "Beijing-Zhangjiakou Intercity Railway",
        "col1": "Zhangjiakou South Railway Station",
        "col2": "Beijing North Railway Station",
        "col3": "173947"
    },
    {
        "col0": "Beijing-Tianjin Intercity Railway",
        "col1": "Tianjin Railway Station",
        "col2": "Beijing South Railway Station",
        "col3": "44000"
    },
    {
        "col0": "Beijing-Tangshan Intercity Railway",
        "col1": "Tangshan Railway Station",
        "col2": "Beijing Railway Station",
        "col3": "163000"
    },
    {
        "col0": "Beijing-Shijiazhuang High-Speed Railway",
        "col1": "Shijiazhuang Railway Station",
        "col2": "Beijing West Railway Station",
        "col3": "281000"
    },
    {
        "col0": "Beijing-Shanghai Railway",
        "col1": "Shanghai Railway Station",
        "col2": "Beijing Railway Station",
        "col3": "1462000"
    },
    {
        "col0": "Beijing-Shanghai High-Speed Railway",
        "col1": "Shanghai Hongqiao Railway Station",
        "col2": "Beijing South Railway Station",
        "col3": "1302000"
    },
    {
        "col0": "Beijing-Qinhuangdao Railway",
        "col1": "Qinhuangdao",
        "col2": "Beijing",
        "col3": "294000"
    },
    {
        "col0": "Beijing-Kowloon Railway",
        "col1": "Hung Hom Station",
        "col2": "Beijing West Railway Station",
        "col3": "2311000"
    },
    {
        "col0": "Beijing-Harbin High-Speed Railway",
        "col1": "Harbin West Railway Station",
        "col2": "Beijing South Railway Station",
        "col3": "1700000"
    },
    {
        "col0": "Beijing-Guangzhou Railway",
        "col1": "Guangzhou",
        "col2": "Beijing",
        "col3": "2324000"
    },
    {
        "col0": "Beijing-Guangzhou-Shenzhen-Hong Kong High-Speed Railway",
        "col1": "West Kowloon Terminus",
        "col2": "Beijing West Railway Station",
        "col3": "2230000"
    },
    {
        "col0": "Beenleigh railway line",
        "col1": "Beenleigh",
        "col2": "Park Road railway station, Brisbane",
        "col3": "41595"
    },
    {
        "col0": "Bebra-Gottingen railway",
        "col1": "Bebra station",
        "col2": "Gottingen station",
        "col3": "80500"
    },
    {
        "col0": "Bebra-Baunatal-Guntershausen railway",
        "col1": "Baunatal",
        "col2": "Bebra station",
        "col3": "44300"
    },
    {
        "col0": "Bebra-Gottingen railway",
        "col1": "Bebra station",
        "col2": "Gottingen station",
        "col3": "80500"
    },
    {
        "col0": "Bebra-Baunatal-Guntershausen railway",
        "col1": "Baunatal",
        "col2": "Bebra station",
        "col3": "44300"
    },
    {
        "col0": "Beach Pneumatic Transit",
        "col1": "Broadway",
        "col2": "Broadway",
        "col3": "95"
    },
    {
        "col0": "Bayonne-Saint-Jean-Pied-de-Port railway",
        "col1": "Gare de Saint-Jean-Pied-de-Port",
        "col2": "Gare de Bayonne",
        "col3": "52000"
    },
    {
        "col0": "Bautzen-Bad Schandau railway",
        "col1": "Bad Schandau railway station",
        "col2": "Bautzen railway station",
        "col3": "64000"
    },
    {
        "col0": "Battipaglia-Reggio di Calabria railway",
        "col1": "Reggio di Calabria",
        "col2": "Battipaglia",
        "col3": "374000"
    },
    {
        "col0": "Battipaglia-Metaponto railway",
        "col1": "Metaponto railway station",
        "col2": "Battipaglia railway station",
        "col3": "198000"
    },
    {
        "col0": "Battipaglia-Reggio di Calabria railway",
        "col1": "Reggio di Calabria",
        "col2": "Battipaglia",
        "col3": "374000"
    },
    {
        "col0": "Battipaglia-Metaponto railway",
        "col1": "Metaponto railway station",
        "col2": "Battipaglia railway station",
        "col3": "198000"
    },
    {
        "col0": "Batong Line, Beijing Subway",
        "col1": "Tuqiao Station",
        "col2": "Sihui Station",
        "col3": "18900"
    },
    {
        "col0": "Basel Connecting Line",
        "col1": "Basel Badischer Bahnhof",
        "col2": "Bahnhof Basel SBB",
        "col3": "4400"
    },
    {
        "col0": "Bari-Taranto railway",
        "col1": "Taranto",
        "col2": "Bari",
        "col3": "104000"
    },
    {
        "col0": "Bari-Martina Franca-Taranto railway",
        "col1": "Taranto",
        "col2": "Bari",
        "col3": "113000"
    },
    {
        "col0": "Bari-Casamassima-Putignano railway",
        "col1": "Putignano",
        "col2": "Bari",
        "col3": "43000"
    },
    {
        "col0": "Bari-Taranto railway",
        "col1": "Taranto",
        "col2": "Bari",
        "col3": "104000"
    },
    {
        "col0": "Bari-Martina Franca-Taranto railway",
        "col1": "Taranto",
        "col2": "Bari",
        "col3": "113000"
    },
    {
        "col0": "Barharwa-Azimganj-Katwa loop",
        "col1": "Katwa railway station",
        "col2": "Barharwa Junction railway station",
        "col3": "170000"
    },
    {
        "col0": "Bardhaman-Asansol section",
        "col1": "Asansol railway station",
        "col2": "Bardhaman railway station",
        "col3": "106000"
    },
    {
        "col0": "Barcelona-Valles Line",
        "col1": "Avinguda Tibidabo",
        "col2": "Placa de Catalunya station",
        "col3": "48100"
    },
    {
        "col0": "Barcelona-Cerbere railway",
        "col1": "Gare de Cerbere",
        "col2": "Barcelona Franca railway station",
        "col3": "168100"
    },
    {
        "col0": "Barcelona-Valles Line",
        "col1": "Avinguda Tibidabo",
        "col2": "Placa de Catalunya station",
        "col3": "48100"
    },
    {
        "col0": "Barcelona-Cerbere railway",
        "col1": "Gare de Cerbere",
        "col2": "Barcelona Franca railway station",
        "col3": "168100"
    },
    {
        "col0": "Barauni-Samastipur section",
        "col1": "Samastipur Junction railway station",
        "col2": "Barauni Junction railway station",
        "col3": "50540"
    },
    {
        "col0": "Barauni-Katihar section",
        "col1": "Katihar railway station",
        "col2": "Barauni Junction railway station",
        "col3": "185000"
    },
    {
        "col0": "Barauni-Guwahati line",
        "col1": "Guwahati Junction",
        "col2": "Barauni",
        "col3": "804000"
    },
    {
        "col0": "Barauni-Samastipur section",
        "col1": "Samastipur Junction railway station",
        "col2": "Barauni Junction railway station",
        "col3": "50540"
    },
    {
        "col0": "Barauni-Katihar section",
        "col1": "Katihar railway station",
        "col2": "Barauni Junction railway station",
        "col3": "185000"
    },
    {
        "col0": "Barauni-Guwahati line",
        "col1": "Guwahati Junction",
        "col2": "Barauni",
        "col3": "804000"
    },
    {
        "col0": "Baoji-Lanzhou High-Speed Railway",
        "col1": "Lanzhou",
        "col2": "Baoji",
        "col3": "401000"
    },
    {
        "col0": "Bantan Line",
        "col1": "Wadayama Station",
        "col2": "Himeji, Hyogo",
        "col3": "65700"
    },
    {
        "col0": "Banqiao Line, Taipei Metro",
        "col1": "Fuzhong Station",
        "col2": "Ximen Station",
        "col3": "7200"
    },
    {
        "col0": "Bankura-Masagram line",
        "col1": "Masagram railway station",
        "col2": "Bankura",
        "col3": "116000"
    },
    {
        "col0": "Bankura Damodar Railway",
        "col1": "Raina, Bardhaman",
        "col2": "Bankura",
        "col3": "97000"
    },
    {
        "col0": "Bankura-Masagram line",
        "col1": "Masagram railway station",
        "col2": "Bankura",
        "col3": "116000"
    },
    {
        "col0": "Baltimore - Washington D.C. Maglev",
        "col1": "Union Station",
        "col2": "Camden Station",
        "col3": "64051"
    },
    {
        "col0": "Baltimore Metro Subway",
        "col1": "Johns Hopkins Hospital",
        "col2": "Owings Mills",
        "col3": "24800"
    },
    {
        "col0": "Baltimore - Washington D.C. Maglev",
        "col1": "Union Station",
        "col2": "Camden Station",
        "col3": "64051"
    },
    {
        "col0": "Balranald railway line",
        "col1": "Balranald, New South Wales",
        "col2": "Barnes, New South Wales",
        "col3": "193530"
    },
    {
        "col0": "Balboa",
        "col1": "Balboa Peninsula, Newport Beach, California",
        "col2": "Pacific Electric Building",
        "col3": "63826"
    },
    {
        "col0": "Balatonfenyves Narrow Gauge Railway",
        "col1": "Somogyszentpal",
        "col2": "Balatonfenyves",
        "col3": "13000"
    },
    {
        "col0": "Balaklava-Moonta railway line",
        "col1": "Moonta",
        "col2": "Balaklava, South Australia",
        "col3": "109400"
    },
    {
        "col0": "Bakhtiyarpur-Tilaiya line",
        "col1": "Tilaiya railway station",
        "col2": "Bakhtiyarpur Junction railway station",
        "col3": "100000"
    },
    {
        "col0": "BaT Tunnel",
        "col1": "Bowen Hills railway station",
        "col2": "Dutton Park railway station",
        "col3": "4000"
    },
    {
        "col0": "BVZ Zermatt-Bahn",
        "col1": "Zermatt",
        "col2": "Brig",
        "col3": "43985"
    },
    {
        "col0": "BNSF Railway",
        "col1": "Aurora",
        "col2": "Union Station",
        "col3": "60350"
    },
    {
        "col0": "Avenza-Carrara railway",
        "col1": "Carrara",
        "col2": "Avenza",
        "col3": "4499000"
    },
    {
        "col0": "Ausserfern Railway",
        "col1": "Kempten",
        "col2": "Garmisch-Partenkirchen station",
        "col3": "93900"
    },
    {
        "col0": "Aunrihar-Kirakat-Jaunpur Line",
        "col1": "Jaunpur Junction Railway Station",
        "col2": "Aunrihar Junction",
        "col3": "62000"
    },
    {
        "col0": "Athens Airport-Kiato railway",
        "col1": "Kiato station",
        "col2": "Athens International Airport \"Eleftherios Venizelos\"",
        "col3": "135000"
    },
    {
        "col0": "Asker Line",
        "col1": "Asker Station",
        "col2": "Lysaker Station",
        "col3": "9500"
    },
    {
        "col0": "Ashmont-Mattapan High Speed Line",
        "col1": "Mattapan",
        "col2": "Ashmont",
        "col3": "4087"
    },
    {
        "col0": "Ashland branch",
        "col1": "Ashland/63rd",
        "col2": "Halsted",
        "col3": "4828"
    },
    {
        "col0": "Asansol-Patna section",
        "col1": "Patna Junction railway station",
        "col2": "Asansol railway station",
        "col3": "331000"
    },
    {
        "col0": "Asansol-Gaya section",
        "col1": "Gaya Junction railway station",
        "col2": "Asansol railway station",
        "col3": "267000"
    },
    {
        "col0": "Asansol-Patna section",
        "col1": "Patna Junction railway station",
        "col2": "Asansol railway station",
        "col3": "331000"
    },
    {
        "col0": "Asansol-Gaya section",
        "col1": "Gaya Junction railway station",
        "col2": "Asansol railway station",
        "col3": "267000"
    },
    {
        "col0": "Arras-Dunkirk railway",
        "col1": "Gare de Dunkerque",
        "col2": "Gare d'Arras",
        "col3": "113000"
    },
    {
        "col0": "Arona-Novara railway",
        "col1": "Novara",
        "col2": "Arona, Piedmont",
        "col3": "105000"
    },
    {
        "col0": "Arnhem-Nijmegen railway",
        "col1": "Nijmegen railway station",
        "col2": "Arnhem railway station",
        "col3": "17000"
    },
    {
        "col0": "Arnhem-Leeuwarden railway",
        "col1": "Leeuwarden railway station",
        "col2": "Arnhem railway station",
        "col3": "166000"
    },
    {
        "col0": "Arnhem-Nijmegen railway",
        "col1": "Nijmegen railway station",
        "col2": "Arnhem railway station",
        "col3": "17000"
    },
    {
        "col0": "Arnhem-Leeuwarden railway",
        "col1": "Leeuwarden railway station",
        "col2": "Arnhem railway station",
        "col3": "166000"
    },
    {
        "col0": "Arlberg railway",
        "col1": "Bludenz railway station",
        "col2": "Innsbruck Hauptbahnhof",
        "col3": "136700"
    },
    {
        "col0": "Arlanda Line",
        "col1": "Marsta",
        "col2": "Rosersberg",
        "col3": "19000"
    },
    {
        "col0": "Arlanda Express",
        "col1": "Stockholm Arlanda Airport",
        "col2": "Stockholm Central Station",
        "col3": "39000"
    },
    {
        "col0": "Argentine North Eastern Railway",
        "col1": "Posadas, Misiones",
        "col2": "Concordia, Entre Rios",
        "col3": "1212000"
    },
    {
        "col0": "Arendal Line",
        "col1": "Arendal Station",
        "col2": "Nelaug Station",
        "col3": "37000"
    },
    {
        "col0": "Arbatsko-Pokrovskaya Line",
        "col1": "Shchyolkovskaya",
        "col2": "Pyatnitskoye Shosse",
        "col3": "45100"
    },
    {
        "col0": "Apeldoorn-Zwolle railway",
        "col1": "Zwolle railway station",
        "col2": "Apeldoorn railway station",
        "col3": "36700"
    },
    {
        "col0": "Apeldoorn-Deventer railway",
        "col1": "Deventer railway station",
        "col2": "Apeldoorn railway station",
        "col3": "15000"
    },
    {
        "col0": "Apeldoorn-Zwolle railway",
        "col1": "Zwolle railway station",
        "col2": "Apeldoorn railway station",
        "col3": "36700"
    },
    {
        "col0": "Apeldoorn-Deventer railway",
        "col1": "Deventer railway station",
        "col2": "Apeldoorn railway station",
        "col3": "15000"
    },
    {
        "col0": "Antwerp-Lage Zwaluwe railway",
        "col1": "Lage Zwaluwe railway station",
        "col2": "Antwerpen-Centraal railway station",
        "col3": "64000"
    },
    {
        "col0": "Antelope Valley Line",
        "col1": "Lancaster",
        "col2": "Union Station",
        "col3": "123275"
    },
    {
        "col0": "Ansan Line",
        "col1": "Oido Station",
        "col2": "Geumjeong Station",
        "col3": "26000"
    },
    {
        "col0": "Ankara-Sivas high-speed railway",
        "col1": "Sivas",
        "col2": "Ankara railway station",
        "col3": "406000"
    },
    {
        "col0": "Ankara-Istanbul high-speed railway",
        "col1": "Constantinople",
        "col2": "Ankara Central Station",
        "col3": "533000"
    },
    {
        "col0": "Ankara-Sivas high-speed railway",
        "col1": "Sivas",
        "col2": "Ankara railway station",
        "col3": "406000"
    },
    {
        "col0": "Ankara-Istanbul high-speed railway",
        "col1": "Constantinople",
        "col2": "Ankara Central Station",
        "col3": "533000"
    },
    {
        "col0": "Anhalt Suburban Line",
        "col1": "Lichterfelde Sud station",
        "col2": "Berlin",
        "col3": "14900"
    },
    {
        "col0": "Angren-Pap railway line",
        "col1": "Pap, Uzbekistan",
        "col2": "Angren, Uzbekistan",
        "col3": "123000"
    },
    {
        "col0": "Andal-Sainthia branch line",
        "col1": "Sainthia Junction",
        "col2": "Andal, Bardhaman",
        "col3": "73000"
    },
    {
        "col0": "Ancona-Orte railway",
        "col1": "Orte",
        "col2": "Ancona",
        "col3": "212000"
    },
    {
        "col0": "Amsterdam-Zutphen railway",
        "col1": "Zutphen railway station",
        "col2": "Amsterdam Centraal railway station",
        "col3": "106000"
    },
    {
        "col0": "Amsterdam-Schiphol railway",
        "col1": "Schiphol railway station",
        "col2": "Amsterdam Centraal railway station",
        "col3": "17100"
    },
    {
        "col0": "Amsterdam-Haarlem-Rotterdam railway",
        "col1": "Rotterdam Centraal railway station",
        "col2": "Amsterdam Centraal railway station",
        "col3": "86000"
    },
    {
        "col0": "Amsterdam-Arnhem railway",
        "col1": "Arnhem railway station",
        "col2": "Amsterdam Centraal railway station",
        "col3": "118600"
    },
    {
        "col0": "Amsterdam-Zutphen railway",
        "col1": "Zutphen railway station",
        "col2": "Amsterdam Centraal railway station",
        "col3": "106000"
    },
    {
        "col0": "Amsterdam-Schiphol railway",
        "col1": "Schiphol railway station",
        "col2": "Amsterdam Centraal railway station",
        "col3": "17100"
    },
    {
        "col0": "Amsterdam-Haarlem-Rotterdam railway",
        "col1": "Rotterdam Centraal railway station",
        "col2": "Amsterdam Centraal railway station",
        "col3": "86000"
    },
    {
        "col0": "Amsterdam-Arnhem railway",
        "col1": "Arnhem railway station",
        "col2": "Amsterdam Centraal railway station",
        "col3": "118600"
    },
    {
        "col0": "Ammer Valley Railway",
        "col1": "Herrenberg",
        "col2": "Landkreis Tubingen",
        "col3": "21400"
    },
    {
        "col0": "Amiens-Rouen railway",
        "col1": "Gare de Rouen-Rive-Droite",
        "col2": "Gare d'Amiens",
        "col3": "114000"
    },
    {
        "col0": "Alum Rock-Santa Teresa",
        "col1": "Santa Teresa",
        "col2": "Alum Rock Transit Center",
        "col3": "38946"
    },
    {
        "col0": "Altdorf-Fluelen tramway",
        "col1": "Fluelen",
        "col2": "Altdorf, Uri",
        "col3": "3100"
    },
    {
        "col0": "Alna Line",
        "col1": "Grefsen Station",
        "col2": "Alnabru Station",
        "col3": "4300"
    },
    {
        "col0": "Almelo-Salzbergen railway",
        "col1": "Salzbergen railway station",
        "col2": "Almelo railway station",
        "col3": "54500"
    },
    {
        "col0": "Allahabad-Mau-Gorakhpur Main Line",
        "col1": "Gorakhpur Junction",
        "col2": "Allahabad Junction",
        "col3": "330720"
    },
    {
        "col0": "Alishan Forest Railway",
        "col1": "Alishan Station",
        "col2": "Chiayi Station",
        "col3": "86000"
    },
    {
        "col0": "Aliaga branch",
        "col1": "Aliaga",
        "col2": "Menemen railway station",
        "col3": "25000"
    },
    {
        "col0": "Alberta Coal Branch",
        "col1": "Brazeau River",
        "col2": "Alberta Highway 16",
        "col3": "91732"
    },
    {
        "col0": "Ako Line",
        "col1": "Higashi-Okayama Station",
        "col2": "Aioi Station",
        "col3": "57400"
    }
]