[
    {
        "col0": "S. Oliveira",
        "col1": "Brazil",
        "col2": "Brazil women's national volleyball team",
        "col3": "Curitiba",
        "col4": "1987-04-29"
    },
    {
        "col0": "S. Pinto",
        "col1": "Brazil",
        "col2": "Brazil women's national volleyball team",
        "col3": "Belo Horizonte",
        "col4": "1987-10-04"
    },
    {
        "col0": "S. Volle",
        "col1": "France",
        "col2": "France women's national volleyball team",
        "col3": "Montpellier",
        "col4": "1979-05-10"
    },
    {
        "col0": "S. Tolar",
        "col1": "France",
        "col2": "France men's national volleyball team",
        "col3": "Saint-Louis, Reunion",
        "col4": "1984-07-04"
    },
    {
        "col0": "S. Faure",
        "col1": "France",
        "col2": "France men's national volleyball team",
        "col3": "Paris",
        "col4": "1957-01-11"
    },
    {
        "col0": "S. Nenchev",
        "col1": "Bulgaria",
        "col2": "Bulgaria men's national volleyball team",
        "col3": "Sliven",
        "col4": "1984-11-25"
    },
    {
        "col0": "S. Morales",
        "col1": "Puerto Rico",
        "col2": "Puerto Rico men's national volleyball team",
        "col3": "San Juan, Puerto Rico",
        "col4": "1992-04-07"
    },
    {
        "col0": "S. Marshall",
        "col1": "Canada",
        "col2": "Canada men's national volleyball team",
        "col3": "Abbotsford, British Columbia",
        "col4": "1989-11-23"
    },
    {
        "col0": "S. Keir",
        "col1": "Australia",
        "col2": "Australia women's national volleyball team",
        "col3": "Bundaberg",
        "col4": "1979-11-08"
    },
    {
        "col0": "S. T. Maar",
        "col1": "Canada",
        "col2": "Canada men's national volleyball team",
        "col3": "Ontario",
        "col4": "1994-12-06"
    },
    {
        "col0": "S. Prosalikas",
        "col1": "Greece",
        "col2": "Greece men's national volleyball team",
        "col3": "Athens",
        "col4": "1953-02-02"
    },
    {
        "col0": "S. Polyzos",
        "col1": "Greece",
        "col2": "Greece men's national volleyball team",
        "col3": "Karditsa",
        "col4": "1953-07-15"
    },
    {
        "col0": "S. Patriarca",
        "col1": "Italy",
        "col2": "Italy men's national volleyball team",
        "col3": "Agnone",
        "col4": "1987-07-23"
    },
    {
        "col0": "S. Mengozzi",
        "col1": "Italy",
        "col2": "Italy men's national volleyball team",
        "col3": "Ravenna",
        "col4": "1985-05-06"
    },
    {
        "col0": "S. Sansonna",
        "col1": "Italy",
        "col2": "Italy women's national volleyball team",
        "col3": "Canosa di Puglia",
        "col4": "1982-11-01"
    },
    {
        "col0": "S. Paccagnella",
        "col1": "Italy",
        "col2": "Italy women's national volleyball team",
        "col3": "Campo San Martino",
        "col4": "1973-08-03"
    },
    {
        "col0": "S. Dall'Igna",
        "col1": "Italy",
        "col2": "Italy women's national volleyball team",
        "col3": "Busto Arsizio",
        "col4": "1984-11-22"
    },
    {
        "col0": "S. Petkov",
        "col1": "Bulgaria",
        "col2": "Bulgaria men's national volleyball team",
        "col3": "Plovdiv",
        "col4": "1987-12-31"
    },
    {
        "col0": "S. Volle",
        "col1": "France",
        "col2": "France women's national volleyball team",
        "col3": "Montpellier",
        "col4": "1979-05-10"
    },
    {
        "col0": "S. Tolar",
        "col1": "France",
        "col2": "France men's national volleyball team",
        "col3": "Saint-Louis, Reunion",
        "col4": "1984-07-04"
    },
    {
        "col0": "S. Faure",
        "col1": "France",
        "col2": "France men's national volleyball team",
        "col3": "Paris",
        "col4": "1957-01-11"
    },
    {
        "col0": "S. Mikyskova",
        "col1": "Czech Republic",
        "col2": "Czech Republic women's national volleyball team",
        "col3": "Brno",
        "col4": "1989-05-02"
    },
    {
        "col0": "S. Vengadan",
        "col1": "India",
        "col2": "India women's national volleyball team",
        "col3": "Kerala",
        "col4": "1990-05-20"
    },
    {
        "col0": "S. Amarianakis",
        "col1": "Greece",
        "col2": "Greece men's national volleyball team",
        "col3": "Thessaloniki",
        "col4": "1965-6-13"
    },
    {
        "col0": "S. Pantaleon",
        "col1": "Greece women's national volleyball team",
        "col2": "Greece women's national volleyball team",
        "col3": "Athens",
        "col4": "1980-06-21"
    },
    {
        "col0": "S. Phomla",
        "col1": "Thailand",
        "col2": "Thailand women's national volleyball team",
        "col3": "Thailand",
        "col4": "1992-08-06"
    },
    {
        "col0": "S. v. Gestel",
        "col1": "Netherlands",
        "col2": "Netherlands",
        "col3": "Oirschot",
        "col4": "1991-06-29"
    },
    {
        "col0": "S. Thottangal",
        "col1": "India",
        "col2": "India women's national volleyball team",
        "col3": "Kerala",
        "col4": "1989-08-23"
    },
    {
        "col0": "S. Keawbundit",
        "col1": "Thailand",
        "col2": "Thailand women's national volleyball team",
        "col3": "Thailand",
        "col4": "1991-09-02"
    }
]