[
    {
        "col0": "RBD: La familia",
        "col1": "Pedro Damian",
        "col2": "C. Chavez",
        "col3": "2007-06-13"
    },
    {
        "col0": "R.C.M.P.",
        "col1": "Harry Horner",
        "col2": "D. Francks",
        "col3": "1960-07-12"
    },
    {
        "col0": "Quizmania",
        "col1": "FremantleMedia Australia",
        "col2": "N. Osborne",
        "col3": "2007-06-24"
    },
    {
        "col0": "Quiller",
        "col1": "Peter Graham Scott",
        "col2": "M. Jayston",
        "col3": "1975-11-28"
    },
    {
        "col0": "Quererte asi",
        "col1": "Gerardo Zurita",
        "col2": "B. Paz",
        "col3": "2012-08-03"
    },
    {
        "col0": "Queer as Folk",
        "col1": "Russell T Davies",
        "col2": "A. Gillen",
        "col3": "2000-02-22"
    },
    {
        "col0": "Qubool Hai",
        "col1": "Gul Khan",
        "col2": "Q. Hai",
        "col3": "2016-01-23"
    },
    {
        "col0": "Quatermass II",
        "col1": "Rudolph Cartier",
        "col2": "H. Griffith",
        "col3": "1955-11-26"
    },
    {
        "col0": "Quatermass",
        "col1": "Ted Childs",
        "col2": "B. Mason",
        "col3": "1979-11-14"
    },
    {
        "col0": "Quarterlife",
        "col1": "Edward Zwick",
        "col2": "S. M. Foster",
        "col3": "2008-03-09"
    },
    {
        "col0": "Quantum Leap",
        "col1": "Donald P. Bellisario",
        "col2": "D. Stockwell",
        "col3": "1993-05-05"
    },
    {
        "col0": "Pyarey Afzal",
        "col1": "Six Sigma Entertainment",
        "col2": "H. A. Abbasi",
        "col3": "2014-08-12"
    },
    {
        "col0": "Pyaar Mein Twist",
        "col1": "Asit Kumarr Modi",
        "col2": "R. Chopra",
        "col3": "2011-06-05"
    },
    {
        "col0": "Pyaar Ko Ho Jaane Do",
        "col1": "Ekta Kapoor",
        "col2": "M. Singh",
        "col3": "2016-01-29"
    },
    {
        "col0": "Pyaar Kii Ye Ek Kahaani",
        "col1": "Ekta Kapoor",
        "col2": "Pyaar Kii Ye Ek Kahaani",
        "col3": "2011-12-15"
    },
    {
        "col0": "Pyaar Ka Dard Hai Meetha Meetha Pyaara Pyaara",
        "col1": "Kavita K. Barjatya",
        "col2": "Pyaar Ka Dard Hai Meetha Meetha Pyaara Pyaara",
        "col3": "2014-11-01"
    },
    {
        "col0": "Pyaar Ka Bandhan",
        "col1": "Shobha Kapoor",
        "col2": "P. K. Bandhan",
        "col3": "2010-04-28"
    },
    {
        "col0": "Puso ng Pasko: Artista Challenge",
        "col1": "GMA Network",
        "col2": "V. Morales",
        "col3": "2010-12-31"
    },
    {
        "col0": "Puppets Who Kill",
        "col1": "Shawn Alex Thompson",
        "col2": "D. Redican",
        "col3": "2006-06-22"
    },
    {
        "col0": "Pukaar",
        "col1": "Vipul Amrutlal Shah",
        "col2": "R. Singh",
        "col3": "2015-02-10"
    },
    {
        "col0": "Psych",
        "col1": "Dule Hill",
        "col2": "M. Lawson",
        "col3": "2014-03-26"
    },
    {
        "col0": "Project Runway Australia",
        "col1": "FremantleMedia Australia",
        "col2": "P. Morrissey",
        "col3": "2012-12-17"
    },
    {
        "col0": "Privileged",
        "col1": "Michael Reisz",
        "col2": "A. Archer",
        "col3": "2009-02-24"
    },
    {
        "col0": "Private Benjamin",
        "col1": "James R. Stein",
        "col2": "W. J. Sperber",
        "col3": "1983-01-10"
    },
    {
        "col0": "Pritam Pyare Aur Woh",
        "col1": "Sanjeev Sharma",
        "col2": "S. Sagar",
        "col3": "2014-08-01"
    },
    {
        "col0": "Prisoners of Gravity",
        "col1": "Jamie Mandelkau",
        "col2": "R. Green",
        "col3": "1994-04-28"
    },
    {
        "col0": "Primeval",
        "col1": "Cameron McAllister",
        "col2": "H. Spearritt",
        "col3": "2011-06-28"
    },
    {
        "col0": "Prime Suspect",
        "col1": "WGBH-TV",
        "col2": "H. Mirren",
        "col3": "2006-10-22"
    },
    {
        "col0": "Pride and Prejudice",
        "col1": "Sue Birtwistle",
        "col2": "C. Firth",
        "col3": "1995-10-29"
    },
    {
        "col0": "Pride and Prejudice",
        "col1": "Jonathan Powell",
        "col2": "D. Rintoul",
        "col3": "1980-02-10"
    },
    {
        "col0": "Presidio Med",
        "col1": "Nell Scovell",
        "col2": "J. Nicholson",
        "col3": "2003-01-24"
    },
    {
        "col0": "Preciosa",
        "col1": "Nicandro Diaz Gonzalez",
        "col2": "F. Gattorno",
        "col3": "1998-08-28"
    },
    {
        "col0": "Pradhanmantri",
        "col1": "ABP News",
        "col2": "S. Kapur",
        "col3": "2014-01-04"
    },
    {
        "col0": "Power Rangers in Space",
        "col1": "Jonathan Tzachor",
        "col2": "J. Narvy",
        "col3": "1998-11-21"
    },
    {
        "col0": "Power Rangers Zeo",
        "col1": "Jonathan Tzachor",
        "col2": "J. Narvy",
        "col3": "1996-11-27"
    },
    {
        "col0": "Power Rangers Wild Force",
        "col1": "Jonathan Tzachor",
        "col2": "J. Rey",
        "col3": "2002-11-16"
    },
    {
        "col0": "Power Rangers Turbo",
        "col1": "Jonathan Tzachor",
        "col2": "J. Narvy",
        "col3": "1997-11-24"
    },
    {
        "col0": "Power Rangers Time Force",
        "col1": "Jonathan Tzachor",
        "col2": "E. Albert",
        "col3": "2001-11-17"
    },
    {
        "col0": "Power Rangers S.P.D.",
        "col1": "Charles Knight",
        "col2": "B. J. McLaren",
        "col3": "2005-11-14"
    },
    {
        "col0": "Power Rangers RPM",
        "col1": "Jackie Marchand",
        "col2": "A. Boyland",
        "col3": "2009-12-26"
    },
    {
        "col0": "Power Rangers Operation Overdrive",
        "col1": "Charles Knight",
        "col2": "R. Montemayor",
        "col3": "2007-11-12"
    },
    {
        "col0": "Power Rangers Ninja Storm",
        "col1": "Koichi Sakamoto",
        "col2": "G. McMillan",
        "col3": "2003-11-15"
    },
    {
        "col0": "Power Rangers Mystic Force",
        "col1": "Charles Knight",
        "col2": "R. Brancatisano",
        "col3": "2006-11-13"
    },
    {
        "col0": "Power Rangers Lost Galaxy",
        "col1": "Jonathan Tzachor",
        "col2": "A. Kao",
        "col3": "1999-12-18"
    },
    {
        "col0": "Power Rangers Lightspeed Rescue",
        "col1": "Jonathan Tzachor",
        "col2": "K. Robinson",
        "col3": "2000-11-18"
    },
    {
        "col0": "Power Rangers Jungle Fury",
        "col1": "Jackie Marchand",
        "col2": "J. Smith",
        "col3": "2008-11-03"
    },
    {
        "col0": "Power Rangers Dino Thunder",
        "col1": "Koichi Sakamoto",
        "col2": "J. D. Frank",
        "col3": "2004-11-20"
    },
    {
        "col0": "Powder",
        "col1": "Yash Chopra",
        "col2": "P. Tripathi",
        "col3": "2010-06-24"
    },
    {
        "col0": "Posh Nosh",
        "col1": "Gareth Edwards",
        "col2": "R. E. Grant",
        "col3": "2003-04-22"
    },
    {
        "col0": "Porterhouse Blue",
        "col1": "Brian Eastman",
        "col2": "I. Richardson",
        "col3": "1987-06-24"
    },
    {
        "col0": "Porridge",
        "col1": "Sydney Lotterby",
        "col2": "F. Mackay",
        "col3": "1977-03-25"
    },
    {
        "col0": "Porkpie",
        "col1": "Humphrey Barclay",
        "col2": "R. J. Holder",
        "col3": "1996-09-26"
    },
    {
        "col0": "Poncho Balon",
        "col1": "Carlos Cuaron",
        "col2": "H. Velez",
        "col3": "2006-07-05"
    },
    {
        "col0": "Pompidou",
        "col1": "Charlie Hanson",
        "col2": "M. Lucas",
        "col3": "2015-04-05"
    },
    {
        "col0": "Police Surgeon",
        "col1": "Leonard White",
        "col2": "I. Hendry",
        "col3": "1960-12-03"
    },
    {
        "col0": "Police Rescue",
        "col1": "John Edwards",
        "col2": "G. Sweet",
        "col3": "1996-11-22"
    },
    {
        "col0": "Point of No Return",
        "col1": "Lee Tim-shing",
        "col2": "D. Lau",
        "col3": "2003-12-12"
    },
    {
        "col0": "Plus One",
        "col1": "Kudos",
        "col2": "D. James",
        "col3": "2009-02-06"
    },
    {
        "col0": "Play It Again, Dick",
        "col1": "Ryan Hansen",
        "col2": "E. Colantoni",
        "col3": "2014-11-04"
    },
    {
        "col0": "Planet of the Apes",
        "col1": "Stan Hough",
        "col2": "M. Lenard",
        "col3": "1974-12-20"
    },
    {
        "col0": "Piya Basanti Re",
        "col1": "Rashmi Sharma",
        "col2": "A. Khan",
        "col3": "2014-12-12"
    },
    {
        "col0": "PitchMen",
        "col1": "Thom Beers",
        "col2": "B. Mays",
        "col3": "2011-03-08"
    },
    {
        "col0": "Pirate Islands",
        "col1": "Jonathan M. Shiff",
        "col2": "E. Taylor",
        "col3": "2003-06-30"
    },
    {
        "col0": "Pipkins",
        "col1": "Associated TeleVision",
        "col2": "C. McKeown",
        "col3": "1981-12-29"
    },
    {
        "col0": "Pink Lady",
        "col1": "Sid and Marty Krofft",
        "col2": "J. Varney",
        "col3": "1980-04-04"
    },
    {
        "col0": "Pillai Nila",
        "col1": "Sa Re Ga Ma",
        "col2": "S. Ganesh",
        "col3": "2014-09-13"
    },
    {
        "col0": "Phyllis",
        "col1": "Stan Daniels",
        "col2": "C. Leachman",
        "col3": "1977-03-13"
    },
    {
        "col0": "Phoenix Nights",
        "col1": "Mark Herbert",
        "col2": "D. Kitson",
        "col3": "2002-09-12"
    },
    {
        "col0": "Phenom",
        "col1": "Richard Sakai",
        "col2": "J. Lien",
        "col3": "1994-05-10"
    },
    {
        "col0": "Petrocelli",
        "col1": "Leonard Katzman",
        "col2": "D. Huddleston",
        "col3": "1976-03-31"
    },
    {
        "col0": "Peter the Great",
        "col1": "Lawrence Schiller",
        "col2": "H. Griem",
        "col3": "1986-02-02"
    },
    {
        "col0": "Persons Unknown",
        "col1": "Lorenzo O'Brien",
        "col2": "A. Ruck",
        "col3": "2010-08-28"
    },
    {
        "col0": "Personal Affairs",
        "col1": "BBC Scotland",
        "col2": "R. Negga",
        "col3": "2009-07-14"
    },
    {
        "col0": "Perry Mason",
        "col1": "Arthur Marks",
        "col2": "R. Burr",
        "col3": "1966-05-22"
    },
    {
        "col0": "Perception",
        "col1": "Eric McCormack",
        "col2": "E. McCormack",
        "col3": "2015-03-17"
    },
    {
        "col0": "Peep Show",
        "col1": "Phil Clarke",
        "col2": "D. Mitchell",
        "col3": "2015-12-16"
    },
    {
        "col0": "Pavitra Rishta",
        "col1": "Ekta Kapoor",
        "col2": "P. Rishta",
        "col3": "2014-10-24"
    },
    {
        "col0": "Paul Temple",
        "col1": "Derrick Sherwin",
        "col2": "F. Matthews",
        "col3": "1971-09-01"
    },
    {
        "col0": "Parvarrish - Season 2",
        "col1": "Tony Singh",
        "col2": "A. P. Sharma",
        "col3": "2016-07-07"
    },
    {
        "col0": "Party Tricks",
        "col1": "John Edwards",
        "col2": "A. Sampson",
        "col3": "2014-11-10"
    },
    {
        "col0": "Parsa",
        "col1": "Momina Duraid",
        "col2": "I. Zaidi",
        "col3": "2011-03-27"
    },
    {
        "col0": "Parrivaar",
        "col1": "Niret Alva",
        "col2": "Parrivaar",
        "col3": "2008-12-05"
    },
    {
        "col0": "Paroa: Ang Kuwento ni Mariposa",
        "col1": "GMA Network",
        "col2": "D. Monasterio",
        "col3": "2013-03-01"
    },
    {
        "col0": "Parker Lewis Can't Lose",
        "col1": "Bryan Spicer",
        "col2": "B. Jayne",
        "col3": "1993-06-13"
    },
    {
        "col0": "Paris",
        "col1": "Talkback",
        "col2": "A. Sayle",
        "col3": "1994-11-18"
    },
    {
        "col0": "Parichay",
        "col1": "Ekta Kapoor",
        "col2": "Parichay",
        "col3": "2013-03-15"
    },
    {
        "col0": "Parents of the Band",
        "col1": "Charlie Hanson",
        "col2": "J. Nail",
        "col3": "2009-01-09"
    },
    {
        "col0": "Parenthood",
        "col1": "Sascha Schneider",
        "col2": "W. Windom",
        "col3": "1991-08-11"
    },
    {
        "col0": "Pare & Pare",
        "col1": "GMA Network",
        "col2": "O. Alcasid",
        "col3": "2012-08-12"
    },
    {
        "col0": "Parallel 9",
        "col1": "Anna Home",
        "col2": "R. Maude-Roxby",
        "col3": "1994-09-17"
    },
    {
        "col0": "Paradise Cafe",
        "col1": "Rachel Davis",
        "col2": "H. Bodimeade",
        "col3": "2011-02-07"
    },
    {
        "col0": "Paradise",
        "col1": "David Jacobs",
        "col2": "S. Thornton",
        "col3": "1991-05-10"
    },
    {
        "col0": "Para toda la vida",
        "col1": "Nicandro Diaz Gonzalez",
        "col2": "O. Medina",
        "col3": "1996-08-02"
    },
    {
        "col0": "Pani Jaisa Piyar",
        "col1": "Momina Duraid",
        "col2": "S. Qamar",
        "col3": "2011-05-19"
    },
    {
        "col0": "Palmerstown, U.S.A.",
        "col1": "Alex Haley",
        "col2": "M. J. Fox",
        "col3": "1981-06-09"
    },
    {
        "col0": "Pahiram ng Sandali",
        "col1": "GMA Network",
        "col2": "D. Dantes",
        "col3": "2013-03-15"
    },
    {
        "col0": "Padre Coraje",
        "col1": "Pol-ka",
        "col2": "F. Arana",
        "col3": "2004-12-23"
    },
    {
        "col0": "Paartha Gnabagam Illayo",
        "col1": "Kushboo",
        "col2": "Kushboo",
        "col3": "2014-07-31"
    },
    {
        "col0": "Paalkhi",
        "col1": "Prem Krishen",
        "col2": "Paalkhi",
        "col3": "2006-04-12"
    },
    {
        "col0": "P.S. I Luv U",
        "col1": "Gail Morgan Hickman",
        "col2": "E. Holliman",
        "col3": "1992-01-04"
    },
    {
        "col0": "P.O.W.",
        "col1": "Gary Tuck",
        "col2": "J. D'Arcy",
        "col3": "2003-11-14"
    },
    {
        "col0": "Ozzie's Girls",
        "col1": "David Nelson",
        "col2": "H. Nelson",
        "col3": "1974-09-01"
    },
    {
        "col0": "Oz",
        "col1": "Irene Burns",
        "col2": "T. Kinney",
        "col3": "2003-02-23"
    },
    {
        "col0": "Overland Trail",
        "col1": "Samuel A. Peeples",
        "col2": "W. Bendix",
        "col3": "1960-07-02"
    },
    {
        "col0": "Overhaulin'",
        "col1": "Chad Marshall Producer",
        "col2": "C. Foose",
        "col3": "2015-11-18"
    },
    {
        "col0": "Over the Top",
        "col1": "Amy Sherman-Palladino",
        "col2": "S. Carell",
        "col3": "1997-11-04"
    },
    {
        "col0": "Over the Rainbow",
        "col1": "Lee Tim-shing",
        "col2": "P. Tse",
        "col3": "1979-05-25"
    },
    {
        "col0": "Outnumbered",
        "col1": "Andy Hamilton",
        "col2": "H. Dennis",
        "col3": "2014-03-05"
    },
    {
        "col0": "Out of This World",
        "col1": "George Yanok",
        "col2": "J. Alaskey",
        "col3": "1991-05-25"
    },
    {
        "col0": "Out All Night",
        "col1": "Matthew Diamond",
        "col2": "V. A. Fox",
        "col3": "1993-07-09"
    },
    {
        "col0": "Our Private World",
        "col1": "Allen M. Potter",
        "col2": "N. Coster",
        "col3": "1965-09-10"
    },
    {
        "col0": "Our House",
        "col1": "Ernest Maxin",
        "col2": "C. Hawtrey",
        "col3": "1962-04-21"
    },
    {
        "col0": "Our Friends in the North",
        "col1": "Charles Pattinson",
        "col2": "C. Eccleston",
        "col3": "1996-03-11"
    },
    {
        "col0": "Otherworld",
        "col1": "Lew Hunter",
        "col2": "G. Corbett",
        "col3": "1985-03-16"
    },
    {
        "col0": "Oswald",
        "col1": "HIT Entertainment",
        "col2": "F. Savage",
        "col3": "2003-09-19"
    },
    {
        "col0": "Os Caras de Pau",
        "col1": "Marcius Melhem",
        "col2": "M. Melhem",
        "col3": "2013-02-03"
    },
    {
        "col0": "Orson Welles' Sketch Book",
        "col1": "Huw Wheldon",
        "col2": "O. Welles",
        "col3": "1955-05-28"
    },
    {
        "col0": "Operation Good Guys",
        "col1": "Hugo Blick",
        "col2": "R. Burdis",
        "col3": "2000-08-31"
    },
    {
        "col0": "One of Us",
        "col1": "Colin Wratten",
        "col2": "O. o. Us",
        "col3": "2016-09-13"
    },
    {
        "col0": "One Way Ticket",
        "col1": "Samina Ahmad",
        "col2": "I. Tara",
        "col3": "2012-08-25"
    },
    {
        "col0": "One Foot in the Grave",
        "col1": "Susan Belbin",
        "col2": "A. Crosbie",
        "col3": "2000-11-20"
    },
    {
        "col0": "Once a Hero",
        "col1": "Ira Steven Behr",
        "col2": "M. O'Shea",
        "col3": "1987-10-03"
    },
    {
        "col0": "On the Track or Off",
        "col1": "Amy Wong",
        "col2": "A. Choi",
        "col3": "2001-06-01"
    },
    {
        "col0": "On the Buses",
        "col1": "London Weekend Television",
        "col2": "C. Courtneidge",
        "col3": "1973-05-06"
    },
    {
        "col0": "Omar",
        "col1": "Middle East Broadcasting Center",
        "col2": "G. Massoud",
        "col3": "2012-08-18"
    },
    {
        "col0": "Oliver Twist",
        "col1": "Terrance Dicks",
        "col2": "F. Middlemass",
        "col3": "1985-12-29"
    },
    {
        "col0": "Olive Kitteridge",
        "col1": "Tom Hanks",
        "col2": "J. Plemons",
        "col3": "2014-11-03"
    },
    {
        "col0": "Oh, Doctor Beeching!",
        "col1": "David Croft",
        "col2": "S. Lewis",
        "col3": "1997-09-28"
    },
    {
        "col0": "Oh! Those Bells",
        "col1": "Jules White",
        "col2": "T. W. Brothers",
        "col3": "1962-05-31"
    },
    {
        "col0": "Office Gossip",
        "col1": "Matthew Francis",
        "col2": "P. Quirke",
        "col3": "2001-03-09"
    },
    {
        "col0": "Off Pedder",
        "col1": "Television Broadcasts Limited",
        "col2": "E. Jin",
        "col3": "2010-02-12"
    },
    {
        "col0": "Off Centre",
        "col1": "Tim Kelleher",
        "col2": "E. K. Thomas",
        "col3": "2002-10-31"
    },
    {
        "col0": "Ocean Girl",
        "col1": "Jonathan M. Shiff",
        "col2": "J. Walker",
        "col3": "1997-12-22"
    },
    {
        "col0": "Nurses",
        "col1": "Gil Junger",
        "col2": "M. Flanagan",
        "col3": "1994-05-07"
    },
    {
        "col0": "Nurse Jackie",
        "col1": "Jerry Kupfer",
        "col2": "A. Ferrara",
        "col3": "2015-06-28"
    },
    {
        "col0": "Nunca te olvidare",
        "col1": "Carlos Moreno",
        "col2": "E. Gonzalez",
        "col3": "1999-05-28"
    },
    {
        "col0": "Numbers",
        "col1": "Ridley Scott",
        "col2": "D. Farr",
        "col3": "2010-03-12"
    },
    {
        "col0": "Nothing Sacred",
        "col1": "Bill Cain",
        "col2": "A. Dowd",
        "col3": "1998-03-14"
    },
    {
        "col0": "Not the Nine O'Clock News",
        "col1": "John Lloyd",
        "col2": "C. Langham",
        "col3": "1982-03-08"
    },
    {
        "col0": "Not On Your Nellie",
        "col1": "London Weekend Television",
        "col2": "J. Douglas",
        "col3": "1975-08-29"
    },
    {
        "col0": "Northern Lights",
        "col1": "Jeff Pope",
        "col2": "R. Green",
        "col3": "2008-12-21"
    },
    {
        "col0": "Nobody's Perfect",
        "col1": "Chris Hayward",
        "col2": "R. Moody",
        "col3": "1980-08-28"
    },
    {
        "col0": "Noblesse Oblige",
        "col1": "Lee Tim-sing",
        "col2": "T. Yeung",
        "col3": "2015-01-24"
    },
    {
        "col0": "Noah's Ark",
        "col1": "Michael Whitehall",
        "col2": "A. Rodgers",
        "col3": "1998-10-23"
    },
    {
        "col0": "Noah's Ark",
        "col1": "Jack Webb",
        "col2": "P. Burke",
        "col3": "1957-02-26"
    },
    {
        "col0": "No - That's Me Over Here!",
        "col1": "David Frost",
        "col2": "R. Corbett",
        "col3": "1970-12-05"
    },
    {
        "col0": "No Soap, Radio",
        "col1": "Bill Richmond",
        "col2": "S. Guttenberg",
        "col3": "1982-05-13"
    },
    {
        "col0": "No Job for a Lady",
        "col1": "John Howard Davies",
        "col2": "G. Baker",
        "col3": "1992-02-10"
    },
    {
        "col0": "No - That's Me Over Here!",
        "col1": "David Frost",
        "col2": "R. Corbett",
        "col3": "1970-12-05"
    },
    {
        "col0": "No, Honestly",
        "col1": "Humphrey Barclay",
        "col2": "P. Collins",
        "col3": "1975-01-05"
    },
    {
        "col0": "Nita Negrita",
        "col1": "GMA Network",
        "col2": "B. Forteza",
        "col3": "2011-06-10"
    },
    {
        "col0": "Nile",
        "col1": "Martha Holmes",
        "col2": "M. Gough",
        "col3": "2004-03-12"
    },
    {
        "col0": "Nikita",
        "col1": "David Solomon",
        "col2": "L. Fonseca",
        "col3": "2013-12-27"
    },
    {
        "col0": "Nikhar Gaye Gulab Sare",
        "col1": "Momina Duraid",
        "col2": "M. Hocane",
        "col3": "2012-09-27"
    },
    {
        "col0": "Nikah",
        "col1": "Wajahat Rauf",
        "col2": "J. Khan",
        "col3": "2015-06-14"
    },
    {
        "col0": "Nightmare Ned",
        "col1": "Donovan Cook",
        "col2": "V. Jackson",
        "col3": "1997-08-09"
    },
    {
        "col0": "Nightmare Classics",
        "col1": "Shelley Duvall",
        "col2": "A. Irving",
        "col3": "1989-11-26"
    },
    {
        "col0": "Nighthawks",
        "col1": "Anne Enright",
        "col2": "S. Healy",
        "col3": "1992-04-16"
    },
    {
        "col0": "Nick Freno: Licensed Teacher",
        "col1": "Gene Laufenberg",
        "col2": "C. DeLizia",
        "col3": "1998-05-03"
    },
    {
        "col0": "Nichols",
        "col1": "Frank Pierson",
        "col2": "A. Ghostley",
        "col3": "1972-03-14"
    },
    {
        "col0": "New Heavenly Sword and Dragon Sabre",
        "col1": "Wong Tin-lam",
        "col2": "T. L. Chiu-Wai",
        "col3": "1986-12-30"
    },
    {
        "col0": "New Attitude",
        "col1": "George Jackson",
        "col2": "M. Day",
        "col3": "1990-09-07"
    },
    {
        "col0": "New Amsterdam",
        "col1": "Barry Pullman",
        "col2": "N. Coster-Waldau",
        "col3": "2008-04-14"
    },
    {
        "col0": "Never Mind the Quality, Feel the Width",
        "col1": "Leonard White",
        "col2": "C. Shaps",
        "col3": "1971-09-14"
    },
    {
        "col0": "Never Dance Alone",
        "col1": "Eric Tsang",
        "col2": "G. Yip",
        "col3": "2014-06-01"
    },
    {
        "col0": "Nearest and Dearest",
        "col1": "ITV Granada",
        "col2": "H. Baker",
        "col3": "1973-02-07"
    },
    {
        "col0": "Naya Mahisagar",
        "col1": "Hats Off Productions",
        "col2": "A. Mehta",
        "col3": "2016-08-08"
    },
    {
        "col0": "Narito Ang Puso Ko",
        "col1": "Wilma Galvante",
        "col2": "J. Magdangal",
        "col3": "2004-03-05"
    },
    {
        "col0": "Napoleon and Josephine: A Love Story",
        "col1": "Alfred R. Kelman",
        "col2": "P. Cassidy",
        "col3": "1987-11-12"
    },
    {
        "col0": "Nanny and the Professor",
        "col1": "Charles B. Fitzsimons",
        "col2": "R. Long",
        "col3": "1971-12-27"
    },
    {
        "col0": "Nanny 911",
        "col1": "Stacey Travis",
        "col2": "S. Reid",
        "col3": "2009-06-06"
    },
    {
        "col0": "Naked City",
        "col1": "Herbert B. Leonard",
        "col2": "J. Franciscus",
        "col3": "1963-05-29"
    },
    {
        "col0": "Nadhaswaram",
        "col1": "Thirumurugan",
        "col2": "P. Mohan",
        "col3": "2015-05-09"
    },
    {
        "col0": "Na Bole Tum Na Maine Kuch Kaha 2",
        "col1": "Sudhir Sharma",
        "col2": "Na Bole Tum Na Maine Kuch Kaha",
        "col3": "2013-09-12"
    },
    {
        "col0": "Na Bole Tum Na Maine Kuch Kaha",
        "col1": "Sudhir Sharma",
        "col2": "Na Bole Tum Na Maine Kuch Kaha",
        "col3": "2012-10-05"
    },
    {
        "col0": "NPS: No puede ser",
        "col1": "Boomerang",
        "col2": "Venevision",
        "col3": "2011-08-30"
    },
    {
        "col0": "My World and Welcome to It",
        "col1": "Danny Arnold",
        "col2": "W. Windom",
        "col3": "1970-03-06"
    },
    {
        "col0": "My Three Sons",
        "col1": "George Tibbles",
        "col2": "B. Garland",
        "col3": "1972-04-13"
    }
]