[
    {
        "col0": "C. Michel",
        "col1": "California Institute of Technology",
        "col2": "Houston",
        "col3": "1934-06-05",
        "col4": "2015-02-26"
    },
    {
        "col0": "C. Williams",
        "col1": "Auburn University",
        "col2": "Tallahassee, Florida",
        "col3": "1932-09-26",
        "col4": "1967-10-05"
    },
    {
        "col0": "C. L. Veach",
        "col1": "United States Air Force Academy",
        "col2": "Houston",
        "col3": "1944-09-18",
        "col4": "1995-10-03"
    },
    {
        "col0": "C. Bassett",
        "col1": "Ohio State University",
        "col2": "St. Louis, Missouri",
        "col3": "1931-12-30",
        "col4": "1966-02-28"
    },
    {
        "col0": "C. G. Fullerton",
        "col1": "Bachelor's degree",
        "col2": "Lancaster, California",
        "col3": "1936-10-11",
        "col4": "2013-08-21"
    },
    {
        "col0": "B. Peterson",
        "col1": "California Polytechnic State University",
        "col2": "Laguna Niguel, California",
        "col3": "1933-05-23",
        "col4": "2006-05-01"
    },
    {
        "col0": "B. O'Leary",
        "col1": "University of California, Berkeley",
        "col2": "Vilcabamba, Ecuador",
        "col3": "1940-01-27",
        "col4": "2011-07-28"
    },
    {
        "col0": "A. S. White",
        "col1": "University of California, Berkeley",
        "col2": "Tucson, Arizona",
        "col3": "1918-12-09",
        "col4": "2006-04-29"
    },
    {
        "col0": "A. S. Crossfield",
        "col1": "University of Washington",
        "col2": "Atlanta",
        "col3": "1921-10-02",
        "col4": "2006-04-19"
    },
    {
        "col0": "A. Shepard",
        "col1": "United States Naval Academy",
        "col2": "Monterey, California",
        "col3": "1923-11-18",
        "col4": "1998-07-21"
    }
]