[
    {
        "col0": "2014 Open de Rennes",
        "col1": "S. Darcis",
        "col2": "T. Kamke",
        "col3": "T. Kamke"
    },
    {
        "col0": "2014 Open d'Orleans",
        "col1": "S. Stakhovsky",
        "col2": "T. Bellucci",
        "col3": "S. Stakhovsky"
    },
    {
        "col0": "2014 Open Saint-Gaudens Midi-Pyrenees",
        "col1": "D. Kovinic",
        "col2": "M. Irigoyen",
        "col3": "M. Irigoyen"
    },
    {
        "col0": "2014 Open Harmonie mutuelle",
        "col1": "A. Beck",
        "col2": "D. Meffert",
        "col3": "A. Beck"
    },
    {
        "col0": "2014 Open GDF Suez de Touraine",
        "col1": "C. Witthoft",
        "col2": "A. Hesse",
        "col3": "A. Hesse"
    },
    {
        "col0": "2014 Open GDF Suez de Limoges",
        "col1": "T. Smitkova",
        "col2": "R. Voracova",
        "col3": "K. Siniakova"
    },
    {
        "col0": "2014 Open GDF Suez de Cagnes-sur-Mer Alpes-Maritimes",
        "col1": "S. Fichman",
        "col2": "K. Bertens",
        "col3": "S. Fichman"
    },
    {
        "col0": "2014 Open GDF Suez de Biarritz",
        "col1": "K. Kanepi",
        "col2": "S. Vogt",
        "col3": "K. Kanepi"
    },
    {
        "col0": "2014 Open GDF Suez Seine-et-Marne",
        "col1": "C. Feuerstein",
        "col2": "M. Gasparyan",
        "col3": "M. Gasparyan"
    },
    {
        "col0": "2014 Open GDF Suez Nantes Atlantique",
        "col1": "K. Siniakova",
        "col2": "N. Kichenok",
        "col3": "K. Siniakova"
    },
    {
        "col0": "2014 Open Feminin de Marseille",
        "col1": "A. Dulgheru",
        "col2": "B. G. Vidagany",
        "col3": "A. Dulgheru"
    },
    {
        "col0": "2014 Open BNP Paribas Banque de Bretagne",
        "col1": "P. Herbert",
        "col2": "P. Herbert",
        "col3": "P. Herbert"
    },
    {
        "col0": "2014 Odlum Brown Vancouver Open",
        "col1": "M. Baghdatis",
        "col2": "A. Krajicek",
        "col3": "M. Baghdatis"
    },
    {
        "col0": "2014 ONGC-GAIL Delhi Open",
        "col1": "S. Devvarman",
        "col2": "S. Myneni",
        "col3": "S. Devvarman"
    },
    {
        "col0": "2014 OEC Taipei WTA Challenger",
        "col1": "V. Diatchenko",
        "col2": "C. Yung-jan",
        "col3": "C. Yung-jan"
    },
    {
        "col0": "2014 Nurnberger Versicherungscup",
        "col1": "E. Bouchard",
        "col2": "M. Krajicek",
        "col3": "M. Krajicek"
    },
    {
        "col0": "2014 Ningbo International Women's Tennis Open",
        "col1": "M. Linette",
        "col2": "O. Savchuk",
        "col3": "O. Savchuk"
    },
    {
        "col0": "2014 Nurnberger Versicherungscup",
        "col1": "E. Bouchard",
        "col2": "K. Pliskova",
        "col3": "M. Krajicek"
    },
    {
        "col0": "2014 Mutua Madrid Open",
        "col1": "R. Nadal",
        "col2": "S. Errani",
        "col3": "M. Sharapova"
    },
    {
        "col0": "2014 Moselle Open",
        "col1": "D. Goffin",
        "col2": "M. Matkowski",
        "col3": "M. Matkowski"
    },
    {
        "col0": "2014 Morocco Tennis Tour - Kenitra",
        "col1": "D. Gimeno-Traver",
        "col2": "A. Sancic",
        "col3": "D. Gimeno-Traver"
    },
    {
        "col0": "2014 Morelos Open",
        "col1": "G. Melzer",
        "col2": "A. Martin",
        "col3": "A. Martin"
    },
    {
        "col0": "2014 Monterrey Open",
        "col1": "A. Ivanovic",
        "col2": "M. Moulton-Levy",
        "col3": "A. Ivanovic"
    },
    {
        "col0": "2014 Mersin Cup",
        "col1": "D. Dzumhur",
        "col2": "J. Pospisil",
        "col3": "D. Dzumhur"
    },
    {
        "col0": "2014 MercedesCup",
        "col1": "R. B. Agut",
        "col2": "M. Kowalczyk",
        "col3": "R. B. Agut"
    },
    {
        "col0": "2014 McDonald's Burnie International",
        "col1": "M. Reid",
        "col2": "S. Sanders",
        "col3": "M. Eguchi"
    },
    {
        "col0": "2014 Malaysian Open, Kuala Lumpur",
        "col1": "K. Nishikori",
        "col2": "L. Paes",
        "col3": "L. Paes"
    },
    {
        "col0": "2014 Lorraine Open 88",
        "col1": "I. Begu",
        "col2": "A. Panova",
        "col3": "A. Panova"
    },
    {
        "col0": "2014 Lima Challenger",
        "col1": "G. Pella",
        "col2": "G. Pella",
        "col3": "G. Pella"
    },
    {
        "col0": "2014 Launceston Tennis International",
        "col1": "O. Rogowska",
        "col2": "O. Rogowska",
        "col3": "O. Rogowska"
    },
    {
        "col0": "2014 Lale Cup",
        "col1": "D. Allertova",
        "col2": "T. Smitkova",
        "col3": "D. Allertova"
    },
    {
        "col0": "2014 L'Open Emeraude Solaire de Saint-Malo",
        "col1": "C. Witthoft",
        "col2": "G. Gatto-Monticone",
        "col3": "C. Witthoft"
    },
    {
        "col0": "2014 Kurume Best Amenity Cup",
        "col1": "W. Qiang",
        "col2": "J. Gajdosova",
        "col3": "J. Gajdosova"
    },
    {
        "col0": "2014 Korea Open",
        "col1": "K. Pliskova",
        "col2": "I. Begu",
        "col3": "K. Pliskova"
    },
    {
        "col0": "2014 Knoxville Challenger",
        "col1": "A. Mannarino",
        "col2": "M. LA<<bietis",
        "col3": "A. Mannarino"
    },
    {
        "col0": "2014 Kentucky Bank Tennis Championships",
        "col1": "J. Duckworth",
        "col2": "A. Shamasdin",
        "col3": "M. Brengle"
    },
    {
        "col0": "2014 Keio Challenger",
        "col1": "J. Millman",
        "col2": "B. Klahn",
        "col3": "B. Klahn"
    },
    {
        "col0": "2014 Kangaroo Cup",
        "col1": "T. Babos",
        "col2": "J. Gajdosova",
        "col3": "J. Gajdosova"
    },
    {
        "col0": "2014 KPIT MSLTA Challenger",
        "col1": "Y. Sugita",
        "col2": "S. Myneni",
        "col3": "S. Myneni"
    },
    {
        "col0": "2014 John Newcombe Women's Pro Challenge",
        "col1": "I. Falconi",
        "col2": "M. Duque",
        "col3": "I. Falconi"
    },
    {
        "col0": "2014 Jiangxi International Women's Tennis Open",
        "col1": "P. Shuai",
        "col2": "C. Chia-jung",
        "col3": "P. Shuai"
    },
    {
        "col0": "2014 Jalisco Open",
        "col1": "G. Muller",
        "col2": "C. Ramirez",
        "col3": "G. Muller"
    },
    {
        "col0": "2014 JSM Challenger of Champaign-Urbana",
        "col1": "A. Mannarino",
        "col2": "T. Kopinski",
        "col3": "A. Mannarino"
    },
    {
        "col0": "2014 Irving Tennis Classic",
        "col1": "L. Rosol",
        "col2": "S. Gonzalez",
        "col3": "S. Gonzalez"
    },
    {
        "col0": "2014 Internazionali di Tennis Castel del Monte",
        "col1": "R. Berankis",
        "col2": "C. Paval",
        "col3": "R. Berankis"
    },
    {
        "col0": "2014 Internationaux de Tennis de Vendee",
        "col1": "P. Herbert",
        "col2": "N. Mahut",
        "col3": "N. Mahut"
    },
    {
        "col0": "2014 Internationaux de Strasbourg",
        "col1": "M. Puig",
        "col2": "A. Barty",
        "col3": "A. Barty"
    },
    {
        "col0": "2014 Internationaux Feminins de la Vienne",
        "col1": "T. Babos",
        "col2": "A. Hlavackova",
        "col3": "A. Hlavackova"
    },
    {
        "col0": "2014 International German Open",
        "col1": "L. Mayer",
        "col2": "M. Draganja",
        "col3": "L. Mayer"
    },
    {
        "col0": "2014 Internacional Femenil Monterrey",
        "col1": "A. Mestach",
        "col2": "L. D. Lino",
        "col3": "A. Mestach"
    },
    {
        "col0": "2014 Indore Open ATP Challenger",
        "col1": "S. Myneni",
        "col2": "A. Menendez-Maceiras",
        "col3": "A. Nedovyesov"
    },
    {
        "col0": "2014 ITS Cup",
        "col1": "P. Cetkovska",
        "col2": "P. Cetkovska",
        "col3": "P. Cetkovska"
    },
    {
        "col0": "2014 ITF Women's Circuit - Xi'an",
        "col1": "D. Yingying",
        "col2": "W. Yafan",
        "col3": "W. Yafan"
    },
    {
        "col0": "2014 ITF Women's Circuit - Wuhan",
        "col1": "W. Qiang",
        "col2": "Z. Kailin",
        "col3": "Z. Kailin"
    },
    {
        "col0": "2014 ITF Women's Circuit - Anning",
        "col1": "Z. Saisai",
        "col2": "Z. Kailin",
        "col3": "Z. Kailin"
    },
    {
        "col0": "2014 ITF Women's Circuit - Xi'an",
        "col1": "D. Yingying",
        "col2": "W. Yafan",
        "col3": "W. Yafan"
    },
    {
        "col0": "2014 ITF Women's Circuit - Wuhan",
        "col1": "W. Qiang",
        "col2": "Z. Kailin",
        "col3": "Z. Kailin"
    },
    {
        "col0": "2014 ITF Women's Circuit - Anning",
        "col1": "Z. Saisai",
        "col2": "Z. Kailin",
        "col3": "Z. Kailin"
    },
    {
        "col0": "2014 IPP Open and the Orto-Laakarit Open",
        "col1": "J. Zopp",
        "col2": "J. Nieminen",
        "col3": "J. Nieminen"
    },
    {
        "col0": "2014 Heilbronner Neckarcup",
        "col1": "J. Struff",
        "col2": "A. Begemann",
        "col3": "A. Begemann"
    },
    {
        "col0": "2014 Hall of Fame Tennis Championships",
        "col1": "L. Hewitt",
        "col2": "L. Hewitt",
        "col3": "L. Hewitt"
    },
    {
        "col0": "2014 Grand Prix SAR La Princesse Lalla Meryem",
        "col1": "Maria Teresa Torro Flor",
        "col2": "G. Muguruza",
        "col3": "G. Muguruza"
    },
    {
        "col0": "2014 Gerry Weber Open",
        "col1": "R. Federer",
        "col2": "J. Knowle",
        "col3": "J. Knowle"
    },
    {
        "col0": "2014 Generali Ladies Linz",
        "col1": "K. Pliskova",
        "col2": "A. Tatishvili",
        "col3": "K. Pliskova"
    },
    {
        "col0": "2014 Gemdale ATP Challenger",
        "col1": "G. Muller",
        "col2": "S. Groth",
        "col3": "S. Groth"
    },
    {
        "col0": "2014 Gastein Ladies",
        "col1": "A. Petkovic",
        "col2": "K. Pliskova",
        "col3": "A. Petkovic"
    },
    {
        "col0": "2014 Fukuoka International Women's Cup",
        "col1": "N. Broady",
        "col2": "E. Hozumi",
        "col3": "N. Broady"
    },
    {
        "col0": "2014 French Open",
        "col1": "R. Nadal",
        "col2": "France",
        "col3": "France"
    },
    {
        "col0": "2014 Fergana Challenger",
        "col1": "B. Kavcic",
        "col2": "H. Kuwata",
        "col3": "H. Kuwata"
    },
    {
        "col0": "2014 Family Circle Cup",
        "col1": "A. Petkovic",
        "col2": "Y. Shvedova",
        "col3": "A. Petkovic"
    },
    {
        "col0": "2014 FSP Gold River Women's Challenger",
        "col1": "O. Rogowska",
        "col2": "S. Sanders",
        "col3": "S. Sanders"
    },
    {
        "col0": "2014 Ethias Trophy",
        "col1": "D. Goffin",
        "col2": "N. Mahut",
        "col3": "N. Mahut"
    },
    {
        "col0": "2014 Empire Slovak Open",
        "col1": "A. K. Schmiedlova",
        "col2": "Z. Saisai",
        "col3": "A. K. Schmiedlova"
    },
    {
        "col0": "2014 Dunlop World Challenge",
        "col1": "G. Soeda",
        "col2": "Y. Uchiyama",
        "col3": "G. Soeda"
    },
    {
        "col0": "2014 Dow Corning Tennis Classic",
        "col1": "H. Watson",
        "col2": "H. Watson",
        "col3": "H. Watson"
    },
    {
        "col0": "2014 Dothan Pro Tennis Classic",
        "col1": "G. Min",
        "col2": "A. Kontaveit",
        "col3": "A. Kontaveit"
    },
    {
        "col0": "2014 Distal & ITR Group Tennis Cup and the Astra Italy Tennis Cup",
        "col1": "A. Bedene",
        "col2": "G. Duran",
        "col3": "Italy"
    },
    {
        "col0": "2014 Coupe Banque Nationale",
        "col1": "M. Lucic-Baroni",
        "col2": "L. Hradecka",
        "col3": "M. Lucic-Baroni"
    },
    {
        "col0": "2014 Copa Sevilla",
        "col1": "P. Carreno",
        "col2": "Antal van der Duim",
        "col3": "P. Carreno"
    },
    {
        "col0": "2014 Copa San Juan Gobierno",
        "col1": "D. S. Schwartzman",
        "col2": "M. Alund",
        "col3": "F. Bagnis"
    },
    {
        "col0": "2014 Copa Gobierno de Cordoba",
        "col1": "A. Gonzalez",
        "col2": "M. Demoliner",
        "col3": "M. Demoliner"
    },
    {
        "col0": "2014 Connecticut Open",
        "col1": "P. Kvitova",
        "col2": "S. S. Espinosa",
        "col3": "S. S. Espinosa"
    },
    {
        "col0": "2014 Comerica Bank Challenger",
        "col1": "M. Baghdatis",
        "col2": "R. Bemelmans",
        "col3": "M. Baghdatis"
    },
    {
        "col0": "2014 Coleman Vision Tennis Championships",
        "col1": "A. Tatishvili",
        "col2": "M. Oudin",
        "col3": "M. Oudin"
    },
    {
        "col0": "2014 CittA  di Como Challenger",
        "col1": "V. Troicki",
        "col2": "F. Arguello",
        "col3": "V. Troicki"
    },
    {
        "col0": "2014 Citta' di Vercelli - Trofeo Multimed",
        "col1": "S. Bolelli",
        "col2": "M. Donati",
        "col3": "S. Bolelli"
    },
    {
        "col0": "2014 CittA  di Como Challenger",
        "col1": "V. Troicki",
        "col2": "F. Arguello",
        "col3": "V. Troicki"
    },
    {
        "col0": "2014 Citi Open",
        "col1": "M. Raonic",
        "col2": "G. Dabrowski",
        "col3": "M. Raonic"
    },
    {
        "col0": "2014 China International Challenger",
        "col1": "A. Bolt",
        "col2": "A. Bolt",
        "col3": "Z. Saisai"
    },
    {
        "col0": "2014 Charlottesville Men's Pro Challenger",
        "col1": "J. Duckworth",
        "col2": "T. C. Huey",
        "col3": "J. Duckworth"
    },
    {
        "col0": "2014 Charles Sturt Adelaide International",
        "col1": "B. Klahn",
        "col2": "M. Daniell",
        "col3": "B. Klahn"
    },
    {
        "col0": "2014 Chang-Sat Bangkok Open",
        "col1": "H. Chung",
        "col2": "N. Kadchapanan",
        "col3": "P. Isarow"
    },
    {
        "col0": "2014 Challenger Ficrea",
        "col1": "R. Ram",
        "col2": "S. Groth",
        "col3": "S. Groth"
    },
    {
        "col0": "2014 Challenger Ciudad de Guayaquil",
        "col1": "P. Cuevas",
        "col2": "M. Gonzalez",
        "col3": "P. Cuevas"
    },
    {
        "col0": "2014 Challenger Banque Nationale de Saguenay",
        "col1": "J. Coin",
        "col2": "N. Slater",
        "col3": "N. Slater"
    },
    {
        "col0": "2014 Challenger Banque Nationale de Rimouski",
        "col1": "S. Groth",
        "col2": "D. Smethurst",
        "col3": "S. Groth"
    },
    {
        "col0": "2014 Challenger Banque Nationale de Granby",
        "col1": "H. Moriya",
        "col2": "M. Daniell",
        "col3": "M. Daniell"
    },
    {
        "col0": "2014 Campeonato Internacional de Tenis de Campinas",
        "col1": "D. S. Schwartzman",
        "col2": "F. Bagnis",
        "col3": "F. Bagnis"
    },
    {
        "col0": "2014 Campeonato Internacional de Tenis de Santos",
        "col1": "M. Gonzalez",
        "col2": "A. Molteni",
        "col3": "M. Gonzalez"
    },
    {
        "col0": "2014 Campeonato Internacional de Tenis de Campinas",
        "col1": "D. S. Schwartzman",
        "col2": "F. Bagnis",
        "col3": "F. Bagnis"
    },
    {
        "col0": "2014 CIT Paraguay Open",
        "col1": "B. Botto",
        "col2": "G. P. Rojas",
        "col3": "G. P. Rojas"
    },
    {
        "col0": "2014 Boyd Tinsley Women's Clay Court Classic",
        "col1": "T. Townsend",
        "col2": "T. Townsend",
        "col3": "T. Townsend"
    },
    {
        "col0": "2014 Blossom Cup",
        "col1": "Z. Diyas",
        "col2": "X. Yifan",
        "col3": "Z. Diyas"
    },
    {
        "col0": "2014 Bet-at-home Cup Kitzbuhel",
        "col1": "D. Goffin",
        "col2": "J. Nieminen",
        "col3": "J. Nieminen"
    },
    {
        "col0": "2014 Bendigo Women's International",
        "col1": "L. Fangzhou",
        "col2": "J. Moore",
        "col3": "J. Moore"
    },
    {
        "col0": "2014 Bendigo Women's International",
        "col1": "E. Hozumi",
        "col2": "J. Moore",
        "col3": "A. Myers"
    },
    {
        "col0": "2014 Bauer Watertechnology Cup",
        "col1": "R. Bemelmans",
        "col2": "R. Bemelmans",
        "col3": "R. Bemelmans"
    },
    {
        "col0": "2014 Banja Luka Challenger",
        "col1": "V. Troicki",
        "col2": "A. Sancic",
        "col3": "V. Troicki"
    },
    {
        "col0": "2014 BNP Paribas de Nouvelle-Caledonie",
        "col1": "A. Falla",
        "col2": "A. Krajicek",
        "col3": "A. Falla"
    },
    {
        "col0": "2014 BNP Paribas Open",
        "col1": "N. Djokovic",
        "col2": "B. Bryan",
        "col3": "B. Bryan"
    },
    {
        "col0": "2014 BGL Luxembourg Open",
        "col1": "A. Beck",
        "col2": "T. Bacsinszky",
        "col3": "T. Bacsinszky"
    },
    {
        "col0": "2014 Australian Open",
        "col1": "S. Wawrinka",
        "col2": "Canada",
        "col3": "Canada"
    },
    {
        "col0": "2014 Audi Melbourne Pro Tennis Classic",
        "col1": "T. Townsend",
        "col2": "T. Townsend",
        "col3": "T. Townsend"
    },
    {
        "col0": "2014 Astana Challenger",
        "col1": "A. Golubev",
        "col2": "A. Bury",
        "col3": "A. Golubev"
    },
    {
        "col0": "2014 Arimex Challenger Trophy",
        "col1": "A. Haider-Maurer",
        "col2": "R. Jebavy",
        "col3": "J. Pospisil"
    },
    {
        "col0": "2014 Apia International Sydney",
        "col1": "Juan Martin del Potro",
        "col2": "L. Safarova",
        "col3": "D. Nestor"
    },
    {
        "col0": "2014 Ankara Cup",
        "col1": "A. Krunic",
        "col2": "N. Kolar",
        "col3": "A. Krunic"
    },
    {
        "col0": "2014 Amex-Istanbul Challenger",
        "col1": "A. Mannarino",
        "col2": "C. Fleming",
        "col3": "A. Mannarino"
    },
    {
        "col0": "2014 Al Habtoor Tennis Challenge",
        "col1": "A. Dulgheru",
        "col2": "A. Panova",
        "col3": "A. Dulgheru"
    },
    {
        "col0": "2014 Aircel Chennai Open",
        "col1": "S. Wawrinka",
        "col2": "F. Nielsen",
        "col3": "S. Wawrinka"
    },
    {
        "col0": "2014 Aegon Trophy",
        "col1": "M. Baghdatis",
        "col2": "C. Guccione",
        "col3": "M. Baghdatis"
    },
    {
        "col0": "2014 Aegon Nottingham Challenge",
        "col1": "N. Kyrgios",
        "col2": "J. Gajdosova",
        "col3": "N. Kyrgios"
    },
    {
        "col0": "2014 Aegon Classic",
        "col1": "A. Ivanovic",
        "col2": "A. Spears",
        "col3": "A. Spears"
    },
    {
        "col0": "2014 Aegon Championships",
        "col1": "G. Dimitrov",
        "col2": "B. Soares",
        "col3": "B. Soares"
    },
    {
        "col0": "2014 Adidas International Gimcheon",
        "col1": "G. Muller",
        "col2": "C. Guccione",
        "col3": "G. Muller"
    },
    {
        "col0": "2014 Abierto Tampico",
        "col1": "M. Duque",
        "col2": "P. Martic",
        "col3": "P. Martic"
    },
    {
        "col0": "2014 Aberto de Sao Paulo",
        "col1": "J. Souza",
        "col2": "G. Kretschmer",
        "col3": "J. Souza"
    },
    {
        "col0": "2014 ASB Classic",
        "col1": "A. Ivanovic",
        "col2": "S. Fichman",
        "col3": "S. Fichman"
    },
    {
        "col0": "2014 ABN AMRO World Tennis Tournament",
        "col1": "T. Berdych",
        "col2": "M. Llodra",
        "col3": "N. Mahut"
    },
    {
        "col0": "2013 Yeongwol Challenger Tennis",
        "col1": "B. Klahn",
        "col2": "M. Draganja",
        "col3": "B. Klahn"
    },
    {
        "col0": "2013 Yakima Regional Hospital Challenger",
        "col1": "N. Gibbs",
        "col2": "A. Will",
        "col3": "N. Gibbs"
    },
    {
        "col0": "2013 Wimbledon Championships",
        "col1": "A. Murray",
        "col2": "D. Nestor",
        "col3": "P. Shuai"
    },
    {
        "col0": "2013 Western & Southern Open",
        "col1": "R. Nadal",
        "col2": "B. Bryan",
        "col3": "B. Bryan"
    },
    {
        "col0": "2013 Visit Panama Cup",
        "col1": "R. R. Hidalgo",
        "col2": "J. Aguilar",
        "col3": "R. R. Hidalgo"
    },
    {
        "col0": "2013 Viccourt Cup",
        "col1": "E. Svitolina",
        "col2": "R. Voracova",
        "col3": "R. Voracova"
    },
    {
        "col0": "2013 Vanessa Phillips Women's Tournament",
        "col1": "E. Svitolina",
        "col2": "A. Kudryavtseva",
        "col3": "A. Kudryavtseva"
    },
    {
        "col0": "2013 Uruguay Open",
        "col1": "T. Bellucci",
        "col2": "P. Cuevas",
        "col3": "P. Cuevas"
    },
    {
        "col0": "2013 US Open",
        "col1": "R. Nadal",
        "col2": "A. Hlavackova",
        "col3": "L. Paes"
    },
    {
        "col0": "2013 U.S. National Indoor Tennis Championships",
        "col1": "K. Nishikori",
        "col2": "B. Bryan",
        "col3": "B. Bryan"
    },
    {
        "col0": "2013 Turk Telecom Izmir Cup",
        "col1": "M. Kukushkin",
        "col2": "A. Krajicek",
        "col3": "A. Krajicek"
    },
    {
        "col0": "2013 Tunis Open",
        "col1": "A. Ungur",
        "col2": "D. Meffert",
        "col3": "A. Ungur"
    },
    {
        "col0": "2013 Trofeul Popeci",
        "col1": "K. Kucova",
        "col2": "A. Balducci",
        "col3": "K. Kucova"
    },
    {
        "col0": "2013 Trabzon Cup",
        "col1": "A. Friedsam",
        "col2": "Serbia",
        "col3": "Serbia"
    },
    {
        "col0": "2013 Trabzon Cup",
        "col1": "A. Krunic",
        "col2": "M. Zanevska",
        "col3": "A. Krunic"
    },
    {
        "col0": "2013 Torneo Internacional AGT",
        "col1": "D. Young",
        "col2": "C. Guccione",
        "col3": "C. Guccione"
    },
    {
        "col0": "2013 The Oaks Club Challenger",
        "col1": "M. Duque",
        "col2": "A. Spears",
        "col3": "A. Spears"
    },
    {
        "col0": "2013 Tevlin Women's Challenger",
        "col1": "V. Duval",
        "col2": "V. Duval",
        "col3": "V. Duval"
    },
    {
        "col0": "2013 Tetra Pak Tennis Cup",
        "col1": "G. Clezar",
        "col2": "M. Gonzalez",
        "col3": "M. Gonzalez"
    },
    {
        "col0": "2013 Tennis Napoli Cup",
        "col1": "P. Starace",
        "col2": "P. Starace",
        "col3": "P. Starace"
    }
]