[
    {
        "col0": "R. Kelly",
        "col1": "British Columbia",
        "col2": "Cleveland Barons",
        "col3": "2015-09-26"
    },
    {
        "col0": "R. Edwards",
        "col1": "Buffalo, New York",
        "col2": "American Hockey League",
        "col3": "1999-08-16"
    },
    {
        "col0": "R. Conacher",
        "col1": "British Columbia",
        "col2": "Boston Bruins",
        "col3": "1984-12-29"
    },
    {
        "col0": "R. Burmister",
        "col1": "Canada",
        "col2": "New York Americans",
        "col3": "1980-01-19"
    },
    {
        "col0": "R. Beaudro",
        "col1": "Canada",
        "col2": "Kenora Thistles",
        "col3": "1960-02-10"
    },
    {
        "col0": "R. Turnbull",
        "col1": "Bryn Mawr, Pennsylvania",
        "col2": "Fort Wayne Komets",
        "col3": "2015-12-08"
    },
    {
        "col0": "R. Lonsberry",
        "col1": "United States",
        "col2": "National Hockey League",
        "col3": "2014-05-04"
    },
    {
        "col0": "R. Johnstone",
        "col1": "Canada",
        "col2": "Toronto Maple Leafs",
        "col3": "2009-12-31"
    },
    {
        "col0": "R. Couture",
        "col1": "Canada",
        "col2": "National Hockey League",
        "col3": "1986-03-01"
    },
    {
        "col0": "R. Pettersson",
        "col1": "Sweden",
        "col2": "Surahammars IF",
        "col3": "2010-03-06"
    },
    {
        "col0": "R. Stewart",
        "col1": "Kelowna",
        "col2": "New York Islanders",
        "col3": "2012-03-17"
    },
    {
        "col0": "R. Lyashenko",
        "col1": "Antalya",
        "col2": "Dallas Stars",
        "col3": "2003-07-07"
    },
    {
        "col0": "R. Huard",
        "col1": "Canada",
        "col2": "Toronto Maple Leafs",
        "col3": "1979-09-16"
    },
    {
        "col0": "R. Stoltz",
        "col1": "Stockholm",
        "col2": "Djurgardens IF Hockey",
        "col3": "2001-02-19"
    },
    {
        "col0": "R. Paulhus",
        "col1": "Canada",
        "col2": "Montreal Canadiens",
        "col3": "1964-12-30"
    },
    {
        "col0": "R. Hagglund",
        "col1": "Sweden",
        "col2": "Fredericton Express",
        "col3": "1992-06-06"
    },
    {
        "col0": "R. Crozier",
        "col1": "Delaware",
        "col2": "Buffalo Sabres",
        "col3": "1996-01-11"
    },
    {
        "col0": "R. Christian",
        "col1": "North Dakota",
        "col2": "Seattle Totems",
        "col3": "2011-11-09"
    },
    {
        "col0": "R. Belanger",
        "col1": "Canada",
        "col2": "Pittsburgh Penguins",
        "col3": "2011-09-16"
    },
    {
        "col0": "R. Smylie",
        "col1": "Canada",
        "col2": "Toronto St. Patricks",
        "col3": "1985-03-04"
    },
    {
        "col0": "R. Flett",
        "col1": "Canada",
        "col2": "Winnipeg Victorias",
        "col3": "1927-06-30"
    },
    {
        "col0": "R. Lapainis",
        "col1": "Soviet Union",
        "col2": "Dinamo Riga",
        "col3": "1974-09-30"
    },
    {
        "col0": "R. Wyman",
        "col1": "Surrey",
        "col2": "Princes Ice Hockey Club",
        "col3": "1978-1-1"
    },
    {
        "col0": "R. Muller",
        "col1": "Bavaria",
        "col2": "Kolner Haie",
        "col3": "2009-05-21"
    },
    {
        "col0": "R. Meyers",
        "col1": "Alberta",
        "col2": "Edmonton Mercurys",
        "col3": "2014-03-22"
    },
    {
        "col0": "R. Muller",
        "col1": "Bavaria",
        "col2": "Kolner Haie",
        "col3": "2009-05-21"
    },
    {
        "col0": "R. Dietrich",
        "col1": "Russia",
        "col2": "Adler Mannheim",
        "col3": "2011-09-07"
    },
    {
        "col0": "R. Benson",
        "col1": "Canada",
        "col2": "Calgary Tigers",
        "col3": "1965-09-07"
    },
    {
        "col0": "R. Hern",
        "col1": "Canada",
        "col2": "National Hockey Association",
        "col3": "1929-06-24"
    },
    {
        "col0": "R. Wilson",
        "col1": "Missouri",
        "col2": "Calgary Flames",
        "col3": "2016-01-22"
    },
    {
        "col0": "R. Shinske",
        "col1": "British Columbia",
        "col2": "Cleveland Barons",
        "col3": "2012-10-23"
    },
    {
        "col0": "R. Rypien",
        "col1": "Alberta",
        "col2": "Vancouver Canucks",
        "col3": "2011-08-15"
    },
    {
        "col0": "R. McCann",
        "col1": "Canada",
        "col2": "Detroit Red Wings",
        "col3": "2013-09-03"
    },
    {
        "col0": "R. Martin",
        "col1": "New York",
        "col2": "Buffalo Sabres",
        "col3": "2011-03-13"
    },
    {
        "col0": "R. MacLeish",
        "col1": "Pennsylvania",
        "col2": "Detroit Red Wings",
        "col3": "2016-05-30"
    },
    {
        "col0": "R. Lapointe",
        "col1": "British Columbia",
        "col2": "Detroit Red Wings",
        "col3": "1999-10-17"
    },
    {
        "col0": "R. Foley",
        "col1": "Canada",
        "col2": "Chicago Blackhawks",
        "col3": "2015-09-29"
    },
    {
        "col0": "R. Blight",
        "col1": "Canada",
        "col2": "Los Angeles Kings",
        "col3": "2005-04-03"
    },
    {
        "col0": "R. Dunn",
        "col1": "New York",
        "col2": "Buffalo Sabres",
        "col3": "2016-09-20"
    },
    {
        "col0": "R. Desmond",
        "col1": "Los Angeles",
        "col2": "Dartmouth Big Green men's ice hockey",
        "col3": "1990-11-01"
    },
    {
        "col0": "R. Bucher",
        "col1": "Switzerland",
        "col2": "HC Davos",
        "col3": "2012-09-07"
    },
    {
        "col0": "R. Boileau",
        "col1": "Canada",
        "col2": "New York Americans",
        "col3": "1969-06-09"
    },
    {
        "col0": "R. Khaidarov",
        "col1": "Russia",
        "col2": "Barys Astana",
        "col3": "2012-06-29"
    },
    {
        "col0": "R. Schroeter",
        "col1": "Ottawa",
        "col2": "Ottawa RCAF Flyers",
        "col3": "2002-07-30"
    },
    {
        "col0": "R. Bradley",
        "col1": "Canada",
        "col2": "Ottawa Hockey Club",
        "col3": "1922-07-27"
    },
    {
        "col0": "R. Sinclair",
        "col1": "Canada",
        "col2": "Detroit Red Wings",
        "col3": "2013-11-14"
    },
    {
        "col0": "R. Mackey",
        "col1": "Alberta",
        "col2": "New York Rangers",
        "col3": "1966-02-26"
    },
    {
        "col0": "R. Fleming",
        "col1": "Chicago",
        "col2": "Boston Bruins",
        "col3": "2009-07-11"
    },
    {
        "col0": "R. Bentley",
        "col1": "Alberta",
        "col2": "Chicago Blackhawks",
        "col3": "1980-09-01"
    },
    {
        "col0": "R. Horner",
        "col1": "Canada",
        "col2": "Toronto Maple Leafs",
        "col3": "2005-04-27"
    },
    {
        "col0": "R. Dutton",
        "col1": "Alberta",
        "col2": "Montreal Maroons",
        "col3": "1987-03-15"
    },
    {
        "col0": "R. Armstrong",
        "col1": "Canada",
        "col2": "Toronto Maple Leafs",
        "col3": "1974-07-23"
    },
    {
        "col0": "R. Marchand",
        "col1": "New York",
        "col2": "Toronto Blueshirts",
        "col3": "1969-04-06"
    },
    {
        "col0": "R. Watkins",
        "col1": "Canada",
        "col2": "Saskatoon Quakers",
        "col3": "1975-10-20"
    },
    {
        "col0": "R. Martynuik",
        "col1": "Boquete, Chiriqui",
        "col2": "Kansas City Blues",
        "col3": "2013-10-20"
    },
    {
        "col0": "R. Manson",
        "col1": "Canada",
        "col2": "Boston Bruins",
        "col3": "2004-11-10"
    },
    {
        "col0": "R. Getliffe",
        "col1": "Canada",
        "col2": "Boston Bruins",
        "col3": "2008-06-15"
    },
    {
        "col0": "R. Gariepy",
        "col1": "Canada",
        "col2": "Boston Bruins",
        "col3": "2012-03-16"
    },
    {
        "col0": "R. Frederick",
        "col1": "Canada",
        "col2": "Chicago Blackhawks",
        "col3": "2001-08-23"
    },
    {
        "col0": "R. Ceresino",
        "col1": "California",
        "col2": "Toronto Maple Leafs",
        "col3": "2015-05-01"
    },
    {
        "col0": "R. McDonald",
        "col1": "British Columbia",
        "col2": "Seattle Metropolitans",
        "col3": "1950-1-1"
    },
    {
        "col0": "R. Nattrass",
        "col1": "Alberta",
        "col2": "Chicago Black Hawks",
        "col3": "2014-04-30"
    },
    {
        "col0": "R. MacSweyn",
        "col1": "Canada",
        "col2": "National Hockey League",
        "col3": "1995-05-21"
    },
    {
        "col0": "R. Hansch",
        "col1": "Alberta",
        "col2": "Edmonton Mercurys",
        "col3": "2008-02-29"
    },
    {
        "col0": "R. Lemieux",
        "col1": "Montreal",
        "col2": "Buffalo Sabres",
        "col3": "1975-10-24"
    },
    {
        "col0": "R. Chevrefils",
        "col1": "Canada",
        "col2": "Boston Bruins",
        "col3": "1981-01-08"
    },
    {
        "col0": "P. Imlach",
        "col1": "Canada",
        "col2": "Toronto Marlboros",
        "col3": "1987-12-01"
    },
    {
        "col0": "P. Broadbent",
        "col1": "Canada",
        "col2": "Montreal Maroons",
        "col3": "1971-03-05"
    },
    {
        "col0": "P. Hamilton",
        "col1": "Michigan",
        "col2": "Cobalt Silver Kings",
        "col3": "1965-10-23"
    },
    {
        "col0": "P. Martin",
        "col1": "Canada",
        "col2": "National Hockey League",
        "col3": "2008-11-30"
    },
    {
        "col0": "P. Stevens",
        "col1": "British Columbia",
        "col2": "Montreal Canadiens",
        "col3": "1968-04-08"
    },
    {
        "col0": "P. Stein",
        "col1": "Canada",
        "col2": "Toronto Maple Leafs",
        "col3": "1997-04-04"
    },
    {
        "col0": "P. Hergesheimer",
        "col1": "British Columbia",
        "col2": "Chicago Blackhawks",
        "col3": "2004-03-06"
    },
    {
        "col0": "P. Wilson",
        "col1": "Canada",
        "col2": "Port Arthur Bearcats",
        "col3": "1970-07-26"
    },
    {
        "col0": "P. Aslin",
        "col1": "Sweden",
        "col2": "Leksands IF",
        "col3": "2012-01-19"
    },
    {
        "col0": "P. Zezel",
        "col1": "Canada",
        "col2": "Dallas Stars",
        "col3": "2009-05-26"
    },
    {
        "col0": "P. Patton",
        "col1": "Tiverton, Devon",
        "col2": "Princes Ice Hockey Club",
        "col3": "1939-04-10"
    },
    {
        "col0": "P. Karlsson",
        "col1": "Vasteras",
        "col2": "VIK Vasteras HK",
        "col3": "1995-03-11"
    },
    {
        "col0": "P. Jaks",
        "col1": "Bari",
        "col2": "HC Ambri-Piotta",
        "col3": "2011-10-05"
    },
    {
        "col0": "P. Bessone",
        "col1": "Irvine, California",
        "col2": "Cleveland Barons",
        "col3": "1989-12-05"
    },
    {
        "col0": "P. Aslin",
        "col1": "Sweden",
        "col2": "Leksands IF",
        "col3": "2012-01-19"
    },
    {
        "col0": "P. Wright",
        "col1": "Alberta",
        "col2": "Edmonton Mercurys",
        "col3": "1989-08-19"
    },
    {
        "col0": "P. Palangio",
        "col1": "Canada",
        "col2": "Chicago Blackhawks",
        "col3": "2004-12-24"
    },
    {
        "col0": "P. Langelle",
        "col1": "Canada",
        "col2": "Toronto Maple Leafs",
        "col3": "2010-11-29"
    },
    {
        "col0": "P. Laframboise",
        "col1": "Canada",
        "col2": "Pittsburgh Penguins",
        "col3": "2011-03-19"
    },
    {
        "col0": "P. Kelly",
        "col1": "Canada",
        "col2": "Detroit Red Wings",
        "col3": "2004-03-22"
    },
    {
        "col0": "P. Kapusta",
        "col1": "Canada",
        "col2": "Providence Reds",
        "col3": "2016-07-16"
    },
    {
        "col0": "P. Horeck",
        "col1": "Canada",
        "col2": "Boston Bruins",
        "col3": "2009-08-29"
    },
    {
        "col0": "P. Bellefeuille",
        "col1": "Canada",
        "col2": "Toronto Maple Leafs",
        "col3": "1970-07-14"
    },
    {
        "col0": "P. Traub",
        "col1": "Saskatchewan",
        "col2": "Chicago Blackhawks",
        "col3": "1948-05-05"
    },
    {
        "col0": "P. LeSueur",
        "col1": "Canada",
        "col2": "National Hockey Association",
        "col3": "1962-01-27"
    },
    {
        "col0": "P. Lund",
        "col1": "Canada",
        "col2": "National Hockey League",
        "col3": "2013-04-16"
    },
    {
        "col0": "P. Lindbergh",
        "col1": "Somerdale, New Jersey",
        "col2": "National Hockey League",
        "col3": "1985-11-11"
    },
    {
        "col0": "P. Marjamaki",
        "col1": "Finland",
        "col2": "Tappara",
        "col3": "2012-05-10"
    },
    {
        "col0": "P. O'Flaherty",
        "col1": "Canada",
        "col2": "National Hockey League",
        "col3": "2008-07-16"
    },
    {
        "col0": "P. Demitra",
        "col1": "Russia",
        "col2": "Los Angeles Kings",
        "col3": "2011-09-07"
    },
    {
        "col0": "P. Trakhanov",
        "col1": "Russia",
        "col2": "Kontinental Hockey League",
        "col3": "2011-09-07"
    },
    {
        "col0": "P. Snurnitsyn",
        "col1": "Russia",
        "col2": "Lokomotiv Yaroslavl",
        "col3": "2011-09-07"
    },
    {
        "col0": "P. Terbenche",
        "col1": "Canada",
        "col2": "Buffalo Sabres",
        "col3": "2012-01-09"
    },
    {
        "col0": "P. Shmyr",
        "col1": "British Columbia",
        "col2": "Chicago Blackhawks",
        "col3": "2004-09-02"
    },
    {
        "col0": "P. Larivee",
        "col1": "Canada",
        "col2": "Providence Reds",
        "col3": "2003-12-08"
    },
    {
        "col0": "P. Jacobs",
        "col1": "Canada",
        "col2": "Toronto Arenas",
        "col3": "1973-05-01"
    },
    {
        "col0": "P. Cyr",
        "col1": "British Columbia",
        "col2": "Buffalo Sabres",
        "col3": "2012-05-12"
    },
    {
        "col0": "P. Bibeault",
        "col1": "Rigaud, Quebec",
        "col2": "Montreal Canadiens",
        "col3": "1970-08-02"
    },
    {
        "col0": "P. Ambros",
        "col1": "Fussen",
        "col2": "Unified Team of Germany",
        "col3": "2015-06-26"
    },
    {
        "col0": "P. Rupp",
        "col1": "Dayton, Ohio",
        "col2": "Detroit Red Wings",
        "col3": "2006-02-02"
    },
    {
        "col0": "P. Quinn",
        "col1": "British Columbia",
        "col2": "Atlanta Flames",
        "col3": "2014-11-23"
    },
    {
        "col0": "P. Hannigan",
        "col1": "Canada",
        "col2": "Philadelphia Flyers",
        "col3": "2007-12-11"
    },
    {
        "col0": "P. Ginnell",
        "col1": "British Columbia",
        "col2": "International Hockey League",
        "col3": "2003-11-17"
    },
    {
        "col0": "P. Egan",
        "col1": "Berkeley Heights, New Jersey",
        "col2": "New York Rangers",
        "col3": "2008-06-03"
    },
    {
        "col0": "P. Moran",
        "col1": "Canada",
        "col2": "Quebec Bulldogs",
        "col3": "1966-01-14"
    },
    {
        "col0": "O. McCourt",
        "col1": "Canada",
        "col2": "Montreal Shamrocks",
        "col3": "1907-03-07"
    },
    {
        "col0": "O. Sabourin",
        "col1": "Detroit",
        "col2": "Saskatoon Crescents",
        "col3": "1937-09-20"
    },
    {
        "col0": "O. Aubuchon",
        "col1": "Canada",
        "col2": "National Hockey League",
        "col3": "1970-09-10"
    },
    {
        "col0": "O. Anderson",
        "col1": "Massachusetts",
        "col2": "Boston Olympics",
        "col3": "1989-01-31"
    },
    {
        "col0": "O. Reinikka",
        "col1": "Canada",
        "col2": "New York Rangers",
        "col3": "1962-11-02"
    },
    {
        "col0": "O. Seibert",
        "col1": "Canada",
        "col2": "Canadian Soo",
        "col3": "1944-05-15"
    },
    {
        "col0": "O. Cleghorn",
        "col1": "Canada",
        "col2": "Montreal Canadiens",
        "col3": "1956-07-13"
    },
    {
        "col0": "N. Smith",
        "col1": "Florida",
        "col2": "Detroit Red Wings",
        "col3": "1988-02-02"
    },
    {
        "col0": "N. McAtee",
        "col1": "Ohio",
        "col2": "Boston Bruins",
        "col3": "2010-08-25"
    },
    {
        "col0": "N. Johnson",
        "col1": "Oregon",
        "col2": "Boston Bruins",
        "col3": "2016-03-22"
    },
    {
        "col0": "N. Gray",
        "col1": "Canada",
        "col2": "East York Lyndhursts",
        "col3": "2008-10-22"
    },
    {
        "col0": "N. Gratton",
        "col1": "Canada",
        "col2": "Atlanta Flames",
        "col3": "2010-12-10"
    },
    {
        "col0": "N. Dussault",
        "col1": "Canada",
        "col2": "Montreal Canadiens",
        "col3": "2012-08-28"
    },
    {
        "col0": "N. Defelice",
        "col1": "Canada",
        "col2": "Boston Bruins",
        "col3": "2015-09-27"
    },
    {
        "col0": "N. Calladine",
        "col1": "Providence, Rhode Island",
        "col2": "Boston Bruins",
        "col3": "1988-03-23"
    },
    {
        "col0": "N. Drozdetsky",
        "col1": "Russia",
        "col2": "HC CSKA Moscow",
        "col3": "1995-11-25"
    },
    {
        "col0": "N. Klyukin",
        "col1": "Russia",
        "col2": "Lokomotiv Yaroslavl",
        "col3": "2011-09-07"
    },
    {
        "col0": "N. Wasnie",
        "col1": "Minnesota",
        "col2": "National Hockey League",
        "col3": "1991-05-26"
    },
    {
        "col0": "N. Mickoski",
        "col1": "Canada",
        "col2": "Boston Bruins",
        "col3": "2002-03-13"
    },
    {
        "col0": "N. Harbaruk",
        "col1": "Canada",
        "col2": "Pittsburgh Penguins",
        "col3": "2011-03-10"
    },
    {
        "col0": "N. Damore",
        "col1": "New York",
        "col2": "Boston Bruins",
        "col3": "1969-04-16"
    },
    {
        "col0": "N. Bawlf",
        "col1": "Ithaca, New York",
        "col2": "Montreal Canadiens",
        "col3": "1947-06-06"
    },
    {
        "col0": "N. Lalonde",
        "col1": "Quebec",
        "col2": "Montreal Canadiens",
        "col3": "1970-11-21"
    },
    {
        "col0": "N. Stewart",
        "col1": "Ontario",
        "col2": "Boston Bruins",
        "col3": "1957-08-21"
    },
    {
        "col0": "N. Podolsky",
        "col1": "Canada",
        "col2": "Detroit Red Wings",
        "col3": "2007-03-21"
    },
    {
        "col0": "N. Crutchfield",
        "col1": "Canada",
        "col2": "Montreal Canadiens",
        "col3": "1985-07-22"
    },
    {
        "col0": "N. Colville",
        "col1": "British Columbia",
        "col2": "New York Rangers",
        "col3": "1987-12-26"
    },
    {
        "col0": "N. Marsters",
        "col1": "Canada",
        "col2": "Louisiana IceGators",
        "col3": "2009-06-08"
    },
    {
        "col0": "N. Dame",
        "col1": "Alberta",
        "col2": "Montreal Canadiens",
        "col3": "2006-04-14"
    },
    {
        "col0": "N. Milroy",
        "col1": "Alberta",
        "col2": "Lethbridge Maple Leafs",
        "col3": "2012-04-14"
    },
    {
        "col0": "M. Lane",
        "col1": "Manhattan",
        "col2": "Boston Bruins",
        "col3": "1987-08-06"
    },
    {
        "col0": "M. Patrick",
        "col1": "Connecticut",
        "col2": "New York Rangers",
        "col3": "1998-07-27"
    },
    {
        "col0": "M. March",
        "col1": "Illinois",
        "col2": "Chicago Blackhawks",
        "col3": "2002-01-09"
    }
]