[
    {
        "col0": "O. Kiam",
        "col1": "United States",
        "col2": "Alexander Kiam",
        "col3": "1894-0-0",
        "col4": "1954-0-0"
    },
    {
        "col0": "N. Cohn",
        "col1": "Ukrainian American",
        "col2": "Nuta Kotlyarenko",
        "col3": "1902-12-15",
        "col4": "1984-05-09"
    },
    {
        "col0": "L. Claiborne",
        "col1": "United States",
        "col2": "Anne Elisabeth Jane Claiborne",
        "col3": "1929-03-31",
        "col4": "2007-06-26"
    },
    {
        "col0": "L. Himmelstein",
        "col1": "United States",
        "col2": "Lena Himmelstein",
        "col3": "1877-3-1",
        "col4": "1951-9-26"
    },
    {
        "col0": "J. F. Turner",
        "col1": "United States",
        "col2": "Jessie Franklin Turner",
        "col3": "1881-1-1",
        "col4": "1956-1-1"
    },
    {
        "col0": "G. Camerino",
        "col1": "Italian people",
        "col2": "Giuliana Coen",
        "col3": "1920-12-08",
        "col4": "2010-05-10"
    },
    {
        "col0": "C. Kleibacker",
        "col1": "United States",
        "col2": "Charles John Kleibacker",
        "col3": "1921-11-20",
        "col4": "2010-01-03"
    }
]