[
    {
        "col0": "Kamen Rider 555",
        "col1": "T. Inoue",
        "col2": "H. Matsuo",
        "col3": "Kamen Rider Ryuki"
    },
    {
        "col0": "Jonah from Tonga",
        "col1": "C. Lilley",
        "col2": "C. Lilley",
        "col3": "Ja'mie: Private School Girl"
    },
    {
        "col0": "Joe 90",
        "col1": "S. Rimmer",
        "col2": "B. Gray",
        "col3": "Captain Scarlet and the Mysterons"
    },
    {
        "col0": "Jeff Dunham's Very Special Christmas Special",
        "col1": "J. Dunham",
        "col2": "B. Haner",
        "col3": "Jeff Dunham: Spark of Insanity"
    },
    {
        "col0": "Ja'mie: Private School Girl",
        "col1": "C. Lilley",
        "col2": "C. Lilley",
        "col3": "Angry Boys"
    },
    {
        "col0": "It Was My Best Birthday Ever, Charlie Brown",
        "col1": "C. M. Schulz",
        "col2": "V. Guaraldi",
        "col3": "You're in the Super Bowl, Charlie Brown"
    },
    {
        "col0": "It's the Great Pumpkin, Charlie Brown",
        "col1": "C. M. Schulz",
        "col2": "V. Guaraldi",
        "col3": "Charlie Brown's All-Stars"
    },
    {
        "col0": "It's an Adventure, Charlie Brown",
        "col1": "C. M. Schulz",
        "col2": "D. Goyette",
        "col3": "Is This Goodbye, Charlie Brown?"
    },
    {
        "col0": "It's Spring Training, Charlie Brown",
        "col1": "C. M. Schulz",
        "col2": "H. Mancini",
        "col3": "Snoopy's Reunion"
    },
    {
        "col0": "It's Flashbeagle, Charlie Brown",
        "col1": "C. M. Schulz",
        "col2": "D. Goyette",
        "col3": "What Have We Learned, Charlie Brown?"
    },
    {
        "col0": "It's Christmastime Again, Charlie Brown",
        "col1": "C. M. Schulz",
        "col2": "V. Guaraldi",
        "col3": "It's Spring Training, Charlie Brown"
    },
    {
        "col0": "Is This Goodbye, Charlie Brown?",
        "col1": "C. M. Schulz",
        "col2": "J. Munsen",
        "col3": "A Charlie Brown Celebration"
    },
    {
        "col0": "I Yabba-Dabba Do!",
        "col1": "M. Seidenberg",
        "col2": "J. Debney",
        "col3": "The Flintstone Kids' \"Just Say No\" Special"
    },
    {
        "col0": "Horrible Histories",
        "col1": "S. Punt",
        "col2": "R. Webb",
        "col3": "Horrible Histories"
    },
    {
        "col0": "Hokey Wolf",
        "col1": "J. Barbera",
        "col2": "H. Curtin",
        "col3": "Yogi Bear"
    },
    {
        "col0": "High School Musical 2",
        "col1": "P. Barsocchini",
        "col2": "D. N. Lawrence",
        "col3": "High School Musical"
    },
    {
        "col0": "He's a Bully, Charlie Brown",
        "col1": "C. M. Schulz",
        "col2": "D. Benoit",
        "col3": "I Want a Dog for Christmas, Charlie Brown"
    },
    {
        "col0": "He's Your Dog, Charlie Brown",
        "col1": "C. M. Schulz",
        "col2": "V. Guaraldi",
        "col3": "You're in Love, Charlie Brown"
    },
    {
        "col0": "Have a Little Faith",
        "col1": "M. Albom",
        "col2": "E. Shearmur",
        "col3": "Beyond the Blackboard"
    },
    {
        "col0": "Harvey Birdman, Attorney at Law",
        "col1": "E. Richter",
        "col2": "M. Kohler",
        "col3": "Space Ghost Coast to Coast"
    },
    {
        "col0": "Harvest of Fire",
        "col1": "R. Alfieri",
        "col2": "L. Holdridge",
        "col3": "The Boys Next Door"
    },
    {
        "col0": "Happy New Year, Charlie Brown!",
        "col1": "C. M. Schulz",
        "col2": "D. Goyette",
        "col3": "You're a Good Man, Charlie Brown"
    },
    {
        "col0": "Happiness Is a Warm Blanket, Charlie Brown",
        "col1": "C. M. Schulz",
        "col2": "M. Mothersbaugh",
        "col3": "He's a Bully, Charlie Brown"
    },
    {
        "col0": "Halloween with the New Addams Family",
        "col1": "C. Addams",
        "col2": "V. Mizzy",
        "col3": "The Addams Family"
    },
    {
        "col0": "Hairspray Live!",
        "col1": "H. Fierstein",
        "col2": "M. Shaiman",
        "col3": "The Wiz Live!"
    },
    {
        "col0": "Guys Next Door",
        "col1": "T. Burkhard",
        "col2": "S. Records",
        "col3": "Saved By the Bell"
    },
    {
        "col0": "Gul-e-Rana",
        "col1": "S. Bukhari",
        "col2": "W. Ali",
        "col3": "Mol"
    },
    {
        "col0": "Guest from the Future",
        "col1": "K. Bulychov",
        "col2": "Y. Krylatov",
        "col3": "The Mystery of the Third Planet"
    },
    {
        "col0": "Grass",
        "col1": "A. Collins",
        "col2": "J. Talbot",
        "col3": "The Fast Show"
    },
    {
        "col0": "Going My Way",
        "col1": "R. L. Bare",
        "col2": "J. Marshall",
        "col3": "Going My Way"
    },
    {
        "col0": "GoGo Sentai Boukenger",
        "col1": "S. Aikawa",
        "col2": "K. Nakagawa",
        "col3": "Mahou Sentai Magiranger"
    },
    {
        "col0": "Glenroe",
        "col1": "W. Burrowes",
        "col2": "Horslips",
        "col3": "Bracken"
    },
    {
        "col0": "Garfield on the Town",
        "col1": "L. Music",
        "col2": "L. Rawls",
        "col3": "Here Comes Garfield"
    },
    {
        "col0": "Garfield in the Rough",
        "col1": "J. Davis",
        "col2": "L. Music",
        "col3": "Garfield on the Town"
    },
    {
        "col0": "Garfield in Paradise",
        "col1": "J. Davis",
        "col2": "L. Music",
        "col3": "Garfield's Halloween Adventure"
    },
    {
        "col0": "Garfield Goes Hollywood",
        "col1": "J. Davis",
        "col2": "L. Music",
        "col3": "Garfield in Paradise"
    },
    {
        "col0": "Garfield's Thanksgiving",
        "col1": "J. Davis",
        "col2": "L. Rawls",
        "col3": "Garfield's Babes and Bullets"
    },
    {
        "col0": "Garfield's Halloween Adventure",
        "col1": "J. Davis",
        "col2": "L. Rawls",
        "col3": "Garfield in the Rough"
    },
    {
        "col0": "Garfield's Babes and Bullets",
        "col1": "J. Davis",
        "col2": "L. Rawls",
        "col3": "Garfield: His 9 Lives"
    },
    {
        "col0": "Gabriel y Gabriela",
        "col1": "Y. V. Dulche",
        "col2": "B. Silvetti",
        "col3": "El derecho de nacer"
    },
    {
        "col0": "Fireball XL5",
        "col1": "G. Anderson",
        "col2": "B. Gray",
        "col3": "Supercar"
    },
    {
        "col0": "Finding Your Roots",
        "col1": "Henry Louis Gates, Jr.",
        "col2": "M. Bacon",
        "col3": "Faces of America"
    },
    {
        "col0": "Evil Con Carne",
        "col1": "M. Atoms",
        "col2": "D. Neumann",
        "col3": "Grim & Evil"
    },
    {
        "col0": "En nombre del amor",
        "col1": "M. Carrillo",
        "col2": "L. Pausini",
        "col3": "Querida Enemiga"
    },
    {
        "col0": "Elizabeth R: A Year in the Life of the Queen",
        "col1": "A. Jay",
        "col2": "R. Portman",
        "col3": "Royal Family"
    },
    {
        "col0": "El Privilegio de Amar",
        "col1": "L. Abud",
        "col2": "J. Avendano",
        "col3": "La usurpadora"
    },
    {
        "col0": "Dos hogares",
        "col1": "E. Larrosa",
        "col2": "Anahi",
        "col3": "Triunfo del amor"
    },
    {
        "col0": "Descendants",
        "col1": "J. McGibbon",
        "col2": "D. N. Lawrence",
        "col3": "Descendants: School of Secrets"
    },
    {
        "col0": "Delta House",
        "col1": "J. Hughes",
        "col2": "T. Hendra",
        "col3": "National Lampoon's Animal House"
    },
    {
        "col0": "Death on the Nile",
        "col1": "A. Christie",
        "col2": "C. Gunning",
        "col3": "Sad Cypress"
    },
    {
        "col0": "Daniel Tiger's Neighborhood",
        "col1": "A. Santomero",
        "col2": "F. Rogers",
        "col3": "Mister Rogers' Neighborhood"
    },
    {
        "col0": "Dancing on the Edge",
        "col1": "S. Poliakoff",
        "col2": "A. Johnston",
        "col3": "Glorious 39"
    },
    {
        "col0": "Dallas: War of the Ewings",
        "col1": "A. B. Lewis",
        "col2": "J. Immel",
        "col3": "Dallas: J.R. Returns"
    },
    {
        "col0": "Dallas: J.R. Returns",
        "col1": "A. B. Lewis",
        "col2": "J. Immel",
        "col3": "Dallas"
    },
    {
        "col0": "Daktari",
        "col1": "R. Lees",
        "col2": "S. Manne",
        "col3": "Clarence, the Cross-Eyed Lion"
    },
    {
        "col0": "Cuando me enamoro",
        "col1": "M. Carrillo",
        "col2": "E. Iglesias",
        "col3": "Mar de amor"
    },
    {
        "col0": "Crocodile Shoes II",
        "col1": "J. Nail",
        "col2": "J. Nail",
        "col3": "Crocodile Shoes"
    },
    {
        "col0": "Cosmos: A Spacetime Odyssey",
        "col1": "S. Soter",
        "col2": "A. Silvestri",
        "col3": "Cosmos: A Personal Voyage"
    },
    {
        "col0": "Club Penguin: Monster Beach Party",
        "col1": "M. Olson",
        "col2": "P. Lovatt-Cooper",
        "col3": "We Wish You a Merry Walrus"
    },
    {
        "col0": "Choriki Sentai Ohranger",
        "col1": "T. Inoue",
        "col2": "S. Yokoyama",
        "col3": "Ninja Sentai Kakuranger"
    },
    {
        "col0": "Chojin Sentai Jetman",
        "col1": "T. Inoue",
        "col2": "K. Toyama",
        "col3": "Chikyu Sentai Fiveman"
    }
]