[
    {
        "col0": "Shooting at the 1936 Summer Olympics - Men's 25 metre rapid fire pistol",
        "col1": "T. Ullman",
        "col2": "Shooting at the 1948 Summer Olympics - Men's 25 metre rapid fire pistol",
        "col3": "Shooting at the 1932 Summer Olympics - Men's 25 metre rapid fire pistol"
    },
    {
        "col0": "Shooting at the 1932 Summer Olympics - Men's 50 metre rifle, prone",
        "col1": "Z. S. Hradetzky",
        "col2": "Shooting at the 1936 Summer Olympics - Men's 50 metre rifle, prone",
        "col3": "Shooting at the 1924 Summer Olympics - Men's 50 metre rifle, prone"
    },
    {
        "col0": "Shooting at the 1932 Summer Olympics - Men's 25 metre rapid fire pistol",
        "col1": "D. Matteucci",
        "col2": "Shooting at the 1936 Summer Olympics - Men's 25 metre rapid fire pistol",
        "col3": "Shooting at the 1924 Summer Olympics - Men's 25 metre rapid fire pistol"
    },
    {
        "col0": "Shooting at the 1932 Summer Olympics - Men's 50 metre rifle, prone",
        "col1": "Z. S. Hradetzky",
        "col2": "Shooting at the 1936 Summer Olympics - Men's 50 metre rifle, prone",
        "col3": "Shooting at the 1924 Summer Olympics - Men's 50 metre rifle, prone"
    },
    {
        "col0": "Shooting at the 1932 Summer Olympics - Men's 25 metre rapid fire pistol",
        "col1": "D. Matteucci",
        "col2": "Shooting at the 1936 Summer Olympics - Men's 25 metre rapid fire pistol",
        "col3": "Shooting at the 1924 Summer Olympics - Men's 25 metre rapid fire pistol"
    },
    {
        "col0": "Shooting at the 1924 Summer Olympics - Men's trap",
        "col1": "F. Hughes",
        "col2": "Shooting at the 1952 Summer Olympics - Men's trap",
        "col3": "Shooting at the 1920 Summer Olympics - Men's trap"
    },
    {
        "col0": "Shooting at the 1924 Summer Olympics - Men's 50 metre rifle, prone",
        "col1": "J. Hartmann",
        "col2": "Shooting at the 1932 Summer Olympics - Men's 50 metre rifle, prone",
        "col3": "Shooting at the 1912 Summer Olympics - Men's 50 metre rifle, prone"
    },
    {
        "col0": "Shooting at the 1924 Summer Olympics - Men's 25 metre rapid fire pistol",
        "col1": "L. Hannelius",
        "col2": "Shooting at the 1932 Summer Olympics - Men's 25 metre rapid fire pistol",
        "col3": "Shooting at the 1920 Summer Olympics - Men's 30 metre military pistol"
    },
    {
        "col0": "Shooting at the 1924 Summer Olympics - Men's trap",
        "col1": "F. Hughes",
        "col2": "Shooting at the 1952 Summer Olympics - Men's trap",
        "col3": "Shooting at the 1920 Summer Olympics - Men's trap"
    },
    {
        "col0": "Shooting at the 1924 Summer Olympics - Men's 50 metre rifle, prone",
        "col1": "J. Hartmann",
        "col2": "Shooting at the 1932 Summer Olympics - Men's 50 metre rifle, prone",
        "col3": "Shooting at the 1912 Summer Olympics - Men's 50 metre rifle, prone"
    },
    {
        "col0": "Shooting at the 1924 Summer Olympics - Men's 25 metre rapid fire pistol",
        "col1": "L. Hannelius",
        "col2": "Shooting at the 1932 Summer Olympics - Men's 25 metre rapid fire pistol",
        "col3": "Shooting at the 1920 Summer Olympics - Men's 30 metre military pistol"
    },
    {
        "col0": "Shooting at the 1920 Summer Olympics - Men's trap",
        "col1": "F. Wright",
        "col2": "Shooting at the 1924 Summer Olympics - Men's trap",
        "col3": "Shooting at the 1912 Summer Olympics - Men's trap"
    },
    {
        "col0": "Shooting at the 1920 Summer Olympics - Men's team clay pigeons",
        "col1": "F. Landelius",
        "col2": "Shooting at the 1924 Summer Olympics - Men's team clay pigeons",
        "col3": "Shooting at the 1912 Summer Olympics - Men's trap, team"
    },
    {
        "col0": "Shooting at the 1920 Summer Olympics - Men's 50 metre free pistol",
        "col1": "A. Lane",
        "col2": "Shooting at the 1936 Summer Olympics - Men's 50 metre pistol",
        "col3": "Shooting at the 1912 Summer Olympics - Men's 50 metre pistol"
    },
    {
        "col0": "Shooting at the 1920 Summer Olympics - Men's 30 metre military pistol",
        "col1": "F. Zulauf",
        "col2": "Shooting at the 1924 Summer Olympics - Men's 25 metre rapid fire pistol",
        "col3": "Shooting at the 1912 Summer Olympics - Men's 25 metre rapid fire pistol"
    },
    {
        "col0": "Shooting at the 1920 Summer Olympics - Men's 300 metre free rifle, three positions",
        "col1": "O. Ostensen",
        "col2": "Shooting at the 1948 Summer Olympics - Men's 300 metre free rifle, three positions",
        "col3": "Shooting at the 1912 Summer Olympics - Men's 300 metre free rifle, three positions"
    },
    {
        "col0": "Shooting at the 1920 Summer Olympics - Men's 100 metre team running deer, single shots",
        "col1": "C. Osburn",
        "col2": "Shooting at the 1924 Summer Olympics - Men's 100 metre team running deer, single shots",
        "col3": "Shooting at the 1912 Summer Olympics - Men's 100 metre team running deer, single shots"
    },
    {
        "col0": "Shooting at the 1920 Summer Olympics - Men's 100 metre running deer, single shots",
        "col1": "H. Natvig",
        "col2": "Shooting at the 1924 Summer Olympics - Men's 100 metre running deer, single shots",
        "col3": "Shooting at the 1912 Summer Olympics - Men's 100 metre running deer, single shots"
    },
    {
        "col0": "Shooting at the 1920 Summer Olympics - Men's 100 metre running deer, double shots",
        "col1": "E. Liberg",
        "col2": "Shooting at the 1924 Summer Olympics - Men's 100 metre running deer, double shots",
        "col3": "Shooting at the 1912 Summer Olympics - Men's 100 metre running deer, double shots"
    },
    {
        "col0": "Shooting at the 1920 Summer Olympics - Men's trap",
        "col1": "F. Wright",
        "col2": "Shooting at the 1924 Summer Olympics - Men's trap",
        "col3": "Shooting at the 1912 Summer Olympics - Men's trap"
    },
    {
        "col0": "Shooting at the 1920 Summer Olympics - Men's team clay pigeons",
        "col1": "A. Swahn",
        "col2": "Shooting at the 1924 Summer Olympics - Men's team clay pigeons",
        "col3": "Shooting at the 1912 Summer Olympics - Men's trap, team"
    },
    {
        "col0": "Shooting at the 1920 Summer Olympics - Men's 50 metre free pistol",
        "col1": "A. Lane",
        "col2": "Shooting at the 1936 Summer Olympics - Men's 50 metre pistol",
        "col3": "Shooting at the 1912 Summer Olympics - Men's 50 metre pistol"
    },
    {
        "col0": "Shooting at the 1920 Summer Olympics - Men's 30 metre military pistol",
        "col1": "F. Zulauf",
        "col2": "Shooting at the 1924 Summer Olympics - Men's 25 metre rapid fire pistol",
        "col3": "Shooting at the 1912 Summer Olympics - Men's 25 metre rapid fire pistol"
    },
    {
        "col0": "Shooting at the 1920 Summer Olympics - Men's 300 metre free rifle, three positions",
        "col1": "O. Ostensen",
        "col2": "Shooting at the 1948 Summer Olympics - Men's 300 metre free rifle, three positions",
        "col3": "Shooting at the 1912 Summer Olympics - Men's 300 metre free rifle, three positions"
    },
    {
        "col0": "Shooting at the 1920 Summer Olympics - Men's 100 metre team running deer, single shots",
        "col1": "W. A. Lee",
        "col2": "Shooting at the 1924 Summer Olympics - Men's 100 metre team running deer, single shots",
        "col3": "Shooting at the 1912 Summer Olympics - Men's 100 metre team running deer, single shots"
    },
    {
        "col0": "Shooting at the 1920 Summer Olympics - Men's 100 metre running deer, single shots",
        "col1": "H. Natvig",
        "col2": "Shooting at the 1924 Summer Olympics - Men's 100 metre running deer, single shots",
        "col3": "Shooting at the 1912 Summer Olympics - Men's 100 metre running deer, single shots"
    },
    {
        "col0": "Shooting at the 1920 Summer Olympics - Men's 100 metre running deer, double shots",
        "col1": "E. Liberg",
        "col2": "Shooting at the 1924 Summer Olympics - Men's 100 metre running deer, double shots",
        "col3": "Shooting at the 1912 Summer Olympics - Men's 100 metre running deer, double shots"
    },
    {
        "col0": "Shooting at the 1912 Summer Olympics - Men's trap",
        "col1": "H. Blau",
        "col2": "Shooting at the 1920 Summer Olympics - Men's trap",
        "col3": "Shooting at the 1908 Summer Olympics - Men's trap"
    },
    {
        "col0": "Shooting at the 1912 Summer Olympics - Men's team free rifle",
        "col1": "J. Hajslund",
        "col2": "Shooting at the 1920 Summer Olympics - Men's team free rifle",
        "col3": "Shooting at the 1908 Summer Olympics - Men's 300 metre free rifle, team"
    },
    {
        "col0": "Shooting at the 1912 Summer Olympics - Men's 50 metre team free pistol",
        "col1": "A. Kempster",
        "col2": "Shooting at the 1920 Summer Olympics - Men's 50 metre team free pistol",
        "col3": "Shooting at the 1908 Summer Olympics - Men's 50 yard free pistol, team"
    },
    {
        "col0": "Shooting at the 1912 Summer Olympics - Men's 50 metre pistol",
        "col1": "C. Stewart",
        "col2": "Shooting at the 1920 Summer Olympics - Men's 50 metre free pistol",
        "col3": "Shooting at the 1908 Summer Olympics - Men's 50 yard free pistol"
    },
    {
        "col0": "Shooting at the 1912 Summer Olympics - Men's 300 metre free rifle, three positions",
        "col1": "N. Larsen",
        "col2": "Shooting at the 1920 Summer Olympics - Men's 300 metre free rifle, three positions",
        "col3": "Shooting at the 1908 Summer Olympics - Men's 300 metre free rifle, three positions"
    },
    {
        "col0": "Shooting at the 1912 Summer Olympics - Men's 25 metre rapid fire pistol",
        "col1": "Johan Hubner von Holst",
        "col2": "Shooting at the 1920 Summer Olympics - Men's 30 metre military pistol",
        "col3": "Shooting at the 1900 Summer Olympics - Men's 25 metre rapid fire pistol"
    },
    {
        "col0": "Shooting at the 1912 Summer Olympics - Men's 100 metre team running deer, single shots",
        "col1": "A. Londen",
        "col2": "Shooting at the 1920 Summer Olympics - Men's 100 metre team running deer, double shots",
        "col3": "Shooting at the 1908 Summer Olympics - Men's team single-shot running deer"
    },
    {
        "col0": "Shooting at the 1912 Summer Olympics - Men's 100 metre running deer, single shots",
        "col1": "N. Toivonen",
        "col2": "Shooting at the 1920 Summer Olympics - Men's 100 metre running deer, single shots",
        "col3": "Shooting at the 1908 Summer Olympics - Men's single-shot running deer"
    },
    {
        "col0": "Shooting at the 1912 Summer Olympics - Men's 100 metre running deer, double shots",
        "col1": "O. Swahn",
        "col2": "Shooting at the 1920 Summer Olympics - Men's 100 metre running deer, double shots",
        "col3": "Shooting at the 1908 Summer Olympics - Men's double-shot running deer"
    },
    {
        "col0": "Shooting at the 1912 Summer Olympics - Men's trap",
        "col1": "H. Blau",
        "col2": "Shooting at the 1920 Summer Olympics - Men's trap",
        "col3": "Shooting at the 1908 Summer Olympics - Men's trap"
    },
    {
        "col0": "Shooting at the 1912 Summer Olympics - Men's team free rifle",
        "col1": "L. J. Madsen",
        "col2": "Shooting at the 1920 Summer Olympics - Men's team free rifle",
        "col3": "Shooting at the 1908 Summer Olympics - Men's 300 metre free rifle, team"
    },
    {
        "col0": "Shooting at the 1912 Summer Olympics - Men's 50 metre team free pistol",
        "col1": "C. Stewart",
        "col2": "Shooting at the 1920 Summer Olympics - Men's 50 metre team free pistol",
        "col3": "Shooting at the 1908 Summer Olympics - Men's 50 yard free pistol, team"
    },
    {
        "col0": "Shooting at the 1912 Summer Olympics - Men's 50 metre pistol",
        "col1": "C. Stewart",
        "col2": "Shooting at the 1920 Summer Olympics - Men's 50 metre free pistol",
        "col3": "Shooting at the 1908 Summer Olympics - Men's 50 yard free pistol"
    },
    {
        "col0": "Shooting at the 1912 Summer Olympics - Men's 300 metre free rifle, three positions",
        "col1": "N. Larsen",
        "col2": "Shooting at the 1920 Summer Olympics - Men's 300 metre free rifle, three positions",
        "col3": "Shooting at the 1908 Summer Olympics - Men's 300 metre free rifle, three positions"
    },
    {
        "col0": "Shooting at the 1912 Summer Olympics - Men's 25 metre rapid fire pistol",
        "col1": "Johan Hubner von Holst",
        "col2": "Shooting at the 1920 Summer Olympics - Men's 30 metre military pistol",
        "col3": "Shooting at the 1900 Summer Olympics - Men's 25 metre rapid fire pistol"
    },
    {
        "col0": "Shooting at the 1912 Summer Olympics - Men's 100 metre team running deer, single shots",
        "col1": "A. Londen",
        "col2": "Shooting at the 1920 Summer Olympics - Men's 100 metre team running deer, double shots",
        "col3": "Shooting at the 1908 Summer Olympics - Men's team single-shot running deer"
    },
    {
        "col0": "Shooting at the 1912 Summer Olympics - Men's 100 metre running deer, single shots",
        "col1": "N. Toivonen",
        "col2": "Shooting at the 1920 Summer Olympics - Men's 100 metre running deer, single shots",
        "col3": "Shooting at the 1908 Summer Olympics - Men's single-shot running deer"
    },
    {
        "col0": "Shooting at the 1912 Summer Olympics - Men's 100 metre running deer, double shots",
        "col1": "O. Swahn",
        "col2": "Shooting at the 1920 Summer Olympics - Men's 100 metre running deer, double shots",
        "col3": "Shooting at the 1908 Summer Olympics - Men's double-shot running deer"
    },
    {
        "col0": "Shooting at the 1908 Summer Olympics - Men's trap",
        "col1": "A. Maunder",
        "col2": "Shooting at the 1912 Summer Olympics - Men's trap",
        "col3": "Shooting at the 1900 Summer Olympics - Men's trap"
    },
    {
        "col0": "Shooting at the 1908 Summer Olympics - Men's 50 yard free pistol, team",
        "col1": "G. Coles",
        "col2": "Shooting at the 1912 Summer Olympics - Men's 50 metre free pistol, team",
        "col3": "Shooting at the 1900 Summer Olympics - Men's 50 metre free pistol, team"
    },
    {
        "col0": "Shooting at the 1908 Summer Olympics - Men's 50 yard free pistol",
        "col1": "J. Gorman",
        "col2": "Shooting at the 1912 Summer Olympics - Men's 50 metre pistol",
        "col3": "Shooting at the 1900 Summer Olympics - Men's 50 metre free pistol"
    },
    {
        "col0": "Shooting at the 1908 Summer Olympics - Men's 300 metre free rifle, three positions",
        "col1": "O. Saether",
        "col2": "Shooting at the 1912 Summer Olympics - Men's 300 metre free rifle, three positions",
        "col3": "Shooting at the 1900 Summer Olympics - Men's 300 metre free rifle, three positions"
    },
    {
        "col0": "Shooting at the 1908 Summer Olympics - Men's 300 metre free rifle, team",
        "col1": "M. Lecoq",
        "col2": "Shooting at the 1912 Summer Olympics - Men's team free rifle",
        "col3": "Shooting at the 1900 Summer Olympics - Men's 300 metre free rifle, team"
    },
    {
        "col0": "Shooting at the 1908 Summer Olympics - Men's trap",
        "col1": "A. Maunder",
        "col2": "Shooting at the 1912 Summer Olympics - Men's trap",
        "col3": "Shooting at the 1900 Summer Olympics - Men's trap"
    },
    {
        "col0": "Shooting at the 1908 Summer Olympics - Men's 50 yard free pistol, team",
        "col1": "G. Coles",
        "col2": "Shooting at the 1912 Summer Olympics - Men's 50 metre free pistol, team",
        "col3": "Shooting at the 1900 Summer Olympics - Men's 50 metre free pistol, team"
    },
    {
        "col0": "Shooting at the 1908 Summer Olympics - Men's 50 yard free pistol",
        "col1": "J. Gorman",
        "col2": "Shooting at the 1912 Summer Olympics - Men's 50 metre pistol",
        "col3": "Shooting at the 1900 Summer Olympics - Men's 50 metre free pistol"
    },
    {
        "col0": "Shooting at the 1908 Summer Olympics - Men's 300 metre free rifle, three positions",
        "col1": "O. Saether",
        "col2": "Shooting at the 1912 Summer Olympics - Men's 300 metre free rifle, three positions",
        "col3": "Shooting at the 1900 Summer Olympics - Men's 300 metre free rifle, three positions"
    },
    {
        "col0": "Shooting at the 1908 Summer Olympics - Men's 300 metre free rifle, team",
        "col1": "M. Lecoq",
        "col2": "Shooting at the 1912 Summer Olympics - Men's team free rifle",
        "col3": "Shooting at the 1900 Summer Olympics - Men's 300 metre free rifle, team"
    },
    {
        "col0": "Shooting at the 1900 Summer Olympics - Men's 50 metre free pistol",
        "col1": "K. Staheli",
        "col2": "Shooting at the 1908 Summer Olympics - Men's 50 yard free pistol",
        "col3": "Shooting at the 1896 Summer Olympics - Men's 30 metre free pistol"
    },
    {
        "col0": "Shooting at the 1900 Summer Olympics - Men's 25 metre rapid fire pistol",
        "col1": "E. Balme",
        "col2": "Shooting at the 1912 Summer Olympics - Men's 25 metre rapid fire pistol",
        "col3": "Shooting at the 1896 Summer Olympics - Men's 25 metre rapid fire pistol"
    },
    {
        "col0": "Shooting at the 1900 Summer Olympics - Men's 50 metre free pistol",
        "col1": "K. Staheli",
        "col2": "Shooting at the 1908 Summer Olympics - Men's 50 yard free pistol",
        "col3": "Shooting at the 1896 Summer Olympics - Men's 30 metre free pistol"
    },
    {
        "col0": "Shooting at the 1900 Summer Olympics - Men's 25 metre rapid fire pistol",
        "col1": "E. Balme",
        "col2": "Shooting at the 1912 Summer Olympics - Men's 25 metre rapid fire pistol",
        "col3": "Shooting at the 1896 Summer Olympics - Men's 25 metre rapid fire pistol"
    },
    {
        "col0": "Sailing at the 2012 Summer Olympics - Women's RS:X",
        "col1": "Z. Klepacka",
        "col2": "Sailing at the 2016 Summer Olympics - Women's RS:X",
        "col3": "Sailing at the 2008 Summer Olympics - Women's RS:X"
    },
    {
        "col0": "Sailing at the 2012 Summer Olympics - Women's 470",
        "col1": "L. Westerhof",
        "col2": "Sailing at the 2016 Summer Olympics - Women's 470",
        "col3": "Sailing at the 2008 Summer Olympics - Women's 470"
    },
    {
        "col0": "Sailing at the 2012 Summer Olympics - Men's RS:X",
        "col1": "P. Miarczynski",
        "col2": "Sailing at the 2016 Summer Olympics - Men's RS:X",
        "col3": "Sailing at the 2008 Summer Olympics - Men's RS:X"
    },
    {
        "col0": "Sailing at the 2012 Summer Olympics - Men's 470",
        "col1": "Juan de la Fuente",
        "col2": "Sailing at the 2016 Summer Olympics - Men's 470",
        "col3": "Sailing at the 2008 Summer Olympics - Men's 470"
    },
    {
        "col0": "Sailing at the 2012 Summer Olympics - Laser Radial",
        "col1": "E. V. Acker",
        "col2": "Sailing at the 2016 Summer Olympics - Laser Radial",
        "col3": "Sailing at the 2008 Summer Olympics - Laser Radial"
    },
    {
        "col0": "Sailing at the 2012 Summer Olympics - Laser",
        "col1": "R. Myrgren",
        "col2": "Sailing at the 2016 Summer Olympics - Laser",
        "col3": "Sailing at the 2008 Summer Olympics - Laser"
    },
    {
        "col0": "Sailing at the 2012 Summer Olympics - Finn",
        "col1": "J. Lobert",
        "col2": "Sailing at the 2016 Summer Olympics - Finn",
        "col3": "Sailing at the 2008 Summer Olympics - Finn"
    },
    {
        "col0": "Sailing at the 2012 Summer Olympics - 49er",
        "col1": "A. Norregaard",
        "col2": "Sailing at the 2016 Summer Olympics - 49er",
        "col3": "Sailing at the 2008 Summer Olympics - 49er"
    },
    {
        "col0": "Sailing at the 2012 Summer Olympics - Women's RS:X",
        "col1": "Z. Klepacka",
        "col2": "Sailing at the 2016 Summer Olympics - Women's RS:X",
        "col3": "Sailing at the 2008 Summer Olympics - Women's RS:X"
    },
    {
        "col0": "Sailing at the 2012 Summer Olympics - Women's 470",
        "col1": "L. Westerhof",
        "col2": "Sailing at the 2016 Summer Olympics - Women's 470",
        "col3": "Sailing at the 2008 Summer Olympics - Women's 470"
    },
    {
        "col0": "Sailing at the 2012 Summer Olympics - Men's RS:X",
        "col1": "P. Miarczynski",
        "col2": "Sailing at the 2016 Summer Olympics - Men's RS:X",
        "col3": "Sailing at the 2008 Summer Olympics - Men's RS:X"
    },
    {
        "col0": "Sailing at the 2012 Summer Olympics - Men's 470",
        "col1": "Juan de la Fuente",
        "col2": "Sailing at the 2016 Summer Olympics - Men's 470",
        "col3": "Sailing at the 2008 Summer Olympics - Men's 470"
    },
    {
        "col0": "Sailing at the 2012 Summer Olympics - Laser Radial",
        "col1": "E. V. Acker",
        "col2": "Sailing at the 2016 Summer Olympics - Laser Radial",
        "col3": "Sailing at the 2008 Summer Olympics - Laser Radial"
    },
    {
        "col0": "Sailing at the 2012 Summer Olympics - Laser",
        "col1": "R. Myrgren",
        "col2": "Sailing at the 2016 Summer Olympics - Laser",
        "col3": "Sailing at the 2008 Summer Olympics - Laser"
    },
    {
        "col0": "Sailing at the 2012 Summer Olympics - Finn",
        "col1": "J. Lobert",
        "col2": "Sailing at the 2016 Summer Olympics - Finn",
        "col3": "Sailing at the 2008 Summer Olympics - Finn"
    },
    {
        "col0": "Sailing at the 2012 Summer Olympics - 49er",
        "col1": "A. Norregaard",
        "col2": "Sailing at the 2016 Summer Olympics - 49er",
        "col3": "Sailing at the 2008 Summer Olympics - 49er"
    },
    {
        "col0": "Sailing at the 2008 Summer Olympics - Women's 470",
        "col1": "F. Oliveira",
        "col2": "Sailing at the 2012 Summer Olympics - Women's 470",
        "col3": "Sailing at the 2004 Summer Olympics - Women's 470"
    },
    {
        "col0": "Sailing at the 2008 Summer Olympics - Star",
        "col1": "A. Ekstrom",
        "col2": "Sailing at the 2012 Summer Olympics - Star",
        "col3": "Sailing at the 2004 Summer Olympics - Star"
    },
    {
        "col0": "Sailing at the 2008 Summer Olympics - Men's 470",
        "col1": "N. Charbonnier",
        "col2": "Sailing at the 2012 Summer Olympics - Men's 470",
        "col3": "Sailing at the 2004 Summer Olympics - Men's 470"
    },
    {
        "col0": "Sailing at the 2008 Summer Olympics - Laser",
        "col1": "D. Romero",
        "col2": "Sailing at the 2012 Summer Olympics - Laser",
        "col3": "Sailing at the 2004 Summer Olympics - Laser"
    },
    {
        "col0": "Sailing at the 2008 Summer Olympics - Finn",
        "col1": "G. Florent",
        "col2": "Sailing at the 2012 Summer Olympics - Finn",
        "col3": "Sailing at the 2004 Summer Olympics - Finn"
    },
    {
        "col0": "Sailing at the 2008 Summer Olympics - 49er",
        "col1": "H. Peckolt",
        "col2": "Sailing at the 2012 Summer Olympics - 49er",
        "col3": "Sailing at the 2004 Summer Olympics - 49er"
    },
    {
        "col0": "Sailing at the 2008 Summer Olympics - Women's 470",
        "col1": "F. Oliveira",
        "col2": "Sailing at the 2012 Summer Olympics - Women's 470",
        "col3": "Sailing at the 2004 Summer Olympics - Women's 470"
    },
    {
        "col0": "Sailing at the 2008 Summer Olympics - Star",
        "col1": "A. Ekstrom",
        "col2": "Sailing at the 2012 Summer Olympics - Star",
        "col3": "Sailing at the 2004 Summer Olympics - Star"
    },
    {
        "col0": "Sailing at the 2008 Summer Olympics - Men's 470",
        "col1": "N. Charbonnier",
        "col2": "Sailing at the 2012 Summer Olympics - Men's 470",
        "col3": "Sailing at the 2004 Summer Olympics - Men's 470"
    },
    {
        "col0": "Sailing at the 2008 Summer Olympics - Laser",
        "col1": "D. Romero",
        "col2": "Sailing at the 2012 Summer Olympics - Laser",
        "col3": "Sailing at the 2004 Summer Olympics - Laser"
    },
    {
        "col0": "Sailing at the 2008 Summer Olympics - Finn",
        "col1": "G. Florent",
        "col2": "Sailing at the 2012 Summer Olympics - Finn",
        "col3": "Sailing at the 2004 Summer Olympics - Finn"
    },
    {
        "col0": "Sailing at the 2008 Summer Olympics - 49er",
        "col1": "H. Peckolt",
        "col2": "Sailing at the 2012 Summer Olympics - 49er",
        "col3": "Sailing at the 2004 Summer Olympics - 49er"
    },
    {
        "col0": "Sailing at the 2004 Summer Olympics - Women's 470",
        "col1": "T. Torgersson",
        "col2": "Sailing at the 2008 Summer Olympics - Women's 470",
        "col3": "Sailing at the 2000 Summer Olympics - Women's 470"
    },
    {
        "col0": "Sailing at the 2004 Summer Olympics - Tornado",
        "col1": "C. Espinola",
        "col2": "Sailing at the 2008 Summer Olympics - Tornado",
        "col3": "Sailing at the 2000 Summer Olympics - Tornado"
    },
    {
        "col0": "Sailing at the 2004 Summer Olympics - Star",
        "col1": "P. Rambeau",
        "col2": "Sailing at the 2008 Summer Olympics - Star",
        "col3": "Sailing at the 2000 Summer Olympics - Star"
    },
    {
        "col0": "Sailing at the 2004 Summer Olympics - Men's 470",
        "col1": "K. Seki",
        "col2": "Sailing at the 2008 Summer Olympics - Men's 470",
        "col3": "Sailing at the 2000 Summer Olympics - Men's 470"
    },
    {
        "col0": "Sailing at the 2004 Summer Olympics - Laser",
        "col1": "V. Zbogar",
        "col2": "Sailing at the 2008 Summer Olympics - Laser",
        "col3": "Sailing at the 2000 Summer Olympics - Laser"
    },
    {
        "col0": "Sailing at the 2004 Summer Olympics - Finn",
        "col1": "M. Kusznierewicz",
        "col2": "Sailing at the 2008 Summer Olympics - Finn",
        "col3": "Sailing at the 2000 Summer Olympics - Finn"
    },
    {
        "col0": "Sailing at the 2004 Summer Olympics - 49er",
        "col1": "S. Hiscocks",
        "col2": "Sailing at the 2008 Summer Olympics - 49er",
        "col3": "Sailing at the 2000 Summer Olympics - 49er"
    },
    {
        "col0": "Sailing at the 2004 Summer Olympics - Women's 470",
        "col1": "T. Torgersson",
        "col2": "Sailing at the 2008 Summer Olympics - Women's 470",
        "col3": "Sailing at the 2000 Summer Olympics - Women's 470"
    },
    {
        "col0": "Sailing at the 2004 Summer Olympics - Tornado",
        "col1": "S. Lange",
        "col2": "Sailing at the 2008 Summer Olympics - Tornado",
        "col3": "Sailing at the 2000 Summer Olympics - Tornado"
    },
    {
        "col0": "Sailing at the 2004 Summer Olympics - Star",
        "col1": "P. Rambeau",
        "col2": "Sailing at the 2008 Summer Olympics - Star",
        "col3": "Sailing at the 2000 Summer Olympics - Star"
    },
    {
        "col0": "Sailing at the 2004 Summer Olympics - Men's 470",
        "col1": "K. Seki",
        "col2": "Sailing at the 2008 Summer Olympics - Men's 470",
        "col3": "Sailing at the 2000 Summer Olympics - Men's 470"
    },
    {
        "col0": "Sailing at the 2004 Summer Olympics - Laser",
        "col1": "V. Zbogar",
        "col2": "Sailing at the 2008 Summer Olympics - Laser",
        "col3": "Sailing at the 2000 Summer Olympics - Laser"
    },
    {
        "col0": "Sailing at the 2004 Summer Olympics - Finn",
        "col1": "M. Kusznierewicz",
        "col2": "Sailing at the 2008 Summer Olympics - Finn",
        "col3": "Sailing at the 2000 Summer Olympics - Finn"
    },
    {
        "col0": "Sailing at the 2004 Summer Olympics - 49er",
        "col1": "S. Hiscocks",
        "col2": "Sailing at the 2008 Summer Olympics - 49er",
        "col3": "Sailing at the 2000 Summer Olympics - 49er"
    },
    {
        "col0": "Sailing at the 2000 Summer Olympics - Women's Mistral One Design",
        "col1": "B. Kendall",
        "col2": "Sailing at the 2004 Summer Olympics - Women's Mistral One Design",
        "col3": "Sailing at the 1996 Summer Olympics - Women's Mistral One Design"
    },
    {
        "col0": "Sailing at the 2000 Summer Olympics - Women's 470",
        "col1": "R. Taran",
        "col2": "Sailing at the 2004 Summer Olympics - Women's 470",
        "col3": "Sailing at the 1996 Summer Olympics - Women's 470"
    },
    {
        "col0": "Sailing at the 2000 Summer Olympics - Tornado",
        "col1": "R. Schwall",
        "col2": "Sailing at the 2004 Summer Olympics - Tornado",
        "col3": "Sailing at the 1996 Summer Olympics - Tornado"
    },
    {
        "col0": "Sailing at the 2000 Summer Olympics - Star",
        "col1": "T. Grael",
        "col2": "Sailing at the 2004 Summer Olympics - Star",
        "col3": "Sailing at the 1996 Summer Olympics - Star"
    },
    {
        "col0": "Sailing at the 2000 Summer Olympics - Men's Mistral One Design",
        "col1": "A. McIntosh",
        "col2": "Sailing at the 2004 Summer Olympics - Men's Mistral One Design",
        "col3": "Sailing at the 1996 Summer Olympics - Men's Mistral One Design"
    },
    {
        "col0": "Sailing at the 2000 Summer Olympics - Men's 470",
        "col1": "J. Conte",
        "col2": "Sailing at the 2004 Summer Olympics - Men's 470",
        "col3": "Sailing at the 1996 Summer Olympics - Men's 470"
    },
    {
        "col0": "Sailing at the 2000 Summer Olympics - Laser",
        "col1": "M. Blackburn",
        "col2": "Sailing at the 2004 Summer Olympics - Laser",
        "col3": "Sailing at the 1996 Summer Olympics - Laser"
    },
    {
        "col0": "Sailing at the 2000 Summer Olympics - Finn",
        "col1": "F. Loof",
        "col2": "Sailing at the 2004 Summer Olympics - Finn",
        "col3": "Sailing at the 1996 Summer Olympics - Finn"
    },
    {
        "col0": "Sailing at the 2000 Summer Olympics - Europe",
        "col1": "S. Amato",
        "col2": "Sailing at the 2004 Summer Olympics - Europe",
        "col3": "Sailing at the 1996 Summer Olympics - Europe"
    },
    {
        "col0": "Sailing at the 2000 Summer Olympics - Women's Mistral One Design",
        "col1": "B. Kendall",
        "col2": "Sailing at the 2004 Summer Olympics - Women's Mistral One Design",
        "col3": "Sailing at the 1996 Summer Olympics - Women's Mistral One Design"
    },
    {
        "col0": "Sailing at the 2000 Summer Olympics - Women's 470",
        "col1": "R. Taran",
        "col2": "Sailing at the 2004 Summer Olympics - Women's 470",
        "col3": "Sailing at the 1996 Summer Olympics - Women's 470"
    },
    {
        "col0": "Sailing at the 2000 Summer Olympics - Tornado",
        "col1": "R. Schwall",
        "col2": "Sailing at the 2004 Summer Olympics - Tornado",
        "col3": "Sailing at the 1996 Summer Olympics - Tornado"
    },
    {
        "col0": "Sailing at the 2000 Summer Olympics - Star",
        "col1": "T. Grael",
        "col2": "Sailing at the 2004 Summer Olympics - Star",
        "col3": "Sailing at the 1996 Summer Olympics - Star"
    },
    {
        "col0": "Sailing at the 2000 Summer Olympics - Men's Mistral One Design",
        "col1": "A. McIntosh",
        "col2": "Sailing at the 2004 Summer Olympics - Men's Mistral One Design",
        "col3": "Sailing at the 1996 Summer Olympics - Men's Mistral One Design"
    },
    {
        "col0": "Sailing at the 2000 Summer Olympics - Men's 470",
        "col1": "J. Conte",
        "col2": "Sailing at the 2004 Summer Olympics - Men's 470",
        "col3": "Sailing at the 1996 Summer Olympics - Men's 470"
    },
    {
        "col0": "Sailing at the 2000 Summer Olympics - Laser",
        "col1": "M. Blackburn",
        "col2": "Sailing at the 2004 Summer Olympics - Laser",
        "col3": "Sailing at the 1996 Summer Olympics - Laser"
    },
    {
        "col0": "Sailing at the 2000 Summer Olympics - Finn",
        "col1": "F. Loof",
        "col2": "Sailing at the 2004 Summer Olympics - Finn",
        "col3": "Sailing at the 1996 Summer Olympics - Finn"
    },
    {
        "col0": "Sailing at the 2000 Summer Olympics - Europe",
        "col1": "S. Amato",
        "col2": "Sailing at the 2004 Summer Olympics - Europe",
        "col3": "Sailing at the 1996 Summer Olympics - Europe"
    },
    {
        "col0": "Sailing at the 1996 Summer Olympics - Women's 470",
        "col1": "R. Taran",
        "col2": "Sailing at the 2000 Summer Olympics - Women's 470",
        "col3": "Sailing at the 1992 Summer Olympics - Women's 470"
    },
    {
        "col0": "Sailing at the 1996 Summer Olympics - Tornado",
        "col1": "H. Pellicano",
        "col2": "Sailing at the 2000 Summer Olympics - Tornado",
        "col3": "Sailing at the 1992 Summer Olympics - Tornado"
    },
    {
        "col0": "Sailing at the 1996 Summer Olympics - Star",
        "col1": "C. Beashel",
        "col2": "Sailing at the 2000 Summer Olympics - Star",
        "col3": "Sailing at the 1992 Summer Olympics - Star"
    },
    {
        "col0": "Sailing at the 1996 Summer Olympics - Soling",
        "col1": "J. Madrigali",
        "col2": "Sailing at the 2000 Summer Olympics - Soling",
        "col3": "Sailing at the 1992 Summer Olympics - Soling"
    },
    {
        "col0": "Sailing at the 1996 Summer Olympics - Men's 470",
        "col1": "N. Barreto",
        "col2": "Sailing at the 2000 Summer Olympics - Men's 470",
        "col3": "Sailing at the 1992 Summer Olympics - Men's 470"
    },
    {
        "col0": "Sailing at the 1996 Summer Olympics - Finn",
        "col1": "R. Heiner",
        "col2": "Sailing at the 2000 Summer Olympics - Finn",
        "col3": "Sailing at the 1992 Summer Olympics - Finn"
    },
    {
        "col0": "Sailing at the 1996 Summer Olympics - Europe",
        "col1": "C. Becker-Dey",
        "col2": "Sailing at the 2000 Summer Olympics - Europe",
        "col3": "Sailing at the 1992 Summer Olympics - Europe"
    },
    {
        "col0": "Sailing at the 1996 Summer Olympics - Women's 470",
        "col1": "R. Taran",
        "col2": "Sailing at the 2000 Summer Olympics - Women's 470",
        "col3": "Sailing at the 1992 Summer Olympics - Women's 470"
    },
    {
        "col0": "Sailing at the 1996 Summer Olympics - Tornado",
        "col1": "H. Pellicano",
        "col2": "Sailing at the 2000 Summer Olympics - Tornado",
        "col3": "Sailing at the 1992 Summer Olympics - Tornado"
    },
    {
        "col0": "Sailing at the 1996 Summer Olympics - Star",
        "col1": "C. Beashel",
        "col2": "Sailing at the 2000 Summer Olympics - Star",
        "col3": "Sailing at the 1992 Summer Olympics - Star"
    },
    {
        "col0": "Sailing at the 1996 Summer Olympics - Soling",
        "col1": "K. Massey",
        "col2": "Sailing at the 2000 Summer Olympics - Soling",
        "col3": "Sailing at the 1992 Summer Olympics - Soling"
    },
    {
        "col0": "Sailing at the 1996 Summer Olympics - Men's 470",
        "col1": "N. Barreto",
        "col2": "Sailing at the 2000 Summer Olympics - Men's 470",
        "col3": "Sailing at the 1992 Summer Olympics - Men's 470"
    },
    {
        "col0": "Sailing at the 1996 Summer Olympics - Finn",
        "col1": "R. Heiner",
        "col2": "Sailing at the 2000 Summer Olympics - Finn",
        "col3": "Sailing at the 1992 Summer Olympics - Finn"
    },
    {
        "col0": "Sailing at the 1996 Summer Olympics - Europe",
        "col1": "C. Becker-Dey",
        "col2": "Sailing at the 2000 Summer Olympics - Europe",
        "col3": "Sailing at the 1992 Summer Olympics - Europe"
    },
    {
        "col0": "Sailing at the 1992 Summer Olympics - Women's 470",
        "col1": "P. Healy",
        "col2": "Sailing at the 1996 Summer Olympics - Women's 470",
        "col3": "Sailing at the 1988 Summer Olympics - Women's 470"
    },
    {
        "col0": "Sailing at the 1992 Summer Olympics - Tornado",
        "col1": "J. Forbes",
        "col2": "Sailing at the 1996 Summer Olympics - Tornado",
        "col3": "Sailing at the 1988 Summer Olympics - Tornado"
    },
    {
        "col0": "Sailing at the 1992 Summer Olympics - Star",
        "col1": "E. Jespersen",
        "col2": "Sailing at the 1996 Summer Olympics - Star",
        "col3": "Sailing at the 1988 Summer Olympics - Star"
    },
    {
        "col0": "Sailing at the 1992 Summer Olympics - Soling",
        "col1": "L. Smith",
        "col2": "Sailing at the 1996 Summer Olympics - Soling",
        "col3": "Sailing at the 1988 Summer Olympics - Soling"
    },
    {
        "col0": "Sailing at the 1992 Summer Olympics - Men's 470",
        "col1": "T. Toniste",
        "col2": "Sailing at the 1996 Summer Olympics - Men's 470",
        "col3": "Sailing at the 1988 Summer Olympics - Men's 470"
    },
    {
        "col0": "Sailing at the 1992 Summer Olympics - Finn",
        "col1": "C. Monk",
        "col2": "Sailing at the 1996 Summer Olympics - Finn",
        "col3": "Sailing at the 1988 Summer Olympics - Finn"
    },
    {
        "col0": "Sailing at the 1992 Summer Olympics - Women's 470",
        "col1": "P. Healy",
        "col2": "Sailing at the 1996 Summer Olympics - Women's 470",
        "col3": "Sailing at the 1988 Summer Olympics - Women's 470"
    },
    {
        "col0": "Sailing at the 1992 Summer Olympics - Tornado",
        "col1": "J. Forbes",
        "col2": "Sailing at the 1996 Summer Olympics - Tornado",
        "col3": "Sailing at the 1988 Summer Olympics - Tornado"
    },
    {
        "col0": "Sailing at the 1992 Summer Olympics - Star",
        "col1": "E. Jespersen",
        "col2": "Sailing at the 1996 Summer Olympics - Star",
        "col3": "Sailing at the 1988 Summer Olympics - Star"
    },
    {
        "col0": "Sailing at the 1992 Summer Olympics - Soling",
        "col1": "L. Smith",
        "col2": "Sailing at the 1996 Summer Olympics - Soling",
        "col3": "Sailing at the 1988 Summer Olympics - Soling"
    },
    {
        "col0": "Sailing at the 1992 Summer Olympics - Men's 470",
        "col1": "T. Toniste",
        "col2": "Sailing at the 1996 Summer Olympics - Men's 470",
        "col3": "Sailing at the 1988 Summer Olympics - Men's 470"
    },
    {
        "col0": "Sailing at the 1992 Summer Olympics - Finn",
        "col1": "C. Monk",
        "col2": "Sailing at the 1996 Summer Olympics - Finn",
        "col3": "Sailing at the 1988 Summer Olympics - Finn"
    },
    {
        "col0": "Sailing at the 1988 Summer Olympics - Women's 470",
        "col1": "L. Moskalenko",
        "col2": "Sailing at the 1992 Summer Olympics - Women's 470",
        "col3": "Sailing at the 1984 Summer Olympics - 470"
    },
    {
        "col0": "Sailing at the 1988 Summer Olympics - Tornado",
        "col1": "L. Grael",
        "col2": "Sailing at the 1992 Summer Olympics - Tornado",
        "col3": "Sailing at the 1984 Summer Olympics - Tornado"
    },
    {
        "col0": "Sailing at the 1988 Summer Olympics - Star",
        "col1": "T. Grael",
        "col2": "Sailing at the 1992 Summer Olympics - Star",
        "col3": "Sailing at the 1984 Summer Olympics - Star"
    },
    {
        "col0": "Sailing at the 1988 Summer Olympics - Soling",
        "col1": "J. Bank",
        "col2": "Sailing at the 1992 Summer Olympics - Soling",
        "col3": "Sailing at the 1984 Summer Olympics - Soling"
    },
    {
        "col0": "Sailing at the 1988 Summer Olympics - Men's 470",
        "col1": "J. Shadden",
        "col2": "Sailing at the 1992 Summer Olympics - Men's 470",
        "col3": "Sailing at the 1984 Summer Olympics - 470"
    },
    {
        "col0": "Sailing at the 1988 Summer Olympics - Flying Dutchman",
        "col1": "F. McLaughlin",
        "col2": "Sailing at the 1992 Summer Olympics - Flying Dutchman",
        "col3": "Sailing at the 1984 Summer Olympics - Flying Dutchman"
    },
    {
        "col0": "Sailing at the 1988 Summer Olympics - Finn",
        "col1": "J. Cutler",
        "col2": "Sailing at the 1992 Summer Olympics - Finn",
        "col3": "Sailing at the 1984 Summer Olympics - Finn"
    },
    {
        "col0": "Sailing at the 1988 Summer Olympics - Women's 470",
        "col1": "L. Moskalenko",
        "col2": "Sailing at the 1992 Summer Olympics - Women's 470",
        "col3": "Sailing at the 1984 Summer Olympics - 470"
    },
    {
        "col0": "Sailing at the 1988 Summer Olympics - Tornado",
        "col1": "L. Grael",
        "col2": "Sailing at the 1992 Summer Olympics - Tornado",
        "col3": "Sailing at the 1984 Summer Olympics - Tornado"
    },
    {
        "col0": "Sailing at the 1988 Summer Olympics - Star",
        "col1": "T. Grael",
        "col2": "Sailing at the 1992 Summer Olympics - Star",
        "col3": "Sailing at the 1984 Summer Olympics - Star"
    },
    {
        "col0": "Sailing at the 1988 Summer Olympics - Soling",
        "col1": "J. Bank",
        "col2": "Sailing at the 1992 Summer Olympics - Soling",
        "col3": "Sailing at the 1984 Summer Olympics - Soling"
    },
    {
        "col0": "Sailing at the 1988 Summer Olympics - Men's 470",
        "col1": "J. Shadden",
        "col2": "Sailing at the 1992 Summer Olympics - Men's 470",
        "col3": "Sailing at the 1984 Summer Olympics - 470"
    },
    {
        "col0": "Sailing at the 1988 Summer Olympics - Flying Dutchman",
        "col1": "F. McLaughlin",
        "col2": "Sailing at the 1992 Summer Olympics - Flying Dutchman",
        "col3": "Sailing at the 1984 Summer Olympics - Flying Dutchman"
    },
    {
        "col0": "Sailing at the 1988 Summer Olympics - Finn",
        "col1": "J. Cutler",
        "col2": "Sailing at the 1992 Summer Olympics - Finn",
        "col3": "Sailing at the 1984 Summer Olympics - Finn"
    },
    {
        "col0": "Sailing at the 1984 Summer Olympics - Tornado",
        "col1": "C. Cairns",
        "col2": "Sailing at the 1988 Summer Olympics - Tornado",
        "col3": "Sailing at the 1980 Summer Olympics - Tornado"
    },
    {
        "col0": "Sailing at the 1984 Summer Olympics - Star",
        "col1": "G. Gorla",
        "col2": "Sailing at the 1988 Summer Olympics - Star",
        "col3": "Sailing at the 1980 Summer Olympics - Star"
    },
    {
        "col0": "Sailing at the 1984 Summer Olympics - Soling",
        "col1": "H. Fogh",
        "col2": "Sailing at the 1988 Summer Olympics - Soling",
        "col3": "Sailing at the 1980 Summer Olympics - Soling"
    },
    {
        "col0": "Sailing at the 1984 Summer Olympics - Flying Dutchman",
        "col1": "J. Richards",
        "col2": "Sailing at the 1988 Summer Olympics - Flying Dutchman",
        "col3": "Sailing at the 1980 Summer Olympics - Flying Dutchman"
    },
    {
        "col0": "Sailing at the 1984 Summer Olympics - Finn",
        "col1": "T. Neilson",
        "col2": "Sailing at the 1988 Summer Olympics - Finn",
        "col3": "Sailing at the 1980 Summer Olympics - Finn"
    },
    {
        "col0": "Sailing at the 1984 Summer Olympics - 470",
        "col1": "T. Peponnet",
        "col2": "Sailing at the 1988 Summer Olympics - Women's 470",
        "col3": "Sailing at the 1980 Summer Olympics - 470"
    },
    {
        "col0": "Sailing at the 1984 Summer Olympics - Tornado",
        "col1": "C. Cairns",
        "col2": "Sailing at the 1988 Summer Olympics - Tornado",
        "col3": "Sailing at the 1980 Summer Olympics - Tornado"
    },
    {
        "col0": "Sailing at the 1984 Summer Olympics - Star",
        "col1": "G. Gorla",
        "col2": "Sailing at the 1988 Summer Olympics - Star",
        "col3": "Sailing at the 1980 Summer Olympics - Star"
    },
    {
        "col0": "Sailing at the 1984 Summer Olympics - Soling",
        "col1": "H. Fogh",
        "col2": "Sailing at the 1988 Summer Olympics - Soling",
        "col3": "Sailing at the 1980 Summer Olympics - Soling"
    },
    {
        "col0": "Sailing at the 1984 Summer Olympics - Flying Dutchman",
        "col1": "J. Richards",
        "col2": "Sailing at the 1988 Summer Olympics - Flying Dutchman",
        "col3": "Sailing at the 1980 Summer Olympics - Flying Dutchman"
    },
    {
        "col0": "Sailing at the 1984 Summer Olympics - Finn",
        "col1": "T. Neilson",
        "col2": "Sailing at the 1988 Summer Olympics - Finn",
        "col3": "Sailing at the 1980 Summer Olympics - Finn"
    },
    {
        "col0": "Sailing at the 1984 Summer Olympics - 470",
        "col1": "T. Peponnet",
        "col2": "Sailing at the 1988 Summer Olympics - Men's 470",
        "col3": "Sailing at the 1980 Summer Olympics - 470"
    },
    {
        "col0": "Sailing at the 1980 Summer Olympics - Tornado",
        "col1": "G. Marstrom",
        "col2": "Sailing at the 1984 Summer Olympics - Tornado",
        "col3": "Sailing at the 1976 Summer Olympics - Tornado"
    },
    {
        "col0": "Sailing at the 1980 Summer Olympics - Star",
        "col1": "G. Gorla",
        "col2": "Sailing at the 1984 Summer Olympics - Star",
        "col3": "Sailing at the 1972 Summer Olympics - Star"
    },
    {
        "col0": "Sailing at the 1980 Summer Olympics - Soling",
        "col1": "A. Bountouris",
        "col2": "Sailing at the 1984 Summer Olympics - Soling",
        "col3": "Sailing at the 1976 Summer Olympics - Soling"
    },
    {
        "col0": "Sailing at the 1980 Summer Olympics - Flying Dutchman",
        "col1": "S. Detre",
        "col2": "Sailing at the 1984 Summer Olympics - Flying Dutchman",
        "col3": "Sailing at the 1976 Summer Olympics - Flying Dutchman"
    },
    {
        "col0": "Sailing at the 1980 Summer Olympics - Finn",
        "col1": "A. Balashov",
        "col2": "Sailing at the 1984 Summer Olympics - Finn",
        "col3": "Sailing at the 1976 Summer Olympics - Finn"
    },
    {
        "col0": "Sailing at the 1980 Summer Olympics - 470",
        "col1": "J. Lindgren",
        "col2": "Sailing at the 1984 Summer Olympics - 470",
        "col3": "Sailing at the 1976 Summer Olympics - 470"
    },
    {
        "col0": "Sailing at the 1980 Summer Olympics - Tornado",
        "col1": "G. Marstrom",
        "col2": "Sailing at the 1984 Summer Olympics - Tornado",
        "col3": "Sailing at the 1976 Summer Olympics - Tornado"
    },
    {
        "col0": "Sailing at the 1980 Summer Olympics - Star",
        "col1": "G. Gorla",
        "col2": "Sailing at the 1984 Summer Olympics - Star",
        "col3": "Sailing at the 1972 Summer Olympics - Star"
    },
    {
        "col0": "Sailing at the 1980 Summer Olympics - Soling",
        "col1": "A. Bountouris",
        "col2": "Sailing at the 1984 Summer Olympics - Soling",
        "col3": "Sailing at the 1976 Summer Olympics - Soling"
    },
    {
        "col0": "Sailing at the 1980 Summer Olympics - Flying Dutchman",
        "col1": "S. Detre",
        "col2": "Sailing at the 1984 Summer Olympics - Flying Dutchman",
        "col3": "Sailing at the 1976 Summer Olympics - Flying Dutchman"
    },
    {
        "col0": "Sailing at the 1980 Summer Olympics - Finn",
        "col1": "A. Balashov",
        "col2": "Sailing at the 1984 Summer Olympics - Finn",
        "col3": "Sailing at the 1976 Summer Olympics - Finn"
    },
    {
        "col0": "Sailing at the 1980 Summer Olympics - 470",
        "col1": "J. Lindgren",
        "col2": "Sailing at the 1984 Summer Olympics - 470",
        "col3": "Sailing at the 1976 Summer Olympics - 470"
    },
    {
        "col0": "Sailing at the 1976 Summer Olympics - Soling",
        "col1": "D. Below",
        "col2": "Sailing at the 1980 Summer Olympics - Soling",
        "col3": "Sailing at the 1972 Summer Olympics - Soling"
    },
    {
        "col0": "Sailing at the 1976 Summer Olympics - Flying Dutchman",
        "col1": "R. Conrad",
        "col2": "Sailing at the 1980 Summer Olympics - Flying Dutchman",
        "col3": "Sailing at the 1972 Summer Olympics - Flying Dutchman"
    },
    {
        "col0": "Sailing at the 1976 Summer Olympics - Finn",
        "col1": "J. Bertrand",
        "col2": "Sailing at the 1980 Summer Olympics - Finn",
        "col3": "Sailing at the 1972 Summer Olympics - Finn"
    },
    {
        "col0": "Sailing at the 1976 Summer Olympics - Soling",
        "col1": "D. Below",
        "col2": "Sailing at the 1980 Summer Olympics - Soling",
        "col3": "Sailing at the 1972 Summer Olympics - Soling"
    },
    {
        "col0": "Sailing at the 1976 Summer Olympics - Flying Dutchman",
        "col1": "R. Conrad",
        "col2": "Sailing at the 1980 Summer Olympics - Flying Dutchman",
        "col3": "Sailing at the 1972 Summer Olympics - Flying Dutchman"
    },
    {
        "col0": "Sailing at the 1976 Summer Olympics - Finn",
        "col1": "J. Bertrand",
        "col2": "Sailing at the 1980 Summer Olympics - Finn",
        "col3": "Sailing at the 1972 Summer Olympics - Finn"
    },
    {
        "col0": "Sailing at the 1972 Summer Olympics - Star",
        "col1": "W. Kuhweide",
        "col2": "Sailing at the 1980 Summer Olympics - Star",
        "col3": "Sailing at the 1968 Summer Olympics - Star"
    },
    {
        "col0": "Sailing at the 1972 Summer Olympics - Flying Dutchman",
        "col1": "U. Libor",
        "col2": "Sailing at the 1976 Summer Olympics - Flying Dutchman",
        "col3": "Sailing at the 1968 Summer Olympics - Flying Dutchman"
    },
    {
        "col0": "Sailing at the 1972 Summer Olympics - Finn",
        "col1": "V. Potapov",
        "col2": "Sailing at the 1976 Summer Olympics - Finn",
        "col3": "Sailing at the 1968 Summer Olympics - Finn"
    },
    {
        "col0": "Sailing at the 1972 Summer Olympics - Star",
        "col1": "W. Kuhweide",
        "col2": "Sailing at the 1980 Summer Olympics - Star",
        "col3": "Sailing at the 1968 Summer Olympics - Star"
    },
    {
        "col0": "Sailing at the 1972 Summer Olympics - Flying Dutchman",
        "col1": "U. Libor",
        "col2": "Sailing at the 1976 Summer Olympics - Flying Dutchman",
        "col3": "Sailing at the 1968 Summer Olympics - Flying Dutchman"
    },
    {
        "col0": "Sailing at the 1972 Summer Olympics - Finn",
        "col1": "V. Potapov",
        "col2": "Sailing at the 1976 Summer Olympics - Finn",
        "col3": "Sailing at the 1968 Summer Olympics - Finn"
    }
]