[
    {
        "col0": "Wolftail Mountain",
        "col1": "Lewis Range",
        "col2": "United States",
        "col3": "2492"
    },
    {
        "col0": "Wolfskopf",
        "col1": "Harz Mountains",
        "col2": "Germany",
        "col3": "668"
    },
    {
        "col0": "Wolfsklippen",
        "col1": "Harz Mountains",
        "col2": "Germany",
        "col3": "723"
    },
    {
        "col0": "Wolfsberg",
        "col1": "Saxon Switzerland",
        "col2": "Saxony",
        "col3": "342"
    },
    {
        "col0": "Wolfsberg",
        "col1": "Calenberg Land",
        "col2": "Lower Saxony",
        "col3": "152"
    },
    {
        "col0": "Wolfs Head",
        "col1": "Wind River Range",
        "col2": "Fremont County, Wyoming",
        "col3": "3707"
    },
    {
        "col0": "Wolfpen Ridge",
        "col1": "Blue Ridge Mountains",
        "col2": "Georgia",
        "col3": "1390"
    },
    {
        "col0": "Woloszyn",
        "col1": "Tatra Mountains",
        "col2": "Poland",
        "col3": "2158"
    },
    {
        "col0": "Winaw",
        "col1": "Andes",
        "col2": "Peru",
        "col3": "3645"
    },
    {
        "col0": "Winaq",
        "col1": "Andes",
        "col2": "Peru",
        "col3": "4800"
    },
    {
        "col0": "Wizard Island",
        "col1": "Cascade Range",
        "col2": "Oregon",
        "col3": "2113"
    },
    {
        "col0": "Wiwaxy Peak",
        "col1": "Canadian Rockies",
        "col2": "British Columbia",
        "col3": "2706"
    },
    {
        "col0": "Wiwannihorn",
        "col1": "Bernese Alps",
        "col2": "Switzerland",
        "col3": "3001"
    },
    {
        "col0": "Wittenberghorn",
        "col1": "Bernese Alps",
        "col2": "Canton of Bern",
        "col3": "2350"
    },
    {
        "col0": "Witenwasserenstock",
        "col1": "Lepontine Alps",
        "col2": "Canton of Uri",
        "col3": "3085"
    },
    {
        "col0": "Witenalpstock",
        "col1": "Glarus Alps",
        "col2": "Canton of Uri",
        "col3": "3016"
    },
    {
        "col0": "Wiswillani",
        "col1": "Andes",
        "col2": "Peru",
        "col3": "5070"
    },
    {
        "col0": "Wistatthorn",
        "col1": "Bernese Alps",
        "col2": "Canton of Bern",
        "col3": "2362"
    },
    {
        "col0": "Wissigstock",
        "col1": "Urner Alps",
        "col2": "Canton of Uri",
        "col3": "2887"
    },
    {
        "col0": "Wissgandstockli",
        "col1": "Glarus Alps",
        "col2": "Canton of St. Gallen",
        "col3": "2488"
    },
    {
        "col0": "Wissberg",
        "col1": "Urner Alps",
        "col2": "Canton of Uri",
        "col3": "2627"
    },
    {
        "col0": "Wiss Platte",
        "col1": "Ratikon",
        "col2": "Austria",
        "col3": "2628"
    },
    {
        "col0": "Wiskana",
        "col1": "Andes",
        "col2": "Peru",
        "col3": "4900"
    },
    {
        "col0": "Wiska Waqi",
        "col1": "Andes",
        "col2": "Peru",
        "col3": "5291"
    },
    {
        "col0": "Wiska Tunqu",
        "col1": "Andes",
        "col2": "Peru",
        "col3": "5200"
    },
    {
        "col0": "Wiska",
        "col1": "Andes",
        "col2": "Peru",
        "col3": "4800"
    },
    {
        "col0": "Wisk'achayuq",
        "col1": "Andes",
        "col2": "Bolivia",
        "col3": "3800"
    },
    {
        "col0": "Wisk'achani",
        "col1": "Andes",
        "col2": "Bolivia",
        "col3": "4088"
    },
    {
        "col0": "Wisk'achani",
        "col1": "Andes",
        "col2": "Bolivia",
        "col3": "3611"
    },
    {
        "col0": "Wisk'achani",
        "col1": "Andes",
        "col2": "Bolivia",
        "col3": "4602"
    },
    {
        "col0": "Wisk'achani",
        "col1": "Andes",
        "col2": "Bolivia",
        "col3": "4940"
    },
    {
        "col0": "Wisk'achani",
        "col1": "Andes",
        "col2": "Peru",
        "col3": "6000"
    },
    {
        "col0": "Wisk'achani",
        "col1": "Andes",
        "col2": "Bolivia",
        "col3": "4040"
    },
    {
        "col0": "Wisk'achani",
        "col1": "Andes",
        "col2": "Bolivia",
        "col3": "5018"
    },
    {
        "col0": "Wisk'achani",
        "col1": "Andes",
        "col2": "Bolivia",
        "col3": "4674"
    },
    {
        "col0": "Wisk'achani",
        "col1": "Andes",
        "col2": "Bolivia",
        "col3": "4585"
    },
    {
        "col0": "Wisk'achani",
        "col1": "Andes",
        "col2": "Peru",
        "col3": "5065"
    },
    {
        "col0": "Wisk'achani",
        "col1": "Andes",
        "col2": "Peru",
        "col3": "5000"
    },
    {
        "col0": "Wisk'achani",
        "col1": "Andes",
        "col2": "Bolivia",
        "col3": "4355"
    },
    {
        "col0": "Wisk'achani",
        "col1": "Andes",
        "col2": "Bolivia",
        "col3": "4620"
    },
    {
        "col0": "Wishka Hirka",
        "col1": "Andes",
        "col2": "Peru",
        "col3": "4934"
    },
    {
        "col0": "Wisenberg",
        "col1": "Jura Mountains",
        "col2": "Switzerland",
        "col3": "1002"
    },
    {
        "col0": "Wisalla",
        "col1": "Andes",
        "col2": "Bolivia",
        "col3": "5031"
    },
    {
        "col0": "Wisa Wisa",
        "col1": "Andes",
        "col2": "Peru",
        "col3": "4849"
    },
    {
        "col0": "Wisa Wisa",
        "col1": "Andes",
        "col2": "Peru",
        "col3": "5300"
    },
    {
        "col0": "Wirta Pata",
        "col1": "Andes",
        "col2": "Peru",
        "col3": "5200"
    },
    {
        "col0": "Wiriehorn",
        "col1": "Bernese Alps",
        "col2": "Canton of Bern",
        "col3": "2304"
    },
    {
        "col0": "Wiraqucha",
        "col1": "Andes",
        "col2": "Peru",
        "col3": "4600"
    },
    {
        "col0": "Wiraqucha",
        "col1": "Andes",
        "col2": "Peru",
        "col3": "3600"
    },
    {
        "col0": "Wira Wira",
        "col1": "Andes",
        "col2": "Peru",
        "col3": "4946"
    },
    {
        "col0": "Wira Challwa",
        "col1": "Andes",
        "col2": "Junin Region",
        "col3": "4760"
    },
    {
        "col0": "Wira Apachita",
        "col1": "Andes",
        "col2": "Peru",
        "col3": "5100"
    },
    {
        "col0": "Wiqu",
        "col1": "Andes",
        "col2": "Peru",
        "col3": "5200"
    },
    {
        "col0": "Wiqu",
        "col1": "Cordillera Apolobamba",
        "col2": "Peru",
        "col3": "4900"
    },
    {
        "col0": "Wiqu",
        "col1": "Andes",
        "col2": "Peru",
        "col3": "5200"
    }
]