[
    {
        "col0": "Roman Catholic Diocese of Iguatu",
        "col1": "Roman Catholic Archdiocese of Fortaleza",
        "col2": "Roman Catholic Archdiocese of Fortaleza",
        "col3": "Roman Catholic Archdiocese of Fortaleza",
        "col4": "Roman Catholic Archdiocese of Fortaleza",
        "col5": "21904000000",
        "col6": "21904000000"
    },
    {
        "col0": "Roman Catholic Diocese of Iglesias",
        "col1": "Roman Catholic Archdiocese of Cagliari",
        "col2": "Roman Catholic Archdiocese of Cagliari",
        "col3": "Roman Catholic Archdiocese of Cagliari",
        "col4": "Roman Catholic Archdiocese of Cagliari",
        "col5": "1678000000",
        "col6": "1678000000"
    },
    {
        "col0": "Roman Catholic Diocese of Ifakara",
        "col1": "Roman Catholic Archdiocese of Dar-es-Salaam",
        "col2": "Roman Catholic Archdiocese of Dar-es-Salaam",
        "col3": "Roman Catholic Archdiocese of Dar-es-Salaam",
        "col4": "Roman Catholic Archdiocese of Dar-es-Salaam",
        "col5": "14245000000",
        "col6": "14245000000"
    },
    {
        "col0": "Roman Catholic Diocese of Iesi",
        "col1": "Roman Catholic Archdiocese of Ancona-Osimo",
        "col2": "Roman Catholic Archdiocese of Ancona-Osimo",
        "col3": "Roman Catholic Archdiocese of Ancona-Osimo",
        "col4": "Roman Catholic Archdiocese of Ancona-Osimo",
        "col5": "315000000",
        "col6": "315000000"
    },
    {
        "col0": "Roman Catholic Diocese of Idah",
        "col1": "Roman Catholic Archdiocese of Abuja",
        "col2": "Roman Catholic Archdiocese of Abuja",
        "col3": "Roman Catholic Archdiocese of Abuja",
        "col4": "Roman Catholic Archdiocese of Abuja",
        "col5": "12898000000",
        "col6": "12898000000"
    },
    {
        "col0": "Roman Catholic Diocese of Ica",
        "col1": "Roman Catholic Archdiocese of Lima",
        "col2": "Roman Catholic Archdiocese of Lima",
        "col3": "Roman Catholic Archdiocese of Lima",
        "col4": "Roman Catholic Archdiocese of Lima",
        "col5": "21305000000",
        "col6": "21305000000"
    },
    {
        "col0": "Roman Catholic Diocese of Iba",
        "col1": "Archdiocese of San Fernando",
        "col2": "Archdiocese of San Fernando",
        "col3": "Archdiocese of San Fernando",
        "col4": "Archdiocese of San Fernando",
        "col5": "3642000000",
        "col6": "3642000000"
    },
    {
        "col0": "Roman Catholic Diocese of Iasi",
        "col1": "Roman Catholic Archdiocese of Bucharest",
        "col2": "Roman Catholic Archdiocese of Bucharest",
        "col3": "Roman Catholic Archdiocese of Bucharest",
        "col4": "Roman Catholic Archdiocese of Bucharest",
        "col5": "46378000000",
        "col6": "46378000000"
    },
    {
        "col0": "Roman Catholic Diocese of Hai Phong",
        "col1": "Roman Catholic Archdiocese of Hanoi",
        "col2": "Roman Catholic Archdiocese of Hanoi",
        "col3": "Roman Catholic Archdiocese of Hanoi",
        "col4": "Roman Catholic Archdiocese of Hanoi",
        "col5": "10000000000",
        "col6": "10000000000"
    },
    {
        "col0": "Roman Catholic Diocese of Hung Hoa",
        "col1": "Roman Catholic Archdiocese of Hanoi",
        "col2": "Roman Catholic Archdiocese of Hanoi",
        "col3": "Roman Catholic Archdiocese of Hanoi",
        "col4": "Roman Catholic Archdiocese of Hanoi",
        "col5": "54351000000",
        "col6": "54351000000"
    },
    {
        "col0": "Roman Catholic Diocese of Hyderabad in Pakistan",
        "col1": "Roman Catholic Archdiocese of Karachi",
        "col2": "Roman Catholic Archdiocese of Karachi",
        "col3": "Roman Catholic Archdiocese of Karachi",
        "col4": "Roman Catholic Archdiocese of Karachi",
        "col5": "137386000000",
        "col6": "137386000000"
    },
    {
        "col0": "Roman Catholic Diocese of Hwange",
        "col1": "Roman Catholic Archdiocese of Bulawayo",
        "col2": "Roman Catholic Archdiocese of Bulawayo",
        "col3": "Roman Catholic Archdiocese of Bulawayo",
        "col4": "Roman Catholic Archdiocese of Bulawayo",
        "col5": "43427000000",
        "col6": "43427000000"
    },
    {
        "col0": "Roman Catholic Diocese of Hwalien",
        "col1": "Roman Catholic Archdiocese of Taipei",
        "col2": "Roman Catholic Archdiocese of Taipei",
        "col3": "Roman Catholic Archdiocese of Taipei",
        "col4": "Roman Catholic Archdiocese of Taipei",
        "col5": "8144000000",
        "col6": "8144000000"
    },
    {
        "col0": "Roman Catholic Diocese of Hvar-Brac-Vis",
        "col1": "Roman Catholic Archdiocese of Split-Makarska",
        "col2": "Roman Catholic Archdiocese of Split-Makarska",
        "col3": "Roman Catholic Archdiocese of Split-Makarska",
        "col4": "Roman Catholic Archdiocese of Split-Makarska",
        "col5": "807000000",
        "col6": "807000000"
    },
    {
        "col0": "Roman Catholic Diocese of Huanuco",
        "col1": "Roman Catholic Archdiocese of Huancayo",
        "col2": "Roman Catholic Archdiocese of Huancayo",
        "col3": "Roman Catholic Archdiocese of Huancayo",
        "col4": "Roman Catholic Archdiocese of Huancayo",
        "col5": "44000000000",
        "col6": "44000000000"
    },
    {
        "col0": "Roman Catholic Diocese of Humaita",
        "col1": "Roman Catholic Archdiocese of Porto Velho",
        "col2": "Roman Catholic Archdiocese of Porto Velho",
        "col3": "Roman Catholic Archdiocese of Porto Velho",
        "col4": "Roman Catholic Archdiocese of Porto Velho",
        "col5": "109000000000",
        "col6": "109000000000"
    },
    {
        "col0": "Roman Catholic Diocese of Huesca",
        "col1": "Roman Catholic Archdiocese of Zaragoza",
        "col2": "Roman Catholic Archdiocese of Zaragoza",
        "col3": "Roman Catholic Archdiocese of Zaragoza",
        "col4": "Roman Catholic Archdiocese of Zaragoza",
        "col5": "4728000000",
        "col6": "4728000000"
    },
    {
        "col0": "Roman Catholic Diocese of Huelva",
        "col1": "Roman Catholic Archdiocese of Seville",
        "col2": "Roman Catholic Archdiocese of Seville",
        "col3": "Roman Catholic Archdiocese of Seville",
        "col4": "Roman Catholic Archdiocese of Seville",
        "col5": "10085000000",
        "col6": "10085000000"
    },
    {
        "col0": "Roman Catholic Diocese of Huejutla",
        "col1": "Roman Catholic Archdiocese of Tulancingo",
        "col2": "Roman Catholic Archdiocese of Tulancingo",
        "col3": "Roman Catholic Archdiocese of Tulancingo",
        "col4": "Roman Catholic Archdiocese of Tulancingo",
        "col5": "6013952392",
        "col6": "6013952392"
    },
    {
        "col0": "Roman Catholic Diocese of Huehuetenango",
        "col1": "Roman Catholic Archdiocese of Los Altos Quetzaltenango-Totonicapan",
        "col2": "Roman Catholic Archdiocese of Los Altos Quetzaltenango-Totonicapan",
        "col3": "Roman Catholic Archdiocese of Los Altos Quetzaltenango-Totonicapan",
        "col4": "Roman Catholic Archdiocese of Los Altos Quetzaltenango-Totonicapan",
        "col5": "7400000000",
        "col6": "7400000000"
    },
    {
        "col0": "Roman Catholic Diocese of Huari",
        "col1": "Roman Catholic Archdiocese of Trujillo",
        "col2": "Roman Catholic Archdiocese of Trujillo",
        "col3": "Roman Catholic Archdiocese of Trujillo",
        "col4": "Roman Catholic Archdiocese of Trujillo",
        "col5": "23000000000",
        "col6": "23000000000"
    },
    {
        "col0": "Roman Catholic Diocese of Huaraz",
        "col1": "Roman Catholic Archdiocese of Trujillo",
        "col2": "Roman Catholic Archdiocese of Trujillo",
        "col3": "Roman Catholic Archdiocese of Trujillo",
        "col4": "Roman Catholic Archdiocese of Trujillo",
        "col5": "13818000000",
        "col6": "13818000000"
    },
    {
        "col0": "Roman Catholic Diocese of Huari",
        "col1": "Roman Catholic Archdiocese of Trujillo",
        "col2": "Roman Catholic Archdiocese of Trujillo",
        "col3": "Roman Catholic Archdiocese of Trujillo",
        "col4": "Roman Catholic Archdiocese of Trujillo",
        "col5": "23000000000",
        "col6": "23000000000"
    },
    {
        "col0": "Roman Catholic Diocese of Huancavelica",
        "col1": "Roman Catholic Archdiocese of Ayacucho",
        "col2": "Roman Catholic Archdiocese of Ayacucho",
        "col3": "Roman Catholic Archdiocese of Ayacucho",
        "col4": "Roman Catholic Archdiocese of Ayacucho",
        "col5": "21078000000",
        "col6": "21078000000"
    },
    {
        "col0": "Roman Catholic Diocese of Huajuapan de Leon",
        "col1": "Roman Catholic Archdiocese of Puebla de los Angeles",
        "col2": "Roman Catholic Archdiocese of Puebla de los Angeles",
        "col3": "Roman Catholic Archdiocese of Puebla de los Angeles",
        "col4": "Roman Catholic Archdiocese of Puebla de los Angeles",
        "col5": "26008660603",
        "col6": "26008660603"
    },
    {
        "col0": "Roman Catholic Diocese of Huanuco",
        "col1": "Roman Catholic Archdiocese of Huancayo",
        "col2": "Roman Catholic Archdiocese of Huancayo",
        "col3": "Roman Catholic Archdiocese of Huancayo",
        "col4": "Roman Catholic Archdiocese of Huancayo",
        "col5": "44000000000",
        "col6": "44000000000"
    },
    {
        "col0": "Roman Catholic Diocese of Hsinchu",
        "col1": "Roman Catholic Archdiocese of Taipei",
        "col2": "Roman Catholic Archdiocese of Taipei",
        "col3": "Roman Catholic Archdiocese of Taipei",
        "col4": "Roman Catholic Archdiocese of Taipei",
        "col5": "4750000000",
        "col6": "4750000000"
    },
    {
        "col0": "Roman Catholic Diocese of Hpa-an",
        "col1": "Roman Catholic Archdiocese of Yangon",
        "col2": "Roman Catholic Archdiocese of Yangon",
        "col3": "Roman Catholic Archdiocese of Yangon",
        "col4": "Roman Catholic Archdiocese of Yangon",
        "col5": "30164000000",
        "col6": "30164000000"
    },
    {
        "col0": "Roman Catholic Diocese of Honolulu",
        "col1": "Roman Catholic Archdiocese of San Francisco",
        "col2": "Roman Catholic Archdiocese of San Francisco",
        "col3": "Roman Catholic Archdiocese of San Francisco",
        "col4": "Roman Catholic Archdiocese of San Francisco",
        "col5": "16666573490",
        "col6": "16666573490"
    },
    {
        "col0": "Roman Catholic Diocese of Holguin",
        "col1": "Roman Catholic Archdiocese of Santiago de Cuba",
        "col2": "Roman Catholic Archdiocese of Santiago de Cuba",
        "col3": "Roman Catholic Archdiocese of Santiago de Cuba",
        "col4": "Roman Catholic Archdiocese of Santiago de Cuba",
        "col5": "14089000000",
        "col6": "14089000000"
    },
    {
        "col0": "Roman Catholic Diocese of Hiroshima",
        "col1": "Roman Catholic Archdiocese of Osaka",
        "col2": "Roman Catholic Archdiocese of Osaka",
        "col3": "Roman Catholic Archdiocese of Osaka",
        "col4": "Roman Catholic Archdiocese of Osaka",
        "col5": "3180000000",
        "col6": "3180000000"
    },
    {
        "col0": "Roman Catholic Diocese of Hinche",
        "col1": "Roman Catholic Archdiocese of Cap-Haitien",
        "col2": "Roman Catholic Archdiocese of Cap-Haitien",
        "col3": "Roman Catholic Archdiocese of Cap-Haitien",
        "col4": "Roman Catholic Archdiocese of Cap-Haitien",
        "col5": "3000000000",
        "col6": "3000000000"
    },
    {
        "col0": "Roman Catholic Diocese of Hildesheim",
        "col1": "Roman Catholic Archdiocese of Hamburg",
        "col2": "Roman Catholic Archdiocese of Hamburg",
        "col3": "Roman Catholic Archdiocese of Hamburg",
        "col4": "Roman Catholic Archdiocese of Hamburg",
        "col5": "30000000000",
        "col6": "30000000000"
    },
    {
        "col0": "Roman Catholic Diocese of Hexham and Newcastle",
        "col1": "Roman Catholic Archdiocese of Liverpool",
        "col2": "Roman Catholic Archdiocese of Liverpool",
        "col3": "Roman Catholic Archdiocese of Liverpool",
        "col4": "Roman Catholic Archdiocese of Liverpool",
        "col5": "8438000000",
        "col6": "8438000000"
    },
    {
        "col0": "Roman Catholic Diocese of Hengzhou",
        "col1": "Roman Catholic Archdiocese of Changsha",
        "col2": "Roman Catholic Archdiocese of Changsha",
        "col3": "Roman Catholic Archdiocese of Changsha",
        "col4": "Roman Catholic Archdiocese of Changsha",
        "col5": "30000000000",
        "col6": "30000000000"
    },
    {
        "col0": "Roman Catholic Diocese of Helena",
        "col1": "List of the Roman Catholic dioceses of the United States",
        "col2": "List of the Roman Catholic dioceses of the United States",
        "col3": "List of the Roman Catholic dioceses of the United States",
        "col4": "List of the Roman Catholic dioceses of the United States",
        "col5": "134477362664",
        "col6": "134477362664"
    },
    {
        "col0": "Roman Catholic Diocese of Hearst",
        "col1": "Ontario",
        "col2": "Ontario",
        "col3": "Ontario",
        "col4": "Ontario",
        "col5": "108830000000",
        "col6": "108830000000"
    },
    {
        "col0": "Roman Catholic Diocese of Hazaribag",
        "col1": "Roman Catholic Archdiocese of Ranchi",
        "col2": "Roman Catholic Archdiocese of Ranchi",
        "col3": "Roman Catholic Archdiocese of Ranchi",
        "col4": "Roman Catholic Archdiocese of Ranchi",
        "col5": "21213000000",
        "col6": "21213000000"
    },
    {
        "col0": "Roman Catholic Diocese of Hasselt",
        "col1": "Roman Catholic Archdiocese of Mechelen-Brussels",
        "col2": "Roman Catholic Archdiocese of Mechelen-Brussels",
        "col3": "Roman Catholic Archdiocese of Mechelen-Brussels",
        "col4": "Roman Catholic Archdiocese of Mechelen-Brussels",
        "col5": "2422000000",
        "col6": "2422000000"
    },
    {
        "col0": "Roman Catholic Diocese of Harrisburg",
        "col1": "Archdiocese of Philadelphia",
        "col2": "Archdiocese of Philadelphia",
        "col3": "Archdiocese of Philadelphia",
        "col4": "Archdiocese of Philadelphia",
        "col5": "19839308925",
        "col6": "19839308925"
    },
    {
        "col0": "Roman Catholic Diocese of Hamhung",
        "col1": "Roman Catholic Archdiocese of Seoul",
        "col2": "Roman Catholic Archdiocese of Seoul",
        "col3": "Roman Catholic Archdiocese of Seoul",
        "col4": "Roman Catholic Archdiocese of Seoul",
        "col5": "49375000000",
        "col6": "49375000000"
    },
    {
        "col0": "Roman Catholic Diocese of Hallam",
        "col1": "Roman Catholic Archdiocese of Liverpool",
        "col2": "Roman Catholic Archdiocese of Liverpool",
        "col3": "Roman Catholic Archdiocese of Liverpool",
        "col4": "Roman Catholic Archdiocese of Liverpool",
        "col5": "1030000000",
        "col6": "1030000000"
    },
    {
        "col0": "Roman Catholic Diocese of Hakha",
        "col1": "Archdiocese of Mandalay",
        "col2": "Archdiocese of Mandalay",
        "col3": "Archdiocese of Mandalay",
        "col4": "Archdiocese of Mandalay",
        "col5": "27516000000",
        "col6": "27516000000"
    },
    {
        "col0": "Roman Catholic Diocese of Haimen",
        "col1": "Roman Catholic Archdiocese of Nanjing",
        "col2": "Roman Catholic Archdiocese of Nanjing",
        "col3": "Roman Catholic Archdiocese of Nanjing",
        "col4": "Roman Catholic Archdiocese of Nanjing",
        "col5": "13500000000",
        "col6": "13500000000"
    },
    {
        "col0": "Roman Catholic Diocese of Hai Phong",
        "col1": "Roman Catholic Archdiocese of Hanoi",
        "col2": "Roman Catholic Archdiocese of Hanoi",
        "col3": "Roman Catholic Archdiocese of Hanoi",
        "col4": "Roman Catholic Archdiocese of Hanoi",
        "col5": "10000000000",
        "col6": "10000000000"
    },
    {
        "col0": "Roman Catholic Diocese of Hung Hoa",
        "col1": "Roman Catholic Archdiocese of Hanoi",
        "col2": "Roman Catholic Archdiocese of Hanoi",
        "col3": "Roman Catholic Archdiocese of Hanoi",
        "col4": "Roman Catholic Archdiocese of Hanoi",
        "col5": "54351000000",
        "col6": "54351000000"
    },
    {
        "col0": "Roman Catholic Diocese of Gorlitz",
        "col1": "Roman Catholic Archdiocese of Berlin",
        "col2": "Roman Catholic Archdiocese of Berlin",
        "col3": "Roman Catholic Archdiocese of Berlin",
        "col4": "Roman Catholic Archdiocese of Berlin",
        "col5": "9700000000",
        "col6": "9700000000"
    },
    {
        "col0": "Roman Catholic Diocese of Gomez Palacio",
        "col1": "Roman Catholic Archdiocese of Durango",
        "col2": "Roman Catholic Archdiocese of Durango",
        "col3": "Roman Catholic Archdiocese of Durango",
        "col4": "Roman Catholic Archdiocese of Durango",
        "col5": "19111522266",
        "col6": "19111522266"
    },
    {
        "col0": "Roman Catholic Diocese of Gyor",
        "col1": "Roman Catholic Archdiocese of Esztergom-Budapest",
        "col2": "Roman Catholic Archdiocese of Esztergom-Budapest",
        "col3": "Roman Catholic Archdiocese of Esztergom-Budapest",
        "col4": "Roman Catholic Archdiocese of Esztergom-Budapest",
        "col5": "5099686589",
        "col6": "5099686589"
    },
    {
        "col0": "Roman Catholic Diocese of Gweru",
        "col1": "Roman Catholic Archdiocese of Bulawayo",
        "col2": "Roman Catholic Archdiocese of Bulawayo",
        "col3": "Roman Catholic Archdiocese of Bulawayo",
        "col4": "Roman Catholic Archdiocese of Bulawayo",
        "col5": "29158000000",
        "col6": "29158000000"
    },
    {
        "col0": "Roman Catholic Diocese of Gwalior",
        "col1": "Roman Catholic Archdiocese of Bhopal",
        "col2": "Roman Catholic Archdiocese of Bhopal",
        "col3": "Roman Catholic Archdiocese of Bhopal",
        "col4": "Roman Catholic Archdiocese of Bhopal",
        "col5": "33583000000",
        "col6": "33583000000"
    },
    {
        "col0": "Roman Catholic Diocese of Gurk",
        "col1": "Roman Catholic Archdiocese of Salzburg",
        "col2": "Roman Catholic Archdiocese of Salzburg",
        "col3": "Roman Catholic Archdiocese of Salzburg",
        "col4": "Roman Catholic Archdiocese of Salzburg",
        "col5": "9533000000",
        "col6": "9533000000"
    },
    {
        "col0": "Roman Catholic Diocese of Guntur",
        "col1": "Roman Catholic Archdiocese of Visakhapatnam",
        "col2": "Roman Catholic Archdiocese of Visakhapatnam",
        "col3": "Roman Catholic Archdiocese of Visakhapatnam",
        "col4": "Roman Catholic Archdiocese of Visakhapatnam",
        "col5": "12803000000",
        "col6": "12803000000"
    },
    {
        "col0": "Roman Catholic Diocese of Gumla",
        "col1": "Roman Catholic Archdiocese of Ranchi",
        "col2": "Roman Catholic Archdiocese of Ranchi",
        "col3": "Roman Catholic Archdiocese of Ranchi",
        "col4": "Roman Catholic Archdiocese of Ranchi",
        "col5": "5316000000",
        "col6": "5316000000"
    },
    {
        "col0": "Roman Catholic Diocese of Gumaca",
        "col1": "Roman Catholic Archdiocese of Lipa",
        "col2": "Roman Catholic Archdiocese of Lipa",
        "col3": "Roman Catholic Archdiocese of Lipa",
        "col4": "Roman Catholic Archdiocese of Lipa",
        "col5": "3666000000",
        "col6": "3666000000"
    },
    {
        "col0": "Roman Catholic Diocese of Gulbarga",
        "col1": "Roman Catholic Archdiocese of Bangalore",
        "col2": "Roman Catholic Archdiocese of Bangalore",
        "col3": "Roman Catholic Archdiocese of Bangalore",
        "col4": "Roman Catholic Archdiocese of Bangalore",
        "col5": "38752000000",
        "col6": "38752000000"
    },
    {
        "col0": "Roman Catholic Diocese of Guide",
        "col1": "Roman Catholic Archdiocese of Kaifeng",
        "col2": "Roman Catholic Archdiocese of Kaifeng",
        "col3": "Roman Catholic Archdiocese of Kaifeng",
        "col4": "Roman Catholic Archdiocese of Kaifeng",
        "col5": "8000000000",
        "col6": "8000000000"
    },
    {
        "col0": "Roman Catholic Diocese of Gubbio",
        "col1": "Roman Catholic Archdiocese of Perugia-CittA  della Pieve",
        "col2": "Roman Catholic Archdiocese of Perugia-CittA  della Pieve",
        "col3": "Roman Catholic Archdiocese of Perugia-CittA  della Pieve",
        "col4": "Roman Catholic Archdiocese of Perugia-CittA  della Pieve",
        "col5": "900000000",
        "col6": "900000000"
    },
    {
        "col0": "Roman Catholic Diocese of Guaxupe",
        "col1": "Roman Catholic Archdiocese of Pouso Alegre",
        "col2": "Roman Catholic Archdiocese of Pouso Alegre",
        "col3": "Roman Catholic Archdiocese of Pouso Alegre",
        "col4": "Roman Catholic Archdiocese of Pouso Alegre",
        "col5": "13953000000",
        "col6": "13953000000"
    },
    {
        "col0": "Roman Catholic Diocese of Guarulhos",
        "col1": "Roman Catholic Archdiocese of Sao Paulo",
        "col2": "Roman Catholic Archdiocese of Sao Paulo",
        "col3": "Roman Catholic Archdiocese of Sao Paulo",
        "col4": "Roman Catholic Archdiocese of Sao Paulo",
        "col5": "341000000",
        "col6": "341000000"
    },
    {
        "col0": "Roman Catholic Diocese of Guarenas",
        "col1": "Roman Catholic Archdiocese of Caracas",
        "col2": "Roman Catholic Archdiocese of Caracas",
        "col3": "Roman Catholic Archdiocese of Caracas",
        "col4": "Roman Catholic Archdiocese of Caracas",
        "col5": "5186000000",
        "col6": "5186000000"
    },
    {
        "col0": "Roman Catholic Diocese of Guarda, Portugal",
        "col1": "Patriarchate of Lisbon",
        "col2": "Patriarchate of Lisbon",
        "col3": "Patriarchate of Lisbon",
        "col4": "Patriarchate of Lisbon",
        "col5": "6758000000",
        "col6": "6758000000"
    },
    {
        "col0": "Roman Catholic Diocese of Guarapuava",
        "col1": "Roman Catholic Archdiocese of Curitiba",
        "col2": "Roman Catholic Archdiocese of Curitiba",
        "col3": "Roman Catholic Archdiocese of Curitiba",
        "col4": "Roman Catholic Archdiocese of Curitiba",
        "col5": "27830000000",
        "col6": "27830000000"
    },
    {
        "col0": "Roman Catholic Diocese of Guaranda",
        "col1": "Roman Catholic Archdiocese of Quito",
        "col2": "Roman Catholic Archdiocese of Quito",
        "col3": "Roman Catholic Archdiocese of Quito",
        "col4": "Roman Catholic Archdiocese of Quito",
        "col5": "3336000000",
        "col6": "3336000000"
    },
    {
        "col0": "Roman Catholic Diocese of Guarabira",
        "col1": "Roman Catholic Archdiocese of Paraiba",
        "col2": "Roman Catholic Archdiocese of Paraiba",
        "col3": "Roman Catholic Archdiocese of Paraiba",
        "col4": "Roman Catholic Archdiocese of Paraiba",
        "col5": "4553000000",
        "col6": "4553000000"
    },
    {
        "col0": "Roman Catholic Diocese of Guantanamo-Baracoa",
        "col1": "Roman Catholic Archdiocese of Santiago de Cuba",
        "col2": "Roman Catholic Archdiocese of Santiago de Cuba",
        "col3": "Roman Catholic Archdiocese of Santiago de Cuba",
        "col4": "Roman Catholic Archdiocese of Santiago de Cuba",
        "col5": "6565000000",
        "col6": "6565000000"
    },
    {
        "col0": "Roman Catholic Diocese of Guanhaes",
        "col1": "Roman Catholic Archdiocese of Diamantina",
        "col2": "Roman Catholic Archdiocese of Diamantina",
        "col3": "Roman Catholic Archdiocese of Diamantina",
        "col4": "Roman Catholic Archdiocese of Diamantina",
        "col5": "15047000000",
        "col6": "15047000000"
    },
    {
        "col0": "Roman Catholic Diocese of Guanare",
        "col1": "Roman Catholic Archdiocese of Barquisimeto",
        "col2": "Roman Catholic Archdiocese of Barquisimeto",
        "col3": "Roman Catholic Archdiocese of Barquisimeto",
        "col4": "Roman Catholic Archdiocese of Barquisimeto",
        "col5": "7600000000",
        "col6": "7600000000"
    },
    {
        "col0": "Roman Catholic Diocese of Gualeguaychu",
        "col1": "Roman Catholic Archdiocese of Parana",
        "col2": "Roman Catholic Archdiocese of Parana",
        "col3": "Roman Catholic Archdiocese of Parana",
        "col4": "Roman Catholic Archdiocese of Parana",
        "col5": "33887000000",
        "col6": "33887000000"
    },
    {
        "col0": "Roman Catholic Diocese of Guajara-Mirim",
        "col1": "Roman Catholic Archdiocese of Porto Velho",
        "col2": "Roman Catholic Archdiocese of Porto Velho",
        "col3": "Roman Catholic Archdiocese of Porto Velho",
        "col4": "Roman Catholic Archdiocese of Porto Velho",
        "col5": "89700000000",
        "col6": "89700000000"
    },
    {
        "col0": "Roman Catholic Diocese of Guadix",
        "col1": "Roman Catholic Archdiocese of Granada",
        "col2": "Roman Catholic Archdiocese of Granada",
        "col3": "Roman Catholic Archdiocese of Granada",
        "col4": "Roman Catholic Archdiocese of Granada",
        "col5": "5577000000",
        "col6": "5577000000"
    },
    {
        "col0": "Roman Catholic Diocese of Grosseto",
        "col1": "Roman Catholic Archdiocese of Siena-Colle di Val d'Elsa-Montalcino",
        "col2": "Roman Catholic Archdiocese of Siena-Colle di Val d'Elsa-Montalcino",
        "col3": "Roman Catholic Archdiocese of Siena-Colle di Val d'Elsa-Montalcino",
        "col4": "Roman Catholic Archdiocese of Siena-Colle di Val d'Elsa-Montalcino",
        "col5": "1239000000",
        "col6": "1239000000"
    },
    {
        "col0": "Roman Catholic Diocese of Grodno",
        "col1": "Roman Catholic Archdiocese of Minsk-Mohilev",
        "col2": "Roman Catholic Archdiocese of Minsk-Mohilev",
        "col3": "Roman Catholic Archdiocese of Minsk-Mohilev",
        "col4": "Roman Catholic Archdiocese of Minsk-Mohilev",
        "col5": "25000000000",
        "col6": "25000000000"
    },
    {
        "col0": "Roman Catholic Diocese of Gregorio de Laferrere",
        "col1": "Roman Catholic Archdiocese of Buenos Aires",
        "col2": "Roman Catholic Archdiocese of Buenos Aires",
        "col3": "Roman Catholic Archdiocese of Buenos Aires",
        "col4": "Roman Catholic Archdiocese of Buenos Aires",
        "col5": "1393000000",
        "col6": "1393000000"
    },
    {
        "col0": "Roman Catholic Diocese of Greensburg",
        "col1": "Roman Catholic Archdiocese of Philadelphia",
        "col2": "Roman Catholic Archdiocese of Philadelphia",
        "col3": "Roman Catholic Archdiocese of Philadelphia",
        "col4": "Roman Catholic Archdiocese of Philadelphia",
        "col5": "8635020359",
        "col6": "8635020359"
    },
    {
        "col0": "Roman Catholic Diocese of Green Bay",
        "col1": "Archdiocese of Milwaukee",
        "col2": "Archdiocese of Milwaukee",
        "col3": "Archdiocese of Milwaukee",
        "col4": "Archdiocese of Milwaukee",
        "col5": "27785392447",
        "col6": "27785392447"
    },
    {
        "col0": "Roman Catholic Diocese of Graz-Seckau",
        "col1": "Roman Catholic Archdiocese of Salzburg",
        "col2": "Roman Catholic Archdiocese of Salzburg",
        "col3": "Roman Catholic Archdiocese of Salzburg",
        "col4": "Roman Catholic Archdiocese of Salzburg",
        "col5": "16392000000",
        "col6": "16392000000"
    },
    {
        "col0": "Roman Catholic Diocese of Grand Rapids",
        "col1": "Archdiocese of Detroit",
        "col2": "Archdiocese of Detroit",
        "col3": "Archdiocese of Detroit",
        "col4": "Archdiocese of Detroit",
        "col5": "17598969209",
        "col6": "17598969209"
    }
]