[
    {
        "col0": "Sheridan County Airport",
        "col1": "SHR",
        "col2": "1535",
        "col3": "15/33",
        "col4": "Asphalt"
    },
    {
        "col0": "Sheremetyevo International Airport",
        "col1": "SVO",
        "col2": "3550",
        "col3": "06L/24R",
        "col4": "Concrete"
    },
    {
        "col0": "Sherbrooke Airport",
        "col1": "YSC",
        "col2": "1798",
        "col3": "13/31",
        "col4": "Asphalt"
    },
    {
        "col0": "Sherbro International Airport",
        "col1": "BTE",
        "col2": "1097",
        "col3": "15/33",
        "col4": "Unpaved (closed)"
    },
    {
        "col0": "Sher-Wood Airport",
        "col1": "PWD",
        "col2": "487",
        "col3": "12/30",
        "col4": "Asphalt"
    },
    {
        "col0": "Shepparton Airport",
        "col1": "SHT",
        "col2": "423",
        "col3": "09/27",
        "col4": "Asphalt"
    },
    {
        "col0": "Shenzhen Bao'an International Airport",
        "col1": "SZX",
        "col2": "3400",
        "col3": "15/33",
        "col4": "Concrete"
    },
    {
        "col0": "Shenyang Taoxian International Airport",
        "col1": "SHE",
        "col2": "3200",
        "col3": "06/24",
        "col4": "Concrete"
    },
    {
        "col0": "Shennongjia Hongping Airport",
        "col1": "HPG",
        "col2": "2800",
        "col3": "00/18",
        "col4": "Concrete"
    },
    {
        "col0": "Shenandoah Valley Regional Airport",
        "col1": "SHD",
        "col2": "1829",
        "col3": "5/23",
        "col4": "Asphalt"
    },
    {
        "col0": "Sheldon Point Airport",
        "col1": "SXP",
        "col2": "918",
        "col3": "1/19",
        "col4": "Gravel"
    },
    {
        "col0": "Shelbyville Municipal Airport",
        "col1": "SYI",
        "col2": "1677",
        "col3": "18/36",
        "col4": "Asphalt"
    },
    {
        "col0": "Shelby Airport",
        "col1": "SBX",
        "col2": "1128",
        "col3": "11/29",
        "col4": "Asphalt"
    },
    {
        "col0": "Sheghnan Airport",
        "col1": "SGA",
        "col2": "803",
        "col3": "16/34",
        "col4": "Gravel"
    },
    {
        "col0": "Sheffield City Airport",
        "col1": "SZD",
        "col2": "1210",
        "col3": "10/28",
        "col4": "Asphalt"
    },
    {
        "col0": "Sheboygan County Memorial Airport",
        "col1": "SBM",
        "col2": "1524",
        "col3": "13/31",
        "col4": "Asphalt"
    },
    {
        "col0": "Shay Gap Airport",
        "col1": "SGP",
        "col2": "1911",
        "col3": "10/28",
        "col4": "Gravel"
    },
    {
        "col0": "Shawnee Regional Airport",
        "col1": "SNL",
        "col2": "1827",
        "col3": "17/35",
        "col4": "Asphalt"
    },
    {
        "col0": "Shaw Air Force Base",
        "col1": "SSC",
        "col2": "2438",
        "col3": "4L/22R",
        "col4": "Concrete"
    },
    {
        "col0": "Shashi Airport",
        "col1": "SHS",
        "col2": "3400",
        "col3": "04/22",
        "col4": "Concrete"
    },
    {
        "col0": "Sharurah Domestic Airport",
        "col1": "SHW",
        "col2": "3649",
        "col3": "08/26",
        "col4": "Asphalt"
    },
    {
        "col0": "Sharq El Owainat Airport",
        "col1": "GSQ",
        "col2": "3500",
        "col3": "01/19",
        "col4": "Asphalt"
    },
    {
        "col0": "Sharpe Field",
        "col1": "TGE",
        "col2": "1615",
        "col3": "14/32",
        "col4": "Asphalt"
    },
    {
        "col0": "Sharp County Regional Airport",
        "col1": "CKK",
        "col2": "1571",
        "col3": "4/22",
        "col4": "Asphalt"
    },
    {
        "col0": "Sharm El Sheikh International Airport",
        "col1": "SSH",
        "col2": "3080",
        "col3": "04L/22R",
        "col4": "Asphalt"
    },
    {
        "col0": "Shark Bay Airport",
        "col1": "MJK",
        "col2": "1690",
        "col3": "18/36",
        "col4": "Asphalt"
    },
    {
        "col0": "Sharjah International Airport",
        "col1": "SHJ",
        "col2": "4060",
        "col3": "12/30",
        "col4": "Asphalt"
    },
    {
        "col0": "Sharana Airstrip",
        "col1": "OAS",
        "col2": "1299",
        "col3": "14/32",
        "col4": "Asphalt"
    },
    {
        "col0": "Shantou Waisha Airport",
        "col1": "SWA",
        "col2": "2500",
        "col3": "04/22",
        "col4": "Concrete"
    },
    {
        "col0": "Shannon Airport",
        "col1": "SNN",
        "col2": "3199",
        "col3": "06/24",
        "col4": "Asphalt"
    },
    {
        "col0": "Shanghai Pudong International Airport",
        "col1": "PVG",
        "col2": "3400",
        "col3": "16L/34R",
        "col4": "Concrete"
    },
    {
        "col0": "Shanghai Hongqiao International Airport",
        "col1": "SHA",
        "col2": "3400",
        "col3": "18L/36R",
        "col4": "Asphalt"
    },
    {
        "col0": "Shamshernagar Airport",
        "col1": "ZHM",
        "col2": "1584",
        "col3": "17/35",
        "col4": "Concrete"
    },
    {
        "col0": "Shamattawa Airport",
        "col1": "ZTM",
        "col2": "1221",
        "col3": "01/19",
        "col4": "Gravel"
    },
    {
        "col0": "Shaktoolik Airport",
        "col1": "SKK",
        "col2": "1219",
        "col3": "14/32",
        "col4": "Gravel"
    },
    {
        "col0": "Shakiso Airport",
        "col1": "SKR",
        "col2": "1519",
        "col3": "07/25",
        "col4": "Dirt"
    },
    {
        "col0": "Shakawe Airport",
        "col1": "SWX",
        "col2": "1399",
        "col3": "11/29",
        "col4": "Bitumen"
    },
    {
        "col0": "Shaikh Zayed International Airport",
        "col1": "RYK",
        "col2": "2999",
        "col3": "01/19",
        "col4": "Asphalt"
    },
    {
        "col0": "Shahroud Airport",
        "col1": "RUD",
        "col2": "2801",
        "col3": "07/25",
        "col4": "Asphalt"
    },
    {
        "col0": "Shahrekord Airport",
        "col1": "CQD",
        "col2": "3297",
        "col3": "14/32",
        "col4": "Asphalt"
    },
    {
        "col0": "Shahjalal International Airport",
        "col1": "DAC",
        "col2": "3200",
        "col3": "14/32",
        "col4": "ConcreteAsphalt"
    },
    {
        "col0": "Shahid Sadooghi Airport",
        "col1": "AZD",
        "col2": "4098",
        "col3": "13/31",
        "col4": "Asphalt"
    },
    {
        "col0": "Shah Makhdum Airport",
        "col1": "RJH",
        "col2": "1828",
        "col3": "17/35",
        "col4": "Asphalt"
    },
    {
        "col0": "Shah Amanat International Airport",
        "col1": "CGP",
        "col2": "2940",
        "col3": "05/23",
        "col4": "ConcreteAsphalt"
    },
    {
        "col0": "Shageluk Airport",
        "col1": "SHX",
        "col2": "1036",
        "col3": "16/34",
        "col4": "Gravel"
    },
    {
        "col0": "Shafter Airport",
        "col1": "MIT",
        "col2": "905",
        "col3": "12/30",
        "col4": "Asphalt"
    },
    {
        "col0": "Sha Tin Airfield",
        "col1": "N/A",
        "col2": "600",
        "col3": "05/23",
        "col4": "Paved concrete"
    },
    {
        "col0": "Sfax-Thyna International Airport",
        "col1": "SFA",
        "col2": "3000",
        "col3": "15/33",
        "col4": "Concrete"
    },
    {
        "col0": "Seymour Johnson Air Force Base",
        "col1": "GSB",
        "col2": "2834",
        "col3": "18L/36R",
        "col4": "Concrete/Grooved"
    },
    {
        "col0": "Seymour Airport",
        "col1": "GPS",
        "col2": "2400",
        "col3": "14/32",
        "col4": "Asphalt"
    },
    {
        "col0": "Seychelles International Airport",
        "col1": "SEZ",
        "col2": "2987",
        "col3": "13/31",
        "col4": "Concrete"
    },
    {
        "col0": "Seward Airport",
        "col1": "SWD",
        "col2": "694",
        "col3": "13/31",
        "col4": "Asphalt"
    },
    {
        "col0": "Seville Airport",
        "col1": "SVQ",
        "col2": "3360",
        "col3": "09/27",
        "col4": "Concrete/Asphalt"
    },
    {
        "col0": "Severo-Evensk Airport",
        "col1": "SWV",
        "col2": "1600",
        "col3": "03/21",
        "col4": "Asphalt"
    },
    {
        "col0": "Sevastopol International Airport",
        "col1": "UKS",
        "col2": "3006",
        "col3": "07L/25R",
        "col4": "Concrete"
    },
    {
        "col0": "Sette Cama Airport",
        "col1": "ZKM",
        "col2": "1200",
        "col3": "15/33",
        "col4": "Sand"
    },
    {
        "col0": "Seshutes Airport",
        "col1": "SHZ",
        "col2": "702",
        "col3": "06/24",
        "col4": "Dirt"
    },
    {
        "col0": "Sesheke Airport",
        "col1": "SJQ",
        "col2": "945",
        "col3": "09/27",
        "col4": "Unpaved"
    },
    {
        "col0": "Seruyan Kuala Pembuang Airport",
        "col1": "KLP",
        "col2": "1000",
        "col3": "10/28",
        "col4": "Asphalt"
    },
    {
        "col0": "Seronera Airstrip",
        "col1": "SEU",
        "col2": "2280",
        "col3": "13/31",
        "col4": "Gravel"
    },
    {
        "col0": "Sequim Valley Airport",
        "col1": "SQV",
        "col2": "1066",
        "col3": "9L/27R",
        "col4": "Asphalt"
    },
    {
        "col0": "Sept-Iles Airport",
        "col1": "YZV",
        "col2": "1759",
        "col3": "09/27",
        "col4": "Asphalt"
    },
    {
        "col0": "Seoul Air Base",
        "col1": "SSN",
        "col2": "2743",
        "col3": "01/19",
        "col4": "Asphalt"
    },
    {
        "col0": "Seosan Air Base",
        "col1": "HMY",
        "col2": "2743",
        "col3": "03L/21R",
        "col4": "concrete"
    },
    {
        "col0": "Seongmu Airport",
        "col1": "none",
        "col2": "1219",
        "col3": "16/34",
        "col4": "Concrete"
    },
    {
        "col0": "Sentani Airport",
        "col1": "DJJ",
        "col2": "2499",
        "col3": "12/30",
        "col4": "Asphalt"
    },
    {
        "col0": "Sendai Airport",
        "col1": "SDJ",
        "col2": "1200",
        "col3": "09/27",
        "col4": "Asphalt concrete"
    },
    {
        "col0": "Senanga Airport",
        "col1": "SXG",
        "col2": "1155",
        "col3": "10/28",
        "col4": "Dirt"
    },
    {
        "col0": "Senai International Airport",
        "col1": "JHB",
        "col2": "3800",
        "col3": "16/34",
        "col4": "Asphalt"
    },
    {
        "col0": "Semporna Airport",
        "col1": "SMM",
        "col2": "609",
        "col3": "18/36",
        "col4": "Gravel"
    },
    {
        "col0": "Semonkong Airport",
        "col1": "SOK",
        "col2": "700",
        "col3": "08/26",
        "col4": "Asphalt"
    },
    {
        "col0": "Semey Airport",
        "col1": "PLX",
        "col2": "3096",
        "col3": "08/26",
        "col4": "Concrete"
    },
    {
        "col0": "Semera Airport",
        "col1": "SZE",
        "col2": "2230",
        "col3": "14/32",
        "col4": "Unpaved"
    },
    {
        "col0": "Seletar Airport",
        "col1": "XSP",
        "col2": "1835",
        "col3": "03/21",
        "col4": "Asphalt"
    },
    {
        "col0": "Selebi-Phikwe Airport",
        "col1": "PKW",
        "col2": "1780",
        "col3": "12/30",
        "col4": "Asphalt"
    },
    {
        "col0": "Seldovia Airport",
        "col1": "SOV",
        "col2": "562",
        "col3": "16/34",
        "col4": "Gravel"
    },
    {
        "col0": "Selawik Airport",
        "col1": "WLK",
        "col2": "810",
        "col3": "3/21",
        "col4": "Gravel"
    },
    {
        "col0": "Selaparang Airport",
        "col1": "AMI",
        "col2": "2088",
        "col3": "09/27",
        "col4": "Asphalt"
    },
    {
        "col0": "Sekake Airport",
        "col1": "SKQ",
        "col2": "670",
        "col3": "15/33",
        "col4": "Grass"
    },
    {
        "col0": "Seinajoki Airport",
        "col1": "SJY",
        "col2": "2000",
        "col3": "14/32",
        "col4": "Asphalt"
    },
    {
        "col0": "Sei Pakning Airport",
        "col1": "SEQ",
        "col2": "789",
        "col3": "18/36",
        "col4": "Asphalt"
    },
    {
        "col0": "Sei Bati Airport",
        "col1": "TJB",
        "col2": "1400",
        "col3": "19L/27R",
        "col4": "Asphalt"
    },
    {
        "col0": "Sehonghong Airport",
        "col1": "SHK",
        "col2": "610",
        "col3": "04/22",
        "col4": "Gravel"
    },
    {
        "col0": "Sedona Airport",
        "col1": "SDX",
        "col2": "1563",
        "col3": "3/21",
        "col4": "Asphalt"
    },
    {
        "col0": "Sedalia Regional Airport",
        "col1": "DMO",
        "col2": "1072",
        "col3": "18/36",
        "col4": "Asphalt"
    },
    {
        "col0": "Sechelt Aerodrome",
        "col1": "YHS",
        "col2": "731",
        "col3": "11/29",
        "col4": "Asphalt"
    },
    {
        "col0": "Sebring Regional Airport",
        "col1": "SEF",
        "col2": "1520",
        "col3": "01/19",
        "col4": "Asphalt"
    },
    {
        "col0": "Sebba Airport",
        "col1": "XSE",
        "col2": "609",
        "col3": "05/23",
        "col4": "Grass"
    },
    {
        "col0": "Seattle-Tacoma International Airport",
        "col1": "SEA",
        "col2": "2590",
        "col3": "16C/34C",
        "col4": "Concrete"
    },
    {
        "col0": "Searcy Municipal Airport",
        "col1": "SRC",
        "col2": "1831",
        "col3": "1/19",
        "col4": "Asphalt"
    },
    {
        "col0": "Nordholz Naval Airbase",
        "col1": "FCN",
        "col2": "2439",
        "col3": "08/26",
        "col4": "Concrete"
    },
    {
        "col0": "Sde Dov Airport",
        "col1": "SDV",
        "col2": "1741",
        "col3": "03/21",
        "col4": "Asphalt"
    },
    {
        "col0": "Scribner State Airport",
        "col1": "SCB",
        "col2": "975",
        "col3": "12/30",
        "col4": "Concrete"
    },
    {
        "col0": "Scottsdale Airport",
        "col1": "SCF",
        "col2": "2514",
        "col3": "3/21",
        "col4": "Asphalt"
    },
    {
        "col0": "Scott Field",
        "col1": "none",
        "col2": "1280",
        "col3": "17/35",
        "col4": "Asphalt"
    },
    {
        "col0": "Scone Airport",
        "col1": "NSO",
        "col2": "1404",
        "col3": "11/29",
        "col4": "Asphalt"
    },
    {
        "col0": "Schoolcraft County Airport",
        "col1": "ISQ",
        "col2": "762",
        "col3": "1/19",
        "col4": "Asphalt"
    },
    {
        "col0": "Scholes International Airport at Galveston",
        "col1": "GLS",
        "col2": "1828",
        "col3": "13/31",
        "col4": "Asphalt/Concrete"
    },
    {
        "col0": "Schenectady County Airport",
        "col1": "SCH",
        "col2": "872",
        "col3": "10/28",
        "col4": "Asphalt"
    },
    {
        "col0": "Schefferville Airport",
        "col1": "YKL",
        "col2": "1524",
        "col3": "17/35",
        "col4": "Asphalt"
    },
    {
        "col0": "Scatsta Airport",
        "col1": "SCS",
        "col2": "1360",
        "col3": "06/24",
        "col4": "Asphalt"
    },
    {
        "col0": "Scarlett Martinez International Airport",
        "col1": "RIH",
        "col2": "2450",
        "col3": "17/35",
        "col4": "paved"
    },
    {
        "col0": "Scammon Bay Airport",
        "col1": "SCM",
        "col2": "914",
        "col3": "10/28",
        "col4": "Gravel"
    },
    {
        "col0": "Saul Airport",
        "col1": "XAU",
        "col2": "1199",
        "col3": "03/21",
        "col4": "Unpaved"
    },
    {
        "col0": "Sayun Airport",
        "col1": "GXF",
        "col2": "3000",
        "col3": "07/25",
        "col4": "Asphalt"
    },
    {
        "col0": "Sayak Airport",
        "col1": "IAO",
        "col2": "1326",
        "col3": "01/19",
        "col4": "Concrete"
    },
    {
        "col0": "Sawyer International Airport",
        "col1": "MQT",
        "col2": "3769",
        "col3": "1/19",
        "col4": "Asphalt/Concrete"
    },
    {
        "col0": "Sawyer County Airport",
        "col1": "HYR",
        "col2": "331",
        "col3": "16/34",
        "col4": "Asphalt"
    },
    {
        "col0": "Sawan Airport",
        "col1": "RZS",
        "col2": "1664",
        "col3": "21/03",
        "col4": "Asphalt"
    },
    {
        "col0": "Save Airport",
        "col1": "SVF",
        "col2": "1203",
        "col3": "05/23",
        "col4": "DIRT"
    },
    {
        "col0": "Savuti Airport",
        "col1": "SVT",
        "col2": "2200",
        "col3": "03/21",
        "col4": "partially paved"
    },
    {
        "col0": "Savoonga Airport",
        "col1": "SVA",
        "col2": "1341",
        "col3": "5/23",
        "col4": "Gravel"
    },
    {
        "col0": "Savonlinna Airport",
        "col1": "SVL",
        "col2": "2300",
        "col3": "12/30",
        "col4": "Asphalt"
    },
    {
        "col0": "Savitri Jindal Airport",
        "col1": "IN 0073",
        "col2": "1780",
        "col3": "11/29",
        "col4": "Asphalt"
    },
    {
        "col0": "Savannakhet Airport",
        "col1": "ZVK",
        "col2": "1633",
        "col3": "04/22",
        "col4": "Concrete"
    },
    {
        "col0": "Savannah Airstrip",
        "col1": "KHX",
        "col2": "1818",
        "col3": "02/20",
        "col4": "Gravel"
    },
    {
        "col0": "Savannah/Hilton Head International Airport",
        "col1": "SAV",
        "col2": "2134",
        "col3": "1/19",
        "col4": "Concrete"
    },
    {
        "col0": "Save Airport",
        "col1": "SVF",
        "col2": "1203",
        "col3": "05/23",
        "col4": "DIRT"
    },
    {
        "col0": "Saudarkrokur Airport",
        "col1": "SAK",
        "col2": "1887",
        "col3": "01/19",
        "col4": "Asphalt"
    },
    {
        "col0": "Sault Ste. Marie Municipal Airport",
        "col1": "SSM",
        "col2": "1595",
        "col3": "14/32",
        "col4": "Asphalt"
    },
    {
        "col0": "Sault Ste. Marie Airport",
        "col1": "YAM",
        "col2": "1828",
        "col3": "04/22",
        "col4": "Asphalt"
    },
    {
        "col0": "Saufley Field",
        "col1": "NUN",
        "col2": "1219",
        "col3": "14/32",
        "col4": "Asphalt"
    },
    {
        "col0": "Sauce Viejo Airport",
        "col1": "SFN",
        "col2": "2349",
        "col3": "03/21",
        "col4": "Concrete"
    },
    {
        "col0": "Saudarkrokur Airport",
        "col1": "SAK",
        "col2": "1887",
        "col3": "01/19",
        "col4": "Asphalt"
    },
    {
        "col0": "Satu Mare International Airport",
        "col1": "SUJ",
        "col2": "2499",
        "col3": "01/19",
        "col4": "Concrete"
    },
    {
        "col0": "Satna Airport",
        "col1": "TNI",
        "col2": "1059",
        "col3": "11/29",
        "col4": "Asphalt"
    },
    {
        "col0": "Sassandra Airport",
        "col1": "ZSS",
        "col2": "1758",
        "col3": "04/22",
        "col4": "Unpaved"
    }
]