[
    {
        "col0": "M. Dannemann",
        "col1": "Dusseldorf",
        "col2": "East Sussex",
        "col3": "Germany",
        "col4": "1996-04-05"
    },
    {
        "col0": "G. Hall-Say",
        "col1": "Cookham",
        "col2": "Brighton",
        "col3": "United Kingdom",
        "col4": "1940-1-21"
    },
    {
        "col0": "E. Muckelt",
        "col1": "Manchester",
        "col2": "Manchester",
        "col3": "United Kingdom",
        "col4": "1953-12-13"
    },
    {
        "col0": "E. Syers",
        "col1": "Brighton",
        "col2": "Maidenhead",
        "col3": "United Kingdom",
        "col4": "1946-2-16"
    },
    {
        "col0": "D. Greenhough-Smith",
        "col1": "Yarm",
        "col2": "Royal Tunbridge Wells",
        "col3": "United Kingdom",
        "col4": "1965-5-9"
    },
    {
        "col0": "C. Gorman",
        "col1": "Saint John, New Brunswick",
        "col2": "Saint John, New Brunswick",
        "col3": "Canadian",
        "col4": "1940-02-11"
    },
    {
        "col0": "A. Cumming",
        "col1": "Marylebone",
        "col2": "Hammersmith",
        "col3": "United Kingdom",
        "col4": "1914-5-9"
    },
    {
        "col0": "A. Naess",
        "col1": "Norway",
        "col2": "Austria",
        "col3": "Norway",
        "col4": "1955-07-06"
    }
]