[
    {
        "col0": "G. A. Carter",
        "col1": "Connecticut",
        "col2": "Connecticut",
        "col3": "Connecticut",
        "col4": "New York City",
        "col5": "1893-11-10"
    },
    {
        "col0": "G. P. Gordillo",
        "col1": "Colombia",
        "col2": "Central Cemetery of Bogota",
        "col3": "Tolima Department",
        "col4": "Tolima Department",
        "col5": "2008-03-21"
    },
    {
        "col0": "F. C. Williams",
        "col1": "California",
        "col2": "California",
        "col3": "California",
        "col4": "Illinois",
        "col5": "1940-03-06"
    },
    {
        "col0": "F. Esposito",
        "col1": "Connecticut",
        "col2": "Connecticut",
        "col3": "Connecticut",
        "col4": "New York",
        "col5": "2013-01-09"
    },
    {
        "col0": "F. H. Fee",
        "col1": "Melbourne, Florida",
        "col2": "Florida",
        "col3": "Florida",
        "col4": "Niles, Ohio",
        "col5": "1930-0-0"
    },
    {
        "col0": "E. Boardman",
        "col1": "Boardman, Ohio",
        "col2": "Connecticut",
        "col3": "Litchfield, Connecticut",
        "col4": "Connecticut Colony",
        "col5": "1823-08-18"
    },
    {
        "col0": "E. A. Woodward",
        "col1": "Connecticut",
        "col2": "Connecticut",
        "col3": "Connecticut",
        "col4": "Buffalo, New York",
        "col5": "1905-09-29"
    },
    {
        "col0": "E. Lockwood",
        "col1": "Connecticut",
        "col2": "Connecticut",
        "col3": "Norwalk, Connecticut",
        "col4": "Norwalk, Connecticut",
        "col5": "1878-10-14"
    },
    {
        "col0": "E. Adams",
        "col1": "Connecticut",
        "col2": "Connecticut",
        "col3": "South Norwalk",
        "col4": "Salem, New York",
        "col5": "1908-05-10"
    },
    {
        "col0": "E. Scarborough",
        "col1": "Virginia",
        "col2": "Accomack County, Virginia",
        "col3": "Virginia",
        "col4": "England",
        "col5": "1671-1-1"
    },
    {
        "col0": "D. M. Hughes",
        "col1": "Macon, Georgia",
        "col2": "Perry, Georgia",
        "col3": "Danville, Georgia",
        "col4": "Jeffersonville, Georgia",
        "col5": "1927-01-20"
    },
    {
        "col0": "D. Geeben",
        "col1": "Stuart, Florida",
        "col2": "Marion, Iowa",
        "col3": "Ocean Breeze Park, Florida",
        "col4": "Mondovi, Wisconsin",
        "col5": "2010-01-11"
    },
    {
        "col0": "D. J. Irwin",
        "col1": "Connecticut",
        "col2": "Connecticut",
        "col3": "Connecticut",
        "col4": "Rosario, Santa Fe",
        "col5": "2013-07-07"
    },
    {
        "col0": "D. Kellogg",
        "col1": "Connecticut Colony",
        "col2": "Connecticut",
        "col3": "Norwalk, Connecticut",
        "col4": "Essex",
        "col5": "1688-12-1"
    },
    {
        "col0": "D. Hoyt",
        "col1": "Connecticut Colony",
        "col2": "Connecticut",
        "col3": "Connecticut Colony",
        "col4": "Connecticut Colony",
        "col5": "1764-08-13"
    },
    {
        "col0": "C. H. Stewart",
        "col1": "Melbourne, Florida",
        "col2": "Daytona Beach, Florida",
        "col3": "Florida",
        "col4": "Illinois",
        "col5": "1936-06-18"
    },
    {
        "col0": "C. C. Ridgely",
        "col1": "Maryland",
        "col2": "Hampton National Historic Site",
        "col3": "Baltimore County",
        "col4": "Baltimore County, Maryland",
        "col5": "1829-07-17"
    },
    {
        "col0": "C. Ball",
        "col1": "California",
        "col2": "Chico, California",
        "col3": "Marysville, California",
        "col4": "New York",
        "col5": "1903-03-04"
    },
    {
        "col0": "C. J. F. Campbell",
        "col1": "Florida",
        "col2": "Florida",
        "col3": "Florida",
        "col4": "England",
        "col5": "1947-1-1"
    },
    {
        "col0": "B. Hickox",
        "col1": "Connecticut Colony",
        "col2": "Connecticut",
        "col3": "Connecticut Colony",
        "col4": "Connecticut Colony",
        "col5": "1745-11-17"
    },
    {
        "col0": "B. Redstone",
        "col1": "Florida",
        "col2": "Florida",
        "col3": "Florida",
        "col4": "New Brunswick",
        "col5": "1969-09-17"
    },
    {
        "col0": "A. W. Jr.",
        "col1": "Virginia",
        "col2": "Warner Hall",
        "col3": "Virginia",
        "col4": "Virginia",
        "col5": "1681-06-19"
    },
    {
        "col0": "A. Smith",
        "col1": "New Haven",
        "col2": "Connecticut",
        "col3": "Connecticut",
        "col4": "Norwalk, Connecticut",
        "col5": "1907-09-29"
    },
    {
        "col0": "A. Canova",
        "col1": "Florida",
        "col2": "St. Petersburg, Florida",
        "col3": "Wildwood, Florida",
        "col4": "Florida",
        "col5": "1909-12-17"
    },
    {
        "col0": "A. N. Phillips",
        "col1": "Connecticut",
        "col2": "Maryland",
        "col3": "Connecticut",
        "col4": "Darien, Connecticut",
        "col5": "1970-01-18"
    },
    {
        "col0": "A. M. Sr.",
        "col1": "Florida",
        "col2": "Florida",
        "col3": "Florida",
        "col4": "Edinburgh",
        "col5": "1966-8-1"
    },
    {
        "col0": "A. P. Morano",
        "col1": "Connecticut",
        "col2": "Connecticut",
        "col3": "Connecticut",
        "col4": "Paterson, New Jersey",
        "col5": "1987-12-16"
    },
    {
        "col0": "A. H. Byington",
        "col1": "New York",
        "col2": "Connecticut",
        "col3": "Connecticut",
        "col4": "New York",
        "col5": "1910-12-29"
    }
]