[
    {
        "col0": "Associacao Atletica Batel",
        "col1": "Head Coach",
        "col2": "1951-03-17",
        "col3": "President"
    },
    {
        "col0": "Associacao Academica e Desportiva Vitoria das Tabocas",
        "col1": "Head Coach",
        "col2": "2008-05-06",
        "col3": "President"
    },
    {
        "col0": "Associacao Xanxerense de Futebol",
        "col1": "Head Coach",
        "col2": "1978-05-13",
        "col3": "President"
    },
    {
        "col0": "Associacao Trairiense de Futebol",
        "col1": "Head Coach",
        "col2": "1999-12-22",
        "col3": "President"
    },
    {
        "col0": "Associacao Olimpica de Itabaiana",
        "col1": "Head coach",
        "col2": "1938-07-10",
        "col3": "President"
    },
    {
        "col0": "Associacao Nova Prata de Esportes Cultura e Lazer",
        "col1": "Head coach",
        "col2": "2003-04-10",
        "col3": "President"
    },
    {
        "col0": "Associacao Maga Esporte Clube",
        "col1": "Head Coach",
        "col2": "1993-05-12",
        "col3": "President"
    },
    {
        "col0": "Associacao Jaguare Esporte Clube",
        "col1": "Head Coach",
        "col2": "2001-12-15",
        "col3": "President"
    },
    {
        "col0": "Associacao Garibaldi de Esportes",
        "col1": "Head Coach",
        "col2": "1998-08-18",
        "col3": "President"
    },
    {
        "col0": "Associacao Esportiva e Recreativa Santo Angelo",
        "col1": "Head coach",
        "col2": "1989-09-26",
        "col3": "President"
    },
    {
        "col0": "Associacao Esportiva Velo Clube Rioclarense",
        "col1": "Head Coach",
        "col2": "1910-08-28",
        "col3": "President"
    },
    {
        "col0": "Associacao Esportiva Tiradentes",
        "col1": "Head Coach",
        "col2": "1961-09-15",
        "col3": "President"
    },
    {
        "col0": "Associacao Esportiva Social e Recreativa Riopardense",
        "col1": "Head Coach",
        "col2": "2009-07-27",
        "col3": "President"
    },
    {
        "col0": "Associacao Esportiva Real",
        "col1": "Head coach",
        "col2": "2006-05-11",
        "col3": "President"
    },
    {
        "col0": "Associacao Esportiva Jataiense",
        "col1": "Head Coach",
        "col2": "1952-01-10",
        "col3": "President"
    },
    {
        "col0": "Associacao Desportiva e Recreativa Sao Jose",
        "col1": "Head coach",
        "col2": "1997-02-14",
        "col3": "President"
    },
    {
        "col0": "Associacao Desportiva Vitoria",
        "col1": "Head Coach",
        "col2": "1990-08-03",
        "col3": "President"
    },
    {
        "col0": "Associacao Desportiva Socorrense",
        "col1": "Head Coach",
        "col2": "2005-08-31",
        "col3": "President"
    },
    {
        "col0": "Associacao Desportiva Limoeiro Futebol Clube",
        "col1": "Head Coach",
        "col2": "2001-02-01",
        "col3": "President"
    },
    {
        "col0": "Associacao Desportiva Guarulhos",
        "col1": "Head Coach",
        "col2": "1964-01-01",
        "col3": "President"
    },
    {
        "col0": "Associacao Desportiva Guaruja",
        "col1": "Head Coach",
        "col2": "1992-12-01",
        "col3": "President"
    },
    {
        "col0": "Associacao Desportiva Guarabira",
        "col1": "Head Coach",
        "col2": "2005-05-02",
        "col3": "President"
    },
    {
        "col0": "Associacao Desportiva Ferroviaria Vale do Rio Doce",
        "col1": "Head coach",
        "col2": "1963-06-17",
        "col3": "President"
    },
    {
        "col0": "Associacao Cultural e Desportiva Potyguar Seridoense",
        "col1": "Head coach",
        "col2": "1989-08-01",
        "col3": "President"
    },
    {
        "col0": "Associacao Carlos Barbosa de Futsal",
        "col1": "Head coach",
        "col2": "1976-03-01",
        "col3": "President"
    },
    {
        "col0": "Associacao Botafogo Futebol Clube",
        "col1": "Head Coach",
        "col2": "2004-07-14",
        "col3": "President"
    },
    {
        "col0": "Associacao Boquinhense de Desportos",
        "col1": "Head Coach",
        "col2": "1965-10-11",
        "col3": "President"
    },
    {
        "col0": "Associacao Atletica XI de Agosto",
        "col1": "Head Coach",
        "col2": "1929-08-11",
        "col3": "President"
    },
    {
        "col0": "Associacao Atletica Santa Rita",
        "col1": "Head Coach",
        "col2": "1974-01-03",
        "col3": "President"
    },
    {
        "col0": "Associacao Atletica Rioverdense",
        "col1": "Head Coach",
        "col2": "1985-04-12",
        "col3": "President"
    },
    {
        "col0": "Associacao Atletica Nova Venecia",
        "col1": "Head Coach",
        "col2": "1983-03-25",
        "col3": "President"
    },
    {
        "col0": "Associacao Atletica Moreninhas",
        "col1": "Head Coach",
        "col2": "1994-03-05",
        "col3": "President"
    },
    {
        "col0": "Associacao Atletica Guarany",
        "col1": "Head Coach",
        "col2": "1940-01-01",
        "col3": "President"
    },
    {
        "col0": "Associacao Atletica Francana",
        "col1": "Head Coach",
        "col2": "1912-10-12",
        "col3": "President"
    },
    {
        "col0": "Associacao Atletica Flamengo",
        "col1": "Head Coach",
        "col2": "1954-06-01",
        "col3": "President"
    },
    {
        "col0": "Associacao Atletica Ferroviaria",
        "col1": "Head coach",
        "col2": "1939-05-03",
        "col3": "President"
    },
    {
        "col0": "Associacao Atletica Cori-Sabba",
        "col1": "Head coach",
        "col2": "1973-05-24",
        "col3": "President"
    },
    {
        "col0": "Associacao Atletica Colatina",
        "col1": "Head Coach",
        "col2": "1978-05-13",
        "col3": "President"
    },
    {
        "col0": "Associacao Atletica Carapebus",
        "col1": "Head Coach",
        "col2": "2006-04-12",
        "col3": "President"
    },
    {
        "col0": "Associacao Atletica Batel",
        "col1": "Head Coach",
        "col2": "1951-03-17",
        "col3": "President"
    },
    {
        "col0": "Associacao Academica e Desportiva Vitoria das Tabocas",
        "col1": "Head Coach",
        "col2": "2008-05-06",
        "col3": "President"
    },
    {
        "col0": "Asante Kotoko S.C.",
        "col1": "Chief-Trainer",
        "col2": "1935-08-31",
        "col3": "Chief Executive Officer"
    },
    {
        "col0": "Arsenal Atividades Desportivas Sport Club",
        "col1": "Head Coach",
        "col2": "2006-06-20",
        "col3": "President"
    },
    {
        "col0": "Aquidauanense Futebol Clube",
        "col1": "Head Coach",
        "col2": "2010-12-01",
        "col3": "President"
    },
    {
        "col0": "Americo Esporte Clube",
        "col1": "Head Coach",
        "col2": "2007-09-25",
        "col3": "President"
    },
    {
        "col0": "America de Quito",
        "col1": "Manager",
        "col2": "1939-11-25",
        "col3": "Chairman"
    },
    {
        "col0": "America Futebol Clube",
        "col1": "Head Coach",
        "col2": "1917-11-25",
        "col3": "President"
    },
    {
        "col0": "America Futebol Clube",
        "col1": "Head Coach",
        "col2": "1914-06-14",
        "col3": "President"
    },
    {
        "col0": "America Futebol Clube",
        "col1": "Head Coach",
        "col2": "2012-04-14",
        "col3": "President"
    },
    {
        "col0": "America Futebol Clube",
        "col1": "Head Coach",
        "col2": "1919-08-09",
        "col3": "President"
    },
    {
        "col0": "America Football Club",
        "col1": "Head Coach",
        "col2": "2011-11-20",
        "col3": "President"
    },
    {
        "col0": "Americo Esporte Clube",
        "col1": "Head Coach",
        "col2": "2007-09-25",
        "col3": "President"
    },
    {
        "col0": "America de Quito",
        "col1": "Manager",
        "col2": "1939-11-25",
        "col3": "Chairman"
    },
    {
        "col0": "America Futebol Clube",
        "col1": "Head Coach",
        "col2": "1917-11-25",
        "col3": "President"
    },
    {
        "col0": "America Futebol Clube",
        "col1": "Head Coach",
        "col2": "1914-06-14",
        "col3": "President"
    },
    {
        "col0": "America Futebol Clube",
        "col1": "Head Coach",
        "col2": "2012-04-14",
        "col3": "President"
    }
]