[
    {
        "col0": "Rosso corsa",
        "col1": "100",
        "col2": "0",
        "col3": "13"
    },
    {
        "col0": "Rose",
        "col1": "50",
        "col2": "330",
        "col3": "0"
    },
    {
        "col0": "Robin egg blue",
        "col1": "27",
        "col2": "180",
        "col3": "67"
    },
    {
        "col0": "Red-violet",
        "col1": "33",
        "col2": "322",
        "col3": "0"
    },
    {
        "col0": "Raspberry",
        "col1": "60",
        "col2": "337",
        "col3": "0"
    },
    {
        "col0": "Raisin black",
        "col1": "0",
        "col2": "300",
        "col3": "0"
    },
    {
        "col0": "Purple",
        "col1": "0",
        "col2": "300",
        "col3": "50"
    },
    {
        "col0": "Puce",
        "col1": "52",
        "col2": "353",
        "col3": "0"
    },
    {
        "col0": "Powder blue",
        "col1": "0",
        "col2": "220",
        "col3": "24"
    },
    {
        "col0": "Plum",
        "col1": "6",
        "col2": "347",
        "col3": "0"
    },
    {
        "col0": "Pink",
        "col1": "14",
        "col2": "350",
        "col3": "0"
    },
    {
        "col0": "Phthalocyanine Green G",
        "col1": "80",
        "col2": "151",
        "col3": "82"
    },
    {
        "col0": "Phthalocyanine Blue BN",
        "col1": "16",
        "col2": "233",
        "col3": "100"
    },
    {
        "col0": "Persian red",
        "col1": "100",
        "col2": "4",
        "col3": "0"
    },
    {
        "col0": "Persian green",
        "col1": "22",
        "col2": "135",
        "col3": "80"
    },
    {
        "col0": "Persian blue",
        "col1": "21",
        "col2": "249",
        "col3": "100"
    },
    {
        "col0": "Periwinkle",
        "col1": "0",
        "col2": "240",
        "col3": "20"
    },
    {
        "col0": "Peach",
        "col1": "29",
        "col2": "40",
        "col3": "0"
    },
    {
        "col0": "Payne's grey",
        "col1": "0",
        "col2": "206",
        "col3": "31"
    },
    {
        "col0": "Oxford Blue",
        "col1": "0",
        "col2": "212",
        "col3": "100"
    },
    {
        "col0": "Orchid",
        "col1": "2",
        "col2": "302",
        "col3": "0"
    },
    {
        "col0": "Orange",
        "col1": "100",
        "col2": "30",
        "col3": "0"
    },
    {
        "col0": "Olive",
        "col1": "100",
        "col2": "60",
        "col3": "0"
    },
    {
        "col0": "Old gold",
        "col1": "71",
        "col2": "49",
        "col3": "0"
    },
    {
        "col0": "Ochre",
        "col1": "83",
        "col2": "30",
        "col3": "0"
    },
    {
        "col0": "Navy blue",
        "col1": "14",
        "col2": "240",
        "col3": "100"
    },
    {
        "col0": "Navajo white",
        "col1": "32",
        "col2": "36",
        "col3": "0"
    },
    {
        "col0": "National symbols of Nepal",
        "col1": "73",
        "col2": "348",
        "col3": "0"
    },
    {
        "col0": "Naples yellow",
        "col1": "62",
        "col2": "48",
        "col3": "0"
    },
    {
        "col0": "NIVO",
        "col1": "15",
        "col2": "120",
        "col3": "15"
    },
    {
        "col0": "Mustard",
        "col1": "77",
        "col2": "47",
        "col3": "1"
    },
    {
        "col0": "Mikado yellow",
        "col1": "95",
        "col2": "45",
        "col3": "0"
    },
    {
        "col0": "Midnight green",
        "col1": "26",
        "col2": "187",
        "col3": "100"
    },
    {
        "col0": "Midnight blue",
        "col1": "39",
        "col2": "240",
        "col3": "97"
    },
    {
        "col0": "Mauve",
        "col1": "0",
        "col2": "276",
        "col3": "12"
    },
    {
        "col0": "Marigold",
        "col1": "86",
        "col2": "39",
        "col3": "0"
    },
    {
        "col0": "Marian blue",
        "col1": "0",
        "col2": "193",
        "col3": "194"
    },
    {
        "col0": "Marengo",
        "col1": "0",
        "col2": "212",
        "col3": "25"
    },
    {
        "col0": "Maize",
        "col1": "63",
        "col2": "54",
        "col3": "0"
    },
    {
        "col0": "Mahogany",
        "col1": "100",
        "col2": "20",
        "col3": "0"
    },
    {
        "col0": "Magenta",
        "col1": "0",
        "col2": "300",
        "col3": "0"
    },
    {
        "col0": "Liver",
        "col1": "31",
        "col2": "9",
        "col3": "0"
    },
    {
        "col0": "Lion",
        "col1": "20",
        "col2": "33",
        "col3": "0"
    },
    {
        "col0": "Lime",
        "col1": "100",
        "col2": "75",
        "col3": "25"
    },
    {
        "col0": "Lilac",
        "col1": "0",
        "col2": "300",
        "col3": "0"
    },
    {
        "col0": "Lavender",
        "col1": "0",
        "col2": "240",
        "col3": "8"
    },
    {
        "col0": "Lava",
        "col1": "31",
        "col2": "27",
        "col3": "0"
    },
    {
        "col0": "Kobicha",
        "col1": "67",
        "col2": "28",
        "col3": "0"
    },
    {
        "col0": "Jungle green",
        "col1": "21",
        "col2": "163",
        "col3": "76"
    },
    {
        "col0": "Jonquil",
        "col1": "91",
        "col2": "49",
        "col3": "0"
    },
    {
        "col0": "Jasmine",
        "col1": "49",
        "col2": "47",
        "col3": "0"
    },
    {
        "col0": "Ivory",
        "col1": "6",
        "col2": "60",
        "col3": "0"
    },
    {
        "col0": "International orange",
        "col1": "100",
        "col2": "19",
        "col3": "0"
    },
    {
        "col0": "Indigo",
        "col1": "0",
        "col2": "275",
        "col3": "42"
    },
    {
        "col0": "Indian red",
        "col1": "52",
        "col2": "0",
        "col3": "0"
    },
    {
        "col0": "Heliotrope",
        "col1": "0",
        "col2": "286",
        "col3": "13"
    },
    {
        "col0": "Goldenrod",
        "col1": "85",
        "col2": "43",
        "col3": "0"
    },
    {
        "col0": "Gold",
        "col1": "100",
        "col2": "51",
        "col3": "0"
    },
    {
        "col0": "Glaucous",
        "col1": "0",
        "col2": "216",
        "col3": "47"
    },
    {
        "col0": "Gamboge",
        "col1": "94",
        "col2": "38",
        "col3": "0"
    },
    {
        "col0": "Fulvous",
        "col1": "100",
        "col2": "35",
        "col3": "0"
    },
    {
        "col0": "Forest green",
        "col1": "100",
        "col2": "120",
        "col3": "83"
    },
    {
        "col0": "Flax",
        "col1": "60",
        "col2": "50",
        "col3": "7"
    },
    {
        "col0": "Fire engine red",
        "col1": "80",
        "col2": "357",
        "col3": "0"
    },
    {
        "col0": "Federal Standard 595 camouflage colours",
        "col1": "40",
        "col2": "212",
        "col3": "50"
    },
    {
        "col0": "Fallow",
        "col1": "33",
        "col2": "33",
        "col3": "0"
    },
    {
        "col0": "Electric green",
        "col1": "100",
        "col2": "120",
        "col3": "100"
    },
    {
        "col0": "Electric blue",
        "col1": "0",
        "col2": "183",
        "col3": "51"
    },
    {
        "col0": "Egyptian blue",
        "col1": "0",
        "col2": "226",
        "col3": "90"
    },
    {
        "col0": "Eggshell",
        "col1": "11",
        "col2": "46",
        "col3": "0"
    },
    {
        "col0": "Duke blue",
        "col1": "6",
        "col2": "222",
        "col3": "100"
    },
    {
        "col0": "Dodger blue",
        "col1": "0",
        "col2": "210",
        "col3": "88"
    },
    {
        "col0": "Desert sand",
        "col1": "26",
        "col2": "25",
        "col3": "0"
    },
    {
        "col0": "Dark purple",
        "col1": "0",
        "col2": "291",
        "col3": "8"
    },
    {
        "col0": "Cyclamen",
        "col1": "34",
        "col2": "0",
        "col3": "0"
    },
    {
        "col0": "Cyan",
        "col1": "0",
        "col2": "180",
        "col3": "100"
    },
    {
        "col0": "Crimson",
        "col1": "100",
        "col2": "348",
        "col3": "0"
    },
    {
        "col0": "Cream",
        "col1": "18",
        "col2": "57",
        "col3": "0"
    },
    {
        "col0": "Coyote brown",
        "col1": "52",
        "col2": "31",
        "col3": "0"
    },
    {
        "col0": "Cosmic latte",
        "col1": "10",
        "col2": "40",
        "col3": "0"
    },
    {
        "col0": "Cornflower blue",
        "col1": "0",
        "col2": "219",
        "col3": "59"
    },
    {
        "col0": "Cordovan",
        "col1": "50",
        "col2": "355",
        "col3": "0"
    },
    {
        "col0": "Coral",
        "col1": "69",
        "col2": "16",
        "col3": "0"
    },
    {
        "col0": "Coquelicot",
        "col1": "100",
        "col2": "13",
        "col3": "0"
    },
    {
        "col0": "Copper",
        "col1": "72",
        "col2": "29",
        "col3": "0"
    },
    {
        "col0": "Columbia blue",
        "col1": "0",
        "col2": "200",
        "col3": "13"
    },
    {
        "col0": "Coffee",
        "col1": "51",
        "col2": "25",
        "col3": "0"
    },
    {
        "col0": "Citron",
        "col1": "82",
        "col2": "64",
        "col3": "6"
    },
    {
        "col0": "Citrine",
        "col1": "96",
        "col2": "54",
        "col3": "0"
    },
    {
        "col0": "Cinereous",
        "col1": "19",
        "col2": "12",
        "col3": "0"
    },
    {
        "col0": "Chocolate",
        "col1": "86",
        "col2": "31",
        "col3": "0"
    },
    {
        "col0": "Chestnut",
        "col1": "64",
        "col2": "10",
        "col3": "0"
    },
    {
        "col0": "Chartreuse",
        "col1": "100",
        "col2": "90",
        "col3": "50"
    },
    {
        "col0": "Champagne",
        "col1": "17",
        "col2": "37",
        "col3": "0"
    },
    {
        "col0": "Cerulean",
        "col1": "0",
        "col2": "196",
        "col3": "100"
    },
    {
        "col0": "Cerise",
        "col1": "46",
        "col2": "343",
        "col3": "7"
    },
    {
        "col0": "Carmine",
        "col1": "42",
        "col2": "350",
        "col3": "0"
    },
    {
        "col0": "Cardinal",
        "col1": "70",
        "col2": "350",
        "col3": "0"
    },
    {
        "col0": "Capri",
        "col1": "0",
        "col2": "195",
        "col3": "100"
    },
    {
        "col0": "Candy apple red",
        "col1": "100",
        "col2": "2",
        "col3": "0"
    },
    {
        "col0": "Camel",
        "col1": "45",
        "col2": "33",
        "col3": "0"
    },
    {
        "col0": "Cambridge Blue",
        "col1": "11",
        "col2": "140",
        "col3": "16"
    },
    {
        "col0": "Cadmium pigments",
        "col1": "81",
        "col2": "28",
        "col3": "0"
    },
    {
        "col0": "Cadet grey",
        "col1": "24",
        "col2": "205",
        "col3": "46"
    }
]