[
    {
        "col0": "korekushiyon",
        "col1": "Suicidal Tendencies",
        "col2": "13",
        "col3": "2837"
    },
    {
        "col0": "...on the Radio",
        "col1": "Nelly Furtado",
        "col2": "Turn Off the Light",
        "col3": "235"
    },
    {
        "col0": "Wurdah Itah",
        "col1": "Magma",
        "col2": "Mekanik Destruktiw Kommandoh",
        "col3": "2344"
    },
    {
        "col0": "TOSA ThA SOU PO",
        "col1": "Dispero Ras Siento",
        "col2": "AGAPEMENO MOU GARDOUMPI",
        "col3": "3000"
    },
    {
        "col0": "POSO LUPAMAI",
        "col1": "Dispero Ras Siento",
        "col2": "HIP-HOP SHOW",
        "col3": "3534"
    },
    {
        "col0": "O Kakos O Lukos",
        "col1": "Dispero Ras Siento",
        "col2": "TA REGGAETIKA",
        "col3": "2933"
    },
    {
        "col0": "NHPIAGOGEION: Live in Europe 1988",
        "col1": "Savage Republic",
        "col2": "Customs",
        "col3": "3812"
    },
    {
        "col0": "Kata ton daimona eautou",
        "col1": "Rotting Christ",
        "col2": "Aealo",
        "col3": "3359"
    },
    {
        "col0": "AGAPEMENO MOU GARDOUMPI",
        "col1": "Dispero Ras Siento",
        "col2": "POSO LUPAMAI",
        "col3": "1358"
    },
    {
        "col0": "Zive!",
        "col1": "Kabat",
        "col2": "Ma Ji Motorovou",
        "col3": "1988"
    },
    {
        "col0": "Zivak",
        "col1": "Horkyze Slize",
        "col2": "Ritero Xaperle Bax",
        "col3": "4263"
    },
    {
        "col0": "Zivo i akusticno",
        "col1": "Elektricni Orgazam",
        "col2": "Warszawa '81",
        "col3": "4344"
    },
    {
        "col0": "Ziva sila",
        "col1": "Klopka Za Pionira",
        "col2": "Dodole",
        "col3": "2506"
    },
    {
        "col0": "Zerave znamenie osudu",
        "col1": "Tublatanka",
        "col2": "Skusime to cez vesmir",
        "col3": "2853"
    },
    {
        "col0": "Zena bez imena",
        "col1": "Vlado Georgiev",
        "col2": "Navika",
        "col3": "2796"
    },
    {
        "col0": "Zar Ptica",
        "col1": "Aleksandra Radovic",
        "col2": "Dommino",
        "col3": "3082"
    },
    {
        "col0": "Studentska laska",
        "col1": "Marika Gombitova",
        "col2": "Bolave namestie",
        "col3": "202"
    },
    {
        "col0": "A trajk mozga",
        "col1": "Edo Maajka",
        "col2": "Balkansko a naA!e",
        "col3": "2563"
    },
    {
        "col0": "A to te tata puA!ta samu",
        "col1": "Griva",
        "col2": "Griva",
        "col3": "2015"
    },
    {
        "col0": "A ta bi dao da si na mom mjestu",
        "col1": "Bijelo Dugme",
        "col2": "Kad bi' bio bijelo dugme",
        "col3": "2062"
    },
    {
        "col0": "Slagry",
        "col1": "Master's Hammer",
        "col2": "Jilemnicky okultista",
        "col3": "2404"
    },
    {
        "col0": "A est dana juna",
        "col1": "Idoli",
        "col2": "Cokolada",
        "col3": "1879"
    },
    {
        "col0": "A amar",
        "col1": "Hladno Pivo",
        "col2": "Istocno od Gajnica",
        "col3": "2845"
    },
    {
        "col0": "Simarik",
        "col1": "Tarkan",
        "col2": "Salina Salina Sinsice",
        "col3": "181"
    },
    {
        "col0": "Sikidim",
        "col1": "Tarkan",
        "col2": "Simarik",
        "col3": "195"
    },
    {
        "col0": "Sans",
        "col1": "Murat Boz",
        "col2": "Maximum",
        "col3": "3398"
    },
    {
        "col0": "Rad a trest",
        "col1": "!T.O.O.H.!",
        "col2": "Pod Vladou Bice",
        "col3": "2203"
    },
    {
        "col0": "Icinde Ask Var",
        "col1": "Isin Karaca",
        "col2": "Anadilim Ask",
        "col3": "2715"
    },
    {
        "col0": "Italyan, rum casusu cikti",
        "col1": "Elio e le Storie Tese",
        "col2": "The Los Sri Lanka Parakramabahu Brothers Featuring Elio e le Storie Tese",
        "col3": "3738"
    },
    {
        "col0": "Adegsyankar",
        "col1": "Mustafa Sandal",
        "col2": "Araba 2004",
        "col3": "231"
    },
    {
        "col0": "Adegste",
        "col1": "Mustafa Sandal",
        "col2": "Seven New Version",
        "col3": "2413"
    },
    {
        "col0": "Cuvar tajni",
        "col1": "Kraljevski Apartman",
        "col2": "Best of Live",
        "col3": "2646"
    },
    {
        "col0": "Cumil",
        "col1": "Ine Kafe",
        "col2": "Vitaj!",
        "col3": "2734"
    },
    {
        "col0": "Cokolada",
        "col1": "Idoli",
        "col2": "Odbrana i poslednji dani",
        "col3": "2595"
    },
    {
        "col0": "Cert Na Koze Jel",
        "col1": "Kabat",
        "col2": "Zeme Plna Trpasliku",
        "col3": "2714"
    },
    {
        "col0": "Ciribiribela",
        "col1": "Bijelo Dugme",
        "col2": "Mramor, kamen i zeljezo",
        "col3": "2376"
    },
    {
        "col0": "Thvilikt Og Annad Eins",
        "col1": "Mezzoforte",
        "col2": "I Hakanum/Octopus",
        "col3": "2360"
    },
    {
        "col0": "Thrir bloddropar",
        "col1": "Megas",
        "col2": "Haettuleg hljomsveit & glaepakvendid Stella",
        "col3": "3734"
    },
    {
        "col0": "Uc Kalp",
        "col1": "Hepsi",
        "col2": "Yalan",
        "col3": "231"
    },
    {
        "col0": "Udu Wudu",
        "col1": "Magma",
        "col2": "Live/Hhai",
        "col3": "2542"
    },
    {
        "col0": "Uberlin",
        "col1": "R.E.M.",
        "col2": "Mine Smell Like Honey",
        "col3": "255"
    },
    {
        "col0": "Uberjam Deux",
        "col1": "John Scofield",
        "col2": "A Moment's Peace",
        "col3": "3709"
    },
    {
        "col0": "Uberjam",
        "col1": "John Scofield",
        "col2": "Works for Me",
        "col3": "3510"
    },
    {
        "col0": "Uber Alles",
        "col1": "Hanzel Und Gretyl",
        "col2": "Transmissions From Uranus",
        "col3": "2722"
    },
    {
        "col0": "Uber",
        "col1": "Sturmgeist",
        "col2": "Meister Mephisto",
        "col3": "2792"
    },
    {
        "col0": "Usmev",
        "col1": "Modus",
        "col2": "The Best of 1979-1988: Vol 2",
        "col3": "3950"
    },
    {
        "col0": "Ultimo Bondi a Finisterre",
        "col1": "Patricio Rey y sus Redonditos de Ricota",
        "col2": "Luzbelito",
        "col3": "2659"
    },
    {
        "col0": "OO Void",
        "col1": "Sunn O)))",
        "col2": "The Grimmrobe Demos",
        "col3": "3511"
    },
    {
        "col0": "O",
        "col1": "Underoath",
        "col2": "Lost in the Sound of Separation",
        "col3": "2322"
    },
    {
        "col0": "Ozgurluk Icimizde",
        "col1": "Tarkan",
        "col2": "Hup",
        "col3": "202"
    },
    {
        "col0": "Ordogi angyal",
        "col1": "Magdolna Ruzsa",
        "col2": "A dontokben elhangzott dalok",
        "col3": "3060"
    },
    {
        "col0": "Olurum Sana",
        "col1": "Tarkan",
        "col2": "A-Acayipsin",
        "col3": "2887"
    },
    {
        "col0": "Odemarkens son",
        "col1": "Vintersorg",
        "col2": "Till fjalls",
        "col3": "2643"
    },
    {
        "col0": "Ohus on Smilers",
        "col1": "Smilers",
        "col2": "Esimene Eesti tuur",
        "col3": "2423"
    }
]