[
    {
        "col0": "J. Hinds",
        "col1": "Belfast",
        "col2": "1980-03-21",
        "col3": "2015-07-04"
    },
    {
        "col0": "J. F. Gray",
        "col1": "Columbia University College of Physicians and Surgeons",
        "col2": "1804-09-23",
        "col3": "1881-6-5"
    },
    {
        "col0": "J. Finklea",
        "col1": "University of Michigan",
        "col2": "1933-08-27",
        "col3": "2000-12-22"
    },
    {
        "col0": "J. Dalrymple",
        "col1": "University of Edinburgh",
        "col2": "1803-1-1",
        "col3": "1852-05-02"
    },
    {
        "col0": "J. B. Barlow",
        "col1": "University of the Witwatersrand",
        "col2": "1924-10-24",
        "col3": "2008-12-10"
    },
    {
        "col0": "J. C. Brunner",
        "col1": "Schaffhausen",
        "col2": "1653-01-16",
        "col3": "1727-10-02"
    },
    {
        "col0": "J. M. MacGregor",
        "col1": "University of Edinburgh",
        "col2": "1863-05-07",
        "col3": "1906-03-22"
    },
    {
        "col0": "J. Aspinall",
        "col1": "University of Sydney",
        "col2": "1880-12-10",
        "col3": "1953-08-25"
    },
    {
        "col0": "J. Coindet",
        "col1": "Edinburgh",
        "col2": "1774-07-12",
        "col3": "1834-2-11"
    },
    {
        "col0": "J. W. Watts",
        "col1": "Virginia Military Institute",
        "col2": "1904-01-19",
        "col3": "1994-11-15"
    },
    {
        "col0": "J. M. Adair",
        "col1": "University of Edinburgh",
        "col2": "1728-1-1",
        "col3": "1802-1-1"
    },
    {
        "col0": "J. Lind",
        "col1": "Edinburgh",
        "col2": "1716-10-04",
        "col3": "1794-07-13"
    },
    {
        "col0": "J. E. White",
        "col1": "Howard University College of Medicine",
        "col2": "1921-07-24",
        "col3": "1988-07-02"
    },
    {
        "col0": "J. D. Millar",
        "col1": "London School of Hygiene and Tropical Medicine",
        "col2": "1934-02-27",
        "col3": "2015-08-30"
    },
    {
        "col0": "I. H. Robb",
        "col1": "Bellevue Hospital Center",
        "col2": "1859-08-26",
        "col3": "1910-04-15"
    },
    {
        "col0": "I. Freedberg",
        "col1": "Dartmouth College",
        "col2": "1931-7-4",
        "col3": "2005-07-17"
    },
    {
        "col0": "I. Fayad",
        "col1": "Cairo University",
        "col2": "1931-05-08",
        "col3": "2008-01-31"
    },
    {
        "col0": "H. Rolleston",
        "col1": "Marlborough College",
        "col2": "1862-06-21",
        "col3": "1944-9-23"
    },
    {
        "col0": "H. K. Motamed",
        "col1": "Tehran University of Medical Sciences",
        "col2": "1893-02-26",
        "col3": "1955-09-25"
    },
    {
        "col0": "H. Howse",
        "col1": "Guy's Hospital",
        "col2": "1841-12-21",
        "col3": "1914-09-15"
    },
    {
        "col0": "H. D. Holton",
        "col1": "New York University School of Medicine",
        "col2": "1838-07-24",
        "col3": "1917-2-17"
    },
    {
        "col0": "H. R. Shipley",
        "col1": "Reno, Nevada",
        "col2": "1870-07-23",
        "col3": "1955-06-06"
    },
    {
        "col0": "H. O. Dickens",
        "col1": "University of Illinois",
        "col2": "1909-02-21",
        "col3": "2001-0-0"
    },
    {
        "col0": "H. E. Kelsey",
        "col1": "University of Maryland School of Dentistry",
        "col2": "1873-04-04",
        "col3": "1946-03-01"
    },
    {
        "col0": "H. Asperger",
        "col1": "University of Vienna",
        "col2": "1906-02-18",
        "col3": "1980-10-21"
    },
    {
        "col0": "H. A. Nieper",
        "col1": "University of Hamburg",
        "col2": "1928-05-23",
        "col3": "1998-10-21"
    },
    {
        "col0": "G. Burckhardt",
        "col1": "Habilitation",
        "col2": "1836-12-24",
        "col3": "1907-02-06"
    },
    {
        "col0": "G. Klatt",
        "col1": "University of Minnesota Medical School",
        "col2": "1942-1-1",
        "col3": "2014-1-1"
    }
]