[
    {
        "col0": "Fort Knox",
        "col1": "J. G. Totten",
        "col2": "501810",
        "col3": "501810"
    },
    {
        "col0": "Fort Harrison National Cemetery",
        "col1": "M. C. Meigs",
        "col2": "8093",
        "col3": "8093"
    },
    {
        "col0": "Fort Golgotha and the Old Burial Hill Cemetery",
        "col1": "B. Thompson",
        "col2": "10117",
        "col3": "10117"
    },
    {
        "col0": "Fort George Wright",
        "col1": "Federal government of the United States",
        "col2": "1011714",
        "col3": "1011714"
    },
    {
        "col0": "Fort Dobbs",
        "col1": "A. Dobbs",
        "col2": "38445",
        "col3": "38445"
    },
    {
        "col0": "Fort Delaware",
        "col1": "J. G. Totten",
        "col2": "1165494",
        "col3": "1165494"
    },
    {
        "col0": "Fort Dearborn Hotel",
        "col1": "H. &. Roche",
        "col2": "809",
        "col3": "809"
    },
    {
        "col0": "Fort Davis National Historic Site",
        "col1": "W. Merritt",
        "col2": "2116505",
        "col3": "2116505"
    },
    {
        "col0": "Fort Boise",
        "col1": "U. S. Army",
        "col2": "704153",
        "col3": "704153"
    },
    {
        "col0": "Former Reidsville High School",
        "col1": "W. C. Northup",
        "col2": "6474",
        "col3": "6474"
    },
    {
        "col0": "Former Berwick High School",
        "col1": "J. E. Richardson",
        "col2": "4046",
        "col3": "4046"
    },
    {
        "col0": "Forest Park Hotel",
        "col1": "P. J. Bradshaw",
        "col2": "4856",
        "col3": "4856"
    },
    {
        "col0": "Forest Hill, Ohio",
        "col1": "A. J. Thomas",
        "col2": "101171",
        "col3": "101171"
    },
    {
        "col0": "Forest City Baptist Church",
        "col1": "J. M. McMichael",
        "col2": "6879",
        "col3": "6879"
    },
    {
        "col0": "Ford Valve Plant",
        "col1": "A. Kahn",
        "col2": "16187",
        "col3": "16187"
    },
    {
        "col0": "Ford Motor Company Edgewater Assembly Plant",
        "col1": "A. Kahn",
        "col2": "150543",
        "col3": "150543"
    },
    {
        "col0": "Ford City Armory",
        "col1": "J. F. Kuntz",
        "col2": "1214",
        "col3": "1214"
    },
    {
        "col0": "Ford Building",
        "col1": "W. D. Teague",
        "col2": "20234",
        "col3": "20234"
    },
    {
        "col0": "Fontainebleau Miami Beach",
        "col1": "M. Lapidus",
        "col2": "180525",
        "col3": "180525"
    },
    {
        "col0": "Florida Governor's Mansion",
        "col1": "M. S. Wyeth",
        "col2": "1393",
        "col3": "1393"
    },
    {
        "col0": "Flagg Township Public Library",
        "col1": "C. a. Starck",
        "col2": "4046",
        "col3": "4046"
    },
    {
        "col0": "Fisk University Carnegie Library",
        "col1": "M. &. McKissack",
        "col2": "1214",
        "col3": "1214"
    },
    {
        "col0": "Fisher Hill Historic District",
        "col1": "F. L. Olmsted",
        "col2": "607028",
        "col3": "607028"
    },
    {
        "col0": "Fisher Building",
        "col1": "A. Kahn",
        "col2": "45242",
        "col3": "45242"
    },
    {
        "col0": "First Ward School",
        "col1": "A. C. Lyons",
        "col2": "4046",
        "col3": "4046"
    },
    {
        "col0": "First Universalist Church",
        "col1": "C. W. Damon",
        "col2": "809",
        "col3": "809"
    },
    {
        "col0": "First Unitarian Society in Newton",
        "col1": "Cram, Goodhue & Ferguson",
        "col2": "5260",
        "col3": "5260"
    },
    {
        "col0": "First Unitarian Church",
        "col1": "J. W. McLaughlin",
        "col2": "4046",
        "col3": "4046"
    },
    {
        "col0": "First Presbyterian Church of Oyster Bay",
        "col1": "J. C. Cady",
        "col2": "4046",
        "col3": "4046"
    },
    {
        "col0": "First Presbyterian Church of Le Roy",
        "col1": "C. Bragdon",
        "col2": "4046",
        "col3": "4046"
    },
    {
        "col0": "First Presbyterian Church of Far Rockaway",
        "col1": "O. Brothers",
        "col2": "12140",
        "col3": "12140"
    },
    {
        "col0": "First Presbyterian Church and Lewis Pintard House",
        "col1": "J. R. Pope",
        "col2": "12140",
        "col3": "12140"
    },
    {
        "col0": "First Presbyterian Church",
        "col1": "L. Bradley",
        "col2": "1214",
        "col3": "1214"
    },
    {
        "col0": "First Presbyterian Church",
        "col1": "C. Shryock",
        "col2": "2023",
        "col3": "2023"
    },
    {
        "col0": "First Presbyterian Church",
        "col1": "H. Upjohn",
        "col2": "24281",
        "col3": "24281"
    },
    {
        "col0": "First Presbyterian Church",
        "col1": "P. Belluschi",
        "col2": "4046",
        "col3": "4046"
    },
    {
        "col0": "First Presbyterian Church, Leavenworth",
        "col1": "W. P. Feth",
        "col2": "2832",
        "col3": "2832"
    },
    {
        "col0": "First National State Bank Building",
        "col1": "C. Gilbert",
        "col2": "404",
        "col3": "404"
    },
    {
        "col0": "First National Bank of Hood River",
        "col1": "W. a. Lewis",
        "col2": "464",
        "col3": "464"
    },
    {
        "col0": "First National Bank of Charleroi",
        "col1": "W. L. Stoddart",
        "col2": "3642",
        "col3": "3642"
    },
    {
        "col0": "First National Bank Building",
        "col1": "C. &. Shattuck",
        "col2": "1214",
        "col3": "1214"
    },
    {
        "col0": "First Methodist Church, Gatlinburg",
        "col1": "C. I. Barber",
        "col2": "4046",
        "col3": "4046"
    },
    {
        "col0": "First Lutheran Church",
        "col1": "Pretzinger",
        "col2": "4046",
        "col3": "4046"
    },
    {
        "col0": "First Houses",
        "col1": "F. L. Ackerman",
        "col2": "4856",
        "col3": "4856"
    },
    {
        "col0": "First Cumberland Presbyterian Church-McKenzie",
        "col1": "M. Brothers",
        "col2": "5260",
        "col3": "5260"
    },
    {
        "col0": "First Congregational Church of Western Springs",
        "col1": "G. G. Elmslie",
        "col2": "6474",
        "col3": "6474"
    },
    {
        "col0": "First Congregational Church of Cheshire",
        "col1": "D. Hoadley",
        "col2": "8093",
        "col3": "8093"
    },
    {
        "col0": "First Congregational Church of Austin",
        "col1": "W. E. Drummond",
        "col2": "4046",
        "col3": "4046"
    },
    {
        "col0": "First Congregational Church",
        "col1": "E. T. Mix",
        "col2": "2832",
        "col3": "2832"
    },
    {
        "col0": "First Congregational Church",
        "col1": "F. A. Hale",
        "col2": "1618",
        "col3": "1618"
    },
    {
        "col0": "First Congregational Church",
        "col1": "H. J. Hefty",
        "col2": "1214",
        "col3": "1214"
    },
    {
        "col0": "First Church of Jamaica Plain",
        "col1": "Cabot, Everett & Mead",
        "col2": "5665",
        "col3": "5665"
    },
    {
        "col0": "First Church of Christ, Unitarian",
        "col1": "C. Bulfinch",
        "col2": "8093",
        "col3": "8093"
    },
    {
        "col0": "First Church of Christ, Scientist",
        "col1": "P. R. Williams",
        "col2": "2428",
        "col3": "2428"
    },
    {
        "col0": "First Church of Christ, Scientist",
        "col1": "S. S. Beman",
        "col2": "12140",
        "col3": "12140"
    },
    {
        "col0": "First Christian Church",
        "col1": "M. &. Dodd",
        "col2": "4451",
        "col3": "4451"
    },
    {
        "col0": "First Christian Church",
        "col1": "E. Saarinen",
        "col2": "16187",
        "col3": "16187"
    },
    {
        "col0": "First Baptist Church of Vermillion",
        "col1": "B. a. Arnold",
        "col2": "4046",
        "col3": "4046"
    },
    {
        "col0": "First Baptist Church of Ventura",
        "col1": "R. B. Stacy-Judd",
        "col2": "1214",
        "col3": "1214"
    },
    {
        "col0": "First Baptist Church Education Building",
        "col1": "R. H. Hunt",
        "col2": "4046",
        "col3": "4046"
    },
    {
        "col0": "First Baptist Church",
        "col1": "F. H. Fassett",
        "col2": "8093",
        "col3": "8093"
    },
    {
        "col0": "First Baptist Church",
        "col1": "B. S. Deane",
        "col2": "40063",
        "col3": "40063"
    },
    {
        "col0": "First Baptist Church",
        "col1": "J. R. Thomas",
        "col2": "4046",
        "col3": "4046"
    }
]