[
    {
        "col0": "Polyarny Airport",
        "col1": "Udachny",
        "col2": "UERP",
        "col3": "509"
    },
    {
        "col0": "Polokwane International Airport",
        "col1": "South Africa",
        "col2": "(Location of Airport in Limpopo)",
        "col3": "1242"
    },
    {
        "col0": "Pokhara Airport",
        "col1": "Nepal",
        "col2": "(Location of airport in Nepal)",
        "col3": "826"
    },
    {
        "col0": "Poitiers-Biard Airport",
        "col1": "France",
        "col2": "LFBI",
        "col3": "128"
    },
    {
        "col0": "Pointe Vele Airport",
        "col1": "Wallis and Futuna",
        "col2": "(Location of airport in Futuna)",
        "col3": "6"
    },
    {
        "col0": "Pointe Noire Airport",
        "col1": "Pointe-Noire",
        "col2": "(Location of Airport in Republic of the Congo)",
        "col3": "16"
    },
    {
        "col0": "Pointe-A -Pitre International Airport",
        "col1": "Pointe-A -Pitre",
        "col2": "TFFR",
        "col3": "10"
    },
    {
        "col0": "Point Roberts Airpark",
        "col1": "Point Roberts, Washington",
        "col2": "1RL",
        "col3": "3"
    },
    {
        "col0": "Point Hope Airport",
        "col1": "Point Hope, Alaska",
        "col2": "PAPO",
        "col3": "3"
    },
    {
        "col0": "Pohang Airport",
        "col1": "Pohang",
        "col2": "(Location of airport in South Korea)",
        "col3": "21"
    },
    {
        "col0": "Pogogul Airport",
        "col1": "Dutch East Indies",
        "col2": "(Location of the Airport in Sulawesi)",
        "col3": "74"
    },
    {
        "col0": "Podor Airport",
        "col1": "Senegal",
        "col2": "GOSP",
        "col3": "6"
    },
    {
        "col0": "Podgorica Airport",
        "col1": "Montenegro",
        "col2": "LYPG",
        "col3": "42"
    },
    {
        "col0": "Pocono Mountains Municipal Airport",
        "col1": "Mount Pocono, Pennsylvania",
        "col2": "KMPO",
        "col3": "583"
    },
    {
        "col0": "Poco a Poco Airport",
        "col1": "Mulchen",
        "col2": "SCPP",
        "col3": "512"
    },
    {
        "col0": "Pochalla Airport",
        "col1": "South Sudan",
        "col2": "(Location of Pochalla Airport in South Sudan)",
        "col3": "600"
    },
    {
        "col0": "Pocatello Regional Airport",
        "col1": "Pocatello, Idaho",
        "col2": "KPIH",
        "col3": "1356"
    },
    {
        "col0": "Pobedilovo Airport",
        "col1": "Kirov, Kirov Oblast",
        "col2": "(Location of airport in Kirov Oblast)",
        "col3": "145"
    },
    {
        "col0": "Plymouth Municipal Airport",
        "col1": "Plymouth, North Carolina",
        "col2": "KPMZ",
        "col3": "11"
    },
    {
        "col0": "Plymouth Municipal Airport",
        "col1": "Plymouth County, Massachusetts",
        "col2": "KPYM",
        "col3": "45"
    },
    {
        "col0": "Plymouth City Airport",
        "col1": "Plymouth",
        "col2": "EGHD",
        "col3": "145"
    },
    {
        "col0": "Plovdiv Airport",
        "col1": "Bulgaria",
        "col2": "LBPD",
        "col3": "181"
    },
    {
        "col0": "Plekhanovo Airport",
        "col1": "Tyumen",
        "col2": "USTL",
        "col3": "93"
    },
    {
        "col0": "Pleiku Airport",
        "col1": "Pleiku",
        "col2": "(Location of airport in Vietnam)",
        "col3": "741"
    },
    {
        "col0": "Playa de Oro International Airport",
        "col1": "Colima",
        "col2": "(Location of airport in Colima)",
        "col3": "9"
    },
    {
        "col0": "Playa Grande Airport",
        "col1": "Playa Grande, Guatemala",
        "col2": "MGPG",
        "col3": "175"
    },
    {
        "col0": "Playa Baracoa Airport",
        "col1": "Havana",
        "col2": "MUPB",
        "col3": "31"
    },
    {
        "col0": "Plattsburgh International Airport",
        "col1": "Plattsburgh, New York",
        "col2": "KPBG",
        "col3": "71"
    },
    {
        "col0": "Platteville Municipal Airport",
        "col1": "Platteville, Wisconsin",
        "col2": "KPVB",
        "col3": "312"
    },
    {
        "col0": "Platinum Airport",
        "col1": "Platinum, Alaska",
        "col2": "PAPM",
        "col3": "5"
    },
    {
        "col0": "Plaridel Airport",
        "col1": "Plaridel, Bulacan",
        "col2": "RPUX",
        "col3": "5"
    },
    {
        "col0": "Plant City Airport",
        "col1": "Plant City, Florida",
        "col2": "KPCM",
        "col3": "46"
    },
    {
        "col0": "Plan de Guadalupe International Airport",
        "col1": "Mexico",
        "col2": "(Location of airport in Mexico)",
        "col3": "1456"
    },
    {
        "col0": "Placerville Airport",
        "col1": "Placerville, California",
        "col2": "KPVF",
        "col3": "787"
    },
    {
        "col0": "Placeres Airport",
        "col1": "Bella Union",
        "col2": "SUBU",
        "col3": "21"
    },
    {
        "col0": "Pitu Airport",
        "col1": "Morotai",
        "col2": "(Location of airport in Maluku)",
        "col3": "14"
    },
    {
        "col0": "Pitt-Greenville Airport",
        "col1": "Greenville, North Carolina",
        "col2": "KPGV",
        "col3": "8"
    },
    {
        "col0": "Pittsfield Municipal Airport",
        "col1": "Pittsfield, Massachusetts",
        "col2": "KPSF",
        "col3": "363"
    },
    {
        "col0": "Pittsburgh International Airport",
        "col1": "Pittsburgh, Pennsylvania",
        "col2": "KPIT",
        "col3": "366"
    },
    {
        "col0": "Pitt Meadows Airport",
        "col1": "Metro Vancouver",
        "col2": "CYPK",
        "col3": "3"
    },
    {
        "col0": "Pitt-Greenville Airport",
        "col1": "Greenville, North Carolina",
        "col2": "KPGV",
        "col3": "8"
    },
    {
        "col0": "Pisagua Airport",
        "col1": "Pisagua, Chile",
        "col2": "SCPS",
        "col3": "192"
    },
    {
        "col0": "Pisa International Airport",
        "col1": "Italy",
        "col2": "LIRP",
        "col3": "1"
    },
    {
        "col0": "Pirque Estero Seco Airport",
        "col1": "Pirque",
        "col2": "SCZE",
        "col3": "750"
    },
    {
        "col0": "Pipestone Municipal Airport",
        "col1": "Pipestone, Minnesota",
        "col2": "KPQN",
        "col3": "529"
    },
    {
        "col0": "Pinto Martins - Fortaleza International Airport",
        "col1": "Fortaleza",
        "col2": "SBFZ",
        "col3": "24"
    },
    {
        "col0": "Pinkafeld Airport",
        "col1": "Pinkafeld",
        "col2": "LOGP",
        "col3": "408"
    },
    {
        "col0": "Piney Pinecreek Border Airport",
        "col1": "Minnesota",
        "col2": "K48Y",
        "col3": "329"
    },
    {
        "col0": "Pinehouse Lake Airport",
        "col1": "Pinehouse, Saskatchewan",
        "col2": "CZPO",
        "col3": "391"
    },
    {
        "col0": "Pine Ridge Airport",
        "col1": "Pine Ridge, South Dakota",
        "col2": "KIEN",
        "col3": "1015"
    },
    {
        "col0": "Pinar del Rio Airport",
        "col1": "Cuba",
        "col2": "MUPR",
        "col3": "40"
    },
    {
        "col0": "Pinang Kampai Airport",
        "col1": "Dumai",
        "col2": "WIBD",
        "col3": "16"
    },
    {
        "col0": "Pinal Airpark",
        "col1": "Marana, Arizona",
        "col2": "KMZJ",
        "col3": "576"
    },
    {
        "col0": "Piloto Civil Norberto Fernandez International Airport",
        "col1": "Argentina",
        "col2": "(Location of the airport in Argentina)",
        "col3": "20"
    },
    {
        "col0": "Pilot Point Airport",
        "col1": "Pilot Point, Alaska",
        "col2": "PAPN",
        "col3": "17"
    },
    {
        "col0": "Pilanesberg International Airport",
        "col1": "South Africa",
        "col2": "FAPN",
        "col3": "1039"
    },
    {
        "col0": "Pike County Airport",
        "col1": "Pike County, Ohio",
        "col2": "KEOP",
        "col3": "201"
    },
    {
        "col0": "Pike County Airport",
        "col1": "Pikeville, Kentucky",
        "col2": "KPBX",
        "col3": "448"
    },
    {
        "col0": "Pigue Airport",
        "col1": "Pigue",
        "col2": "SAZE",
        "col3": "303"
    },
    {
        "col0": "Piggs Peak Airfield",
        "col1": "Ngonini",
        "col2": "FDNG",
        "col3": "429"
    },
    {
        "col0": "Pigue Airport",
        "col1": "Pigue",
        "col2": "SAZE",
        "col3": "303"
    },
    {
        "col0": "Piestany Airport",
        "col1": "Slovakia",
        "col2": "LZPP",
        "col3": "166"
    },
    {
        "col0": "Pietermaritzburg Airport",
        "col1": "Pietermaritzburg, KwaZulu-Natal",
        "col2": "(Location of Airport in KwaZulu-Natal)",
        "col3": "738"
    },
    {
        "col0": "Pierrefonds Airport",
        "col1": "Saint-Pierre, Reunion",
        "col2": "(Location of the airport in Reunion)",
        "col3": "18"
    },
    {
        "col0": "Pierre Regional Airport",
        "col1": "Pierre, South Dakota",
        "col2": "KPIR",
        "col3": "531"
    },
    {
        "col0": "Piedra Negra Airport",
        "col1": "Pelluhue",
        "col2": "SCKE",
        "col3": "49"
    },
    {
        "col0": "Piedmont Triad International Airport",
        "col1": "North Carolina",
        "col2": "KGSO",
        "col3": "282"
    },
    {
        "col0": "Piestany Airport",
        "col1": "Slovakia",
        "col2": "LZPP",
        "col3": "166"
    },
    {
        "col0": "Picos Airport",
        "col1": "Picos",
        "col2": "SNPC",
        "col3": "320"
    },
    {
        "col0": "Pickens County Airport",
        "col1": "Pickens, South Carolina",
        "col2": "KLQK",
        "col3": "308"
    },
    {
        "col0": "Pickens County Airport",
        "col1": "Jasper, Georgia",
        "col2": "KJZP",
        "col3": "467"
    },
    {
        "col0": "Pichoy Airport",
        "col1": "Valdivia",
        "col2": "(Location of airport in Chile)",
        "col3": "17"
    },
    {
        "col0": "Pichoy Airfield",
        "col1": "Valdivia, Chile",
        "col2": "SCVD",
        "col3": "17"
    }
]