[
    {
        "col0": "Sao Jose dos Campos Airport",
        "col1": "SJK",
        "col2": "2675",
        "col3": "15/33",
        "col4": "Asphalt"
    },
    {
        "col0": "Sao Jose do Rio Preto Airport",
        "col1": "SJP",
        "col2": "1699",
        "col3": "07/25",
        "col4": "Asphalt"
    },
    {
        "col0": "Sao Jorge Airport",
        "col1": "SJZ",
        "col2": "1412",
        "col3": "13/31",
        "col4": "Asphalt"
    },
    {
        "col0": "Sao Joao del-Rei Airport",
        "col1": "JDR",
        "col2": "1399",
        "col3": "07/25",
        "col4": "Asphalt"
    },
    {
        "col0": "Sao Gabriel da Cachoeira Airport",
        "col1": "SJL",
        "col2": "2599",
        "col3": "05/23",
        "col4": "Asphalt"
    },
    {
        "col0": "Sao Filipe Airport",
        "col1": "SFL",
        "col2": "1500",
        "col3": "14/32",
        "col4": "Asphalt"
    },
    {
        "col0": "Sao Felix do Xingu Airport",
        "col1": "SXX",
        "col2": "1599",
        "col3": "13/31",
        "col4": "Asphalt"
    },
    {
        "col0": "Sao Felix do Araguaia Airport",
        "col1": "SXO",
        "col2": "1100",
        "col3": "12/30",
        "col4": "Soil"
    },
    {
        "col0": "Sao Carlos Airport",
        "col1": "QSC",
        "col2": "1720",
        "col3": "02/20",
        "col4": "Asphalt"
    },
    {
        "col0": "Rugen Airport",
        "col1": "GTI",
        "col2": "899",
        "col3": "08/26",
        "col4": "Tarmac"
    },
    {
        "col0": "Rost Airport",
        "col1": "RET",
        "col2": "879",
        "col3": "03/21",
        "col4": "Asphalt"
    },
    {
        "col0": "Rorvik Airport, Ryum",
        "col1": "RVK",
        "col2": "829",
        "col3": "04/22",
        "col4": "Asphalt"
    },
    {
        "col0": "Roros Airport",
        "col1": "RRS",
        "col2": "1719",
        "col3": "14/32",
        "col4": "Asphalt"
    },
    {
        "col0": "Rio Mayo Airport",
        "col1": "ROY",
        "col2": "1828",
        "col3": "01/19",
        "col4": "GRASS"
    },
    {
        "col0": "Rio Dulce Airport",
        "col1": "LCF",
        "col2": "1000",
        "col3": "12/30",
        "col4": "Asphalt"
    },
    {
        "col0": "Rio Amazonas Airport",
        "col1": "PTZ",
        "col2": "1539",
        "col3": "12/30",
        "col4": "Asphalt"
    },
    {
        "col0": "Regina Airport",
        "col1": "REI",
        "col2": "800",
        "col3": "06/24",
        "col4": "Asphalt"
    },
    {
        "col0": "Rzhevka Airport",
        "col1": "RVH",
        "col2": "1799",
        "col3": "06/24",
        "col4": "Asphalt"
    },
    {
        "col0": "Rzeszow-Jasionka Airport",
        "col1": "RZE",
        "col2": "3200",
        "col3": "09/27",
        "col4": "Concrete"
    },
    {
        "col0": "Moss Airport, Rygge",
        "col1": "RYG",
        "col2": "2442",
        "col3": "12/30",
        "col4": "Asphalt"
    },
    {
        "col0": "Rutland - Southern Vermont Regional Airport",
        "col1": "RUT",
        "col2": "966",
        "col3": "1/19",
        "col4": "Asphalt"
    },
    {
        "col0": "Ruston Regional Airport",
        "col1": "RSN",
        "col2": "1524",
        "col3": "18/36",
        "col4": "Asphalt"
    },
    {
        "col0": "Rustaq Airport",
        "col1": "MNH",
        "col2": "4000",
        "col3": "08/26",
        "col4": "Asphalt"
    },
    {
        "col0": "Russian Mission Airport",
        "col1": "RSH",
        "col2": "914",
        "col3": "17/35",
        "col4": "Gravel"
    },
    {
        "col0": "Ruse Airport",
        "col1": "ROU",
        "col2": "2499",
        "col3": "07/25",
        "col4": "Concrete"
    },
    {
        "col0": "Rurutu Airport",
        "col1": "RUR",
        "col2": "1450",
        "col3": "09/27",
        "col4": "Asphalt"
    },
    {
        "col0": "Rurrenabaque Airport",
        "col1": "RBQ",
        "col2": "1400",
        "col3": "14/32",
        "col4": "Asphalt"
    },
    {
        "col0": "Rupsi Airport",
        "col1": "RUP",
        "col2": "1828",
        "col3": "05L/23R",
        "col4": "Paved"
    },
    {
        "col0": "Rundu Airport",
        "col1": "NDU",
        "col2": "3055",
        "col3": "08/26",
        "col4": "Asphalt"
    },
    {
        "col0": "Ruhengeri Airport",
        "col1": "RHG",
        "col2": "1480",
        "col3": "15/33",
        "col4": "Asphalt"
    },
    {
        "col0": "Ruby Airport",
        "col1": "RBY",
        "col2": "1219",
        "col3": "3/21",
        "col4": "Gravel"
    },
    {
        "col0": "Ruben Cantu Airport",
        "col1": "SYP",
        "col2": "1200",
        "col3": "17/35",
        "col4": "Asphalt"
    },
    {
        "col0": "Ruben Berta International Airport",
        "col1": "URG",
        "col2": "800",
        "col3": "04/22 (Closed)",
        "col4": "Asphalt"
    },
    {
        "col0": "Rubelsanto Airport",
        "col1": "RUV",
        "col2": "1430",
        "col3": "08/26",
        "col4": "Asphalt"
    },
    {
        "col0": "Royan - Medis Aerodrome",
        "col1": "RYN",
        "col2": "1000",
        "col3": "10/28",
        "col4": "Grass"
    },
    {
        "col0": "Royalton Airport",
        "col1": "9G5",
        "col2": "771",
        "col3": "7/25",
        "col4": "Asphalt"
    },
    {
        "col0": "Roxas Airport",
        "col1": "RXS",
        "col2": "1890",
        "col3": "14/32",
        "col4": "Concrete"
    },
    {
        "col0": "Rowan County Airport",
        "col1": "SRW",
        "col2": "1676",
        "col3": "2/20",
        "col4": "Asphalt"
    },
    {
        "col0": "Rovaniemi Airport",
        "col1": "RVN",
        "col2": "3001",
        "col3": "03/21",
        "col4": "Asphalt"
    },
    {
        "col0": "Rouyn-Noranda Airport",
        "col1": "YUY",
        "col2": "2286",
        "col3": "08/26",
        "col4": "Asphalt"
    },
    {
        "col0": "Rouses Point Seaplane Base",
        "col1": "RSX",
        "col2": "2407",
        "col3": "ALL/WAY",
        "col4": "Water"
    },
    {
        "col0": "Rourkela Airport",
        "col1": "RRK",
        "col2": "1822",
        "col3": "09/27",
        "col4": "Asphalt"
    },
    {
        "col0": "Roundup Airport",
        "col1": "RPX",
        "col2": "749",
        "col3": "15/33",
        "col4": "Asphalt"
    },
    {
        "col0": "Round Lake",
        "col1": "ZRJ",
        "col2": "1101",
        "col3": "03/21",
        "col4": "Gravel"
    },
    {
        "col0": "Rouen Airport",
        "col1": "URO",
        "col2": "1699",
        "col3": "04/22",
        "col4": "Asphalt"
    },
    {
        "col0": "Rottnest Island Airport",
        "col1": "RTS",
        "col2": "1293",
        "col3": "09/27",
        "col4": "Asphalt"
    },
    {
        "col0": "Rotterdam The Hague Airport",
        "col1": "RTM",
        "col2": "2200",
        "col3": "06/24",
        "col4": "Asphalt"
    },
    {
        "col0": "Rotorua Regional Airport",
        "col1": "ROT",
        "col2": "772",
        "col3": "18L/36R",
        "col4": "Asphalt"
    },
    {
        "col0": "Rota International Airport",
        "col1": "ROP",
        "col2": "1828",
        "col3": "9/27",
        "col4": "Asphalt"
    },
    {
        "col0": "Roswell International Air Center",
        "col1": "ROW",
        "col2": "3047",
        "col3": "17/35",
        "col4": "Asphalt"
    },
    {
        "col0": "Rostov-on-Don Airport",
        "col1": "ROV",
        "col2": "2499",
        "col3": "04/22",
        "col4": "Concrete"
    },
    {
        "col0": "Rostock-Laage Airport",
        "col1": "RLG",
        "col2": "2499",
        "col3": "10/28",
        "col4": "Paved"
    },
    {
        "col0": "Ross River Airport",
        "col1": "XRR",
        "col2": "1558",
        "col3": "08/26",
        "col4": "Gravel"
    },
    {
        "col0": "Roskilde Airport",
        "col1": "RKE",
        "col2": "1499",
        "col3": "03/21",
        "col4": "Asphalt"
    },
    {
        "col0": "Rosita Airport",
        "col1": "RFS",
        "col2": "1975",
        "col3": "05/23",
        "col4": "Gravel"
    },
    {
        "col0": "Roshchino International Airport",
        "col1": "TJM",
        "col2": "2703",
        "col3": "03/21",
        "col4": "Asphalt"
    },
    {
        "col0": "Rosh Pina Airport",
        "col1": "RPN",
        "col2": "972",
        "col3": "05/23",
        "col4": "Asphalt"
    },
    {
        "col0": "Rosecrans Memorial Airport",
        "col1": "STJ",
        "col2": "1462",
        "col3": "13/31",
        "col4": "Concrete"
    },
    {
        "col0": "Roseburg Regional Airport",
        "col1": "RBG",
        "col2": "1402",
        "col3": "16/34",
        "col4": "Asphalt"
    },
    {
        "col0": "Roscommon County-Blodgett Memorial Airport",
        "col1": "HTL",
        "col2": "670",
        "col3": "18/36",
        "col4": "Asphalt"
    },
    {
        "col0": "Roscoe Turner Airport",
        "col1": "CRX",
        "col2": "1981",
        "col3": "18/36",
        "col4": "Asphalt"
    },
    {
        "col0": "Rosario - Islas Malvinas International Airport",
        "col1": "ROS",
        "col2": "3000",
        "col3": "02/20",
        "col4": "Concrete"
    },
    {
        "col0": "Rosario Seaplane Base",
        "col1": "RSJ",
        "col2": "762",
        "col3": "16/34",
        "col4": "Water"
    },
    {
        "col0": "Rosario - Islas Malvinas International Airport",
        "col1": "ROS",
        "col2": "3000",
        "col3": "02/20",
        "col4": "Concrete"
    },
    {
        "col0": "Roosevelt Roads Naval Station",
        "col1": "NRR",
        "col2": "100",
        "col3": "18/36 CLOSED indef.",
        "col4": "Concrete"
    },
    {
        "col0": "Ronneby Airport",
        "col1": "RNB",
        "col2": "2331",
        "col3": "01/19",
        "col4": "Asphalt"
    },
    {
        "col0": "Rongelap Airport",
        "col1": "RNP",
        "col2": "1203",
        "col3": "10/28",
        "col4": "Asphalt"
    },
    {
        "col0": "Rondonopolis Airport",
        "col1": "ROO",
        "col2": "1850",
        "col3": "02/20",
        "col4": "Asphalt"
    },
    {
        "col0": "Ronald Reagan Washington National Airport",
        "col1": "DCA",
        "col2": "1496",
        "col3": "1/19",
        "col4": "Asphalt"
    },
    {
        "col0": "Rome Viterbo Airport",
        "col1": "(VTR Proposed)",
        "col2": "590",
        "col3": "22C/04C",
        "col4": "Asphalt"
    },
    {
        "col0": "Rome State Airport",
        "col1": "REO",
        "col2": "1828",
        "col3": "3/21",
        "col4": "Gravel"
    },
    {
        "col0": "Roman Tmetuchl International Airport",
        "col1": "ROR",
        "col2": "2194",
        "col3": "09/27",
        "col4": "Asphalt/Concrete"
    },
    {
        "col0": "Roma Airport",
        "col1": "RMA",
        "col2": "801",
        "col3": "09/27",
        "col4": "Asphalt"
    },
    {
        "col0": "Rolla National Airport",
        "col1": "VIH",
        "col2": "1676",
        "col3": "13/31",
        "col4": "Asphalt"
    },
    {
        "col0": "Roland Garros Airport",
        "col1": "RUN",
        "col2": "2670",
        "col3": "12/30",
        "col4": "Asphalt"
    },
    {
        "col0": "Roland-Desourdy Airport",
        "col1": "ZBM",
        "col2": "1525",
        "col3": "05/23",
        "col4": "Asphalt"
    },
    {
        "col0": "Rokot Airport",
        "col1": "RKI",
        "col2": "899",
        "col3": "17/35",
        "col4": "Asphalt"
    },
    {
        "col0": "Roi Et Airport",
        "col1": "ROI",
        "col2": "2100",
        "col3": "18/36",
        "col4": "Asphalt"
    },
    {
        "col0": "Rogue Valley International-Medford Airport",
        "col1": "MFR",
        "col2": "2682",
        "col3": "14/32",
        "col4": "Asphalt"
    },
    {
        "col0": "Rogers Municipal Airport",
        "col1": "ROG",
        "col2": "1832",
        "col3": "2/20",
        "col4": "Asphalt"
    },
    {
        "col0": "Rodriguez Ballon International Airport",
        "col1": "AQP",
        "col2": "2960",
        "col3": "09/27",
        "col4": "Asphalt"
    },
    {
        "col0": "Rodez-Marcillac Airport",
        "col1": "RDZ",
        "col2": "800",
        "col3": "13/31",
        "col4": "Asphalt"
    },
    {
        "col0": "Rodelillo Airfield",
        "col1": "VPA",
        "col2": "990",
        "col3": "18/36",
        "col4": "Asphalt"
    },
    {
        "col0": "Rocky Mount-Wilson Regional Airport",
        "col1": "RWI",
        "col2": "2164",
        "col3": "4/22",
        "col4": "Asphalt"
    },
    {
        "col0": "Rocky Mountain Metropolitan Airport",
        "col1": "BJC",
        "col2": "1097",
        "col3": "12L/30R",
        "col4": "Asphalt"
    },
    {
        "col0": "Rocky Mountain House Airport",
        "col1": "YRM",
        "col2": "1680",
        "col3": "13/31",
        "col4": "Asphalt"
    },
    {
        "col0": "Rocky Mount-Wilson Regional Airport",
        "col1": "RWI",
        "col2": "2164",
        "col3": "4/22",
        "col4": "Asphalt"
    },
    {
        "col0": "Rockwood Municipal Airport",
        "col1": "RKW",
        "col2": "1524",
        "col3": "4/22",
        "col4": "Asphalt"
    },
    {
        "col0": "Rockhampton Airport",
        "col1": "ROK",
        "col2": "1645",
        "col3": "04/22",
        "col4": "Paved"
    },
    {
        "col0": "Rock Springs-Sweetwater County Airport",
        "col1": "RKS",
        "col2": "1593",
        "col3": "3/21",
        "col4": "Asphalt"
    },
    {
        "col0": "Rock Sound International Airport",
        "col1": "RSD",
        "col2": "2199",
        "col3": "09/27",
        "col4": "Asphalt"
    },
    {
        "col0": "Rock Hill/York County Airport",
        "col1": "RKH",
        "col2": "1676",
        "col3": "2/20",
        "col4": "Asphalt"
    },
    {
        "col0": "Rochester International Airport",
        "col1": "RST",
        "col2": "2225",
        "col3": "13/31",
        "col4": "Concrete"
    },
    {
        "col0": "Rochester Airport",
        "col1": "RCS",
        "col2": "684",
        "col3": "02L/20R",
        "col4": "Grass"
    },
    {
        "col0": "Roche Harbor Seaplane Base",
        "col1": "RCE",
        "col2": "762",
        "col3": "NE/SW",
        "col4": "Water"
    },
    {
        "col0": "Roche Harbor Airport",
        "col1": "RCE",
        "col2": "1095",
        "col3": "7/25",
        "col4": "Asphalt"
    },
    {
        "col0": "Robore Airport",
        "col1": "RBO",
        "col2": "1213",
        "col3": "17/35",
        "col4": "Grass"
    },
    {
        "col0": "Robinvale Airport",
        "col1": "RBC",
        "col2": "1140",
        "col3": "01/19",
        "col4": "Grass/Asphalt"
    },
    {
        "col0": "Robin Hood Airport Doncaster Sheffield",
        "col1": "DSA",
        "col2": "2893",
        "col3": "02/20",
        "col4": "Asphalt"
    },
    {
        "col0": "Roberval Airport",
        "col1": "YRJ",
        "col2": "1524",
        "col3": "16/34",
        "col4": "Asphalt"
    },
    {
        "col0": "Robertson Airfield",
        "col1": "ROD",
        "col2": "719",
        "col3": "10 / 128",
        "col4": "Asphalt"
    },
    {
        "col0": "Roberts International Airport",
        "col1": "ROB",
        "col2": "3352",
        "col3": "04/22",
        "col4": "Asphalt"
    },
    {
        "col0": "Roberts Field",
        "col1": "RDM",
        "col2": "2135",
        "col3": "10/28",
        "col4": "Asphalt"
    },
    {
        "col0": "Robert S. Kerr Airport",
        "col1": "RKR",
        "col2": "1221",
        "col3": "18/36",
        "col4": "Asphalt"
    },
    {
        "col0": "Robert L. Bradshaw International Airport",
        "col1": "SKB",
        "col2": "2439",
        "col3": "07/25",
        "col4": "Asphalt"
    },
    {
        "col0": "Robert J. Miller Air Park",
        "col1": "MJX",
        "col2": "1813",
        "col3": "6/24",
        "col4": "Asphalt"
    },
    {
        "col0": "Robert Gray Army Airfield",
        "col1": "GRK",
        "col2": "3048",
        "col3": "15/33",
        "col4": "PEM"
    },
    {
        "col0": "Robert F. Swinnie Airport",
        "col1": "ADR",
        "col2": "914",
        "col3": "18/36",
        "col4": "Asphalt"
    },
    {
        "col0": "Robert",
        "col1": "ORV",
        "col2": "1219",
        "col3": "6/24",
        "col4": "Gravel"
    },
    {
        "col0": "Roben-Hood Airport",
        "col1": "WBR",
        "col2": "822",
        "col3": "14/32",
        "col4": "Asphalt"
    },
    {
        "col0": "Robe Airport",
        "col1": "GOB",
        "col2": "2369",
        "col3": "15/33",
        "col4": "Unpaved"
    },
    {
        "col0": "Roanoke-Blacksburg Regional Airport",
        "col1": "ROA",
        "col2": "1770",
        "col3": "16/34",
        "col4": "Asphalt"
    },
    {
        "col0": "RoAF 93rd Air Base",
        "col1": "TSR",
        "col2": "3489",
        "col3": "11/29",
        "col4": "Asphalt"
    },
    {
        "col0": "RoAF 90th Airlift Base",
        "col1": "OTP",
        "col2": "3500",
        "col3": "08L/26R",
        "col4": "Asphalt"
    },
    {
        "col0": "RoAF 57th Air Base",
        "col1": "CND",
        "col2": "3489",
        "col3": "18/36",
        "col4": "Asphalt"
    },
    {
        "col0": "Riyan Airport",
        "col1": "RIY",
        "col2": "3001",
        "col3": "06/24",
        "col4": "Asphalt"
    },
    {
        "col0": "Rivolto Air Base",
        "col1": "RIV",
        "col2": "2900",
        "col3": "06/24",
        "col4": "asphalt concrete"
    },
    {
        "col0": "Rivne International Airport",
        "col1": "RWN",
        "col2": "655",
        "col3": "05/23 CLOSED",
        "col4": "Asphalt"
    },
    {
        "col0": "Riviere-du-Loup Airport",
        "col1": "YRI",
        "col2": "1823",
        "col3": "05/23",
        "col4": "Asphalt"
    },
    {
        "col0": "Riverton Regional Airport",
        "col1": "RIW",
        "col2": "1463",
        "col3": "1/19",
        "col4": "Asphalt"
    },
    {
        "col0": "Riverside Municipal Airport",
        "col1": "RAL",
        "col2": "868",
        "col3": "16/34",
        "col4": "Asphalt"
    },
    {
        "col0": "Rivera International Airport",
        "col1": "RVY",
        "col2": "1830",
        "col3": "05/23",
        "col4": "Asphalt"
    },
    {
        "col0": "Rishiri Airport",
        "col1": "RIS",
        "col2": "1800",
        "col3": "07/25",
        "col4": "Asphalt concrete"
    },
    {
        "col0": "Rio de Janeiro-Galeao International Airport",
        "col1": "GIG",
        "col2": "3179",
        "col3": "10/28",
        "col4": "Asphalt"
    },
    {
        "col0": "Rio Verde Airport",
        "col1": "RVD",
        "col2": "1499",
        "col3": "03/21",
        "col4": "Asphalt"
    },
    {
        "col0": "Rio Turbio Airport",
        "col1": "RYO",
        "col2": "1535",
        "col3": "14/32",
        "col4": "Asphalt"
    },
    {
        "col0": "Rio Grande Airport",
        "col1": "RIG",
        "col2": "1499",
        "col3": "06/24",
        "col4": "Asphalt"
    },
    {
        "col0": "Rio Branco International Airport",
        "col1": "RBR",
        "col2": "2157",
        "col3": "06/24",
        "col4": "Asphalt"
    },
    {
        "col0": "Rincon de los Sauces Airport",
        "col1": "RDS",
        "col2": "1612",
        "col3": "10/28",
        "col4": "Asphalt"
    },
    {
        "col0": "Rimouski Airport",
        "col1": "YXK",
        "col2": "1402",
        "col3": "07/25",
        "col4": "Asphalt"
    },
    {
        "col0": "Rijeka Airport",
        "col1": "RJK",
        "col2": "2499",
        "col3": "14/32",
        "col4": "Concrete/Asphalt"
    },
    {
        "col0": "Rigolet Airport",
        "col1": "YRG",
        "col2": "760",
        "col3": "11/29",
        "col4": "Gravel"
    },
    {
        "col0": "Riga International Airport",
        "col1": "RIX",
        "col2": "3200",
        "col3": "18/36",
        "col4": "Concrete/Asphalt"
    },
    {
        "col0": "Rif Airport",
        "col1": "OLI",
        "col2": "840",
        "col3": "06/24",
        "col4": "Asphalt"
    },
    {
        "col0": "Rickenbacker International Airport",
        "col1": "LCK",
        "col2": "3638",
        "col3": "5L/23R",
        "col4": "Asphalt"
    },
    {
        "col0": "Rick Husband Amarillo International Airport",
        "col1": "AMA",
        "col2": "2408",
        "col3": "13/31",
        "col4": "Concrete"
    },
    {
        "col0": "Richmond Municipal Airport",
        "col1": "RID",
        "col2": "1524",
        "col3": "15/33",
        "col4": "Asphalt"
    },
    {
        "col0": "Richmond International Airport",
        "col1": "RIC",
        "col2": "1623",
        "col3": "16/34",
        "col4": "Asphalt"
    },
    {
        "col0": "Richmond Airport",
        "col1": "RCM",
        "col2": "1524",
        "col3": "09/27",
        "col4": "Asphalt"
    },
    {
        "col0": "Richland Airport",
        "col1": "RLD",
        "col2": "1217",
        "col3": "1/19",
        "col4": "Asphalt"
    },
    {
        "col0": "Richards Bay Airport",
        "col1": "RCB",
        "col2": "1299",
        "col3": "05/23",
        "col4": "Asphalt"
    },
    {
        "col0": "Richard Pearse Airport",
        "col1": "TIU",
        "col2": "1113",
        "col3": "02L/20R",
        "col4": "Asphalt"
    },
    {
        "col0": "Richard Lloyd Jones Jr. Airport",
        "col1": "RVS",
        "col2": "804",
        "col3": "13/31",
        "col4": "Asphalt"
    },
    {
        "col0": "Richard I. Bong Airport",
        "col1": "SUW",
        "col2": "1219",
        "col3": "14/32",
        "col4": "Asphalt"
    },
    {
        "col0": "Richard B. Russell Airport",
        "col1": "RMG",
        "col2": "1370",
        "col3": "1/19",
        "col4": "Asphalt"
    },
    {
        "col0": "Rice Lake Regional Airport",
        "col1": "RIE",
        "col2": "1066",
        "col3": "1/19",
        "col4": "Asphalt"
    },
    {
        "col0": "Ricardo Garcia Posada Airport",
        "col1": "ESR",
        "col2": "2300",
        "col3": "09/27",
        "col4": "Asphalt"
    },
    {
        "col0": "Riberalta Airport",
        "col1": "RIB",
        "col2": "1833",
        "col3": "14/32",
        "col4": "Asphalt"
    },
    {
        "col0": "Rhodes International Airport",
        "col1": "RHO",
        "col2": "3305",
        "col3": "07/25",
        "col4": "Asphalt"
    },
    {
        "col0": "Rhinelander-Oneida County Airport",
        "col1": "RHI",
        "col2": "1585",
        "col3": "15/33",
        "col4": "Asphalt"
    },
    {
        "col0": "Rhamu Airport",
        "col1": "HKOB",
        "col2": "1000",
        "col3": "04/22",
        "col4": "Asphalt"
    },
    {
        "col0": "Reykjavik Airport",
        "col1": "RKV",
        "col2": "960",
        "col3": "01/19",
        "col4": "Asphalt"
    },
    {
        "col0": "Reyes Airport",
        "col1": "REY",
        "col2": "1383",
        "col3": "01/19",
        "col4": "Grass"
    },
    {
        "col0": "Rexburg-Madison County Airport",
        "col1": "RXE",
        "col2": "1281",
        "col3": "17/35",
        "col4": "Asphalt"
    },
    {
        "col0": "Revelstoke Airport",
        "col1": "YRV",
        "col2": "1571",
        "col3": "12/30",
        "col4": "Asphalt"
    },
    {
        "col0": "Reus Airport",
        "col1": "REU",
        "col2": "2459",
        "col3": "07/25",
        "col4": "Asphalt"
    },
    {
        "col0": "Retalhuleu Airport",
        "col1": "RER",
        "col2": "1525",
        "col3": "04/22",
        "col4": "Asphalt"
    },
    {
        "col0": "Resolute Bay Airport",
        "col1": "YRB",
        "col2": "1982",
        "col3": "17/35",
        "col4": "Gravel"
    },
    {
        "col0": "Resistencia International Airport",
        "col1": "RES",
        "col2": "2848",
        "col3": "03/21",
        "col4": "Asphalt"
    },
    {
        "col0": "Resende Airport",
        "col1": "REZ",
        "col2": "1299",
        "col3": "08/26",
        "col4": "Asphalt"
    },
    {
        "col0": "Republic Airport",
        "col1": "FRG",
        "col2": "1681",
        "col3": "1/19",
        "col4": "Asphalt"
    },
    {
        "col0": "Renton Municipal Airport",
        "col1": "RNT",
        "col2": "1640",
        "col3": "16/34",
        "col4": "Asphalt/Concrete"
    },
    {
        "col0": "Reno-Tahoe International Airport",
        "col1": "RNO",
        "col2": "1859",
        "col3": "16L/34R",
        "col4": "Concrete"
    },
    {
        "col0": "Rennes-Saint-Jacques Airport",
        "col1": "RNS",
        "col2": "649",
        "col3": "10/28",
        "col4": "Paved"
    },
    {
        "col0": "Renmark Airport",
        "col1": "RMK",
        "col2": "1024",
        "col3": "07/25",
        "col4": "Asphalt"
    },
    {
        "col0": "Rene Mouawad Air Base",
        "col1": "KYE",
        "col2": "3000",
        "col3": "06/24",
        "col4": "Concrete"
    },
    {
        "col0": "Rendani Airport",
        "col1": "MKW",
        "col2": "2000",
        "col3": "17/35",
        "col4": "Asphalt"
    },
    {
        "col0": "Reims - Prunay Aerodrome",
        "col1": "RPK",
        "col2": "1150",
        "col3": "07/25",
        "col4": "Asphalt"
    },
    {
        "col0": "Reims - Champagne Air Base",
        "col1": "RHE",
        "col2": "2481",
        "col3": "07/25",
        "col4": "Asphalt"
    },
    {
        "col0": "Reims - Prunay Aerodrome",
        "col1": "RPK",
        "col2": "1150",
        "col3": "07/25",
        "col4": "Asphalt"
    },
    {
        "col0": "Reims - Champagne Air Base",
        "col1": "RHE",
        "col2": "2481",
        "col3": "07/25",
        "col4": "Asphalt"
    },
    {
        "col0": "Reid-Hillview Airport",
        "col1": "RHV",
        "col2": "944",
        "col3": "13L/31R",
        "col4": "Asphalt"
    },
    {
        "col0": "Reichelsheim Airport",
        "col1": "QRE",
        "col2": "249",
        "col3": "09/27",
        "col4": "Asphalt"
    },
    {
        "col0": "Region of Waterloo International Airport",
        "col1": "YKF",
        "col2": "1249",
        "col3": "08/26",
        "col4": "Asphalt"
    },
    {
        "col0": "Regina International Airport",
        "col1": "YQR",
        "col2": "1889",
        "col3": "08/26",
        "col4": "Asphalt"
    },
    {
        "col0": "Reggio Calabria Airport",
        "col1": "REG",
        "col2": "1669",
        "col3": "11/29",
        "col4": "Asphalt"
    },
    {
        "col0": "Redstone Army Airfield",
        "col1": "HUA",
        "col2": "2224",
        "col3": "17/35",
        "col4": "Asphalt"
    },
    {
        "col0": "Redhill Aerodrome",
        "col1": "KRH",
        "col2": "500",
        "col3": "07/25 (unlicensed)",
        "col4": "Asphalt taxiway"
    },
    {
        "col0": "Redencao Airport",
        "col1": "RDC",
        "col2": "960",
        "col3": "05/23",
        "col4": "Asphalt"
    },
    {
        "col0": "Redding Municipal Airport",
        "col1": "RDD",
        "col2": "1544",
        "col3": "12/30",
        "col4": "Asphalt"
    },
    {
        "col0": "Redang Airport",
        "col1": "RDN",
        "col2": "940",
        "col3": "02/20",
        "col4": "Tarmac"
    },
    {
        "col0": "Red Sucker Lake Airport",
        "col1": "YRS",
        "col2": "1083",
        "col3": "09/27",
        "col4": "Crushed rock"
    },
    {
        "col0": "Red Lake Airport",
        "col1": "YRL",
        "col2": "1524",
        "col3": "08/26",
        "col4": "Asphalt"
    },
    {
        "col0": "Red Dog Airport",
        "col1": "RDB",
        "col2": "1923",
        "col3": "2/20",
        "col4": "Asphalt"
    },
    {
        "col0": "Red Devil Airport",
        "col1": "RDV",
        "col2": "1463",
        "col3": "10/28",
        "col4": "Gravel"
    },
    {
        "col0": "Red Deer Regional Airport",
        "col1": "YQF",
        "col2": "1052",
        "col3": "11/29",
        "col4": "Asphalt"
    },
    {
        "col0": "Red Bluff Municipal Airport",
        "col1": "RBL",
        "col2": "1655",
        "col3": "15/33",
        "col4": "Asphalt"
    },
    {
        "col0": "Reconquista Airport",
        "col1": "RCQ",
        "col2": "1249",
        "col3": "01/19",
        "col4": "Concrete"
    },
    {
        "col0": "Recife/Guararapes-Gilberto Freyre International Airport",
        "col1": "REC",
        "col2": "3300",
        "col3": "18/36",
        "col4": "Asphalt"
    },
    {
        "col0": "Rechlin-Larz Airfield",
        "col1": "REB",
        "col2": "1880",
        "col3": "08/26",
        "col4": "Concrete"
    },
    {
        "col0": "Rebun Airport",
        "col1": "RBJ",
        "col2": "1000",
        "col3": "14/32",
        "col4": "Asphalt concrete"
    },
    {
        "col0": "Reao Airport",
        "col1": "REA",
        "col2": "916",
        "col3": "11/29",
        "col4": "Paved"
    },
    {
        "col0": "Reales Tamarindos Airport",
        "col1": "PVO",
        "col2": "2271",
        "col3": "12/30",
        "col4": "Asphalt"
    },
    {
        "col0": "Reading Regional Airport",
        "col1": "RDG",
        "col2": "1570",
        "col3": "13/31",
        "col4": "Asphalt"
    },
    {
        "col0": "Razer Airport",
        "col1": "KUR",
        "col2": "868",
        "col3": "08/26",
        "col4": "DIRT"
    },
    {
        "col0": "Rawlins Municipal Airport",
        "col1": "RWL",
        "col2": "1255",
        "col3": "10/28",
        "col4": "Asphalt"
    }
]