[
    {
        "col0": "Cycas balansae",
        "col1": "Cycas",
        "col2": "LR/nt",
        "col3": "IUCN2.3"
    },
    {
        "col0": "Cycas badensis",
        "col1": "Cycas",
        "col2": "NT",
        "col3": "IUCN3.1"
    },
    {
        "col0": "Cycas arnhemica",
        "col1": "Cycas",
        "col2": "LC",
        "col3": "IUCN3.1"
    },
    {
        "col0": "Cycas armstrongii",
        "col1": "Cycas",
        "col2": "VU",
        "col3": "IUCN3.1"
    },
    {
        "col0": "Cycas arenicola",
        "col1": "Cycas",
        "col2": "NT",
        "col3": "IUCN3.1"
    },
    {
        "col0": "Cycas apoa",
        "col1": "Cycas",
        "col2": "NT",
        "col3": "IUCN3.1"
    },
    {
        "col0": "Cycas annaikalensis",
        "col1": "Cycas",
        "col2": "CR",
        "col3": "IUCN3.1"
    },
    {
        "col0": "Cycas angulata",
        "col1": "Cycas",
        "col2": "LC",
        "col3": "IUCN3.1"
    },
    {
        "col0": "Cycas aculeata",
        "col1": "Cycas",
        "col2": "VU",
        "col3": "IUCN3.1"
    },
    {
        "col0": "Ceratozamia zaragozae",
        "col1": "Zamiaceae",
        "col2": "CR",
        "col3": "IUCN3.1"
    },
    {
        "col0": "Ceratozamia whitelockiana",
        "col1": "Zamiaceae",
        "col2": "EN",
        "col3": "IUCN3.1"
    },
    {
        "col0": "Ceratozamia sabatoi",
        "col1": "Zamiaceae",
        "col2": "EN",
        "col3": "IUCN3.1"
    },
    {
        "col0": "Ceratozamia robusta",
        "col1": "Zamiaceae",
        "col2": "EN",
        "col3": "IUCN3.1"
    },
    {
        "col0": "Ceratozamia norstogii",
        "col1": "Zamiaceae",
        "col2": "EN",
        "col3": "IUCN3.1"
    },
    {
        "col0": "Ceratozamia morettii",
        "col1": "Zamiaceae",
        "col2": "EN",
        "col3": "IUCN3.1"
    },
    {
        "col0": "Ceratozamia mixeorum",
        "col1": "Zamiaceae",
        "col2": "EN",
        "col3": "IUCN3.1"
    },
    {
        "col0": "Ceratozamia miqueliana",
        "col1": "Zamiaceae",
        "col2": "VU",
        "col3": "IUCN3.1"
    },
    {
        "col0": "Ceratozamia microstrobila",
        "col1": "Zamiaceae",
        "col2": "VU",
        "col3": "IUCN3.1"
    },
    {
        "col0": "Ceratozamia mexicana",
        "col1": "Zamiaceae",
        "col2": "VU",
        "col3": "IUCN3.1"
    },
    {
        "col0": "Ceratozamia matudae",
        "col1": "Zamiaceae",
        "col2": "EN",
        "col3": "IUCN3.1"
    },
    {
        "col0": "Ceratozamia latifolia",
        "col1": "Zamiaceae",
        "col2": "EN",
        "col3": "IUCN3.1"
    },
    {
        "col0": "Ceratozamia kuesteriana",
        "col1": "Zamiaceae",
        "col2": "CR",
        "col3": "IUCN3.1"
    },
    {
        "col0": "Ceratozamia hildae",
        "col1": "Zamiaceae",
        "col2": "EN",
        "col3": "IUCN3.1"
    },
    {
        "col0": "Ceratozamia fuscoviridis",
        "col1": "Zamiaceae",
        "col2": "CR",
        "col3": "IUCN3.1"
    },
    {
        "col0": "Ceratozamia euryphyllidia",
        "col1": "Zamiaceae",
        "col2": "CR",
        "col3": "IUCN3.1"
    },
    {
        "col0": "Ceratozamia becerrae",
        "col1": "Zamiaceae",
        "col2": "EN",
        "col3": "IUCN3.1"
    },
    {
        "col0": "Ceratozamia alvarezii",
        "col1": "Zamiaceae",
        "col2": "EN",
        "col3": "IUCN3.1"
    },
    {
        "col0": "Bowenia spectabilis",
        "col1": "Stangeriaceae",
        "col2": "LC",
        "col3": "IUCN3.1"
    },
    {
        "col0": "Bowenia serrulata",
        "col1": "Stangeriaceae",
        "col2": "LC",
        "col3": "IUCN3.1"
    }
]