[
    {
        "col0": "White-crested tyrannulet",
        "col1": "Tyrannidae",
        "col2": "IUCN3.1",
        "col3": "LC"
    },
    {
        "col0": "White-crested turaco",
        "col1": "Musophagidae",
        "col2": "IUCN3.1",
        "col3": "LC"
    },
    {
        "col0": "White-crested tiger heron",
        "col1": "Ardeidae",
        "col2": "IUCN3.1",
        "col3": "LC"
    },
    {
        "col0": "White-crested spadebill",
        "col1": "Tyrannidae",
        "col2": "IUCN3.1",
        "col3": "LC"
    },
    {
        "col0": "White-crested laughingthrush",
        "col1": "Leiothrichidae",
        "col2": "IUCN3.1",
        "col3": "LC"
    },
    {
        "col0": "White-crested hornbill",
        "col1": "Bucerotidae",
        "col2": "IUCN3.1",
        "col3": "LC"
    },
    {
        "col0": "White-crested helmetshrike",
        "col1": "Prionopidae",
        "col2": "IUCN3.1",
        "col3": "LC"
    },
    {
        "col0": "White-crested guan",
        "col1": "Cracidae",
        "col2": "IUCN3.1",
        "col3": "VU"
    },
    {
        "col0": "White-crested elaenia",
        "col1": "Tyrannidae",
        "col2": "IUCN3.1",
        "col3": "LC"
    },
    {
        "col0": "White-crested coquette",
        "col1": "Trochilidae",
        "col2": "IUCN3.1",
        "col3": "LC"
    },
    {
        "col0": "White-collared yuhina",
        "col1": "Zosteropidae",
        "col2": "IUCN3.1",
        "col3": "LC"
    },
    {
        "col0": "White-collared swift",
        "col1": "Apodidae",
        "col2": "IUCN3.1",
        "col3": "LC"
    },
    {
        "col0": "White-collared starling",
        "col1": "Sturnidae",
        "col2": "IUCN3.1",
        "col3": "LC"
    },
    {
        "col0": "White-collared seedeater",
        "col1": "Tanager",
        "col2": "IUCN3.1",
        "col3": "LC"
    },
    {
        "col0": "White-collared pigeon",
        "col1": "Columbidae",
        "col2": "IUCN3.1",
        "col3": "LC"
    },
    {
        "col0": "White-collared oliveback",
        "col1": "Estrildidae",
        "col2": "IUCN3.1",
        "col3": "LC"
    },
    {
        "col0": "White-collared monarch",
        "col1": "Monarchidae",
        "col2": "IUCN3.1",
        "col3": "LC"
    },
    {
        "col0": "White-collared manakin",
        "col1": "Manakin",
        "col2": "IUCN3.1",
        "col3": "LC"
    },
    {
        "col0": "White-collared kite",
        "col1": "Accipitridae",
        "col2": "IUCN3.1",
        "col3": "CR"
    },
    {
        "col0": "White-collared jay",
        "col1": "Corvidae",
        "col2": "IUCN3.1",
        "col3": "NT"
    },
    {
        "col0": "White-collared fruit bat",
        "col1": "Pteropodidae",
        "col2": "IUCN3.1",
        "col3": "VU"
    },
    {
        "col0": "White-collared foliage-gleaner",
        "col1": "Furnariidae",
        "col2": "IUCN3.1",
        "col3": "LC"
    },
    {
        "col0": "White-collared blackbird",
        "col1": "Turdidae",
        "col2": "IUCN3.1",
        "col3": "LC"
    },
    {
        "col0": "White-coated titi",
        "col1": "Pitheciidae",
        "col2": "iucn3.1",
        "col3": "LC"
    },
    {
        "col0": "White-clasper catshark",
        "col1": "Catshark",
        "col2": "IUCN3.1",
        "col3": "DD"
    },
    {
        "col0": "White-chinned woodcreeper",
        "col1": "Furnariidae",
        "col2": "IUCN3.1",
        "col3": "LC"
    },
    {
        "col0": "White-chinned thrush",
        "col1": "Turdidae",
        "col2": "IUCN3.1",
        "col3": "LC"
    },
    {
        "col0": "White-chinned thistletail",
        "col1": "Furnariidae",
        "col2": "IUCN3.1",
        "col3": "LC"
    },
    {
        "col0": "White-chinned swift",
        "col1": "Apodidae",
        "col2": "IUCN3.1",
        "col3": "LC"
    },
    {
        "col0": "White-chinned sapphire",
        "col1": "Trochilidae",
        "col2": "IUCN3.1",
        "col3": "LC"
    },
    {
        "col0": "White-chinned prinia",
        "col1": "Cisticolidae",
        "col2": "IUCN3.1",
        "col3": "LC"
    },
    {
        "col0": "White-chinned petrel",
        "col1": "Procellariidae",
        "col2": "IUCN3.1",
        "col3": "VU"
    },
    {
        "col0": "White-chinned myzomela",
        "col1": "Meliphagidae",
        "col2": "IUCN3.1",
        "col3": "DD"
    },
    {
        "col0": "White-chinned jacamar",
        "col1": "Galbulidae",
        "col2": "IUCN3.1",
        "col3": "LC"
    },
    {
        "col0": "White-chested white-eye",
        "col1": "White-eye",
        "col2": "IUCN3.1",
        "col3": "CR"
    },
    {
        "col0": "White-chested tinkerbird",
        "col1": "Lybiidae",
        "col2": "IUCN3.1",
        "col3": "DD"
    },
    {
        "col0": "White-chested swift",
        "col1": "Apodidae",
        "col2": "IUCN3.1",
        "col3": "LC"
    },
    {
        "col0": "White-chested puffbird",
        "col1": "Bucconidae",
        "col2": "IUCN3.1",
        "col3": "LC"
    },
    {
        "col0": "White-chested emerald",
        "col1": "Trochilidae",
        "col2": "IUCN3.1",
        "col3": "LC"
    },
    {
        "col0": "White-chested babbler",
        "col1": "Pellorneidae",
        "col2": "IUCN3.1",
        "col3": "NT"
    },
    {
        "col0": "White-chested alethe",
        "col1": "Turdidae",
        "col2": "IUCN3.1",
        "col3": "LC"
    },
    {
        "col0": "White-cheeked turaco",
        "col1": "Musophagidae",
        "col2": "IUCN3.1",
        "col3": "LC"
    },
    {
        "col0": "White-cheeked tody-flycatcher",
        "col1": "Tyrannidae",
        "col2": "IUCN3.1",
        "col3": "LC"
    },
    {
        "col0": "White-cheeked tern",
        "col1": "Sternidae",
        "col2": "IUCN3.1",
        "col3": "LC"
    },
    {
        "col0": "White-cheeked starling",
        "col1": "Sturnidae",
        "col2": "IUCN3.1",
        "col3": "LC"
    },
    {
        "col0": "White-cheeked spider monkey",
        "col1": "Atelidae",
        "col2": "iucn3.1",
        "col3": "EN"
    },
    {
        "col0": "White-cheeked pintail",
        "col1": "Anatidae",
        "col2": "IUCN3.1",
        "col3": "LC"
    },
    {
        "col0": "White-cheeked partridge",
        "col1": "Phasianidae",
        "col2": "IUCN3.1",
        "col3": "NT"
    },
    {
        "col0": "White-cheeked nuthatch",
        "col1": "Sittidae",
        "col2": "IUCN3.1",
        "col3": "LC"
    },
    {
        "col0": "White-cheeked laughingthrush",
        "col1": "Leiothrichidae",
        "col2": "IUCN3.1",
        "col3": "LC"
    },
    {
        "col0": "White-cheeked honeyeater",
        "col1": "Meliphagidae",
        "col2": "IUCN3.1",
        "col3": "LC"
    },
    {
        "col0": "White-cheeked cotinga",
        "col1": "Cotingidae",
        "col2": "IUCN3.1",
        "col3": "VU"
    },
    {
        "col0": "White-cheeked bushtit",
        "col1": "Aegithalidae",
        "col2": "IUCN3.1",
        "col3": "LC"
    },
    {
        "col0": "White-cheeked bullfinch",
        "col1": "Fringillidae",
        "col2": "IUCN3.1",
        "col3": "LC"
    },
    {
        "col0": "White-cheeked barbet",
        "col1": "Megalaimidae",
        "col2": "IUCN3.1",
        "col3": "LC"
    },
    {
        "col0": "White-cheeked antbird",
        "col1": "Thamnophilidae",
        "col2": "IUCN3.1",
        "col3": "NR"
    },
    {
        "col0": "White-capped tanager",
        "col1": "Thraupidae",
        "col2": "IUCN3.1",
        "col3": "VU"
    },
    {
        "col0": "White-capped redstart",
        "col1": "Muscicapidae",
        "col2": "IUCN3.1",
        "col3": "LC"
    },
    {
        "col0": "White-capped parrot",
        "col1": "Psittacidae",
        "col2": "IUCN3.1",
        "col3": "LC"
    },
    {
        "col0": "White-capped munia",
        "col1": "Estrildidae",
        "col2": "IUCN3.1",
        "col3": "LC"
    },
    {
        "col0": "White-capped monarch",
        "col1": "Monarchidae",
        "col2": "IUCN3.1",
        "col3": "LC"
    },
    {
        "col0": "White-capped fruit dove",
        "col1": "Columbidae",
        "col2": "IUCN3.1",
        "col3": "LC"
    },
    {
        "col0": "White-capped dipper",
        "col1": "Dipper",
        "col2": "IUCN3.1",
        "col3": "LC"
    },
    {
        "col0": "White-capped bunting",
        "col1": "Emberizidae",
        "col2": "IUCN3.1",
        "col3": "LC"
    },
    {
        "col0": "White-capped albatross",
        "col1": "Diomedeidae",
        "col2": "IUCN3.1",
        "col3": "NT"
    },
    {
        "col0": "White-browed woodswallow",
        "col1": "Artamidae",
        "col2": "IUCN3.1",
        "col3": "LC"
    },
    {
        "col0": "White-browed wagtail",
        "col1": "Motacillidae",
        "col2": "IUCN3.1",
        "col3": "LC"
    },
    {
        "col0": "White-browed triller",
        "col1": "Campephagidae",
        "col2": "IUCN3.1",
        "col3": "LC"
    },
    {
        "col0": "White-browed treecreeper",
        "col1": "Climacteridae",
        "col2": "IUCN3.1",
        "col3": "LC"
    },
    {
        "col0": "White-browed tit-warbler",
        "col1": "Aegithalidae",
        "col2": "IUCN3.1",
        "col3": "LC"
    },
    {
        "col0": "White-browed tit-spinetail",
        "col1": "Furnariidae",
        "col2": "IUCN3.1",
        "col3": "EN"
    },
    {
        "col0": "White-browed tit",
        "col1": "Tit",
        "col2": "IUCN3.1",
        "col3": "LC"
    },
    {
        "col0": "White-browed tapaculo",
        "col1": "Rhinocryptidae",
        "col2": "IUCN3.1",
        "col3": "LC"
    },
    {
        "col0": "White-browed spinetail",
        "col1": "Furnariidae",
        "col2": "IUCN3.1",
        "col3": "LC"
    },
    {
        "col0": "White-browed sparrow-weaver",
        "col1": "Passeridae",
        "col2": "IUCN3.1",
        "col3": "LC"
    },
    {
        "col0": "White-browed shortwing",
        "col1": "Muscicapidae",
        "col2": "IUCN3.1",
        "col3": "LC"
    },
    {
        "col0": "White-browed shama",
        "col1": "Muscicapidae",
        "col2": "IUCN3.1",
        "col3": "LC"
    },
    {
        "col0": "White-browed scrubwren",
        "col1": "Acanthizidae",
        "col2": "IUCN3.1",
        "col3": "LC"
    },
    {
        "col0": "White-browed scrub robin",
        "col1": "Muscicapidae",
        "col2": "IUCN3.1",
        "col3": "LC"
    },
    {
        "col0": "White-browed scimitar babbler",
        "col1": "Timaliidae",
        "col2": "IUCN3.1",
        "col3": "LC"
    },
    {
        "col0": "White-browed robin-chat",
        "col1": "Muscicapidae",
        "col2": "IUCN3.1",
        "col3": "LC"
    },
    {
        "col0": "White-browed robin",
        "col1": "Petroicidae",
        "col2": "IUCN3.1",
        "col3": "LC"
    },
    {
        "col0": "White-browed purpletuft",
        "col1": "Tityridae",
        "col2": "IUCN3.1",
        "col3": "LC"
    },
    {
        "col0": "White-browed piculet",
        "col1": "Picidae",
        "col2": "IUCN3.1",
        "col3": "LC"
    },
    {
        "col0": "White-browed nuthatch",
        "col1": "Sittidae",
        "col2": "IUCN3.1",
        "col3": "EN"
    },
    {
        "col0": "White-browed meadowlark",
        "col1": "Icteridae",
        "col2": "IUCN3.1",
        "col3": "LC"
    },
    {
        "col0": "White-browed laughingthrush",
        "col1": "Leiothrichidae",
        "col2": "IUCN3.1",
        "col3": "LC"
    },
    {
        "col0": "White-browed jungle flycatcher",
        "col1": "Muscicapidae",
        "col2": "IUCN3.1",
        "col3": "VU"
    },
    {
        "col0": "White-browed hermit",
        "col1": "Trochilidae",
        "col2": "IUCN3.1",
        "col3": "LC"
    },
    {
        "col0": "White-browed hawk-owl",
        "col1": "Strigidae",
        "col2": "IUCN3.1",
        "col3": "LC"
    },
    {
        "col0": "White-browed hawk",
        "col1": "Accipitridae",
        "col2": "IUCN3.1",
        "col3": "LC"
    },
    {
        "col0": "White-browed guan",
        "col1": "Cracidae",
        "col2": "IUCN3.1",
        "col3": "VU"
    },
    {
        "col0": "White-browed ground tyrant",
        "col1": "Tyrannidae",
        "col2": "IUCN3.1",
        "col3": "LC"
    },
    {
        "col0": "White-browed fulvetta",
        "col1": "Sylviidae",
        "col2": "IUCN3.1",
        "col3": "LC"
    },
    {
        "col0": "White-browed forest flycatcher",
        "col1": "Muscicapidae",
        "col2": "IUCN3.1",
        "col3": "LC"
    },
    {
        "col0": "White-browed foliage-gleaner",
        "col1": "Furnariidae",
        "col2": "IUCN3.1",
        "col3": "NT"
    },
    {
        "col0": "White-browed fantail",
        "col1": "Rhipiduridae",
        "col2": "IUCN3.1",
        "col3": "LC"
    },
    {
        "col0": "White-browed crombec",
        "col1": "Macrosphenidae",
        "col2": "IUCN3.1",
        "col3": "LC"
    },
    {
        "col0": "White-browed crake",
        "col1": "Rallidae",
        "col2": "IUCN3.1",
        "col3": "LC"
    },
    {
        "col0": "White-browed coucal",
        "col1": "Cuculidae",
        "col2": "IUCN3.1",
        "col3": "LC"
    },
    {
        "col0": "White-browed conebill",
        "col1": "Thraupidae",
        "col2": "IUCN3.1",
        "col3": "LC"
    },
    {
        "col0": "White-browed chat-tyrant",
        "col1": "Tyrannidae",
        "col2": "IUCN3.1",
        "col3": "LC"
    },
    {
        "col0": "White-browed bush robin",
        "col1": "Muscicapidae",
        "col2": "IUCN3.1",
        "col3": "LC"
    },
    {
        "col0": "White-browed bush chat",
        "col1": "Muscicapidae",
        "col2": "IUCN3.1",
        "col3": "VU"
    },
    {
        "col0": "White-browed bulbul",
        "col1": "Bulbul",
        "col2": "IUCN3.1",
        "col3": "LC"
    },
    {
        "col0": "White-browed brush finch",
        "col1": "Emberizidae",
        "col2": "IUCN3.1",
        "col3": "LC"
    },
    {
        "col0": "White-browed babbler",
        "col1": "Pomatostomidae",
        "col2": "IUCN3.1",
        "col3": "LC"
    },
    {
        "col0": "White-browed antpitta",
        "col1": "Grallariidae",
        "col2": "IUCN3.1",
        "col3": "NT"
    },
    {
        "col0": "White-browed antbird",
        "col1": "Thamnophilidae",
        "col2": "IUCN3.1",
        "col3": "LC"
    },
    {
        "col0": "White-bridled finch",
        "col1": "Thraupidae",
        "col2": "IUCN3.1",
        "col3": "LC"
    },
    {
        "col0": "White-breasted woodswallow",
        "col1": "Artamidae",
        "col2": "IUCN3.1",
        "col3": "LC"
    },
    {
        "col0": "White-breasted wood wren",
        "col1": "Wren",
        "col2": "IUCN3.1",
        "col3": "LC"
    }
]