[
    {
        "col0": "Arapahoe Basin",
        "col1": "Denver",
        "col2": "3977",
        "col3": "3285"
    },
    {
        "col0": "Aransa",
        "col1": "Catalonia",
        "col2": "2150",
        "col3": "1850"
    },
    {
        "col0": "Appalachian Ski Mountain",
        "col1": "Boone, North Carolina",
        "col2": "1219",
        "col3": "1107"
    },
    {
        "col0": "Apex Mountain Resort",
        "col1": "Penticton",
        "col2": "2180",
        "col3": "1575"
    },
    {
        "col0": "Anthony Lakes",
        "col1": "Boise, Idaho",
        "col2": "2438",
        "col3": "2164"
    },
    {
        "col0": "Angel Fire Resort",
        "col1": "Taos, New Mexico",
        "col2": "3254",
        "col3": "2621"
    },
    {
        "col0": "Alyeska Resort",
        "col1": "Anchorage, Alaska",
        "col2": "838",
        "col3": "76"
    },
    {
        "col0": "Alto Campoo",
        "col1": "Reinosa",
        "col2": "2250",
        "col3": "1650"
    },
    {
        "col0": "Alta Ski Area",
        "col1": "Sandy, Utah",
        "col2": "3215",
        "col3": "2599"
    },
    {
        "col0": "Alta Badia",
        "col1": "Trento",
        "col2": "2550",
        "col3": "1324"
    },
    {
        "col0": "Alpine Valley Resort",
        "col1": "Elkhorn, Wisconsin",
        "col2": "384",
        "col3": "310"
    },
    {
        "col0": "Alpine Meadows",
        "col1": "Truckee, California",
        "col2": "2632",
        "col3": "2083"
    },
    {
        "col0": "Alpenglow at Arctic Valley",
        "col1": "Anchorage, Alaska",
        "col2": "1219",
        "col3": "762"
    },
    {
        "col0": "Alp 2500",
        "col1": "Barcelona",
        "col2": "2535",
        "col3": "1600"
    },
    {
        "col0": "Afton Alps",
        "col1": "Afton, Minnesota",
        "col2": "213",
        "col3": "106"
    },
    {
        "col0": "49 Degrees North Ski Area",
        "col1": "Spokane, Washington",
        "col2": "1759",
        "col3": "1195"
    },
    {
        "col0": "Are ski resort",
        "col1": "Ostersund",
        "col2": "1420",
        "col3": "390"
    }
]