[
    {
        "col0": "J. M. Fernandez",
        "col1": "Left",
        "col2": "1988-4-27",
        "col3": "Right"
    },
    {
        "col0": "J. J. Ruiz",
        "col1": "Left",
        "col2": "1984-6-9",
        "col3": "Left"
    },
    {
        "col0": "J. Felix",
        "col1": "Both",
        "col2": "1988-6-28",
        "col3": "Right"
    },
    {
        "col0": "J. Cruz",
        "col1": "Both",
        "col2": "1984-9-4",
        "col3": "Right"
    },
    {
        "col0": "J. Cobos",
        "col1": "Right",
        "col2": "1980-10-11",
        "col3": "Right"
    },
    {
        "col0": "J. Castro",
        "col1": "Right",
        "col2": "1958-5-5",
        "col3": "Right"
    },
    {
        "col0": "J. Roberts",
        "col1": "Left",
        "col2": "1986-7-17",
        "col3": "Right"
    },
    {
        "col0": "J. Sullivan",
        "col1": "Right",
        "col2": "1984-7-5",
        "col3": "Right"
    },
    {
        "col0": "J. Sale",
        "col1": "Left",
        "col2": "1991-7-5",
        "col3": "Right"
    },
    {
        "col0": "J. Romanski",
        "col1": "Left",
        "col2": "1986-10-18",
        "col3": "Left"
    },
    {
        "col0": "J. Naylor",
        "col1": "Left",
        "col2": "1997-6-22",
        "col3": "Left"
    },
    {
        "col0": "J. Hader",
        "col1": "Left",
        "col2": "1994-4-7",
        "col3": "Left"
    },
    {
        "col0": "J. Davies",
        "col1": "Right",
        "col2": "1985-9-12",
        "col3": "Right"
    },
    {
        "col0": "J. Bell",
        "col1": "Switch",
        "col2": "1992-8-14",
        "col3": "Right"
    },
    {
        "col0": "J. M. Fernandez",
        "col1": "Left",
        "col2": "1988-4-27",
        "col3": "Right"
    },
    {
        "col0": "J. J. Ruiz",
        "col1": "Left",
        "col2": "1984-6-9",
        "col3": "Left"
    },
    {
        "col0": "J. Felix",
        "col1": "Both",
        "col2": "1988-6-28",
        "col3": "Right"
    },
    {
        "col0": "J. Cruz",
        "col1": "Both",
        "col2": "1984-9-4",
        "col3": "Right"
    },
    {
        "col0": "J. Cobos",
        "col1": "Right",
        "col2": "1980-10-11",
        "col3": "Right"
    },
    {
        "col0": "J. Castro",
        "col1": "Right",
        "col2": "1958-5-5",
        "col3": "Right"
    },
    {
        "col0": "J. Bert",
        "col1": "Left",
        "col2": "1987-5-16",
        "col3": "Left"
    },
    {
        "col0": "J. Vazquez",
        "col1": "Right",
        "col2": "1982-3-15",
        "col3": "Right"
    },
    {
        "col0": "J. Reyes",
        "col1": "Switch",
        "col2": "1987-12-7",
        "col3": "Right"
    },
    {
        "col0": "J. Montgomery",
        "col1": "Left",
        "col2": "1992-12-27",
        "col3": "Left"
    },
    {
        "col0": "J. Lennerton",
        "col1": "Left",
        "col2": "1986-2-16",
        "col3": "Left"
    },
    {
        "col0": "J. Rodriguez",
        "col1": "Left",
        "col2": "1989-8-21",
        "col3": "Right"
    },
    {
        "col0": "J. Malo",
        "col1": "Right",
        "col2": "1983-9-29",
        "col3": "Right"
    },
    {
        "col0": "J. Lockwood",
        "col1": "Right",
        "col2": "1981-12-12",
        "col3": "Right"
    },
    {
        "col0": "J. Isenia",
        "col1": "Right",
        "col2": "1993-3-31",
        "col3": "Right"
    },
    {
        "col0": "J. Weber",
        "col1": "Left",
        "col2": "1978-1-20",
        "col3": "Left"
    },
    {
        "col0": "J. Debus",
        "col1": "Right",
        "col2": "1958-8-31",
        "col3": "Right"
    },
    {
        "col0": "J. Balentina",
        "col1": "Right",
        "col2": "1971-8-8",
        "col3": "Right"
    },
    {
        "col0": "J. Suomi",
        "col1": "Left",
        "col2": "1980-10-5",
        "col3": "Right"
    },
    {
        "col0": "J. Shoemaker",
        "col1": "Left",
        "col2": "1956-8-18",
        "col3": "Right"
    },
    {
        "col0": "J. Mariotti",
        "col1": "Left",
        "col2": "1984-8-19",
        "col3": "Right"
    },
    {
        "col0": "J. Hudgins",
        "col1": "Right",
        "col2": "1981-8-31",
        "col3": "Right"
    },
    {
        "col0": "J. Fitzpatrick",
        "col1": "Right",
        "col2": "1904-3-19",
        "col3": "Right"
    },
    {
        "col0": "J. Fiscalini",
        "col1": "Right",
        "col2": "1925-2-25",
        "col3": "Unknown"
    },
    {
        "col0": "J. \". Miles",
        "col1": "Right",
        "col2": "1922-8-11",
        "col3": "Right"
    },
    {
        "col0": "J. Newby",
        "col1": "Right",
        "col2": "1982-3-8",
        "col3": "Right"
    },
    {
        "col0": "J. Eijpe",
        "col1": "Left",
        "col2": "1988-1-17",
        "col3": "Left"
    },
    {
        "col0": "Joel De La Cruz",
        "col1": "Switch",
        "col2": "1989-6-9",
        "col3": "Right"
    },
    {
        "col0": "J. Vavra",
        "col1": "Left",
        "col2": "1959-11-16",
        "col3": "Right"
    },
    {
        "col0": "J. Fitzgerald",
        "col1": "Right",
        "col2": "1897-3-17",
        "col3": "Right"
    },
    {
        "col0": "J. Espada",
        "col1": "Right",
        "col2": "1975-8-30",
        "col3": "Right"
    },
    {
        "col0": "J. Camacho",
        "col1": "Right",
        "col2": "1928-5-29",
        "col3": "Right"
    },
    {
        "col0": "J. Williams",
        "col1": "Right",
        "col2": "1926-5-25",
        "col3": "Right"
    },
    {
        "col0": "J. V. Ostrand",
        "col1": "Right",
        "col2": "1984-8-7",
        "col3": "Right"
    },
    {
        "col0": "J. Rantz",
        "col1": "Right",
        "col2": "1938-2-24",
        "col3": "Right"
    },
    {
        "col0": "J. Negrych",
        "col1": "Left",
        "col2": "1985-3-2",
        "col3": "Right"
    },
    {
        "col0": "J. Lett",
        "col1": "Right",
        "col2": "1951-1-3",
        "col3": "Right"
    },
    {
        "col0": "J. Kavourias",
        "col1": "Right",
        "col2": "1979-10-4",
        "col3": "Right"
    },
    {
        "col0": "J. Dobson",
        "col1": "Right",
        "col2": "1939-1-1",
        "col3": "Right"
    },
    {
        "col0": "J. Bragan",
        "col1": "Right",
        "col2": "1929-3-12",
        "col3": "Right"
    },
    {
        "col0": "J. Delong",
        "col1": "Right",
        "col2": "1985-7-4",
        "col3": "Right"
    },
    {
        "col0": "J. Merchan",
        "col1": "Right",
        "col2": "1981-3-26",
        "col3": "Right"
    },
    {
        "col0": "J. Golindano",
        "col1": "Right",
        "col2": "1984-1-13",
        "col3": "Right"
    },
    {
        "col0": "J. Castillo",
        "col1": "Right",
        "col2": "1984-5-31",
        "col3": "Right"
    },
    {
        "col0": "J. Biddle",
        "col1": "Left",
        "col2": "1991-10-22",
        "col3": "Left"
    },
    {
        "col0": "J. Merchan",
        "col1": "Right",
        "col2": "1981-3-26",
        "col3": "Right"
    },
    {
        "col0": "J. Golindano",
        "col1": "Right",
        "col2": "1984-1-13",
        "col3": "Right"
    },
    {
        "col0": "J. Castillo",
        "col1": "Right",
        "col2": "1984-5-31",
        "col3": "Right"
    },
    {
        "col0": "J. Weinstein",
        "col1": "Right",
        "col2": "1943-11-9",
        "col3": "Right"
    },
    {
        "col0": "J. Thomas",
        "col1": "Right",
        "col2": "1935-1-1",
        "col3": "Right"
    },
    {
        "col0": "J. Bleich",
        "col1": "Left",
        "col2": "1987-6-18",
        "col3": "Left"
    },
    {
        "col0": "J. Tseng",
        "col1": "Left",
        "col2": "1994-10-3",
        "col3": "Right"
    },
    {
        "col0": "J. Pentland",
        "col1": "Left",
        "col2": "1946-9-18",
        "col3": "Left"
    },
    {
        "col0": "J. Livesey",
        "col1": "Right",
        "col2": "1966-5-24",
        "col3": "Right"
    },
    {
        "col0": "J. Hoffman",
        "col1": "Right",
        "col2": "1993-1-8",
        "col3": "Right"
    },
    {
        "col0": "J. Bradley",
        "col1": "Left",
        "col2": "1990-6-12",
        "col3": "Left"
    },
    {
        "col0": "J. Tingler",
        "col1": "Left",
        "col2": "1980-11-28",
        "col3": "Left"
    },
    {
        "col0": "J. Johnson",
        "col1": "Right",
        "col2": "1989-12-21",
        "col3": "Left"
    },
    {
        "col0": "J. Rakkar",
        "col1": "Right",
        "col2": "1991-4-27",
        "col3": "Right"
    },
    {
        "col0": "J. Krizan",
        "col1": "Left",
        "col2": "1989-6-28",
        "col3": "Right"
    },
    {
        "col0": "J. Knapp",
        "col1": "Right",
        "col2": "1990-8-31",
        "col3": "Right"
    },
    {
        "col0": "J. Martin",
        "col1": "Left",
        "col2": "1989-8-14",
        "col3": "Left"
    },
    {
        "col0": "J. Long",
        "col1": "Right",
        "col2": "1991-8-28",
        "col3": "Right"
    },
    {
        "col0": "J. Garcia",
        "col1": "Left",
        "col2": "1993-1-18",
        "col3": "Left"
    },
    {
        "col0": "J. Mitchell",
        "col1": "Left",
        "col2": "1988-10-13",
        "col3": "Left"
    },
    {
        "col0": "J. Gallagher",
        "col1": "Left",
        "col2": "1985-9-3",
        "col3": "Left"
    },
    {
        "col0": "J. Avery",
        "col1": "Right",
        "col2": "1984-6-10",
        "col3": "Right"
    },
    {
        "col0": "J. Smith",
        "col1": "Right",
        "col2": "1983-6-5",
        "col3": "Right"
    },
    {
        "col0": "J. Reed",
        "col1": "Right",
        "col2": "1992-9-29",
        "col3": "Right"
    },
    {
        "col0": "J. Lowery",
        "col1": "Left",
        "col2": "1990-7-21",
        "col3": "Right"
    },
    {
        "col0": "J. Lemmerman",
        "col1": "Right",
        "col2": "1989-5-4",
        "col3": "Right"
    },
    {
        "col0": "J. Esch",
        "col1": "Right",
        "col2": "1990-3-27",
        "col3": "Right"
    },
    {
        "col0": "J. Bauers",
        "col1": "Left",
        "col2": "1995-10-6",
        "col3": "Left"
    },
    {
        "col0": "J. Schultz",
        "col1": "Right",
        "col2": "1991-6-20",
        "col3": "Right"
    },
    {
        "col0": "J. Ha",
        "col1": "Right",
        "col2": "1990-10-29",
        "col3": "Right"
    },
    {
        "col0": "J. Nix",
        "col1": "Right",
        "col2": "1996-1-9",
        "col3": "Right"
    },
    {
        "col0": "J. Hannemann",
        "col1": "Left",
        "col2": "1991-4-29",
        "col3": "Left"
    },
    {
        "col0": "J. Santora",
        "col1": "Switch",
        "col2": "1976-10-6",
        "col3": "Right"
    },
    {
        "col0": "J. Murphy",
        "col1": "Switch",
        "col2": "1988-4-6",
        "col3": "Right"
    },
    {
        "col0": "J. Maloof",
        "col1": "Left",
        "col2": "1948-10-12",
        "col3": "Left"
    },
    {
        "col0": "J. Fry",
        "col1": "Left",
        "col2": "1993-7-9",
        "col3": "Left"
    },
    {
        "col0": "J. Jones",
        "col1": "Right",
        "col2": "1992-5-10",
        "col3": "Right"
    },
    {
        "col0": "J. T. Wise",
        "col1": "Right",
        "col2": "1986-6-2",
        "col3": "Right"
    },
    {
        "col0": "J. T. Chargois",
        "col1": "Right",
        "col2": "1990-12-3",
        "col3": "Right"
    },
    {
        "col0": "J. P. Crawford",
        "col1": "Left",
        "col2": "1995-1-11",
        "col3": "Right"
    },
    {
        "col0": "J. C. Sulbaran",
        "col1": "Right",
        "col2": "1989-11-9",
        "col3": "Right"
    },
    {
        "col0": "J. B. Cox",
        "col1": "Left",
        "col2": "1984-5-13",
        "col3": "Right"
    },
    {
        "col0": "I. Granados",
        "col1": "Left",
        "col2": "1985-9-30",
        "col3": "Left"
    },
    {
        "col0": "I. Clarkin",
        "col1": "Left",
        "col2": "1995-2-14",
        "col3": "Left"
    },
    {
        "col0": "I. Januario",
        "col1": "Left",
        "col2": "1993-1-20",
        "col3": "Right"
    },
    {
        "col0": "H. Renfroe",
        "col1": "Right",
        "col2": "1992-1-28",
        "col3": "Right"
    },
    {
        "col0": "H. Harvey",
        "col1": "Right",
        "col2": "1994-9-2",
        "col3": "Right"
    },
    {
        "col0": "H. Kanabushi",
        "col1": "Left",
        "col2": "1989-5-22",
        "col3": "Left"
    },
    {
        "col0": "Houston Astros minor league players",
        "col1": "Left",
        "col2": "1990-11-17",
        "col3": "Left"
    },
    {
        "col0": "H. Ogawa",
        "col1": "Right",
        "col2": "1940-1-25",
        "col3": "Right"
    },
    {
        "col0": "H. Gilroy",
        "col1": "Unknown",
        "col2": "1852-0-0",
        "col3": "Unknown"
    },
    {
        "col0": "H. Parker",
        "col1": "Right",
        "col2": "1947-9-14",
        "col3": "Right"
    },
    {
        "col0": "H. Dunlop",
        "col1": "Left",
        "col2": "1933-9-6",
        "col3": "Right"
    },
    {
        "col0": "H. Bader",
        "col1": "Right",
        "col2": "1994-6-3",
        "col3": "Right"
    },
    {
        "col0": "H. Lee",
        "col1": "Left",
        "col2": "1990-11-4",
        "col3": "Right"
    },
    {
        "col0": "H. Statia",
        "col1": "Switch",
        "col2": "1986-1-19",
        "col3": "Right"
    },
    {
        "col0": "G. Ritchie",
        "col1": "Left",
        "col2": "1964-1-25",
        "col3": "Left"
    },
    {
        "col0": "G. Nappo",
        "col1": "Left",
        "col2": "1988-8-25",
        "col3": "Left"
    },
    {
        "col0": "G. Holmes",
        "col1": "Right",
        "col2": "1996-3-22",
        "col3": "Right"
    },
    {
        "col0": "G. Holt",
        "col1": "Right",
        "col2": "1902-3-22",
        "col3": "Right"
    },
    {
        "col0": "G. Davis",
        "col1": "Right",
        "col2": "1991-12-7",
        "col3": "Right"
    },
    {
        "col0": "G. Gregson",
        "col1": "Right",
        "col2": "1950-2-10",
        "col3": "Right"
    },
    {
        "col0": "G. Chiaramonte",
        "col1": "Right",
        "col2": "1976-2-19",
        "col3": "Right"
    },
    {
        "col0": "G. Stanton",
        "col1": "Right",
        "col2": "1989-11-8",
        "col3": "Right"
    },
    {
        "col0": "G. Alvarado",
        "col1": "Right",
        "col2": "1978-1-24",
        "col3": "Right"
    },
    {
        "col0": "G. Cecchini",
        "col1": "Right",
        "col2": "1993-12-22",
        "col3": "Right"
    },
    {
        "col0": "G. LaRocque",
        "col1": "Left",
        "col2": "1953-1-1",
        "col3": "Right"
    },
    {
        "col0": "G. Denbo",
        "col1": "Right",
        "col2": "1960-12-9",
        "col3": "Right"
    },
    {
        "col0": "G. Stubbs",
        "col1": "Left",
        "col2": "1993-5-26",
        "col3": "Right"
    },
    {
        "col0": "G. Asakura",
        "col1": "Right",
        "col2": "1988-11-12",
        "col3": "Right"
    },
    {
        "col0": "G. Suarez",
        "col1": "Right",
        "col2": "1984-12-14",
        "col3": "Right"
    },
    {
        "col0": "F. Hanvi",
        "col1": "Right",
        "col2": "1989-5-2",
        "col3": "Right"
    },
    {
        "col0": "F. Ehlen",
        "col1": "Unknown",
        "col2": "1851-9-12",
        "col3": "Unknown"
    },
    {
        "col0": "F. Koenig",
        "col1": "Right",
        "col2": "1931-4-27",
        "col3": "Right"
    },
    {
        "col0": "F. Barreto",
        "col1": "Right",
        "col2": "1996-2-27",
        "col3": "Right"
    },
    {
        "col0": "F. V. III",
        "col1": "Right",
        "col2": "1984-6-19",
        "col3": "Right"
    },
    {
        "col0": "F. Oceak",
        "col1": "Right",
        "col2": "1912-9-8",
        "col3": "Right"
    },
    {
        "col0": "F. Genovese",
        "col1": "Left",
        "col2": "1914-11-23",
        "col3": "Right"
    },
    {
        "col0": "F. Batista",
        "col1": "Right",
        "col2": "1989-4-26",
        "col3": "Right"
    },
    {
        "col0": "F. Hanvi",
        "col1": "Right",
        "col2": "1989-5-2",
        "col3": "Right"
    },
    {
        "col0": "F. Burin",
        "col1": "Left",
        "col2": "1992-2-10",
        "col3": "Right"
    },
    {
        "col0": "F. Castaneda",
        "col1": "Right",
        "col2": "1984-11-24",
        "col3": "Right"
    },
    {
        "col0": "E. Rojas",
        "col1": "Right",
        "col2": "1967-8-25",
        "col3": "Right"
    },
    {
        "col0": "E. Gonzalez",
        "col1": "Right",
        "col2": "1991-8-31",
        "col3": "Right"
    },
    {
        "col0": "E. Sanchez",
        "col1": "Right",
        "col2": "1975-4-12",
        "col3": "Right"
    },
    {
        "col0": "E. Stamets",
        "col1": "Right",
        "col2": "1991-9-25",
        "col3": "Right"
    },
    {
        "col0": "E. Jagielo",
        "col1": "Left",
        "col2": "1992-5-17",
        "col3": "Right"
    },
    {
        "col0": "E. Gonzalez",
        "col1": "Right",
        "col2": "1986-9-5",
        "col3": "Right"
    },
    {
        "col0": "E. Frostad",
        "col1": "Left",
        "col2": "1983-1-13",
        "col3": "Right"
    },
    {
        "col0": "E. Salem",
        "col1": "Left",
        "col2": "1985-2-11",
        "col3": "Left"
    },
    {
        "col0": "E. Navarro",
        "col1": "Left",
        "col2": "1987-10-26",
        "col3": "Left"
    },
    {
        "col0": "E. Ai",
        "col1": "Right",
        "col2": "1964-9-29",
        "col3": "Right"
    },
    {
        "col0": "E. Nieves",
        "col1": "Left",
        "col2": "1989-11-15",
        "col3": "Left"
    },
    {
        "col0": "E. Arredondo",
        "col1": "Left",
        "col2": "1984-10-15",
        "col3": "Left"
    },
    {
        "col0": "E. Reynoso",
        "col1": "Right",
        "col2": "1975-11-10",
        "col3": "Right"
    },
    {
        "col0": "E. Rodriguez",
        "col1": "Right",
        "col2": "1959-3-11",
        "col3": "Right"
    },
    {
        "col0": "E. Sedar",
        "col1": "right",
        "col2": "1961-8-8",
        "col3": "right"
    },
    {
        "col0": "D. Covey",
        "col1": "Right",
        "col2": "1991-8-14",
        "col3": "Right"
    },
    {
        "col0": "D. Peterson",
        "col1": "Right",
        "col2": "1994-9-10",
        "col3": "Right"
    },
    {
        "col0": "D. Molleken",
        "col1": "Left",
        "col2": "1984-8-21",
        "col3": "Right"
    },
    {
        "col0": "D. Majewski",
        "col1": "Left",
        "col2": "1981-8-16",
        "col3": "Left"
    }
]