[
    {
        "col0": "San Javier Airport",
        "col1": "San Javier, Nuflo de Chavez",
        "col2": "SLJV",
        "col3": "519"
    },
    {
        "col0": "San Ignacio de Moxos Airport",
        "col1": "San Ignacio de Moxos",
        "col2": "SLSM",
        "col3": "241"
    },
    {
        "col0": "San Geronimo Aerodrome",
        "col1": "Algarrobo, Chile",
        "col2": "SCSG",
        "col3": "103"
    },
    {
        "col0": "San Gabriel Valley Airport",
        "col1": "California",
        "col2": "KEMT",
        "col3": "90"
    },
    {
        "col0": "San Francisco International Airport",
        "col1": "San Francisco Bay Area",
        "col2": "KSFO",
        "col3": "3"
    },
    {
        "col0": "San Fernando Airport",
        "col1": "San Fernando, La Union",
        "col2": "RPUS",
        "col3": "3"
    },
    {
        "col0": "San Fernando Airport",
        "col1": "San Fernando, Chile",
        "col2": "SCSD",
        "col3": "328"
    },
    {
        "col0": "San Fernando Airport",
        "col1": "Argentina",
        "col2": "SADF",
        "col3": "3"
    },
    {
        "col0": "San Diego International Airport",
        "col1": "Greater San Diego",
        "col2": "KSAN",
        "col3": "5"
    },
    {
        "col0": "San Cristobal de las Casas National Airport",
        "col1": "Mexico",
        "col2": "(Location of airport in Mexico)",
        "col3": "2189"
    },
    {
        "col0": "San Cristobal Airport",
        "col1": "Ecuador",
        "col2": "(Location of airport in Ecuador)",
        "col3": "18"
    },
    {
        "col0": "San Cristobal de las Casas National Airport",
        "col1": "San Cristobal de las Casas",
        "col2": "(Location of airport in Mexico)",
        "col3": "2189"
    },
    {
        "col0": "San Cristobal Airport",
        "col1": "Ecuador",
        "col2": "(Location of airport in Ecuador)",
        "col3": "18"
    },
    {
        "col0": "San Carlos de Bariloche Airport",
        "col1": "San Carlos de Bariloche",
        "col2": "SAZS",
        "col3": "846"
    },
    {
        "col0": "San Carlos Santa Marta Airport",
        "col1": "San Carlos, Chile",
        "col2": "SCKA",
        "col3": "175"
    },
    {
        "col0": "San Carlos Airport",
        "col1": "San Carlos, Mendoza",
        "col2": "SAMS",
        "col3": "940"
    },
    {
        "col0": "San Carlos Airport",
        "col1": "San Carlos, California",
        "col2": "KSQL",
        "col3": "1"
    },
    {
        "col0": "San Bernardino International Airport",
        "col1": "Inland Empire",
        "col2": "KSBD",
        "col3": "353"
    },
    {
        "col0": "San Antonio International Airport",
        "col1": "Greater San Antonio",
        "col2": "KSAT",
        "col3": "246"
    },
    {
        "col0": "San Andros Airport",
        "col1": "Andros Island",
        "col2": "MYAN",
        "col3": "1"
    },
    {
        "col0": "San Alberto Airport",
        "col1": "Siquirres",
        "col2": "MRSA",
        "col3": "26"
    },
    {
        "col0": "Samui Airport",
        "col1": "Ko Samui",
        "col2": "(Location of airport in Thailand)",
        "col3": "19"
    },
    {
        "col0": "Samuels Field",
        "col1": "Bardstown, Kentucky",
        "col2": "KBRY",
        "col3": "203"
    },
    {
        "col0": "Samjiyon Airport",
        "col1": "North Korea",
        "col2": "(Location of airport in North Korea)",
        "col3": "1385"
    },
    {
        "col0": "Samedan Airport",
        "col1": "St. Moritz",
        "col2": "LSZS",
        "col3": "1706"
    },
    {
        "col0": "Same Airstrip",
        "col1": "Same, Tanzania",
        "col2": "HTSE",
        "col3": "914"
    },
    {
        "col0": "Samburu Airport",
        "col1": "Kenya",
        "col2": "HKSB",
        "col3": "1004"
    },
    {
        "col0": "Sambava Airport",
        "col1": "Sambava",
        "col2": "FMNS",
        "col3": "6"
    },
    {
        "col0": "Sambailo Airport",
        "col1": "Koundara",
        "col2": "GUSB",
        "col3": "89"
    },
    {
        "col0": "Samarkand International Airport",
        "col1": "Samarkand",
        "col2": "(Location of air base in Uzbekistan)",
        "col3": "677"
    },
    {
        "col0": "Samarinda International Airport",
        "col1": "Samarinda",
        "col2": "WALS",
        "col3": "24"
    },
    {
        "col0": "Samana El Catey International Airport",
        "col1": "Samana",
        "col2": "MDCY",
        "col3": "3"
    },
    {
        "col0": "Samaipata Florida Airport",
        "col1": "Samaipata, Bolivia",
        "col2": "SLIP",
        "col3": "1706"
    },
    {
        "col0": "Sam Ratulangi International Airport",
        "col1": "Manado",
        "col2": "WAMM",
        "col3": "81"
    },
    {
        "col0": "Sam Mbakwe Airport",
        "col1": "Nigeria",
        "col2": "DNIM",
        "col3": "113"
    },
    {
        "col0": "Salzburg Airport",
        "col1": "Austria",
        "col2": "(Location of airport in Austria)",
        "col3": "430"
    },
    {
        "col0": "Salton Sea Airport",
        "col1": "Salton City, California",
        "col2": "KSAS",
        "col3": "-25"
    },
    {
        "col0": "Salto del Guaira Airport",
        "col1": "Salto del Guaira",
        "col2": "SGGR",
        "col3": "304"
    },
    {
        "col0": "Sallisaw Municipal Airport",
        "col1": "Sallisaw, Oklahoma",
        "col2": "KJSV",
        "col3": "160"
    },
    {
        "col0": "Salisbury-Ocean City-Wicomico Regional Airport",
        "col1": "Salisbury, Maryland",
        "col2": "KSBY",
        "col3": "16"
    },
    {
        "col0": "Saline County Regional Airport",
        "col1": "Benton, Arkansas",
        "col2": "KSUZ",
        "col3": "118"
    },
    {
        "col0": "Salinas Municipal Airport",
        "col1": "Salinas, California",
        "col2": "KSNS",
        "col3": "25"
    },
    {
        "col0": "Salina Regional Airport",
        "col1": "Salina, Kansas",
        "col2": "KSLN",
        "col3": "392"
    },
    {
        "col0": "Salima Airport",
        "col1": "Salima",
        "col2": "FWSM",
        "col3": "514"
    },
    {
        "col0": "Salgado Filho International Airport",
        "col1": "Porto Alegre",
        "col2": "SBPA",
        "col3": "3"
    },
    {
        "col0": "Salerno Costa d'Amalfi Airport",
        "col1": "Salerno",
        "col2": "(Location of the airport in Italy)",
        "col3": "39"
    },
    {
        "col0": "Salem-Leckrone Airport",
        "col1": "Salem, Illinois",
        "col2": "KSLO",
        "col3": "174"
    },
    {
        "col0": "Salem Airport",
        "col1": "Salem District",
        "col2": "VOSM",
        "col3": "307"
    },
    {
        "col0": "Salem-Leckrone Airport",
        "col1": "Salem, Illinois",
        "col2": "KSLO",
        "col3": "174"
    },
    {
        "col0": "Salekhard Airport",
        "col1": "Salekhard",
        "col2": "USDD",
        "col3": "66"
    },
    {
        "col0": "Salar de Atacama Airport",
        "col1": "Salar de Atacama",
        "col2": "SCSL",
        "col3": "2301"
    },
    {
        "col0": "Salangen Airport, Elvenes",
        "col1": "Norway",
        "col2": "ENLV",
        "col3": "8"
    },
    {
        "col0": "Salamanca Los Pelmabres Airport",
        "col1": "Salamanca, Chile",
        "col2": "SCNK",
        "col3": "1220"
    },
    {
        "col0": "Salalah International Airport",
        "col1": "Dhofar",
        "col2": "(Location of Airport in Oman)",
        "col3": "22"
    },
    {
        "col0": "Salak Airport",
        "col1": "Maroua",
        "col2": "FKKL",
        "col3": "423"
    },
    {
        "col0": "Sakkyryr Airport",
        "col1": "Russia",
        "col2": "UEBS",
        "col3": "25"
    },
    {
        "col0": "Sakhir Air Base",
        "col1": "Awali",
        "col2": "OBKH",
        "col3": "14"
    },
    {
        "col0": "Saiq Airport",
        "col1": "Saiq",
        "col2": "OOSQ",
        "col3": "1981"
    },
    {
        "col0": "Sainte Marie Airport",
        "col1": "Madagascar",
        "col2": "(Location of Airport in Madagascar)",
        "col3": "2"
    },
    {
        "col0": "Saint John Airport",
        "col1": "Saint John, New Brunswick",
        "col2": "CYSJ",
        "col3": "108"
    },
    {
        "col0": "Saint-Etienne-Boutheon Airport",
        "col1": "Saint-Etienne",
        "col2": "LFMH",
        "col3": "403"
    },
    {
        "col0": "Saint-Yan Airport",
        "col1": "France",
        "col2": "LFLN",
        "col3": "242"
    },
    {
        "col0": "Saint-Pierre Airport",
        "col1": "Saint-Pierre, Saint-Pierre and Miquelon",
        "col2": "LFVP",
        "col3": "7"
    },
    {
        "col0": "Saint-Louis Airport",
        "col1": "Saint-Louis, Senegal",
        "col2": "GOSS",
        "col3": "2"
    },
    {
        "col0": "Saint-Laurent-du-Maroni Airport",
        "col1": "French Guiana",
        "col2": "SOOM",
        "col3": "5"
    },
    {
        "col0": "Saint-Hubert Airport",
        "col1": "Saint-Hubert, Belgium",
        "col2": "EBSH",
        "col3": "562"
    },
    {
        "col0": "Saint-Georges-de-l'Oyapock Airport",
        "col1": "French Guiana",
        "col2": "SOOG",
        "col3": "10"
    },
    {
        "col0": "Saint-Francois Airport",
        "col1": "Saint-Francois",
        "col2": "TFFC",
        "col3": "3"
    },
    {
        "col0": "Saint-Brieuc - Armor Airport",
        "col1": "France",
        "col2": "LFRT",
        "col3": "137"
    },
    {
        "col0": "Saint-Etienne-Boutheon Airport",
        "col1": "Saint-Etienne",
        "col2": "LFMH",
        "col3": "403"
    },
    {
        "col0": "Saifai Airport",
        "col1": "Etawah",
        "col2": "(Location of airport in Uttar Pradesh)",
        "col3": "102"
    },
    {
        "col0": "Sahnewal Airport",
        "col1": "Ludhiana",
        "col2": "(Location of airport in India)",
        "col3": "254"
    },
    {
        "col0": "Saglek Airport",
        "col1": "CFS Saglek",
        "col2": "CYSV",
        "col3": "81"
    },
    {
        "col0": "Saginaw County H.W. Browne Airport",
        "col1": "Saginaw, Michigan",
        "col2": "KHYX",
        "col3": "183"
    },
    {
        "col0": "Saga Airport",
        "col1": "Fukuoka-Kitakyushu",
        "col2": "RJFS",
        "col3": "1"
    },
    {
        "col0": "Safford Regional Airport",
        "col1": "Safford, Arizona",
        "col2": "KSAD",
        "col3": "968"
    },
    {
        "col0": "Sadiq Abubakar III International Airport",
        "col1": "Sokoto",
        "col2": "(Location of Airport in Nigeria)",
        "col3": "307"
    },
    {
        "col0": "Sacramento Mather Airport",
        "col1": "Sacramento, California",
        "col2": "KMHR",
        "col3": "29"
    },
    {
        "col0": "Sacramento International Airport",
        "col1": "Sacramento, California",
        "col2": "KSMF",
        "col3": "8"
    },
    {
        "col0": "Sacheon Airport",
        "col1": "Jinju",
        "col2": "(Location of airport in South Korea)",
        "col3": "7"
    },
    {
        "col0": "Sabiha Gokcen International Airport",
        "col1": "Constantinople",
        "col2": "LTFJ",
        "col3": "95"
    },
    {
        "col0": "Sabha Airport",
        "col1": "Sabha, Libya",
        "col2": "HLLS",
        "col3": "424"
    },
    {
        "col0": "Saattut Heliport",
        "col1": "Greenland",
        "col2": "BGST",
        "col3": "39"
    },
    {
        "col0": "Saarbrucken Airport",
        "col1": "Germany",
        "col2": "(Location of the airport in South Saarland)",
        "col3": "322"
    },
    {
        "col0": "Saadah Airport",
        "col1": "Sa'dah",
        "col2": "OYSH",
        "col3": "1810"
    },
    {
        "col0": "Saul Airport",
        "col1": "French Guiana",
        "col2": "SOOS",
        "col3": "224"
    },
    {
        "col0": "S. Darius and S. Girenas Airport",
        "col1": "Lithuania",
        "col2": "EYKS",
        "col3": "74"
    },
    {
        "col0": "Selibaby Airport",
        "col1": "Mauritania",
        "col2": "(Location of airport in Mauritania)",
        "col3": "79"
    },
    {
        "col0": "Sao Tome International Airport",
        "col1": "Principe Airport",
        "col2": "(Location of airport in Sao Tome and Principe)",
        "col3": "10"
    },
    {
        "col0": "Sao Raimundo Nonato Airport",
        "col1": "Sao Raimundo Nonato",
        "col2": "SWKQ",
        "col3": "415"
    },
    {
        "col0": "Sao Pedro Airport",
        "col1": "Sao Pedro, Sao Paulo",
        "col2": "SDAE",
        "col3": "566"
    },
    {
        "col0": "Sao Paulo de Olivenca Airport",
        "col1": "Sao Paulo de Olivenca",
        "col2": "SDCG",
        "col3": "102"
    },
    {
        "col0": "Sao Paulo-Guarulhos International Airport",
        "col1": "Sao Paulo",
        "col2": "SBGR",
        "col3": "749"
    },
    {
        "col0": "Sao Paulo-Congonhas Airport",
        "col1": "Sao Paulo",
        "col2": "SBSP",
        "col3": "801"
    },
    {
        "col0": "Sao Miguel do Oeste Airport",
        "col1": "Sao Miguel do Oeste",
        "col2": "SSOE",
        "col3": "665"
    },
    {
        "col0": "Sao Jose dos Campos Airport",
        "col1": "Sao Jose dos Campos",
        "col2": "SBSJ",
        "col3": "646"
    },
    {
        "col0": "Sao Jose do Rio Preto Airport",
        "col1": "Sao Jose do Rio Preto",
        "col2": "SBSR",
        "col3": "542"
    },
    {
        "col0": "Sao Jorge Airport",
        "col1": "Azores",
        "col2": "LPSJ",
        "col3": "102"
    },
    {
        "col0": "Sao Joao del-Rei Airport",
        "col1": "Sao Joao del Rei",
        "col2": "SNJR",
        "col3": "947"
    },
    {
        "col0": "Sao Jacinto Airport",
        "col1": "Aveiro, Portugal",
        "col2": "LPAV",
        "col3": "7"
    },
    {
        "col0": "Sao Gabriel da Cachoeira Airport",
        "col1": "Sao Gabriel da Cachoeira",
        "col2": "SBUA",
        "col3": "75"
    },
    {
        "col0": "Sao Filipe Airport",
        "col1": "Sao Filipe, Cape Verde",
        "col2": "GVSF",
        "col3": "20"
    },
    {
        "col0": "Sao Felix do Xingu Airport",
        "col1": "Sao Felix do Xingu",
        "col2": "SNFX",
        "col3": "199"
    },
    {
        "col0": "Sao Felix do Araguaia Airport",
        "col1": "Sao Felix do Araguaia",
        "col2": "SWFX",
        "col3": "198"
    },
    {
        "col0": "Sao Carlos Airport",
        "col1": "Sao Carlos",
        "col2": "SDSC",
        "col3": "807"
    },
    {
        "col0": "Sao Borja Airport",
        "col1": "Sao Borja",
        "col2": "SSSB",
        "col3": "74"
    },
    {
        "col0": "Rost Airport",
        "col1": "Norway",
        "col2": "ENRS",
        "col3": "3"
    },
    {
        "col0": "Rorvik Airport, Ryum",
        "col1": "Norway",
        "col2": "ENRM",
        "col3": "4"
    },
    {
        "col0": "Roros Airport",
        "col1": "Norway",
        "col2": "ENRO",
        "col3": "626"
    },
    {
        "col0": "Rio Tercero Airport",
        "col1": "Rio Tercero, Cordoba",
        "col2": "SAOE",
        "col3": "378"
    },
    {
        "col0": "Rio Pascua Airport",
        "col1": "Tortel",
        "col2": "SCTP",
        "col3": "60"
    },
    {
        "col0": "Rio Negro Airport",
        "col1": "Rio Negro, Chile",
        "col2": "SCRN",
        "col3": "3"
    },
    {
        "col0": "Rio Mayer Airport",
        "col1": "Villa O'Higgins",
        "col2": "SCOH",
        "col3": "273"
    },
    {
        "col0": "Rio Colorado Airport",
        "col1": "Rio Colorado, Rio Negro",
        "col2": "SAZQ",
        "col3": "78"
    },
    {
        "col0": "Rio Claro Cumpeo Lontuecito Airport",
        "col1": "Rio Claro",
        "col2": "SCUP",
        "col3": "324"
    },
    {
        "col0": "Rio Claro Airport",
        "col1": "Rio Claro",
        "col2": "SCBV",
        "col3": "269"
    },
    {
        "col0": "Rio Bravo Airport",
        "col1": "Tortel",
        "col2": "SCRB",
        "col3": "11"
    },
    {
        "col0": "Rio Branco Airport",
        "col1": "Rio Branco",
        "col2": "SURB",
        "col3": "16"
    },
    {
        "col0": "Regina Airport",
        "col1": "French Guiana",
        "col2": "SOOR",
        "col3": "6"
    },
    {
        "col0": "Rzeszow-Jasionka Airport",
        "col1": "Poland",
        "col2": "(Location of airport in Poland)",
        "col3": "210"
    },
    {
        "col0": "Moss Airport, Rygge",
        "col1": "Norway",
        "col2": "ENRY",
        "col3": "52"
    },
    {
        "col0": "Ryan Airfield",
        "col1": "Tucson, Arizona",
        "col2": "KRYN",
        "col3": "737"
    },
    {
        "col0": "Rutshuru Airport",
        "col1": "Rutshuru",
        "col2": "FZNC",
        "col3": "1129"
    },
    {
        "col0": "Rutland - Southern Vermont Regional Airport",
        "col1": "Rutland",
        "col2": "KRUT",
        "col3": "239"
    },
    {
        "col0": "Ruston Regional Airport",
        "col1": "Ruston, Louisiana",
        "col2": "KRSN",
        "col3": "94"
    },
    {
        "col0": "Rustenburg Airfield",
        "col1": "Rustenburg",
        "col2": "FARG",
        "col3": "1127"
    },
    {
        "col0": "Russian Mission Airport",
        "col1": "Russian Mission, Alaska",
        "col2": "PARS",
        "col3": "15"
    },
    {
        "col0": "Russellville Regional Airport",
        "col1": "Russellville, Arkansas",
        "col2": "KRUE",
        "col3": "123"
    },
    {
        "col0": "Rusk County Airport",
        "col1": "Ladysmith, Wisconsin",
        "col2": "KRCX",
        "col3": "377"
    },
    {
        "col0": "Rusk County Airport",
        "col1": "Henderson, Texas",
        "col2": "KRFI",
        "col3": "134"
    },
    {
        "col0": "Rush City Regional Airport",
        "col1": "Pine City, Minnesota",
        "col2": "KROS",
        "col3": "281"
    },
    {
        "col0": "Ruse Airport",
        "col1": "Ruse, Bulgaria",
        "col2": "LBRS",
        "col3": "174"
    },
    {
        "col0": "Rurutu Airport",
        "col1": "Rurutu",
        "col2": "NTAR",
        "col3": "3"
    },
    {
        "col0": "Rundu Airport",
        "col1": "Rundu",
        "col2": "(Location of airport in Namibia)",
        "col3": "1105"
    },
    {
        "col0": "Rumjatar Airport",
        "col1": "Rumjatar",
        "col2": "(Location of airport in Nepal)",
        "col3": "1371"
    },
    {
        "col0": "Rumbek Airport",
        "col1": "South Sudan",
        "col2": "(Location of Rumbek Airport in South Sudan)",
        "col3": "420"
    },
    {
        "col0": "Ruhnu Airfield",
        "col1": "Ruhnu",
        "col2": "EERU",
        "col3": "3"
    },
    {
        "col0": "Ruhengeri Airport",
        "col1": "Ruhengeri",
        "col2": "HRYU",
        "col3": "1859"
    },
    {
        "col0": "Rugby Municipal Airport",
        "col1": "Rugby, North Dakota",
        "col2": "KRUG",
        "col3": "471"
    },
    {
        "col0": "Rucananco Airport",
        "col1": "Rio Bueno, Chile",
        "col2": "SCRQ",
        "col3": "153"
    },
    {
        "col0": "Ruby Airport",
        "col1": "Ruby, Alaska",
        "col2": "PARY",
        "col3": "200"
    },
    {
        "col0": "Ruben Berta International Airport",
        "col1": "Uruguaiana",
        "col2": "SBUG",
        "col3": "78"
    },
    {
        "col0": "Ruacana Airport",
        "col1": "Ruacana",
        "col2": "FYRC",
        "col3": "1147"
    },
    {
        "col0": "Royan - Medis Aerodrome",
        "col1": "France",
        "col2": "LFCY",
        "col3": "21"
    },
    {
        "col0": "Roxas Airport",
        "col1": "Roxas City",
        "col2": "RPVR",
        "col3": "147"
    },
    {
        "col0": "Rowan County Airport",
        "col1": "Salisbury, North Carolina",
        "col2": "KRUQ",
        "col3": "235"
    },
    {
        "col0": "Rovaniemi Airport",
        "col1": "Finland",
        "col2": "EFRO",
        "col3": "195"
    },
    {
        "col0": "Rourkela Airport",
        "col1": "Odisha",
        "col2": "(Location of the Airport in Odisha)",
        "col3": "199"
    },
    {
        "col0": "Roundup Airport",
        "col1": "Roundup, Montana",
        "col2": "KRPX",
        "col3": "1063"
    },
    {
        "col0": "Rouen Airport",
        "col1": "France",
        "col2": "LFOP",
        "col3": "156"
    },
    {
        "col0": "Rotuma Airport",
        "col1": "Rotuma Island",
        "col2": "(Location of airport in Fiji)",
        "col3": "6"
    },
    {
        "col0": "Rotterdam The Hague Airport",
        "col1": "Rotterdam",
        "col2": "(Location of airport in Netherlands)",
        "col3": "-4"
    },
    {
        "col0": "Rotorua Regional Airport",
        "col1": "Bay of Plenty",
        "col2": "NZRO",
        "col3": "285"
    },
    {
        "col0": "Roswell International Air Center",
        "col1": "Roswell, New Mexico",
        "col2": "KROW",
        "col3": "1118"
    },
    {
        "col0": "Rostraver Airport",
        "col1": "Monongahela, Pennsylvania",
        "col2": "KFWQ",
        "col3": "374"
    },
    {
        "col0": "Rostov-on-Don Airport",
        "col1": "Rostov-on-Don",
        "col2": "(Location of airport in Rostov Oblast)",
        "col3": "78"
    },
    {
        "col0": "Rostock-Laage Airport",
        "col1": "Germany",
        "col2": "ETNL",
        "col3": "42"
    },
    {
        "col0": "Roskilde Airport",
        "col1": "Copenhagen",
        "col2": "(Location of airport in Denmark)",
        "col3": "44"
    },
    {
        "col0": "Roshchino International Airport",
        "col1": "Tyumen",
        "col2": "USTR",
        "col3": "113"
    },
    {
        "col0": "Roseburg Regional Airport",
        "col1": "Roseburg, Oregon",
        "col2": "KRBG",
        "col3": "161"
    },
    {
        "col0": "Rosebud Sioux Tribal Airport",
        "col1": "Rosebud, South Dakota",
        "col2": "KSUO",
        "col3": "830"
    },
    {
        "col0": "Roscommon County-Blodgett Memorial Airport",
        "col1": "Houghton Lake, Michigan",
        "col2": "KHTL",
        "col3": "350"
    },
    {
        "col0": "Roscoe Turner Airport",
        "col1": "Corinth, Mississippi",
        "col2": "KCRX",
        "col3": "129"
    },
    {
        "col0": "Rosario - Islas Malvinas International Airport",
        "col1": "Argentina",
        "col2": "(Location of airport in Argentina)",
        "col3": "25"
    },
    {
        "col0": "Rooks County Regional Airport",
        "col1": "Stockton, Kansas",
        "col2": "KRCP",
        "col3": "608"
    },
    {
        "col0": "Rondonopolis Airport",
        "col1": "Rondonopolis",
        "col2": "SWRD",
        "col3": "447"
    },
    {
        "col0": "Ronald Reagan Washington National Airport",
        "col1": "Washington Metropolitan Area",
        "col2": "KDCA",
        "col3": "4"
    },
    {
        "col0": "Romeral San Miguel Airport",
        "col1": "Romeral",
        "col2": "SCOE",
        "col3": "459"
    },
    {
        "col0": "Rome Viterbo Airport",
        "col1": "Rome",
        "col2": "LIRV",
        "col3": "300"
    },
    {
        "col0": "Rome State Airport",
        "col1": "Rome, Oregon",
        "col2": "KREO",
        "col3": "1235"
    },
    {
        "col0": "Rolla National Airport",
        "col1": "Rolla, Missouri",
        "col2": "KVIH",
        "col3": "349"
    },
    {
        "col0": "Roland Garros Airport",
        "col1": "Reunion",
        "col2": "(Location of airport in Reunion)",
        "col3": "20"
    },
    {
        "col0": "Roi Et Airport",
        "col1": "Thailand",
        "col2": "(Location of airport in Thailand)",
        "col3": "137"
    },
    {
        "col0": "Rogue Valley International-Medford Airport",
        "col1": "Medford, Oregon",
        "col2": "KMFR",
        "col3": "406"
    },
    {
        "col0": "Rogers Municipal Airport",
        "col1": "Rogers, Arkansas",
        "col2": "KROG",
        "col3": "414"
    },
    {
        "col0": "Rodriguez Ballon International Airport",
        "col1": "Arequipa",
        "col2": "SPQU",
        "col3": "2560"
    },
    {
        "col0": "Rodelillo Airfield",
        "col1": "Vina del Mar, Chile",
        "col2": "SCRD",
        "col3": "335"
    },
    {
        "col0": "Rocky Mount-Wilson Regional Airport",
        "col1": "North Carolina",
        "col2": "KRWI",
        "col3": "48"
    },
    {
        "col0": "Rocky Mountain Metropolitan Airport",
        "col1": "Denver, Colorado",
        "col2": "KBJC",
        "col3": "1729"
    },
    {
        "col0": "Rocky Mount-Wilson Regional Airport",
        "col1": "North Carolina",
        "col2": "KRWI",
        "col3": "48"
    },
    {
        "col0": "Rockwood Municipal Airport",
        "col1": "Rockwood, Tennessee",
        "col2": "KRKW",
        "col3": "507"
    },
    {
        "col0": "Rockingham County NC Shiloh Airport",
        "col1": "Reidsville, North Carolina",
        "col2": "KSIF",
        "col3": "211"
    },
    {
        "col0": "Rockhampton Airport",
        "col1": "Queensland",
        "col2": "YBRK",
        "col3": "10"
    },
    {
        "col0": "Rock Springs-Sweetwater County Airport",
        "col1": "Rock Springs, Wyoming",
        "col2": "KRKS",
        "col3": "2061"
    },
    {
        "col0": "Rock Hill/York County Airport",
        "col1": "Rock Hill, South Carolina",
        "col2": "KUZA",
        "col3": "203"
    }
]