[
    {
        "col0": "Venussian Tabutasco",
        "col1": "Daryush Shokof",
        "col2": "D. Shokof",
        "col3": "3600"
    },
    {
        "col0": "Venusberg",
        "col1": "Franz Seitz, Jr.",
        "col2": "M. Mell",
        "col3": "5280"
    },
    {
        "col0": "Venus on Trial",
        "col1": "Ottmar Ostermayr",
        "col2": "S. Breuer",
        "col3": "5400"
    },
    {
        "col0": "Venus in the East",
        "col1": "Jesse L. Lasky",
        "col2": "C. Burton",
        "col3": "3000"
    },
    {
        "col0": "Venus in Furs",
        "col1": "Harry Alan Towers",
        "col2": "K. Kinski",
        "col3": "5160"
    },
    {
        "col0": "Venus in Fur",
        "col1": "Alain Sarde",
        "col2": "M. Amalric",
        "col3": "5760"
    },
    {
        "col0": "Venus fra Vesto",
        "col1": "Poul Bang",
        "col2": "M. Schwartz",
        "col3": "6960"
    },
    {
        "col0": "Venus Talk",
        "col1": "Lee Eun",
        "col2": "M. So-ri",
        "col3": "6540"
    },
    {
        "col0": "Venus Peter",
        "col1": "Christopher Young",
        "col2": "R. McAnally",
        "col3": "5640"
    },
    {
        "col0": "Vente a Alemania, Pepe",
        "col1": "Andres Vicente Gomez",
        "col2": "F. Guillen",
        "col3": "5700"
    },
    {
        "col0": "Venomous",
        "col1": "Jim Wynorski",
        "col2": "T. Williams",
        "col3": "5820"
    },
    {
        "col0": "Venom",
        "col1": "Michael McAdam",
        "col2": "M. McAdam",
        "col3": "960"
    },
    {
        "col0": "Venom",
        "col1": "Martin Bregman",
        "col2": "K. Kinski",
        "col3": "5520"
    },
    {
        "col0": "Vennira Iravuggal",
        "col1": "Perakas Rajaram",
        "col2": "S. Krishnasamy",
        "col3": "6000"
    },
    {
        "col0": "Vennira Aadai",
        "col1": "C. V. Sridhar",
        "col2": "Jayalalithaa",
        "col3": "10680"
    },
    {
        "col0": "Vennela",
        "col1": "Ravi Vallabhaneni",
        "col2": "R. Abel",
        "col3": "7980"
    },
    {
        "col0": "Venice: The Series",
        "col1": "Hillary B. Smith",
        "col2": "C. Chappell",
        "col3": "900"
    },
    {
        "col0": "Vengo",
        "col1": "Tony Gatlif",
        "col2": "A. Canales",
        "col3": "5400"
    },
    {
        "col0": "Vengeance of Rannah",
        "col1": "Harry S. Webb",
        "col2": "R. T. Tin",
        "col3": "3360"
    },
    {
        "col0": "Vengeance Valley",
        "col1": "Nicholas Nayfack",
        "col2": "R. Walker",
        "col3": "4980"
    },
    {
        "col0": "Vengeance Is Mine",
        "col1": "Kazuo Inoue",
        "col2": "R. Mikuni",
        "col3": "8400"
    },
    {
        "col0": "Vengeance",
        "col1": "Cesareo Gonzalez",
        "col2": "M. Alexandre",
        "col3": "7320"
    },
    {
        "col0": "Venezzia",
        "col1": "Ruddy Rodriguez",
        "col2": "A. Herrera",
        "col3": "5400"
    },
    {
        "col0": "Vendetta for a Samurai",
        "col1": "SA'jirA' Motoki",
        "col2": "T. Shimura",
        "col3": "4920"
    },
    {
        "col0": "Vendetta dal futuro",
        "col1": "Luciano Martino",
        "col2": "D. Greene",
        "col3": "5640"
    },
    {
        "col0": "Vendetta",
        "col1": "Gary Lucchesi",
        "col2": "B. Davison",
        "col3": "7020"
    },
    {
        "col0": "Vendetta",
        "col1": "Howard Hughes",
        "col2": "F. Domergue",
        "col3": "4980"
    },
    {
        "col0": "Ven mi corazon te llama",
        "col1": "Lumiton",
        "col2": "A. Barrie",
        "col3": "5340"
    },
    {
        "col0": "Velvet Soup",
        "col1": "BBC Scotland",
        "col2": "S. McNicoll",
        "col3": "1800"
    },
    {
        "col0": "Velvet Hands",
        "col1": "Mario Cecchi Gori",
        "col2": "A. Celentano",
        "col3": "6000"
    },
    {
        "col0": "Velvet Goldmine",
        "col1": "Michael Stipe",
        "col2": "C. Bale",
        "col3": "7440"
    },
    {
        "col0": "Velocity Trap",
        "col1": "Ken Olandt",
        "col2": "A. Coppola",
        "col3": "5340"
    },
    {
        "col0": "Vellikizhamai Viratham",
        "col1": "Sandow M. M. A. Chinnappa Thevar",
        "col2": "Jayachitra",
        "col3": "8820"
    },
    {
        "col0": "Vellanakalude Nadu",
        "col1": "Maniyanpilla Raju",
        "col2": "Mohanlal",
        "col3": "7740"
    },
    {
        "col0": "Vellaiya Irukiravan Poi Solla Maatan",
        "col1": "Ravi Varman",
        "col2": "B. Saravanan",
        "col3": "7620"
    },
    {
        "col0": "Velayudham",
        "col1": "Viswanathan Ravichandran",
        "col2": "G. D'Souza",
        "col3": "11160"
    },
    {
        "col0": "Velainu Vandhutta Vellaikaaran",
        "col1": "Vishnu Vishal",
        "col2": "N. Galrani",
        "col3": "7620"
    },
    {
        "col0": "Velaiilla Pattadhari",
        "col1": "Dhanush",
        "col2": "A. Paul",
        "col3": "7980"
    },
    {
        "col0": "Vejrhanen",
        "col1": "Henning Karmark",
        "col2": "J. Meyer",
        "col3": "5940"
    },
    {
        "col0": "Vehicle 19",
        "col1": "Paul Walker",
        "col2": "P. Walker",
        "col3": "5100"
    }
]