[
    {
        "col0": "Zilchogyra paulistana",
        "col1": "Punctoidea",
        "col2": "CR",
        "col3": "IUCN2.3"
    },
    {
        "col0": "Zigzag heron",
        "col1": "Ardeidae",
        "col2": "NT",
        "col3": "IUCN3.1"
    },
    {
        "col0": "Zieria lasiocaulis",
        "col1": "Rutaceae",
        "col2": "EN",
        "col3": "EPBC"
    },
    {
        "col0": "Zieria granulata",
        "col1": "Rutaceae",
        "col2": "EN",
        "col3": "EPBC"
    },
    {
        "col0": "Zieria citriodora",
        "col1": "Rutaceae",
        "col2": "VU",
        "col3": "EPBC"
    },
    {
        "col0": "Zieria chevalieri",
        "col1": "Rutaceae",
        "col2": "VU",
        "col3": "IUCN2.3"
    },
    {
        "col0": "Zieria adenophora",
        "col1": "Rutaceae",
        "col2": "EN",
        "col3": "EPBC"
    },
    {
        "col0": "Ziegler's water rat",
        "col1": "Muridae",
        "col2": "DD",
        "col3": "iucn3.1"
    },
    {
        "col0": "Ziama horseshoe bat",
        "col1": "Rhinolophidae",
        "col2": "EN",
        "col3": "IUCN3.1"
    },
    {
        "col0": "Zhou's box turtle",
        "col1": "Geoemydidae",
        "col2": "CR",
        "col3": "IUCN2.3"
    },
    {
        "col0": "Zhenhai brown frog",
        "col1": "True frog",
        "col2": "LC",
        "col3": "IUCN3.1"
    },
    {
        "col0": "Zhang's horned toad",
        "col1": "Megophryidae",
        "col2": "DD",
        "col3": "IUCN3.1"
    },
    {
        "col0": "Zeyheria tuberculosa",
        "col1": "Bignoniaceae",
        "col2": "VU",
        "col3": "IUCN2.3"
    },
    {
        "col0": "Zeuxine rolfiana",
        "col1": "Orchidaceae",
        "col2": "CR",
        "col3": "IUCN3.1"
    },
    {
        "col0": "Zeuxine polygonoides",
        "col1": "Orchidaceae",
        "col2": "VU",
        "col3": "EPBC"
    },
    {
        "col0": "Zephyrichthys barryi",
        "col1": "Bythitidae",
        "col2": "NE",
        "col3": "iucn3.1"
    },
    {
        "col0": "Zenkerella perplexa",
        "col1": "Fabaceae",
        "col2": "VU",
        "col3": "IUCN2.3"
    },
    {
        "col0": "Zenkerella egregia",
        "col1": "Fabaceae",
        "col2": "VU",
        "col3": "IUCN2.3"
    },
    {
        "col0": "Zenker's turaco",
        "col1": "Musophagidae",
        "col2": "LC",
        "col3": "IUCN3.1"
    },
    {
        "col0": "Zenker's honeyguide",
        "col1": "Indicatoridae",
        "col2": "LC",
        "col3": "IUCN3.1"
    },
    {
        "col0": "Zenker's fruit bat",
        "col1": "Pteropodidae",
        "col2": "LC",
        "col3": "IUCN3.1"
    },
    {
        "col0": "Zenia insignis",
        "col1": "Fabaceae",
        "col2": "LR/nt",
        "col3": "IUCN2.3"
    },
    {
        "col0": "Zenarchopterus dispar",
        "col1": "Zenarchopteridae",
        "col2": "LC",
        "col3": "IUCN3.1"
    },
    {
        "col0": "Zenaida dove",
        "col1": "Dove",
        "col2": "LC",
        "col3": "IUCN3.1"
    },
    {
        "col0": "Zena's brush-furred rat",
        "col1": "Deomyinae",
        "col2": "DD",
        "col3": "iucn3.1"
    },
    {
        "col0": "Zempoaltepec vole",
        "col1": "Cricetidae",
        "col2": "EN",
        "col3": "IUCN3.1"
    },
    {
        "col0": "Zempoaltepec deer mouse",
        "col1": "Cricetidae",
        "col2": "CR",
        "col3": "IUCN3.1"
    },
    {
        "col0": "Zempoaltepec",
        "col1": "Cricetidae",
        "col2": "EN",
        "col3": "IUCN3.1"
    },
    {
        "col0": "Zempoaltepec vole",
        "col1": "Cricetidae",
        "col2": "EN",
        "col3": "IUCN3.1"
    },
    {
        "col0": "Zemelanopsis trifasciata",
        "col1": "Melanopsidae",
        "col2": "LC",
        "col3": "IUCN3.1"
    },
    {
        "col0": "Zeltnera namophila",
        "col1": "Gentianaceae",
        "col2": "G2",
        "col3": "TNC"
    },
    {
        "col0": "Zelkova sicula",
        "col1": "Ulmaceae",
        "col2": "CR",
        "col3": "IUCN3.1"
    },
    {
        "col0": "Zelkova carpinifolia",
        "col1": "Ulmaceae",
        "col2": "LR/nt",
        "col3": "IUCN2.3"
    },
    {
        "col0": "Zelkova abelicea",
        "col1": "Ulmaceae",
        "col2": "VU",
        "col3": "IUCN2.3"
    },
    {
        "col0": "Zeledon's antbird",
        "col1": "Thamnophilidae",
        "col2": "NR",
        "col3": "IUCN3.1"
    },
    {
        "col0": "Zehneria baueriana",
        "col1": "Cucurbitaceae",
        "col2": "EN",
        "col3": "EPBC"
    },
    {
        "col0": "Zebrasoma xanthurum",
        "col1": "Acanthuridae",
        "col2": "LC",
        "col3": "IUCN3.1"
    },
    {
        "col0": "Zebrasoma scopas",
        "col1": "Acanthuridae",
        "col2": "LC",
        "col3": "IUCN3.1"
    },
    {
        "col0": "Zebrasoma gemmatum",
        "col1": "Acanthuridae",
        "col2": "DD",
        "col3": "IUCN3.1"
    },
    {
        "col0": "Zebrafish",
        "col1": "Cyprinidae",
        "col2": "LC",
        "col3": "IUCN3.1"
    },
    {
        "col0": "Zebra spinyeel",
        "col1": "Mastacembelidae",
        "col2": "LC",
        "col3": "IUCN3.1"
    },
    {
        "col0": "Zebra seahorse",
        "col1": "Syngnathidae",
        "col2": "DD",
        "col3": "IUCN3.1"
    },
    {
        "col0": "Zebra pleco",
        "col1": "Loricariidae",
        "col2": "NE",
        "col3": "iucn3.1"
    },
    {
        "col0": "Zebra oto",
        "col1": "Loricariidae",
        "col2": "NE",
        "col3": "iucn3.1"
    },
    {
        "col0": "Zebra mbuna",
        "col1": "Cichlidae",
        "col2": "LC",
        "col3": "IUCN3.1"
    },
    {
        "col0": "Zebra loach",
        "col1": "Botiidae",
        "col2": "EN",
        "col3": "IUCN3.1"
    },
    {
        "col0": "Zebra goby",
        "col1": "Gobiidae",
        "col2": "LC",
        "col3": "iucn3.1"
    },
    {
        "col0": "Zebra finch",
        "col1": "Estrildidae",
        "col2": "LC",
        "col3": "IUCN3.1"
    },
    {
        "col0": "Zebra dove",
        "col1": "Columbidae",
        "col2": "LC",
        "col3": "IUCN3.1"
    },
    {
        "col0": "Zebra bullhead shark",
        "col1": "Bullhead shark",
        "col2": "LC",
        "col3": "IUCN3.1"
    },
    {
        "col0": "Zebra acara",
        "col1": "Cichlidae",
        "col2": "NE",
        "col3": "iucn3.1"
    },
    {
        "col0": "Zayante band-winged grasshopper",
        "col1": "Acrididae",
        "col2": "EN",
        "col3": "IUCN2.3"
    },
    {
        "col0": "Zarudny's rock shrew",
        "col1": "Soricidae",
        "col2": "LR/lc",
        "col3": "IUCN2.3"
    },
    {
        "col0": "Zarudny's jird",
        "col1": "Muridae",
        "col2": "EN",
        "col3": "IUCN2.3"
    },
    {
        "col0": "Zarigani",
        "col1": "Cambaridae",
        "col2": "DD",
        "col3": "iucn3.1"
    },
    {
        "col0": "Zarciadero web-footed salamander",
        "col1": "Plethodontidae",
        "col2": "CR",
        "col3": "IUCN3.1"
    },
    {
        "col0": "Zaprochilus ninae",
        "col1": "Tettigoniidae",
        "col2": "VU",
        "col3": "IUCN2.3"
    },
    {
        "col0": "Zappey's flycatcher",
        "col1": "Muscicapidae",
        "col2": "NR",
        "col3": "IUCN3.1"
    },
    {
        "col0": "Zappa confluentus",
        "col1": "Goby",
        "col2": "NE",
        "col3": "iucn3.1"
    },
    {
        "col0": "Zapoteca aculeata",
        "col1": "Fabaceae",
        "col2": "EN",
        "col3": "IUCN3.1"
    },
    {
        "col0": "Zapotec salamander",
        "col1": "Plethodontidae",
        "col2": "DD",
        "col3": "IUCN3.1"
    },
    {
        "col0": "Zapogon evermanni",
        "col1": "Apogoninae",
        "col2": "NE",
        "col3": "iucn3.1"
    },
    {
        "col0": "Zaphir's shrew",
        "col1": "Soricidae",
        "col2": "DD",
        "col3": "IUCN3.1"
    },
    {
        "col0": "Zapata wren",
        "col1": "Wren",
        "col2": "EN",
        "col3": "IUCN3.1"
    },
    {
        "col0": "Zapata sparrow",
        "col1": "Emberizidae",
        "col2": "EN",
        "col3": "IUCN3.1"
    },
    {
        "col0": "Zapata rail",
        "col1": "Rallidae",
        "col2": "CR",
        "col3": "IUCN3.1"
    },
    {
        "col0": "Zanzibar red colobus",
        "col1": "Cercopithecidae",
        "col2": "EN",
        "col3": "iucn3.1"
    },
    {
        "col0": "Zanzibar red bishop",
        "col1": "Ploceidae",
        "col2": "LC",
        "col3": "IUCN3.1"
    },
    {
        "col0": "Zanzibar guitarfish",
        "col1": "Rhinobatidae",
        "col2": "NT",
        "col3": "IUCN3.1"
    },
    {
        "col0": "Zanzibar bushbaby",
        "col1": "Galagidae",
        "col2": "LC",
        "col3": "iucn3.1"
    },
    {
        "col0": "Zanzibar barb",
        "col1": "Cyprinidae",
        "col2": "LC",
        "col3": "IUCN3.1"
    },
    {
        "col0": "Zanthoxylum thomasianum",
        "col1": "Rutaceae",
        "col2": "EN",
        "col3": "IUCN3.1"
    },
    {
        "col0": "Zanthoxylum psammophilum",
        "col1": "Rutaceae",
        "col2": "EN",
        "col3": "IUCN2.3"
    },
    {
        "col0": "Zanthoxylum procerum",
        "col1": "Rutaceae",
        "col2": "EN",
        "col3": "IUCN2.3"
    },
    {
        "col0": "Zanthoxylum parvum",
        "col1": "Rutaceae",
        "col2": "G2",
        "col3": "TNC"
    },
    {
        "col0": "Zanthoxylum panamense",
        "col1": "Rutaceae",
        "col2": "EN",
        "col3": "IUCN2.3"
    },
    {
        "col0": "Zanthoxylum oahuense",
        "col1": "Rutaceae",
        "col2": "VU",
        "col3": "IUCN2.3"
    },
    {
        "col0": "Zanthoxylum negrilense",
        "col1": "Rutaceae",
        "col2": "EN",
        "col3": "IUCN2.3"
    },
    {
        "col0": "Zanthoxylum nadeaudii",
        "col1": "Rutaceae",
        "col2": "DD",
        "col3": "IUCN2.3"
    },
    {
        "col0": "Zanthoxylum lindense",
        "col1": "Rutaceae",
        "col2": "VU",
        "col3": "IUCN2.3"
    },
    {
        "col0": "Zanthoxylum kauaense",
        "col1": "Rutaceae",
        "col2": "LR/nt",
        "col3": "IUCN2.3"
    },
    {
        "col0": "Zanthoxylum integrifoliolum",
        "col1": "Rutaceae",
        "col2": "DD",
        "col3": "IUCN2.3"
    },
    {
        "col0": "Zanthoxylum holtzianum",
        "col1": "Rutaceae",
        "col2": "VU",
        "col3": "IUCN2.3"
    },
    {
        "col0": "Zanthoxylum heterophyllum",
        "col1": "Rutaceae",
        "col2": "CR",
        "col3": "IUCN2.3"
    },
    {
        "col0": "Zanthoxylum hawaiiense",
        "col1": "Rutaceae",
        "col2": "EN",
        "col3": "IUCN2.3"
    },
    {
        "col0": "Zanthoxylum hartii",
        "col1": "Rutaceae",
        "col2": "VU",
        "col3": "IUCN2.3"
    },
    {
        "col0": "Zanthoxylum harrisii",
        "col1": "Rutaceae",
        "col2": "VU",
        "col3": "IUCN2.3"
    },
    {
        "col0": "Zanthoxylum gentlei",
        "col1": "Rutaceae",
        "col2": "EN",
        "col3": "IUCN2.3"
    },
    {
        "col0": "Zanthoxylum flavum",
        "col1": "Rutaceae",
        "col2": "VU",
        "col3": "IUCN2.3"
    },
    {
        "col0": "Zanthoxylum ferrugineum",
        "col1": "Rutaceae",
        "col2": "EN",
        "col3": "IUCN2.3"
    },
    {
        "col0": "Zanthoxylum dipetalum",
        "col1": "Rutaceae",
        "col2": "VU",
        "col3": "IUCN3.1"
    },
    {
        "col0": "Zanthoxylum deremense",
        "col1": "Rutaceae",
        "col2": "VU",
        "col3": "IUCN2.3"
    },
    {
        "col0": "Zanthoxylum delagoense",
        "col1": "Rutaceae",
        "col2": "LR/lc",
        "col3": "IUCN2.3"
    },
    {
        "col0": "Zanthoxylum coriaceum",
        "col1": "Rutaceae",
        "col2": "G4",
        "col3": "TNC"
    },
    {
        "col0": "Zanthoxylum chevalieri",
        "col1": "Rutaceae",
        "col2": "VU",
        "col3": "IUCN2.3"
    },
    {
        "col0": "Zanthoxylum belizense",
        "col1": "Rutaceae",
        "col2": "EN",
        "col3": "IUCN2.3"
    },
    {
        "col0": "Zanthoxylum atchoum",
        "col1": "Rutaceae",
        "col2": "VU",
        "col3": "IUCN2.3"
    },
    {
        "col0": "Zanthoxylum albuquerquei",
        "col1": "Rutaceae",
        "col2": "VU",
        "col3": "IUCN2.3"
    },
    {
        "col0": "Zantedeschia albomaculata",
        "col1": "Aroideae",
        "col2": "LC",
        "col3": "iucn3.1"
    },
    {
        "col0": "Zanj sun squirrel",
        "col1": "Sciuridae",
        "col2": "DD",
        "col3": "iucn3.1"
    },
    {
        "col0": "Zaniolepis latipinnis",
        "col1": "Hexagrammidae",
        "col2": "NE",
        "col3": "iucn3.1"
    },
    {
        "col0": "Zander",
        "col1": "Percidae",
        "col2": "LC",
        "col3": "IUCN3.1"
    },
    {
        "col0": "Zanclorhynchus spinifer",
        "col1": "Congiopodidae",
        "col2": "LC",
        "col3": "iucn3.1"
    },
    {
        "col0": "Zanclistius",
        "col1": "Pentacerotidae",
        "col2": "NE",
        "col3": "iucn3.1"
    },
    {
        "col0": "Zamia wallisii",
        "col1": "Zamiaceae",
        "col2": "CR",
        "col3": "IUCN3.1"
    },
    {
        "col0": "Zamia verschaffeltii",
        "col1": "Zamiaceae",
        "col2": "NT",
        "col3": "IUCN3.1"
    },
    {
        "col0": "Zamia vazquezii",
        "col1": "Zamiaceae",
        "col2": "CR",
        "col3": "IUCN3.1"
    },
    {
        "col0": "Zamia variegata",
        "col1": "Zamiaceae",
        "col2": "EN",
        "col3": "IUCN3.1"
    },
    {
        "col0": "Zamia urep",
        "col1": "Zamiaceae",
        "col2": "CR",
        "col3": "IUCN3.1"
    },
    {
        "col0": "Zamia ulei",
        "col1": "Zamiaceae",
        "col2": "NT",
        "col3": "IUCN3.1"
    },
    {
        "col0": "Zamia tuerckheimii",
        "col1": "Zamiaceae",
        "col2": "NT",
        "col3": "IUCN3.1"
    },
    {
        "col0": "Zamia standleyi",
        "col1": "Zamiaceae",
        "col2": "VU",
        "col3": "IUCN3.1"
    },
    {
        "col0": "Zamia spartea",
        "col1": "Zamiaceae",
        "col2": "CR",
        "col3": "IUCN3.1"
    },
    {
        "col0": "Zamia soconuscensis",
        "col1": "Zamiaceae",
        "col2": "VU",
        "col3": "IUCN3.1"
    },
    {
        "col0": "Zamia skinneri",
        "col1": "Zamiaceae",
        "col2": "EN",
        "col3": "IUCN3.1"
    },
    {
        "col0": "Zamia roezlii",
        "col1": "Zamiaceae",
        "col2": "NT",
        "col3": "IUCN3.1"
    },
    {
        "col0": "Zamia pygmaea",
        "col1": "Zamiaceae",
        "col2": "CR",
        "col3": "IUCN3.1"
    },
    {
        "col0": "Zamia purpurea",
        "col1": "Zamiaceae",
        "col2": "CR",
        "col3": "IUCN3.1"
    },
    {
        "col0": "Zamia pumila",
        "col1": "Zamiaceae",
        "col2": "NT",
        "col3": "IUCN3.1"
    },
    {
        "col0": "Zamia pseudoparasitica",
        "col1": "Zamiaceae",
        "col2": "NT",
        "col3": "IUCN3.1"
    },
    {
        "col0": "Zamia pseudomonticola",
        "col1": "Zamiaceae",
        "col2": "NT",
        "col3": "IUCN3.1"
    },
    {
        "col0": "Zamia prasina",
        "col1": "Zamiaceae",
        "col2": "CR",
        "col3": "IUCN3.1"
    },
    {
        "col0": "Zamia portoricensis",
        "col1": "Zamiaceae",
        "col2": "EN",
        "col3": "IUCN3.1"
    },
    {
        "col0": "Zamia polymorpha",
        "col1": "Zamiaceae",
        "col2": "NT",
        "col3": "IUCN3.1"
    },
    {
        "col0": "Zamia poeppigiana",
        "col1": "Zamiaceae",
        "col2": "NT",
        "col3": "IUCN3.1"
    },
    {
        "col0": "Zamia picta",
        "col1": "Zamiaceae",
        "col2": "EN",
        "col3": "IUCN3.1"
    },
    {
        "col0": "Zamia paucijuga",
        "col1": "Zamiaceae",
        "col2": "NT",
        "col3": "IUCN3.1"
    },
    {
        "col0": "Zamia obliqua",
        "col1": "Zamiaceae",
        "col2": "NT",
        "col3": "IUCN3.1"
    },
    {
        "col0": "Zamia neurophyllidia",
        "col1": "Zamiaceae",
        "col2": "NT",
        "col3": "IUCN3.1"
    },
    {
        "col0": "Zamia muricata",
        "col1": "Zamiaceae",
        "col2": "NT",
        "col3": "IUCN3.1"
    },
    {
        "col0": "Zamia monticola",
        "col1": "Zamiaceae",
        "col2": "CR",
        "col3": "IUCN3.1"
    },
    {
        "col0": "Zamia montana",
        "col1": "Zamiaceae",
        "col2": "CR",
        "col3": "IUCN3.1"
    },
    {
        "col0": "Zamia melanorrhachis",
        "col1": "Zamiaceae",
        "col2": "EN",
        "col3": "IUCN3.1"
    },
    {
        "col0": "Zamia manicata",
        "col1": "Zamiaceae",
        "col2": "NT",
        "col3": "IUCN3.1"
    },
    {
        "col0": "Zamia macrochiera",
        "col1": "Zamiaceae",
        "col2": "CR",
        "col3": "IUCN3.1"
    },
    {
        "col0": "Zamia lucayana",
        "col1": "Zamiaceae",
        "col2": "EN",
        "col3": "IUCN3.1"
    },
    {
        "col0": "Zamia loddigesii",
        "col1": "Zamiaceae",
        "col2": "NT",
        "col3": "IUCN3.1"
    },
    {
        "col0": "Zamia lecointei",
        "col1": "Zamiaceae",
        "col2": "NT",
        "col3": "IUCN3.1"
    },
    {
        "col0": "Zamia lacandona",
        "col1": "Zamiaceae",
        "col2": "EN",
        "col3": "IUCN3.1"
    },
    {
        "col0": "Zamia kickxii",
        "col1": "Zamiaceae",
        "col2": "DD",
        "col3": "IUCN3.1"
    },
    {
        "col0": "Zamia ipetiensis",
        "col1": "Zamiaceae",
        "col2": "VU",
        "col3": "IUCN3.1"
    },
    {
        "col0": "Zamia integrifolia",
        "col1": "Zamiaceae",
        "col2": "NT",
        "col3": "IUCN3.1"
    },
    {
        "col0": "Zamia inermis",
        "col1": "Zamiaceae",
        "col2": "CR",
        "col3": "IUCN3.1"
    },
    {
        "col0": "Zamia hymenophyllidia",
        "col1": "Zamiaceae",
        "col2": "CR",
        "col3": "IUCN3.1"
    },
    {
        "col0": "Zamia herrerae",
        "col1": "Zamiaceae",
        "col2": "VU",
        "col3": "IUCN3.1"
    },
    {
        "col0": "Zamia gentryi",
        "col1": "Zamiaceae",
        "col2": "VU",
        "col3": "IUCN3.1"
    },
    {
        "col0": "Zamia furfuracea",
        "col1": "Zamiaceae",
        "col2": "EN",
        "col3": "IUCN3.1"
    },
    {
        "col0": "Zamia fischeri",
        "col1": "Zamiaceae",
        "col2": "EN",
        "col3": "IUCN3.1"
    },
    {
        "col0": "Zamia fairchildiana",
        "col1": "Zamiaceae",
        "col2": "NT",
        "col3": "IUCN3.1"
    },
    {
        "col0": "Zamia erosa",
        "col1": "Zamiaceae",
        "col2": "VU",
        "col3": "IUCN3.1"
    },
    {
        "col0": "Zamia encephalartoides",
        "col1": "Zamiaceae",
        "col2": "VU",
        "col3": "IUCN3.1"
    },
    {
        "col0": "Zamia dressleri",
        "col1": "Zamiaceae",
        "col2": "EN",
        "col3": "IUCN3.1"
    },
    {
        "col0": "Zamia disodon",
        "col1": "Zamiaceae",
        "col2": "CR",
        "col3": "IUCN3.1"
    },
    {
        "col0": "Zamia cunaria",
        "col1": "Zamiaceae",
        "col2": "NT",
        "col3": "IUCN3.1"
    },
    {
        "col0": "Zamia cremnophila",
        "col1": "Zamiaceae",
        "col2": "EN",
        "col3": "IUCN3.1"
    },
    {
        "col0": "Zamia chigua",
        "col1": "Zamiaceae",
        "col2": "NT",
        "col3": "IUCN3.1"
    }
]