[
    {
        "col0": "1221 Amor",
        "col1": "1932-03-12",
        "col2": "0",
        "col3": "0"
    },
    {
        "col0": "121 Hermione",
        "col1": "1872-05-12",
        "col2": "0",
        "col3": "21"
    },
    {
        "col0": "11 Parthenope",
        "col1": "1850-05-11",
        "col2": "0",
        "col3": "338"
    },
    {
        "col0": "118401 LINEAR",
        "col1": "1999-09-07",
        "col2": "0",
        "col3": "11"
    },
    {
        "col0": "117 Lomia",
        "col1": "1871-09-12",
        "col2": "0",
        "col3": "282"
    },
    {
        "col0": "11754 Herbig",
        "col1": "1960-09-24",
        "col2": "0",
        "col3": "9"
    },
    {
        "col0": "115 Thyra",
        "col1": "1871-08-06",
        "col2": "0",
        "col3": "151"
    },
    {
        "col0": "114 Kassandra",
        "col1": "1871-07-23",
        "col2": "0",
        "col3": "189"
    },
    {
        "col0": "110 Lydia",
        "col1": "1870-04-19",
        "col2": "0",
        "col3": "163"
    },
    {
        "col0": "10 Hygiea",
        "col1": "1849-04-12",
        "col2": "0",
        "col3": "756"
    },
    {
        "col0": "109 Felicitas",
        "col1": "1869-10-09",
        "col2": "0",
        "col3": "170"
    },
    {
        "col0": "1099 Figneria",
        "col1": "1928-09-13",
        "col2": "0",
        "col3": "55"
    },
    {
        "col0": "1097 Vicia",
        "col1": "1928-08-11",
        "col2": "0",
        "col3": "40"
    },
    {
        "col0": "10979 Fristephenson",
        "col1": "1973-09-29",
        "col2": "0",
        "col3": "7"
    },
    {
        "col0": "107 Camilla",
        "col1": "1868-11-17",
        "col2": "0",
        "col3": "21"
    },
    {
        "col0": "1054 Forsytia",
        "col1": "1925-11-20",
        "col2": "0",
        "col3": "86"
    },
    {
        "col0": "100 Hekate",
        "col1": "1868-07-11",
        "col2": "0",
        "col3": "194"
    },
    {
        "col0": "(88710) 2001 SL9",
        "col1": "2001-09-18",
        "col2": "0",
        "col3": "184"
    },
    {
        "col0": "(85627) 1998 HP151",
        "col1": "1998-04-28",
        "col2": "0",
        "col3": "584"
    },
    {
        "col0": "(66391) 1999 KW4",
        "col1": "1999-05-20",
        "col2": "0",
        "col3": "0"
    },
    {
        "col0": "(66063) 1998 RO1",
        "col1": "1998-09-14",
        "col2": "0",
        "col3": "359"
    },
    {
        "col0": "(434326) 2004 JG6",
        "col1": "2004-05-11",
        "col2": "0",
        "col3": "1"
    },
    {
        "col0": "(410777) 2009 FD",
        "col1": "2009-02-24",
        "col2": "0",
        "col3": "1"
    },
    {
        "col0": "(391211) 2006 HZ51",
        "col1": "2006-04-27",
        "col2": "0",
        "col3": "1"
    },
    {
        "col0": "(33001) 1997 CU29",
        "col1": "1997-02-06",
        "col2": "0",
        "col3": "436"
    },
    {
        "col0": "(19299) 1996 SZ4",
        "col1": "1996-09-16",
        "col2": "0",
        "col3": "192"
    },
    {
        "col0": "(19255) 1994 VK8",
        "col1": "1994-11-08",
        "col2": "0",
        "col3": "333"
    },
    {
        "col0": "(16684) 1994 JQ1",
        "col1": "1994-05-11",
        "col2": "0",
        "col3": "348"
    },
    {
        "col0": "(15820) 1994 TB",
        "col1": "1994-10-02",
        "col2": "0",
        "col3": "317"
    },
    {
        "col0": "(15788) 1993 SB",
        "col1": "1993-09-16",
        "col2": "0",
        "col3": "252"
    },
    {
        "col0": "(153591) 2001 SN263",
        "col1": "2001-09-20",
        "col2": "0",
        "col3": "396000"
    },
    {
        "col0": "(144898) 2004 VD17",
        "col1": "2004-11-07",
        "col2": "0",
        "col3": "1"
    },
    {
        "col0": "(12538) 1998 OH",
        "col1": "1998-07-19",
        "col2": "0",
        "col3": "5"
    },
    {
        "col0": "(119878) 2002 CY224",
        "col1": "2002-02-07",
        "col2": "0",
        "col3": "460"
    },
    {
        "col0": "(119070) 2001 KP77",
        "col1": "2001-05-23",
        "col2": "0",
        "col3": "216"
    },
    {
        "col0": "(118702) 2000 OM67",
        "col1": "2000-07-31",
        "col2": "0",
        "col3": "382"
    },
    {
        "col0": "(118228) 1996 TQ66",
        "col1": "1996-10-08",
        "col2": "0",
        "col3": "317"
    }
]