[
    {
        "col0": "A. o. Brunswick-Luneburg",
        "col1": "Szczecin",
        "col2": "Szczecin",
        "col3": "Celle",
        "col4": "Henry I of Luneburg",
        "col5": "1568-11-06",
        "col6": "1502-12-06"
    },
    {
        "col0": "Anna of Brandenburg, Duchess of Mecklenburg",
        "col1": "Schwerin Cathedral",
        "col2": "Lubz",
        "col3": "Berlin",
        "col4": "Elisabeth of Denmark, Electress of Brandenburg",
        "col5": "1567-06-19",
        "col6": "1507-01-01"
    },
    {
        "col0": "Anna Sophia of Prussia",
        "col1": "Schwerin Cathedral",
        "col2": "Lubz",
        "col3": "Konigsberg",
        "col4": "Dorothea of Denmark, Duchess of Prussia",
        "col5": "1591-02-06",
        "col6": "1527-06-11"
    },
    {
        "col0": "Anna Maria of Hesse-Kassel",
        "col1": "Saarbrucken",
        "col2": "Neunkirchen, Saarland",
        "col3": "Kassel",
        "col4": "William IV, Landgrave of Hesse-Kassel",
        "col5": "1626-11-21",
        "col6": "1567-01-27"
    },
    {
        "col0": "Anna Maria of Brandenburg-Ansbach",
        "col1": "St. George's Collegiate Church, Tubingen",
        "col2": "Nurtingen",
        "col3": "Jagerndorf",
        "col4": "George, Margrave of Brandenburg-Ansbach",
        "col5": "1589-05-20",
        "col6": "1526-12-28"
    },
    {
        "col0": "Anna Eleonore of Stolberg-Wernigerode",
        "col1": "Kothen",
        "col2": "Kothen",
        "col3": "Ilsenburg",
        "col4": "Henry Ernest, Count of Stolberg",
        "col5": "1690-01-27",
        "col6": "1651-03-26"
    },
    {
        "col0": "Ana Francisca de Borja y Doria",
        "col1": "Madrid, Spain",
        "col2": "Madrid",
        "col3": "Gandia",
        "col4": "D. o. Gandia",
        "col5": "1706-1-1",
        "col6": "1640-1-1"
    },
    {
        "col0": "A. Khan",
        "col1": "Afghanistan",
        "col2": "Zurich",
        "col3": "Paghman",
        "col4": "H. Khan",
        "col5": "1960-4-25",
        "col6": "1892-6-1"
    },
    {
        "col0": "Amadeus III, Count of Savoy",
        "col1": "Nicosia",
        "col2": "Nicosia",
        "col3": "Carignano",
        "col4": "Gisela of Burgundy, Countess of Savoy",
        "col5": "1148-1-1",
        "col6": "1095-1-1"
    },
    {
        "col0": "A. Enriquez",
        "col1": "Palencia",
        "col2": "Guadalupe, Caceres",
        "col3": "Guadalcanal, Seville",
        "col4": "Fadrique Alfonso, Lord of Haro",
        "col5": "1429-0-0",
        "col6": "1354-0-0"
    },
    {
        "col0": "Alexander I of Scotland",
        "col1": "Dunfermline Abbey",
        "col2": "Stirling Castle",
        "col3": "Dunfermline",
        "col4": "Malcolm III of Scotland",
        "col5": "1124-4-23",
        "col6": "1078-1-1"
    },
    {
        "col0": "A. Hochberg",
        "col1": "Pollenca",
        "col2": "Pollenca",
        "col3": "London",
        "col4": "Daisy, Princess of Pless",
        "col5": "1984-02-22",
        "col6": "1905-02-01"
    },
    {
        "col0": "Albert III, Duke of Bavaria",
        "col1": "Andechs",
        "col2": "Munich",
        "col3": "Munich",
        "col4": "E. Visconti",
        "col5": "1460-02-29",
        "col6": "1401-03-27"
    },
    {
        "col0": "Albert III, Duke of Austria",
        "col1": "St. Stephen's Cathedral, Vienna",
        "col2": "Laxenburg castles",
        "col3": "Duchy of Austria",
        "col4": "J. o. Pfirt",
        "col5": "1395-08-29",
        "col6": "1349-09-09"
    },
    {
        "col0": "Albert II, Margrave of Brandenburg-Ansbach",
        "col1": "Ansbach",
        "col2": "Ansbach",
        "col3": "Ansbach",
        "col4": "Joachim Ernst, Margrave of Brandenburg-Ansbach",
        "col5": "1667-10-22",
        "col6": "1620-09-18"
    },
    {
        "col0": "Agnes Keith, Countess of Moray",
        "col1": "Edinburgh",
        "col2": "Edinburgh",
        "col3": "Dunnottar Castle",
        "col4": "William Keith, 4th Earl Marischal",
        "col5": "1588-07-16",
        "col6": "1540-0-0"
    },
    {
        "col0": "Agatha Marie of Hanau",
        "col1": "Ribeauville",
        "col2": "Baden-Baden",
        "col3": "Bouxwiller, Bas-Rhin",
        "col4": "Johann Reinhard I, Count of Hanau-Lichtenberg",
        "col5": "1636-05-23",
        "col6": "1599-08-22"
    },
    {
        "col0": "Agatha Christine of Hanau-Lichtenberg",
        "col1": "La Petite-Pierre",
        "col2": "Strasbourg",
        "col3": "Bouxwiller, Bas-Rhin",
        "col4": "Philip Wolfgang, Count of Hanau-Lichtenberg",
        "col5": "1681-12-05",
        "col6": "1632-09-23"
    },
    {
        "col0": "A. o. Nassau-Dillenburg",
        "col1": "Hanau",
        "col2": "Hanau",
        "col3": "Dillenburg",
        "col4": "Jan IV of Nassau",
        "col5": "1477-01-15",
        "col6": "1449-02-07"
    },
    {
        "col0": "A. o. Susa",
        "col1": "Canischio",
        "col2": "Canischio",
        "col3": "Turin",
        "col4": "B. o. Milan",
        "col5": "1091-12-19",
        "col6": "1020-0-0"
    },
    {
        "col0": "A. Kazanowski",
        "col1": "St. John's Cathedral, Warsaw",
        "col2": "Warsaw",
        "col3": "Polish-Lithuanian Commonwealth",
        "col4": "Z. Kazanowski",
        "col5": "1649-12-25",
        "col6": "1599-1-1"
    },
    {
        "col0": "A. o. Huntingdon",
        "col1": "Abbey of Middelburg",
        "col2": "Middelburg",
        "col3": "Huntingdon",
        "col4": "A. d. Warenne",
        "col5": "1205-0-0",
        "col6": "1146-0-0"
    },
    {
        "col0": "A. Y. Yusuf",
        "col1": "Tinmel",
        "col2": "Evora",
        "col3": "Tinmel",
        "col4": "A. al-Mu'min",
        "col5": "1184-7-29",
        "col6": "1135-1-1"
    },
    {
        "col0": "A. R. Khan",
        "col1": "Afghanistan",
        "col2": "Kabul",
        "col3": "Afghanistan",
        "col4": "M. A. Khan",
        "col5": "1901-10-1",
        "col6": "1844-1-1"
    },
    {
        "col0": "AE. t. Unready",
        "col1": "London",
        "col2": "London",
        "col3": "Wessex",
        "col4": "E. t. Peaceful",
        "col5": "1016-4-23",
        "col6": "968-1-1"
    }
]