[
    {
        "col0": "Rich Man, Poor Man Book II",
        "col1": "I. Shaw",
        "col2": "G. Henry",
        "col3": "Rich Man, Poor Man",
        "col4": "1977-03-08"
    },
    {
        "col0": "Ressha Sentai ToQger",
        "col1": "S. Aikawa",
        "col2": "K. Ohkuchi",
        "col3": "Zyuden Sentai Kyoryuger",
        "col4": "2015-02-15"
    },
    {
        "col0": "Quatermass",
        "col1": "N. Kneale",
        "col2": "R. Arliss",
        "col3": "Quatermass and the Pit",
        "col4": "1979-11-14"
    },
    {
        "col0": "Phyllis",
        "col1": "L. Marks",
        "col2": "C. Leachman",
        "col3": "The Mary Tyler Moore Show",
        "col4": "1977-03-13"
    },
    {
        "col0": "Party Girl",
        "col1": "Daisy von Scherler Mayer",
        "col2": "C. Taylor",
        "col3": "Party Girl",
        "col4": "1996-09-30"
    },
    {
        "col0": "Old Time Buddy - To Catch a Thief",
        "col1": "S. Kam-Yuen",
        "col2": "G. Lo",
        "col3": "Old Time Buddy",
        "col4": "1998-09-04"
    },
    {
        "col0": "Mirai Sentai Timeranger",
        "col1": "R. Yamaguchi",
        "col2": "M. Katsumura",
        "col3": "Kyuukyuu Sentai GoGoFive",
        "col4": "2001-02-11"
    },
    {
        "col0": "Metti Oli",
        "col1": "Thirumurugan",
        "col2": "D. Kumar",
        "col3": "Magal",
        "col4": "2005-06-17"
    },
    {
        "col0": "Maria Isabel",
        "col1": "R. Munoz",
        "col2": "P. R. Spindola",
        "col3": "La jaula de oro",
        "col4": "1998-01-23"
    },
    {
        "col0": "Mariana de la Noche",
        "col1": "L. Abud",
        "col2": "A. Barros",
        "col3": "Amor real",
        "col4": "2004-04-23"
    },
    {
        "col0": "Maria Isabel",
        "col1": "R. Munoz",
        "col2": "L. Herrera",
        "col3": "La jaula de oro",
        "col4": "1998-01-23"
    },
    {
        "col0": "Late Night with Jimmy Fallon",
        "col1": "A. D. Miles",
        "col2": "T. Roots",
        "col3": "Late Night with Conan O'Brien",
        "col4": "2014-02-07"
    },
    {
        "col0": "Lagaao",
        "col1": "W. Ahmad",
        "col2": "B. Khan",
        "col3": "Aik Thi Misaal",
        "col4": "2016-05-16"
    },
    {
        "col0": "La Madrastra",
        "col1": "L. Abud",
        "col2": "E. Capetillo",
        "col3": "Mujer de madera",
        "col4": "2005-07-29"
    },
    {
        "col0": "Kyoryu Sentai Zyuranger",
        "col1": "T. Inoue",
        "col2": "M. Soga",
        "col3": "Chojin Sentai Jetman",
        "col4": "1993-02-12"
    },
    {
        "col0": "Kyuukyuu Sentai GoGoFive",
        "col1": "R. Yamaguchi",
        "col2": "Y. Miyamura",
        "col3": "Seijuu Sentai Gingaman",
        "col4": "2000-02-06"
    },
    {
        "col0": "Kyoryu Sentai Zyuranger",
        "col1": "T. Inoue",
        "col2": "M. Soga",
        "col3": "Chojin Sentai Jetman",
        "col4": "1993-02-12"
    },
    {
        "col0": "Knight Rider",
        "col1": "G. A. Larson",
        "col2": "J. Bruening",
        "col3": "Knight Rider",
        "col4": "2009-03-04"
    },
    {
        "col0": "Khoya Khoya Chand",
        "col1": "F. Iftikhar",
        "col2": "M. Ali",
        "col3": "Dil-e-Muztar",
        "col4": "2013-12-26"
    },
    {
        "col0": "Kamen Rider Wizard",
        "col1": "S. Aikawa",
        "col2": "S. Shiraishi",
        "col3": "Kamen Rider Fourze",
        "col4": "2013-09-29"
    },
    {
        "col0": "Kamen Rider W",
        "col1": "R. Sanjo",
        "col2": "M. Kinomoto",
        "col3": "Kamen Rider Decade",
        "col4": "2010-08-29"
    },
    {
        "col0": "Kamen Rider Ryuki",
        "col1": "T. Inoue",
        "col2": "T. Suga",
        "col3": "Kamen Rider Agito",
        "col4": "2003-01-19"
    },
    {
        "col0": "Kamen Rider OOO",
        "col1": "Y. Kobayashi",
        "col2": "H. Iwanaga",
        "col3": "Kamen Rider W",
        "col4": "2011-08-28"
    },
    {
        "col0": "Kamen Rider Kiva",
        "col1": "T. Inoue",
        "col2": "K. Kato",
        "col3": "Kamen Rider Den-O",
        "col4": "2009-01-18"
    },
    {
        "col0": "Kamen Rider Kabuto",
        "col1": "T. Inoue",
        "col2": "K. Kato",
        "col3": "Kamen Rider Hibiki",
        "col4": "2007-01-21"
    },
    {
        "col0": "Kamen Rider Hibiki",
        "col1": "S. Yonemura",
        "col2": "M. Gamo",
        "col3": "Kamen Rider Blade",
        "col4": "2006-01-22"
    },
    {
        "col0": "Kamen Rider Ghost",
        "col1": "K. Hasegawa",
        "col2": "R. Yamamoto",
        "col3": "Kamen Rider Drive",
        "col4": "2016-09-25"
    },
    {
        "col0": "Kamen Rider Gaim",
        "col1": "G. Urobuchi",
        "col2": "Y. Kobayashi",
        "col3": "Kamen Rider Wizard",
        "col4": "2014-09-28"
    },
    {
        "col0": "Kamen Rider Fourze",
        "col1": "R. Sanjo",
        "col2": "F. Shimizu",
        "col3": "Kamen Rider OOO",
        "col4": "2012-08-26"
    },
    {
        "col0": "Kamen Rider Drive",
        "col1": "R. Sanjo",
        "col2": "R. Uchida",
        "col3": "Kamen Rider Gaim",
        "col4": "2015-09-27"
    },
    {
        "col0": "Kamen Rider Den-O",
        "col1": "Y. Kobayashi",
        "col2": "Y. Shiratori",
        "col3": "Kamen Rider Kabuto",
        "col4": "2008-01-20"
    },
    {
        "col0": "Kamen Rider Decade",
        "col1": "T. Inoue",
        "col2": "K. Totani",
        "col3": "Kamen Rider Kiva",
        "col4": "2009-08-30"
    },
    {
        "col0": "Kamen Rider Blade",
        "col1": "T. Inoue",
        "col2": "K. Amano",
        "col3": "Kamen Rider 555",
        "col4": "2005-01-23"
    },
    {
        "col0": "Kamen Rider Agito",
        "col1": "T. Inoue",
        "col2": "R. Akiyama",
        "col3": "Kamen Rider Kuuga",
        "col4": "2002-01-27"
    },
    {
        "col0": "Kamen Rider 555",
        "col1": "T. Inoue",
        "col2": "Y. Haga",
        "col3": "Kamen Rider Ryuki",
        "col4": "2004-01-18"
    },
    {
        "col0": "Jonah from Tonga",
        "col1": "C. Lilley",
        "col2": "C. Lilley",
        "col3": "Ja'mie: Private School Girl",
        "col4": "2014-05-04"
    },
    {
        "col0": "Ja'mie: Private School Girl",
        "col1": "C. Lilley",
        "col2": "C. Lilley",
        "col3": "Angry Boys",
        "col4": "2013-11-27"
    },
    {
        "col0": "Hall huvudet kallt",
        "col1": "V. Larn",
        "col2": "G. Ragnerstam",
        "col3": "Tomtemaskinen",
        "col4": "1994-12-24"
    },
    {
        "col0": "Gul-e-Rana",
        "col1": "S. Bukhari",
        "col2": "F. Khan",
        "col3": "Mol",
        "col4": "2016-04-02"
    },
    {
        "col0": "Guest from the Future",
        "col1": "K. Bulychov",
        "col2": "N. Murashkevich",
        "col3": "The Mystery of the Third Planet",
        "col4": "1985-03-30"
    },
    {
        "col0": "Grass",
        "col1": "A. Collins",
        "col2": "P. Jackson",
        "col3": "The Fast Show",
        "col4": "2003-10-27"
    },
    {
        "col0": "Going My Way",
        "col1": "R. L. Bare",
        "col2": "G. Kelly",
        "col3": "Going My Way",
        "col4": "1963-04-24"
    },
    {
        "col0": "GoGo Sentai Boukenger",
        "col1": "S. Aikawa",
        "col2": "J. Morita",
        "col3": "Mahou Sentai Magiranger",
        "col4": "2007-02-11"
    },
    {
        "col0": "Glenroe",
        "col1": "W. Burrowes",
        "col2": "A. Stanford",
        "col3": "Bracken",
        "col4": "2001-05-06"
    },
    {
        "col0": "Garo: Makai Senki",
        "col1": "T. Inoue",
        "col2": "R. Fujita",
        "col3": "Garo Special: Byakuya no Maju",
        "col4": "2012-03-22"
    },
    {
        "col0": "Gabriel y Gabriela",
        "col1": "Y. V. Dulche",
        "col2": "Jorge Martinez de Hoyos",
        "col3": "El derecho de nacer",
        "col4": "1983-02-21"
    },
    {
        "col0": "En nombre del amor",
        "col1": "M. Carrillo",
        "col2": "L. Calderon",
        "col3": "Querida Enemiga",
        "col4": "2009-06-12"
    },
    {
        "col0": "El Privilegio de Amar",
        "col1": "L. Abud",
        "col2": "A. Noriega",
        "col3": "La usurpadora",
        "col4": "1999-02-26"
    },
    {
        "col0": "Dos hogares",
        "col1": "E. Larrosa",
        "col2": "Anahi",
        "col3": "Triunfo del amor",
        "col4": "2012-01-20"
    },
    {
        "col0": "Delta House",
        "col1": "J. Hughes",
        "col2": "P. Kastner",
        "col3": "National Lampoon's Animal House",
        "col4": "1979-04-21"
    },
    {
        "col0": "Dancing on the Edge",
        "col1": "S. Poliakoff",
        "col2": "J. Goodman",
        "col3": "Glorious 39",
        "col4": "2013-03-10"
    },
    {
        "col0": "Daktari",
        "col1": "R. Lees",
        "col2": "M. Thompson",
        "col3": "Clarence, the Cross-Eyed Lion",
        "col4": "1969-01-15"
    },
    {
        "col0": "Cuando me enamoro",
        "col1": "M. Carrillo",
        "col2": "R. Banquells",
        "col3": "Mar de amor",
        "col4": "2011-03-13"
    }
]