[
    {
        "col0": "Roman Catholic Diocese of Baruipur",
        "col1": "Roman Catholic Archdiocese of Calcutta",
        "col2": "Roman Catholic Archdiocese of Calcutta",
        "col3": "Roman Catholic Archdiocese of Calcutta",
        "col4": "Roman Catholic Archdiocese of Calcutta",
        "col5": "10880000000",
        "col6": "10880000000"
    },
    {
        "col0": "Roman Catholic Diocese of Barretos",
        "col1": "Roman Catholic Archdiocese of Ribeirao Preto",
        "col2": "Roman Catholic Archdiocese of Ribeirao Preto",
        "col3": "Roman Catholic Archdiocese of Ribeirao Preto",
        "col4": "Roman Catholic Archdiocese of Ribeirao Preto",
        "col5": "8767000000",
        "col6": "8767000000"
    },
    {
        "col0": "Roman Catholic Diocese of Barreiras",
        "col1": "Roman Catholic Archdiocese of Feira de Santana",
        "col2": "Roman Catholic Archdiocese of Feira de Santana",
        "col3": "Roman Catholic Archdiocese of Feira de Santana",
        "col4": "Roman Catholic Archdiocese of Feira de Santana",
        "col5": "72675000000",
        "col6": "72675000000"
    },
    {
        "col0": "Roman Catholic Diocese of Barrancabermeja",
        "col1": "Roman Catholic Archdiocese of Bucaramanga",
        "col2": "Roman Catholic Archdiocese of Bucaramanga",
        "col3": "Roman Catholic Archdiocese of Bucaramanga",
        "col4": "Roman Catholic Archdiocese of Bucaramanga",
        "col5": "15000000000",
        "col6": "15000000000"
    },
    {
        "col0": "Roman Catholic Diocese of Barra do Pirai-Volta Redonda",
        "col1": "Roman Catholic Archdiocese of Sao Sebastiao do Rio de Janeiro",
        "col2": "Roman Catholic Archdiocese of Sao Sebastiao do Rio de Janeiro",
        "col3": "Roman Catholic Archdiocese of Sao Sebastiao do Rio de Janeiro",
        "col4": "Roman Catholic Archdiocese of Sao Sebastiao do Rio de Janeiro",
        "col5": "4768000000",
        "col6": "4768000000"
    },
    {
        "col0": "Roman Catholic Diocese of Barra do Garcas",
        "col1": "Roman Catholic Archdiocese of Cuiaba",
        "col2": "Roman Catholic Archdiocese of Cuiaba",
        "col3": "Roman Catholic Archdiocese of Cuiaba",
        "col4": "Roman Catholic Archdiocese of Cuiaba",
        "col5": "59840000000",
        "col6": "59840000000"
    },
    {
        "col0": "Roman Catholic Diocese of Barra",
        "col1": "Roman Catholic Archdiocese of Feira de Santana",
        "col2": "Roman Catholic Archdiocese of Feira de Santana",
        "col3": "Roman Catholic Archdiocese of Feira de Santana",
        "col4": "Roman Catholic Archdiocese of Feira de Santana",
        "col5": "44987000000",
        "col6": "44987000000"
    },
    {
        "col0": "Roman Catholic Diocese of Baroda",
        "col1": "Roman Catholic Archdiocese of Gandhinagar",
        "col2": "Roman Catholic Archdiocese of Gandhinagar",
        "col3": "Roman Catholic Archdiocese of Gandhinagar",
        "col4": "Roman Catholic Archdiocese of Gandhinagar",
        "col5": "40365000000",
        "col6": "40365000000"
    },
    {
        "col0": "Roman Catholic Diocese of Barinas",
        "col1": "Roman Catholic Archdiocese of Merida in Venezuela",
        "col2": "Roman Catholic Archdiocese of Merida in Venezuela",
        "col3": "Roman Catholic Archdiocese of Merida in Venezuela",
        "col4": "Roman Catholic Archdiocese of Merida in Venezuela",
        "col5": "35200000000",
        "col6": "35200000000"
    },
    {
        "col0": "Roman Catholic Diocese of Bareilly",
        "col1": "Roman Catholic Archdiocese of Agra",
        "col2": "Roman Catholic Archdiocese of Agra",
        "col3": "Roman Catholic Archdiocese of Agra",
        "col4": "Roman Catholic Archdiocese of Agra",
        "col5": "32229000000",
        "col6": "32229000000"
    },
    {
        "col0": "Roman Catholic Diocese of Barcelona",
        "col1": "Roman Catholic Archdiocese of Cumana",
        "col2": "Roman Catholic Archdiocese of Cumana",
        "col3": "Roman Catholic Archdiocese of Cumana",
        "col4": "Roman Catholic Archdiocese of Cumana",
        "col5": "43000000000",
        "col6": "43000000000"
    },
    {
        "col0": "Roman Catholic Diocese of Barbastro-Monzon",
        "col1": "Roman Catholic Archdiocese of Zaragoza",
        "col2": "Roman Catholic Archdiocese of Zaragoza",
        "col3": "Roman Catholic Archdiocese of Zaragoza",
        "col4": "Roman Catholic Archdiocese of Zaragoza",
        "col5": "8321000000",
        "col6": "8321000000"
    },
    {
        "col0": "Roman Catholic Diocese of Barahona",
        "col1": "Roman Catholic Archdiocese of Santo Domingo",
        "col2": "Roman Catholic Archdiocese of Santo Domingo",
        "col3": "Roman Catholic Archdiocese of Santo Domingo",
        "col4": "Roman Catholic Archdiocese of Santo Domingo",
        "col5": "2892000000",
        "col6": "2892000000"
    },
    {
        "col0": "Roman Catholic Diocese of Baoding",
        "col1": "Roman Catholic Archdiocese of Beijing",
        "col2": "Roman Catholic Archdiocese of Beijing",
        "col3": "Roman Catholic Archdiocese of Beijing",
        "col4": "Roman Catholic Archdiocese of Beijing",
        "col5": "12000000000",
        "col6": "12000000000"
    },
    {
        "col0": "Roman Catholic Diocese of Bani",
        "col1": "Roman Catholic Archdiocese of Santo Domingo",
        "col2": "Roman Catholic Archdiocese of Santo Domingo",
        "col3": "Roman Catholic Archdiocese of Santo Domingo",
        "col4": "Roman Catholic Archdiocese of Santo Domingo",
        "col5": "2892000000",
        "col6": "2892000000"
    },
    {
        "col0": "Roman Catholic Diocese of Banska Bystrica",
        "col1": "Bratislava",
        "col2": "Bratislava",
        "col3": "Bratislava",
        "col4": "Bratislava",
        "col5": "6750000000",
        "col6": "6750000000"
    },
    {
        "col0": "Roman Catholic Diocese of Banmaw",
        "col1": "Archdiocese of Mandalay",
        "col2": "Archdiocese of Mandalay",
        "col3": "Archdiocese of Mandalay",
        "col4": "Archdiocese of Mandalay",
        "col5": "10373000000",
        "col6": "10373000000"
    },
    {
        "col0": "Roman Catholic Diocese of Banjarmasin",
        "col1": "Roman Catholic Archdiocese of Samarinda",
        "col2": "Roman Catholic Archdiocese of Samarinda",
        "col3": "Roman Catholic Archdiocese of Samarinda",
        "col4": "Roman Catholic Archdiocese of Samarinda",
        "col5": "37530000000",
        "col6": "37530000000"
    },
    {
        "col0": "Roman Catholic Diocese of Banja Luka",
        "col1": "Roman Catholic Archdiocese of Vrhbosna",
        "col2": "Roman Catholic Archdiocese of Vrhbosna",
        "col3": "Roman Catholic Archdiocese of Vrhbosna",
        "col4": "Roman Catholic Archdiocese of Vrhbosna",
        "col5": "16457000000",
        "col6": "16457000000"
    },
    {
        "col0": "Roman Catholic Diocese of Bangued",
        "col1": "Archdiocese of Nueva Segovia",
        "col2": "Archdiocese of Nueva Segovia",
        "col3": "Archdiocese of Nueva Segovia",
        "col4": "Archdiocese of Nueva Segovia",
        "col5": "3975000000",
        "col6": "3975000000"
    },
    {
        "col0": "Roman Catholic Diocese of Bandung",
        "col1": "Roman Catholic Archdiocese of Jakarta",
        "col2": "Roman Catholic Archdiocese of Jakarta",
        "col3": "Roman Catholic Archdiocese of Jakarta",
        "col4": "Roman Catholic Archdiocese of Jakarta",
        "col5": "24449000000",
        "col6": "24449000000"
    },
    {
        "col0": "Roman Catholic Diocese of Ban Me Thuot",
        "col1": "Roman Catholic Archdiocese of Hue",
        "col2": "Roman Catholic Archdiocese of Hue",
        "col3": "Roman Catholic Archdiocese of Hue",
        "col4": "Roman Catholic Archdiocese of Hue",
        "col5": "24462000000",
        "col6": "24462000000"
    },
    {
        "col0": "Roman Catholic Diocese of Bani",
        "col1": "Roman Catholic Archdiocese of Santo Domingo",
        "col2": "Roman Catholic Archdiocese of Santo Domingo",
        "col3": "Roman Catholic Archdiocese of Santo Domingo",
        "col4": "Roman Catholic Archdiocese of Santo Domingo",
        "col5": "2892000000",
        "col6": "2892000000"
    },
    {
        "col0": "Roman Catholic Diocese of Balsas",
        "col1": "Roman Catholic Archdiocese of Sao Luis do Maranhao",
        "col2": "Roman Catholic Archdiocese of Sao Luis do Maranhao",
        "col3": "Roman Catholic Archdiocese of Sao Luis do Maranhao",
        "col4": "Roman Catholic Archdiocese of Sao Luis do Maranhao",
        "col5": "66025000000",
        "col6": "66025000000"
    },
    {
        "col0": "Roman Catholic Diocese of Ballarat",
        "col1": "Roman Catholic Ecclesiastical Province of Melbourne",
        "col2": "Roman Catholic Ecclesiastical Province of Melbourne",
        "col3": "Roman Catholic Ecclesiastical Province of Melbourne",
        "col4": "Roman Catholic Ecclesiastical Province of Melbourne",
        "col5": "58000000000",
        "col6": "58000000000"
    },
    {
        "col0": "Roman Catholic Diocese of Balasore",
        "col1": "Roman Catholic Archdiocese of Cuttack-Bhubaneswar",
        "col2": "Roman Catholic Archdiocese of Cuttack-Bhubaneswar",
        "col3": "Roman Catholic Archdiocese of Cuttack-Bhubaneswar",
        "col4": "Roman Catholic Archdiocese of Cuttack-Bhubaneswar",
        "col5": "25118000000",
        "col6": "25118000000"
    },
    {
        "col0": "Roman Catholic Diocese of Baker",
        "col1": "List of the Roman Catholic dioceses of the United States",
        "col2": "List of the Roman Catholic dioceses of the United States",
        "col3": "List of the Roman Catholic dioceses of the United States",
        "col4": "List of the Roman Catholic dioceses of the United States",
        "col5": "173013000000",
        "col6": "173013000000"
    },
    {
        "col0": "Roman Catholic Diocese of Bage",
        "col1": "Roman Catholic Archdiocese of Pelotas",
        "col2": "Roman Catholic Archdiocese of Pelotas",
        "col3": "Roman Catholic Archdiocese of Pelotas",
        "col4": "Roman Catholic Archdiocese of Pelotas",
        "col5": "35554000000",
        "col6": "35554000000"
    },
    {
        "col0": "Roman Catholic Diocese of Baguio",
        "col1": "Archdiocese of Nueva Segovia",
        "col2": "Archdiocese of Nueva Segovia",
        "col3": "Archdiocese of Nueva Segovia",
        "col4": "Archdiocese of Nueva Segovia",
        "col5": "2655000000",
        "col6": "2655000000"
    },
    {
        "col0": "Roman Catholic Diocese of Bagdogra",
        "col1": "Roman Catholic Archdiocese of Calcutta",
        "col2": "Roman Catholic Archdiocese of Calcutta",
        "col3": "Roman Catholic Archdiocese of Calcutta",
        "col4": "Roman Catholic Archdiocese of Calcutta",
        "col5": "8374000000",
        "col6": "8374000000"
    },
    {
        "col0": "Roman Catholic Diocese of Bage",
        "col1": "Roman Catholic Archdiocese of Pelotas",
        "col2": "Roman Catholic Archdiocese of Pelotas",
        "col3": "Roman Catholic Archdiocese of Pelotas",
        "col4": "Roman Catholic Archdiocese of Pelotas",
        "col5": "35554000000",
        "col6": "35554000000"
    },
    {
        "col0": "Roman Catholic Diocese of Badulla",
        "col1": "Roman Catholic Archdiocese of Colombo",
        "col2": "Roman Catholic Archdiocese of Colombo",
        "col3": "Roman Catholic Archdiocese of Colombo",
        "col4": "Roman Catholic Archdiocese of Colombo",
        "col5": "9349000000",
        "col6": "9349000000"
    },
    {
        "col0": "Roman Catholic Diocese of Bacolod",
        "col1": "Roman Catholic Archdiocese of Jaro",
        "col2": "Roman Catholic Archdiocese of Jaro",
        "col3": "Roman Catholic Archdiocese of Jaro",
        "col4": "Roman Catholic Archdiocese of Jaro",
        "col5": "2019000000",
        "col6": "2019000000"
    },
    {
        "col0": "Roman Catholic Diocese of Bacabal",
        "col1": "Roman Catholic Archdiocese of Sao Luis do Maranhao",
        "col2": "Roman Catholic Archdiocese of Sao Luis do Maranhao",
        "col3": "Roman Catholic Archdiocese of Sao Luis do Maranhao",
        "col4": "Roman Catholic Archdiocese of Sao Luis do Maranhao",
        "col5": "15867000000",
        "col6": "15867000000"
    },
    {
        "col0": "Roman Catholic Diocese of Babahoyo",
        "col1": "Roman Catholic Archdiocese of Guayaquil",
        "col2": "Roman Catholic Archdiocese of Guayaquil",
        "col3": "Roman Catholic Archdiocese of Guayaquil",
        "col4": "Roman Catholic Archdiocese of Guayaquil",
        "col5": "6531000000",
        "col6": "6531000000"
    },
    {
        "col0": "Roman Catholic Diocese of Bac Ninh",
        "col1": "Roman Catholic Archdiocese of Hanoi",
        "col2": "Roman Catholic Archdiocese of Hanoi",
        "col3": "Roman Catholic Archdiocese of Hanoi",
        "col4": "Roman Catholic Archdiocese of Hanoi",
        "col5": "24600000000",
        "col6": "24600000000"
    },
    {
        "col0": "Roman Catholic Diocese of Bui Chu",
        "col1": "Roman Catholic Archdiocese of Hanoi",
        "col2": "Roman Catholic Archdiocese of Hanoi",
        "col3": "Roman Catholic Archdiocese of Hanoi",
        "col4": "Roman Catholic Archdiocese of Hanoi",
        "col5": "1350000000",
        "col6": "1350000000"
    },
    {
        "col0": "Roman Catholic Diocese of Ba Ria",
        "col1": "Roman Catholic Archdiocese of Ho Chi Minh city",
        "col2": "Roman Catholic Archdiocese of Ho Chi Minh city",
        "col3": "Roman Catholic Archdiocese of Ho Chi Minh city",
        "col4": "Roman Catholic Archdiocese of Ho Chi Minh city",
        "col5": "1988000000",
        "col6": "1988000000"
    },
    {
        "col0": "Roman Catholic Diocese of Anatuya",
        "col1": "Roman Catholic Archdiocese of Tucuman",
        "col2": "Roman Catholic Archdiocese of Tucuman",
        "col3": "Roman Catholic Archdiocese of Tucuman",
        "col4": "Roman Catholic Archdiocese of Tucuman",
        "col5": "68000000000",
        "col6": "68000000000"
    },
    {
        "col0": "Roman Catholic Diocese of Azul",
        "col1": "Roman Catholic Archdiocese of La Plata in Argentina",
        "col2": "Roman Catholic Archdiocese of La Plata in Argentina",
        "col3": "Roman Catholic Archdiocese of La Plata in Argentina",
        "col4": "Roman Catholic Archdiocese of La Plata in Argentina",
        "col5": "64210000000",
        "col6": "64210000000"
    },
    {
        "col0": "Roman Catholic Diocese of Azogues",
        "col1": "Roman Catholic Archdiocese of Cuenca",
        "col2": "Roman Catholic Archdiocese of Cuenca",
        "col3": "Roman Catholic Archdiocese of Cuenca",
        "col4": "Roman Catholic Archdiocese of Cuenca",
        "col5": "4515000000",
        "col6": "4515000000"
    },
    {
        "col0": "Roman Catholic Diocese of Awka",
        "col1": "Roman Catholic Archdiocese of Onitsha",
        "col2": "Roman Catholic Archdiocese of Onitsha",
        "col3": "Roman Catholic Archdiocese of Onitsha",
        "col4": "Roman Catholic Archdiocese of Onitsha",
        "col5": "1551000000",
        "col6": "1551000000"
    },
    {
        "col0": "Roman Catholic Diocese of Avezzano",
        "col1": "Roman Catholic Archdiocese of L'Aquila",
        "col2": "Roman Catholic Archdiocese of L'Aquila",
        "col3": "Roman Catholic Archdiocese of L'Aquila",
        "col4": "Roman Catholic Archdiocese of L'Aquila",
        "col5": "1700000000",
        "col6": "1700000000"
    },
    {
        "col0": "Roman Catholic Diocese of Aversa",
        "col1": "Roman Catholic Archdiocese of Naples",
        "col2": "Roman Catholic Archdiocese of Naples",
        "col3": "Roman Catholic Archdiocese of Naples",
        "col4": "Roman Catholic Archdiocese of Naples",
        "col5": "361000000",
        "col6": "361000000"
    },
    {
        "col0": "Roman Catholic Diocese of Avellino",
        "col1": "Roman Catholic Archdiocese of Benevento",
        "col2": "Roman Catholic Archdiocese of Benevento",
        "col3": "Roman Catholic Archdiocese of Benevento",
        "col4": "Roman Catholic Archdiocese of Benevento",
        "col5": "394000000",
        "col6": "394000000"
    },
    {
        "col0": "Roman Catholic Diocese of Avellaneda-Lanus",
        "col1": "Roman Catholic Archdiocese of Buenos Aires",
        "col2": "Roman Catholic Archdiocese of Buenos Aires",
        "col3": "Roman Catholic Archdiocese of Buenos Aires",
        "col4": "Roman Catholic Archdiocese of Buenos Aires",
        "col5": "98000000",
        "col6": "98000000"
    },
    {
        "col0": "Roman Catholic Diocese of Aveiro",
        "col1": "Roman Catholic Archdiocese of Braga",
        "col2": "Roman Catholic Archdiocese of Braga",
        "col3": "Roman Catholic Archdiocese of Braga",
        "col4": "Roman Catholic Archdiocese of Braga",
        "col5": "1537000000",
        "col6": "1537000000"
    },
    {
        "col0": "Roman Catholic Diocese of Autun",
        "col1": "Roman Catholic Archdiocese of Dijon",
        "col2": "Roman Catholic Archdiocese of Dijon",
        "col3": "Roman Catholic Archdiocese of Dijon",
        "col4": "Roman Catholic Archdiocese of Dijon",
        "col5": "8575000000",
        "col6": "8575000000"
    },
    {
        "col0": "Roman Catholic Diocese of Autlan",
        "col1": "Roman Catholic Archdiocese of Guadalajara",
        "col2": "Roman Catholic Archdiocese of Guadalajara",
        "col3": "Roman Catholic Archdiocese of Guadalajara",
        "col4": "Roman Catholic Archdiocese of Guadalajara",
        "col5": "13499018031",
        "col6": "13499018031"
    },
    {
        "col0": "Roman Catholic Diocese of Austin",
        "col1": "Roman Catholic Archdiocese of Galveston-Houston",
        "col2": "Roman Catholic Archdiocese of Galveston-Houston",
        "col3": "Roman Catholic Archdiocese of Galveston-Houston",
        "col4": "Roman Catholic Archdiocese of Galveston-Houston",
        "col5": "57424000000",
        "col6": "57424000000"
    },
    {
        "col0": "Roman Catholic Diocese of Aurangabad",
        "col1": "Roman Catholic Archdiocese of Nagpur",
        "col2": "Roman Catholic Archdiocese of Nagpur",
        "col3": "Roman Catholic Archdiocese of Nagpur",
        "col4": "Roman Catholic Archdiocese of Nagpur",
        "col5": "64525000000",
        "col6": "64525000000"
    },
    {
        "col0": "Roman Catholic Diocese of Augsburg",
        "col1": "Roman Catholic Archdiocese of Munich and Freising",
        "col2": "Roman Catholic Archdiocese of Munich and Freising",
        "col3": "Roman Catholic Archdiocese of Munich and Freising",
        "col4": "Roman Catholic Archdiocese of Munich and Freising",
        "col5": "13250000000",
        "col6": "13250000000"
    },
    {
        "col0": "Roman Catholic Diocese of Auchi",
        "col1": "Roman Catholic Archdiocese of Benin City",
        "col2": "Roman Catholic Archdiocese of Benin City",
        "col3": "Roman Catholic Archdiocese of Benin City",
        "col4": "Roman Catholic Archdiocese of Benin City",
        "col5": "6116000000",
        "col6": "6116000000"
    },
    {
        "col0": "Roman Catholic Diocese of Atlacomulco",
        "col1": "Roman Catholic Archdiocese of Mexico",
        "col2": "Roman Catholic Archdiocese of Mexico",
        "col3": "Roman Catholic Archdiocese of Mexico",
        "col4": "Roman Catholic Archdiocese of Mexico",
        "col5": "5363865376",
        "col6": "5363865376"
    },
    {
        "col0": "Roman Catholic Diocese of Atambua",
        "col1": "Roman Catholic Archdiocese of Kupang",
        "col2": "Roman Catholic Archdiocese of Kupang",
        "col3": "Roman Catholic Archdiocese of Kupang",
        "col4": "Roman Catholic Archdiocese of Kupang",
        "col5": "5177000000",
        "col6": "5177000000"
    },
    {
        "col0": "Roman Catholic Diocese of Astorga",
        "col1": "Roman Catholic Archdiocese of Oviedo",
        "col2": "Roman Catholic Archdiocese of Oviedo",
        "col3": "Roman Catholic Archdiocese of Oviedo",
        "col4": "Roman Catholic Archdiocese of Oviedo",
        "col5": "11535000000",
        "col6": "11535000000"
    },
    {
        "col0": "Roman Catholic Diocese of Asti",
        "col1": "Roman Catholic Archdiocese of Turin",
        "col2": "Roman Catholic Archdiocese of Turin",
        "col3": "Roman Catholic Archdiocese of Turin",
        "col4": "Roman Catholic Archdiocese of Turin",
        "col5": "1451000000",
        "col6": "1451000000"
    },
    {
        "col0": "Roman Catholic Diocese of Assisi-Nocera Umbra-Gualdo Tadino",
        "col1": "Roman Catholic Archdiocese of Perugia-CittA  della Pieve",
        "col2": "Roman Catholic Archdiocese of Perugia-CittA  della Pieve",
        "col3": "Roman Catholic Archdiocese of Perugia-CittA  della Pieve",
        "col4": "Roman Catholic Archdiocese of Perugia-CittA  della Pieve",
        "col5": "1142000000",
        "col6": "1142000000"
    },
    {
        "col0": "Roman Catholic Diocese of Assis",
        "col1": "Roman Catholic Archdiocese of Botucatu",
        "col2": "Roman Catholic Archdiocese of Botucatu",
        "col3": "Roman Catholic Archdiocese of Botucatu",
        "col4": "Roman Catholic Archdiocese of Botucatu",
        "col5": "9187000000",
        "col6": "9187000000"
    },
    {
        "col0": "Roman Catholic Diocese of Ascoli Piceno",
        "col1": "Roman Catholic Archdiocese of Fermo",
        "col2": "Roman Catholic Archdiocese of Fermo",
        "col3": "Roman Catholic Archdiocese of Fermo",
        "col4": "Roman Catholic Archdiocese of Fermo",
        "col5": "840000000",
        "col6": "840000000"
    },
    {
        "col0": "Roman Catholic Diocese of Asansol",
        "col1": "Asansol",
        "col2": "Asansol",
        "col3": "Asansol",
        "col4": "Asansol",
        "col5": "12500000000",
        "col6": "12500000000"
    },
    {
        "col0": "Roman Catholic Diocese of Arundel and Brighton",
        "col1": "Province of Southwark",
        "col2": "Province of Southwark",
        "col3": "Province of Southwark",
        "col4": "Province of Southwark",
        "col5": "4998000000",
        "col6": "4998000000"
    },
    {
        "col0": "Roman Catholic Diocese of Arras",
        "col1": "Roman Catholic Archdiocese of Lille",
        "col2": "Roman Catholic Archdiocese of Lille",
        "col3": "Roman Catholic Archdiocese of Lille",
        "col4": "Roman Catholic Archdiocese of Lille",
        "col5": "6678000000",
        "col6": "6678000000"
    },
    {
        "col0": "Roman Catholic Diocese of Armenia",
        "col1": "Roman Catholic Archdiocese of Manizales",
        "col2": "Roman Catholic Archdiocese of Manizales",
        "col3": "Roman Catholic Archdiocese of Manizales",
        "col4": "Roman Catholic Archdiocese of Manizales",
        "col5": "1928000000",
        "col6": "1928000000"
    },
    {
        "col0": "Roman Catholic Diocese of Arlington",
        "col1": "Archdiocese of Baltimore",
        "col2": "Archdiocese of Baltimore",
        "col3": "Archdiocese of Baltimore",
        "col4": "Archdiocese of Baltimore",
        "col5": "16941112229",
        "col6": "16941112229"
    },
    {
        "col0": "Roman Catholic Diocese of Arica",
        "col1": "Roman Catholic Archdiocese of Antofagasta",
        "col2": "Roman Catholic Archdiocese of Antofagasta",
        "col3": "Roman Catholic Archdiocese of Antofagasta",
        "col4": "Roman Catholic Archdiocese of Antofagasta",
        "col5": "16512000000",
        "col6": "16512000000"
    },
    {
        "col0": "Roman Catholic Diocese of Ariano Irpino-Lacedonia",
        "col1": "Roman Catholic Archdiocese of Benevento",
        "col2": "Roman Catholic Archdiocese of Benevento",
        "col3": "Roman Catholic Archdiocese of Benevento",
        "col4": "Roman Catholic Archdiocese of Benevento",
        "col5": "781000000",
        "col6": "781000000"
    },
    {
        "col0": "Roman Catholic Diocese of Argyll and the Isles",
        "col1": "Archdiocese of St Andrews and Edinburgh",
        "col2": "Archdiocese of St Andrews and Edinburgh",
        "col3": "Archdiocese of St Andrews and Edinburgh",
        "col4": "Archdiocese of St Andrews and Edinburgh",
        "col5": "31080000000",
        "col6": "31080000000"
    },
    {
        "col0": "Roman Catholic Diocese of Arezzo-Cortona-Sansepolcro",
        "col1": "Roman Catholic Archdiocese of Florence",
        "col2": "Roman Catholic Archdiocese of Florence",
        "col3": "Roman Catholic Archdiocese of Florence",
        "col4": "Roman Catholic Archdiocese of Florence",
        "col5": "3425000000",
        "col6": "3425000000"
    },
    {
        "col0": "Roman Catholic Diocese of Arecibo",
        "col1": "List of the Roman Catholic dioceses of the United States",
        "col2": "List of the Roman Catholic dioceses of the United States",
        "col3": "List of the Roman Catholic dioceses of the United States",
        "col4": "List of the Roman Catholic dioceses of the United States",
        "col5": "2157460095",
        "col6": "2157460095"
    },
    {
        "col0": "Roman Catholic Diocese of Ardagh and Clonmacnoise",
        "col1": "Roman Catholic Archdiocese of Armagh",
        "col2": "Roman Catholic Archdiocese of Armagh",
        "col3": "Roman Catholic Archdiocese of Armagh",
        "col4": "Roman Catholic Archdiocese of Armagh",
        "col5": "2437178811",
        "col6": "2437178811"
    },
    {
        "col0": "Roman Catholic Diocese of Aracuai",
        "col1": "Roman Catholic Archdiocese of Diamantina",
        "col2": "Roman Catholic Archdiocese of Diamantina",
        "col3": "Roman Catholic Archdiocese of Diamantina",
        "col4": "Roman Catholic Archdiocese of Diamantina",
        "col5": "23526000000",
        "col6": "23526000000"
    },
    {
        "col0": "Roman Catholic Diocese of Aracatuba",
        "col1": "Roman Catholic Archdiocese of Botucatu",
        "col2": "Roman Catholic Archdiocese of Botucatu",
        "col3": "Roman Catholic Archdiocese of Botucatu",
        "col4": "Roman Catholic Archdiocese of Botucatu",
        "col5": "9798000000",
        "col6": "9798000000"
    },
    {
        "col0": "Roman Catholic Diocese of Arauca",
        "col1": "Roman Catholic Archdiocese of Nueva Pamplona",
        "col2": "Roman Catholic Archdiocese of Nueva Pamplona",
        "col3": "Roman Catholic Archdiocese of Nueva Pamplona",
        "col4": "Roman Catholic Archdiocese of Nueva Pamplona",
        "col5": "14480000000",
        "col6": "14480000000"
    },
    {
        "col0": "Roman Catholic Diocese of Aracuai",
        "col1": "Roman Catholic Archdiocese of Diamantina",
        "col2": "Roman Catholic Archdiocese of Diamantina",
        "col3": "Roman Catholic Archdiocese of Diamantina",
        "col4": "Roman Catholic Archdiocese of Diamantina",
        "col5": "23526000000",
        "col6": "23526000000"
    },
    {
        "col0": "Roman Catholic Diocese of Aracatuba",
        "col1": "Roman Catholic Archdiocese of Botucatu",
        "col2": "Roman Catholic Archdiocese of Botucatu",
        "col3": "Roman Catholic Archdiocese of Botucatu",
        "col4": "Roman Catholic Archdiocese of Botucatu",
        "col5": "9798000000",
        "col6": "9798000000"
    },
    {
        "col0": "Roman Catholic Diocese of Apucarana",
        "col1": "Roman Catholic Archdiocese of Londrina",
        "col2": "Roman Catholic Archdiocese of Londrina",
        "col3": "Roman Catholic Archdiocese of Londrina",
        "col4": "Roman Catholic Archdiocese of Londrina",
        "col5": "8655000000",
        "col6": "8655000000"
    },
    {
        "col0": "Roman Catholic Diocese of Apatzingan",
        "col1": "Roman Catholic Archdiocese of Morelia",
        "col2": "Roman Catholic Archdiocese of Morelia",
        "col3": "Roman Catholic Archdiocese of Morelia",
        "col4": "Roman Catholic Archdiocese of Morelia",
        "col5": "13105339838",
        "col6": "13105339838"
    },
    {
        "col0": "Roman Catholic Diocese of Apartado",
        "col1": "Roman Catholic Archdiocese of Santa Fe de Antioquia",
        "col2": "Roman Catholic Archdiocese of Santa Fe de Antioquia",
        "col3": "Roman Catholic Archdiocese of Santa Fe de Antioquia",
        "col4": "Roman Catholic Archdiocese of Santa Fe de Antioquia",
        "col5": "21000000000",
        "col6": "21000000000"
    },
    {
        "col0": "Roman Catholic Diocese of Aosta",
        "col1": "Roman Catholic Archdiocese of Turin",
        "col2": "Roman Catholic Archdiocese of Turin",
        "col3": "Roman Catholic Archdiocese of Turin",
        "col4": "Roman Catholic Archdiocese of Turin",
        "col5": "3262000000",
        "col6": "3262000000"
    },
    {
        "col0": "Roman Catholic Diocese of Anapolis",
        "col1": "Roman Catholic Archdiocese of Goiania",
        "col2": "Roman Catholic Archdiocese of Goiania",
        "col3": "Roman Catholic Archdiocese of Goiania",
        "col4": "Roman Catholic Archdiocese of Goiania",
        "col5": "14227000000",
        "col6": "14227000000"
    },
    {
        "col0": "Roman Catholic Diocese of Anuradhapura",
        "col1": "Roman Catholic Archdiocese of Colombo",
        "col2": "Roman Catholic Archdiocese of Colombo",
        "col3": "Roman Catholic Archdiocese of Colombo",
        "col4": "Roman Catholic Archdiocese of Colombo",
        "col5": "10727000000",
        "col6": "10727000000"
    },
    {
        "col0": "Roman Catholic Diocese of Antwerp",
        "col1": "Roman Catholic Archdiocese of Mechelen-Brussels",
        "col2": "Roman Catholic Archdiocese of Mechelen-Brussels",
        "col3": "Roman Catholic Archdiocese of Mechelen-Brussels",
        "col4": "Roman Catholic Archdiocese of Mechelen-Brussels",
        "col5": "2570000000",
        "col6": "2570000000"
    },
    {
        "col0": "Roman Catholic Diocese of Antipolo",
        "col1": "Roman Catholic Archdiocese of Manila",
        "col2": "Roman Catholic Archdiocese of Manila",
        "col3": "Roman Catholic Archdiocese of Manila",
        "col4": "Roman Catholic Archdiocese of Manila",
        "col5": "1828000000",
        "col6": "1828000000"
    },
    {
        "col0": "Roman Catholic Diocese of Anse-a-Veau and Miragoane",
        "col1": "Roman Catholic Archdiocese of Port-au-Prince",
        "col2": "Roman Catholic Archdiocese of Port-au-Prince",
        "col3": "Roman Catholic Archdiocese of Port-au-Prince",
        "col4": "Roman Catholic Archdiocese of Port-au-Prince",
        "col5": "1100000000",
        "col6": "1100000000"
    },
    {
        "col0": "Roman Catholic Diocese of Annecy",
        "col1": "Roman Catholic Archdiocese of Lyon",
        "col2": "Roman Catholic Archdiocese of Lyon",
        "col3": "Roman Catholic Archdiocese of Lyon",
        "col4": "Roman Catholic Archdiocese of Lyon",
        "col5": "4317000000",
        "col6": "4317000000"
    },
    {
        "col0": "Roman Catholic Diocese of Angra",
        "col1": "Patriarchate of Lisbon",
        "col2": "Patriarchate of Lisbon",
        "col3": "Patriarchate of Lisbon",
        "col4": "Patriarchate of Lisbon",
        "col5": "2243000000",
        "col6": "2243000000"
    },
    {
        "col0": "Roman Catholic Diocese of Angouleme",
        "col1": "Roman Catholic Archdiocese of Poitiers",
        "col2": "Roman Catholic Archdiocese of Poitiers",
        "col3": "Roman Catholic Archdiocese of Poitiers",
        "col4": "Roman Catholic Archdiocese of Poitiers",
        "col5": "5972000000",
        "col6": "5972000000"
    },
    {
        "col0": "Roman Catholic Diocese of Angers",
        "col1": "Roman Catholic Archdiocese of Rennes",
        "col2": "Roman Catholic Archdiocese of Rennes",
        "col3": "Roman Catholic Archdiocese of Rennes",
        "col4": "Roman Catholic Archdiocese of Rennes",
        "col5": "7166000000",
        "col6": "7166000000"
    },
    {
        "col0": "Roman Catholic Diocese of Andong",
        "col1": "Roman Catholic Archdiocese of Daegu",
        "col2": "Roman Catholic Archdiocese of Daegu",
        "col3": "Roman Catholic Archdiocese of Daegu",
        "col4": "Roman Catholic Archdiocese of Daegu",
        "col5": "10781000000",
        "col6": "10781000000"
    },
    {
        "col0": "Roman Catholic Diocese of Anapolis",
        "col1": "Roman Catholic Archdiocese of Goiania",
        "col2": "Roman Catholic Archdiocese of Goiania",
        "col3": "Roman Catholic Archdiocese of Goiania",
        "col4": "Roman Catholic Archdiocese of Goiania",
        "col5": "14227000000",
        "col6": "14227000000"
    },
    {
        "col0": "Roman Catholic Diocese of Amravati",
        "col1": "Roman Catholic Archdiocese of Nagpur",
        "col2": "Roman Catholic Archdiocese of Nagpur",
        "col3": "Roman Catholic Archdiocese of Nagpur",
        "col4": "Roman Catholic Archdiocese of Nagpur",
        "col5": "46447000000",
        "col6": "46447000000"
    },
    {
        "col0": "Roman Catholic Diocese of Amparo",
        "col1": "Roman Catholic Archdiocese of Campinas",
        "col2": "Roman Catholic Archdiocese of Campinas",
        "col3": "Roman Catholic Archdiocese of Campinas",
        "col4": "Roman Catholic Archdiocese of Campinas",
        "col5": "2084000000",
        "col6": "2084000000"
    },
    {
        "col0": "Roman Catholic Diocese of Amiens",
        "col1": "Roman Catholic Archdiocese of Reims",
        "col2": "Roman Catholic Archdiocese of Reims",
        "col3": "Roman Catholic Archdiocese of Reims",
        "col4": "Roman Catholic Archdiocese of Reims",
        "col5": "6277000000",
        "col6": "6277000000"
    },
    {
        "col0": "Roman Catholic Diocese of Amboina",
        "col1": "Roman Catholic Archdiocese of Makassar",
        "col2": "Roman Catholic Archdiocese of Makassar",
        "col3": "Roman Catholic Archdiocese of Makassar",
        "col4": "Roman Catholic Archdiocese of Makassar",
        "col5": "83777000000",
        "col6": "83777000000"
    },
    {
        "col0": "Roman Catholic Diocese of Ambikapur",
        "col1": "Roman Catholic Archdiocese of Raipur",
        "col2": "Roman Catholic Archdiocese of Raipur",
        "col3": "Roman Catholic Archdiocese of Raipur",
        "col4": "Roman Catholic Archdiocese of Raipur",
        "col5": "22337000000",
        "col6": "22337000000"
    },
    {
        "col0": "Roman Catholic Diocese of Ambato",
        "col1": "Roman Catholic Archdiocese of Quito",
        "col2": "Roman Catholic Archdiocese of Quito",
        "col3": "Roman Catholic Archdiocese of Quito",
        "col4": "Roman Catholic Archdiocese of Quito",
        "col5": "3844000000",
        "col6": "3844000000"
    },
    {
        "col0": "Roman Catholic Diocese of Amarillo",
        "col1": "List of the Roman Catholic dioceses of the United States",
        "col2": "List of the Roman Catholic dioceses of the United States",
        "col3": "List of the Roman Catholic dioceses of the United States",
        "col4": "List of the Roman Catholic dioceses of the United States",
        "col5": "66821693246",
        "col6": "66821693246"
    },
    {
        "col0": "Roman Catholic Diocese of Amargosa",
        "col1": "Roman Catholic Archdiocese of Sao Salvador da Bahia",
        "col2": "Roman Catholic Archdiocese of Sao Salvador da Bahia",
        "col3": "Roman Catholic Archdiocese of Sao Salvador da Bahia",
        "col4": "Roman Catholic Archdiocese of Sao Salvador da Bahia",
        "col5": "13380000000",
        "col6": "13380000000"
    },
    {
        "col0": "Roman Catholic Diocese of Altoona-Johnstown",
        "col1": "Archdiocese of Philadelphia",
        "col2": "Archdiocese of Philadelphia",
        "col3": "Archdiocese of Philadelphia",
        "col4": "Archdiocese of Philadelphia",
        "col5": "17285580648",
        "col6": "17285580648"
    },
    {
        "col0": "Roman Catholic Diocese of Alto Valle del Rio Negro",
        "col1": "Roman Catholic Archdiocese of Bahia Blanca",
        "col2": "Roman Catholic Archdiocese of Bahia Blanca",
        "col3": "Roman Catholic Archdiocese of Bahia Blanca",
        "col4": "Roman Catholic Archdiocese of Bahia Blanca",
        "col5": "96166258536",
        "col6": "96166258536"
    },
    {
        "col0": "Roman Catholic Diocese of Alto Solimoes",
        "col1": "Roman Catholic Archdiocese of Manaus",
        "col2": "Roman Catholic Archdiocese of Manaus",
        "col3": "Roman Catholic Archdiocese of Manaus",
        "col4": "Roman Catholic Archdiocese of Manaus",
        "col5": "130240000000",
        "col6": "130240000000"
    },
    {
        "col0": "Roman Catholic Diocese of Altamura-Gravina-Acquaviva delle Fonti",
        "col1": "Roman Catholic Archdiocese of Bari-Bitonto",
        "col2": "Roman Catholic Archdiocese of Bari-Bitonto",
        "col3": "Roman Catholic Archdiocese of Bari-Bitonto",
        "col4": "Roman Catholic Archdiocese of Bari-Bitonto",
        "col5": "1309000000",
        "col6": "1309000000"
    },
    {
        "col0": "Roman Catholic Diocese of Almeria",
        "col1": "Roman Catholic Archdiocese of Granada",
        "col2": "Roman Catholic Archdiocese of Granada",
        "col3": "Roman Catholic Archdiocese of Granada",
        "col4": "Roman Catholic Archdiocese of Granada",
        "col5": "8774000000",
        "col6": "8774000000"
    },
    {
        "col0": "Roman Catholic Diocese of Almenara",
        "col1": "Roman Catholic Archdiocese of Diamantina",
        "col2": "Roman Catholic Archdiocese of Diamantina",
        "col3": "Roman Catholic Archdiocese of Diamantina",
        "col4": "Roman Catholic Archdiocese of Diamantina",
        "col5": "15738000000",
        "col6": "15738000000"
    },
    {
        "col0": "Roman Catholic Diocese of Alleppey",
        "col1": "Latin Catholic Archdiocese of Trivandrum",
        "col2": "Latin Catholic Archdiocese of Trivandrum",
        "col3": "Latin Catholic Archdiocese of Trivandrum",
        "col4": "Latin Catholic Archdiocese of Trivandrum",
        "col5": "333000000",
        "col6": "333000000"
    },
    {
        "col0": "Roman Catholic Diocese of Allentown",
        "col1": "Archdiocese of Philadelphia",
        "col2": "Archdiocese of Philadelphia",
        "col3": "Archdiocese of Philadelphia",
        "col4": "Archdiocese of Philadelphia",
        "col5": "7182037029",
        "col6": "7182037029"
    },
    {
        "col0": "Roman Catholic Diocese of Allahabad",
        "col1": "Roman Catholic Archdiocese of Agra",
        "col2": "Roman Catholic Archdiocese of Agra",
        "col3": "Roman Catholic Archdiocese of Agra",
        "col4": "Roman Catholic Archdiocese of Agra",
        "col5": "45215000000",
        "col6": "45215000000"
    },
    {
        "col0": "Roman Catholic Diocese of Alife-Caiazzo",
        "col1": "Roman Catholic Archdiocese of Naples",
        "col2": "Roman Catholic Archdiocese of Naples",
        "col3": "Roman Catholic Archdiocese of Naples",
        "col4": "Roman Catholic Archdiocese of Naples",
        "col5": "580000000",
        "col6": "580000000"
    },
    {
        "col0": "Roman Catholic Diocese of Alghero-Bosa",
        "col1": "Roman Catholic Archdiocese of Sassari",
        "col2": "Roman Catholic Archdiocese of Sassari",
        "col3": "Roman Catholic Archdiocese of Sassari",
        "col4": "Roman Catholic Archdiocese of Sassari",
        "col5": "2012000000",
        "col6": "2012000000"
    },
    {
        "col0": "Roman Catholic Diocese of Alexandria in Louisiana",
        "col1": "Roman Catholic Archdiocese of New Orleans",
        "col2": "Roman Catholic Archdiocese of New Orleans",
        "col3": "Roman Catholic Archdiocese of New Orleans",
        "col4": "Roman Catholic Archdiocese of New Orleans",
        "col5": "74539857815",
        "col6": "74539857815"
    },
    {
        "col0": "Roman Catholic Diocese of Alessandria",
        "col1": "Roman Catholic Archdiocese of Vercelli",
        "col2": "Roman Catholic Archdiocese of Vercelli",
        "col3": "Roman Catholic Archdiocese of Vercelli",
        "col4": "Roman Catholic Archdiocese of Vercelli",
        "col5": "740000000",
        "col6": "740000000"
    },
    {
        "col0": "Roman Catholic Diocese of Ales-Terralba",
        "col1": "Roman Catholic Archdiocese of Oristano",
        "col2": "Roman Catholic Archdiocese of Oristano",
        "col3": "Roman Catholic Archdiocese of Oristano",
        "col4": "Roman Catholic Archdiocese of Oristano",
        "col5": "1494000000",
        "col6": "1494000000"
    },
    {
        "col0": "Roman Catholic Diocese of Alcala de Henares",
        "col1": "Roman Catholic Archdiocese of Madrid",
        "col2": "Roman Catholic Archdiocese of Madrid",
        "col3": "Roman Catholic Archdiocese of Madrid",
        "col4": "Roman Catholic Archdiocese of Madrid",
        "col5": "2586000000",
        "col6": "2586000000"
    },
    {
        "col0": "Roman Catholic Diocese of Albenga-Imperia",
        "col1": "Roman Catholic Archdiocese of Genoa",
        "col2": "Roman Catholic Archdiocese of Genoa",
        "col3": "Roman Catholic Archdiocese of Genoa",
        "col4": "Roman Catholic Archdiocese of Genoa",
        "col5": "979000000",
        "col6": "979000000"
    },
    {
        "col0": "Roman Catholic Diocese of Albany",
        "col1": "Archdiocese of New York",
        "col2": "Archdiocese of New York",
        "col3": "Archdiocese of New York",
        "col4": "Archdiocese of New York",
        "col5": "26985086121",
        "col6": "26985086121"
    },
    {
        "col0": "Roman Catholic Diocese of Albacete",
        "col1": "Roman Catholic Archdiocese of Toledo",
        "col2": "Roman Catholic Archdiocese of Toledo",
        "col3": "Roman Catholic Archdiocese of Toledo",
        "col4": "Roman Catholic Archdiocese of Toledo",
        "col5": "14926000000",
        "col6": "14926000000"
    },
    {
        "col0": "Roman Catholic Diocese of Alba Pompeia",
        "col1": "Roman Catholic Archdiocese of Turin",
        "col2": "Roman Catholic Archdiocese of Turin",
        "col3": "Roman Catholic Archdiocese of Turin",
        "col4": "Roman Catholic Archdiocese of Turin",
        "col5": "1050000000",
        "col6": "1050000000"
    },
    {
        "col0": "Roman Catholic Diocese of Alaminos",
        "col1": "Roman Catholic Archdiocese of Lingayen-Dagupan",
        "col2": "Roman Catholic Archdiocese of Lingayen-Dagupan",
        "col3": "Roman Catholic Archdiocese of Lingayen-Dagupan",
        "col4": "Roman Catholic Archdiocese of Lingayen-Dagupan",
        "col5": "2449000000",
        "col6": "2449000000"
    },
    {
        "col0": "Roman Catholic Diocese of Alajuela",
        "col1": "Roman Catholic Archdiocese of San Jose de Costa Rica",
        "col2": "Roman Catholic Archdiocese of San Jose de Costa Rica",
        "col3": "Roman Catholic Archdiocese of San Jose de Costa Rica",
        "col4": "Roman Catholic Archdiocese of San Jose de Costa Rica",
        "col5": "2700000000",
        "col6": "2700000000"
    },
    {
        "col0": "Roman Catholic Diocese of Alagoinhas",
        "col1": "Roman Catholic Archdiocese of Sao Salvador da Bahia",
        "col2": "Roman Catholic Archdiocese of Sao Salvador da Bahia",
        "col3": "Roman Catholic Archdiocese of Sao Salvador da Bahia",
        "col4": "Roman Catholic Archdiocese of Sao Salvador da Bahia",
        "col5": "15795000000",
        "col6": "15795000000"
    }
]