[
    {
        "col0": "B. Cowan",
        "col1": "Cleveland Browns",
        "col2": "Fort Wayne, Indiana",
        "col3": "Indiana Hoosiers football",
        "col4": "12",
        "col5": "2004-01-20",
        "col6": "1923-01-02"
    },
    {
        "col0": "B. Farrington",
        "col1": "Chicago Bears",
        "col2": "DeWalt, Texas",
        "col3": "Rensselaer, Indiana",
        "col4": "16",
        "col5": "1964-07-27",
        "col6": "1936-02-06"
    },
    {
        "col0": "B. Lothridge",
        "col1": "Dallas Cowboys",
        "col2": "Cleveland, Georgia",
        "col3": "Pensacola, Florida",
        "col4": "6",
        "col5": "1996-02-24",
        "col6": "1942-01-01"
    },
    {
        "col0": "B. Lund",
        "col1": "Cleveland Browns",
        "col2": "Akron, Ohio",
        "col3": "Chagrin Falls, Ohio",
        "col4": "15",
        "col5": "2008-09-27",
        "col6": "1924-10-27"
    },
    {
        "col0": "B. Flowers",
        "col1": "Ottawa Rough Riders",
        "col2": "Erie, Pennsylvania",
        "col3": "Lafayette, Indiana",
        "col4": "2",
        "col5": "2011-04-14",
        "col6": "1930-02-14"
    },
    {
        "col0": "B. Jackson",
        "col1": "Cincinnati Bengals",
        "col2": "Washington, D.C.",
        "col3": "Lompoc, California",
        "col4": "4",
        "col5": "1997-05-26",
        "col6": "1950-08-24"
    },
    {
        "col0": "B. Dafney",
        "col1": "Houston Oilers",
        "col2": "Los Angeles, California",
        "col3": "Conyers, Georgia",
        "col4": "9",
        "col5": "2006-01-11",
        "col6": "1968-11-01"
    },
    {
        "col0": "B. McRae",
        "col1": "Chicago Bears",
        "col2": "Aberdeen, North Carolina",
        "col3": "Columbia, Maryland",
        "col4": "2",
        "col5": "2012-11-22",
        "col6": "1939-12-08"
    },
    {
        "col0": "B. Fricke",
        "col1": "Dallas Cowboys",
        "col2": "Austin, Texas",
        "col3": "Plano, Texas",
        "col4": "7",
        "col5": "2011-02-21",
        "col6": "1975-11-13"
    },
    {
        "col0": "B. Davidson",
        "col1": "Green Bay Packers",
        "col2": "California",
        "col3": "California",
        "col4": "4",
        "col5": "2012-07-02",
        "col6": "1940-06-14"
    },
    {
        "col0": "A. Parker",
        "col1": "Philadelphia Eagles",
        "col2": "Winston-Salem, North Carolina",
        "col3": "Sacramento, California",
        "col4": "12",
        "col5": "2004-05-04",
        "col6": "1952-01-16"
    },
    {
        "col0": "A. Murakowski",
        "col1": "Detroit Lions",
        "col2": "East Chicago, Indiana",
        "col3": "Hammond, Indiana",
        "col4": "3",
        "col5": "1985-09-13",
        "col6": "1925-03-15"
    },
    {
        "col0": "A. Weinmeister",
        "col1": "New York Yankees",
        "col2": "Canada",
        "col3": "Seattle",
        "col4": "17",
        "col5": "2000-06-29",
        "col6": "1923-03-23"
    },
    {
        "col0": "A. Sutton",
        "col1": "Minnesota Vikings",
        "col2": "New Orleans, Louisiana",
        "col3": "Yakima, Washington",
        "col4": "2",
        "col5": "2015-08-29",
        "col6": "1941-11-02"
    },
    {
        "col0": "A. Bertelli",
        "col1": "Los Angeles Dons",
        "col2": "Springfield, Massachusetts",
        "col3": "Clifton, New Jersey",
        "col4": "1",
        "col5": "1999-06-26",
        "col6": "1921-06-18"
    },
    {
        "col0": "A. Spiva",
        "col1": "Atlanta Falcons",
        "col2": "Chattanooga, Tennessee",
        "col3": "Atlanta, Georgia",
        "col4": "5",
        "col5": "1979-04-03",
        "col6": "1954-03-27"
    },
    {
        "col0": "A. Robustelli",
        "col1": "Los Angeles Rams",
        "col2": "Stamford, Connecticut",
        "col3": "Stamford, Connecticut",
        "col4": "19",
        "col5": "2011-05-31",
        "col6": "1925-12-06"
    },
    {
        "col0": "A. White",
        "col1": "Philadelphia Eagles",
        "col2": "Crosby, Texas",
        "col3": "Fort Worth, Texas",
        "col4": "13",
        "col5": "1996-10-21",
        "col6": "1915-03-23"
    },
    {
        "col0": "A. Kapter",
        "col1": "Cleveland Browns",
        "col2": "Waukegan, Illinois",
        "col3": "Thousand Oaks, California",
        "col4": "21",
        "col5": "2005-07-25",
        "col6": "1922-03-26"
    },
    {
        "col0": "A. Burk",
        "col1": "Baltimore Colts",
        "col2": "Mexia, Texas",
        "col3": "Rusk, Texas",
        "col4": "1",
        "col5": "2003-7-28",
        "col6": "1927-12-14"
    },
    {
        "col0": "A. Gibron",
        "col1": "Buffalo Bills",
        "col2": "Michigan City, Indiana",
        "col3": "Belleair, Florida",
        "col4": "6",
        "col5": "1997-09-23",
        "col6": "1925-09-22"
    }
]