[
    {
        "col0": "Bladensburg, Maryland",
        "col1": "-4",
        "col2": "25899",
        "col3": "2615887"
    },
    {
        "col0": "Blackman Charter Township, Michigan",
        "col1": "-4",
        "col2": "0",
        "col3": "82361621"
    },
    {
        "col0": "Blackfoot, Idaho",
        "col1": "-6",
        "col2": "620000",
        "col3": "15720000"
    },
    {
        "col0": "Black Rock, New Mexico",
        "col1": "-6",
        "col2": "200000",
        "col3": "4402979"
    },
    {
        "col0": "Black Rock, Arkansas",
        "col1": "-5",
        "col2": "400000",
        "col3": "8900000"
    },
    {
        "col0": "Black Mountain, North Carolina",
        "col1": "-4",
        "col2": "40000",
        "col3": "17400000"
    },
    {
        "col0": "Black Creek Township, Luzerne County, Pennsylvania",
        "col1": "-4",
        "col2": "258998",
        "col3": "63713707"
    },
    {
        "col0": "Bismarck, North Dakota",
        "col1": "-5",
        "col2": "980000",
        "col3": "80885328"
    },
    {
        "col0": "Binghamton, New York",
        "col1": "-4",
        "col2": "1683492",
        "col3": "28852467"
    },
    {
        "col0": "Biggs Junction, Oregon",
        "col1": "-7",
        "col2": "0",
        "col3": "2071990"
    },
    {
        "col0": "Bigfork, Montana",
        "col1": "-6",
        "col2": "15700000",
        "col3": "96600000"
    },
    {
        "col0": "Big Piney, Wyoming",
        "col1": "-6",
        "col2": "0",
        "col3": "1165494"
    },
    {
        "col0": "Big Delta, Alaska",
        "col1": "-8",
        "col2": "15280929",
        "col3": "158248273"
    },
    {
        "col0": "Bethlehem Township, Stark County, Ohio",
        "col1": "-4",
        "col2": "200000",
        "col3": "86505602"
    },
    {
        "col0": "Bethlehem, New York",
        "col1": "-4",
        "col2": "2000000",
        "col3": "128400000"
    },
    {
        "col0": "Bethel, Alaska",
        "col1": "-8",
        "col2": "14300000",
        "col3": "126100000"
    },
    {
        "col0": "Berne, New York",
        "col1": "-4",
        "col2": "1553992",
        "col3": "167700000"
    },
    {
        "col0": "Berlin, New York",
        "col1": "-4",
        "col2": "700000",
        "col3": "155140287"
    },
    {
        "col0": "Berkeley Heights, New Jersey",
        "col1": "-4",
        "col2": "142000",
        "col3": "16228865"
    },
    {
        "col0": "Berkeley, California",
        "col1": "-7",
        "col2": "18715254",
        "col3": "45832429"
    },
    {
        "col0": "Bergland Township, Michigan",
        "col1": "-4",
        "col2": "25381883",
        "col3": "280236713"
    },
    {
        "col0": "Benton Township, Columbia County, Pennsylvania",
        "col1": "-4",
        "col2": "700000",
        "col3": "51600000"
    },
    {
        "col0": "Benton Township, Cheboygan County, Michigan",
        "col1": "-4",
        "col2": "9700000",
        "col3": "161600000"
    },
    {
        "col0": "Benton Harbor, Michigan",
        "col1": "-4",
        "col2": "647497",
        "col3": "12120000"
    },
    {
        "col0": "Benkelman, Nebraska",
        "col1": "-6",
        "col2": "0",
        "col3": "2070000"
    },
    {
        "col0": "Bend, Oregon",
        "col1": "-7",
        "col2": "670000",
        "col3": "86168904"
    },
    {
        "col0": "Bellevue, Washington",
        "col1": "-7",
        "col2": "11650000",
        "col3": "94456866"
    },
    {
        "col0": "Belle, West Virginia",
        "col1": "-4",
        "col2": "230000",
        "col3": "2020000"
    },
    {
        "col0": "Belfield, North Dakota",
        "col1": "-6",
        "col2": "25899",
        "col3": "2820000"
    },
    {
        "col0": "Belden, California",
        "col1": "-7",
        "col2": "300000",
        "col3": "1878000"
    },
    {
        "col0": "Beecher Falls, Vermont",
        "col1": "-4",
        "col2": "124319",
        "col3": "3392884"
    },
    {
        "col0": "Bedford, Massachusetts",
        "col1": "-4",
        "col2": "258998",
        "col3": "35900000"
    },
    {
        "col0": "Beckwourth, California",
        "col1": "-7",
        "col2": "12949",
        "col3": "30263000"
    },
    {
        "col0": "Beaver Township, Columbia County, Pennsylvania",
        "col1": "-4",
        "col2": "1000000",
        "col3": "92700000"
    },
    {
        "col0": "Beaver, Alaska",
        "col1": "-8",
        "col2": "2800000",
        "col3": "55900000"
    },
    {
        "col0": "Bear River City, Utah",
        "col1": "-6",
        "col2": "0",
        "col3": "4100000"
    },
    {
        "col0": "Basalt, Colorado",
        "col1": "-6",
        "col2": "0",
        "col3": "4920977"
    },
    {
        "col0": "Barrington Township, Cook County, Illinois",
        "col1": "-5",
        "col2": "3000000",
        "col3": "93300000"
    },
    {
        "col0": "Barnesville, Ohio",
        "col1": "-4",
        "col2": "25899",
        "col3": "5050000"
    },
    {
        "col0": "Banks, Idaho",
        "col1": "-6",
        "col2": "103599",
        "col3": "5824883"
    },
    {
        "col0": "Bandon, Oregon",
        "col1": "-7",
        "col2": "980000",
        "col3": "8158462"
    },
    {
        "col0": "Baltimore",
        "col1": "-4",
        "col2": "28748868",
        "col3": "238537904"
    },
    {
        "col0": "Bakerstown, Pennsylvania",
        "col1": "-4",
        "col2": "0",
        "col3": "5600000"
    }
]