[
    {
        "col0": "Speed skating at the 1964 Winter Olympics - Men's 1500 metres",
        "col1": "Speed skating at the 1968 Winter Olympics - Men's 1500 metres",
        "col2": "V. Haugen",
        "col3": "Speed skating at the 1960 Winter Olympics - Men's 1500 metres"
    },
    {
        "col0": "Speed skating at the 1964 Winter Olympics - Men's 10,000 metres",
        "col1": "Speed skating at the 1968 Winter Olympics - Men's 10,000 metres",
        "col2": "K. Johannesen",
        "col3": "Speed skating at the 1960 Winter Olympics - Men's 10,000 metres"
    },
    {
        "col0": "Speed skating at the 1960 Winter Olympics - Men's 500 metres",
        "col1": "Speed skating at the 1964 Winter Olympics - Men's 500 metres",
        "col2": "R. Grach",
        "col3": "Speed skating at the 1956 Winter Olympics - Men's 500 metres"
    },
    {
        "col0": "Speed skating at the 1960 Winter Olympics - Men's 5000 metres",
        "col1": "Speed skating at the 1964 Winter Olympics - Men's 5000 metres",
        "col2": "J. Pesman",
        "col3": "Speed skating at the 1956 Winter Olympics - Men's 5000 metres"
    },
    {
        "col0": "Speed skating at the 1960 Winter Olympics - Men's 1500 metres",
        "col1": "Speed skating at the 1964 Winter Olympics - Men's 1500 metres",
        "col2": "B. Stenin",
        "col3": "Speed skating at the 1956 Winter Olympics - Men's 1500 metres"
    },
    {
        "col0": "Speed skating at the 1960 Winter Olympics - Men's 10,000 metres",
        "col1": "Speed skating at the 1964 Winter Olympics - Men's 10,000 metres",
        "col2": "K. Backman",
        "col3": "Speed skating at the 1956 Winter Olympics - Men's 10,000 metres"
    },
    {
        "col0": "Speed skating at the 1960 Winter Olympics - Men's 500 metres",
        "col1": "Speed skating at the 1964 Winter Olympics - Men's 500 metres",
        "col2": "R. Grach",
        "col3": "Speed skating at the 1956 Winter Olympics - Men's 500 metres"
    },
    {
        "col0": "Speed skating at the 1960 Winter Olympics - Men's 5000 metres",
        "col1": "Speed skating at the 1964 Winter Olympics - Men's 5000 metres",
        "col2": "J. Pesman",
        "col3": "Speed skating at the 1956 Winter Olympics - Men's 5000 metres"
    },
    {
        "col0": "Speed skating at the 1960 Winter Olympics - Men's 1500 metres",
        "col1": "Speed skating at the 1964 Winter Olympics - Men's 1500 metres",
        "col2": "B. Stenin",
        "col3": "Speed skating at the 1956 Winter Olympics - Men's 1500 metres"
    },
    {
        "col0": "Speed skating at the 1960 Winter Olympics - Men's 10,000 metres",
        "col1": "Speed skating at the 1964 Winter Olympics - Men's 10,000 metres",
        "col2": "K. Backman",
        "col3": "Speed skating at the 1956 Winter Olympics - Men's 10,000 metres"
    },
    {
        "col0": "Speed skating at the 1956 Winter Olympics - Men's 500 metres",
        "col1": "Speed skating at the 1960 Winter Olympics - Men's 500 metres",
        "col2": "A. Gjestvang",
        "col3": "Speed skating at the 1952 Winter Olympics - Men's 500 metres"
    },
    {
        "col0": "Speed skating at the 1956 Winter Olympics - Men's 5000 metres",
        "col1": "Speed skating at the 1960 Winter Olympics - Men's 5000 metres",
        "col2": "O. Goncharenko",
        "col3": "Speed skating at the 1952 Winter Olympics - Men's 5000 metres"
    },
    {
        "col0": "Speed skating at the 1956 Winter Olympics - Men's 1500 metres",
        "col1": "Speed skating at the 1960 Winter Olympics - Men's 1500 metres",
        "col2": "T. Salonen",
        "col3": "Speed skating at the 1952 Winter Olympics - Men's 1500 metres"
    },
    {
        "col0": "Speed skating at the 1956 Winter Olympics - Men's 10,000 metres",
        "col1": "Speed skating at the 1960 Winter Olympics - Men's 10,000 metres",
        "col2": "O. Goncharenko",
        "col3": "Speed skating at the 1952 Winter Olympics - Men's 10,000 metres"
    },
    {
        "col0": "Speed skating at the 1956 Winter Olympics - Men's 500 metres",
        "col1": "Speed skating at the 1960 Winter Olympics - Men's 500 metres",
        "col2": "A. Gjestvang",
        "col3": "Speed skating at the 1952 Winter Olympics - Men's 500 metres"
    },
    {
        "col0": "Speed skating at the 1956 Winter Olympics - Men's 5000 metres",
        "col1": "Speed skating at the 1960 Winter Olympics - Men's 5000 metres",
        "col2": "O. Goncharenko",
        "col3": "Speed skating at the 1952 Winter Olympics - Men's 5000 metres"
    },
    {
        "col0": "Speed skating at the 1956 Winter Olympics - Men's 1500 metres",
        "col1": "Speed skating at the 1960 Winter Olympics - Men's 1500 metres",
        "col2": "T. Salonen",
        "col3": "Speed skating at the 1952 Winter Olympics - Men's 1500 metres"
    },
    {
        "col0": "Speed skating at the 1956 Winter Olympics - Men's 10,000 metres",
        "col1": "Speed skating at the 1960 Winter Olympics - Men's 10,000 metres",
        "col2": "O. Goncharenko",
        "col3": "Speed skating at the 1952 Winter Olympics - Men's 10,000 metres"
    },
    {
        "col0": "Speed skating at the 1952 Winter Olympics - Men's 500 metres",
        "col1": "Speed skating at the 1956 Winter Olympics - Men's 500 metres",
        "col2": "G. Audley",
        "col3": "Speed skating at the 1948 Winter Olympics - Men's 500 metres"
    },
    {
        "col0": "Speed skating at the 1952 Winter Olympics - Men's 5000 metres",
        "col1": "Speed skating at the 1956 Winter Olympics - Men's 5000 metres",
        "col2": "S. I. Haugli",
        "col3": "Speed skating at the 1948 Winter Olympics - Men's 5000 metres"
    },
    {
        "col0": "Speed skating at the 1952 Winter Olympics - Men's 1500 metres",
        "col1": "Speed skating at the 1956 Winter Olympics - Men's 1500 metres",
        "col2": "R. Aas",
        "col3": "Speed skating at the 1948 Winter Olympics - Men's 1500 metres"
    },
    {
        "col0": "Speed skating at the 1952 Winter Olympics - Men's 10,000 metres",
        "col1": "Speed skating at the 1956 Winter Olympics - Men's 10,000 metres",
        "col2": "C. Asplund",
        "col3": "Speed skating at the 1948 Winter Olympics - Men's 10,000 metres"
    },
    {
        "col0": "Speed skating at the 1952 Winter Olympics - Men's 500 metres",
        "col1": "Speed skating at the 1956 Winter Olympics - Men's 500 metres",
        "col2": "G. Audley",
        "col3": "Speed skating at the 1948 Winter Olympics - Men's 500 metres"
    },
    {
        "col0": "Speed skating at the 1952 Winter Olympics - Men's 5000 metres",
        "col1": "Speed skating at the 1956 Winter Olympics - Men's 5000 metres",
        "col2": "S. I. Haugli",
        "col3": "Speed skating at the 1948 Winter Olympics - Men's 5000 metres"
    },
    {
        "col0": "Speed skating at the 1952 Winter Olympics - Men's 1500 metres",
        "col1": "Speed skating at the 1956 Winter Olympics - Men's 1500 metres",
        "col2": "R. Aas",
        "col3": "Speed skating at the 1948 Winter Olympics - Men's 1500 metres"
    },
    {
        "col0": "Speed skating at the 1952 Winter Olympics - Men's 10,000 metres",
        "col1": "Speed skating at the 1956 Winter Olympics - Men's 10,000 metres",
        "col2": "C. Asplund",
        "col3": "Speed skating at the 1948 Winter Olympics - Men's 10,000 metres"
    },
    {
        "col0": "Speed skating at the 1948 Winter Olympics - Men's 5000 metres",
        "col1": "Speed skating at the 1952 Winter Olympics - Men's 5000 metres",
        "col2": "G. Hedlund",
        "col3": "Speed skating at the 1936 Winter Olympics - Men's 5000 metres"
    },
    {
        "col0": "Speed skating at the 1948 Winter Olympics - Men's 1500 metres",
        "col1": "Speed skating at the 1952 Winter Olympics - Men's 1500 metres",
        "col2": "O. Lundberg",
        "col3": "Speed skating at the 1936 Winter Olympics - Men's 1500 metres"
    },
    {
        "col0": "Speed skating at the 1948 Winter Olympics - Men's 10,000 metres",
        "col1": "Speed skating at the 1952 Winter Olympics - Men's 10,000 metres",
        "col2": "P. Lammio",
        "col3": "Speed skating at the 1936 Winter Olympics - Men's 10,000 metres"
    },
    {
        "col0": "Speed skating at the 1948 Winter Olympics - Men's 5000 metres",
        "col1": "Speed skating at the 1952 Winter Olympics - Men's 5000 metres",
        "col2": "G. Hedlund",
        "col3": "Speed skating at the 1936 Winter Olympics - Men's 5000 metres"
    },
    {
        "col0": "Speed skating at the 1948 Winter Olympics - Men's 1500 metres",
        "col1": "Speed skating at the 1952 Winter Olympics - Men's 1500 metres",
        "col2": "O. Lundberg",
        "col3": "Speed skating at the 1936 Winter Olympics - Men's 1500 metres"
    },
    {
        "col0": "Speed skating at the 1948 Winter Olympics - Men's 10,000 metres",
        "col1": "Speed skating at the 1952 Winter Olympics - Men's 10,000 metres",
        "col2": "P. Lammio",
        "col3": "Speed skating at the 1936 Winter Olympics - Men's 10,000 metres"
    },
    {
        "col0": "Speed skating at the 1936 Winter Olympics - Men's 500 metres",
        "col1": "Speed skating at the 1948 Winter Olympics - Men's 500 metres",
        "col2": "L. Freisinger",
        "col3": "Speed skating at the 1932 Winter Olympics - Men's 500 metres"
    },
    {
        "col0": "Speed skating at the 1936 Winter Olympics - Men's 5000 metres",
        "col1": "Speed skating at the 1948 Winter Olympics - Men's 5000 metres",
        "col2": "A. Ojala",
        "col3": "Speed skating at the 1932 Winter Olympics - Men's 5000 metres"
    },
    {
        "col0": "Speed skating at the 1936 Winter Olympics - Men's 1500 metres",
        "col1": "Speed skating at the 1948 Winter Olympics - Men's 1500 metres",
        "col2": "B. Wasenius",
        "col3": "Speed skating at the 1932 Winter Olympics - Men's 1500 metres"
    },
    {
        "col0": "Speed skating at the 1936 Winter Olympics - Men's 10,000 metres",
        "col1": "Speed skating at the 1948 Winter Olympics - Men's 10,000 metres",
        "col2": "M. Stiepl",
        "col3": "Speed skating at the 1932 Winter Olympics - Men's 10,000 metres"
    },
    {
        "col0": "Speed skating at the 1936 Winter Olympics - Men's 500 metres",
        "col1": "Speed skating at the 1948 Winter Olympics - Men's 500 metres",
        "col2": "L. Freisinger",
        "col3": "Speed skating at the 1932 Winter Olympics - Men's 500 metres"
    },
    {
        "col0": "Speed skating at the 1936 Winter Olympics - Men's 5000 metres",
        "col1": "Speed skating at the 1948 Winter Olympics - Men's 5000 metres",
        "col2": "A. Ojala",
        "col3": "Speed skating at the 1932 Winter Olympics - Men's 5000 metres"
    },
    {
        "col0": "Speed skating at the 1936 Winter Olympics - Men's 1500 metres",
        "col1": "Speed skating at the 1948 Winter Olympics - Men's 1500 metres",
        "col2": "B. Wasenius",
        "col3": "Speed skating at the 1932 Winter Olympics - Men's 1500 metres"
    },
    {
        "col0": "Speed skating at the 1936 Winter Olympics - Men's 10,000 metres",
        "col1": "Speed skating at the 1948 Winter Olympics - Men's 10,000 metres",
        "col2": "M. Stiepl",
        "col3": "Speed skating at the 1932 Winter Olympics - Men's 10,000 metres"
    },
    {
        "col0": "Speed skating at the 1932 Winter Olympics - Men's 500 metres",
        "col1": "Speed skating at the 1936 Winter Olympics - Men's 500 metres",
        "col2": "A. Hurd",
        "col3": "Speed skating at the 1928 Winter Olympics - Men's 500 metres"
    },
    {
        "col0": "Speed skating at the 1932 Winter Olympics - Men's 5000 metres",
        "col1": "Speed skating at the 1936 Winter Olympics - Men's 5000 metres",
        "col2": "W. Logan",
        "col3": "Speed skating at the 1928 Winter Olympics - Men's 5000 metres"
    },
    {
        "col0": "Speed skating at the 1932 Winter Olympics - Men's 1500 metres",
        "col1": "Speed skating at the 1936 Winter Olympics - Men's 1500 metres",
        "col2": "W. Logan",
        "col3": "Speed skating at the 1928 Winter Olympics - Men's 1500 metres"
    },
    {
        "col0": "Speed skating at the 1932 Winter Olympics - Men's 500 metres",
        "col1": "Speed skating at the 1936 Winter Olympics - Men's 500 metres",
        "col2": "A. Hurd",
        "col3": "Speed skating at the 1928 Winter Olympics - Men's 500 metres"
    },
    {
        "col0": "Speed skating at the 1932 Winter Olympics - Men's 5000 metres",
        "col1": "Speed skating at the 1936 Winter Olympics - Men's 5000 metres",
        "col2": "W. Logan",
        "col3": "Speed skating at the 1928 Winter Olympics - Men's 5000 metres"
    },
    {
        "col0": "Speed skating at the 1932 Winter Olympics - Men's 1500 metres",
        "col1": "Speed skating at the 1936 Winter Olympics - Men's 1500 metres",
        "col2": "W. Logan",
        "col3": "Speed skating at the 1928 Winter Olympics - Men's 1500 metres"
    },
    {
        "col0": "Speed skating at the 1928 Winter Olympics - Men's 500 metres",
        "col1": "Speed skating at the 1932 Winter Olympics - Men's 500 metres",
        "col2": "J. Farrell",
        "col3": "Speed skating at the 1924 Winter Olympics - Men's 500 metres"
    },
    {
        "col0": "Speed skating at the 1928 Winter Olympics - Men's 5000 metres",
        "col1": "Speed skating at the 1932 Winter Olympics - Men's 5000 metres",
        "col2": "B. Evensen",
        "col3": "Speed skating at the 1924 Winter Olympics - Men's 5000 metres"
    },
    {
        "col0": "Speed skating at the 1928 Winter Olympics - Men's 1500 metres",
        "col1": "Speed skating at the 1932 Winter Olympics - Men's 1500 metres",
        "col2": "I. Ballangrud",
        "col3": "Speed skating at the 1924 Winter Olympics - Men's 1500 metres"
    },
    {
        "col0": "Speed skating at the 1928 Winter Olympics - Men's 500 metres",
        "col1": "Speed skating at the 1932 Winter Olympics - Men's 500 metres",
        "col2": "J. Farrell",
        "col3": "Speed skating at the 1924 Winter Olympics - Men's 500 metres"
    },
    {
        "col0": "Speed skating at the 1928 Winter Olympics - Men's 5000 metres",
        "col1": "Speed skating at the 1932 Winter Olympics - Men's 5000 metres",
        "col2": "B. Evensen",
        "col3": "Speed skating at the 1924 Winter Olympics - Men's 5000 metres"
    },
    {
        "col0": "Speed skating at the 1928 Winter Olympics - Men's 1500 metres",
        "col1": "Speed skating at the 1932 Winter Olympics - Men's 1500 metres",
        "col2": "I. Ballangrud",
        "col3": "Speed skating at the 1924 Winter Olympics - Men's 1500 metres"
    },
    {
        "col0": "Snowboarding at the 2010 Winter Olympics - Women's snowboard cross",
        "col1": "Snowboarding at the 2014 Winter Olympics - Women's snowboard cross",
        "col2": "O. Nobs",
        "col3": "Snowboarding at the 2006 Winter Olympics - Women's snowboard cross"
    },
    {
        "col0": "Snowboarding at the 2010 Winter Olympics - Women's parallel giant slalom",
        "col1": "Snowboarding at the 2014 Winter Olympics - Women's parallel giant slalom",
        "col2": "M. Kreiner",
        "col3": "Snowboarding at the 2006 Winter Olympics - Women's parallel giant slalom"
    },
    {
        "col0": "Snowboarding at the 2010 Winter Olympics - Women's halfpipe",
        "col1": "Snowboarding at the 2014 Winter Olympics - Women's halfpipe",
        "col2": "K. Clark",
        "col3": "Snowboarding at the 2006 Winter Olympics - Women's halfpipe"
    },
    {
        "col0": "Snowboarding at the 2010 Winter Olympics - Men's snowboard cross",
        "col1": "Snowboarding at the 2014 Winter Olympics - Men's snowboard cross",
        "col2": "T. Ramoin",
        "col3": "Snowboarding at the 2006 Winter Olympics - Men's snowboard cross"
    },
    {
        "col0": "Snowboarding at the 2010 Winter Olympics - Men's parallel giant slalom",
        "col1": "Snowboarding at the 2014 Winter Olympics - Men's parallel giant slalom",
        "col2": "M. Bozzetto",
        "col3": "Snowboarding at the 2006 Winter Olympics - Men's parallel giant slalom"
    },
    {
        "col0": "Snowboarding at the 2010 Winter Olympics - Men's halfpipe",
        "col1": "Snowboarding at the 2014 Winter Olympics - Men's halfpipe",
        "col2": "S. Lago",
        "col3": "Snowboarding at the 2006 Winter Olympics - Men's halfpipe"
    },
    {
        "col0": "Snowboarding at the 2010 Winter Olympics - Women's snowboard cross",
        "col1": "Snowboarding at the 2014 Winter Olympics - Women's snowboard cross",
        "col2": "O. Nobs",
        "col3": "Snowboarding at the 2006 Winter Olympics - Women's snowboard cross"
    },
    {
        "col0": "Snowboarding at the 2010 Winter Olympics - Women's parallel giant slalom",
        "col1": "Snowboarding at the 2014 Winter Olympics - Women's parallel giant slalom",
        "col2": "M. Kreiner",
        "col3": "Snowboarding at the 2006 Winter Olympics - Women's parallel giant slalom"
    },
    {
        "col0": "Snowboarding at the 2010 Winter Olympics - Women's halfpipe",
        "col1": "Snowboarding at the 2014 Winter Olympics - Women's halfpipe",
        "col2": "K. Clark",
        "col3": "Snowboarding at the 2006 Winter Olympics - Women's halfpipe"
    },
    {
        "col0": "Snowboarding at the 2010 Winter Olympics - Men's snowboard cross",
        "col1": "Snowboarding at the 2014 Winter Olympics - Men's snowboard cross",
        "col2": "T. Ramoin",
        "col3": "Snowboarding at the 2006 Winter Olympics - Men's snowboard cross"
    },
    {
        "col0": "Snowboarding at the 2010 Winter Olympics - Men's parallel giant slalom",
        "col1": "Snowboarding at the 2014 Winter Olympics - Men's parallel giant slalom",
        "col2": "M. Bozzetto",
        "col3": "Snowboarding at the 2006 Winter Olympics - Men's parallel giant slalom"
    },
    {
        "col0": "Snowboarding at the 2010 Winter Olympics - Men's halfpipe",
        "col1": "Snowboarding at the 2014 Winter Olympics - Men's halfpipe",
        "col2": "S. Lago",
        "col3": "Snowboarding at the 2006 Winter Olympics - Men's halfpipe"
    },
    {
        "col0": "Snowboarding at the 2006 Winter Olympics - Women's parallel giant slalom",
        "col1": "Snowboarding at the 2010 Winter Olympics - Women's parallel giant slalom",
        "col2": "R. Fletcher",
        "col3": "Snowboarding at the 2002 Winter Olympics - Women's parallel giant slalom"
    },
    {
        "col0": "Snowboarding at the 2006 Winter Olympics - Women's halfpipe",
        "col1": "Snowboarding at the 2010 Winter Olympics - Women's halfpipe",
        "col2": "K. Buaas",
        "col3": "Snowboarding at the 2002 Winter Olympics - Women's halfpipe"
    },
    {
        "col0": "Snowboarding at the 2006 Winter Olympics - Men's parallel giant slalom",
        "col1": "Snowboarding at the 2010 Winter Olympics - Men's parallel giant slalom",
        "col2": "S. Grabner",
        "col3": "Snowboarding at the 2002 Winter Olympics - Men's parallel giant slalom"
    },
    {
        "col0": "Snowboarding at the 2006 Winter Olympics - Men's halfpipe",
        "col1": "Snowboarding at the 2010 Winter Olympics - Men's halfpipe",
        "col2": "M. Koski",
        "col3": "Snowboarding at the 2002 Winter Olympics - Men's halfpipe"
    },
    {
        "col0": "Snowboarding at the 2006 Winter Olympics - Women's parallel giant slalom",
        "col1": "Snowboarding at the 2010 Winter Olympics - Women's parallel giant slalom",
        "col2": "R. Fletcher",
        "col3": "Snowboarding at the 2002 Winter Olympics - Women's parallel giant slalom"
    },
    {
        "col0": "Snowboarding at the 2006 Winter Olympics - Women's halfpipe",
        "col1": "Snowboarding at the 2010 Winter Olympics - Women's halfpipe",
        "col2": "K. Buaas",
        "col3": "Snowboarding at the 2002 Winter Olympics - Women's halfpipe"
    },
    {
        "col0": "Snowboarding at the 2006 Winter Olympics - Men's parallel giant slalom",
        "col1": "Snowboarding at the 2010 Winter Olympics - Men's parallel giant slalom",
        "col2": "S. Grabner",
        "col3": "Snowboarding at the 2002 Winter Olympics - Men's parallel giant slalom"
    },
    {
        "col0": "Snowboarding at the 2006 Winter Olympics - Men's halfpipe",
        "col1": "Snowboarding at the 2010 Winter Olympics - Men's halfpipe",
        "col2": "M. Koski",
        "col3": "Snowboarding at the 2002 Winter Olympics - Men's halfpipe"
    },
    {
        "col0": "Snowboarding at the 2002 Winter Olympics - Men's halfpipe",
        "col1": "Snowboarding at the 2006 Winter Olympics - Men's halfpipe",
        "col2": "J. Thomas",
        "col3": "Snowboarding at the 1998 Winter Olympics - Men's halfpipe"
    },
    {
        "col0": "Ski jumping at the 2010 Winter Olympics - Large hill team",
        "col1": "Ski jumping at the 2014 Winter Olympics - Men's large hill team",
        "col2": "A. Jacobsen",
        "col3": "Ski jumping at the 2006 Winter Olympics - Large hill team"
    },
    {
        "col0": "Ski jumping at the 2010 Winter Olympics - Large hill individual",
        "col1": "Ski jumping at the 2014 Winter Olympics - Men's large hill individual",
        "col2": "G. Schlierenzauer",
        "col3": "Ski jumping at the 2006 Winter Olympics - Large hill individual"
    },
    {
        "col0": "Ski jumping at the 2010 Winter Olympics - Large hill team",
        "col1": "Ski jumping at the 2014 Winter Olympics - Men's large hill team",
        "col2": "A. Jacobsen",
        "col3": "Ski jumping at the 2006 Winter Olympics - Large hill team"
    },
    {
        "col0": "Ski jumping at the 2010 Winter Olympics - Large hill individual",
        "col1": "Ski jumping at the 2014 Winter Olympics - Men's large hill individual",
        "col2": "G. Schlierenzauer",
        "col3": "Ski jumping at the 2006 Winter Olympics - Large hill individual"
    },
    {
        "col0": "Ski jumping at the 2006 Winter Olympics - Normal hill individual",
        "col1": "Ski jumping at the 2010 Winter Olympics - Normal hill individual",
        "col2": "R. Ljokelsoy",
        "col3": "Ski jumping at the 2002 Winter Olympics - Normal hill individual"
    },
    {
        "col0": "Ski jumping at the 2006 Winter Olympics - Large hill team",
        "col1": "Ski jumping at the 2010 Winter Olympics - Large hill team",
        "col2": "B. E. Romoren",
        "col3": "Ski jumping at the 2002 Winter Olympics - Large hill team"
    },
    {
        "col0": "Ski jumping at the 2006 Winter Olympics - Large hill individual",
        "col1": "Ski jumping at the 2010 Winter Olympics - Large hill individual",
        "col2": "L. Bystol",
        "col3": "Ski jumping at the 2002 Winter Olympics - Large hill individual"
    },
    {
        "col0": "Ski jumping at the 2006 Winter Olympics - Normal hill individual",
        "col1": "Ski jumping at the 2010 Winter Olympics - Normal hill individual",
        "col2": "R. Ljokelsoy",
        "col3": "Ski jumping at the 2002 Winter Olympics - Normal hill individual"
    },
    {
        "col0": "Ski jumping at the 2006 Winter Olympics - Large hill team",
        "col1": "Ski jumping at the 2010 Winter Olympics - Large hill team",
        "col2": "B. E. Romoren",
        "col3": "Ski jumping at the 2002 Winter Olympics - Large hill team"
    },
    {
        "col0": "Ski jumping at the 2006 Winter Olympics - Large hill individual",
        "col1": "Ski jumping at the 2010 Winter Olympics - Large hill individual",
        "col2": "L. Bystol",
        "col3": "Ski jumping at the 2002 Winter Olympics - Large hill individual"
    },
    {
        "col0": "Ski jumping at the 2002 Winter Olympics - Normal hill individual",
        "col1": "Ski jumping at the 2006 Winter Olympics - Normal hill individual",
        "col2": "A. Malysz",
        "col3": "Ski jumping at the 1998 Winter Olympics - Normal hill individual"
    },
    {
        "col0": "Ski jumping at the 2002 Winter Olympics - Large hill team",
        "col1": "Ski jumping at the 2006 Winter Olympics - Large hill team",
        "col2": "P. Peterka",
        "col3": "Ski jumping at the 1998 Winter Olympics - Large hill team"
    },
    {
        "col0": "Ski jumping at the 2002 Winter Olympics - Large hill individual",
        "col1": "Ski jumping at the 2006 Winter Olympics - Large hill individual",
        "col2": "M. Hautamaki",
        "col3": "Ski jumping at the 1998 Winter Olympics - Large hill individual"
    },
    {
        "col0": "Ski jumping at the 2002 Winter Olympics - Normal hill individual",
        "col1": "Ski jumping at the 2006 Winter Olympics - Normal hill individual",
        "col2": "A. Malysz",
        "col3": "Ski jumping at the 1998 Winter Olympics - Normal hill individual"
    },
    {
        "col0": "Ski jumping at the 2002 Winter Olympics - Large hill team",
        "col1": "Ski jumping at the 2006 Winter Olympics - Large hill team",
        "col2": "P. Peterka",
        "col3": "Ski jumping at the 1998 Winter Olympics - Large hill team"
    },
    {
        "col0": "Ski jumping at the 2002 Winter Olympics - Large hill individual",
        "col1": "Ski jumping at the 2006 Winter Olympics - Large hill individual",
        "col2": "M. Hautamaki",
        "col3": "Ski jumping at the 1998 Winter Olympics - Large hill individual"
    },
    {
        "col0": "Ski jumping at the 1998 Winter Olympics - Normal hill individual",
        "col1": "Ski jumping at the 2002 Winter Olympics - Normal hill individual",
        "col2": "A. Widholzl",
        "col3": "Ski jumping at the 1994 Winter Olympics - Normal hill individual"
    },
    {
        "col0": "Ski jumping at the 1998 Winter Olympics - Large hill team",
        "col1": "Ski jumping at the 2002 Winter Olympics - Large hill team",
        "col2": "A. Widholzl",
        "col3": "Ski jumping at the 1994 Winter Olympics - Large hill team"
    },
    {
        "col0": "Ski jumping at the 1998 Winter Olympics - Large hill individual",
        "col1": "Ski jumping at the 2002 Winter Olympics - Large hill individual",
        "col2": "M. Harada",
        "col3": "Ski jumping at the 1994 Winter Olympics - Large hill individual"
    },
    {
        "col0": "Ski jumping at the 1998 Winter Olympics - Normal hill individual",
        "col1": "Ski jumping at the 2002 Winter Olympics - Normal hill individual",
        "col2": "A. Widholzl",
        "col3": "Ski jumping at the 1994 Winter Olympics - Normal hill individual"
    },
    {
        "col0": "Ski jumping at the 1998 Winter Olympics - Large hill team",
        "col1": "Ski jumping at the 2002 Winter Olympics - Large hill team",
        "col2": "A. Widholzl",
        "col3": "Ski jumping at the 1994 Winter Olympics - Large hill team"
    },
    {
        "col0": "Ski jumping at the 1998 Winter Olympics - Large hill individual",
        "col1": "Ski jumping at the 2002 Winter Olympics - Large hill individual",
        "col2": "M. Harada",
        "col3": "Ski jumping at the 1994 Winter Olympics - Large hill individual"
    },
    {
        "col0": "Ski jumping at the 1994 Winter Olympics - Normal hill individual",
        "col1": "Ski jumping at the 1998 Winter Olympics - Normal hill individual",
        "col2": "D. Thoma",
        "col3": "Ski jumping at the 1992 Winter Olympics - Normal hill individual"
    },
    {
        "col0": "Ski jumping at the 1994 Winter Olympics - Large hill team",
        "col1": "Ski jumping at the 1998 Winter Olympics - Large hill team",
        "col2": "S. Horngacher",
        "col3": "Ski jumping at the 1992 Winter Olympics - Large hill team"
    },
    {
        "col0": "Ski jumping at the 1994 Winter Olympics - Large hill individual",
        "col1": "Ski jumping at the 1998 Winter Olympics - Large hill individual",
        "col2": "A. Goldberger",
        "col3": "Ski jumping at the 1992 Winter Olympics - Large hill individual"
    },
    {
        "col0": "Ski jumping at the 1994 Winter Olympics - Normal hill individual",
        "col1": "Ski jumping at the 1998 Winter Olympics - Normal hill individual",
        "col2": "D. Thoma",
        "col3": "Ski jumping at the 1992 Winter Olympics - Normal hill individual"
    },
    {
        "col0": "Ski jumping at the 1994 Winter Olympics - Large hill team",
        "col1": "Ski jumping at the 1998 Winter Olympics - Large hill team",
        "col2": "A. Goldberger",
        "col3": "Ski jumping at the 1992 Winter Olympics - Large hill team"
    },
    {
        "col0": "Ski jumping at the 1994 Winter Olympics - Large hill individual",
        "col1": "Ski jumping at the 1998 Winter Olympics - Large hill individual",
        "col2": "A. Goldberger",
        "col3": "Ski jumping at the 1992 Winter Olympics - Large hill individual"
    },
    {
        "col0": "Ski jumping at the 1992 Winter Olympics - Normal hill individual",
        "col1": "Ski jumping at the 1994 Winter Olympics - Normal hill individual",
        "col2": "T. Nieminen",
        "col3": "Ski jumping at the 1988 Winter Olympics - Normal hill individual"
    },
    {
        "col0": "Ski jumping at the 1992 Winter Olympics - Large hill team",
        "col1": "Ski jumping at the 1994 Winter Olympics - Large hill team",
        "col2": "J. Sakala",
        "col3": "Ski jumping at the 1988 Winter Olympics - Large hill team"
    },
    {
        "col0": "Ski jumping at the 1992 Winter Olympics - Large hill individual",
        "col1": "Ski jumping at the 1994 Winter Olympics - Large hill individual",
        "col2": "H. Kuttin",
        "col3": "Ski jumping at the 1988 Winter Olympics - Large hill individual"
    },
    {
        "col0": "Ski jumping at the 1992 Winter Olympics - Normal hill individual",
        "col1": "Ski jumping at the 1994 Winter Olympics - Normal hill individual",
        "col2": "T. Nieminen",
        "col3": "Ski jumping at the 1988 Winter Olympics - Normal hill individual"
    },
    {
        "col0": "Ski jumping at the 1992 Winter Olympics - Large hill team",
        "col1": "Ski jumping at the 1994 Winter Olympics - Large hill team",
        "col2": "J. Sakala",
        "col3": "Ski jumping at the 1988 Winter Olympics - Large hill team"
    },
    {
        "col0": "Ski jumping at the 1992 Winter Olympics - Large hill individual",
        "col1": "Ski jumping at the 1994 Winter Olympics - Large hill individual",
        "col2": "H. Kuttin",
        "col3": "Ski jumping at the 1988 Winter Olympics - Large hill individual"
    },
    {
        "col0": "Ski jumping at the 1988 Winter Olympics - Normal hill individual",
        "col1": "Ski jumping at the 1992 Winter Olympics - Normal hill individual",
        "col2": "J. Malec",
        "col3": "Ski jumping at the 1984 Winter Olympics - Normal hill individual"
    },
    {
        "col0": "Ski jumping at the 1988 Winter Olympics - Large hill individual",
        "col1": "Ski jumping at the 1992 Winter Olympics - Large hill individual",
        "col2": "M. Debelak",
        "col3": "Ski jumping at the 1984 Winter Olympics - Large hill individual"
    },
    {
        "col0": "Ski jumping at the 1988 Winter Olympics - Normal hill individual",
        "col1": "Ski jumping at the 1992 Winter Olympics - Normal hill individual",
        "col2": "J. Malec",
        "col3": "Ski jumping at the 1984 Winter Olympics - Normal hill individual"
    },
    {
        "col0": "Ski jumping at the 1988 Winter Olympics - Large hill individual",
        "col1": "Ski jumping at the 1992 Winter Olympics - Large hill individual",
        "col2": "M. Debelak",
        "col3": "Ski jumping at the 1984 Winter Olympics - Large hill individual"
    }
]