[
    {
        "col0": "Westfall Place",
        "col1": "1860",
        "col2": "1985-07-10",
        "col3": "85001599"
    },
    {
        "col0": "Westerville High School-Vine Street School",
        "col1": "1896",
        "col2": "1975-05-29",
        "col3": "75001405"
    },
    {
        "col0": "Westervelt Christian Church",
        "col1": "1921",
        "col2": "2006-02-09",
        "col3": "6000009"
    },
    {
        "col0": "Westervelt-Lydecker House",
        "col1": "1756",
        "col2": "1983-01-10",
        "col3": "83001582"
    },
    {
        "col0": "Westervelt-Cameron House",
        "col1": "1767",
        "col2": "1983-01-10",
        "col3": "83001581"
    },
    {
        "col0": "Western View",
        "col1": "1790",
        "col2": "2002-04-01",
        "col3": "2000320"
    },
    {
        "col0": "Western Town Hall",
        "col1": "1911",
        "col2": "1995-11-07",
        "col3": "95001277"
    },
    {
        "col0": "Western Tablet and Stationery Company, Building No. 2",
        "col1": "1920",
        "col2": "2007-08-16",
        "col3": "7000814"
    },
    {
        "col0": "Western State Hospital",
        "col1": "1828",
        "col2": "1969-11-25",
        "col3": "69000362, 07000082, 07000766, 10000097"
    },
    {
        "col0": "Western State Hospital",
        "col1": "1854",
        "col2": "1979-04-30",
        "col3": "79003612"
    },
    {
        "col0": "Western Springs Water Tower",
        "col1": "1892",
        "col2": "1981-06-04",
        "col3": "81000219"
    },
    {
        "col0": "Western Promenade",
        "col1": "1836",
        "col2": "1989-10-16",
        "col3": "89001710"
    },
    {
        "col0": "Western New York Wine Company",
        "col1": "1880",
        "col2": "2014-09-10",
        "col3": "14000585"
    },
    {
        "col0": "Western Maryland Railway Station",
        "col1": "1913",
        "col2": "1976-04-22",
        "col3": "76001019"
    },
    {
        "col0": "Western Maryland Railway Station",
        "col1": "1913",
        "col2": "1973-06-19",
        "col3": "73000885"
    },
    {
        "col0": "Western Maryland Railroad Right-of-Way, Milepost 126 to Milepost 160",
        "col1": "1903",
        "col2": "1981-07-23",
        "col3": "81000078"
    },
    {
        "col0": "Western Maryland Depot",
        "col1": "1888",
        "col2": "1996-05-02",
        "col3": "96000444"
    },
    {
        "col0": "Western Maryland College Historic District",
        "col1": "1871",
        "col2": "1976-03-26",
        "col3": "76000985"
    },
    {
        "col0": "Western Kentucky University Heating Plant",
        "col1": "1927",
        "col2": "1979-12-18",
        "col3": "79001035"
    },
    {
        "col0": "Western Hotel",
        "col1": "1889",
        "col2": "1983-10-06",
        "col3": "83003537"
    },
    {
        "col0": "Western Heritage Center",
        "col1": "1901",
        "col2": "1972-10-26",
        "col3": "72000740"
    },
    {
        "col0": "Western Fields",
        "col1": "1790",
        "col2": "1987-06-12",
        "col3": "87000641"
    },
    {
        "col0": "Western Branch, National Home for Disabled Volunteer Soldiers",
        "col1": "1885",
        "col2": "1999-04-30",
        "col3": "99000456"
    },
    {
        "col0": "Western Bohemian Fraternal Union Hall",
        "col1": "1925",
        "col2": "1986-07-31",
        "col3": "86002123"
    },
    {
        "col0": "Western Auto Building",
        "col1": "1914",
        "col2": "1988-08-18",
        "col3": "88001300"
    },
    {
        "col0": "Westerman Lumber Office and House",
        "col1": "1880",
        "col2": "1982-03-15",
        "col3": "82004702"
    },
    {
        "col0": "Westerly Downtown Historic District",
        "col1": "1840",
        "col2": "1984-07-19",
        "col3": "84002055"
    }
]