[
    {
        "col0": "Warriors",
        "col1": "HarperCollins",
        "col2": "Escape from the Forest",
        "col3": "Escape from the Forest"
    },
    {
        "col0": "Undersea Trilogy",
        "col1": "Baen Books",
        "col2": "Undersea Trilogy",
        "col3": "Undersea Trilogy"
    },
    {
        "col0": "Ultimate Punishment",
        "col1": "Farrar Straus & Giroux",
        "col2": "Ordinary Heroes",
        "col3": "Reversible Errors"
    },
    {
        "col0": "Tom Clancy's Net Force Explorers: The Ultimate Escape",
        "col1": "Berkley Publishing Group",
        "col2": "Tom Clancy's Net Force Explorers: End Game",
        "col3": "Tom Clancy's Net Force Explorers: One is the Loneliest Number"
    },
    {
        "col0": "Tom Clancy's Net Force Explorers: The Deadliest Game",
        "col1": "Berkley Publishing Group",
        "col2": "Tom Clancy's Net Force Explorers: One is the Loneliest Number",
        "col3": "Tom Clancy's Net Force Explorers: Virtual Vandals"
    },
    {
        "col0": "Tom Clancy's Net Force Explorers: Runaways",
        "col1": "Berkley Publishing Group",
        "col2": "Tom Clancy's Net Force Explorers: Cloak and Dagger",
        "col3": "Tom Clancy's Net Force Explorers: Cold Case"
    },
    {
        "col0": "Tom Clancy's Net Force Explorers: Private Lives",
        "col1": "Berkley Publishing Group",
        "col2": "Tom Clancy's Net Force Explorers: Safe House",
        "col3": "Tom Clancy's Net Force Explorers: Shadow of Honor"
    },
    {
        "col0": "Tom Clancy's Net Force Explorers: One is the Loneliest Number",
        "col1": "Berkley Publishing Group",
        "col2": "Tom Clancy's Net Force Explorers: The Ultimate Escape",
        "col3": "Tom Clancy's Net Force Explorers: The Deadliest Game"
    },
    {
        "col0": "Tom Clancy's Net Force Explorers: Gameprey",
        "col1": "Berkley Publishing Group",
        "col2": "Tom Clancy's Net Force Explorers: Duel Identity",
        "col3": "Tom Clancy's Net Force Explorers: Safe House"
    },
    {
        "col0": "Tom Clancy's Net Force Explorers: End Game",
        "col1": "Berkley Publishing Group",
        "col2": "Tom Clancy's Net Force Explorers: Cyberspy",
        "col3": "Tom Clancy's Net Force Explorers: The Ultimate Escape"
    },
    {
        "col0": "The New York Trilogy",
        "col1": "Faber & Faber",
        "col2": "In the Country of Last Things",
        "col3": "The Invention of Solitude"
    },
    {
        "col0": "The Lost Slayer",
        "col1": "Pocket Books",
        "col2": "Oz: Into the Wild",
        "col3": "The Book of Fours"
    },
    {
        "col0": "The Dancers at the End of Time",
        "col1": "Harper & Row",
        "col2": "The Dancers at the End of Time",
        "col3": "The Dancers at the End of Time"
    },
    {
        "col0": "The Cleric Quintet",
        "col1": "Wizards of the Coast",
        "col2": "In Sylvan Shadows",
        "col3": "Canticle"
    },
    {
        "col0": "Saga of Cuckoo",
        "col1": "Ballantine Books",
        "col2": "Wall Around a Star",
        "col3": "Farthest Star"
    },
    {
        "col0": "Lost Lansdale Series",
        "col1": "Subterranean Press",
        "col2": "The Big Blow",
        "col3": "Freezer Burn"
    },
    {
        "col0": "Baking with Julia",
        "col1": "William Morrow & Co.",
        "col2": "Julia and Jacques Cooking at Home",
        "col3": "In Julia's Kitchen with Master Chefs"
    },
    {
        "col0": "A Thief of Time",
        "col1": "Harper & Row",
        "col2": "Talking God",
        "col3": "Skinwalkers"
    },
    {
        "col0": "A Clan in Need",
        "col1": "HarperCollins",
        "col2": "The Heart of a Warrior",
        "col3": "Shattered Peace"
    }
]