[
    {
        "col0": "Canosa di Puglia",
        "col1": "Province of Barletta-Andria-Trani",
        "col2": "249",
        "col3": "149000000"
    },
    {
        "col0": "Butschwil-Ganterschwil",
        "col1": "Toggenburg",
        "col2": "942",
        "col3": "21810000"
    },
    {
        "col0": "Butschwil",
        "col1": "Toggenburg",
        "col2": "942",
        "col3": "13790000"
    },
    {
        "col0": "Buren, Solothurn",
        "col1": "Dorneck",
        "col2": "727",
        "col3": "6230000"
    },
    {
        "col0": "Battwil",
        "col1": "Dorneck",
        "col2": "530",
        "col3": "1670000"
    },
    {
        "col0": "Baretswil",
        "col1": "Hinwil",
        "col2": "1074",
        "col3": "22230000"
    },
    {
        "col0": "Burtigny",
        "col1": "Nyon District",
        "col2": "896",
        "col3": "5690000"
    },
    {
        "col0": "Buchs, St. Gallen",
        "col1": "Werdenberg",
        "col2": "2232",
        "col3": "15950000"
    },
    {
        "col0": "Brunslar",
        "col1": "Melsungen",
        "col2": "273",
        "col3": "16410000"
    },
    {
        "col0": "Brunello, Lombardy",
        "col1": "Province of Varese",
        "col2": "423",
        "col3": "1600000"
    },
    {
        "col0": "Brugg",
        "col1": "Brugg",
        "col2": "516",
        "col3": "5560000"
    },
    {
        "col0": "Brittnau",
        "col1": "Zofingen",
        "col2": "614",
        "col3": "13690000"
    },
    {
        "col0": "Brienz",
        "col1": "Interlaken-Oberhasli",
        "col2": "2928",
        "col3": "48000000"
    },
    {
        "col0": "Brescia",
        "col1": "Province of Brescia",
        "col2": "874",
        "col3": "90300000"
    }
]