[
    {
        "col0": "Roman Catholic Diocese of Motherwell",
        "col1": "Province of Glasgow",
        "col2": "Province of Glasgow",
        "col3": "Province of Glasgow",
        "col4": "Province of Glasgow",
        "col5": "1178000000",
        "col6": "1178000000"
    },
    {
        "col0": "Roman Catholic Diocese of Mostar-Duvno",
        "col1": "Roman Catholic Archdiocese of Vrhbosna",
        "col2": "Roman Catholic Archdiocese of Vrhbosna",
        "col3": "Roman Catholic Archdiocese of Vrhbosna",
        "col4": "Roman Catholic Archdiocese of Vrhbosna",
        "col5": "8368000000",
        "col6": "8368000000"
    },
    {
        "col0": "Roman Catholic Diocese of Most Holy Trinity in Almaty",
        "col1": "Roman Catholic Archdiocese of Mary Most Holy in Astana",
        "col2": "Roman Catholic Archdiocese of Mary Most Holy in Astana",
        "col3": "Roman Catholic Archdiocese of Mary Most Holy in Astana",
        "col4": "Roman Catholic Archdiocese of Mary Most Holy in Astana",
        "col5": "711600000000",
        "col6": "711600000000"
    },
    {
        "col0": "Roman Catholic Diocese of Mossoro",
        "col1": "Roman Catholic Archdiocese of Natal",
        "col2": "Roman Catholic Archdiocese of Natal",
        "col3": "Roman Catholic Archdiocese of Natal",
        "col4": "Roman Catholic Archdiocese of Natal",
        "col5": "18832000000",
        "col6": "18832000000"
    },
    {
        "col0": "Roman Catholic Diocese of Moron",
        "col1": "Roman Catholic Archdiocese of Buenos Aires",
        "col2": "Roman Catholic Archdiocese of Buenos Aires",
        "col3": "Roman Catholic Archdiocese of Buenos Aires",
        "col4": "Roman Catholic Archdiocese of Buenos Aires",
        "col5": "130000000",
        "col6": "130000000"
    },
    {
        "col0": "Roman Catholic Diocese of Monze",
        "col1": "Roman Catholic Archdiocese of Lusaka",
        "col2": "Roman Catholic Archdiocese of Lusaka",
        "col3": "Roman Catholic Archdiocese of Lusaka",
        "col4": "Roman Catholic Archdiocese of Lusaka",
        "col5": "62160000000",
        "col6": "62160000000"
    },
    {
        "col0": "Roman Catholic Diocese of Monteria",
        "col1": "Roman Catholic Archdiocese of Cartagena",
        "col2": "Roman Catholic Archdiocese of Cartagena",
        "col3": "Roman Catholic Archdiocese of Cartagena",
        "col4": "Roman Catholic Archdiocese of Cartagena",
        "col5": "14550000000",
        "col6": "14550000000"
    },
    {
        "col0": "Roman Catholic Diocese of Montepulciano-Chiusi-Pienza",
        "col1": "Roman Catholic Archdiocese of Siena-Colle di Val d'Elsa-Montalcino",
        "col2": "Roman Catholic Archdiocese of Siena-Colle di Val d'Elsa-Montalcino",
        "col3": "Roman Catholic Archdiocese of Siena-Colle di Val d'Elsa-Montalcino",
        "col4": "Roman Catholic Archdiocese of Siena-Colle di Val d'Elsa-Montalcino",
        "col5": "1068000000",
        "col6": "1068000000"
    },
    {
        "col0": "Roman Catholic Diocese of Montenegro",
        "col1": "Roman Catholic Archdiocese of Porto Alegre",
        "col2": "Roman Catholic Archdiocese of Porto Alegre",
        "col3": "Roman Catholic Archdiocese of Porto Alegre",
        "col4": "Roman Catholic Archdiocese of Porto Alegre",
        "col5": "4395000000",
        "col6": "4395000000"
    },
    {
        "col0": "Roman Catholic Diocese of Montelibano",
        "col1": "Roman Catholic Archdiocese of Cartagena",
        "col2": "Roman Catholic Archdiocese of Cartagena",
        "col3": "Roman Catholic Archdiocese of Cartagena",
        "col4": "Roman Catholic Archdiocese of Cartagena",
        "col5": "11500000000",
        "col6": "11500000000"
    },
    {
        "col0": "Roman Catholic Diocese of Montego Bay",
        "col1": "Roman Catholic Archdiocese of Kingston in Jamaica",
        "col2": "Roman Catholic Archdiocese of Kingston in Jamaica",
        "col3": "Roman Catholic Archdiocese of Kingston in Jamaica",
        "col4": "Roman Catholic Archdiocese of Kingston in Jamaica",
        "col5": "3878000000",
        "col6": "3878000000"
    },
    {
        "col0": "Roman Catholic Diocese of Montauban",
        "col1": "Roman Catholic Archdiocese of Toulouse",
        "col2": "Roman Catholic Archdiocese of Toulouse",
        "col3": "Roman Catholic Archdiocese of Toulouse",
        "col4": "Roman Catholic Archdiocese of Toulouse",
        "col5": "3717000000",
        "col6": "3717000000"
    },
    {
        "col0": "Roman Catholic Diocese of Mondonedo-Ferrol",
        "col1": "Roman Catholic Archdiocese of Santiago de Compostela",
        "col2": "Roman Catholic Archdiocese of Santiago de Compostela",
        "col3": "Roman Catholic Archdiocese of Santiago de Compostela",
        "col4": "Roman Catholic Archdiocese of Santiago de Compostela",
        "col5": "4425000000",
        "col6": "4425000000"
    },
    {
        "col0": "Roman Catholic Diocese of Mondovi",
        "col1": "Roman Catholic Archdiocese of Turin",
        "col2": "Roman Catholic Archdiocese of Turin",
        "col3": "Roman Catholic Archdiocese of Turin",
        "col4": "Roman Catholic Archdiocese of Turin",
        "col5": "2189000000",
        "col6": "2189000000"
    },
    {
        "col0": "Roman Catholic Diocese of Mondonedo-Ferrol",
        "col1": "Roman Catholic Archdiocese of Santiago de Compostela",
        "col2": "Roman Catholic Archdiocese of Santiago de Compostela",
        "col3": "Roman Catholic Archdiocese of Santiago de Compostela",
        "col4": "Roman Catholic Archdiocese of Santiago de Compostela",
        "col5": "4425000000",
        "col6": "4425000000"
    },
    {
        "col0": "Roman Catholic Diocese of Molfetta-Ruvo-Giovinazzo-Terlizzi",
        "col1": "Roman Catholic Archdiocese of Bari-Bitonto",
        "col2": "Roman Catholic Archdiocese of Bari-Bitonto",
        "col3": "Roman Catholic Archdiocese of Bari-Bitonto",
        "col4": "Roman Catholic Archdiocese of Bari-Bitonto",
        "col5": "442000000",
        "col6": "442000000"
    },
    {
        "col0": "Roman Catholic Diocese of Mohale's Hoek",
        "col1": "Roman Catholic Archdiocese of Maseru",
        "col2": "Roman Catholic Archdiocese of Maseru",
        "col3": "Roman Catholic Archdiocese of Maseru",
        "col4": "Roman Catholic Archdiocese of Maseru",
        "col5": "5799000000",
        "col6": "5799000000"
    },
    {
        "col0": "Roman Catholic Diocese of Mogi das Cruzes",
        "col1": "Roman Catholic Archdiocese of Sao Paulo",
        "col2": "Roman Catholic Archdiocese of Sao Paulo",
        "col3": "Roman Catholic Archdiocese of Sao Paulo",
        "col4": "Roman Catholic Archdiocese of Sao Paulo",
        "col5": "2552000000",
        "col6": "2552000000"
    },
    {
        "col0": "Roman Catholic Diocese of Mocoa-Sibundoy",
        "col1": "Roman Catholic Archdiocese of Popayan",
        "col2": "Roman Catholic Archdiocese of Popayan",
        "col3": "Roman Catholic Archdiocese of Popayan",
        "col4": "Roman Catholic Archdiocese of Popayan",
        "col5": "25000000000",
        "col6": "25000000000"
    },
    {
        "col0": "Roman Catholic Diocese of Miri",
        "col1": "Roman Catholic Archdiocese of Kuching",
        "col2": "Roman Catholic Archdiocese of Kuching",
        "col3": "Roman Catholic Archdiocese of Kuching",
        "col4": "Roman Catholic Archdiocese of Kuching",
        "col5": "42235000000",
        "col6": "42235000000"
    },
    {
        "col0": "Roman Catholic Diocese of Miracema do Tocantins",
        "col1": "Roman Catholic Archdiocese of Palmas",
        "col2": "Roman Catholic Archdiocese of Palmas",
        "col3": "Roman Catholic Archdiocese of Palmas",
        "col4": "Roman Catholic Archdiocese of Palmas",
        "col5": "45985000000",
        "col6": "45985000000"
    },
    {
        "col0": "Roman Catholic Diocese of Minna",
        "col1": "Roman Catholic Archdiocese of Kaduna",
        "col2": "Roman Catholic Archdiocese of Kaduna",
        "col3": "Roman Catholic Archdiocese of Kaduna",
        "col4": "Roman Catholic Archdiocese of Kaduna",
        "col5": "56229000000",
        "col6": "56229000000"
    },
    {
        "col0": "Roman Catholic Diocese of Minas",
        "col1": "Roman Catholic Archdiocese of Montevideo",
        "col2": "Roman Catholic Archdiocese of Montevideo",
        "col3": "Roman Catholic Archdiocese of Montevideo",
        "col4": "Roman Catholic Archdiocese of Montevideo",
        "col5": "16200000000",
        "col6": "16200000000"
    },
    {
        "col0": "Roman Catholic Diocese of Mileto-Nicotera-Tropea",
        "col1": "Roman Catholic Archdiocese of Reggio Calabria-Bova",
        "col2": "Roman Catholic Archdiocese of Reggio Calabria-Bova",
        "col3": "Roman Catholic Archdiocese of Reggio Calabria-Bova",
        "col4": "Roman Catholic Archdiocese of Reggio Calabria-Bova",
        "col5": "943000000",
        "col6": "943000000"
    },
    {
        "col0": "Roman Catholic Diocese of Middlesbrough",
        "col1": "Roman Catholic Archdiocese of Liverpool",
        "col2": "Roman Catholic Archdiocese of Liverpool",
        "col3": "Roman Catholic Archdiocese of Liverpool",
        "col4": "Roman Catholic Archdiocese of Liverpool",
        "col5": "4000000000",
        "col6": "4000000000"
    },
    {
        "col0": "Roman Catholic Diocese of Miao",
        "col1": "Roman Catholic Archdiocese of Guwahati",
        "col2": "Roman Catholic Archdiocese of Guwahati",
        "col3": "Roman Catholic Archdiocese of Guwahati",
        "col4": "Roman Catholic Archdiocese of Guwahati",
        "col5": "43955000000",
        "col6": "43955000000"
    },
    {
        "col0": "Roman Catholic Diocese of Mexicali",
        "col1": "Roman Catholic Archdiocese of Tijuana",
        "col2": "Roman Catholic Archdiocese of Tijuana",
        "col3": "Roman Catholic Archdiocese of Tijuana",
        "col4": "Roman Catholic Archdiocese of Tijuana",
        "col5": "59020649058",
        "col6": "59020649058"
    },
    {
        "col0": "Roman Catholic Diocese of Metuchen",
        "col1": "List of the Catholic bishops of the United States",
        "col2": "List of the Catholic bishops of the United States",
        "col3": "List of the Catholic bishops of the United States",
        "col4": "List of the Catholic bishops of the United States",
        "col5": "3688000000",
        "col6": "3688000000"
    },
    {
        "col0": "Roman Catholic Diocese of Merlo-Moreno",
        "col1": "Roman Catholic Archdiocese of Buenos Aires",
        "col2": "Roman Catholic Archdiocese of Buenos Aires",
        "col3": "Roman Catholic Archdiocese of Buenos Aires",
        "col4": "Roman Catholic Archdiocese of Buenos Aires",
        "col5": "301000000",
        "col6": "301000000"
    },
    {
        "col0": "Roman Catholic Diocese of Mercedes",
        "col1": "Roman Catholic Archdiocese of Montevideo",
        "col2": "Roman Catholic Archdiocese of Montevideo",
        "col3": "Roman Catholic Archdiocese of Montevideo",
        "col4": "Roman Catholic Archdiocese of Montevideo",
        "col5": "15000000000",
        "col6": "15000000000"
    },
    {
        "col0": "Roman Catholic Diocese of Menorca",
        "col1": "Roman Catholic Archdiocese of Valencia in Spain",
        "col2": "Roman Catholic Archdiocese of Valencia in Spain",
        "col3": "Roman Catholic Archdiocese of Valencia in Spain",
        "col4": "Roman Catholic Archdiocese of Valencia in Spain",
        "col5": "701000000",
        "col6": "701000000"
    },
    {
        "col0": "Roman Catholic Diocese of Menevia",
        "col1": "Province of Cardiff",
        "col2": "Province of Cardiff",
        "col3": "Province of Cardiff",
        "col4": "Province of Cardiff",
        "col5": "9310000000",
        "col6": "9310000000"
    },
    {
        "col0": "Roman Catholic Diocese of Mende",
        "col1": "Roman Catholic Archdiocese of Montpellier",
        "col2": "Roman Catholic Archdiocese of Montpellier",
        "col3": "Roman Catholic Archdiocese of Montpellier",
        "col4": "Roman Catholic Archdiocese of Montpellier",
        "col5": "5180000000",
        "col6": "5180000000"
    },
    {
        "col0": "Roman Catholic Diocese of Melo",
        "col1": "Roman Catholic Archdiocese of Montevideo",
        "col2": "Roman Catholic Archdiocese of Montevideo",
        "col3": "Roman Catholic Archdiocese of Montevideo",
        "col4": "Roman Catholic Archdiocese of Montevideo",
        "col5": "25000000000",
        "col6": "25000000000"
    },
    {
        "col0": "Roman Catholic Diocese of Melipilla",
        "col1": "Roman Catholic Archdiocese of Santiago de Chile",
        "col2": "Roman Catholic Archdiocese of Santiago de Chile",
        "col3": "Roman Catholic Archdiocese of Santiago de Chile",
        "col4": "Roman Catholic Archdiocese of Santiago de Chile",
        "col5": "6217000000",
        "col6": "6217000000"
    },
    {
        "col0": "Roman Catholic Diocese of Melfi-Rapolla-Venosa",
        "col1": "Roman Catholic Archdiocese of Potenza-Muro Lucano-Marsico Nuovo",
        "col2": "Roman Catholic Archdiocese of Potenza-Muro Lucano-Marsico Nuovo",
        "col3": "Roman Catholic Archdiocese of Potenza-Muro Lucano-Marsico Nuovo",
        "col4": "Roman Catholic Archdiocese of Potenza-Muro Lucano-Marsico Nuovo",
        "col5": "1316000000",
        "col6": "1316000000"
    },
    {
        "col0": "Roman Catholic Diocese of Meerut",
        "col1": "Roman Catholic Archdiocese of Agra",
        "col2": "Roman Catholic Archdiocese of Agra",
        "col3": "Roman Catholic Archdiocese of Agra",
        "col4": "Roman Catholic Archdiocese of Agra",
        "col5": "28337000000",
        "col6": "28337000000"
    },
    {
        "col0": "Roman Catholic Diocese of Meaux",
        "col1": "Roman Catholic Archdiocese of Paris",
        "col2": "Roman Catholic Archdiocese of Paris",
        "col3": "Roman Catholic Archdiocese of Paris",
        "col4": "Roman Catholic Archdiocese of Paris",
        "col5": "5931000000",
        "col6": "5931000000"
    },
    {
        "col0": "Roman Catholic Diocese of Meath",
        "col1": "Roman Catholic Archdiocese of Armagh",
        "col2": "Roman Catholic Archdiocese of Armagh",
        "col3": "Roman Catholic Archdiocese of Armagh",
        "col4": "Roman Catholic Archdiocese of Armagh",
        "col5": "5120406494",
        "col6": "5120406494"
    },
    {
        "col0": "Roman Catholic Diocese of Mazatlan",
        "col1": "Roman Catholic Archdiocese of Durango",
        "col2": "Roman Catholic Archdiocese of Durango",
        "col3": "Roman Catholic Archdiocese of Durango",
        "col4": "Roman Catholic Archdiocese of Durango",
        "col5": "19111522266",
        "col6": "19111522266"
    },
    {
        "col0": "Roman Catholic Diocese of Mazara del Vallo",
        "col1": "Roman Catholic Archdiocese of Palermo",
        "col2": "Roman Catholic Archdiocese of Palermo",
        "col3": "Roman Catholic Archdiocese of Palermo",
        "col4": "Roman Catholic Archdiocese of Palermo",
        "col5": "1374000000",
        "col6": "1374000000"
    },
    {
        "col0": "Roman Catholic Diocese of Mawlamyine",
        "col1": "Roman Catholic Archdiocese of Yangon",
        "col2": "Roman Catholic Archdiocese of Yangon",
        "col3": "Roman Catholic Archdiocese of Yangon",
        "col4": "Roman Catholic Archdiocese of Yangon",
        "col5": "51780000000",
        "col6": "51780000000"
    },
    {
        "col0": "Roman Catholic Diocese of Maumere",
        "col1": "Roman Catholic Archdiocese of Ende",
        "col2": "Roman Catholic Archdiocese of Ende",
        "col3": "Roman Catholic Archdiocese of Ende",
        "col4": "Roman Catholic Archdiocese of Ende",
        "col5": "1732000000",
        "col6": "1732000000"
    },
    {
        "col0": "Roman Catholic Diocese of Maturin",
        "col1": "Roman Catholic Archdiocese of Ciudad Bolivar",
        "col2": "Roman Catholic Archdiocese of Ciudad Bolivar",
        "col3": "Roman Catholic Archdiocese of Ciudad Bolivar",
        "col4": "Roman Catholic Archdiocese of Ciudad Bolivar",
        "col5": "28900000000",
        "col6": "28900000000"
    },
    {
        "col0": "Roman Catholic Diocese of Mati",
        "col1": "Roman Catholic Archdiocese of Davao",
        "col2": "Roman Catholic Archdiocese of Davao",
        "col3": "Roman Catholic Archdiocese of Davao",
        "col4": "Roman Catholic Archdiocese of Davao",
        "col5": "5146000000",
        "col6": "5146000000"
    },
    {
        "col0": "Roman Catholic Diocese of Matehuala",
        "col1": "Roman Catholic Archdiocese of San Luis Potosi",
        "col2": "Roman Catholic Archdiocese of San Luis Potosi",
        "col3": "Roman Catholic Archdiocese of San Luis Potosi",
        "col4": "Roman Catholic Archdiocese of San Luis Potosi",
        "col5": "26920336418",
        "col6": "26920336418"
    },
    {
        "col0": "Roman Catholic Diocese of Matanzas",
        "col1": "Roman Catholic Archdiocese of San Cristobal de la Habana",
        "col2": "Roman Catholic Archdiocese of San Cristobal de la Habana",
        "col3": "Roman Catholic Archdiocese of San Cristobal de la Habana",
        "col4": "Roman Catholic Archdiocese of San Cristobal de la Habana",
        "col5": "8444000000",
        "col6": "8444000000"
    },
    {
        "col0": "Roman Catholic Diocese of Matamoros",
        "col1": "Roman Catholic Archdiocese of Monterrey",
        "col2": "Roman Catholic Archdiocese of Monterrey",
        "col3": "Roman Catholic Archdiocese of Monterrey",
        "col4": "Roman Catholic Archdiocese of Monterrey",
        "col5": "19463760649",
        "col6": "19463760649"
    }
]