[
    {
        "col0": "XHUAA-TDT",
        "col1": "215",
        "col2": "57 (UHF, 1953-2013)",
        "col3": "XHUAA-TV (1990-2013)"
    },
    {
        "col0": "XHRIO-TDT",
        "col1": "317",
        "col2": "2 (VHFanalog, 1979-2015)",
        "col3": "* XHHUPN-TV (2001-2005)"
    },
    {
        "col0": "XHDTV-TDT",
        "col1": "687",
        "col2": "49 (UHF, 1999-2015)",
        "col3": "XHTEB-TV (assigned but never used)"
    },
    {
        "col0": "WZVN-TV",
        "col1": "453",
        "col2": "26 (UHF, 1974-2009)",
        "col3": "WEVU (1974-1995)"
    },
    {
        "col0": "WZTV",
        "col1": "411",
        "col2": "17 (UHF, 1968-1971 & 1976-2009)",
        "col3": "WMCV (1968-1971)"
    },
    {
        "col0": "WZTD-LD",
        "col1": "212",
        "col2": "45 (2000-2012)",
        "col3": "W61BZ (1991-2000)"
    },
    {
        "col0": "WZPX-TV",
        "col1": "305",
        "col2": "43 (UHF, 1996-2009)",
        "col3": "WILV (1997-1998)"
    },
    {
        "col0": "WZPA-LD",
        "col1": "181",
        "col2": "Analog: 33 (UHF)",
        "col3": "W33BT (1998-2005)"
    },
    {
        "col0": "WZMQ",
        "col1": "176",
        "col2": "19 (UHF, 2003-2009)",
        "col3": "WMQF (2003-2009)"
    },
    {
        "col0": "WYZZ-TV",
        "col1": "293",
        "col2": "43 (UHFanalog, 1982-2009)",
        "col3": "WBLN (1982-1985)"
    },
    {
        "col0": "WYTV",
        "col1": "177",
        "col2": "33 (UHF, 1959-2009)",
        "col3": "WKST-TV (1953-1964)"
    },
    {
        "col0": "WYTU-LD",
        "col1": "314",
        "col2": "46 (UHF, 1990-1999)",
        "col3": "W46AR (1990-1999)"
    },
    {
        "col0": "WYPX-TV",
        "col1": "207",
        "col2": "55 (UHF, 1987-2007)",
        "col3": "WOCD (1987-1998)"
    },
    {
        "col0": "WYOU",
        "col1": "471",
        "col2": "Analog: 22 (1953-2009)",
        "col3": "WDAU-TV (1958-1986)"
    },
    {
        "col0": "WYMT-TV",
        "col1": "397",
        "col2": "Analog: 57 (1969-2009)",
        "col3": "WKYH-TV (1969-1985)"
    },
    {
        "col0": "WYME-CD",
        "col1": "146",
        "col2": "14 (UHFanalog, 1996-2001)",
        "col3": "W14CB (1994-1997)"
    },
    {
        "col0": "WYGA-CD",
        "col1": "298",
        "col2": "7, 55, 19, 45",
        "col3": "W07CP, W55CR, W19CD, WDAH-CA, WYGA-CA"
    },
    {
        "col0": "WYFX-LD",
        "col1": "232",
        "col2": "17 WFXI-CA",
        "col3": "W62BT (1989-2000)"
    },
    {
        "col0": "WYFF",
        "col1": "596",
        "col2": "4 (VHF, 1953-2009)",
        "col3": "WFBC-TV (1953-1983)"
    },
    {
        "col0": "WYCW",
        "col1": "555",
        "col2": "62 (UHF, 1984-2009)",
        "col3": "WASV-TV (1984-2006)"
    },
    {
        "col0": "WYCC",
        "col1": "378",
        "col2": "20 (UHF, 1983-2009)",
        "col3": "Digital:"
    },
    {
        "col0": "WYBU-CD",
        "col1": "181",
        "col2": "16 (UHF, 1985-2010)",
        "col3": "W16AF (1985-1996)"
    },
    {
        "col0": "WYBE",
        "col1": "343",
        "col2": "34 (UHF, 1998-2009)",
        "col3": "WUHY-TV (1963-1975)"
    },
    {
        "col0": "WYAT-LP",
        "col1": "163",
        "col2": "55",
        "col3": "930330BM"
    },
    {
        "col0": "WXSP-CD",
        "col1": "124",
        "col2": "15 (UHF, 1988-2010)",
        "col3": "W15AM (1988-1995)"
    },
    {
        "col0": "WXPX-TV",
        "col1": "474",
        "col2": "66 (UHF, 1994-2009)",
        "col3": "WFCT (1994-1998)"
    },
    {
        "col0": "WXMI",
        "col1": "334",
        "col2": "17 (UHF, 1982-2009)",
        "col3": "WWMA-TV (1982-1983)"
    },
    {
        "col0": "WXLV-TV",
        "col1": "576",
        "col2": "45 (UHF, 1979-2009)",
        "col3": "WGNN-TV (1979-1980)"
    },
    {
        "col0": "WXII-TV",
        "col1": "572",
        "col2": "12 (VHF, 1953-2009)",
        "col3": "WSJS-TV (1953-1972)"
    },
    {
        "col0": "WXFT-DT",
        "col1": "508",
        "col2": "59 (UHF, 2006-2009)",
        "col3": "WBBS-TV / WPWR-TV (1982-1987)"
    },
    {
        "col0": "WXEL-TV",
        "col1": "440",
        "col2": "Analog: 42 (1982-2009)",
        "col3": "WHRS-TV (1982-1985)"
    },
    {
        "col0": "WXCW",
        "col1": "456",
        "col2": "46 (UHF, 1990-2009)",
        "col3": "WNPL-TV (1990-1995)"
    },
    {
        "col0": "WXAX-CD",
        "col1": "404",
        "col2": "26 (1995-2015)",
        "col3": "W26AX (1990-1996)"
    },
    {
        "col0": "WWTO-TV",
        "col1": "415",
        "col2": "35 (UHF, 1986-2009)",
        "col3": "Digital:"
    },
    {
        "col0": "WWTI",
        "col1": "331",
        "col2": "25W25ABWatertown (1985-2000)",
        "col3": "WFYF (1986-1990)"
    },
    {
        "col0": "WWSB",
        "col1": "234",
        "col2": "40 (UHF, 1971-2009)",
        "col3": "WXLT-TV (1971-1986)"
    },
    {
        "col0": "WWPX-TV",
        "col1": "314",
        "col2": "Analog: 60 (1991-2009)",
        "col3": "WSHE-TV (1996-1998)"
    },
    {
        "col0": "WWNY-TV",
        "col1": "218",
        "col2": "35 (UHFdigital, 2003-2009)",
        "col3": "WCNY-TV (1954-1965)"
    },
    {
        "col0": "WWMT",
        "col1": "257",
        "col2": "2 (VHF, -2009)",
        "col3": "WKZO-TV (1950-1985)"
    },
    {
        "col0": "WWME-CD",
        "col1": "460",
        "col2": "* '''",
        "col3": "* W23AT (1989-2001)"
    },
    {
        "col0": "WWJS-CD",
        "col1": "206",
        "col2": "26 (UHF, 1989-1996)",
        "col3": "W26AS (1989-1996)"
    },
    {
        "col0": "WWHO",
        "col1": "328",
        "col2": "53 (UHF, 1987-2009)",
        "col3": "WWAT (1987-1994)"
    },
    {
        "col0": "WWDD-LD",
        "col1": "197",
        "col2": "26 (UHF, 1989-1993)",
        "col3": "W26AU (1989-1993)"
    },
    {
        "col0": "WWBT",
        "col1": "242",
        "col2": "12 (VHF, 1956-2009)",
        "col3": "WRVA-TV (1956-1968)"
    },
    {
        "col0": "WVVC-LD",
        "col1": "187",
        "col2": "27 (UHFanalog, 1992-2004)",
        "col3": "W27BJ (1992-2004)"
    },
    {
        "col0": "WVVA",
        "col1": "372",
        "col2": "6 (VHFanalog, 1955-2009)",
        "col3": "WHIS-TV (1955-1979)"
    },
    {
        "col0": "WVUA-CD",
        "col1": "174",
        "col2": "23 (UHF, 2001-2009)",
        "col3": "WJRD-LP (1998-2002)"
    },
    {
        "col0": "WVTV",
        "col1": "302",
        "col2": "18 (UHF, 1958-2009)",
        "col3": "WOKY-TV (1953-1955)"
    },
    {
        "col0": "WVPX-TV",
        "col1": "301",
        "col2": "23 (UHF, 1967-2009)",
        "col3": "WAKC-TV (1986-1998)"
    },
    {
        "col0": "WVNY",
        "col1": "831",
        "col2": "22 (UHF, 1968-2009)",
        "col3": "WEZF-TV (1974-1982)"
    },
    {
        "col0": "WVNS-TV",
        "col1": "577",
        "col2": "59 (UHFanalog, 1995-2009)",
        "col3": "WVGV-TV (1995-1996)"
    },
    {
        "col0": "WVLT-TV",
        "col1": "551",
        "col2": "26 (1953-1988)",
        "col3": "WKXT-TV (1988-1997)"
    },
    {
        "col0": "WVLA-TV",
        "col1": "522",
        "col2": "33 (UHF, 1971-2009)",
        "col3": "WRBT (1971-1987)"
    },
    {
        "col0": "WVII-TV",
        "col1": "229",
        "col2": "14 (UHFdigital, 2002-2009)",
        "col3": "WEMT (1965-1976)"
    },
    {
        "col0": "WVFX",
        "col1": "235",
        "col2": "46 (1981-2009)",
        "col3": "WLYJ (1981-1998)"
    },
    {
        "col0": "WVAW-LD",
        "col1": "324",
        "col2": "16 (UHF, 2004-2009)",
        "col3": "W64AO (1979-2004)"
    },
    {
        "col0": "WUXP-TV",
        "col1": "413",
        "col2": "30 (UHF, 1984-2009)",
        "col3": "WCAY-TV (1984-1989)"
    },
    {
        "col0": "WUVC-DT",
        "col1": "509",
        "col2": "40 (UHF, 1981-2009)",
        "col3": "WKFT (1981-2003)"
    },
    {
        "col0": "WUPX-TV",
        "col1": "428",
        "col2": "67 (UHF, 1998-2009)",
        "col3": "WAOM (1998-2001)"
    },
    {
        "col0": "WUPV",
        "col1": "249",
        "col2": "65 (UHF, 1990-2009)",
        "col3": "WAWB (1994-1997)"
    },
    {
        "col0": "WUOA-LD",
        "col1": "213",
        "col2": "46 (UHF, 2003-2015)",
        "col3": "W46DK (2003-2015)"
    }
]