[
    {
        "col0": "WestJet",
        "col1": "Edmonton International Airport",
        "col2": "WestJet Encore",
        "col3": "WS",
        "col4": "1996-02-29",
        "col5": "14211"
    },
    {
        "col0": "Thai Airways",
        "col1": "Incheon International Airport",
        "col2": "Thai Smile",
        "col3": "TG",
        "col4": "1988-04-01",
        "col5": "25323"
    },
    {
        "col0": "Southwest Airlines",
        "col1": "Hartsfield-Jackson Atlanta International Airport",
        "col2": "Southwest Airlines destinations",
        "col3": "WN",
        "col4": "1967-03-16",
        "col5": "52301"
    },
    {
        "col0": "Cathay Pacific",
        "col1": "Suvarnabhumi Airport",
        "col2": "Cathay Pacific destinations",
        "col3": "CX",
        "col4": "1946-09-24",
        "col5": "22500"
    },
    {
        "col0": "Alitalia",
        "col1": "Tirana International Airport Nene Tereza",
        "col2": "Alitalia destinations",
        "col3": "AZ",
        "col4": "1999-03-12",
        "col5": "14036"
    },
    {
        "col0": "Aer Lingus",
        "col1": "Cork Airport",
        "col2": "Aer Lingus destinations",
        "col3": "EI",
        "col4": "1936-04-15",
        "col5": "3766"
    }
]