[
    {
        "col0": "Vulcana",
        "col1": "Wales",
        "col2": "London",
        "col3": "1875-1-1",
        "col4": "1946-1-1",
        "col5": "1875-1-1"
    },
    {
        "col0": "V. Gironda",
        "col1": "New York City",
        "col2": "Ventura County, California",
        "col3": "1917-11-09",
        "col4": "1997-10-18",
        "col5": "1917-11-09"
    },
    {
        "col0": "S. Reeves",
        "col1": "Glasgow, Montana",
        "col2": "Escondido, California",
        "col3": "1926-01-21",
        "col4": "2000-05-01",
        "col5": "1926-01-21"
    },
    {
        "col0": "S. Schmidt",
        "col1": "New Zealand",
        "col2": "Melbourne",
        "col3": "1953-9-1",
        "col4": "2004-1-25",
        "col5": "1953-9-1"
    },
    {
        "col0": "S. Beattie",
        "col1": "California",
        "col2": "Portland, Oregon",
        "col3": "1967-08-24",
        "col4": "2008-02-16",
        "col5": "1967-08-24"
    },
    {
        "col0": "S. Oliva",
        "col1": "Cuba",
        "col2": "Chicago",
        "col3": "1941-07-04",
        "col4": "2012-11-12",
        "col5": "1941-07-04"
    },
    {
        "col0": "S. Nubret",
        "col1": "Anse-Bertrand",
        "col2": "France",
        "col3": "1938-10-06",
        "col4": "2011-04-19",
        "col5": "1938-10-06"
    },
    {
        "col0": "R. Park",
        "col1": "England",
        "col2": "South Africa",
        "col3": "1928-06-07",
        "col4": "2007-11-22",
        "col5": "1928-06-07"
    },
    {
        "col0": "P. Rader",
        "col1": "United States",
        "col2": "United States",
        "col3": "1909-10-17",
        "col4": "1991-11-24",
        "col5": "1909-10-17"
    },
    {
        "col0": "P. Demayo",
        "col1": "California",
        "col2": "Boston",
        "col3": "1967-09-12",
        "col4": "2005-06-02",
        "col5": "1967-09-12"
    }
]