[
    {
        "col0": "Woodlawn Theatre",
        "col1": "2006",
        "col2": "1920 Fredericksburg Rd",
        "col3": "Community theatre"
    },
    {
        "col0": "Wellmont Theatre",
        "col1": "2008",
        "col2": "5 Seymour Street",
        "col3": "music venue"
    },
    {
        "col0": "Warner Theatre",
        "col1": "1992",
        "col2": "513 13th Street, N.W.",
        "col3": "music venue"
    },
    {
        "col0": "Trinity Theatre",
        "col1": "1982",
        "col2": "Church Road",
        "col3": "Theatre, Arts centre"
    },
    {
        "col0": "Town Hall Seattle",
        "col1": "1999",
        "col2": "1119 Eighth Avenue",
        "col3": "Cultural center"
    },
    {
        "col0": "Sottile Theater",
        "col1": "1990",
        "col2": "50 George St.",
        "col3": "performing arts venue"
    },
    {
        "col0": "Soma San Diego",
        "col1": "1994",
        "col2": "3350 Sports Arena Boulevard",
        "col3": "music venue"
    },
    {
        "col0": "Roxy Theater",
        "col1": "1994",
        "col2": "1527 Washington Avenue",
        "col3": "Club Madonna (adult nightclub)"
    },
    {
        "col0": "Regal Cinema, Dublin",
        "col1": "1955",
        "col2": "Hawkins Street",
        "col3": "Demolished"
    },
    {
        "col0": "Orpheum Theater",
        "col1": "2003",
        "col2": "15 West Aspen Avenue",
        "col3": "Music venue"
    },
    {
        "col0": "Ogden Theatre",
        "col1": "1993",
        "col2": "935 E. Colfax Ave.",
        "col3": "music venue"
    },
    {
        "col0": "New Theatre Royal",
        "col1": "1900",
        "col2": "20-24 Guildhall Walk",
        "col3": "Theatre"
    },
    {
        "col0": "Miller Theatre",
        "col1": "1988",
        "col2": "2960 Broadway",
        "col3": "Performing arts venue"
    },
    {
        "col0": "McSwain Theatre",
        "col1": "2009",
        "col2": "130 W. Main Street",
        "col3": "theater,music venue,art gallery"
    },
    {
        "col0": "Marina Theatre",
        "col1": "1988",
        "col2": "The Marina",
        "col3": "Active"
    },
    {
        "col0": "Lincoln Theater",
        "col1": "2005",
        "col2": "100 California Drive",
        "col3": "Performing arts center"
    },
    {
        "col0": "Joyce Theater",
        "col1": "1982",
        "col2": "175 Eighth Avenue",
        "col3": "dance venue"
    },
    {
        "col0": "Jefferson Theater",
        "col1": "2009",
        "col2": "110 East Main St.",
        "col3": "music venue"
    },
    {
        "col0": "Grand Theatre, Wolverhampton",
        "col1": "1982",
        "col2": "Lichfield Street",
        "col3": "Musicals,Pantomime,Opera,Ballet, andPlays"
    },
    {
        "col0": "Fox Theatre",
        "col1": "2010",
        "col2": "2215 Broadway Street",
        "col3": "Live event venue"
    },
    {
        "col0": "Fox Theatre",
        "col1": "1988",
        "col2": "2211 Woodward Avenue",
        "col3": "live event venue"
    },
    {
        "col0": "Fox Performing Arts Center",
        "col1": "2010",
        "col2": "3801 Mission Inn Avenue",
        "col3": "Live event venue"
    },
    {
        "col0": "Fargo Theatre",
        "col1": "1999",
        "col2": "314 Broadway",
        "col3": "Cinema and live event venue"
    },
    {
        "col0": "Edificio Herdocia",
        "col1": "2012",
        "col2": "3rd Avenue and 2nd Street",
        "col3": "Business and office."
    },
    {
        "col0": "Ed Sullivan Theater",
        "col1": "1993",
        "col2": "1697Broadway",
        "col3": "Television studio"
    },
    {
        "col0": "Copley Symphony Hall",
        "col1": "1985",
        "col2": "1245 Seventh Avenue",
        "col3": "Concert hall"
    },
    {
        "col0": "Church Hill Theatre",
        "col1": "2006",
        "col2": "33 Morningside Road, EH10 4DR",
        "col3": "Theatre"
    },
    {
        "col0": "Cascade Theatre",
        "col1": "2004",
        "col2": "1731 Market St.",
        "col3": "music venue"
    },
    {
        "col0": "Capitol Center for the Arts",
        "col1": "1995",
        "col2": "44 South Main St.",
        "col3": "performing arts center"
    },
    {
        "col0": "Cactus Theater",
        "col1": "1995",
        "col2": "1812 Buddy Holly Avenue",
        "col3": "Cinema, live event venue"
    },
    {
        "col0": "Bluebird Theater",
        "col1": "1994",
        "col2": "3315-3317 E. Colfax Ave.",
        "col3": "music venue"
    },
    {
        "col0": "Benedum Center",
        "col1": "1987",
        "col2": "237 7th Street",
        "col3": "Performing arts center"
    },
    {
        "col0": "Balboa Theatre",
        "col1": "2008",
        "col2": "868 Fourth Avenue",
        "col3": "performing arts venue"
    },
    {
        "col0": "Atlas Performing Arts Center",
        "col1": "2005",
        "col2": "1313-33 H Street,N.E.",
        "col3": "Performing arts center"
    }
]