[
    {
        "col0": "Siege of Rennes",
        "col1": "France",
        "col2": "War of the Breton Succession",
        "col3": "Lancastre robs the city",
        "col4": "1500 to 4000 men"
    },
    {
        "col0": "Siege of Reading",
        "col1": "Berkshire",
        "col2": "First English Civil War",
        "col3": "Royalist garrison surrendered",
        "col4": "16,000+"
    },
    {
        "col0": "Siege of Ragusa",
        "col1": "Dubrovnik",
        "col2": "Arab-Byzantine wars",
        "col3": "Christian victory; relief of Ragusa,restoration of Byzantine controloverDalmatia",
        "col4": "100 ships (Byzantines)"
    },
    {
        "col0": "Siege of Ragusa",
        "col1": "Adriatic Sea",
        "col2": "Napoleonic Wars",
        "col3": "Anglo-Austrian victory",
        "col4": "138 guns"
    },
    {
        "col0": "Siege of Queli",
        "col1": "Turkey",
        "col2": "Sajid invasion of Georgia",
        "col3": "*Georgian counter-offensive throughpartisan warfare",
        "col4": "20,000"
    },
    {
        "col0": "Siege of Pyongyang",
        "col1": "Pyongyang",
        "col2": "Japanese invasions of Korea",
        "col3": "Korean and Chinese allied forces victory",
        "col4": "2,000 warrior monks"
    },
    {
        "col0": "Siege of Pyongyang",
        "col1": "Pyongyang",
        "col2": "Japanese invasions of Korea",
        "col3": "Japanese victory",
        "col4": "18,700"
    },
    {
        "col0": "Siege of Pueblo de Taos",
        "col1": "New Mexico",
        "col2": "Mexican-American War",
        "col3": "United States victory",
        "col4": "478"
    },
    {
        "col0": "Siege of Puebla",
        "col1": "Puebla, Puebla",
        "col2": "French intervention in Mexico",
        "col3": "French and Mexican Imperial victory",
        "col4": "2,000 Mexican Imperialists"
    },
    {
        "col0": "Siege of Puebla",
        "col1": "Puebla",
        "col2": "Mexican-American War",
        "col3": "American victory",
        "col4": "3,000 (relief force)"
    },
    {
        "col0": "Siege of Pskov",
        "col1": "Russia",
        "col2": "Livonian War",
        "col3": "Peace of Yam-Zapolsky",
        "col4": "16,000"
    },
    {
        "col0": "Siege of Przemysl",
        "col1": "Przemysl",
        "col2": "Eastern Front",
        "col3": "Russian victory",
        "col4": "300,000"
    },
    {
        "col0": "Siege of Prairie du Chien",
        "col1": "Prairie du Chien, Wisconsin",
        "col2": "War of 1812",
        "col3": "British victory",
        "col4": "about 100"
    },
    {
        "col0": "Siege of Prague",
        "col1": "Bohemia",
        "col2": "War of the Austrian Succession",
        "col3": "France successfully defends the city but withdraws on December 18",
        "col4": "25,000"
    },
    {
        "col0": "Siege of Prague",
        "col1": "Bohemia",
        "col2": "Seven Years' War",
        "col3": "Prussian tactical victory; Austrian strategic victory, Prussians withdraw.",
        "col4": "40,000"
    },
    {
        "col0": "Siege of Portsmouth",
        "col1": "Portsmouth",
        "col2": "English Civil War",
        "col3": "Parliamentarian victory",
        "col4": "1 ship"
    },
    {
        "col0": "Siege of Porto",
        "col1": "Porto",
        "col2": "Liberal Wars",
        "col3": "Liberal victory",
        "col4": "12,000"
    },
    {
        "col0": "Siege of Port Toulouse",
        "col1": "Ile-Royale",
        "col2": "King George's War",
        "col3": "British victory",
        "col4": "23 soldiers; unknown number of Acadians and Mi'qmaw"
    },
    {
        "col0": "Siege of Port Royal",
        "col1": "Acadia",
        "col2": "Queen Anne's War",
        "col3": "Decisive British victory",
        "col4": "about 2,000"
    },
    {
        "col0": "Siege of Port Royal",
        "col1": "Nova Scotia",
        "col2": "Queen Anne's War",
        "col3": "Acadia andWabanaki Confederacyvictory",
        "col4": "1,150 colonial militia (first siege)"
    },
    {
        "col0": "Siege of Port Hudson",
        "col1": "Louisiana",
        "col2": "American Civil War",
        "col3": "Unionvictory",
        "col4": "~30,000 - 40,000"
    },
    {
        "col0": "Siege of Port Arthur",
        "col1": "China",
        "col2": "Russo-Japanese War",
        "col3": "Japanese victory",
        "col4": "50,000 troops"
    },
    {
        "col0": "Siege of Pondicherry",
        "col1": "French India",
        "col2": "French Revolutionary Wars",
        "col3": "British victory",
        "col4": "1,659"
    },
    {
        "col0": "Siege of Pondicherry",
        "col1": "India",
        "col2": "Anglo-French War",
        "col3": "British victory",
        "col4": "1,500 British regulars"
    },
    {
        "col0": "Siege of Polotsk",
        "col1": "Polotsk",
        "col2": "Muscovite-Lithuanian Wars",
        "col3": "Lithuanian victory",
        "col4": "2,000"
    },
    {
        "col0": "Siege of Plevna",
        "col1": "Bulgaria",
        "col2": "Russo-Turkish War",
        "col3": "Russian/Romanian Victory",
        "col4": "130,000"
    },
    {
        "col0": "Siege of Plei Me",
        "col1": "Vietnam",
        "col2": "Vietnam War",
        "col3": "*Siege lifted",
        "col4": "12 U.S. Special Forces"
    },
    {
        "col0": "Siege of Pirna",
        "col1": "Electorate of Saxony",
        "col2": "Seven Years' War",
        "col3": "Prussian victory",
        "col4": "18,000"
    },
    {
        "col0": "Siege of Pirisabora",
        "col1": "Anbar",
        "col2": "Julian's Persian War",
        "col3": "Romanvictory",
        "col4": "65,000"
    },
    {
        "col0": "Siege of Pilsen",
        "col1": "Plzen",
        "col2": "Hussite Wars",
        "col3": "Catholic victory",
        "col4": "Unknown"
    },
    {
        "col0": "Siege of Pilsen",
        "col1": "Kingdom of Bohemia",
        "col2": "Thirty Years' War",
        "col3": "Bohemian victory",
        "col4": "158 cavalry"
    },
    {
        "col0": "Siege of Philippsburg",
        "col1": "Germany",
        "col2": "War of the Polish Succession",
        "col3": "French victory",
        "col4": "4,200 (garrison)"
    },
    {
        "col0": "Siege of Petropavlovsk",
        "col1": "Kamchatka",
        "col2": "Crimean War",
        "col3": "Russian victory",
        "col4": "2,600 men"
    },
    {
        "col0": "Siege of Petersburg",
        "col1": "Petersburg, Virginia",
        "col2": "American Civil War",
        "col3": "Unionvictory",
        "col4": "67,000-125,000"
    },
    {
        "col0": "Siege of Perpignan",
        "col1": "Perpignan",
        "col2": "Catalan Revolt",
        "col3": "Franco-Catalan victory",
        "col4": "3,000"
    },
    {
        "col0": "Siege of Perpignan",
        "col1": "Crown of Aragon",
        "col2": "Italian War of 1542-1546",
        "col3": "Decisive Spanish victory",
        "col4": "40,000 men"
    },
    {
        "col0": "Siege of Pensacola",
        "col1": "Pensacola, Florida",
        "col2": "Queen Anne's War",
        "col3": "Spanish victory",
        "col4": "First siege: several hundred"
    },
    {
        "col0": "Siege of Pensacola",
        "col1": "Florida",
        "col2": "Gulf Coast campaign",
        "col3": "Decisive Franco-Spanish victory",
        "col4": "1,300 militia, natives & regulars"
    },
    {
        "col0": "Siege of Pemaquid",
        "col1": "Bristol, Maine",
        "col2": "King William's War",
        "col3": "French and Abenaki victory",
        "col4": "100 Canadiens, 400 Abenaki (50 Mi'kmaq)"
    },
    {
        "col0": "Siege of Pemaquid",
        "col1": "Bristol, Maine",
        "col2": "King William's War",
        "col3": "Acadian andWabanaki Confederacyvictory",
        "col4": "100 to 300"
    },
    {
        "col0": "Siege of Pelium",
        "col1": "Albania",
        "col2": "Alexander's Balkan campaign",
        "col3": "Macedonian victory.",
        "col4": "15,000"
    },
    {
        "col0": "Siege of Paysandu",
        "col1": "Paysandu",
        "col2": "Uruguayan War",
        "col3": "Brazilian-Colorado victory",
        "col4": "1,254"
    },
    {
        "col0": "Siege of Patras",
        "col1": "Greece",
        "col2": "Greek War of Independence",
        "col3": "Capture of the city by the Greeks, creation of theDirectorate of Achaea, failure to capture the fortress",
        "col4": "1,500 irregulars"
    },
    {
        "col0": "Siege of Paris",
        "col1": "Paris",
        "col2": "Viking expansion",
        "col3": "* Paris successfully defended",
        "col4": "Initially 200men-at-arms(Abbo Cernuus); gained reinforcements during the summer; Charles the Fat arrived with his army in October"
    },
    {
        "col0": "Siege of Paris",
        "col1": "Paris",
        "col2": "Viking expansion",
        "col3": "Viking occupation of Paris; departed for 7,000livres(pounds) of silver and gold",
        "col4": "120 ships, with at least 5,000 men"
    },
    {
        "col0": "Siege of Paris",
        "col1": "French Third Republic",
        "col2": "Franco-Prussian War",
        "col3": "Decisive German victory",
        "col4": "200,000 militia and sailors"
    },
    {
        "col0": "Siege of Paris",
        "col1": "Kingdom of France",
        "col2": "French Wars of Religion",
        "col3": "Decisive Catholic and Spanish victory",
        "col4": "12,000 rising to 25,000"
    },
    {
        "col0": "Siege of Paris",
        "col1": "Paris",
        "col2": "Hundred Years' War",
        "col3": "French defeat",
        "col4": "10,000"
    },
    {
        "col0": "Siege of Pamplona",
        "col1": "Spain",
        "col2": "Peninsular War",
        "col3": "Spanish victory",
        "col4": "10,000 to 14,000"
    },
    {
        "col0": "Siege of Padua",
        "col1": "Italy",
        "col2": "War of the League of Cambrai",
        "col3": "Venetian victory",
        "col4": "120-200 cannon"
    },
    {
        "col0": "Siege of Owerri",
        "col1": "Owerri",
        "col2": "Nigerian Civil War",
        "col3": "Biafran victory",
        "col4": "3,000"
    },
    {
        "col0": "Siege of Oviedo",
        "col1": "Asturias",
        "col2": "Spanish Civil War",
        "col3": "Nationalist victory",
        "col4": "3,000"
    },
    {
        "col0": "Siege of Ostend",
        "col1": "Ostend",
        "col2": "Eighty Years' War",
        "col3": "PyrrhicSpanish victory",
        "col4": "2,500-8,000 (peak)"
    },
    {
        "col0": "Siege of Oshi",
        "col1": "Musashi Province",
        "col2": "Toyotomi Hideyoshi",
        "col3": "Toyotomivictory",
        "col4": "23,000"
    },
    {
        "col0": "Siege of Osaka",
        "col1": "Japan",
        "col2": "Edo period",
        "col3": "Tokugawa shogunatevictory; all threats to the shogunate temporarily eliminated.",
        "col4": "120,000 (winter)"
    },
    {
        "col0": "Siege of Orleans",
        "col1": "Orleans",
        "col2": "Hundred Years' War",
        "col3": "Decisive French victory",
        "col4": "5,000"
    },
    {
        "col0": "Siege of Opochka",
        "col1": "Opochka",
        "col2": "Muscovite-Lithuanian Wars",
        "col3": "Russian victory",
        "col4": "14,000"
    },
    {
        "col0": "Siege of Olomouc",
        "col1": "Moravia",
        "col2": "Seven Years' War",
        "col3": "Austrian victory",
        "col4": "8,500"
    },
    {
        "col0": "Siege of Oldenzaal",
        "col1": "Netherlands",
        "col2": "Eighty Years' War",
        "col3": "Dutch & English victory",
        "col4": "4,000 infantry & cavalry"
    },
    {
        "col0": "Siege of Olbia",
        "col1": "Olbia, Ukraine",
        "col2": "Germanic Wars",
        "col3": "Roman victory",
        "col4": "Unknown"
    },
    {
        "col0": "Siege of Oguchi Castle",
        "col1": "Osumi Province",
        "col2": "Sengoku period",
        "col3": "Shimazu victory",
        "col4": "8000"
    },
    {
        "col0": "Siege of Odessa",
        "col1": "Ukrainian SSR",
        "col2": "Eastern Front",
        "col3": "Pyrrhic Romanian-German victory",
        "col4": "120,000+ men (total)"
    },
    {
        "col0": "Siege of Odawara",
        "col1": "Japan",
        "col2": "Sengoku period",
        "col3": "Siege succeeds;Toyotomivictory",
        "col4": "220,000 total"
    },
    {
        "col0": "Siege of Odawara",
        "col1": "Sagami province",
        "col2": "Sengoku period",
        "col3": "Takeda withdraws; town burned",
        "col4": "15000"
    },
    {
        "col0": "Siege of Odawara",
        "col1": "Japan",
        "col2": "Sengoku period",
        "col3": "Uesugi withdrawal, castle town burned",
        "col4": "15,000"
    },
    {
        "col0": "Siege of Odani Castle",
        "col1": "Omi Province",
        "col2": "Sengoku period",
        "col3": "Oda Nobunaga victory;Azai clandestroyed",
        "col4": "10,000"
    },
    {
        "col0": "Siege of Ochakov",
        "col1": "Ottoman Empire",
        "col2": "Russo-Turkish War",
        "col3": "Russian victory",
        "col4": "unknown"
    },
    {
        "col0": "Siege of Noteborg",
        "col1": "Russia",
        "col2": "Great Northern War",
        "col3": "Russian victory",
        "col4": "12,500 men deployed, 20,000-35,000 in total"
    },
    {
        "col0": "Siege of Negrepelisse",
        "col1": "Negrepelisse",
        "col2": "Huguenot rebellions",
        "col3": "Royal victory",
        "col4": "800 citizens"
    },
    {
        "col0": "Siege of Nuremberg",
        "col1": "Free imperial city",
        "col2": "Thirty Years' War",
        "col3": "Indecisive",
        "col4": "120,000"
    },
    {
        "col0": "Siege of Numantia",
        "col1": "Iberian Peninsula",
        "col2": "Numantine War",
        "col3": "Roman victory",
        "col4": "20,000 legionaries"
    },
    {
        "col0": "Siege of Nubl and Al-Zahraa",
        "col1": "Syria",
        "col2": "Syrian Civil War",
        "col3": "*Rebel failure to capture Nubl and Al-Zahraa",
        "col4": "125 Hezbollah fighters"
    },
    {
        "col0": "Siege of Novogeorgievsk",
        "col1": "Russian Empire",
        "col2": "Eastern Front",
        "col3": "German victory",
        "col4": "80,000"
    },
    {
        "col0": "Siege of Novi Zrin",
        "col1": "Medimurje County",
        "col2": "Croatian-Ottoman Wars",
        "col3": "DecisiveOttomanvictory and ruination of Novi Zrin",
        "col4": "70,000 - 100,000 Ottomans andTatars"
    },
    {
        "col0": "Siege of Noda Castle",
        "col1": "Mikawa Province",
        "col2": "Sengoku period",
        "col3": "Siege succeeds, but Takeda Shingen wounded, possibly fatally",
        "col4": "30,000"
    },
    {
        "col0": "Siege of Nisibis",
        "col1": "Nisibis",
        "col2": "Roman-Persian wars",
        "col3": "Sasanian victory",
        "col4": "2-5,000 Legionaries"
    },
    {
        "col0": "Siege of Ninety-Six",
        "col1": "Ninety Six, South Carolina",
        "col2": "American Revolutionary War",
        "col3": "British victory",
        "col4": "1,000-1,500"
    },
    {
        "col0": "Siege of Nicomedia",
        "col1": "Nicomedia",
        "col2": "Byzantine-Ottoman wars",
        "col3": "Ottoman victory",
        "col4": "20,000"
    },
    {
        "col0": "Siege of Nice",
        "col1": "Nice",
        "col2": "Ottoman-Habsburg Wars",
        "col3": "Ottomans and French sack Nice.",
        "col4": "32px100 galleys"
    },
    {
        "col0": "Siege of Nicaea",
        "col1": "Adegznik",
        "col2": "Byzantine-Ottoman wars",
        "col3": "Decisive Ottoman victory",
        "col4": "Unknown"
    },
    {
        "col0": "Siege of Nicaea",
        "col1": "Asia Minor",
        "col2": "Byzantine-Seljuk wars",
        "col3": "Byzantine victory",
        "col4": "Unknown"
    },
    {
        "col0": "Siege of Nicaea",
        "col1": "Adegznik",
        "col2": "First Crusade",
        "col3": "Crusader/Byzantine victory",
        "col4": "+ Nicaean garrison"
    },
    {
        "col0": "Siege of Negroponte",
        "col1": "Greece",
        "col2": "Morean War",
        "col3": "Ottoman victory",
        "col4": "10,000 in the fleet"
    },
    {
        "col0": "Siege of Negoro-ji",
        "col1": "Japan",
        "col2": "Sengoku period",
        "col3": "Toyotomi Hideyoshivictory; temple destroyed.",
        "col4": "30,000-50,000"
    },
    {
        "col0": "Siege of Naxos",
        "col1": "Cyclades",
        "col2": "Greco-Persian Wars",
        "col3": "Naxianvictory",
        "col4": "200 ships"
    },
    {
        "col0": "Siege of Narva",
        "col1": "Narva",
        "col2": "Great Northern War",
        "col3": "Russian victory",
        "col4": "20,000"
    },
    {
        "col0": "Siege of Nara",
        "col1": "Japan",
        "col2": "Genpei War",
        "col3": "Tairavictory; much of city destroyed",
        "col4": "500 samurai"
    },
    {
        "col0": "Siege of Naples",
        "col1": "Naples",
        "col2": "Gothic War",
        "col3": "Ostrogothicvictory",
        "col4": "1,000 men"
    },
    {
        "col0": "Siege of Naples",
        "col1": "Naples",
        "col2": "Gothic War",
        "col3": "Byzantinevictory",
        "col4": "8,000 men"
    },
    {
        "col0": "Siege of Namwon",
        "col1": "Namwon",
        "col2": "Imjin War",
        "col3": "Decisive Japanese victory",
        "col4": "3,000 men"
    },
    {
        "col0": "Siege of Namur",
        "col1": "Belgium",
        "col2": "Western Front",
        "col3": "German victory",
        "col4": "107,000"
    }
]