[
    {
        "col0": "Roman Catholic Diocese of Vitebsk",
        "col1": "Roman Catholic Archdiocese of Minsk-Mohilev",
        "col2": "Roman Catholic Archdiocese of Minsk-Mohilev",
        "col3": "Roman Catholic Archdiocese of Minsk-Mohilev",
        "col4": "Roman Catholic Archdiocese of Minsk-Mohilev",
        "col5": "40000000000",
        "col6": "40000000000"
    },
    {
        "col0": "Roman Catholic Diocese of Viseu",
        "col1": "Roman Catholic Archdiocese of Braga",
        "col2": "Roman Catholic Archdiocese of Braga",
        "col3": "Roman Catholic Archdiocese of Braga",
        "col4": "Roman Catholic Archdiocese of Braga",
        "col5": "3400000000",
        "col6": "3400000000"
    },
    {
        "col0": "Roman Catholic Diocese of Virac",
        "col1": "Roman Catholic Archdiocese of Caceres",
        "col2": "Roman Catholic Archdiocese of Caceres",
        "col3": "Roman Catholic Archdiocese of Caceres",
        "col4": "Roman Catholic Archdiocese of Caceres",
        "col5": "1511000000",
        "col6": "1511000000"
    },
    {
        "col0": "Roman Catholic Diocese of Vinh",
        "col1": "Roman Catholic Archdiocese of Hanoi",
        "col2": "Roman Catholic Archdiocese of Hanoi",
        "col3": "Roman Catholic Archdiocese of Hanoi",
        "col4": "Roman Catholic Archdiocese of Hanoi",
        "col5": "30594000000",
        "col6": "30594000000"
    },
    {
        "col0": "Roman Catholic Diocese of Villarrica",
        "col1": "Roman Catholic Archdiocese of Concepcion",
        "col2": "Roman Catholic Archdiocese of Concepcion",
        "col3": "Roman Catholic Archdiocese of Concepcion",
        "col4": "Roman Catholic Archdiocese of Concepcion",
        "col5": "18630000000",
        "col6": "18630000000"
    },
    {
        "col0": "Roman Catholic Diocese of Villa de la Concepcion del Rio Cuarto",
        "col1": "Roman Catholic Archdiocese of Cordoba",
        "col2": "Roman Catholic Archdiocese of Cordoba",
        "col3": "Roman Catholic Archdiocese of Cordoba",
        "col4": "Roman Catholic Archdiocese of Cordoba",
        "col5": "58519000000",
        "col6": "58519000000"
    },
    {
        "col0": "Roman Catholic Diocese of Villa Maria",
        "col1": "Roman Catholic Archdiocese of Cordoba",
        "col2": "Roman Catholic Archdiocese of Cordoba",
        "col3": "Roman Catholic Archdiocese of Cordoba",
        "col4": "Roman Catholic Archdiocese of Cordoba",
        "col5": "28000000000",
        "col6": "28000000000"
    },
    {
        "col0": "Roman Catholic Diocese of Vila Real",
        "col1": "Roman Catholic Archdiocese of Braga",
        "col2": "Roman Catholic Archdiocese of Braga",
        "col3": "Roman Catholic Archdiocese of Braga",
        "col4": "Roman Catholic Archdiocese of Braga",
        "col5": "4237000000",
        "col6": "4237000000"
    },
    {
        "col0": "Roman Catholic Diocese of Vijayawada",
        "col1": "Roman Catholic Archdiocese of Visakhapatnam",
        "col2": "Roman Catholic Archdiocese of Visakhapatnam",
        "col3": "Roman Catholic Archdiocese of Visakhapatnam",
        "col4": "Roman Catholic Archdiocese of Visakhapatnam",
        "col5": "8734000000",
        "col6": "8734000000"
    },
    {
        "col0": "Roman Catholic Diocese of Vijayapuram",
        "col1": "Latin Catholic Archdiocese of Verapoly",
        "col2": "Latin Catholic Archdiocese of Verapoly",
        "col3": "Latin Catholic Archdiocese of Verapoly",
        "col4": "Latin Catholic Archdiocese of Verapoly",
        "col5": "9000000000",
        "col6": "9000000000"
    },
    {
        "col0": "Roman Catholic Diocese of Vigevano",
        "col1": "Roman Catholic Archdiocese of Milan",
        "col2": "Roman Catholic Archdiocese of Milan",
        "col3": "Roman Catholic Archdiocese of Milan",
        "col4": "Roman Catholic Archdiocese of Milan",
        "col5": "1509000000",
        "col6": "1509000000"
    },
    {
        "col0": "Roman Catholic Diocese of Viedma",
        "col1": "Roman Catholic Archdiocese of Bahia Blanca",
        "col2": "Roman Catholic Archdiocese of Bahia Blanca",
        "col3": "Roman Catholic Archdiocese of Bahia Blanca",
        "col4": "Roman Catholic Archdiocese of Bahia Blanca",
        "col5": "89000000000",
        "col6": "89000000000"
    },
    {
        "col0": "Roman Catholic Diocese of Victoria in Texas",
        "col1": "Archdiocese of Galveston-Houston",
        "col2": "Archdiocese of Galveston-Houston",
        "col3": "Archdiocese of Galveston-Houston",
        "col4": "Archdiocese of Galveston-Houston",
        "col5": "24887195752",
        "col6": "24887195752"
    },
    {
        "col0": "Roman Catholic Diocese of Victoria in Canada",
        "col1": "Roman Catholic Archdiocese of Vancouver",
        "col2": "Roman Catholic Archdiocese of Vancouver",
        "col3": "Roman Catholic Archdiocese of Vancouver",
        "col4": "Roman Catholic Archdiocese of Vancouver",
        "col5": "95275000000",
        "col6": "95275000000"
    },
    {
        "col0": "Roman Catholic Diocese of Vicenza",
        "col1": "Roman Catholic Archdiocese of Venice",
        "col2": "Roman Catholic Archdiocese of Venice",
        "col3": "Roman Catholic Archdiocese of Venice",
        "col4": "Roman Catholic Archdiocese of Venice",
        "col5": "2200000000",
        "col6": "2200000000"
    },
    {
        "col0": "Roman Catholic Diocese of Vic",
        "col1": "Roman Catholic Archdiocese of Tarragona",
        "col2": "Roman Catholic Archdiocese of Tarragona",
        "col3": "Roman Catholic Archdiocese of Tarragona",
        "col4": "Roman Catholic Archdiocese of Tarragona",
        "col5": "3964000000",
        "col6": "3964000000"
    },
    {
        "col0": "Roman Catholic Diocese of Viana do Castelo",
        "col1": "Roman Catholic Archdiocese of Braga",
        "col2": "Roman Catholic Archdiocese of Braga",
        "col3": "Roman Catholic Archdiocese of Braga",
        "col4": "Roman Catholic Archdiocese of Braga",
        "col5": "2108000000",
        "col6": "2108000000"
    },
    {
        "col0": "Roman Catholic Diocese of Viana, Brazil",
        "col1": "Roman Catholic Archdiocese of Sao Luis do Maranhao",
        "col2": "Roman Catholic Archdiocese of Sao Luis do Maranhao",
        "col3": "Roman Catholic Archdiocese of Sao Luis do Maranhao",
        "col4": "Roman Catholic Archdiocese of Sao Luis do Maranhao",
        "col5": "23118000000",
        "col6": "23118000000"
    },
    {
        "col0": "Roman Catholic Diocese of Versailles",
        "col1": "Roman Catholic Archdiocese of Paris",
        "col2": "Roman Catholic Archdiocese of Paris",
        "col3": "Roman Catholic Archdiocese of Paris",
        "col4": "Roman Catholic Archdiocese of Paris",
        "col5": "2270000000",
        "col6": "2270000000"
    },
    {
        "col0": "Roman Catholic Diocese of Verona",
        "col1": "Roman Catholic Archdiocese of Venice",
        "col2": "Roman Catholic Archdiocese of Venice",
        "col3": "Roman Catholic Archdiocese of Venice",
        "col4": "Roman Catholic Archdiocese of Venice",
        "col5": "3050000000",
        "col6": "3050000000"
    },
    {
        "col0": "Roman Catholic Diocese of Verdun",
        "col1": "Roman Catholic Archdiocese of Besancon",
        "col2": "Roman Catholic Archdiocese of Besancon",
        "col3": "Roman Catholic Archdiocese of Besancon",
        "col4": "Roman Catholic Archdiocese of Besancon",
        "col5": "6211000000",
        "col6": "6211000000"
    },
    {
        "col0": "Roman Catholic Diocese of Verapaz",
        "col1": "Roman Catholic Archdiocese of Guatemala",
        "col2": "Roman Catholic Archdiocese of Guatemala",
        "col3": "Roman Catholic Archdiocese of Guatemala",
        "col4": "Roman Catholic Archdiocese of Guatemala",
        "col5": "11810000000",
        "col6": "11810000000"
    },
    {
        "col0": "Roman Catholic Diocese of Veracruz",
        "col1": "Roman Catholic Archdiocese of Jalapa",
        "col2": "Roman Catholic Archdiocese of Jalapa",
        "col3": "Roman Catholic Archdiocese of Jalapa",
        "col4": "Roman Catholic Archdiocese of Jalapa",
        "col5": "9002798671",
        "col6": "9002798671"
    },
    {
        "col0": "Roman Catholic Diocese of Ventimiglia-San Remo",
        "col1": "Roman Catholic Archdiocese of Genoa",
        "col2": "Roman Catholic Archdiocese of Genoa",
        "col3": "Roman Catholic Archdiocese of Genoa",
        "col4": "Roman Catholic Archdiocese of Genoa",
        "col5": "715000000",
        "col6": "715000000"
    },
    {
        "col0": "Roman Catholic Diocese of Venado Tuerto",
        "col1": "Roman Catholic Archdiocese of Rosario",
        "col2": "Roman Catholic Archdiocese of Rosario",
        "col3": "Roman Catholic Archdiocese of Rosario",
        "col4": "Roman Catholic Archdiocese of Rosario",
        "col5": "14000000000",
        "col6": "14000000000"
    },
    {
        "col0": "Roman Catholic Diocese of Vellore",
        "col1": "Roman Catholic Archdiocese of Madras and Mylapore",
        "col2": "Roman Catholic Archdiocese of Madras and Mylapore",
        "col3": "Roman Catholic Archdiocese of Madras and Mylapore",
        "col4": "Roman Catholic Archdiocese of Madras and Mylapore",
        "col5": "12265000000",
        "col6": "12265000000"
    },
    {
        "col0": "Roman Catholic Diocese of Vasai",
        "col1": "Roman Catholic Archdiocese of Bombay",
        "col2": "Roman Catholic Archdiocese of Bombay",
        "col3": "Roman Catholic Archdiocese of Bombay",
        "col4": "Roman Catholic Archdiocese of Bombay",
        "col5": "7596000000",
        "col6": "7596000000"
    },
    {
        "col0": "Roman Catholic Diocese of Varazdin",
        "col1": "Roman Catholic Archdiocese of Zagreb",
        "col2": "Roman Catholic Archdiocese of Zagreb",
        "col3": "Roman Catholic Archdiocese of Zagreb",
        "col4": "Roman Catholic Archdiocese of Zagreb",
        "col5": "3100000000",
        "col6": "3100000000"
    },
    {
        "col0": "Roman Catholic Diocese of Varanasi",
        "col1": "Roman Catholic Archdiocese of Agra",
        "col2": "Roman Catholic Archdiocese of Agra",
        "col3": "Roman Catholic Archdiocese of Agra",
        "col4": "Roman Catholic Archdiocese of Agra",
        "col5": "21395000000",
        "col6": "21395000000"
    },
    {
        "col0": "Roman Catholic Diocese of Varazdin",
        "col1": "Roman Catholic Archdiocese of Zagreb",
        "col2": "Roman Catholic Archdiocese of Zagreb",
        "col3": "Roman Catholic Archdiocese of Zagreb",
        "col4": "Roman Catholic Archdiocese of Zagreb",
        "col5": "3100000000",
        "col6": "3100000000"
    },
    {
        "col0": "Roman Catholic Diocese of Vannes",
        "col1": "Roman Catholic Archdiocese of Rennes",
        "col2": "Roman Catholic Archdiocese of Rennes",
        "col3": "Roman Catholic Archdiocese of Rennes",
        "col4": "Roman Catholic Archdiocese of Rennes",
        "col5": "7092000000",
        "col6": "7092000000"
    },
    {
        "col0": "Roman Catholic Diocese of Valparaiso",
        "col1": "Roman Catholic Archdiocese of Santiago de Chile",
        "col2": "Roman Catholic Archdiocese of Santiago de Chile",
        "col3": "Roman Catholic Archdiocese of Santiago de Chile",
        "col4": "Roman Catholic Archdiocese of Santiago de Chile",
        "col5": "4600000000",
        "col6": "4600000000"
    },
    {
        "col0": "Roman Catholic Diocese of Vallo della Lucania",
        "col1": "Roman Catholic Archdiocese of Salerno-Campagna-Acerno",
        "col2": "Roman Catholic Archdiocese of Salerno-Campagna-Acerno",
        "col3": "Roman Catholic Archdiocese of Salerno-Campagna-Acerno",
        "col4": "Roman Catholic Archdiocese of Salerno-Campagna-Acerno",
        "col5": "1562000000",
        "col6": "1562000000"
    },
    {
        "col0": "Roman Catholic Diocese of Valledupar",
        "col1": "Roman Catholic Archdiocese of Barranquilla",
        "col2": "Roman Catholic Archdiocese of Barranquilla",
        "col3": "Roman Catholic Archdiocese of Barranquilla",
        "col4": "Roman Catholic Archdiocese of Barranquilla",
        "col5": "28780000000",
        "col6": "28780000000"
    },
    {
        "col0": "Roman Catholic Diocese of Valle de Chalco",
        "col1": "Roman Catholic Archdiocese of Tlalnepantla",
        "col2": "Roman Catholic Archdiocese of Tlalnepantla",
        "col3": "Roman Catholic Archdiocese of Tlalnepantla",
        "col4": "Roman Catholic Archdiocese of Tlalnepantla",
        "col5": "1235424328",
        "col6": "1235424328"
    },
    {
        "col0": "Roman Catholic Diocese of Valenca",
        "col1": "Roman Catholic Archdiocese of Sao Sebastiao do Rio de Janeiro",
        "col2": "Roman Catholic Archdiocese of Sao Sebastiao do Rio de Janeiro",
        "col3": "Roman Catholic Archdiocese of Sao Sebastiao do Rio de Janeiro",
        "col4": "Roman Catholic Archdiocese of Sao Sebastiao do Rio de Janeiro",
        "col5": "3996000000",
        "col6": "3996000000"
    },
    {
        "col0": "Roman Catholic Diocese of Valence",
        "col1": "Roman Catholic Archdiocese of Lyon",
        "col2": "Roman Catholic Archdiocese of Lyon",
        "col3": "Roman Catholic Archdiocese of Lyon",
        "col4": "Roman Catholic Archdiocese of Lyon",
        "col5": "6522000000",
        "col6": "6522000000"
    },
    {
        "col0": "Roman Catholic Diocese of Valenca",
        "col1": "Roman Catholic Archdiocese of Sao Sebastiao do Rio de Janeiro",
        "col2": "Roman Catholic Archdiocese of Sao Sebastiao do Rio de Janeiro",
        "col3": "Roman Catholic Archdiocese of Sao Sebastiao do Rio de Janeiro",
        "col4": "Roman Catholic Archdiocese of Sao Sebastiao do Rio de Janeiro",
        "col5": "3996000000",
        "col6": "3996000000"
    },
    {
        "col0": "Roman Catholic Diocese of Valdivia",
        "col1": "Roman Catholic Archdiocese of Concepcion",
        "col2": "Roman Catholic Archdiocese of Concepcion",
        "col3": "Roman Catholic Archdiocese of Concepcion",
        "col4": "Roman Catholic Archdiocese of Concepcion",
        "col5": "13679000000",
        "col6": "13679000000"
    },
    {
        "col0": "Roman Catholic Diocese of Vacaria",
        "col1": "Roman Catholic Archdiocese of Passo Fundo",
        "col2": "Roman Catholic Archdiocese of Passo Fundo",
        "col3": "Roman Catholic Archdiocese of Passo Fundo",
        "col4": "Roman Catholic Archdiocese of Passo Fundo",
        "col5": "15932000000",
        "col6": "15932000000"
    },
    {
        "col0": "Roman Catholic Diocese of Vinh Long",
        "col1": "Roman Catholic Archdiocese of Ho Chi Minh city",
        "col2": "Roman Catholic Archdiocese of Ho Chi Minh city",
        "col3": "Roman Catholic Archdiocese of Ho Chi Minh city",
        "col4": "Roman Catholic Archdiocese of Ho Chi Minh city",
        "col5": "6772000000",
        "col6": "6772000000"
    },
    {
        "col0": "Roman Catholic Diocese of Velez",
        "col1": "Roman Catholic Archdiocese of Bucaramanga",
        "col2": "Roman Catholic Archdiocese of Bucaramanga",
        "col3": "Roman Catholic Archdiocese of Bucaramanga",
        "col4": "Roman Catholic Archdiocese of Bucaramanga",
        "col5": "4958000000",
        "col6": "4958000000"
    },
    {
        "col0": "Roman Catholic Diocese of Vac",
        "col1": "Roman Catholic Archdiocese of Eger",
        "col2": "Roman Catholic Archdiocese of Eger",
        "col3": "Roman Catholic Archdiocese of Eger",
        "col4": "Roman Catholic Archdiocese of Eger",
        "col5": "8800000000",
        "col6": "8800000000"
    },
    {
        "col0": "Roman Catholic Diocese of Uyo",
        "col1": "Roman Catholic Archdiocese of Calabar",
        "col2": "Roman Catholic Archdiocese of Calabar",
        "col3": "Roman Catholic Archdiocese of Calabar",
        "col4": "Roman Catholic Archdiocese of Calabar",
        "col5": "5969000000",
        "col6": "5969000000"
    },
    {
        "col0": "Roman Catholic Diocese of Uruguaiana",
        "col1": "Roman Catholic Archdiocese of Santa Maria",
        "col2": "Roman Catholic Archdiocese of Santa Maria",
        "col3": "Roman Catholic Archdiocese of Santa Maria",
        "col4": "Roman Catholic Archdiocese of Santa Maria",
        "col5": "38795000000",
        "col6": "38795000000"
    },
    {
        "col0": "Roman Catholic Diocese of Uruacu",
        "col1": "Roman Catholic Archdiocese of Brasilia",
        "col2": "Roman Catholic Archdiocese of Brasilia",
        "col3": "Roman Catholic Archdiocese of Brasilia",
        "col4": "Roman Catholic Archdiocese of Brasilia",
        "col5": "43000000000",
        "col6": "43000000000"
    },
    {
        "col0": "Roman Catholic Diocese of Uromi",
        "col1": "Roman Catholic Archdiocese of Benin City",
        "col2": "Roman Catholic Archdiocese of Benin City",
        "col3": "Roman Catholic Archdiocese of Benin City",
        "col4": "Roman Catholic Archdiocese of Benin City",
        "col5": "2800000000",
        "col6": "2800000000"
    },
    {
        "col0": "Roman Catholic Diocese of Urgell",
        "col1": "Roman Catholic Archdiocese of Tarragona",
        "col2": "Roman Catholic Archdiocese of Tarragona",
        "col3": "Roman Catholic Archdiocese of Tarragona",
        "col4": "Roman Catholic Archdiocese of Tarragona",
        "col5": "7630000000",
        "col6": "7630000000"
    },
    {
        "col0": "Roman Catholic Diocese of Urdaneta",
        "col1": "Roman Catholic Archdiocese of Lingayen-Dagupan",
        "col2": "Roman Catholic Archdiocese of Lingayen-Dagupan",
        "col3": "Roman Catholic Archdiocese of Lingayen-Dagupan",
        "col4": "Roman Catholic Archdiocese of Lingayen-Dagupan",
        "col5": "1616000000",
        "col6": "1616000000"
    },
    {
        "col0": "Roman Catholic Diocese of Uniao da Vitoria",
        "col1": "Roman Catholic Archdiocese of Curitiba",
        "col2": "Roman Catholic Archdiocese of Curitiba",
        "col3": "Roman Catholic Archdiocese of Curitiba",
        "col4": "Roman Catholic Archdiocese of Curitiba",
        "col5": "10009000000",
        "col6": "10009000000"
    },
    {
        "col0": "Roman Catholic Diocese of Umuarama",
        "col1": "Roman Catholic Archdiocese of Maringa",
        "col2": "Roman Catholic Archdiocese of Maringa",
        "col3": "Roman Catholic Archdiocese of Maringa",
        "col4": "Roman Catholic Archdiocese of Maringa",
        "col5": "13200000000",
        "col6": "13200000000"
    },
    {
        "col0": "Roman Catholic Diocese of Uijeongbu",
        "col1": "Roman Catholic Archdiocese of Seoul",
        "col2": "Roman Catholic Archdiocese of Seoul",
        "col3": "Roman Catholic Archdiocese of Seoul",
        "col4": "Roman Catholic Archdiocese of Seoul",
        "col5": "2626000000",
        "col6": "2626000000"
    },
    {
        "col0": "Roman Catholic Diocese of Ugento-Santa Maria di Leuca",
        "col1": "Roman Catholic Archdiocese of Lecce",
        "col2": "Roman Catholic Archdiocese of Lecce",
        "col3": "Roman Catholic Archdiocese of Lecce",
        "col4": "Roman Catholic Archdiocese of Lecce",
        "col5": "475000000",
        "col6": "475000000"
    },
    {
        "col0": "Roman Catholic Diocese of Udupi",
        "col1": "Roman Catholic Archdiocese of Bangalore",
        "col2": "Roman Catholic Archdiocese of Bangalore",
        "col3": "Roman Catholic Archdiocese of Bangalore",
        "col4": "Roman Catholic Archdiocese of Bangalore",
        "col5": "3501000000",
        "col6": "3501000000"
    },
    {
        "col0": "Roman Catholic Diocese of Udon Thani",
        "col1": "Archdiocese of Thare and Nonseng",
        "col2": "Archdiocese of Thare and Nonseng",
        "col3": "Archdiocese of Thare and Nonseng",
        "col4": "Archdiocese of Thare and Nonseng",
        "col5": "50046000000",
        "col6": "50046000000"
    },
    {
        "col0": "Roman Catholic Diocese of Udaipur",
        "col1": "Roman Catholic Archdiocese of Agra",
        "col2": "Roman Catholic Archdiocese of Agra",
        "col3": "Roman Catholic Archdiocese of Agra",
        "col4": "Roman Catholic Archdiocese of Agra",
        "col5": "47000000000",
        "col6": "47000000000"
    },
    {
        "col0": "Roman Catholic Diocese of Ubon Ratchathani",
        "col1": "Archdiocese of Thare and Nonseng",
        "col2": "Archdiocese of Thare and Nonseng",
        "col3": "Archdiocese of Thare and Nonseng",
        "col4": "Archdiocese of Thare and Nonseng",
        "col5": "53917000000",
        "col6": "53917000000"
    },
    {
        "col0": "Roman Catholic Diocese of Uberlandia",
        "col1": "Roman Catholic Archdiocese of Uberaba",
        "col2": "Roman Catholic Archdiocese of Uberaba",
        "col3": "Roman Catholic Archdiocese of Uberaba",
        "col4": "Roman Catholic Archdiocese of Uberaba",
        "col5": "13853000000",
        "col6": "13853000000"
    },
    {
        "col0": "Roman Catholic Diocese of Tuxpan",
        "col1": "Roman Catholic Archdiocese of Jalapa",
        "col2": "Roman Catholic Archdiocese of Jalapa",
        "col3": "Roman Catholic Archdiocese of Jalapa",
        "col4": "Roman Catholic Archdiocese of Jalapa",
        "col5": "19005332753",
        "col6": "19005332753"
    },
    {
        "col0": "Roman Catholic Diocese of Tuticorin",
        "col1": "Roman Catholic Archdiocese of Madurai",
        "col2": "Roman Catholic Archdiocese of Madurai",
        "col3": "Roman Catholic Archdiocese of Madurai",
        "col4": "Roman Catholic Archdiocese of Madurai",
        "col5": "6440000000",
        "col6": "6440000000"
    },
    {
        "col0": "Roman Catholic Diocese of Tursi-Lagonegro",
        "col1": "Roman Catholic Archdiocese of Potenza-Muro Lucano-Marsico Nuovo",
        "col2": "Roman Catholic Archdiocese of Potenza-Muro Lucano-Marsico Nuovo",
        "col3": "Roman Catholic Archdiocese of Potenza-Muro Lucano-Marsico Nuovo",
        "col4": "Roman Catholic Archdiocese of Potenza-Muro Lucano-Marsico Nuovo",
        "col5": "2509000000",
        "col6": "2509000000"
    },
    {
        "col0": "Roman Catholic Diocese of Tura",
        "col1": "Roman Catholic Archdiocese of Shillong",
        "col2": "Roman Catholic Archdiocese of Shillong",
        "col3": "Roman Catholic Archdiocese of Shillong",
        "col4": "Roman Catholic Archdiocese of Shillong",
        "col5": "8500000000",
        "col6": "8500000000"
    },
    {
        "col0": "Roman Catholic Diocese of Tumaco",
        "col1": "Roman Catholic Archdiocese of Popayan",
        "col2": "Roman Catholic Archdiocese of Popayan",
        "col3": "Roman Catholic Archdiocese of Popayan",
        "col4": "Roman Catholic Archdiocese of Popayan",
        "col5": "16400000000",
        "col6": "16400000000"
    },
    {
        "col0": "Roman Catholic Diocese of Tulsa",
        "col1": "Roman Catholic Archdiocese of Oklahoma City",
        "col2": "Roman Catholic Archdiocese of Oklahoma City",
        "col3": "Roman Catholic Archdiocese of Oklahoma City",
        "col4": "Roman Catholic Archdiocese of Oklahoma City",
        "col5": "68419715910",
        "col6": "68419715910"
    },
    {
        "col0": "Roman Catholic Diocese of Tulle",
        "col1": "Roman Catholic Archdiocese of Poitiers",
        "col2": "Roman Catholic Archdiocese of Poitiers",
        "col3": "Roman Catholic Archdiocese of Poitiers",
        "col4": "Roman Catholic Archdiocese of Poitiers",
        "col5": "5896000000",
        "col6": "5896000000"
    },
    {
        "col0": "Roman Catholic Diocese of Tulcan",
        "col1": "Roman Catholic Archdiocese of Quito",
        "col2": "Roman Catholic Archdiocese of Quito",
        "col3": "Roman Catholic Archdiocese of Quito",
        "col4": "Roman Catholic Archdiocese of Quito",
        "col5": "3699000000",
        "col6": "3699000000"
    },
    {
        "col0": "Roman Catholic Diocese of Tula",
        "col1": "Roman Catholic Archdiocese of Tulancingo",
        "col2": "Roman Catholic Archdiocese of Tulancingo",
        "col3": "Roman Catholic Archdiocese of Tulancingo",
        "col4": "Roman Catholic Archdiocese of Tulancingo",
        "col5": "8290551941",
        "col6": "8290551941"
    },
    {
        "col0": "Roman Catholic Diocese of Tui-Vigo",
        "col1": "Roman Catholic Archdiocese of Santiago de Compostela",
        "col2": "Roman Catholic Archdiocese of Santiago de Compostela",
        "col3": "Roman Catholic Archdiocese of Santiago de Compostela",
        "col4": "Roman Catholic Archdiocese of Santiago de Compostela",
        "col5": "1721000000",
        "col6": "1721000000"
    },
    {
        "col0": "Roman Catholic Diocese of Tucson",
        "col1": "Roman Catholic Archdiocese of Santa Fe",
        "col2": "Roman Catholic Archdiocese of Santa Fe",
        "col3": "Roman Catholic Archdiocese of Santa Fe",
        "col4": "Roman Catholic Archdiocese of Santa Fe",
        "col5": "110610622228",
        "col6": "110610622228"
    },
    {
        "col0": "Roman Catholic Diocese of Tubarao",
        "col1": "Roman Catholic Archdiocese of Florianopolis",
        "col2": "Roman Catholic Archdiocese of Florianopolis",
        "col3": "Roman Catholic Archdiocese of Florianopolis",
        "col4": "Roman Catholic Archdiocese of Florianopolis",
        "col5": "4531000000",
        "col6": "4531000000"
    },
    {
        "col0": "Roman Catholic Diocese of Tres Lagoas",
        "col1": "Roman Catholic Archdiocese of Campo Grande",
        "col2": "Roman Catholic Archdiocese of Campo Grande",
        "col3": "Roman Catholic Archdiocese of Campo Grande",
        "col4": "Roman Catholic Archdiocese of Campo Grande",
        "col5": "49000000000",
        "col6": "49000000000"
    },
    {
        "col0": "Roman Catholic Diocese of Trujillo",
        "col1": "Roman Catholic Archdiocese of Tegucigalpa",
        "col2": "Roman Catholic Archdiocese of Tegucigalpa",
        "col3": "Roman Catholic Archdiocese of Tegucigalpa",
        "col4": "Roman Catholic Archdiocese of Tegucigalpa",
        "col5": "25500000000",
        "col6": "25500000000"
    },
    {
        "col0": "Roman Catholic Diocese of Trujillo, Venezuela",
        "col1": "Roman Catholic Archdiocese of Merida in Venezuela",
        "col2": "Roman Catholic Archdiocese of Merida in Venezuela",
        "col3": "Roman Catholic Archdiocese of Merida in Venezuela",
        "col4": "Roman Catholic Archdiocese of Merida in Venezuela",
        "col5": "7400000000",
        "col6": "7400000000"
    },
    {
        "col0": "Roman Catholic Diocese of Troyes",
        "col1": "Roman Catholic Archdiocese of Reims",
        "col2": "Roman Catholic Archdiocese of Reims",
        "col3": "Roman Catholic Archdiocese of Reims",
        "col4": "Roman Catholic Archdiocese of Reims",
        "col5": "6028000000",
        "col6": "6028000000"
    },
    {
        "col0": "Roman Catholic Diocese of Trivento",
        "col1": "Roman Catholic Archdiocese of Campobasso-Boiano",
        "col2": "Roman Catholic Archdiocese of Campobasso-Boiano",
        "col3": "Roman Catholic Archdiocese of Campobasso-Boiano",
        "col4": "Roman Catholic Archdiocese of Campobasso-Boiano",
        "col5": "1234000000",
        "col6": "1234000000"
    },
    {
        "col0": "Roman Catholic Diocese of Trincomalee",
        "col1": "Roman Catholic Archdiocese of Colombo",
        "col2": "Roman Catholic Archdiocese of Colombo",
        "col3": "Roman Catholic Archdiocese of Colombo",
        "col4": "Roman Catholic Archdiocese of Colombo",
        "col5": "8397000000",
        "col6": "8397000000"
    },
    {
        "col0": "Roman Catholic Diocese of Trieste",
        "col1": "Roman Catholic Archdiocese of Gorizia",
        "col2": "Roman Catholic Archdiocese of Gorizia",
        "col3": "Roman Catholic Archdiocese of Gorizia",
        "col4": "Roman Catholic Archdiocese of Gorizia",
        "col5": "134000000",
        "col6": "134000000"
    },
    {
        "col0": "Roman Catholic Diocese of Trier",
        "col1": "Roman Catholic Archdiocese of Cologne",
        "col2": "Roman Catholic Archdiocese of Cologne",
        "col3": "Roman Catholic Archdiocese of Cologne",
        "col4": "Roman Catholic Archdiocese of Cologne",
        "col5": "12870000000",
        "col6": "12870000000"
    },
    {
        "col0": "Roman Catholic Diocese of Tricarico",
        "col1": "Roman Catholic Archdiocese of Potenza-Muro Lucano-Marsico Nuovo",
        "col2": "Roman Catholic Archdiocese of Potenza-Muro Lucano-Marsico Nuovo",
        "col3": "Roman Catholic Archdiocese of Potenza-Muro Lucano-Marsico Nuovo",
        "col4": "Roman Catholic Archdiocese of Potenza-Muro Lucano-Marsico Nuovo",
        "col5": "1237000000",
        "col6": "1237000000"
    },
    {
        "col0": "Roman Catholic Diocese of Treviso",
        "col1": "Roman Catholic Archdiocese of Venice",
        "col2": "Roman Catholic Archdiocese of Venice",
        "col3": "Roman Catholic Archdiocese of Venice",
        "col4": "Roman Catholic Archdiocese of Venice",
        "col5": "2194000000",
        "col6": "2194000000"
    },
    {
        "col0": "Roman Catholic Diocese of Trapani",
        "col1": "Palermo",
        "col2": "Palermo",
        "col3": "Palermo",
        "col4": "Palermo",
        "col5": "1087795006",
        "col6": "1087795006"
    },
    {
        "col0": "Roman Catholic Diocese of Tres Lagoas",
        "col1": "Roman Catholic Archdiocese of Campo Grande",
        "col2": "Roman Catholic Archdiocese of Campo Grande",
        "col3": "Roman Catholic Archdiocese of Campo Grande",
        "col4": "Roman Catholic Archdiocese of Campo Grande",
        "col5": "49000000000",
        "col6": "49000000000"
    },
    {
        "col0": "Roman Catholic Diocese of Tournai",
        "col1": "Roman Catholic Archdiocese of Mechelen-Brussels",
        "col2": "Roman Catholic Archdiocese of Mechelen-Brussels",
        "col3": "Roman Catholic Archdiocese of Mechelen-Brussels",
        "col4": "Roman Catholic Archdiocese of Mechelen-Brussels",
        "col5": "3796000000",
        "col6": "3796000000"
    },
    {
        "col0": "Roman Catholic Diocese of Torun",
        "col1": "Roman Catholic Archdiocese of Gdansk",
        "col2": "Roman Catholic Archdiocese of Gdansk",
        "col3": "Roman Catholic Archdiocese of Gdansk",
        "col4": "Roman Catholic Archdiocese of Gdansk",
        "col5": "5427000000",
        "col6": "5427000000"
    },
    {
        "col0": "Roman Catholic Diocese of Tortosa",
        "col1": "Roman Catholic Archdiocese of Tarragona",
        "col2": "Roman Catholic Archdiocese of Tarragona",
        "col3": "Roman Catholic Archdiocese of Tarragona",
        "col4": "Roman Catholic Archdiocese of Tarragona",
        "col5": "6450000000",
        "col6": "6450000000"
    },
    {
        "col0": "Roman Catholic Diocese of Tortona",
        "col1": "Roman Catholic Archdiocese of Genoa",
        "col2": "Roman Catholic Archdiocese of Genoa",
        "col3": "Roman Catholic Archdiocese of Genoa",
        "col4": "Roman Catholic Archdiocese of Genoa",
        "col5": "2350000000",
        "col6": "2350000000"
    },
    {
        "col0": "Roman Catholic Diocese of Torreon",
        "col1": "Roman Catholic Archdiocese of Durango",
        "col2": "Roman Catholic Archdiocese of Durango",
        "col3": "Roman Catholic Archdiocese of Durango",
        "col4": "Roman Catholic Archdiocese of Durango",
        "col5": "22478506809",
        "col6": "22478506809"
    },
    {
        "col0": "Roman Catholic Diocese of Toluca",
        "col1": "Roman Catholic Archdiocese of Mexico",
        "col2": "Roman Catholic Archdiocese of Mexico",
        "col3": "Roman Catholic Archdiocese of Mexico",
        "col4": "Roman Catholic Archdiocese of Mexico",
        "col5": "5021986945",
        "col6": "5021986945"
    },
    {
        "col0": "Roman Catholic Diocese of Toledo, Brazil",
        "col1": "Roman Catholic Archdiocese of Cascavel",
        "col2": "Roman Catholic Archdiocese of Cascavel",
        "col3": "Roman Catholic Archdiocese of Cascavel",
        "col4": "Roman Catholic Archdiocese of Cascavel",
        "col5": "8000000000",
        "col6": "8000000000"
    },
    {
        "col0": "Roman Catholic Diocese of Toledo",
        "col1": "Archdiocese of Cincinnati",
        "col2": "Archdiocese of Cincinnati",
        "col3": "Archdiocese of Cincinnati",
        "col4": "Archdiocese of Cincinnati",
        "col5": "21294882243",
        "col6": "21294882243"
    },
    {
        "col0": "Roman Catholic Diocese of Tlaxcala",
        "col1": "Roman Catholic Archdiocese of Puebla de los Angeles",
        "col2": "Roman Catholic Archdiocese of Puebla de los Angeles",
        "col3": "Roman Catholic Archdiocese of Puebla de los Angeles",
        "col4": "Roman Catholic Archdiocese of Puebla de los Angeles",
        "col5": "4061101357",
        "col6": "4061101357"
    },
    {
        "col0": "Roman Catholic Diocese of Tlapa",
        "col1": "Roman Catholic Archdiocese of Acapulco",
        "col2": "Roman Catholic Archdiocese of Acapulco",
        "col3": "Roman Catholic Archdiocese of Acapulco",
        "col4": "Roman Catholic Archdiocese of Acapulco",
        "col5": "16006126521",
        "col6": "16006126521"
    },
    {
        "col0": "Roman Catholic Diocese of Tivoli",
        "col1": "Holy See",
        "col2": "Holy See",
        "col3": "Holy See",
        "col4": "Holy See",
        "col5": "892000000",
        "col6": "892000000"
    },
    {
        "col0": "Roman Catholic Diocese of Tiruchirapalli",
        "col1": "Roman Catholic Archdiocese of Madurai",
        "col2": "Roman Catholic Archdiocese of Madurai",
        "col3": "Roman Catholic Archdiocese of Madurai",
        "col4": "Roman Catholic Archdiocese of Madurai",
        "col5": "12144000000",
        "col6": "12144000000"
    },
    {
        "col0": "Roman Catholic Diocese of Tingzhou",
        "col1": "Roman Catholic Archdiocese of Fuzhou",
        "col2": "Roman Catholic Archdiocese of Fuzhou",
        "col3": "Roman Catholic Archdiocese of Fuzhou",
        "col4": "Roman Catholic Archdiocese of Fuzhou",
        "col5": "20000000000",
        "col6": "20000000000"
    },
    {
        "col0": "Roman Catholic Diocese of Timisoara",
        "col1": "Roman Catholic Archdiocese of Bucharest",
        "col2": "Roman Catholic Archdiocese of Bucharest",
        "col3": "Roman Catholic Archdiocese of Bucharest",
        "col4": "Roman Catholic Archdiocese of Bucharest",
        "col5": "24755000000",
        "col6": "24755000000"
    },
    {
        "col0": "Roman Catholic Diocese of Timika",
        "col1": "Roman Catholic Archdiocese of Merauke",
        "col2": "Roman Catholic Archdiocese of Merauke",
        "col3": "Roman Catholic Archdiocese of Merauke",
        "col4": "Roman Catholic Archdiocese of Merauke",
        "col5": "81810000000",
        "col6": "81810000000"
    },
    {
        "col0": "Roman Catholic Diocese of Timisoara",
        "col1": "Roman Catholic Archdiocese of Bucharest",
        "col2": "Roman Catholic Archdiocese of Bucharest",
        "col3": "Roman Catholic Archdiocese of Bucharest",
        "col4": "Roman Catholic Archdiocese of Bucharest",
        "col5": "24755000000",
        "col6": "24755000000"
    },
    {
        "col0": "Roman Catholic Diocese of Tilaran-Liberia",
        "col1": "Roman Catholic Archdiocese of San Jose de Costa Rica",
        "col2": "Roman Catholic Archdiocese of San Jose de Costa Rica",
        "col3": "Roman Catholic Archdiocese of San Jose de Costa Rica",
        "col4": "Roman Catholic Archdiocese of San Jose de Costa Rica",
        "col5": "12500000000",
        "col6": "12500000000"
    },
    {
        "col0": "Roman Catholic Diocese of Tibu",
        "col1": "Roman Catholic Archdiocese of Nueva Pamplona",
        "col2": "Roman Catholic Archdiocese of Nueva Pamplona",
        "col3": "Roman Catholic Archdiocese of Nueva Pamplona",
        "col4": "Roman Catholic Archdiocese of Nueva Pamplona",
        "col5": "7825000000",
        "col6": "7825000000"
    },
    {
        "col0": "Roman Catholic Diocese of Tianjin",
        "col1": "Roman Catholic Archdiocese of Beijing",
        "col2": "Roman Catholic Archdiocese of Beijing",
        "col3": "Roman Catholic Archdiocese of Beijing",
        "col4": "Roman Catholic Archdiocese of Beijing",
        "col5": "12560000000",
        "col6": "12560000000"
    }
]