[
    {
        "col0": "Taekwondo at the 2008 Summer Olympics - Women's 49 kg",
        "col1": "Taekwondo at the 2012 Summer Olympics - Women's 49 kg",
        "col2": "D. Montejo",
        "col3": "Taekwondo at the 2004 Summer Olympics - Women's 49 kg"
    },
    {
        "col0": "Taekwondo at the 2008 Summer Olympics - Women's +67 kg",
        "col1": "Taekwondo at the 2012 Summer Olympics - Women's +67 kg",
        "col2": "S. Stevenson",
        "col3": "Taekwondo at the 2004 Summer Olympics - Women's +67 kg"
    },
    {
        "col0": "Taekwondo at the 2008 Summer Olympics - Men's 80 kg",
        "col1": "Taekwondo at the 2012 Summer Olympics - Men's 80 kg",
        "col2": "Z. Guo",
        "col3": "Taekwondo at the 2004 Summer Olympics - Men's 80 kg"
    },
    {
        "col0": "Taekwondo at the 2008 Summer Olympics - Men's 68 kg",
        "col1": "Taekwondo at the 2012 Summer Olympics - Men's 68 kg",
        "col2": "S. Tazegul",
        "col3": "Taekwondo at the 2004 Summer Olympics - Men's 68 kg"
    },
    {
        "col0": "Taekwondo at the 2008 Summer Olympics - Men's 58 kg",
        "col1": "Taekwondo at the 2012 Summer Olympics - Men's 58 kg",
        "col2": "C. Mu-Yen",
        "col3": "Taekwondo at the 2004 Summer Olympics - Men's 58 kg"
    },
    {
        "col0": "Taekwondo at the 2008 Summer Olympics - Men's +80 kg",
        "col1": "Taekwondo at the 2012 Summer Olympics - Men's +80 kg",
        "col2": "C. Chukwumerije",
        "col3": "Taekwondo at the 2004 Summer Olympics - Men's +80 kg"
    },
    {
        "col0": "Taekwondo at the 2008 Summer Olympics - Women's 67 kg",
        "col1": "Taekwondo at the 2012 Summer Olympics - Women's 67 kg",
        "col2": "S. Saric",
        "col3": "Taekwondo at the 2004 Summer Olympics - Women's 67 kg"
    },
    {
        "col0": "Taekwondo at the 2008 Summer Olympics - Women's 57 kg",
        "col1": "Taekwondo at the 2012 Summer Olympics - Women's 57 kg",
        "col2": "D. Lopez",
        "col3": "Taekwondo at the 2004 Summer Olympics - Women's 57 kg"
    },
    {
        "col0": "Taekwondo at the 2008 Summer Olympics - Women's 49 kg",
        "col1": "Taekwondo at the 2012 Summer Olympics - Women's 49 kg",
        "col2": "D. Montejo",
        "col3": "Taekwondo at the 2004 Summer Olympics - Women's 49 kg"
    },
    {
        "col0": "Taekwondo at the 2008 Summer Olympics - Women's +67 kg",
        "col1": "Taekwondo at the 2012 Summer Olympics - Women's +67 kg",
        "col2": "S. Stevenson",
        "col3": "Taekwondo at the 2004 Summer Olympics - Women's +67 kg"
    },
    {
        "col0": "Taekwondo at the 2008 Summer Olympics - Men's 80 kg",
        "col1": "Taekwondo at the 2012 Summer Olympics - Men's 80 kg",
        "col2": "Z. Guo",
        "col3": "Taekwondo at the 2004 Summer Olympics - Men's 80 kg"
    },
    {
        "col0": "Taekwondo at the 2008 Summer Olympics - Men's 68 kg",
        "col1": "Taekwondo at the 2012 Summer Olympics - Men's 68 kg",
        "col2": "S. Tazegul",
        "col3": "Taekwondo at the 2004 Summer Olympics - Men's 68 kg"
    },
    {
        "col0": "Taekwondo at the 2008 Summer Olympics - Men's 58 kg",
        "col1": "Taekwondo at the 2012 Summer Olympics - Men's 58 kg",
        "col2": "C. Mu-Yen",
        "col3": "Taekwondo at the 2004 Summer Olympics - Men's 58 kg"
    },
    {
        "col0": "Taekwondo at the 2008 Summer Olympics - Men's +80 kg",
        "col1": "Taekwondo at the 2012 Summer Olympics - Men's +80 kg",
        "col2": "C. Chukwumerije",
        "col3": "Taekwondo at the 2004 Summer Olympics - Men's +80 kg"
    },
    {
        "col0": "Taekwondo at the 2004 Summer Olympics - Women's 67 kg",
        "col1": "Taekwondo at the 2008 Summer Olympics - Women's 67 kg",
        "col2": "H. Kyung-Seon",
        "col3": "Taekwondo at the 2000 Summer Olympics - Women's 67 kg"
    },
    {
        "col0": "Taekwondo at the 2004 Summer Olympics - Women's 57 kg",
        "col1": "Taekwondo at the 2008 Summer Olympics - Women's 57 kg",
        "col2": "I. Salazar",
        "col3": "Taekwondo at the 2000 Summer Olympics - Women's 57 kg"
    },
    {
        "col0": "Taekwondo at the 2004 Summer Olympics - Women's 49 kg",
        "col1": "Taekwondo at the 2008 Summer Olympics - Women's 49 kg",
        "col2": "Y. Boorapolchai",
        "col3": "Taekwondo at the 2000 Summer Olympics - Women's 49 kg"
    },
    {
        "col0": "Taekwondo at the 2004 Summer Olympics - Women's +67 kg",
        "col1": "Taekwondo at the 2008 Summer Olympics - Women's +67 kg",
        "col2": "A. Carmona",
        "col3": "Taekwondo at the 2000 Summer Olympics - Women's +67 kg"
    },
    {
        "col0": "Taekwondo at the 2004 Summer Olympics - Men's 80 kg",
        "col1": "Taekwondo at the 2008 Summer Olympics - Men's 80 kg",
        "col2": "Y. Karami",
        "col3": "Taekwondo at the 2000 Summer Olympics - Men's 80 kg"
    },
    {
        "col0": "Taekwondo at the 2004 Summer Olympics - Men's 68 kg",
        "col1": "Taekwondo at the 2008 Summer Olympics - Men's 68 kg",
        "col2": "S. Myeong-Seob",
        "col3": "Taekwondo at the 2000 Summer Olympics - Men's 68 kg"
    },
    {
        "col0": "Taekwondo at the 2004 Summer Olympics - Men's 58 kg",
        "col1": "Taekwondo at the 2008 Summer Olympics - Men's 58 kg",
        "col2": "T. Bayoumi",
        "col3": "Taekwondo at the 2000 Summer Olympics - Men's 58 kg"
    },
    {
        "col0": "Taekwondo at the 2004 Summer Olympics - Men's +80 kg",
        "col1": "Taekwondo at the 2008 Summer Olympics - Men's +80 kg",
        "col2": "P. Gentil",
        "col3": "Taekwondo at the 2000 Summer Olympics - Men's +80 kg"
    },
    {
        "col0": "Taekwondo at the 2004 Summer Olympics - Women's 67 kg",
        "col1": "Taekwondo at the 2008 Summer Olympics - Women's 67 kg",
        "col2": "H. Kyung-Seon",
        "col3": "Taekwondo at the 2000 Summer Olympics - Women's 67 kg"
    },
    {
        "col0": "Taekwondo at the 2004 Summer Olympics - Women's 57 kg",
        "col1": "Taekwondo at the 2008 Summer Olympics - Women's 57 kg",
        "col2": "I. Salazar",
        "col3": "Taekwondo at the 2000 Summer Olympics - Women's 57 kg"
    },
    {
        "col0": "Taekwondo at the 2004 Summer Olympics - Women's 49 kg",
        "col1": "Taekwondo at the 2008 Summer Olympics - Women's 49 kg",
        "col2": "Y. Boorapolchai",
        "col3": "Taekwondo at the 2000 Summer Olympics - Women's 49 kg"
    },
    {
        "col0": "Taekwondo at the 2004 Summer Olympics - Women's +67 kg",
        "col1": "Taekwondo at the 2008 Summer Olympics - Women's +67 kg",
        "col2": "A. Carmona",
        "col3": "Taekwondo at the 2000 Summer Olympics - Women's +67 kg"
    },
    {
        "col0": "Taekwondo at the 2004 Summer Olympics - Men's 80 kg",
        "col1": "Taekwondo at the 2008 Summer Olympics - Men's 80 kg",
        "col2": "Y. Karami",
        "col3": "Taekwondo at the 2000 Summer Olympics - Men's 80 kg"
    },
    {
        "col0": "Taekwondo at the 2004 Summer Olympics - Men's 68 kg",
        "col1": "Taekwondo at the 2008 Summer Olympics - Men's 68 kg",
        "col2": "S. Myeong-Seob",
        "col3": "Taekwondo at the 2000 Summer Olympics - Men's 68 kg"
    },
    {
        "col0": "Taekwondo at the 2004 Summer Olympics - Men's 58 kg",
        "col1": "Taekwondo at the 2008 Summer Olympics - Men's 58 kg",
        "col2": "T. Bayoumi",
        "col3": "Taekwondo at the 2000 Summer Olympics - Men's 58 kg"
    },
    {
        "col0": "Taekwondo at the 2004 Summer Olympics - Men's +80 kg",
        "col1": "Taekwondo at the 2008 Summer Olympics - Men's +80 kg",
        "col2": "P. Gentil",
        "col3": "Taekwondo at the 2000 Summer Olympics - Men's +80 kg"
    },
    {
        "col0": "Table tennis at the 2012 Summer Olympics - Women's team",
        "col1": "Table tennis at the 2016 Summer Olympics - Women's team",
        "col2": "L. Jiawei",
        "col3": "Table tennis at the 2008 Summer Olympics - Women's team"
    },
    {
        "col0": "Table tennis at the 2012 Summer Olympics - Women's singles",
        "col1": "Table tennis at the 2016 Summer Olympics - Women's singles",
        "col2": "F. Tianwei",
        "col3": "Table tennis at the 2008 Summer Olympics - Women's singles"
    },
    {
        "col0": "Table tennis at the 2012 Summer Olympics - Men's team",
        "col1": "Table tennis at the 2016 Summer Olympics - Men's team",
        "col2": "D. Ovtcharov",
        "col3": "Table tennis at the 2008 Summer Olympics - Men's team"
    },
    {
        "col0": "Table tennis at the 2012 Summer Olympics - Men's singles",
        "col1": "Table tennis at the 2016 Summer Olympics - Men's singles",
        "col2": "D. Ovtcharov",
        "col3": "Table tennis at the 2008 Summer Olympics - Men's singles"
    },
    {
        "col0": "Table tennis at the 2012 Summer Olympics - Women's team",
        "col1": "Table tennis at the 2016 Summer Olympics - Women's team",
        "col2": "L. Jiawei",
        "col3": "Table tennis at the 2008 Summer Olympics - Women's team"
    },
    {
        "col0": "Table tennis at the 2012 Summer Olympics - Women's singles",
        "col1": "Table tennis at the 2016 Summer Olympics - Women's singles",
        "col2": "F. Tianwei",
        "col3": "Table tennis at the 2008 Summer Olympics - Women's singles"
    },
    {
        "col0": "Table tennis at the 2012 Summer Olympics - Men's team",
        "col1": "Table tennis at the 2016 Summer Olympics - Men's team",
        "col2": "T. Boll",
        "col3": "Table tennis at the 2008 Summer Olympics - Men's team"
    },
    {
        "col0": "Table tennis at the 2012 Summer Olympics - Men's singles",
        "col1": "Table tennis at the 2016 Summer Olympics - Men's singles",
        "col2": "D. Ovtcharov",
        "col3": "Table tennis at the 2008 Summer Olympics - Men's singles"
    },
    {
        "col0": "Synchronized swimming at the 2012 Summer Olympics - Women's team",
        "col1": "Synchronized swimming at the 2016 Summer Olympics - Women's team",
        "col2": "A. Fuentes",
        "col3": "Synchronized swimming at the 2008 Summer Olympics - Women's team"
    },
    {
        "col0": "Synchronized swimming at the 2012 Summer Olympics - Women's duet",
        "col1": "Synchronized swimming at the 2016 Summer Olympics - Women's duet",
        "col2": "H. Xuechen",
        "col3": "Synchronized swimming at the 2008 Summer Olympics - Women's duet"
    },
    {
        "col0": "Synchronized swimming at the 2012 Summer Olympics - Women's team",
        "col1": "Synchronized swimming at the 2016 Summer Olympics - Women's team",
        "col2": "A. Fuentes",
        "col3": "Synchronized swimming at the 2008 Summer Olympics - Women's team"
    },
    {
        "col0": "Synchronized swimming at the 2012 Summer Olympics - Women's duet",
        "col1": "Synchronized swimming at the 2016 Summer Olympics - Women's duet",
        "col2": "H. Xuechen",
        "col3": "Synchronized swimming at the 2008 Summer Olympics - Women's duet"
    },
    {
        "col0": "Synchronized swimming at the 2008 Summer Olympics - Women's team",
        "col1": "Synchronized swimming at the 2012 Summer Olympics - Women's team",
        "col2": "G. Beibei",
        "col3": "Synchronized swimming at the 2004 Summer Olympics - Women's team"
    },
    {
        "col0": "Synchronized swimming at the 2008 Summer Olympics - Women's duet",
        "col1": "Synchronized swimming at the 2012 Summer Olympics - Women's duet",
        "col2": "E. Suzuki",
        "col3": "Synchronized swimming at the 2004 Summer Olympics - Women's duet"
    },
    {
        "col0": "Synchronized swimming at the 2008 Summer Olympics - Women's team",
        "col1": "Synchronized swimming at the 2012 Summer Olympics - Women's team",
        "col2": "G. Beibei",
        "col3": "Synchronized swimming at the 2004 Summer Olympics - Women's team"
    },
    {
        "col0": "Synchronized swimming at the 2008 Summer Olympics - Women's duet",
        "col1": "Synchronized swimming at the 2012 Summer Olympics - Women's duet",
        "col2": "E. Suzuki",
        "col3": "Synchronized swimming at the 2004 Summer Olympics - Women's duet"
    },
    {
        "col0": "Synchronized swimming at the 2004 Summer Olympics - Women's team",
        "col1": "Synchronized swimming at the 2008 Summer Olympics - Women's team",
        "col2": "A. Bartosik",
        "col3": "Synchronized swimming at the 2000 Summer Olympics - Women's team"
    },
    {
        "col0": "Synchronized swimming at the 2004 Summer Olympics - Women's duet",
        "col1": "Synchronized swimming at the 2008 Summer Olympics - Women's duet",
        "col2": "A. Bartosik",
        "col3": "Synchronized swimming at the 2000 Summer Olympics - Women's duet"
    },
    {
        "col0": "Synchronized swimming at the 2004 Summer Olympics - Women's team",
        "col1": "Synchronized swimming at the 2008 Summer Olympics - Women's team",
        "col2": "A. Bartosik",
        "col3": "Synchronized swimming at the 2000 Summer Olympics - Women's team"
    },
    {
        "col0": "Synchronized swimming at the 2004 Summer Olympics - Women's duet",
        "col1": "Synchronized swimming at the 2008 Summer Olympics - Women's duet",
        "col2": "A. Kozlova",
        "col3": "Synchronized swimming at the 2000 Summer Olympics - Women's duet"
    },
    {
        "col0": "Synchronized swimming at the 2000 Summer Olympics - Women's team",
        "col1": "Synchronized swimming at the 2004 Summer Olympics - Women's team",
        "col2": "R. Tatham",
        "col3": "Synchronized swimming at the 1996 Summer Olympics"
    },
    {
        "col0": "Synchronized swimming at the 2000 Summer Olympics - Women's duet",
        "col1": "Synchronized swimming at the 2004 Summer Olympics - Women's duet",
        "col2": "M. Lignot",
        "col3": "Synchronized swimming at the 1992 Summer Olympics - Women's duet"
    },
    {
        "col0": "Synchronized swimming at the 2000 Summer Olympics - Women's team",
        "col1": "Synchronized swimming at the 2004 Summer Olympics - Women's team",
        "col2": "F. Letourneau",
        "col3": "Synchronized swimming at the 1996 Summer Olympics"
    },
    {
        "col0": "Synchronized swimming at the 2000 Summer Olympics - Women's duet",
        "col1": "Synchronized swimming at the 2004 Summer Olympics - Women's duet",
        "col2": "M. Lignot",
        "col3": "Synchronized swimming at the 1992 Summer Olympics - Women's duet"
    },
    {
        "col0": "Synchronized swimming at the 1996 Summer Olympics",
        "col1": "Synchronized swimming at the 2000 Summer Olympics",
        "col2": "M. Takeda",
        "col3": "Synchronized swimming at the 1992 Summer Olympics"
    },
    {
        "col0": "Synchronized swimming at the 1992 Summer Olympics - Women's duet",
        "col1": "Synchronized swimming at the 2000 Summer Olympics - Women's duet",
        "col2": "A. Takayama",
        "col3": "Synchronized swimming at the 1988 Summer Olympics - Women's duet"
    },
    {
        "col0": "Synchronised swimming at the 1988 Summer Olympics - Women's solo",
        "col1": "Synchronised swimming at the 1992 Summer Olympics - Women's solo",
        "col2": "M. Kotani",
        "col3": "Synchronised swimming at the 1984 Summer Olympics - Women's solo"
    },
    {
        "col0": "Synchronised swimming at the 1988 Summer Olympics - Women's duet",
        "col1": "Synchronised swimming at the 1992 Summer Olympics - Women's duet",
        "col2": "M. Kotani",
        "col3": "Synchronised swimming at the 1984 Summer Olympics - Women's duet"
    },
    {
        "col0": "Synchronised swimming at the 1988 Summer Olympics - Women's solo",
        "col1": "Synchronised swimming at the 1992 Summer Olympics - Women's solo",
        "col2": "M. Kotani",
        "col3": "Synchronised swimming at the 1984 Summer Olympics - Women's solo"
    },
    {
        "col0": "Synchronised swimming at the 1988 Summer Olympics - Women's duet",
        "col1": "Synchronised swimming at the 1992 Summer Olympics - Women's duet",
        "col2": "M. Kotani",
        "col3": "Synchronised swimming at the 1984 Summer Olympics - Women's duet"
    },
    {
        "col0": "Swimming at the 2012 Summer Olympics - Women's marathon 10 kilometre",
        "col1": "Swimming at the 2016 Summer Olympics - Women's marathon 10 kilometre",
        "col2": "M. Grimaldi",
        "col3": "Swimming at the 2008 Summer Olympics - Women's marathon 10 kilometre"
    },
    {
        "col0": "Swimming at the 2012 Summer Olympics - Women's 800 metre freestyle",
        "col1": "Swimming at the 2016 Summer Olympics - Women's 800 metre freestyle",
        "col2": "R. Adlington",
        "col3": "Swimming at the 2008 Summer Olympics - Women's 800 metre freestyle"
    },
    {
        "col0": "Swimming at the 2012 Summer Olympics - Women's 50 metre freestyle",
        "col1": "Swimming at the 2016 Summer Olympics - Women's 50 metre freestyle",
        "col2": "M. Veldhuis",
        "col3": "Swimming at the 2008 Summer Olympics - Women's 50 metre freestyle"
    },
    {
        "col0": "Swimming at the 2012 Summer Olympics - Women's 4 x 200 metre freestyle relay",
        "col1": "Swimming at the 2016 Summer Olympics - Women's 4 x 200 metre freestyle relay",
        "col2": "C. Balmy",
        "col3": "Swimming at the 2008 Summer Olympics - Women's 4 x 200 metre freestyle relay"
    },
    {
        "col0": "Swimming at the 2012 Summer Olympics - Women's 4 x 100 metre medley relay",
        "col1": "Swimming at the 2016 Summer Olympics - Women's 4 x 100 metre medley relay",
        "col2": "Y. Kato",
        "col3": "Swimming at the 2008 Summer Olympics - Women's 4 x 100 metre medley relay"
    },
    {
        "col0": "Swimming at the 2012 Summer Olympics - Women's 4 x 100 metre freestyle relay",
        "col1": "Swimming at the 2016 Summer Olympics - Women's 4 x 100 metre freestyle relay",
        "col2": "N. Coughlin",
        "col3": "Swimming at the 2008 Summer Olympics - Women's 4 x 100 metre freestyle relay"
    },
    {
        "col0": "Swimming at the 2012 Summer Olympics - Women's 400 metre individual medley",
        "col1": "Swimming at the 2016 Summer Olympics - Women's 400 metre individual medley",
        "col2": "L. Xuanxu",
        "col3": "Swimming at the 2008 Summer Olympics - Women's 400 metre individual medley"
    },
    {
        "col0": "Swimming at the 2012 Summer Olympics - Women's 400 metre freestyle",
        "col1": "Swimming at the 2016 Summer Olympics - Women's 400 metre freestyle",
        "col2": "R. Adlington",
        "col3": "Swimming at the 2008 Summer Olympics - Women's 400 metre freestyle"
    },
    {
        "col0": "Swimming at the 2012 Summer Olympics - Women's 200 metre individual medley",
        "col1": "Swimming at the 2016 Summer Olympics - Women's 200 metre individual medley",
        "col2": "C. Leverenz",
        "col3": "Swimming at the 2008 Summer Olympics - Women's 200 metre individual medley"
    },
    {
        "col0": "Swimming at the 2012 Summer Olympics - Women's 200 metre freestyle",
        "col1": "Swimming at the 2016 Summer Olympics - Women's 200 metre freestyle",
        "col2": "B. Barratt",
        "col3": "Swimming at the 2008 Summer Olympics - Women's 200 metre freestyle"
    },
    {
        "col0": "Swimming at the 2012 Summer Olympics - Women's 200 metre butterfly",
        "col1": "Swimming at the 2016 Summer Olympics - Women's 200 metre butterfly",
        "col2": "N. Hoshi",
        "col3": "Swimming at the 2008 Summer Olympics - Women's 200 metre butterfly"
    },
    {
        "col0": "Swimming at the 2012 Summer Olympics - Women's 200 metre breaststroke",
        "col1": "Swimming at the 2016 Summer Olympics - Women's 200 metre breaststroke",
        "col2": "Y. Yefimova",
        "col3": "Swimming at the 2008 Summer Olympics - Women's 200 metre breaststroke"
    },
    {
        "col0": "Swimming at the 2012 Summer Olympics - Women's 200 metre backstroke",
        "col1": "Swimming at the 2016 Summer Olympics - Women's 200 metre backstroke",
        "col2": "E. Beisel",
        "col3": "Swimming at the 2008 Summer Olympics - Women's 200 metre backstroke"
    },
    {
        "col0": "Swimming at the 2012 Summer Olympics - Women's 100 metre freestyle",
        "col1": "Swimming at the 2016 Summer Olympics - Women's 100 metre freestyle",
        "col2": "T. Yi",
        "col3": "Swimming at the 2008 Summer Olympics - Women's 100 metre freestyle"
    },
    {
        "col0": "Swimming at the 2012 Summer Olympics - Women's 100 metre butterfly",
        "col1": "Swimming at the 2016 Summer Olympics - Women's 100 metre butterfly",
        "col2": "A. Coutts",
        "col3": "Swimming at the 2008 Summer Olympics - Women's 100 metre butterfly"
    },
    {
        "col0": "Swimming at the 2012 Summer Olympics - Women's 100 metre breaststroke",
        "col1": "Swimming at the 2016 Summer Olympics - Women's 100 metre breaststroke",
        "col2": "S. Suzuki",
        "col3": "Swimming at the 2008 Summer Olympics - Women's 100 metre breaststroke"
    },
    {
        "col0": "Swimming at the 2012 Summer Olympics - Women's 100 metre backstroke",
        "col1": "Swimming at the 2016 Summer Olympics - Women's 100 metre backstroke",
        "col2": "A. Terakawa",
        "col3": "Swimming at the 2008 Summer Olympics - Women's 100 metre backstroke"
    },
    {
        "col0": "Swimming at the 2012 Summer Olympics - Men's marathon 10 kilometre",
        "col1": "Swimming at the 2016 Summer Olympics - Men's marathon 10 kilometre",
        "col2": "R. Weinberger",
        "col3": "Swimming at the 2008 Summer Olympics - Men's marathon 10 kilometre"
    },
    {
        "col0": "Swimming at the 2012 Summer Olympics - Men's 50 metre freestyle",
        "col1": "Swimming at the 2016 Summer Olympics - Men's 50 metre freestyle",
        "col2": "C. Cielo",
        "col3": "Swimming at the 2008 Summer Olympics - Men's 50 metre freestyle"
    },
    {
        "col0": "Swimming at the 2012 Summer Olympics - Men's 4 x 200 metre freestyle relay",
        "col1": "Swimming at the 2016 Summer Olympics - Men's 4 x 200 metre freestyle relay",
        "col2": "S. Yang",
        "col3": "Swimming at the 2008 Summer Olympics - Men's 4 x 200 metre freestyle relay"
    },
    {
        "col0": "Swimming at the 2012 Summer Olympics - Men's 4 x 100 metre medley relay",
        "col1": "Swimming at the 2016 Summer Olympics - Men's 4 x 100 metre medley relay",
        "col2": "J. Magnussen",
        "col3": "Swimming at the 2008 Summer Olympics - Men's 4 x 100 metre medley relay"
    },
    {
        "col0": "Swimming at the 2012 Summer Olympics - Men's 4 x 100 metre freestyle relay",
        "col1": "Swimming at the 2016 Summer Olympics - Men's 4 x 100 metre freestyle relay",
        "col2": "V. Morozov",
        "col3": "Swimming at the 2008 Summer Olympics - Men's 4 x 100 metre freestyle relay"
    },
    {
        "col0": "Swimming at the 2012 Summer Olympics - Men's 400 metre individual medley",
        "col1": "Swimming at the 2016 Summer Olympics - Men's 400 metre individual medley",
        "col2": "K. Hagino",
        "col3": "Swimming at the 2008 Summer Olympics - Men's 400 metre individual medley"
    },
    {
        "col0": "Swimming at the 2012 Summer Olympics - Men's 400 metre freestyle",
        "col1": "Swimming at the 2016 Summer Olympics - Men's 400 metre freestyle",
        "col2": "P. Vanderkaay",
        "col3": "Swimming at the 2008 Summer Olympics - Men's 400 metre freestyle"
    },
    {
        "col0": "Swimming at the 2012 Summer Olympics - Men's 200 metre individual medley",
        "col1": "Swimming at the 2016 Summer Olympics - Men's 200 metre individual medley",
        "col2": "L. Cseh",
        "col3": "Swimming at the 2008 Summer Olympics - Men's 200 metre individual medley"
    },
    {
        "col0": "Swimming at the 2012 Summer Olympics - Men's 200 metre butterfly",
        "col1": "Swimming at the 2016 Summer Olympics - Men's 200 metre butterfly",
        "col2": "T. Matsuda",
        "col3": "Swimming at the 2008 Summer Olympics - Men's 200 metre butterfly"
    },
    {
        "col0": "Swimming at the 2012 Summer Olympics - Men's 200 metre breaststroke",
        "col1": "Swimming at the 2016 Summer Olympics - Men's 200 metre breaststroke",
        "col2": "R. Tateishi",
        "col3": "Swimming at the 2008 Summer Olympics - Men's 200 metre breaststroke"
    },
    {
        "col0": "Swimming at the 2012 Summer Olympics - Men's 200 metre backstroke",
        "col1": "Swimming at the 2016 Summer Olympics - Men's 200 metre backstroke",
        "col2": "R. Lochte",
        "col3": "Swimming at the 2008 Summer Olympics - Men's 200 metre backstroke"
    },
    {
        "col0": "Swimming at the 2012 Summer Olympics - Men's 1500 metre freestyle",
        "col1": "Swimming at the 2016 Summer Olympics - Men's 1500 metre freestyle",
        "col2": "O. Mellouli",
        "col3": "Swimming at the 2008 Summer Olympics - Men's 1500 metre freestyle"
    },
    {
        "col0": "Swimming at the 2012 Summer Olympics - Men's 100 metre freestyle",
        "col1": "Swimming at the 2016 Summer Olympics - Men's 100 metre freestyle",
        "col2": "B. Hayden",
        "col3": "Swimming at the 2008 Summer Olympics - Men's 100 metre freestyle"
    }
]