[
    {
        "col0": "Wrentit",
        "col1": "Sylviidae",
        "col2": "IUCN3.1",
        "col3": "LC"
    },
    {
        "col0": "Wrenthrush",
        "col1": "Incertae sedis",
        "col2": "IUCN3.1",
        "col3": "LC"
    },
    {
        "col0": "Wren-like rushbird",
        "col1": "Furnariidae",
        "col2": "IUCN3.1",
        "col3": "LC"
    },
    {
        "col0": "Wreathed hornbill",
        "col1": "Hornbill",
        "col2": "IUCN3.1",
        "col3": "LC"
    },
    {
        "col0": "Wreathed cactus snail",
        "col1": "Helicoidea",
        "col2": "IUCN2.3",
        "col3": "VU"
    },
    {
        "col0": "Wrayanna soluta",
        "col1": "Rissooidea",
        "col2": "IUCN2.3",
        "col3": "DD"
    },
    {
        "col0": "Wrangel lemming",
        "col1": "Cricetidae",
        "col2": "IUCN3.1",
        "col3": "DD"
    },
    {
        "col0": "Wrangel Island lemming",
        "col1": "Cricetidae",
        "col2": "iucn3.1",
        "col3": "DD"
    },
    {
        "col0": "Woylie",
        "col1": "Potoroidae",
        "col2": "iucn3.1",
        "col3": "CR"
    },
    {
        "col0": "Woundfin",
        "col1": "Cyprinid",
        "col2": "IUCN3.1",
        "col3": "CR"
    },
    {
        "col0": "Wounded darter",
        "col1": "Percidae",
        "col2": "IUCN3.1",
        "col3": "LC"
    },
    {
        "col0": "Worthen's sparrow",
        "col1": "Emberizidae",
        "col2": "IUCN3.1",
        "col3": "EN"
    },
    {
        "col0": "Worm-eating warbler",
        "col1": "Parulidae",
        "col2": "IUCN3.1",
        "col3": "LC"
    },
    {
        "col0": "Worcester's buttonquail",
        "col1": "Turnicidae",
        "col2": "IUCN3.1",
        "col3": "DD"
    },
    {
        "col0": "Woosnam's brush-furred rat",
        "col1": "Muridae",
        "col2": "IUCN3.1",
        "col3": "LC"
    },
    {
        "col0": "Woosnam's broad-headed mouse",
        "col1": "Muridae",
        "col2": "IUCN3.1",
        "col3": "LC"
    },
    {
        "col0": "Woolly mouse opossum",
        "col1": "Didelphidae",
        "col2": "iucn3.1",
        "col3": "LC"
    },
    {
        "col0": "Woolly horseshoe bat",
        "col1": "Rhinolophidae",
        "col2": "IUCN2.3",
        "col3": "LR/lc"
    },
    {
        "col0": "Woolly hare",
        "col1": "Leporidae",
        "col2": "IUCN2.3",
        "col3": "LR/lc"
    },
    {
        "col0": "Woolly giant rat",
        "col1": "Cricetidae",
        "col2": "IUCN3.1",
        "col3": "LC"
    },
    {
        "col0": "Woolly flying squirrel",
        "col1": "Sciuridae",
        "col2": "iucn3.1",
        "col3": "EN"
    },
    {
        "col0": "Woolly dormouse",
        "col1": "Gliridae",
        "col2": "IUCN",
        "col3": "DD"
    },
    {
        "col0": "Woolly-necked stork",
        "col1": "Ciconiidae",
        "col2": "IUCN3.1",
        "col3": "VU"
    },
    {
        "col0": "Woolly-headed spiny tree-rat",
        "col1": "Echimyidae",
        "col2": "iucn3.1",
        "col3": "DD"
    },
    {
        "col0": "Woolley's three-striped dasyure",
        "col1": "Dasyuridae",
        "col2": "iucn3.1",
        "col3": "DD"
    },
    {
        "col0": "Woolley's false antechinus",
        "col1": "Dasyuridae",
        "col2": "iucn3.1",
        "col3": "LC"
    },
    {
        "col0": "Woodworker frog",
        "col1": "Myobatrachidae",
        "col2": "IUCN3.1",
        "col3": "LC"
    },
    {
        "col0": "Woodward's batis",
        "col1": "Platysteiridae",
        "col2": "IUCN3.1",
        "col3": "LC"
    },
    {
        "col0": "Woodpecker finch",
        "col1": "Thraupidae",
        "col2": "IUCN3.1",
        "col3": "VU"
    },
    {
        "col0": "Woodlark cuscus",
        "col1": "Phalangeridae",
        "col2": "iucn3.1",
        "col3": "EN"
    },
    {
        "col0": "Woodlark",
        "col1": "Lark",
        "col2": "IUCN3.1",
        "col3": "LC"
    },
    {
        "col0": "Woodland vole",
        "col1": "Cricetidae",
        "col2": "iucn3.1",
        "col3": "lc"
    },
    {
        "col0": "Woodland thicket rat",
        "col1": "Muridae",
        "col2": "IUCN3.1",
        "col3": "LC"
    },
    {
        "col0": "Woodland jumping mouse",
        "col1": "Dipodidae",
        "col2": "IUCN3.1",
        "col3": "lc"
    },
    {
        "col0": "Woodland dormouse",
        "col1": "Gliridae",
        "col2": "IUCN3.1",
        "col3": "LC"
    },
    {
        "col0": "Woodland Oldfield mouse",
        "col1": "Cricetidae",
        "col2": "IUCN2.3",
        "col3": "LR/lc"
    },
    {
        "col0": "Woodhouse's toad",
        "col1": "Bufonidae",
        "col2": "iucn3.1",
        "col3": "LC"
    },
    {
        "col0": "Woodhouse's scrub jay",
        "col1": "Corvidae",
        "col2": "IUCN3.1",
        "col3": "NR"
    },
    {
        "col0": "Woodhouse's antpecker",
        "col1": "Estrildidae",
        "col2": "IUCN3.1",
        "col3": "LC"
    },
    {
        "col0": "Woodford's rail",
        "col1": "Rallidae",
        "col2": "IUCN3.1",
        "col3": "NT"
    },
    {
        "col0": "Woodford's fruit bat",
        "col1": "Pteropodidae",
        "col2": "IUCN3.1",
        "col3": "LC"
    },
    {
        "col0": "Woodchat shrike",
        "col1": "Shrike",
        "col2": "IUCN3.1",
        "col3": "LC"
    },
    {
        "col0": "Wood warbler",
        "col1": "Phylloscopidae",
        "col2": "IUCN3.1",
        "col3": "LC"
    },
    {
        "col0": "Wood turtle",
        "col1": "Emydidae",
        "col2": "iucn3.1",
        "col3": "EN"
    },
    {
        "col0": "Wood thrush",
        "col1": "Thrush",
        "col2": "IUCN3.1",
        "col3": "LC"
    },
    {
        "col0": "Wood stork",
        "col1": "Ciconiiformes",
        "col2": "IUCN3.1",
        "col3": "LC"
    },
    {
        "col0": "Wood sprite gracile opossum",
        "col1": "Didelphidae",
        "col2": "iucn3.1",
        "col3": "NT"
    },
    {
        "col0": "Wood snipe",
        "col1": "Scolopacidae",
        "col2": "IUCN3.1",
        "col3": "VU"
    },
    {
        "col0": "Wood sandpiper",
        "col1": "Scolopacidae",
        "col2": "IUCN3.1",
        "col3": "LC"
    },
    {
        "col0": "Wood pipit",
        "col1": "Motacillidae",
        "col2": "iucn3.1",
        "col3": "NR"
    },
    {
        "col0": "Wood mouse",
        "col1": "Muridae",
        "col2": "IUCN3.1",
        "col3": "LC"
    },
    {
        "col0": "Wood lemming",
        "col1": "Cricetidae",
        "col2": "IUCN3.1",
        "col3": "LC"
    },
    {
        "col0": "Wood harrier",
        "col1": "Accipitridae",
        "col2": "iucn3.1",
        "col3": "EX"
    },
    {
        "col0": "Wood duck",
        "col1": "Anatidae",
        "col2": "IUCN3.1",
        "col3": "LC"
    },
    {
        "col0": "Wood River sculpin",
        "col1": "Cottidae",
        "col2": "IUCN2.3",
        "col3": "VU"
    },
    {
        "col0": "Wood's slit-faced bat",
        "col1": "Nycteridae",
        "col2": "IUCN3.1",
        "col3": "NT"
    },
    {
        "col0": "Wongai ningaui",
        "col1": "Sminthopsinae",
        "col2": "iucn3.1",
        "col3": "LC"
    },
    {
        "col0": "Wonga pigeon",
        "col1": "Dove",
        "col2": "IUCN3.1",
        "col3": "LC"
    },
    {
        "col0": "Wompoo fruit dove",
        "col1": "Columbidae",
        "col2": "IUCN3.1",
        "col3": "LC"
    },
    {
        "col0": "Wollaston's roundleaf bat",
        "col1": "Hipposideridae",
        "col2": "IUCN2.3",
        "col3": "LR/nt"
    },
    {
        "col0": "Wolffsohn's viscacha",
        "col1": "Chinchillidae",
        "col2": "iucn3.1",
        "col3": "DD"
    },
    {
        "col0": "Wolffsohn's leaf-eared mouse",
        "col1": "Cricetidae",
        "col2": "IUCN2.3",
        "col3": "LR/lc"
    },
    {
        "col0": "Wolf's mona monkey",
        "col1": "Cercopithecidae",
        "col2": "iucn3.1",
        "col3": "LC"
    },
    {
        "col0": "Woermann's bat",
        "col1": "Pteropodidae",
        "col2": "IUCN3.1",
        "col3": "LC"
    },
    {
        "col0": "Wissel Lakes tree frog",
        "col1": "Hylidae",
        "col2": "IUCN3.1",
        "col3": "VU"
    },
    {
        "col0": "Wire-tailed swallow",
        "col1": "Hirundinidae",
        "col2": "IUCN3.1",
        "col3": "LC"
    },
    {
        "col0": "Wire-tailed manakin",
        "col1": "Pipridae",
        "col2": "IUCN3.1",
        "col3": "LC"
    },
    {
        "col0": "Wire-crested thorntail",
        "col1": "Trochilidae",
        "col2": "IUCN3.1",
        "col3": "NT"
    },
    {
        "col0": "Winteria telescopa",
        "col1": "Opisthoproctidae",
        "col2": "iucn3.1",
        "col3": "NE"
    },
    {
        "col0": "Winter wren",
        "col1": "Troglodytidae",
        "col2": "IUCN3.1",
        "col3": "LC"
    },
    {
        "col0": "Winter climbing salamander",
        "col1": "Plethodontidae",
        "col2": "IUCN3.1",
        "col3": "DD"
    },
    {
        "col0": "Winkelmann's mouse",
        "col1": "Cricetidae",
        "col2": "IUCN3.1",
        "col3": "EN"
    },
    {
        "col0": "Winifred's warbler",
        "col1": "Cisticolidae",
        "col2": "IUCN3.1",
        "col3": "VU"
    },
    {
        "col0": "Winghead shark",
        "col1": "Hammerhead shark",
        "col2": "iucn3.1",
        "col3": "EN"
    },
    {
        "col0": "Winged mapleleaf",
        "col1": "Unionidae",
        "col2": "IUCN2.3",
        "col3": "CR"
    },
    {
        "col0": "Wing-snapping cisticola",
        "col1": "Cisticolidae",
        "col2": "IUCN3.1",
        "col3": "LC"
    },
    {
        "col0": "Wing-barred seedeater",
        "col1": "Thraupidae",
        "col2": "IUCN3.1",
        "col3": "LC"
    },
    {
        "col0": "Wing-barred piprites",
        "col1": "Incertae sedis",
        "col2": "IUCN3.1",
        "col3": "LC"
    },
    {
        "col0": "Wing-banded wren",
        "col1": "Troglodytidae",
        "col2": "IUCN3.1",
        "col3": "LC"
    },
    {
        "col0": "Wing-banded antbird",
        "col1": "Thamnophilidae",
        "col2": "IUCN3.1",
        "col3": "NT"
    },
    {
        "col0": "Wineland blue",
        "col1": "Lycaenidae",
        "col2": "IUCN2.3",
        "col3": "LR/nt"
    },
    {
        "col0": "Winding cisticola",
        "col1": "Cisticolidae",
        "col2": "IUCN3.1",
        "col3": "LC"
    },
    {
        "col0": "Windbalea viride",
        "col1": "Tettigoniidae",
        "col2": "IUCN2.3",
        "col3": "VU"
    },
    {
        "col0": "Winchell's kingfisher",
        "col1": "Alcedinidae",
        "col2": "IUCN3.1",
        "col3": "VU"
    },
    {
        "col0": "Wimple piranha",
        "col1": "Serrasalmidae",
        "col2": "iucn3.1",
        "col3": "NE"
    },
    {
        "col0": "Wimmer's shrew",
        "col1": "Soricidae",
        "col2": "iucn3.1",
        "col3": "CR"
    },
    {
        "col0": "Wilson's warbler",
        "col1": "Parulidae",
        "col2": "iucn3.1",
        "col3": "LC"
    },
    {
        "col0": "Wilson's storm petrel",
        "col1": "Hydrobatidae",
        "col2": "IUCN3.1",
        "col3": "LC"
    },
    {
        "col0": "Wilson's spiny mouse",
        "col1": "Muridae",
        "col2": "iucn3.1",
        "col3": "LC"
    },
    {
        "col0": "Wilson's snipe",
        "col1": "Scolopacidae",
        "col2": "iucn3.1",
        "col3": "LC"
    },
    {
        "col0": "Wilson's plover",
        "col1": "Charadriidae",
        "col2": "IUCN3.1",
        "col3": "LC"
    },
    {
        "col0": "Wilson's phalarope",
        "col1": "Scolopacidae",
        "col2": "IUCN3.1",
        "col3": "LC"
    },
    {
        "col0": "Wilson's indigobird",
        "col1": "Viduidae",
        "col2": "IUCN3.1",
        "col3": "LC"
    },
    {
        "col0": "Wilson's bird-of-paradise",
        "col1": "Paradisaeidae",
        "col2": "IUCN3.1",
        "col3": "NT"
    },
    {
        "col0": "Wilpita rasbora",
        "col1": "Cyprinidae",
        "col2": "IUCN2.3",
        "col3": "EN"
    },
    {
        "col0": "Willowherb hawkmoth",
        "col1": "Sphingidae",
        "col2": "IUCN2.3",
        "col3": "DD"
    },
    {
        "col0": "Willow warbler",
        "col1": "Phylloscopidae",
        "col2": "IUCN3.1",
        "col3": "LC"
    },
    {
        "col0": "Willow tit",
        "col1": "Tit",
        "col2": "IUCN3.1",
        "col3": "LC"
    },
    {
        "col0": "Willow ptarmigan",
        "col1": "Phasianidae",
        "col2": "IUCN3.1",
        "col3": "LC"
    },
    {
        "col0": "Willow flycatcher",
        "col1": "Tyrant flycatcher",
        "col2": "IUCN3.1",
        "col3": "LC"
    },
    {
        "col0": "Willis's antbird",
        "col1": "Thamnophilidae",
        "col2": "IUCN3.1",
        "col3": "LC"
    },
    {
        "col0": "Williamsonia lintneri",
        "col1": "Corduliidae",
        "col2": "IUCN3.1",
        "col3": "VU"
    },
    {
        "col0": "Williamsonia fletcheri",
        "col1": "Corduliidae",
        "col2": "IUCN3.1",
        "col3": "NE"
    },
    {
        "col0": "Williamson's sapsucker",
        "col1": "Picidae",
        "col2": "IUCN3.1",
        "col3": "LC"
    },
    {
        "col0": "Williamson's marsupial frog",
        "col1": "Hemiphractidae",
        "col2": "IUCN3.1",
        "col3": "DD"
    },
    {
        "col0": "Williams's lark",
        "col1": "Alaudidae",
        "col2": "IUCN3.1",
        "col3": "DD"
    },
    {
        "col0": "Williams' mud turtle",
        "col1": "Pelomedusidae",
        "col2": "IUCN2.3",
        "col3": "LC"
    },
    {
        "col0": "Williams' jerboa",
        "col1": "Dipodidae",
        "col2": "IUCN3.1",
        "col3": "LC"
    },
    {
        "col0": "William's mbuna",
        "col1": "Cichlidae",
        "col2": "IUCN3.1",
        "col3": "VU"
    },
    {
        "col0": "Willet",
        "col1": "Scolopacidae",
        "col2": "IUCN3.1",
        "col3": "LC"
    },
    {
        "col0": "Willcocks's honeyguide",
        "col1": "Indicatoridae",
        "col2": "IUCN3.1",
        "col3": "LC"
    },
    {
        "col0": "Wilkins's finch",
        "col1": "Emberizidae",
        "col2": "IUCN3.1",
        "col3": "EN"
    },
    {
        "col0": "Wild turkey",
        "col1": "Phasianidae",
        "col2": "IUCN3.1",
        "col3": "LC"
    },
    {
        "col0": "Wild horse",
        "col1": "Equidae",
        "col2": "iucn3.1",
        "col3": "EN"
    },
    {
        "col0": "Wied's tyrant-manakin",
        "col1": "Pipridae",
        "col2": "IUCN3.1",
        "col3": "VU"
    },
    {
        "col0": "Wied's marmoset",
        "col1": "Callitrichidae",
        "col2": "iucn3.1",
        "col3": "NT"
    },
    {
        "col0": "Widenose guitarfish",
        "col1": "Rhinobatidae",
        "col2": "IUCN3.1",
        "col3": "VU"
    },
    {
        "col0": "Widemouth gambusia",
        "col1": "Poeciliidae",
        "col2": "iucn2.3",
        "col3": "CR"
    },
    {
        "col0": "Widemouth blindcat",
        "col1": "Ictaluridae",
        "col2": "IUCN3.1",
        "col3": "VU"
    },
    {
        "col0": "Wide stingaree",
        "col1": "Urolophidae",
        "col2": "IUCN3.1",
        "col3": "LC"
    },
    {
        "col0": "Wide-toothed hutia",
        "col1": "Capromyidae",
        "col2": "IUCN2.3",
        "col3": "EX"
    },
    {
        "col0": "Wicker ancylid",
        "col1": "Planorbidae",
        "col2": "IUCN3.1",
        "col3": "CR"
    },
    {
        "col0": "Whyte's barbet",
        "col1": "Lybiidae",
        "col2": "IUCN3.1",
        "col3": "LC"
    },
    {
        "col0": "Whooping motmot",
        "col1": "Momotidae",
        "col2": "IUCN3.1",
        "col3": "LC"
    },
    {
        "col0": "Whooping crane",
        "col1": "Gruidae",
        "col2": "IUCN3.1",
        "col3": "EN"
    },
    {
        "col0": "Whooper swan",
        "col1": "Anatidae",
        "col2": "IUCN3.1",
        "col3": "LC"
    },
    {
        "col0": "Whitsunday wire eel",
        "col1": "Nettastomatidae",
        "col2": "IUCN3.1",
        "col3": "NE"
    },
    {
        "col0": "Whitish dwarf squirrel",
        "col1": "Sciuridae",
        "col2": "iucn3.1",
        "col3": "DD"
    },
    {
        "col0": "Whitetip weasel shark",
        "col1": "Hemigaleidae",
        "col2": "IUCN3.1",
        "col3": "DD"
    },
    {
        "col0": "Whitetip reef shark",
        "col1": "Requiem shark",
        "col2": "IUCN3.1",
        "col3": "NT"
    },
    {
        "col0": "Whitetail dogfish",
        "col1": "Somniosidae",
        "col2": "IUCN3.1",
        "col3": "DD"
    },
    {
        "col0": "Whitespotted whipray",
        "col1": "Dasyatidae",
        "col2": "IUCN3.1",
        "col3": "VU"
    },
    {
        "col0": "Whitespotted toadfish",
        "col1": "Batrachoididae",
        "col2": "IUCN2.3",
        "col3": "VU"
    },
    {
        "col0": "Whitespotted smooth-hound",
        "col1": "Houndshark",
        "col2": "IUCN3.1",
        "col3": "DD"
    },
    {
        "col0": "Whitespotted pygmy filefish",
        "col1": "Monacanthidae",
        "col2": "IUCN3.1",
        "col3": "NE"
    },
    {
        "col0": "Whitespotted grouper",
        "col1": "Serranidae",
        "col2": "iucn3.1",
        "col3": "LC"
    },
    {
        "col0": "Whitespotted bullhead shark",
        "col1": "Bullhead shark",
        "col2": "IUCN3.1",
        "col3": "DD"
    },
    {
        "col0": "Whitespotted bamboo shark",
        "col1": "Hemiscylliidae",
        "col2": "IUCN3.1",
        "col3": "NT"
    },
    {
        "col0": "Whitespot hawkfish",
        "col1": "Cirrhitidae",
        "col2": "iucn3.1",
        "col3": "NE"
    },
    {
        "col0": "Whitesaddled catshark",
        "col1": "Catshark",
        "col2": "IUCN3.1",
        "col3": "DD"
    },
    {
        "col0": "Whitenose whipray",
        "col1": "Dasyatidae",
        "col2": "IUCN3.1",
        "col3": "VU"
    },
    {
        "col0": "Whitenose shark",
        "col1": "Requiem shark",
        "col2": "IUCN3.1",
        "col3": "DD"
    },
    {
        "col0": "Whitemouth shiner",
        "col1": "Cyprinidae",
        "col2": "IUCN3.1",
        "col3": "LC"
    },
    {
        "col0": "Whitemargin unicornfish",
        "col1": "Acanthuridae",
        "col2": "IUCN3.1",
        "col3": "LC"
    },
    {
        "col0": "Whitelined toadfish",
        "col1": "Batrachoididae",
        "col2": "IUCN2.3",
        "col3": "VU"
    },
    {
        "col0": "Whiteline topminnow",
        "col1": "Fundulidae",
        "col2": "IUCN2.3",
        "col3": "EX"
    },
    {
        "col0": "Whitehead",
        "col1": "Mohoua",
        "col2": "IUCN3.1",
        "col3": "LC"
    },
    {
        "col0": "Whitehead's woolly bat",
        "col1": "Vespertilionidae",
        "col2": "IUCN3.1",
        "col3": "LC"
    },
    {
        "col0": "Whitehead's trogon",
        "col1": "Trogonidae",
        "col2": "IUCN3.1",
        "col3": "NT"
    },
    {
        "col0": "Whitehead's swiftlet",
        "col1": "Apodidae",
        "col2": "IUCN3.1",
        "col3": "DD"
    },
    {
        "col0": "Whitehead's spiny rat",
        "col1": "Muridae",
        "col2": "IUCN3.1",
        "col3": "VU"
    },
    {
        "col0": "Whitehead's spiderhunter",
        "col1": "Nectariniidae",
        "col2": "IUCN3.1",
        "col3": "LC"
    },
    {
        "col0": "Whitehead's broadbill",
        "col1": "Eurylaimidae",
        "col2": "IUCN3.1",
        "col3": "LC"
    },
    {
        "col0": "Whitefin topeshark",
        "col1": "Houndshark",
        "col2": "IUCN3.1",
        "col3": "EN"
    },
    {
        "col0": "Whitefin swellshark",
        "col1": "Catshark",
        "col2": "IUCN3.1",
        "col3": "NT"
    },
    {
        "col0": "Whitefin dogfish",
        "col1": "Etmopteridae",
        "col2": "IUCN3.1",
        "col3": "DD"
    },
    {
        "col0": "Whitecheek surgeonfish",
        "col1": "Acanthuridae",
        "col2": "IUCN3.1",
        "col3": "LC"
    },
    {
        "col0": "Whitecheek shark",
        "col1": "Requiem shark",
        "col2": "IUCN3.1",
        "col3": "NT"
    },
    {
        "col0": "Whitebelly tree frog",
        "col1": "Hylidae",
        "col2": "IUCN3.1",
        "col3": "LC"
    },
    {
        "col0": "White woodpecker",
        "col1": "Woodpecker",
        "col2": "IUCN3.1",
        "col3": "LC"
    },
    {
        "col0": "White warty-back pearly mussel",
        "col1": "Unionidae",
        "col2": "IUCN3.1",
        "col3": "CR"
    },
    {
        "col0": "White wagtail",
        "col1": "Motacillidae",
        "col2": "IUCN3.1",
        "col3": "LC"
    },
    {
        "col0": "White tern",
        "col1": "Sternidae",
        "col2": "IUCN3.1",
        "col3": "LC"
    },
    {
        "col0": "White suckerfish",
        "col1": "Echeneidae",
        "col2": "iucn3.1",
        "col3": "LC"
    },
    {
        "col0": "White sturgeon",
        "col1": "Acipenseridae",
        "col2": "IUCN3.1",
        "col3": "LC"
    },
    {
        "col0": "White stork",
        "col1": "Ciconiidae",
        "col2": "IUCN3.1",
        "col3": "LC"
    },
    {
        "col0": "White steenbras",
        "col1": "Sparidae",
        "col2": "IUCN2.3",
        "col3": "LR/cd"
    },
    {
        "col0": "White spotted sapphire",
        "col1": "Lycaenidae",
        "col2": "IUCN2.3",
        "col3": "VU"
    },
    {
        "col0": "White rhinoceros",
        "col1": "Rhinoceros",
        "col2": "IUCN3.1",
        "col3": "NT"
    },
    {
        "col0": "White perch",
        "col1": "Moronidae",
        "col2": "iucn3.1",
        "col3": "LC"
    },
    {
        "col0": "White monjita",
        "col1": "Tyrannidae",
        "col2": "IUCN3.1",
        "col3": "LC"
    },
    {
        "col0": "White marmoset",
        "col1": "Callitrichidae",
        "col2": "iucn3.1",
        "col3": "VU"
    },
    {
        "col0": "White marlin",
        "col1": "Istiophoridae",
        "col2": "iucn3.1",
        "col3": "VU"
    }
]