[
    {
        "col0": "Themisto",
        "col1": "11217105",
        "col2": "200000000",
        "col3": "8874300000"
    },
    {
        "col0": "Pasiphae",
        "col1": "66016687",
        "col2": "11300000000",
        "col3": "31209300000"
    },
    {
        "col0": "Himalia",
        "col1": "21648384",
        "col2": "90800000000",
        "col3": "13082000000"
    },
    {
        "col0": "Ananke",
        "col1": "52742880",
        "col2": "2500000000",
        "col3": "29063500000"
    },
    {
        "col0": "7 Iris",
        "col1": "116240400",
        "col2": "135000000000",
        "col3": "439368946245"
    },
    {
        "col0": "6 Hebe",
        "col1": "119210918",
        "col2": "109000000000",
        "col3": "435928195219"
    },
    {
        "col0": "5 Astraea",
        "col1": "130309669",
        "col2": "48300000000",
        "col3": "458630457786"
    },
    {
        "col0": "4660 Nereus",
        "col1": "57323808",
        "col2": "330000",
        "col3": "302879825181"
    },
    {
        "col0": "3 Juno",
        "col1": "137737152",
        "col2": "216000000000",
        "col3": "501591188606"
    },
    {
        "col0": "10 Hygiea",
        "col1": "481248",
        "col2": "837080744000",
        "col3": "523951582339"
    }
]