[
    {
        "col0": "2016 Engie Open de Biarritz",
        "col1": "R. Sramkova",
        "col2": "I. Khromacheva",
        "col3": "I. Khromacheva"
    },
    {
        "col0": "2016 Engie Open Metropole 42",
        "col1": "S. Vogele",
        "col2": "A. Mestach",
        "col3": "A. Mestach"
    },
    {
        "col0": "2016 Empire Slovak Open",
        "col1": "K. Siniakova",
        "col2": "T. Mihalikova",
        "col3": "T. Mihalikova"
    },
    {
        "col0": "2016 Dow Corning Tennis Classic",
        "col1": "N. Broady",
        "col2": "C. Bellis",
        "col3": "N. Broady"
    },
    {
        "col0": "2016 Delhi Open",
        "col1": "S. Robert",
        "col2": "H. Ching-wen",
        "col3": "H. Ching-wen"
    },
    {
        "col0": "2016 Dalian Women's Tennis Open",
        "col1": "K. Pliskova",
        "col2": "K. Takahata",
        "col3": "K. Pliskova"
    },
    {
        "col0": "2016 Coupe Banque Nationale",
        "col1": "O. Dodin",
        "col2": "A. Hlavackova",
        "col3": "A. Hlavackova"
    },
    {
        "col0": "2016 Copa Sevilla",
        "col1": "C. Ruud",
        "col2": "I. Cervantes",
        "col3": "C. Ruud"
    },
    {
        "col0": "2016 Connecticut Open",
        "col1": "A. Radwanska",
        "col2": "S. Mirza",
        "col3": "S. Mirza"
    },
    {
        "col0": "2016 Coleman Vision Tennis Championships",
        "col1": "M. Minella",
        "col2": "M. Krajicek",
        "col3": "M. Krajicek"
    },
    {
        "col0": "2016 Claro Open Medellin",
        "col1": "F. Bagnis",
        "col2": "A. Falla",
        "col3": "A. Falla"
    },
    {
        "col0": "2016 Cittadino Challenger",
        "col1": "F. Mayer",
        "col2": "M. Elgin",
        "col3": "F. Mayer"
    },
    {
        "col0": "2016 Citi Open",
        "col1": "G. Monfils",
        "col2": "E. Roger-Vasselin",
        "col3": "E. Roger-Vasselin"
    },
    {
        "col0": "2016 Chengdu Open",
        "col1": "K. Khachanov",
        "col2": "R. Ram",
        "col3": "R. Ram"
    },
    {
        "col0": "2016 Challenger Banque Nationale de Granby",
        "col1": "F. Tiafoe",
        "col2": "A. Mestach",
        "col3": "A. Mestach"
    },
    {
        "col0": "2016 Challenger Banque Nationale de Gatineau",
        "col1": "P. Polansky",
        "col2": "B. Andreescu",
        "col3": "P. Polansky"
    },
    {
        "col0": "2016 Challenger Banque Nationale de Drummondville",
        "col1": "D. Evans",
        "col2": "J. Cerretani",
        "col3": "J. Cerretani"
    },
    {
        "col0": "2016 Capri Watch Cup",
        "col1": "J. Kovalik",
        "col2": "G. Kretschmer",
        "col3": "J. Kovalik"
    },
    {
        "col0": "2016 Campeonato Internacional de Tenis de Santos",
        "col1": "R. Olivo",
        "col2": "M. Gonzalez",
        "col3": "M. Gonzalez"
    },
    {
        "col0": "2016 Bastad Challenger",
        "col1": "H. Zeballos",
        "col2": "I. Arvidsson",
        "col3": "H. Zeballos"
    },
    {
        "col0": "2016 Bredeney Ladies Open",
        "col1": "S. S. Tormo",
        "col2": "L. P. Tio",
        "col3": "S. S. Tormo"
    },
    {
        "col0": "2016 Boyd Tinsley Women's Clay Court Classic",
        "col1": "T. Townsend",
        "col2": "T. Townsend",
        "col3": "T. Townsend"
    },
    {
        "col0": "2016 Bol Open",
        "col1": "M. Minella",
        "col2": "P. Martic",
        "col3": "M. Minella"
    },
    {
        "col0": "2016 Blossom Cup",
        "col1": "W. Qiang",
        "col2": "M. Ninomiya",
        "col3": "W. Qiang"
    },
    {
        "col0": "2016 BNP Paribas de Nouvelle-Caledonie",
        "col1": "A. Mannarino",
        "col2": "E. Roger-Vasselin",
        "col3": "A. Mannarino"
    },
    {
        "col0": "2016 BNP Paribas Open",
        "col1": "N. Djokovic",
        "col2": "N. Mahut",
        "col3": "N. Djokovic"
    },
    {
        "col0": "2016 BFD Energy Challenger",
        "col1": "J. Satral",
        "col2": "F. Gaio",
        "col3": "J. Satral"
    },
    {
        "col0": "2016 Bastad Challenger",
        "col1": "H. Zeballos",
        "col2": "I. Arvidsson",
        "col3": "H. Zeballos"
    },
    {
        "col0": "2016 Australian Open",
        "col1": "N. Djokovic",
        "col2": "E. Vesnina",
        "col3": "E. Vesnina"
    },
    {
        "col0": "2016 Argentina Open",
        "col1": "D. Thiem",
        "col2": "J. S. Cabal",
        "col3": "D. Thiem"
    },
    {
        "col0": "2016 Apia International Sydney",
        "col1": "V. Troicki",
        "col2": "M. Hingis",
        "col3": "M. Hingis"
    },
    {
        "col0": "2016 Aircel Chennai Open",
        "col1": "S. Wawrinka",
        "col2": "O. Marach",
        "col3": "S. Wawrinka"
    },
    {
        "col0": "2016 Aegon Surbiton Trophy",
        "col1": "L. Yen-hsun",
        "col2": "M. Oudin",
        "col3": "M. Melnikova"
    },
    {
        "col0": "2016 Aegon Ilkley Trophy",
        "col1": "L. Yen-hsun",
        "col2": "Y. Zhaoxuan",
        "col3": "Y. Zhaoxuan"
    },
    {
        "col0": "2016 Aegon Eastbourne Trophy",
        "col1": "A. Riske",
        "col2": "Y. Zhaoxuan",
        "col3": "Y. Zhaoxuan"
    },
    {
        "col0": "2016 Aegon Classic Birmingham",
        "col1": "M. Keys",
        "col2": "K. Pliskova",
        "col3": "K. Pliskova"
    },
    {
        "col0": "2016 Aegon Championships",
        "col1": "A. Murray",
        "col2": "N. Mahut",
        "col3": "N. Mahut"
    },
    {
        "col0": "2016 Advantage Cars Prague Open",
        "col1": "S. Giraldo",
        "col2": "J. Knowle",
        "col3": "R. Voracova"
    },
    {
        "col0": "2016 Adriatic Challenger",
        "col1": "J. Souza",
        "col2": "A. Motti",
        "col3": "J. Souza"
    },
    {
        "col0": "2016 Abierto de Puebla",
        "col1": "E. Struvay",
        "col2": "M. Daniell",
        "col3": "I. Khromacheva"
    },
    {
        "col0": "2016 ASB Classic",
        "col1": "R. B. Agut",
        "col2": "E. Mertens",
        "col3": "M. Venus"
    },
    {
        "col0": "2016 ABN AMRO World Tennis Tournament",
        "col1": "M. Klizan",
        "col2": "N. Mahut",
        "col3": "N. Mahut"
    },
    {
        "col0": "2015 Zhuhai ITF Women's Pro Circuit",
        "col1": "C. Kai-chen",
        "col2": "X. Shilin",
        "col3": "X. Shilin"
    },
    {
        "col0": "2015 Wuhan Open",
        "col1": "V. Williams",
        "col2": "M. Hingis",
        "col3": "M. Hingis"
    },
    {
        "col0": "2015 Western & Southern Open",
        "col1": "R. Federer",
        "col2": "E. Roger-Vasselin",
        "col3": "R. Federer"
    },
    {
        "col0": "2015 Waco Showdown",
        "col1": "V. Golubic",
        "col2": "N. Gibbs",
        "col3": "N. Gibbs"
    },
    {
        "col0": "2015 WTA Elite Trophy",
        "col1": "V. Williams",
        "col2": "W. Yafan",
        "col3": "V. Williams"
    },
    {
        "col0": "2015 Vietnam Open",
        "col1": "S. Myneni",
        "col2": "T. Lamasine",
        "col3": "S. Myneni"
    },
    {
        "col0": "2015 Uruguay Open",
        "col1": "G. Pella",
        "col2": "A. Martin",
        "col3": "A. Martin"
    },
    {
        "col0": "2015 US Open",
        "col1": "N. Djokovic",
        "col2": "S. Mirza",
        "col3": "N. Mahut"
    },
    {
        "col0": "2015 USTA Tennis Classic of Macon",
        "col1": "R. Peterson",
        "col2": "V. Golubic",
        "col3": "R. Peterson"
    },
    {
        "col0": "2015 Turk Telecom Izmir Cup",
        "col1": "L. Lacko",
        "col2": "S. Myneni",
        "col3": "L. Lacko"
    },
    {
        "col0": "2015 Trofeo CittA  di Brescia",
        "col1": "I. Sijsling",
        "col2": "I. Bozoljac",
        "col3": "I. Bozoljac"
    },
    {
        "col0": "2015 Torneo Internacional Challenger Leon",
        "col1": "A. Krajicek",
        "col2": "R. Ram",
        "col3": "R. Ram"
    },
    {
        "col0": "2015 Toray Pan Pacific Open",
        "col1": "A. Radwanska",
        "col2": "C. S. Navarro",
        "col3": "A. Radwanska"
    },
    {
        "col0": "2015 Tiburon Challenger",
        "col1": "T. Smyczek",
        "col2": "F. Nielsen",
        "col3": "T. Smyczek"
    },
    {
        "col0": "2015 Tevlin Women's Challenger",
        "col1": "T. Maria",
        "col2": "S. Fichman",
        "col3": "S. Fichman"
    },
    {
        "col0": "2015 Tennis Napoli Cup",
        "col1": "Daniel Munoz de la Nava",
        "col2": "F. Krajinovic",
        "col3": "F. Krajinovic"
    },
    {
        "col0": "2015 Tashkent Challenger",
        "col1": "D. Istomin",
        "col2": "M. Elgin",
        "col3": "D. Istomin"
    },
    {
        "col0": "2015 Tampere Open",
        "col1": "T. Lamasine",
        "col2": "A. Ghem",
        "col3": "L. Barzo"
    },
    {
        "col0": "2015 Tallahassee Tennis Challenger",
        "col1": "F. Arguello",
        "col2": "J. Peralta",
        "col3": "F. Arguello"
    },
    {
        "col0": "2015 TEAN International",
        "col1": "D. Dzumhur",
        "col2": "E. Wacanno",
        "col3": "D. Dzumhur"
    },
    {
        "col0": "2015 Turk Telecom Izmir Cup",
        "col1": "L. Lacko",
        "col2": "S. Myneni",
        "col3": "L. Lacko"
    },
    {
        "col0": "2015 Sao Paulo Challenger de Tenis",
        "col1": "G. Pella",
        "col2": "C. Buchanan",
        "col3": "G. Pella"
    },
    {
        "col0": "2015 Swedish Open",
        "col1": "B. Paire",
        "col2": "L. Kubot",
        "col3": "L. Kubot"
    },
    {
        "col0": "2015 Suzhou Ladies Open",
        "col1": "Z. Kailin",
        "col2": "Y. Zhaoxuan",
        "col3": "Y. Zhaoxuan"
    },
    {
        "col0": "2015 Stockton Challenger",
        "col1": "N. Hibino",
        "col2": "S. Marand",
        "col3": "N. Hibino"
    },
    {
        "col0": "2015 Sparta Prague Open",
        "col1": "N. Gombos",
        "col2": "I. Zelenay",
        "col3": "I. Zelenay"
    },
    {
        "col0": "2015 Sparkassen ATP Challenger",
        "col1": "R. Berankis",
        "col2": "T. Weissborn",
        "col3": "R. Berankis"
    },
    {
        "col0": "2015 Slovak Open",
        "col1": "E. Gerasimov",
        "col2": "D. Jakupovic",
        "col3": "J. Maleckova"
    },
    {
        "col0": "2015 Seguros Bolivar Open Medellin",
        "col1": "P. Lorenzi",
        "col2": "M. Minella",
        "col3": "M. Minella"
    },
    {
        "col0": "2015 Seguros Bolivar Open Cali",
        "col1": "F. Romboli",
        "col2": "M. Demoliner",
        "col3": "M. Demoliner"
    },
    {
        "col0": "2015 Seguros Bolivar Open Barranquilla",
        "col1": "B. Coric",
        "col2": "M. Arevalo",
        "col3": "B. Coric"
    },
    {
        "col0": "2015 Seguros Bolivar Open Medellin",
        "col1": "P. Lorenzi",
        "col2": "M. Minella",
        "col3": "M. Minella"
    },
    {
        "col0": "2015 Seguros Bolivar Open Cali",
        "col1": "F. Romboli",
        "col2": "M. Demoliner",
        "col3": "M. Demoliner"
    },
    {
        "col0": "2015 Seguros Bolivar Open Barranquilla",
        "col1": "B. Coric",
        "col2": "M. Arevalo",
        "col3": "M. Arevalo"
    },
    {
        "col0": "2015 Santiago Challenger",
        "col1": "R. D. Silva",
        "col2": "M. Gonzalez",
        "col3": "M. Gonzalez"
    },
    {
        "col0": "2015 Samarkand Challenger",
        "col1": "T. Gabashvili",
        "col2": "M. Elgin",
        "col3": "T. Gabashvili"
    },
    {
        "col0": "2015 Sacramento Challenger",
        "col1": "T. Fritz",
        "col2": "B. Kavcic",
        "col3": "B. Kavcic"
    },
    {
        "col0": "2015 Sao Paulo Challenger de Tenis",
        "col1": "G. Pella",
        "col2": "C. Buchanan",
        "col3": "G. Pella"
    },
    {
        "col0": "2015 Rogers Cup",
        "col1": "A. Murray",
        "col2": "B. Bryan",
        "col3": "M. Bryan"
    },
    {
        "col0": "2015 Revolution Technologies Pro Tennis Classic",
        "col1": "K. Stewart",
        "col2": "T. Townsend",
        "col3": "T. Townsend"
    },
    {
        "col0": "2015 Reinert Open",
        "col1": "C. Witthoft",
        "col2": "E. Hrdinova",
        "col3": "C. Witthoft"
    },
    {
        "col0": "2015 Red Rock Pro Open",
        "col1": "M. Krajicek",
        "col2": "N. Gibbs",
        "col3": "M. Krajicek"
    },
    {
        "col0": "2015 Qatar ExxonMobil Open",
        "col1": "D. Ferrer",
        "col2": "R. Nadal",
        "col3": "R. Nadal"
    },
    {
        "col0": "2015 President's Cup",
        "col1": "M. Kukushkin",
        "col2": "K. Kravchuk",
        "col3": "M. Kukushkin"
    },
    {
        "col0": "2015 Poznan Open",
        "col1": "P. Carreno",
        "col2": "M. Kowalczyk",
        "col3": "M. Kowalczyk"
    }
]