[
    {
        "col0": "Philautus dubius",
        "col1": "Rhacophoridae",
        "col2": "DD",
        "col3": "IUCN3.1"
    },
    {
        "col0": "Philautus disgregus",
        "col1": "Rhacophoridae",
        "col2": "EN",
        "col3": "IUCN3.1"
    },
    {
        "col0": "Philautus cornutus",
        "col1": "Rhacophoridae",
        "col2": "DD",
        "col3": "IUCN3.1"
    },
    {
        "col0": "Philautus cinerascens",
        "col1": "Rhacophoridae",
        "col2": "DD",
        "col3": "IUCN3.1"
    },
    {
        "col0": "Philautus bunitus",
        "col1": "Rhacophoridae",
        "col2": "VU",
        "col3": "IUCN3.1"
    },
    {
        "col0": "Philautus aurifasciatus",
        "col1": "Rhacophoridae",
        "col2": "LC",
        "col3": "IUCN3.1"
    },
    {
        "col0": "Philautus acutus",
        "col1": "Rhacophoridae",
        "col2": "VU",
        "col3": "IUCN3.1"
    },
    {
        "col0": "Philautus acutirostris",
        "col1": "Rhacophoridae",
        "col2": "VU",
        "col3": "IUCN3.1"
    },
    {
        "col0": "Philautus abditus",
        "col1": "Rhacophoridae",
        "col2": "DD",
        "col3": "IUCN3.1"
    },
    {
        "col0": "Pherohapsis menziesi",
        "col1": "Microhylidae",
        "col2": "DD",
        "col3": "IUCN3.1"
    },
    {
        "col0": "Phasmahyla jandaia",
        "col1": "Hylidae",
        "col2": "LC",
        "col3": "IUCN3.1"
    },
    {
        "col0": "Phasmahyla guttata",
        "col1": "Hylidae",
        "col2": "LC",
        "col3": "IUCN3.1"
    },
    {
        "col0": "Phasmahyla exilis",
        "col1": "Hylidae",
        "col2": "LC",
        "col3": "IUCN3.1"
    },
    {
        "col0": "Phasmahyla cochranae",
        "col1": "Hylidae",
        "col2": "LC",
        "col3": "IUCN3.1"
    },
    {
        "col0": "Petropedetes perreti",
        "col1": "Petropedetidae",
        "col2": "EN",
        "col3": "IUCN3.1"
    },
    {
        "col0": "Petropedetes parkeri",
        "col1": "Petropedetidae",
        "col2": "LC",
        "col3": "IUCN3.1"
    },
    {
        "col0": "Petropedetes palmipes",
        "col1": "Petropedetidae",
        "col2": "EN",
        "col3": "IUCN3.1"
    },
    {
        "col0": "Petropedetes newtoni",
        "col1": "Petropedetidae",
        "col2": "LC",
        "col3": "IUCN3.1"
    },
    {
        "col0": "Petropedetes natator",
        "col1": "Petropedetidae",
        "col2": "NT",
        "col3": "IUCN3.1"
    },
    {
        "col0": "Petropedetes johnstoni",
        "col1": "Petropedetidae",
        "col2": "NT",
        "col3": "IUCN3.1"
    },
    {
        "col0": "Petropedetes cameronensis",
        "col1": "Petropedetidae",
        "col2": "NT",
        "col3": "IUCN3.1"
    },
    {
        "col0": "Peters' platanna",
        "col1": "Pipidae",
        "col2": "LC",
        "col3": "IUCN3.1"
    },
    {
        "col0": "Peters' caecilian",
        "col1": "Rhinatrematidae",
        "col2": "LC",
        "col3": "IUCN3.1"
    },
    {
        "col0": "Peter's climbing salamander",
        "col1": "Plethodontidae",
        "col2": "LC",
        "col3": "IUCN3.1"
    },
    {
        "col0": "Peru marsupial frog",
        "col1": "Hemiphractidae",
        "col2": "LC",
        "col3": "IUCN3.1"
    },
    {
        "col0": "Persian brook salamander",
        "col1": "Hynobiidae",
        "col2": "NT",
        "col3": "IUCN3.1"
    },
    {
        "col0": "Perret's snout-burrower",
        "col1": "Hemisotidae",
        "col2": "DD",
        "col3": "IUCN3.1"
    },
    {
        "col0": "Peron's tree frog",
        "col1": "Hylidae",
        "col2": "LC",
        "col3": "IUCN3.1"
    },
    {
        "col0": "Peppered tree frog",
        "col1": "Hylidae",
        "col2": "CR",
        "col3": "IUCN3.1"
    },
    {
        "col0": "Pelophylax terentievi",
        "col1": "Ranidae",
        "col2": "DD",
        "col3": "IUCN3.1"
    },
    {
        "col0": "Pelophylax tenggerensis",
        "col1": "Ranidae",
        "col2": "EN",
        "col3": "IUCN3.1"
    },
    {
        "col0": "Pelophylax lateralis",
        "col1": "Ranidae",
        "col2": "LC",
        "col3": "iucn3.1"
    },
    {
        "col0": "Pelophylax kl. grafi",
        "col1": "Ranidae",
        "col2": "NT",
        "col3": "IUCN3.1"
    },
    {
        "col0": "Pelophylax hubeiensis",
        "col1": "Ranidae",
        "col2": "LC",
        "col3": "iucn3.1"
    },
    {
        "col0": "Pelophylax fukienensis",
        "col1": "Ranidae",
        "col2": "LC",
        "col3": "iucn3.1"
    },
    {
        "col0": "Pelophylax demarchii",
        "col1": "Ranidae",
        "col2": "DD",
        "col3": "IUCN3.1"
    },
    {
        "col0": "Pelophryne signata",
        "col1": "Bufonidae",
        "col2": "NT",
        "col3": "IUCN3.1"
    },
    {
        "col0": "Pelophryne scalptus",
        "col1": "Bufonidae",
        "col2": "EN",
        "col3": "IUCN3.1"
    },
    {
        "col0": "Pelophryne lighti",
        "col1": "Bufonidae",
        "col2": "VU",
        "col3": "IUCN3.1"
    },
    {
        "col0": "Pelophryne brevipes",
        "col1": "Bufonidae",
        "col2": "LC",
        "col3": "IUCN3.1"
    },
    {
        "col0": "Pelophryne api",
        "col1": "Bufonidae",
        "col2": "EN",
        "col3": "IUCN3.1"
    },
    {
        "col0": "Pelobates varaldii",
        "col1": "Pelobatidae",
        "col2": "EN",
        "col3": "IUCN3.1"
    },
    {
        "col0": "Pelobates syriacus",
        "col1": "Pelobatidae",
        "col2": "LC",
        "col3": "iucn3.1"
    },
    {
        "col0": "Pelobates fuscus",
        "col1": "Pelobatidae",
        "col2": "LC",
        "col3": "iucn3.1"
    },
    {
        "col0": "Pelobates cultripes",
        "col1": "Pelobatidae",
        "col2": "NT",
        "col3": "iucn3.1"
    },
    {
        "col0": "Pedostibes rugosus",
        "col1": "Bufonidae",
        "col2": "NT",
        "col3": "IUCN3.1"
    },
    {
        "col0": "Pedostibes maculatus",
        "col1": "Bufonidae",
        "col2": "DD",
        "col3": "IUCN3.1"
    },
    {
        "col0": "Pedostibes kempi",
        "col1": "Bufonidae",
        "col2": "DD",
        "col3": "IUCN3.1"
    },
    {
        "col0": "Pedostibes hosii",
        "col1": "Bufonidae",
        "col2": "LC",
        "col3": "IUCN3.1"
    },
    {
        "col0": "Pedostibes everetti",
        "col1": "Bufonidae",
        "col2": "DD",
        "col3": "IUCN3.1"
    },
    {
        "col0": "Pearson's slender-legged tree frog",
        "col1": "Hylidae",
        "col2": "LC",
        "col3": "IUCN3.1"
    },
    {
        "col0": "Pearson's green tree frog",
        "col1": "Hylidae",
        "col2": "NT",
        "col3": "IUCN3.1"
    },
    {
        "col0": "Peaks of Otter salamander",
        "col1": "Plethodontidae",
        "col2": "VU",
        "col3": "IUCN3.1"
    },
    {
        "col0": "Paulo's lime tree frog",
        "col1": "Hylidae",
        "col2": "DD",
        "col3": "IUCN3.1"
    },
    {
        "col0": "Pasco poison frog",
        "col1": "Dendrobatidae",
        "col2": "NT",
        "col3": "IUCN3.1"
    },
    {
        "col0": "Parvicaecilia pricei",
        "col1": "Caeciliidae",
        "col2": "LC",
        "col3": "IUCN3.1"
    },
    {
        "col0": "Parvicaecilia nicefori",
        "col1": "Caeciliidae",
        "col2": "LC",
        "col3": "IUCN3.1"
    },
    {
        "col0": "Parma climbing salamander",
        "col1": "Plethodontidae",
        "col2": "DD",
        "col3": "IUCN3.1"
    },
    {
        "col0": "Parker's tree toad",
        "col1": "Bufonidae",
        "col2": "DD",
        "col3": "IUCN3.1"
    },
    {
        "col0": "Parker's caecilian",
        "col1": "Rhinatrematidae",
        "col2": "DD",
        "col3": "IUCN3.1"
    },
    {
        "col0": "Parhoplophryne usambarica",
        "col1": "Microhylidae",
        "col2": "CR",
        "col3": "IUCN3.1"
    },
    {
        "col0": "Paramo Frontino salamander",
        "col1": "Plethodontidae",
        "col2": "LC",
        "col3": "IUCN3.1"
    },
    {
        "col0": "Paradoxophyla palmata",
        "col1": "Microhylidae",
        "col2": "LC",
        "col3": "IUCN3.1"
    },
    {
        "col0": "Papua big-eyed tree frog",
        "col1": "Hylidae",
        "col2": "DD",
        "col3": "IUCN3.1"
    },
    {
        "col0": "Papallacta tree frog",
        "col1": "Hylidae",
        "col2": "EN",
        "col3": "IUCN3.1"
    },
    {
        "col0": "Palmer's tree frog",
        "col1": "Hylidae",
        "col2": "LC",
        "col3": "IUCN3.1"
    },
    {
        "col0": "Palmated chorus frog",
        "col1": "Microhylidae",
        "col2": "LC",
        "col3": "IUCN3.1"
    },
    {
        "col0": "Palmate newt",
        "col1": "Salamandridae",
        "col2": "LC",
        "col3": "IUCN3.1"
    },
    {
        "col0": "Palmar tree frog",
        "col1": "Hylidae",
        "col2": "LC",
        "col3": "IUCN3.1"
    },
    {
        "col0": "Palenque poison frog",
        "col1": "Dendrobatidae",
        "col2": "DD",
        "col3": "IUCN3.1"
    },
    {
        "col0": "Pale frog",
        "col1": "Hylidae",
        "col2": "LC",
        "col3": "IUCN3.1"
    },
    {
        "col0": "Painted tree frog",
        "col1": "Hylidae",
        "col2": "LC",
        "col3": "IUCN3.1"
    },
    {
        "col0": "Painted narrowmouth toad",
        "col1": "Microhylidae",
        "col2": "LC",
        "col3": "IUCN3.1"
    },
    {
        "col0": "Painted burrowing frog",
        "col1": "Myobatrachidae",
        "col2": "LC",
        "col3": "IUCN3.1"
    },
    {
        "col0": "Paghman stream salamander",
        "col1": "Hynobiidae",
        "col2": "CR",
        "col3": "IUCN3.1"
    },
    {
        "col0": "Paddletail newt",
        "col1": "Salamandridae",
        "col2": "LC",
        "col3": "IUCN3.1"
    },
    {
        "col0": "Pachyhynobius",
        "col1": "Hynobiidae",
        "col2": "VU",
        "col3": "IUCN3.1"
    },
    {
        "col0": "Ozark zigzag salamander",
        "col1": "Plethodontidae",
        "col2": "LC",
        "col3": "IUCN3.1"
    },
    {
        "col0": "Oxydactyla crassa",
        "col1": "Microhylidae",
        "col2": "DD",
        "col3": "IUCN3.1"
    },
    {
        "col0": "Oxydactyla brevicrus",
        "col1": "Microhylidae",
        "col2": "DD",
        "col3": "IUCN3.1"
    },
    {
        "col0": "Ouachita dusky salamander",
        "col1": "Plethodontidae",
        "col2": "LC",
        "col3": "IUCN3.1"
    },
    {
        "col0": "Otton frog",
        "col1": "Ranidae",
        "col2": "EN",
        "col3": "IUCN3.1"
    },
    {
        "col0": "Osteocephalus planiceps",
        "col1": "Hylidae",
        "col2": "LC",
        "col3": "IUCN3.1"
    },
    {
        "col0": "Osteocephalus oophagus",
        "col1": "Hylidae",
        "col2": "LC",
        "col3": "IUCN3.1"
    },
    {
        "col0": "Osteocephalus leoniae",
        "col1": "Hylidae",
        "col2": "LC",
        "col3": "IUCN3.1"
    },
    {
        "col0": "Osteocephalus heyeri",
        "col1": "Hylidae",
        "col2": "LC",
        "col3": "IUCN3.1"
    },
    {
        "col0": "Osteocephalus exophthalmus",
        "col1": "Hylidae",
        "col2": "DD",
        "col3": "IUCN3.1"
    },
    {
        "col0": "Osteocephalus deridens",
        "col1": "Hylidae",
        "col2": "LC",
        "col3": "IUCN3.1"
    },
    {
        "col0": "Osteocephalus cabrerai",
        "col1": "Hylidae",
        "col2": "LC",
        "col3": "IUCN3.1"
    },
    {
        "col0": "Osornophryne bufoniformis",
        "col1": "Bufonidae",
        "col2": "NT",
        "col3": "IUCN3.1"
    },
    {
        "col0": "Osornophryne antisana",
        "col1": "Bufonidae",
        "col2": "EN",
        "col3": "IUCN3.1"
    },
    {
        "col0": "Osgood's Ethiopian toad",
        "col1": "Bufonidae",
        "col2": "PE",
        "col3": "IUCN3.1"
    },
    {
        "col0": "Oscaecilia zweifeli",
        "col1": "Caeciliidae",
        "col2": "DD",
        "col3": "IUCN3.1"
    },
    {
        "col0": "Oscaecilia polyzona",
        "col1": "Caeciliidae",
        "col2": "DD",
        "col3": "IUCN3.1"
    },
    {
        "col0": "Oscaecilia osae",
        "col1": "Caeciliidae",
        "col2": "DD",
        "col3": "IUCN3.1"
    },
    {
        "col0": "Oscaecilia ochrocephala",
        "col1": "Caeciliidae",
        "col2": "LC",
        "col3": "IUCN3.1"
    },
    {
        "col0": "Oscaecilia koepckeorum",
        "col1": "Caeciliidae",
        "col2": "DD",
        "col3": "IUCN3.1"
    },
    {
        "col0": "Oscaecilia hypereumeces",
        "col1": "Caeciliidae",
        "col2": "DD",
        "col3": "IUCN3.1"
    },
    {
        "col0": "Oscaecilia equatorialis",
        "col1": "Caeciliidae",
        "col2": "DD",
        "col3": "IUCN3.1"
    },
    {
        "col0": "Oscaecilia elongata",
        "col1": "Caeciliidae",
        "col2": "DD",
        "col3": "IUCN3.1"
    },
    {
        "col0": "Oscaecilia bassleri",
        "col1": "Caeciliidae",
        "col2": "LC",
        "col3": "IUCN3.1"
    },
    {
        "col0": "Oruge tree frog",
        "col1": "Hylidae",
        "col2": "LC",
        "col3": "IUCN3.1"
    },
    {
        "col0": "Orphan salamander",
        "col1": "Plethodontidae",
        "col2": "CR",
        "col3": "IUCN3.1"
    },
    {
        "col0": "Ornate tree frog",
        "col1": "Hylidae",
        "col2": "LC",
        "col3": "IUCN3.1"
    },
    {
        "col0": "Ornate chorus frog",
        "col1": "Hylidae",
        "col2": "LC",
        "col3": "IUCN3.1"
    },
    {
        "col0": "Ornate burrowing frog",
        "col1": "Myobatrachidae",
        "col2": "lc",
        "col3": "iucn3.1"
    },
    {
        "col0": "Orinoco lime tree frog",
        "col1": "Hylidae",
        "col2": "LC",
        "col3": "IUCN3.1"
    },
    {
        "col0": "Oriental fire-bellied toad",
        "col1": "Bombinatoridae",
        "col2": "LC",
        "col3": "IUCN3.1"
    },
    {
        "col0": "Oreophrynella vasquezi",
        "col1": "Bufonidae",
        "col2": "VU",
        "col3": "IUCN3.1"
    },
    {
        "col0": "Oreophrynella quelchii",
        "col1": "Bufonidae",
        "col2": "VU",
        "col3": "IUCN3.1"
    },
    {
        "col0": "Oreophrynella macconnelli",
        "col1": "Bufonidae",
        "col2": "VU",
        "col3": "IUCN3.1"
    },
    {
        "col0": "Oreophrynella huberi",
        "col1": "Bufonidae",
        "col2": "VU",
        "col3": "IUCN3.1"
    },
    {
        "col0": "Oreophrynella cryptica",
        "col1": "Bufonidae",
        "col2": "VU",
        "col3": "IUCN3.1"
    },
    {
        "col0": "Oreophryne zimmeri",
        "col1": "Microhylidae",
        "col2": "DD",
        "col3": "IUCN3.1"
    },
    {
        "col0": "Oreophryne wolterstorffi",
        "col1": "Microhylidae",
        "col2": "DD",
        "col3": "IUCN3.1"
    },
    {
        "col0": "Oreophryne wapoga",
        "col1": "Microhylidae",
        "col2": "DD",
        "col3": "IUCN3.1"
    },
    {
        "col0": "Oreophryne waira",
        "col1": "Microhylidae",
        "col2": "DD",
        "col3": "IUCN3.1"
    },
    {
        "col0": "Oreophryne variabilis",
        "col1": "Microhylidae",
        "col2": "VU",
        "col3": "IUCN3.1"
    },
    {
        "col0": "Oreophryne terrestris",
        "col1": "Microhylidae",
        "col2": "DD",
        "col3": "IUCN3.1"
    },
    {
        "col0": "Oreophryne rookmaakeri",
        "col1": "Microhylidae",
        "col2": "DD",
        "col3": "IUCN3.1"
    },
    {
        "col0": "Oreophryne pseudasplenicola",
        "col1": "Microhylidae",
        "col2": "DD",
        "col3": "IUCN3.1"
    },
    {
        "col0": "Oreophryne parkeri",
        "col1": "Microhylidae",
        "col2": "DD",
        "col3": "IUCN3.1"
    }
]