[
    {
        "col0": "The Dragon's Apprentice",
        "col1": "The Shadow Dragons",
        "col2": "PZ7.O97124Dr 2010",
        "col3": "978-1-4169-5897-0"
    },
    {
        "col0": "The Double Jinx Mystery",
        "col1": "The Secret of Mirror Bay",
        "col2": "PZ7.K23 Nan no. 50",
        "col3": "0-448-09550-5"
    },
    {
        "col0": "The Dosadi Experiment",
        "col1": "Whipping Star",
        "col2": "PZ4.H5356 Do PS3558.E63",
        "col3": "0-399-12022-X"
    },
    {
        "col0": "The Dolphins of Pern",
        "col1": "The Chronicles of Pern: First Fall",
        "col2": "PS3563.A255 D65 1994",
        "col3": "978-0-345-36894-2"
    },
    {
        "col0": "The Diversion",
        "col1": "The Return",
        "col2": "CPB Box no. 1857 vol. 27",
        "col3": "0-439-11523-X"
    },
    {
        "col0": "The Disunited States of America",
        "col1": "In High Places",
        "col2": "PS3570.U76 D58 2006",
        "col3": "0-7653-1485-1"
    },
    {
        "col0": "The Discovery",
        "col1": "The Departure",
        "col2": "CPB Box no. 1776 vol. 31",
        "col3": "0-590-49637-9"
    },
    {
        "col0": "The Devil and Sherlock Holmes",
        "col1": "The Lost City of Z",
        "col2": "PN4874.G672A25 2010",
        "col3": "978-0-385-51792-8"
    },
    {
        "col0": "The Devil's Feather",
        "col1": "Disordered Minds",
        "col2": "PR6073.A444 D48 2005",
        "col3": "1-4050-5098-5"
    },
    {
        "col0": "The Demon Apostle",
        "col1": "The Demon Spirit",
        "col2": "PS3569.A462345 D45 1999",
        "col3": "0-345-39153-5"
    },
    {
        "col0": "The Demon-Haunted World",
        "col1": "Pale Blue Dot",
        "col2": "Q175 .S215 1995",
        "col3": "0-345-40946-9"
    },
    {
        "col0": "The Deeds of the Disturber",
        "col1": "Lion in the Valley",
        "col2": "PS3563.E747 D4 1988",
        "col3": "0-689-11907-0"
    },
    {
        "col0": "The Decision",
        "col1": "The Underground",
        "col2": "CPB Box no. 1765 vol. 8",
        "col3": "0-590-49441-4"
    },
    {
        "col0": "The Death of Sleep",
        "col1": "Sassinak",
        "col2": "CPB Box no. 620 vol. 11 (Copyright Paperback Collection)",
        "col3": "0-671-69884-2"
    },
    {
        "col0": "The Dead and the Gone",
        "col1": "Life as We Knew It",
        "col2": "PZ7.P44855 Dc 2008",
        "col3": "978-0-15-206311-5"
    },
    {
        "col0": "The Day of the Scorpion",
        "col1": "The Jewel in the Crown",
        "col2": "PZ4.S428 Day PR6069.C596",
        "col3": "0-434-68109-1"
    },
    {
        "col0": "The Daughters of Cain",
        "col1": "The Way Through the Woods",
        "col2": "PR6054.E96 D38 1994",
        "col3": "0-333-63004-1"
    },
    {
        "col0": "The Darkest Hour",
        "col1": "A Dangerous Path",
        "col2": "PZ7.H916625 Dar 2004",
        "col3": "978-0-06-000007-3"
    },
    {
        "col0": "The Dark Room",
        "col1": "The Bachelor of Arts",
        "col2": "PR9499.3.N3 D37 1981",
        "col3": "978-0-226-56837-9"
    },
    {
        "col0": "The Dark Design",
        "col1": "The Fabulous Riverboat",
        "col2": "PZ4.F234 Dar3 PS3556.A72",
        "col3": "0-399-12031-9"
    },
    {
        "col0": "The Dark Cry of the Moon",
        "col1": "The Soft Whisper of the Dead",
        "col2": "PS3557.R265 D37 1985",
        "col3": "0-937986-76-3"
    },
    {
        "col0": "The Damagers",
        "col1": "The Threateners",
        "col2": "MLC R CP00978",
        "col3": "0-449-14847-5"
    },
    {
        "col0": "The Da Vinci Code",
        "col1": "Angels & Demons",
        "col2": "PS3552.R685434 D3 2003",
        "col3": "0-385-50420-9"
    },
    {
        "col0": "The Cutting Edge",
        "col1": "Emperor and Clown",
        "col2": "PR9199.3.D847 C88 1992",
        "col3": "0-345-37896-2"
    },
    {
        "col0": "The Curse of the Pharaohs",
        "col1": "Crocodile on the Sandbank",
        "col2": "PS3563.E747 C8",
        "col3": "0-396-07963-6"
    },
    {
        "col0": "The Curious Quests of Brigadier Ffellowes",
        "col1": "The Peculiar Exploits of Brigadier Ffellowes",
        "col2": "PS3562.A52 C8 1986",
        "col3": "0-937986-89-5"
    },
    {
        "col0": "The Crystal City",
        "col1": "Heartfire",
        "col2": "PS3553.A655 C79 2003",
        "col3": "0-312-86483-3"
    },
    {
        "col0": "The Crossing",
        "col1": "All the Pretty Horses",
        "col2": "PS3563.C337 C7 1994",
        "col3": "0-394-57475-3"
    },
    {
        "col0": "The Crooked Banister",
        "col1": "The Mysterious Mannequin",
        "col2": "PZ7.K23 Cr",
        "col3": "0-448-09548-3"
    },
    {
        "col0": "The Crimson Gold",
        "col1": "The Black Bouquet",
        "col2": "CPB Box no. 2280 vol. 15",
        "col3": "0-7869-3120-5"
    },
    {
        "col0": "The Crimson Flame",
        "col1": "Game Plan for Disaster",
        "col2": "PZ7.D644 Cq 1983",
        "col3": "0-671-42367-3"
    },
    {
        "col0": "The Creators",
        "col1": "The Discoverers",
        "col2": "CB69 .B65 1992",
        "col3": "0-394-54395-5"
    },
    {
        "col0": "The Covenant of the Crown",
        "col1": "The Klingon Gambit",
        "col2": "CPB Box no. 2483 vol. 19",
        "col3": "0-671-83307-3"
    },
    {
        "col0": "The Courts of Chaos",
        "col1": "The Hand of Oberon",
        "col2": "PZ4.Z456 Co PS3576.E43",
        "col3": "0-385-13685-4"
    },
    {
        "col0": "The Coronation",
        "col1": "The State Counsellor",
        "col2": "PG3478.K78 K67 2000",
        "col3": "5-8159-0059-1"
    },
    {
        "col0": "The Confusion",
        "col1": "Quicksilver",
        "col2": "PS3569.T3868 C55 2004",
        "col3": "0-06-052386-7"
    },
    {
        "col0": "The Condition of Muzak",
        "col1": "The English Assassin: A Romance of Entropy",
        "col2": "PZ4.M8185 Co PR6063.O59",
        "col3": "0-85031-044-X"
    },
    {
        "col0": "The Concrete Blonde",
        "col1": "The Black Ice",
        "col2": "PS3553.O51165 C65 1994",
        "col3": "0-316-15383-4"
    },
    {
        "col0": "The Complete Far Side",
        "col1": "The Far Side Gallery 5",
        "col2": "NC1429.L32 A4 2003",
        "col3": "0-7407-2113-5"
    },
    {
        "col0": "The Commodore",
        "col1": "The Wine-Dark Sea",
        "col2": "PR6029.B55 C66 1995",
        "col3": "0-393-03760-6"
    },
    {
        "col0": "The Color of Death",
        "col1": "Death of a Colonial",
        "col2": "PS3553.O55314 C65 2000",
        "col3": "0-399-14648-2"
    },
    {
        "col0": "The Cold Moon",
        "col1": "The Twelfth Card",
        "col2": "PS3554.E1755 B76 2006",
        "col3": "0-7432-6093-7"
    },
    {
        "col0": "The Clue of the Hissing Serpent",
        "col1": "The Shattered Helmet",
        "col2": "PZ7.D644 Cm",
        "col3": "0-448-08953-X"
    },
    {
        "col0": "The Closers",
        "col1": "The Narrows",
        "col2": "PS3553.O51165 C58 2005b",
        "col3": "0-316-73494-2"
    },
    {
        "col0": "The Claw of the Conciliator",
        "col1": "The Shadow of the Torturer",
        "col2": "PS3573.O52 C57",
        "col3": "0-671-41370-8"
    },
    {
        "col0": "The Clan Corporate",
        "col1": "The Hidden Family",
        "col2": "PR6119.T79 C63 2006",
        "col3": "0-7653-0930-0"
    },
    {
        "col0": "The Cider House Rules",
        "col1": "The Hotel New Hampshire",
        "col2": "PS3559.R8 C5 1985",
        "col3": "0-688-03036-X"
    },
    {
        "col0": "The Chronicles of Pern: First Fall",
        "col1": "All the Weyrs of Pern",
        "col2": "PS3563.A255 C47 1993",
        "col3": "978-0-345-36898-0"
    },
    {
        "col0": "The Chimney-sweeper's Boy",
        "col1": "The Brimstone Wedding",
        "col2": "PR6068.E63 C47 1998c",
        "col3": "0-670-87927-4"
    },
    {
        "col0": "The Children of the Sky",
        "col1": "A Deepness in the Sky",
        "col2": "PS3572.I534 F57 1992",
        "col3": "0-312-87562-2"
    },
    {
        "col0": "The Children of the Company",
        "col1": "The Life of the World to Come",
        "col2": "PS3552.A4313 C48 2005",
        "col3": "0-7653-1455-X"
    },
    {
        "col0": "The Children of Hurin",
        "col1": "Roverandom",
        "col2": "PR6039.O32 N37 2007",
        "col3": "978-0-618-89464-2"
    },
    {
        "col0": "The Children's Bach",
        "col1": "Honour & Other People's Children",
        "col2": "PR9619.3.G3 C45 1984",
        "col3": "0-86914-029-9"
    },
    {
        "col0": "The Chick is in the Mail",
        "col1": "Chicks 'n Chained Males",
        "col2": "CPB Box no. 1888 vol. 6",
        "col3": "0-671-31950-7"
    },
    {
        "col0": "The Charnel Prince",
        "col1": "The Briar King",
        "col2": "PS3561.E79 C48 2004",
        "col3": "0-345-44067-6"
    },
    {
        "col0": "The Charlemagne Pursuit",
        "col1": "The Venetian Betrayal",
        "col2": "PS3602.E764 C47 2008",
        "col3": "978-0-345-48579-3"
    },
    {
        "col0": "The Charioteer of Delphi",
        "col1": "The Sirens of Surrentum",
        "col2": "PZ7.L425 Cha 2007",
        "col3": "1-59643-085-0"
    },
    {
        "col0": "The Cat Who Played Brahms",
        "col1": "The Cat Who Saw Red",
        "col2": "PS3552.R354 C344 1987",
        "col3": "0-515-09050-6"
    },
    {
        "col0": "The Cat Who Had 60 Whiskers",
        "col1": "The Cat Who Dropped a Bombshell",
        "col2": "PS3552.R354 C3365 2007b",
        "col3": "0-399-15390-X"
    },
    {
        "col0": "The Cat Who Dropped a Bombshell",
        "col1": "The Cat Who Went Bananas",
        "col2": "PS3552.R354 C3355 2006",
        "col3": "0-399-15307-1"
    },
    {
        "col0": "The Case for Democracy",
        "col1": "Fear No Evil",
        "col2": "JC423 .S495 2004",
        "col3": "1-58648-261-0"
    },
    {
        "col0": "The Carnivorous Carnival",
        "col1": "The Hostile Hospital",
        "col2": "PZ7.S6795 Car 2002",
        "col3": "0-06-441012-9"
    },
    {
        "col0": "The Cardinal of the Kremlin",
        "col1": "Patriot Games",
        "col2": "PS3553.L245 C37 1988",
        "col3": "0-399-13345-3"
    },
    {
        "col0": "The Candle in the Wind",
        "col1": "The Ill-Made Knight",
        "col2": "PR6045.H2 O5 1996",
        "col3": "0-441-00383-4"
    },
    {
        "col0": "The Canary Trainer",
        "col1": "The Seven-Per-Cent Solution",
        "col2": "PS3563.E88 C3 1993",
        "col3": "0-393-03608-1"
    },
    {
        "col0": "The Call of Earth",
        "col1": "The Memory of Earth",
        "col2": "PS3553.A655 C34 1993",
        "col3": "0-312-93037-2"
    },
    {
        "col0": "The Calder Game",
        "col1": "The Wright 3",
        "col2": "PZ7.B2128 Cal 2008",
        "col3": "0-439-85207-2"
    },
    {
        "col0": "The Cabinet of Curiosities",
        "col1": "Reliquary",
        "col2": "PS3566.R3982 C33 2002",
        "col3": "0-446-53022-0"
    },
    {
        "col0": "The Butter Battle Book",
        "col1": "Hunches in Bunches",
        "col2": "PZ8.3.G276 Bu 1984",
        "col3": "0-394-86716-5"
    },
    {
        "col0": "The Bull from the Sea",
        "col1": "The King Must Die",
        "col2": "PR6035.E55 B85 2001",
        "col3": "0-375-72680-2"
    },
    {
        "col0": "The Brooklyn Follies",
        "col1": "Oracle Night",
        "col2": "PS3551.U77 B76 2006",
        "col3": "0-8050-7714-6"
    },
    {
        "col0": "The Broken Window",
        "col1": "The Cold Moon",
        "col2": "PS3554.E1755 B76 2008",
        "col3": "978-1-4165-4997-0"
    },
    {
        "col0": "The Broken Compass",
        "col1": "A Brief History of Crime",
        "col2": "JN238 .H58 2009",
        "col3": "978-1-84706-405-9"
    },
    {
        "col0": "The Brass Verdict",
        "col1": "The Overlook",
        "col2": "PS3553.O51165 B73 2008",
        "col3": "0-316-16629-4"
    },
    {
        "col0": "The Boy Who Followed Ripley",
        "col1": "Ripley's Game",
        "col2": "PS3558.I366 B69 1980",
        "col3": "0-434-33520-7"
    },
    {
        "col0": "The Bourne Ultimatum",
        "col1": "The Bourne Supremacy",
        "col2": "PS3562.U26 B685 1990",
        "col3": "0-394-58408-2"
    },
    {
        "col0": "The Bourne Supremacy",
        "col1": "The Bourne Identity",
        "col2": "PS3562.U26 B68 1986",
        "col3": "0-394-54396-3"
    },
    {
        "col0": "The Bourne Sanction",
        "col1": "The Bourne Betrayal",
        "col2": "PS3562.U752 R65 2008",
        "col3": "0-446-53986-4"
    },
    {
        "col0": "The Bourne Legacy",
        "col1": "The Bourne Ultimatum",
        "col2": "PS3562.U752 R63 2004",
        "col3": "0-312-33175-4"
    },
    {
        "col0": "The Bourne Betrayal",
        "col1": "The Bourne Legacy",
        "col2": "PS3562.U752 R635 2007",
        "col3": "0-446-58037-6"
    },
    {
        "col0": "The Borrowers Avenged",
        "col1": "The Borrowers Aloft",
        "col2": "* PZ7.N8248 Bm 1982",
        "col3": "722658044"
    },
    {
        "col0": "The Born Queen",
        "col1": "The Blood Knight",
        "col2": "PS3561.E79 B67 2008",
        "col3": "978-0-345-44069-3"
    },
    {
        "col0": "The Book of Not",
        "col1": "Nervous Conditions",
        "col2": "PR9390.9.D36 B66 2006",
        "col3": "0-9547023-7-9"
    },
    {
        "col0": "The Book of Fours",
        "col1": "Here Be Monsters",
        "col2": "PS3557.O35927 B66 2001",
        "col3": "0-7434-1240-0"
    },
    {
        "col0": "The Book of Dreams",
        "col1": "The Face",
        "col2": "CPB Box no. 2504 vol. 17",
        "col3": "0-87997-587-3"
    },
    {
        "col0": "The Bones of Zora",
        "col1": "The Virgin of Zesh",
        "col2": "PS3507.E2344 B65 1983",
        "col3": "0-932096-27-1"
    },
    {
        "col0": "The Blue Djinn of Babylon",
        "col1": "The Akhenaten Adventure",
        "col2": "PZ7.K46843 Blu 2006",
        "col3": "0-439-67021-7"
    },
    {
        "col0": "The Bloody Red Baron",
        "col1": "Anno Dracula",
        "col2": "PR6064.E9277 B57 1995",
        "col3": "0-7867-0252-4"
    },
    {
        "col0": "The Blood of Olympus",
        "col1": "The House of Hades",
        "col2": "PZ7.R4829 Bl 2014",
        "col3": "978-1-4231-4673-5"
    },
    {
        "col0": "The Blood Spilt",
        "col1": "Sun Storm",
        "col2": "PT9877.22.A78 B56 2007",
        "col3": "0-385-33982-8"
    },
    {
        "col0": "The Blood Knight",
        "col1": "The Charnel Prince",
        "col2": "PS3561.E79 B58 2006",
        "col3": "0-345-44068-4"
    },
    {
        "col0": "The Blinding Knife",
        "col1": "The Black Prism",
        "col2": "PS3623.E4223 B575 2012",
        "col3": "978-0-316-07991-4"
    },
    {
        "col0": "The Blind Watchmaker",
        "col1": "The Extended Phenotype",
        "col2": "QH366.2 .D37 1996",
        "col3": "0-393-31570-3"
    },
    {
        "col0": "The Black Swan",
        "col1": "Fooled by Randomness",
        "col2": "Q375 .T35 2007",
        "col3": "978-1400063512"
    },
    {
        "col0": "The Black Dahlia",
        "col1": "Killer on the Road",
        "col2": "PS3555.L6274 B53 1987",
        "col3": "0-89296-206-2"
    },
    {
        "col0": "The Black Cauldron",
        "col1": "The Book of Three",
        "col2": "PZ7.A3774 B1",
        "col3": "0-8050-0992-2"
    },
    {
        "col0": "The Black Bouquet",
        "col1": "The Alabaster Staff",
        "col2": "CPB Box no. 2252 vol. 24",
        "col3": "0-7869-3042-X"
    },
    {
        "col0": "The Bishop's Heir",
        "col1": "Camber the Heretic",
        "col2": "PS3561.U69 B5 1984",
        "col3": "0-345-31824-2"
    },
    {
        "col0": "The Billion Dollar Ransom",
        "col1": "The Voodoo Plot",
        "col2": "PZ7.D644 Bi 1982",
        "col3": "0-671-42355-X"
    },
    {
        "col0": "The Big Nowhere",
        "col1": "The Black Dahlia",
        "col2": "PS3555.L6274 B5 1988",
        "col3": "0-89296-283-6"
    },
    {
        "col0": "The Big Bamboo",
        "col1": "Torpedo Juice",
        "col2": "PS3554.O719 B54 2006",
        "col3": "0-06-058562-5"
    }
]