[
    {
        "col0": "When Somebody Loves You",
        "col1": "A. Jackson",
        "col2": "Alan Jackson",
        "col3": "208",
        "col4": "\"Meat and Potato Man\""
    },
    {
        "col0": "When Smokey Sings",
        "col1": "M. White",
        "col2": "ABC",
        "col3": "262",
        "col4": "\"Chicago\""
    },
    {
        "col0": "When She Cries",
        "col1": "M. Beeson",
        "col2": "Restless Heart",
        "col3": "223",
        "col4": "\"Meet Me on the Other Side\""
    },
    {
        "col0": "When My Ship Comes In",
        "col1": "C. Black",
        "col2": "Clint Black",
        "col3": "213",
        "col4": "\"Buying Time\""
    },
    {
        "col0": "When Mama Ain't Happy",
        "col1": "T. Nichols",
        "col2": "Tracy Byrd",
        "col3": "203",
        "col4": "\"Back to Texas\""
    },
    {
        "col0": "When Love Takes Over You",
        "col1": "P. Waterman",
        "col2": "Donna Summer",
        "col3": "217",
        "col4": "Bad Reputation"
    },
    {
        "col0": "When Love Breaks Down",
        "col1": "P. McAloon",
        "col2": "Prefab Sprout",
        "col3": "220",
        "col4": "\"Diana\" (Demo) (first release)"
    },
    {
        "col0": "When It All Goes South",
        "col1": "J. B. Jarvis",
        "col2": "Alabama",
        "col3": "416",
        "col4": "\"Feels So Right\""
    },
    {
        "col0": "When It's Love",
        "col1": "E. V. Halen",
        "col2": "Van Halen",
        "col3": "338",
        "col4": "\"Cabo Wabo\""
    },
    {
        "col0": "When It's Down to Me and You",
        "col1": "D. Morgan",
        "col2": "Charly McClain",
        "col3": "215",
        "col4": "\"I'll Always Try Forever One More Time\""
    },
    {
        "col0": "When I Was Young",
        "col1": "E. Burdon",
        "col2": "Eric Burdon and The Animals",
        "col3": "180",
        "col4": "\"A Girl Named Sandoz\""
    },
    {
        "col0": "When I Think of You",
        "col1": "J. Jackson",
        "col2": "Janet Jackson",
        "col3": "235",
        "col4": "\"Pretty Boy\", \"Come Give Your Love to Me\""
    },
    {
        "col0": "When I Think About Cheatin'",
        "col1": "G. Wilson",
        "col2": "Gretchen Wilson",
        "col3": "249",
        "col4": "\"Homewrecker\""
    },
    {
        "col0": "When I Think About Angels",
        "col1": "J. O'Neal",
        "col2": "Jamie O'Neal",
        "col3": "183",
        "col4": "\"The Only Thing Wrong\""
    },
    {
        "col0": "When I Start To",
        "col1": "A. Bell",
        "col2": "Erasure",
        "col3": "214",
        "col4": "\"Tomorrow's World\""
    },
    {
        "col0": "When I See You Smile",
        "col1": "D. Warren",
        "col2": "Bad English",
        "col3": "259",
        "col4": "\"Heaven Is a 4 Letter Word\"/\"Best of What I Got\""
    },
    {
        "col0": "When I See You",
        "col1": "M. Gray",
        "col2": "Macy Gray",
        "col3": "223",
        "col4": "\"Lie to Me\", \"It's Love\""
    },
    {
        "col0": "When I Said I Do",
        "col1": "C. Black",
        "col2": "Clint Black",
        "col3": "270",
        "col4": "\"You Don't Need Me Now\""
    },
    {
        "col0": "When I Need You",
        "col1": "A. Hammond",
        "col2": "Celine Dion",
        "col3": "249",
        "col4": "\"I Think We Fell in Love Too Fast\""
    },
    {
        "col0": "When I Grow Up",
        "col1": "B. Wilson",
        "col2": "The Beach Boys",
        "col3": "121",
        "col4": "\"She Knows Me Too Well\""
    },
    {
        "col0": "When I Grow Up",
        "col1": "Garbage",
        "col2": "Garbage",
        "col3": "204",
        "col4": "\"Can't Seem to Make You Mine\""
    },
    {
        "col0": "When I Grow Up",
        "col1": "K. D. Andersson",
        "col2": "Karin Dreijer Andersson",
        "col3": "222",
        "col4": "\"Memories from When I Grew Up (Remembered by The Subliminal Kid)\""
    },
    {
        "col0": "When I Fall in Love",
        "col1": "V. Young",
        "col2": "Rick Astley",
        "col3": "182",
        "col4": "My Arms Keep Missing You"
    },
    {
        "col0": "When I Die",
        "col1": "F. Farian",
        "col2": "No Mercy",
        "col3": "268",
        "col4": "\"For Eternity\""
    },
    {
        "col0": "When I Could Come Home to You",
        "col1": "S. Wariner",
        "col2": "Steve Wariner",
        "col3": "228",
        "col4": "\"Want to Make Something of It\""
    },
    {
        "col0": "When I'm with You",
        "col1": "S. Harley",
        "col2": "Steve Harley",
        "col3": "212",
        "col4": "Theme From \"Babbacombe Lee\""
    },
    {
        "col0": "When I'm with You",
        "col1": "A. Lanni",
        "col2": "Sheriff",
        "col3": "238",
        "col4": "\"Crazy Without You\" ('83)"
    },
    {
        "col0": "When I'm Gone",
        "col1": "S. Robinson",
        "col2": "Mary Wells",
        "col3": "131",
        "col4": "Guarantee for a Lifetime"
    },
    {
        "col0": "When I'm Away from You",
        "col1": "F. Miller",
        "col2": "The Bellamy Brothers",
        "col3": "232",
        "col4": "\"Long Distance Love Affair\""
    },
    {
        "col0": "When He's Gone",
        "col1": "B. Gibb",
        "col2": "Bee Gees",
        "col3": "246",
        "col4": "\"Massachusetts (live)\" (UK)"
    },
    {
        "col0": "When God-Fearin' Women Get the Blues",
        "col1": "L. Satcher",
        "col2": "Martina McBride",
        "col3": "52",
        "col4": "\"Blessed\""
    },
    {
        "col0": "When Doves Cry",
        "col1": "Prince",
        "col2": "Prince",
        "col3": "309",
        "col4": "\""
    },
    {
        "col0": "When Did You Stop Loving Me",
        "col1": "M. Holmes",
        "col2": "George Strait",
        "col3": "168",
        "col4": "\"Where the Sidewalk Ends\""
    },
    {
        "col0": "When Boy Meets Girl",
        "col1": "T. Clark",
        "col2": "Terri Clark",
        "col3": "181",
        "col4": "\"Flowers After the Fact\""
    },
    {
        "col0": "When All Is Said and Done",
        "col1": "B. Andersson",
        "col2": "ABBA",
        "col3": "200",
        "col4": "\"Should I Laugh or Cry\""
    },
    {
        "col0": "When Alice Comes Back to the Farm",
        "col1": "R. Wood",
        "col2": "The Move",
        "col3": "195",
        "col4": "\"What?\""
    },
    {
        "col0": "When",
        "col1": "A. Lear",
        "col2": "Amanda Lear",
        "col3": "205",
        "col4": "\"Ho fatto l'amore con me\""
    },
    {
        "col0": "Wheels Ain't Coming Down",
        "col1": "N. Holder",
        "col2": "Slade",
        "col3": "217",
        "col4": "Not Tonight Josephine"
    },
    {
        "col0": "Wheels",
        "col1": "D. Loggins",
        "col2": "Restless Heart",
        "col3": "228",
        "col4": "\"New York (Hold Her Tight)\""
    },
    {
        "col0": "Wheel of Fortune",
        "col1": "J. Berggren",
        "col2": "Ace of Base",
        "col3": "234",
        "col4": "\"My Mind\""
    },
    {
        "col0": "Wheel in the Sky",
        "col1": "R. Fleischman",
        "col2": "Journey",
        "col3": "211",
        "col4": "\"Can Do\""
    },
    {
        "col0": "Whatever You Want",
        "col1": "T. Dayne",
        "col2": "Tina Turner",
        "col3": "285",
        "col4": "\"Unfinished Sympathy\""
    },
    {
        "col0": "Whatever You Want",
        "col1": "A. Bown",
        "col2": "Status Quo",
        "col3": "240",
        "col4": "\"Hard Ride\""
    },
    {
        "col0": "Whatever You Say",
        "col1": "T. Martin",
        "col2": "Martina McBride",
        "col3": "270",
        "col4": "\"Be That Way\""
    },
    {
        "col0": "Whatever You Believe",
        "col1": "M. Batt",
        "col2": "Steve Harley",
        "col3": "310",
        "col4": "\"Deep is My Yearning (Morning Has Broken)\""
    },
    {
        "col0": "Whatever Gets You thru the Night",
        "col1": "J. Lennon",
        "col2": "John Lennon",
        "col3": "207",
        "col4": "\"Beef Jerky\""
    },
    {
        "col0": "Whatever",
        "col1": "N. Innes",
        "col2": "Oasis",
        "col3": "238",
        "col4": "\""
    },
    {
        "col0": "Whatever",
        "col1": "A. Hamasaki",
        "col2": "Ayumi Hamasaki",
        "col3": "336",
        "col4": "\"Whatever\" (J version)"
    },
    {
        "col0": "Whatcha Gonna Do with a Cowboy",
        "col1": "G. Brooks",
        "col2": "Chris LeDoux",
        "col3": "153",
        "col4": "\"Western Skies\""
    },
    {
        "col0": "Whatcha Gonna Do About It",
        "col1": "B. Potter",
        "col2": "Small Faces",
        "col3": "119",
        "col4": "\"What's a Matter Baby\""
    },
    {
        "col0": "Whatareya?",
        "col1": "TISM",
        "col2": "TISM",
        "col3": "214",
        "col4": "I'd Be Happier If I Was More Depressed"
    },
    {
        "col0": "What the World Needs Now Is Love",
        "col1": "B. Bacharach",
        "col2": "Jackie DeShannon",
        "col3": "190",
        "col4": "\"I Remember the Boy\""
    },
    {
        "col0": "What the Cowgirls Do",
        "col1": "V. Gill",
        "col2": "Vince Gill",
        "col3": "183",
        "col4": "\"Go Rest High on That Mountain\""
    },
    {
        "col0": "What a Wonderful World",
        "col1": "G. D. Weiss",
        "col2": "Louis Armstrong",
        "col3": "141",
        "col4": "\"Cabaret\""
    },
    {
        "col0": "What a Way to Live",
        "col1": "W. Nelson",
        "col2": "Willie Nelson",
        "col3": "174",
        "col4": "\"Misery Mansion\""
    },
    {
        "col0": "What a Way to Go",
        "col1": "R. Kennedy",
        "col2": "Ray Kennedy",
        "col3": "174",
        "col4": "\"The Storm\""
    },
    {
        "col0": "What a Waster",
        "col1": "P. Doherty",
        "col2": "The Libertines",
        "col3": "178",
        "col4": "\"I Get Along\""
    },
    {
        "col0": "What a Waste",
        "col1": "I. Dury",
        "col2": "Ian Dury",
        "col3": "205",
        "col4": "\"Wake Up and Make Love with Me\""
    },
    {
        "col0": "What a Man My Man Is",
        "col1": "G. Sutton",
        "col2": "Lynn Anderson",
        "col3": "135",
        "col4": "\"Everything's Falling in Place (For Me and You)\""
    },
    {
        "col0": "What a Fool Believes",
        "col1": "K. Loggins",
        "col2": "Matt Bianco",
        "col3": "221",
        "col4": "\"Don't Stop to Watch the Wheels\""
    },
    {
        "col0": "What a Diff'rence a Day Made",
        "col1": "M. Grever",
        "col2": "Dinah Washington",
        "col3": "151",
        "col4": "\"Come On Home\""
    },
    {
        "col0": "What a Crying Shame",
        "col1": "R. Malo",
        "col2": "The Mavericks",
        "col3": "230",
        "col4": "\"The Things You Said to Me\""
    },
    {
        "col0": "What You Won't Do for Love",
        "col1": "B. Caldwell",
        "col2": "Bobby Caldwell",
        "col3": "285",
        "col4": "\"Love Won't Wait\""
    },
    {
        "col0": "What You Want",
        "col1": "C. Mayfield",
        "col2": "Mase",
        "col3": "242",
        "col4": "\"What You Want\" (remix)"
    },
    {
        "col0": "What You Don't Know",
        "col1": "B. Mann",
        "col2": "Monrose",
        "col3": "225",
        "col4": "\"Say Yes\""
    },
    {
        "col0": "What You Don't Know",
        "col1": "L. Martinee",
        "col2": "Expose",
        "col3": "248",
        "col4": "\"Walk Along with Me\""
    },
    {
        "col0": "What You're Made of",
        "col1": "L. Silvas",
        "col2": "Lucie Silvas",
        "col3": "225",
        "col4": "\"Build Your World Around\""
    },
    {
        "col0": "What Would Your Memories Do",
        "col1": "H. Cochran",
        "col2": "Vern Gosdin",
        "col3": "168",
        "col4": "\"Love Me Right to the End\""
    },
    {
        "col0": "What We Really Want",
        "col1": "R. Cash",
        "col2": "Rosanne Cash",
        "col3": "209",
        "col4": "\"Portrait\""
    },
    {
        "col0": "What Was I Thinkin'",
        "col1": "D. Bentley",
        "col2": "Dierks Bentley",
        "col3": "261",
        "col4": "\"Whiskey Tears\""
    },
    {
        "col0": "What U See Is What U Get",
        "col1": "Xzibit",
        "col2": "Xzibit",
        "col3": "266",
        "col4": "\"3 Card Molly\""
    },
    {
        "col0": "What U Gon' Do",
        "col1": "L. Jon",
        "col2": "Lil Jon",
        "col3": "320",
        "col4": "Real Nigga Roll Call"
    },
    {
        "col0": "What They're Talkin' About",
        "col1": "R. Akins",
        "col2": "Rhett Akins",
        "col3": "207",
        "col4": "\"Heart to Heart\""
    },
    {
        "col0": "What She Wants",
        "col1": "K. Chater",
        "col2": "Michael Martin Murphey",
        "col3": "210",
        "col4": "\"Still Taking Chances\""
    },
    {
        "col0": "What She Is",
        "col1": "B. McDill",
        "col2": "Earl Thomas Conley",
        "col3": "245",
        "col4": "\"Carol\""
    },
    {
        "col0": "What She's Doing Now",
        "col1": "G. Brooks",
        "col2": "Garth Brooks",
        "col3": "206",
        "col4": "\"Friends in Low Places\""
    },
    {
        "col0": "What Part of No",
        "col1": "W. Perry",
        "col2": "Lorrie Morgan",
        "col3": "165",
        "col4": "\"You Leave Me Like This\""
    },
    {
        "col0": "What My Heart Wants to Say",
        "col1": "J. Elofsson",
        "col2": "Gareth Gates",
        "col3": "246",
        "col4": "\"Christmas to Remember\""
    },
    {
        "col0": "What My Baby Needs Now Is a Little More Lovin'",
        "col1": "D. Matthews",
        "col2": "James Brown",
        "col3": "174",
        "col4": "\"This Guy - This Girl's in Love\""
    },
    {
        "col0": "What Might Have Been",
        "col1": "B. Seals",
        "col2": "Little Texas",
        "col3": "238",
        "col4": "\"Stop on a Dime\""
    },
    {
        "col0": "What Mattered Most",
        "col1": "G. Burr",
        "col2": "Ty Herndon",
        "col3": "221",
        "col4": "\"You Don't Mess Around with Jim\""
    },
    {
        "col0": "What Makes a Good Man?",
        "col1": "T. Heavy",
        "col2": "The Heavy",
        "col3": "204",
        "col4": "\"In Your Hands\""
    },
    {
        "col0": "What Makes You Beautiful",
        "col1": "R. Yacoub",
        "col2": "One Direction",
        "col3": "203",
        "col4": "\"Na Na Na\""
    },
    {
        "col0": "What Made You Say That",
        "col1": "S. E. Munsey",
        "col2": "Shania Twain",
        "col3": "179",
        "col4": "\"Crime of the Century\""
    },
    {
        "col0": "What Kind of Man Would I Be?",
        "col1": "B. Caldwell",
        "col2": "Chicago",
        "col3": "261",
        "col4": "\"25 or 6 to 4\" (Remix)"
    },
    {
        "col0": "What Kind of Man",
        "col1": "F. Welch",
        "col2": "Florence and the Machine",
        "col3": "216",
        "col4": "\"As Far as I Could Get\""
    },
    {
        "col0": "What Kind of Love",
        "col1": "R. Crowell",
        "col2": "Rodney Crowell",
        "col3": "236",
        "col4": "\"Nobody's Going to Tear My Playhouse Down\""
    },
    {
        "col0": "What Kind of Fool",
        "col1": "L. Cartwright",
        "col2": "Lionel Cartwright",
        "col3": "231",
        "col4": "\"I'm Your Man\""
    },
    {
        "col0": "What Kind of Fool",
        "col1": "A. Galuten",
        "col2": "Barry Gibb",
        "col3": "246",
        "col4": "\"Make It Like A Memory\" (UK)"
    },
    {
        "col0": "What It Takes",
        "col1": "D. Child",
        "col2": "Aerosmith",
        "col3": "248",
        "col4": "\"Monkey on My Back\""
    },
    {
        "col0": "What It Feels Like for a Girl",
        "col1": "Madonna",
        "col2": "Madonna",
        "col3": "283",
        "col4": "\"Lo Que Siente La Mujer\""
    },
    {
        "col0": "What Is Love",
        "col1": "T. Hendrik",
        "col2": "Haddaway",
        "col3": "269",
        "col4": "\"Sing About Love\""
    },
    {
        "col0": "What Is Life",
        "col1": "G. Harrison",
        "col2": "George Harrison",
        "col3": "201",
        "col4": "\"Apple Scruffs\" (except UK)"
    },
    {
        "col0": "What If Jesus Comes Back Like That",
        "col1": "D. Johnson",
        "col2": "Collin Raye",
        "col3": "187",
        "col4": "\"The Time Machine\""
    },
    {
        "col0": "What If It's You",
        "col1": "R. E. Orrall",
        "col2": "Reba McEntire",
        "col3": "246",
        "col4": "\"Close to Crazy\""
    },
    {
        "col0": "What If I Said",
        "col1": "A. Cochran",
        "col2": "Anita Cochran",
        "col3": "294",
        "col4": "\"Daddy Can You See Me\""
    }
]