[
    {
        "col0": "Erkenntnis",
        "col1": "1650106",
        "col2": "1930",
        "col3": "915460912"
    },
    {
        "col0": "English Journal",
        "col1": "138274",
        "col2": "1912",
        "col3": "1325886"
    },
    {
        "col0": "Eighteenth-Century Studies",
        "col1": "132586",
        "col2": "1966",
        "col3": "33890369"
    },
    {
        "col0": "Economics & Sociology",
        "col1": "23063459",
        "col2": "2008",
        "col3": "852079699"
    },
    {
        "col0": "Economica",
        "col1": "130427",
        "col2": "1921",
        "col3": "47075577"
    },
    {
        "col0": "Economic Policy",
        "col1": "2664658",
        "col2": "1985",
        "col3": "463705996"
    },
    {
        "col0": "Economic Geography",
        "col1": "130095",
        "col2": "1925",
        "col3": "48533093"
    },
    {
        "col0": "Economic Development and Cultural Change",
        "col1": "130079",
        "col2": "1952",
        "col3": "1567393"
    },
    {
        "col0": "Econometrica",
        "col1": "129682",
        "col2": "1933",
        "col3": "1567366"
    },
    {
        "col0": "Ecology",
        "col1": "129658",
        "col2": "1920",
        "col3": "35698209"
    },
    {
        "col0": "Ecography",
        "col1": "9067590",
        "col2": "1978",
        "col3": "50102682"
    },
    {
        "col0": "Eastern Economic Journal",
        "col1": "945056",
        "col2": "1974",
        "col3": "42629270"
    },
    {
        "col0": "Early Music History",
        "col1": "2611279",
        "col2": "1981",
        "col3": "49342621"
    },
    {
        "col0": "Early Music",
        "col1": "3061078",
        "col2": "1973",
        "col3": "38949504"
    },
    {
        "col0": "ELH",
        "col1": "138304",
        "col2": "1934",
        "col3": "1567158"
    },
    {
        "col0": "ECS Journal of Solid State Science and Technology",
        "col1": "EJSSBG",
        "col2": "2012",
        "col3": "746499272"
    },
    {
        "col0": "Dumbarton Oaks Papers",
        "col1": "707546",
        "col2": "1941",
        "col3": "58423962"
    },
    {
        "col0": "Duke Law Journal",
        "col1": "127086",
        "col2": "1951",
        "col3": "1567016"
    },
    {
        "col0": "Dublin Historical Record",
        "col1": "126861",
        "col2": "1938",
        "col3": "400997691"
    },
    {
        "col0": "Diversity and Distributions",
        "col1": "13669516",
        "col2": "1993",
        "col3": "39848596"
    },
    {
        "col0": "Dialectical Anthropology",
        "col1": "3044092",
        "col2": "1975",
        "col3": "41559225"
    },
    {
        "col0": "Diacritics",
        "col1": "3007162",
        "col2": "1971",
        "col3": "31870435"
    },
    {
        "col0": "Design Issues",
        "col1": "7479360",
        "col2": "1984",
        "col3": "44910652"
    },
    {
        "col0": "Demography",
        "col1": "703370",
        "col2": "1964",
        "col3": "1566147"
    },
    {
        "col0": "Daedalus",
        "col1": "daedalus",
        "col2": "1955",
        "col3": "1565785"
    },
    {
        "col0": "Current History",
        "col1": "113530",
        "col2": "1914",
        "col3": "875826836"
    },
    {
        "col0": "Crustaceana",
        "col1": "0011216x",
        "col2": "1960",
        "col3": "1565523"
    },
    {
        "col0": "Critical Inquiry",
        "col1": "931896",
        "col2": "1974",
        "col3": "2241746"
    },
    {
        "col0": "Copeia",
        "col1": "458511",
        "col2": "1913",
        "col3": "1565060"
    },
    {
        "col0": "Contemporary Sociology",
        "col1": "943061",
        "col2": "1972",
        "col3": "958948"
    },
    {
        "col0": "Contemporary Literature",
        "col1": "107484",
        "col2": "1960",
        "col3": "2244753"
    },
    {
        "col0": "Congress on Research in Dance",
        "col1": "1497677",
        "col2": "1968",
        "col3": "60620743"
    },
    {
        "col0": "Computer Music Journal",
        "col1": "1489267",
        "col2": "1977",
        "col3": "41963634"
    },
    {
        "col0": "Comparative Studies in Society and History",
        "col1": "104175",
        "col2": "1958",
        "col3": "48536082"
    },
    {
        "col0": "Comparative Literature Studies",
        "col1": "104132",
        "col2": "1963",
        "col3": "42631267"
    },
    {
        "col0": "Columbia Law Review",
        "col1": "101958",
        "col2": "1901",
        "col3": "1564231"
    },
    {
        "col0": "Collectanea Hibernica",
        "col1": "5307058",
        "col2": "1958",
        "col3": "248557020"
    },
    {
        "col0": "Clogher Record",
        "col1": "4128079",
        "col2": "1953",
        "col3": "468008548"
    },
    {
        "col0": "Cinema Journal",
        "col1": "97101",
        "col2": "1967",
        "col3": "2244743"
    },
    {
        "col0": "Children, Youth and Environments",
        "col1": "15462250",
        "col2": "1984",
        "col3": "52938983"
    },
    {
        "col0": "Central European History",
        "col1": "89389",
        "col2": "1968",
        "col3": "47795498"
    },
    {
        "col0": "Canadian Journal of Economics",
        "col1": "84085",
        "col2": "1967",
        "col3": "50061154"
    },
    {
        "col0": "Canadian Journal of African Studies",
        "col1": "83968",
        "col2": "1967",
        "col3": "51205190"
    },
    {
        "col0": "Cambridge Journal of Economics",
        "col1": "0309166X",
        "col2": "1977",
        "col3": "3020038"
    },
    {
        "col0": "California Management Review",
        "col1": "81256",
        "col2": "1958",
        "col3": "5755713"
    },
    {
        "col0": "Cahiers d'Etudes africaines",
        "col1": "80055",
        "col2": "1960",
        "col3": "174145640"
    },
    {
        "col0": "Business and Professional Ethics Journal",
        "col1": "2772027",
        "col2": "1981",
        "col3": "7520096"
    },
    {
        "col0": "Business Ethics Quarterly",
        "col1": "1052150X",
        "col2": "1991",
        "col3": "38554432"
    },
    {
        "col0": "Bulletin of the Council for Research in Music Education",
        "col1": "109894",
        "col2": "1963",
        "col3": "1565242"
    },
    {
        "col0": "Buddhist-Christian Studies",
        "col1": "8820945",
        "col2": "1981",
        "col3": "42786144"
    },
    {
        "col0": "British Museum Quarterly",
        "col1": "0007151X",
        "col2": "1926",
        "col3": "300432851"
    },
    {
        "col0": "British Journal of Political Science",
        "col1": "71234",
        "col2": "1971",
        "col3": "863011750"
    },
    {
        "col0": "Boundary 2",
        "col1": "1903659",
        "col2": "1972",
        "col3": "1408678"
    },
    {
        "col0": "Black Music Research Journal",
        "col1": "2763605",
        "col2": "1980",
        "col3": "42810536"
    },
    {
        "col0": "Biotropica",
        "col1": "63606",
        "col2": "1966",
        "col3": "708279941"
    },
    {
        "col0": "Biometrika",
        "col1": "63444",
        "col2": "1901",
        "col3": "41669958"
    },
    {
        "col0": "Biometrics",
        "col1": "0006341X",
        "col2": "1945",
        "col3": "5898885"
    },
    {
        "col0": "Behavioral Ecology and Sociobiology",
        "col1": "3405443",
        "col2": "1976",
        "col3": "39604965"
    },
    {
        "col0": "Bach",
        "col1": "53600",
        "col2": "1970",
        "col3": "2092949"
    },
    {
        "col0": "Avian Diseases",
        "col1": "52086",
        "col2": "1957",
        "col3": "605197857"
    },
    {
        "col0": "Australian Quarterly",
        "col1": "50091",
        "col2": "1929",
        "col3": "1518860"
    },
    {
        "col0": "Asian Survey",
        "col1": "44687",
        "col2": "1961",
        "col3": "610384862"
    },
    {
        "col0": "Asian Ethnology",
        "col1": "18826865",
        "col2": "1942",
        "col3": "298239510"
    },
    {
        "col0": "Artificial Life",
        "col1": "10645462",
        "col2": "1993",
        "col3": "41177834"
    },
    {
        "col0": "Artibus Asiae",
        "col1": "43648",
        "col2": "1925",
        "col3": "61966661"
    },
    {
        "col0": "Aristotelian Society",
        "col1": "667374",
        "col2": "1888",
        "col3": "224535586"
    },
    {
        "col0": "Arctic Anthropology",
        "col1": "666939",
        "col2": "1962",
        "col3": "8690771"
    },
    {
        "col0": "Arctic, Antarctic, and Alpine Research",
        "col1": "15230430",
        "col2": "1969",
        "col3": "40558886"
    },
    {
        "col0": "Archivium Hibernicum",
        "col1": "448745",
        "col2": "1912",
        "col3": "448043079"
    },
    {
        "col0": "Archive for History of Exact Sciences",
        "col1": "39519",
        "col2": "1960",
        "col3": "243416476"
    },
    {
        "col0": "Annual Review of Sociology",
        "col1": "3600572",
        "col2": "1975",
        "col3": "2244366"
    },
    {
        "col0": "Annual Review of Anthropology",
        "col1": "846570",
        "col2": "1959",
        "col3": "1783647"
    }
]