[
    {
        "col0": "Vintage Wine",
        "col1": "R. Kemplen",
        "col2": "H. Edwards",
        "col3": "S. Hicks"
    },
    {
        "col0": "Vinnaithaandi Varuvaayaa",
        "col1": "Anthony",
        "col2": "G. V. Menon",
        "col3": "G. V. Menon"
    },
    {
        "col0": "Vincent & Theo",
        "col1": "G. Peroni",
        "col2": "R. Altman",
        "col3": "J. Mitchell"
    },
    {
        "col0": "Vinayakudu",
        "col1": "M. K. Venkatesh",
        "col2": "S. K. Adivi",
        "col3": "S. K. Adivi"
    },
    {
        "col0": "Villu Pattukaran",
        "col1": "B. Lenin",
        "col2": "G. Amaran",
        "col3": "G. Amaran"
    },
    {
        "col0": "Villu",
        "col1": "K. Bhaskar",
        "col2": "P. Deva",
        "col3": "P. Deva"
    },
    {
        "col0": "Villagelo Vinayakudu",
        "col1": "M. K. Venkatesh",
        "col2": "S. K. Adivi",
        "col3": "S. K. Adivi"
    },
    {
        "col0": "Village Tale",
        "col1": "W. Morgan",
        "col2": "J. Cromwell",
        "col3": "A. Scott"
    },
    {
        "col0": "Vilapangalkkappuram",
        "col1": "B. Paul",
        "col2": "T. V. Chandran",
        "col3": "T. V. Chandran"
    },
    {
        "col0": "Vikramarkudu",
        "col1": "K. V. Rao",
        "col2": "S. S. Rajamouli",
        "col3": "K. V. Vijayendra Prasad"
    },
    {
        "col0": "Vigilante Hideout",
        "col1": "R. M. Leeds",
        "col2": "F. C. Brannon",
        "col3": "R. Wormser"
    },
    {
        "col0": "Vigathakumaran",
        "col1": "J. C. Daniel",
        "col2": "J. C. Daniel",
        "col3": "J. C. Daniel"
    },
    {
        "col0": "Vient de paraA(r)tre",
        "col1": "R. Leboursier",
        "col2": "J. Houssin",
        "col3": "M. Duran"
    },
    {
        "col0": "Viennese Girls",
        "col1": "H. Wolff",
        "col2": "W. Forst",
        "col3": "W. Forst"
    },
    {
        "col0": "Vienna Tales",
        "col1": "A. Ludwig",
        "col2": "G. v. Bolvary",
        "col3": "E. Marischka"
    },
    {
        "col0": "Vienna Blood",
        "col1": "A. Heyne",
        "col2": "W. Forst",
        "col3": "E. Marischka"
    },
    {
        "col0": "Videodrome",
        "col1": "R. Sanders",
        "col2": "D. Cronenberg",
        "col3": "D. Cronenberg"
    },
    {
        "col0": "Videocracy",
        "col1": "J. Soderberg",
        "col2": "E. Gandini",
        "col3": "E. Gandini"
    },
    {
        "col0": "Victory Through Air Power",
        "col1": "J. Dennis",
        "col2": "J. Algar",
        "col3": "G. Stallings"
    },
    {
        "col0": "Victoria in Dover",
        "col1": "H. Leitner",
        "col2": "E. Marischka",
        "col3": "E. Marischka"
    },
    {
        "col0": "Victoria in Dover",
        "col1": "C. O. Bartning",
        "col2": "E. Engel",
        "col3": "E. Marischka"
    },
    {
        "col0": "Victor/Victoria",
        "col1": "R. E. Winters",
        "col2": "B. Edwards",
        "col3": "B. Edwards"
    },
    {
        "col0": "Vicky Cristina Barcelona",
        "col1": "A. Lepselter",
        "col2": "W. Allen",
        "col3": "W. Allen"
    },
    {
        "col0": "Vibes",
        "col1": "C. Littleton",
        "col2": "K. Kwapis",
        "col3": "B. Mandel"
    },
    {
        "col0": "Via Montenapoleone",
        "col1": "R. Mastroianni",
        "col2": "C. Vanzina",
        "col3": "C. Vanzina"
    },
    {
        "col0": "Via Mala",
        "col1": "W. Wischniewsky",
        "col2": "P. May",
        "col3": "J. Knittel"
    },
    {
        "col0": "Vexille",
        "col1": "F. Sori",
        "col2": "F. Sori",
        "col3": "F. Sori"
    },
    {
        "col0": "Vettam",
        "col1": "A. Kumar",
        "col2": "Priyadarshan",
        "col3": "Priyadarshan"
    },
    {
        "col0": "Vettaiyaadu Vilaiyaadu",
        "col1": "Anthony",
        "col2": "G. V. Menon",
        "col3": "G. V. Menon"
    },
    {
        "col0": "Vettaikaaran",
        "col1": "V. T. Vijayan",
        "col2": "B. Babusivan",
        "col3": "B. Babusivan"
    },
    {
        "col0": "Vettai",
        "col1": "Anthony",
        "col2": "N. Linguswamy",
        "col3": "N. Linguswamy"
    },
    {
        "col0": "Vetri Vizha",
        "col1": "B. Lenin",
        "col2": "P. K. Pothan",
        "col3": "P. K. Pothan"
    },
    {
        "col0": "Vetri Vinayagar",
        "col1": "K. Shankar",
        "col2": "K. Shankar",
        "col3": "K. Shankar"
    },
    {
        "col0": "Vetri Kodi Kattu",
        "col1": "B. Lenin",
        "col2": "Cheran",
        "col3": "Cheran"
    },
    {
        "col0": "Veteran",
        "col1": "K. Sang-bum",
        "col2": "R. Seung-wan",
        "col3": "R. Seung-wan"
    },
    {
        "col0": "Vetagaadu",
        "col1": "K. V. Rao",
        "col2": "K. R. Rao",
        "col3": "K. R. Rao"
    },
    {
        "col0": "Vessel of Wrath",
        "col1": "R. Hamer",
        "col2": "E. Pommer",
        "col3": "W. S. Maugham"
    },
    {
        "col0": "Very Good Girls",
        "col1": "D. Tichenor",
        "col2": "N. Foner",
        "col3": "N. Foner"
    },
    {
        "col0": "Vertical Limit",
        "col1": "T. Noble",
        "col2": "M. Campbell",
        "col3": "R. King"
    },
    {
        "col0": "Veronica Guerin",
        "col1": "D. Gamble",
        "col2": "J. Schumacher",
        "col3": "M. A. Donoghue"
    },
    {
        "col0": "Vermont Is for Lovers",
        "col1": "J. O'Brien",
        "col2": "J. O'Brien",
        "col3": "J. O'Brien"
    },
    {
        "col0": "Verdict of the Sea",
        "col1": "B. Bates",
        "col2": "S. Northcote",
        "col3": "F. Miller"
    },
    {
        "col0": "Verboten!",
        "col1": "P. Cahn",
        "col2": "S. Fuller",
        "col3": "S. Fuller"
    },
    {
        "col0": "Vera Drake",
        "col1": "J. Clark",
        "col2": "M. Leigh",
        "col3": "M. Leigh"
    },
    {
        "col0": "Venus on Trial",
        "col1": "G. Madl",
        "col2": "H. H. Zerlett",
        "col3": "H. H. Zerlett"
    },
    {
        "col0": "Venus in Fur",
        "col1": "H. d. Luze",
        "col2": "R. Polanski",
        "col3": "R. Polanski"
    },
    {
        "col0": "Venus Against the Son of Hercules",
        "col1": "M. Lucidi",
        "col2": "M. Baldi",
        "col3": "E. Gastaldi"
    },
    {
        "col0": "Venkalam",
        "col1": "B. Lenin",
        "col2": "Bharathan",
        "col3": "A. K. Lohithadas"
    },
    {
        "col0": "Venghai",
        "col1": "V. T. Vijayan",
        "col2": "Hari",
        "col3": "Hari"
    },
    {
        "col0": "Vengeful Heart",
        "col1": "V. Vu",
        "col2": "V. Vu",
        "col3": "V. Vu"
    },
    {
        "col0": "Vengeance Valley",
        "col1": "C. A. Nervig",
        "col2": "R. Thorpe",
        "col3": "I. Ravetch"
    },
    {
        "col0": "Vengeance",
        "col1": "M. d. Ochoa",
        "col2": "J. A. Bardem",
        "col3": "J. A. Bardem"
    },
    {
        "col0": "Venetian Honeymoon",
        "col1": "M. Lucidi",
        "col2": "A. Cavalcanti",
        "col3": "L. Vincenzoni"
    },
    {
        "col0": "Venetian Bird",
        "col1": "G. Thomas",
        "col2": "R. Thomas",
        "col3": "V. Canning"
    },
    {
        "col0": "Vendetta",
        "col1": "S. Gilmore",
        "col2": "P. Weatherwax",
        "col3": "P. Merimee"
    },
    {
        "col0": "Velvet Hands",
        "col1": "A. Siciliano",
        "col2": "C. &. Pipolo",
        "col3": "C. &. Pipolo"
    },
    {
        "col0": "Velvet Goldmine",
        "col1": "J. Lyons",
        "col2": "T. Haynes",
        "col3": "T. Haynes"
    },
    {
        "col0": "Velundu Vinaiyillai",
        "col1": "K. Shankar",
        "col2": "K. Shankar",
        "col3": "K. Shankar"
    },
    {
        "col0": "Vellaikaara Durai",
        "col1": "K. Te.",
        "col2": "Ezhil",
        "col3": "Ezhil"
    },
    {
        "col0": "Velayudham",
        "col1": "V. T. Vijayan",
        "col2": "M. Raja",
        "col3": "Subha"
    },
    {
        "col0": "Velai",
        "col1": "B. Lenin",
        "col2": "J. Suresh",
        "col3": "Balakumaran"
    },
    {
        "col0": "Vel",
        "col1": "V. T. Vijayan",
        "col2": "Hari",
        "col3": "Hari"
    },
    {
        "col0": "Veeram",
        "col1": "K. Viswanathan",
        "col2": "Siva",
        "col3": "Siva"
    },
    {
        "col0": "Veedu",
        "col1": "B. Mahendra",
        "col2": "B. Mahendra",
        "col3": "B. Mahendra"
    },
    {
        "col0": "Vedalam",
        "col1": "Ruben",
        "col2": "Siva",
        "col3": "Siva"
    },
    {
        "col0": "Vattaram",
        "col1": "S. Urs",
        "col2": "Saran",
        "col3": "Saran"
    },
    {
        "col0": "Vater sein dagegen sehr",
        "col1": "W. Wehrum",
        "col2": "K. Meisel",
        "col3": "H. Jacoby"
    },
    {
        "col0": "Vatel",
        "col1": "N. Boisson",
        "col2": "R. Joffe",
        "col3": "T. Stoppard"
    },
    {
        "col0": "Vasya",
        "col1": "A. Zagdansky",
        "col2": "A. Zagdansky",
        "col3": "A. Zagdansky"
    },
    {
        "col0": "Vasuvum Saravananum Onna Padichavanga",
        "col1": "V. Harshan",
        "col2": "M. Rajesh",
        "col3": "M. Rajesh"
    },
    {
        "col0": "Vasu",
        "col1": "M. K. Venkatesh",
        "col2": "A. Karunakaran",
        "col3": "T. Srinivas"
    },
    {
        "col0": "Vasool Raja MBBS",
        "col1": "S. Urs",
        "col2": "Saran",
        "col3": "C. Mohan"
    },
    {
        "col0": "Vaseegara",
        "col1": "V. T. Vijayan",
        "col2": "K. S. Bharathy",
        "col3": "K. S. Bharathy"
    },
    {
        "col0": "Vase de Noces",
        "col1": "T. Zeno",
        "col2": "T. Zeno",
        "col3": "T. Zeno"
    },
    {
        "col0": "Vasanthakala Paravai",
        "col1": "B. Lenin",
        "col2": "Pavithran",
        "col3": "Pavithran"
    },
    {
        "col0": "Vasantam",
        "col1": "M. K. Venkatesh",
        "col2": "Vikraman",
        "col3": "Vikraman"
    },
    {
        "col0": "Varudu",
        "col1": "Anthony",
        "col2": "Gunasekhar",
        "col3": "Gunasekhar"
    },
    {
        "col0": "Varsity Show",
        "col1": "G. Amy",
        "col2": "W. Keighley",
        "col3": "W. Duff"
    },
    {
        "col0": "Variety Girl",
        "col1": "L. Stone",
        "col2": "G. Marshall",
        "col3": "F. Tashlin"
    },
    {
        "col0": "Variety",
        "col1": "D. Birt",
        "col2": "A. Brunel",
        "col3": "A. Brunel"
    },
    {
        "col0": "Vargam",
        "col1": "R. Abraham",
        "col2": "M. Padmakumar",
        "col3": "M. Padmakumar"
    },
    {
        "col0": "Vara: A Blessing",
        "col1": "W. Chang",
        "col2": "K. Norbu",
        "col3": "K. Norbu"
    },
    {
        "col0": "Vanya on 42nd Street",
        "col1": "N. Baker",
        "col2": "L. Malle",
        "col3": "A. Gregory"
    },
    {
        "col0": "Vantage Point",
        "col1": "S. Baird",
        "col2": "P. Travis",
        "col3": "B. Levy"
    },
    {
        "col0": "Vanna Vanna Pookkal",
        "col1": "B. Mahendra",
        "col2": "B. Mahendra",
        "col3": "B. Mahendra"
    },
    {
        "col0": "Vanishing of the Bees",
        "col1": "W. Gazecki",
        "col2": "M. Henein",
        "col3": "M. Henein"
    },
    {
        "col0": "Vanilla Sky",
        "col1": "J. Hutshing",
        "col2": "C. Crowe",
        "col3": "C. Crowe"
    },
    {
        "col0": "Vandhaan Vendraan",
        "col1": "V. T. Vijayan",
        "col2": "R. Kannan",
        "col3": "R. Kannan"
    },
    {
        "col0": "Vanaprastham",
        "col1": "A. S. Prasad",
        "col2": "S. N. Karun",
        "col3": "S. N. Karun"
    },
    {
        "col0": "Vanaja Girija",
        "col1": "B. Lenin",
        "col2": "K. Ramaiah",
        "col3": "P. Arunachalam"
    },
    {
        "col0": "Vanaja",
        "col1": "R. Q. Lovett",
        "col2": "R. Domalpalli",
        "col3": "R. Domalpalli"
    },
    {
        "col0": "Vana Yuddham",
        "col1": "Anthony",
        "col2": "A. M. R. Ramesh",
        "col3": "A. M. R. Ramesh"
    },
    {
        "col0": "Van de koele meren des doods",
        "col1": "E. Burcksen",
        "col2": "N. v. Brakel",
        "col3": "N. v. Brakel"
    },
    {
        "col0": "Van Nuys Blvd.",
        "col1": "G. Bowers",
        "col2": "W. Sachs",
        "col3": "W. Sachs"
    },
    {
        "col0": "Van Helsing",
        "col1": "B. Ducsay",
        "col2": "S. Sommers",
        "col3": "S. Sommers"
    },
    {
        "col0": "Van Gogh",
        "col1": "A. Resnais",
        "col2": "A. Resnais",
        "col3": "G. Diehl"
    },
    {
        "col0": "Vamsi",
        "col1": "K. V. Rao",
        "col2": "B. Gopal",
        "col3": "P. Brothers"
    },
    {
        "col0": "Vampyr",
        "col1": "C. T. Dreyer",
        "col2": "C. T. Dreyer",
        "col3": "C. T. Dreyer"
    },
    {
        "col0": "Vampire in Brooklyn",
        "col1": "P. Lussier",
        "col2": "W. Craven",
        "col3": "C. Murphy"
    },
    {
        "col0": "Vampire Noir",
        "col1": "S. Shaw",
        "col2": "S. Shaw",
        "col3": "S. Shaw"
    },
    {
        "col0": "Vampire Blvd.",
        "col1": "S. Shaw",
        "col2": "S. Shaw",
        "col3": "S. Shaw"
    },
    {
        "col0": "Value for Money",
        "col1": "G. Foot",
        "col2": "K. Annakin",
        "col3": "R. F. Delderfield"
    },
    {
        "col0": "Valmont",
        "col1": "A. Heim",
        "col2": "M. Forman",
        "col3": "M. Forman"
    },
    {
        "col0": "Vallinam",
        "col1": "V J Sabu Joseph",
        "col2": "A. Venkatachalam",
        "col3": "A. Venkatachalam"
    },
    {
        "col0": "Valley of the Kings",
        "col1": "H. F. Kress",
        "col2": "R. Pirosh",
        "col3": "R. Pirosh"
    },
    {
        "col0": "Valley of the Dolls",
        "col1": "D. Spencer",
        "col2": "M. Robson",
        "col3": "H. Ellison"
    },
    {
        "col0": "Valley of Eagles",
        "col1": "L. Carruthers",
        "col2": "T. Young",
        "col3": "T. Young"
    },
    {
        "col0": "Vallavan",
        "col1": "Anthony",
        "col2": "Silambarasan",
        "col3": "Silambarasan"
    },
    {
        "col0": "Vallal",
        "col1": "B. Lenin",
        "col2": "R. Kapoor",
        "col3": "R. Kapoor"
    },
    {
        "col0": "Valiant Is the Word for Carrie",
        "col1": "O. Lovering",
        "col2": "W. Ruggles",
        "col3": "C. Binyon"
    },
    {
        "col0": "Valentin",
        "col1": "A. Brodersohn",
        "col2": "A. Agresti",
        "col3": "A. Agresti"
    },
    {
        "col0": "Valentino",
        "col1": "S. Baird",
        "col2": "K. Russell",
        "col3": "K. Russell"
    },
    {
        "col0": "Valentine's Day",
        "col1": "B. Green",
        "col2": "G. Marshall",
        "col3": "K. Fugate"
    },
    {
        "col0": "Valentina",
        "col1": "A. Rampoldi",
        "col2": "M. Romero",
        "col3": "M. Romero"
    },
    {
        "col0": "Valentin",
        "col1": "A. Brodersohn",
        "col2": "A. Agresti",
        "col3": "A. Agresti"
    },
    {
        "col0": "Valediction",
        "col1": "D. Kahia",
        "col2": "D. Kahia",
        "col3": "D. Kahia"
    },
    {
        "col0": "Vakkalathu Narayanankutty",
        "col1": "S. Prasad",
        "col2": "T. K. Rajeev Kumar",
        "col3": "T. K. Rajeev Kumar"
    },
    {
        "col0": "Vaisali",
        "col1": "Bharathan",
        "col2": "Bharathan",
        "col3": "M. T. Vasudevan Nair"
    },
    {
        "col0": "Vai avanti tu che mi vien da ridere",
        "col1": "A. Siciliano",
        "col2": "G. Capitani",
        "col3": "S. Nasca"
    },
    {
        "col0": "Vai Raja Vai",
        "col1": "V. T. Vijayan",
        "col2": "A. R. Dhanush",
        "col3": "A. R. Dhanush"
    },
    {
        "col0": "Vagabond Lady",
        "col1": "B. W. Burton",
        "col2": "S. Taylor",
        "col3": "F. Butler"
    },
    {
        "col0": "Vagabond",
        "col1": "A. Varda",
        "col2": "A. Varda",
        "col3": "A. Varda"
    },
    {
        "col0": "Vacationland",
        "col1": "T. Verow",
        "col2": "T. Verow",
        "col3": "T. Verow"
    },
    {
        "col0": "Vacation with a Gangster",
        "col1": "F. Fraticelli",
        "col2": "D. Risi",
        "col3": "D. Risi"
    },
    {
        "col0": "Vacanze in America",
        "col1": "R. Crociani",
        "col2": "C. Vanzina",
        "col3": "C. Vanzina"
    },
    {
        "col0": "Vacanze di Natale '90",
        "col1": "R. Crociani",
        "col2": "E. Oldoini",
        "col3": "F. Ferrini"
    },
    {
        "col0": "Vacanze di Natale",
        "col1": "R. Crociani",
        "col2": "C. Vanzina",
        "col3": "C. Vanzina"
    }
]