[
    {
        "col0": "Virginia Tech",
        "col1": "T. D. Sands",
        "col2": "Chicagomaroonandburnt orange",
        "col3": "817800000",
        "col4": "30598"
    },
    {
        "col0": "Virginia Commonwealth University",
        "col1": "M. Rao",
        "col2": "BlackandGold",
        "col3": "1638000000",
        "col4": "31242"
    },
    {
        "col0": "Villanova University",
        "col1": "P. M. Donohue",
        "col2": "Blueand White",
        "col3": "564000000",
        "col4": "10482"
    },
    {
        "col0": "Valparaiso University",
        "col1": "M. A. Heckler",
        "col2": "Brown and Gold",
        "col3": "204000000",
        "col4": "4500"
    },
    {
        "col0": "Utah State University",
        "col1": "S. L. Albrecht",
        "col2": "Aggie Blue and White",
        "col3": "314600000",
        "col4": "28622"
    },
    {
        "col0": "University of the Philippines Los Banos",
        "col1": "A. E. Pascual",
        "col2": "15px|borderUP MaroonandUP Forest Green",
        "col3": "3000000000",
        "col4": "13710"
    },
    {
        "col0": "University of the Philippines",
        "col1": "A. E. Pascual",
        "col2": "UP Maroon,UP Forest Green",
        "col3": "9520000000",
        "col4": "60889"
    },
    {
        "col0": "University of West Florida",
        "col1": "J. A. Bense",
        "col2": "Blue and Green",
        "col3": "55900000",
        "col4": "12798"
    },
    {
        "col0": "University of Washington",
        "col1": "A. M. Cauce",
        "col2": "Purple & Gold",
        "col3": "3076000000",
        "col4": "45213"
    },
    {
        "col0": "University of Virginia",
        "col1": "T. A. Sullivan",
        "col2": "Blue and Orange",
        "col3": "7530000000",
        "col4": "21985"
    },
    {
        "col0": "University of Victoria",
        "col1": "Q. Counsel",
        "col2": "Blue",
        "col3": "374000000",
        "col4": "21209"
    },
    {
        "col0": "University of Utah",
        "col1": "Ph.D.",
        "col2": "University Red, Black, Gray",
        "col3": "1023000000",
        "col4": "31673"
    },
    {
        "col0": "University of Tulsa",
        "col1": "S. Upham",
        "col2": "Royal blue, old gold, and crimson",
        "col3": "1037000000",
        "col4": "4352"
    },
    {
        "col0": "University of Toledo",
        "col1": "S. Gaber",
        "col2": "Rocket gold & Tower blue",
        "col3": "416200000",
        "col4": "23085"
    },
    {
        "col0": "University of Texas-Pan American",
        "col1": "H. Rodriguez",
        "col2": "Green and Orange",
        "col3": "65000000",
        "col4": "20053"
    },
    {
        "col0": "University of Texas at San Antonio",
        "col1": "R. Romo",
        "col2": "Blue & Orange",
        "col3": "133900000",
        "col4": "26537"
    },
    {
        "col0": "University of Texas at El Paso",
        "col1": "D. Natalicio",
        "col2": "Orange, Blue, & Silver",
        "col3": "151200713",
        "col4": "23003"
    },
    {
        "col0": "University of Texas at Austin",
        "col1": "G. L. Fenves",
        "col2": "Burnt orangeand white",
        "col3": "3270000000",
        "col4": "50950"
    },
    {
        "col0": "University of Texas at Arlington",
        "col1": "V. Karbhari",
        "col2": "Orange, Blue",
        "col3": "127300000",
        "col4": "37008"
    },
    {
        "col0": "University of Texas Rio Grande Valley",
        "col1": "G. Bailey",
        "col2": "Orange, Gray, Green, & Navy",
        "col3": "46130000",
        "col4": "28584"
    },
    {
        "col0": "University of Texas-Pan American",
        "col1": "H. Rodriguez",
        "col2": "Green and Orange",
        "col3": "65000000",
        "col4": "20053"
    },
    {
        "col0": "University of St. Thomas",
        "col1": "R. Ivany",
        "col2": "Red and Gold",
        "col3": "78360000",
        "col4": "3711"
    },
    {
        "col0": "University of St. Thomas",
        "col1": "J. Sullivan",
        "col2": "Purple & Gray",
        "col3": "458000000",
        "col4": "10229"
    },
    {
        "col0": "University of Southern Indiana",
        "col1": "Linda L. M. Bennett",
        "col2": "Red, White, Blue",
        "col3": "103000000",
        "col4": "10929"
    },
    {
        "col0": "University of Southern California",
        "col1": "C. L. Max Nikias",
        "col2": "Cardinalandgold",
        "col3": "4710000000",
        "col4": "42469"
    },
    {
        "col0": "University of South Florida",
        "col1": "J. Genshaft",
        "col2": "Green and Gold",
        "col3": "417000000",
        "col4": "48793"
    },
    {
        "col0": "University of South Dakota",
        "col1": "J. W. Abbott",
        "col2": "Red and White",
        "col3": "213560000",
        "col4": "9971"
    },
    {
        "col0": "University of South Carolina",
        "col1": "H. Pastides",
        "col2": "Garnet and Black",
        "col3": "625186000",
        "col4": "33575"
    },
    {
        "col0": "University of Scranton",
        "col1": "S. o. Jesus",
        "col2": "PurpleandWhite",
        "col3": "170000000",
        "col4": "5422"
    },
    {
        "col0": "University of Richmond",
        "col1": "R. Crutcher",
        "col2": "UR Blue and UR Red",
        "col3": "2372000000",
        "col4": "4180"
    },
    {
        "col0": "University of Pennsylvania",
        "col1": "A. Gutmann",
        "col2": "Red and Blue",
        "col3": "10700000000",
        "col4": "24876"
    },
    {
        "col0": "University of Oregon",
        "col1": "M. H. Schill",
        "col2": "Green and Yellow",
        "col3": "753000000",
        "col4": "24125"
    },
    {
        "col0": "University of Oklahoma",
        "col1": "D. L. Boren",
        "col2": "Oklahoma Cream",
        "col3": "1523000000",
        "col4": "30824"
    },
    {
        "col0": "University of Notre Dame",
        "col1": "J. I. Jenkins",
        "col2": "Blue and Gold",
        "col3": "10000000000",
        "col4": "12179"
    },
    {
        "col0": "University of Northern Colorado",
        "col1": "K. Norton",
        "col2": "Navy blue and gold",
        "col3": "81490000",
        "col4": "12084"
    },
    {
        "col0": "University of North Texas",
        "col1": "N. Smatresk",
        "col2": "Green, White and Black",
        "col3": "143400000",
        "col4": "37973"
    },
    {
        "col0": "University of North Georgia",
        "col1": "B. Jacobs",
        "col2": "Blue and Gold",
        "col3": "27055895",
        "col4": "16064"
    },
    {
        "col0": "University of North Florida",
        "col1": "J. Delaney",
        "col2": "Blue and gray",
        "col3": "94884000",
        "col4": "16134"
    },
    {
        "col0": "University of North Dakota",
        "col1": "M. Kennedy",
        "col2": "Green, Pink",
        "col3": "230500000",
        "col4": "14906"
    },
    {
        "col0": "University of New Mexico",
        "col1": "R. G. Frank",
        "col2": "Cherry, Silver",
        "col3": "403700000",
        "col4": "27353"
    },
    {
        "col0": "University of New Hampshire",
        "col1": "M. Huddleston",
        "col2": "Blue and White",
        "col3": "336000000",
        "col4": "15340"
    },
    {
        "col0": "University of New Brunswick",
        "col1": "E. Campbell",
        "col2": "red&black",
        "col3": "248000000",
        "col4": "9706"
    },
    {
        "col0": "University of Minnesota",
        "col1": "E. W. Kaler",
        "col2": "Maroon & Gold",
        "col3": "3297000000",
        "col4": "48231"
    },
    {
        "col0": "University of Michigan-Flint",
        "col1": "M. S. Schlissel",
        "col2": "Maize and Blue",
        "col3": "63350000",
        "col4": "8289"
    },
    {
        "col0": "University of Michigan-Dearborn",
        "col1": "M. Schlissel",
        "col2": "Maize and Blue",
        "col3": "30290000",
        "col4": "9193"
    },
    {
        "col0": "University of Michigan-Flint",
        "col1": "M. S. Schlissel",
        "col2": "Maize and Blue",
        "col3": "63350000",
        "col4": "8289"
    },
    {
        "col0": "University of Michigan-Dearborn",
        "col1": "M. Schlissel",
        "col2": "Maize and Blue",
        "col3": "30290000",
        "col4": "9193"
    },
    {
        "col0": "University of Michigan",
        "col1": "M. Schlissel",
        "col2": "Maize and Blue",
        "col3": "10260000000",
        "col4": "43625"
    },
    {
        "col0": "University of Miami",
        "col1": "J. Frenk",
        "col2": "Green, Orange, White",
        "col3": "887300000",
        "col4": "16848"
    },
    {
        "col0": "University of Massachusetts Boston",
        "col1": "M. Meehan",
        "col2": "UMass Boston Blue",
        "col3": "78900000",
        "col4": "16756"
    },
    {
        "col0": "University of Maryland, College Park",
        "col1": "W. Loh",
        "col2": "Red, gold, black, white",
        "col3": "283100000",
        "col4": "38140"
    },
    {
        "col0": "University of Maryland, Baltimore County",
        "col1": "Freeman A. Hrabowski III",
        "col2": "Black, Gold, Red, White",
        "col3": "75000000",
        "col4": "13839"
    },
    {
        "col0": "University of Mary Washington",
        "col1": "T. Paino",
        "col2": "Navy Blue and Gray",
        "col3": "41400000",
        "col4": "4831"
    },
    {
        "col0": "University of Mary Hardin-Baylor",
        "col1": "D. o. Education",
        "col2": "Purple, White and Gold",
        "col3": "59550762",
        "col4": "3898"
    },
    {
        "col0": "University of Maine",
        "col1": "S. J. Hunter",
        "col2": "Dark blue, Light blue, and White",
        "col3": "285000000",
        "col4": "10922"
    },
    {
        "col0": "University of Louisiana at Monroe",
        "col1": "N. Bruno",
        "col2": "Maroon and Gold",
        "col3": "23157741",
        "col4": "8854"
    },
    {
        "col0": "University of Kentucky",
        "col1": "E. Capilouto",
        "col2": "Blue and white",
        "col3": "1143000000",
        "col4": "30720"
    },
    {
        "col0": "University of Iowa",
        "col1": "B. Harreld",
        "col2": "Black, Gold",
        "col3": "1263000000",
        "col4": "33334"
    },
    {
        "col0": "University of Idaho",
        "col1": "C. Staben",
        "col2": "Gold, Silver",
        "col3": "241000000",
        "col4": "10474"
    },
    {
        "col0": "University of Houston-Clear Lake",
        "col1": "W. A. Staples",
        "col2": "Blue and green",
        "col3": "22600000",
        "col4": "8628"
    },
    {
        "col0": "University of Houston",
        "col1": "R. Khator",
        "col2": "Scarlet red and albino white",
        "col3": "716400000",
        "col4": "42704"
    },
    {
        "col0": "University of Guam",
        "col1": "R. A. Underwood",
        "col2": "Green and white",
        "col3": "13500000",
        "col4": "3387"
    },
    {
        "col0": "University of Georgia",
        "col1": "J. Morehead",
        "col2": "Red and Black",
        "col3": "1004000000",
        "col4": "35197"
    },
    {
        "col0": "University of Florida",
        "col1": "W. K. Fuchs",
        "col2": "Orange and Blue",
        "col3": "1550000000",
        "col4": "52519"
    },
    {
        "col0": "University of Dubuque",
        "col1": "J. Bullock",
        "col2": "Royal BlueandWhite",
        "col3": "101000000",
        "col4": "1559"
    },
    {
        "col0": "University of Delaware",
        "col1": "D. Assanis",
        "col2": "Delaware blue, Delaware yellow",
        "col3": "1341000000",
        "col4": "22852"
    },
    {
        "col0": "University of Connecticut",
        "col1": "S. Herbst",
        "col2": "Navy blue, White and Gray",
        "col3": "436900000",
        "col4": "31624"
    },
    {
        "col0": "University of Colorado Denver",
        "col1": "B. D. Benson",
        "col2": "Black and Gold",
        "col3": "593000000",
        "col4": "18000"
    },
    {
        "col0": "University of Colorado Colorado Springs",
        "col1": "B. D. Benson",
        "col2": "Black & Gold",
        "col3": "1500000000",
        "col4": "12885"
    },
    {
        "col0": "University of Colorado Boulder",
        "col1": "B. D. Benson",
        "col2": "Gold,black, andsilver",
        "col3": "1090000000",
        "col4": "32201"
    },
    {
        "col0": "University of Chicago",
        "col1": "R. J. Zimmer",
        "col2": "Maroon and White",
        "col3": "7550000000",
        "col4": "15726"
    },
    {
        "col0": "University of Central Oklahoma",
        "col1": "D. Betz",
        "col2": "Blue and Bronze",
        "col3": "28470000",
        "col4": "16910"
    },
    {
        "col0": "University of Central Florida",
        "col1": "J. Hitt",
        "col2": "Black and Gold",
        "col3": "155500000",
        "col4": "63016"
    },
    {
        "col0": "University of California",
        "col1": "J. Napolitano",
        "col2": "Blue & Gold",
        "col3": "14267000000",
        "col4": "238700"
    },
    {
        "col0": "University of British Columbia",
        "col1": "S. J. Ono",
        "col2": "Blue and Gold",
        "col3": "1800000000",
        "col4": "61113"
    },
    {
        "col0": "University of Arizona",
        "col1": "A. W. Hart",
        "col2": "UA Red and Arizona Blue",
        "col3": "673300000",
        "col4": "40621"
    },
    {
        "col0": "University of Alabama in Huntsville",
        "col1": "R. Altenkirch",
        "col2": "Royal blue and white",
        "col3": "70000000",
        "col4": "8496"
    },
    {
        "col0": "University of Alabama at Birmingham",
        "col1": "R. L. Watts",
        "col2": "Green & White & Gold",
        "col3": "424500000",
        "col4": "18568"
    },
    {
        "col0": "University of Alabama",
        "col1": "S. R. Bell",
        "col2": "Crimson & White",
        "col3": "659000000",
        "col4": "37665"
    },
    {
        "col0": "University at Buffalo",
        "col1": "S. K. Tripathi",
        "col2": "Blue and White",
        "col3": "619300000",
        "col4": "29806"
    },
    {
        "col0": "Tufts University",
        "col1": "A. Monaco",
        "col2": "Tufts Blueand brown",
        "col3": "1593000000",
        "col4": "10659"
    },
    {
        "col0": "Trevecca Nazarene University",
        "col1": "D. Boone",
        "col2": "Purpleandwhite",
        "col3": "22300000",
        "col4": "3221"
    },
    {
        "col0": "Transylvania University",
        "col1": "S. Carey",
        "col2": "Crimson",
        "col3": "168900000",
        "col4": "1110"
    },
    {
        "col0": "Towson University",
        "col1": "K. Schatzel",
        "col2": "Black and Gold",
        "col3": "71000000",
        "col4": "22285"
    },
    {
        "col0": "Touro College",
        "col1": "A. Kadish",
        "col2": "Blue and White",
        "col3": "14000000",
        "col4": "18000"
    },
    {
        "col0": "The New School",
        "col1": "David E. Van Zandt",
        "col2": "White, Black, and Parsons Red",
        "col3": "300000000",
        "col4": "10186"
    },
    {
        "col0": "The Evergreen State College",
        "col1": "G. S. Bridges",
        "col2": "Green & White",
        "col3": "8944355",
        "col4": "4509"
    },
    {
        "col0": "The College of New Jersey",
        "col1": "R. B. Gitenstein",
        "col2": "TCNJ Blue & TCNJ Gold",
        "col3": "33200000",
        "col4": "7340"
    },
    {
        "col0": "The Citadel, The Military College of South Carolina",
        "col1": "J. W. Rosa",
        "col2": "Citadel Blue and White",
        "col3": "254300000",
        "col4": "3506"
    },
    {
        "col0": "Texas A&M University-Kingsville",
        "col1": "S. H. Tallant",
        "col2": "Blue and Gold",
        "col3": "35000000",
        "col4": "8783"
    },
    {
        "col0": "Texas A&M University-Commerce",
        "col1": "R. Keck",
        "col2": "Blue and Gold",
        "col3": "20000000",
        "col4": "12302"
    },
    {
        "col0": "Texas A&M University at Qatar",
        "col1": "M. K. Young",
        "col2": "Maroon and white",
        "col3": "5600000000",
        "col4": "542"
    },
    {
        "col0": "Texas A&M University-Kingsville",
        "col1": "S. H. Tallant",
        "col2": "Blue and Gold",
        "col3": "35000000",
        "col4": "8783"
    },
    {
        "col0": "Texas A&M University-Commerce",
        "col1": "R. Keck",
        "col2": "Blue and Gold",
        "col3": "20000000",
        "col4": "12302"
    },
    {
        "col0": "Texas A&M University",
        "col1": "M. K. Young",
        "col2": "Maroon and white",
        "col3": "4690000000",
        "col4": "64376"
    },
    {
        "col0": "Technion - Israel Institute of Technology",
        "col1": "P. Lavie",
        "col2": "Blue and White",
        "col3": "1600000000",
        "col4": "13703"
    },
    {
        "col0": "Stony Brook University",
        "col1": "S. L. Stanley",
        "col2": "Red and Black",
        "col3": "247400000",
        "col4": "310"
    },
    {
        "col0": "Stevens Institute of Technology",
        "col1": "N. Farvardin",
        "col2": "Gray",
        "col3": "174000000",
        "col4": "6125"
    },
    {
        "col0": "Stetson University",
        "col1": "W. B. Libby",
        "col2": "Green and White",
        "col3": "207800000",
        "col4": "4330"
    },
    {
        "col0": "State University of New York College of Environmental Science and Forestry",
        "col1": "Q. D. Wheeler",
        "col2": "green, white & gold",
        "col3": "22000000",
        "col4": "2778"
    },
    {
        "col0": "Stanford University",
        "col1": "M. Tessier-Lavigne",
        "col2": "Cardinal and white",
        "col3": "22200000000",
        "col4": "15877"
    },
    {
        "col0": "St. Francis College",
        "col1": "B. J. Dugan",
        "col2": "BlueandRed",
        "col3": "77536000",
        "col4": "2749"
    },
    {
        "col0": "St. Catherine University",
        "col1": "Sisters, Servants of the Immaculate Heart of Mary",
        "col2": "Purple and Gold",
        "col3": "74800000",
        "col4": "5055"
    },
    {
        "col0": "Spelman College",
        "col1": "M. S. Campbell",
        "col2": "Columbia Blue and White",
        "col3": "367000000",
        "col4": "2204"
    },
    {
        "col0": "Southern New Hampshire University",
        "col1": "P. LeBlanc",
        "col2": "Blue and Gold",
        "col3": "16700000",
        "col4": "3898"
    },
    {
        "col0": "Southern Methodist University",
        "col1": "R. G. Turner",
        "col2": "SMU red and SMU blue",
        "col3": "1505000000",
        "col4": "11643"
    },
    {
        "col0": "Southern Illinois University Edwardsville",
        "col1": "R. Dunn",
        "col2": "Red and White",
        "col3": "16400000",
        "col4": "14142"
    },
    {
        "col0": "Southern Illinois University Carbondale",
        "col1": "R. Dunn",
        "col2": "Maroon and White",
        "col3": "111615802",
        "col4": "15987"
    },
    {
        "col0": "South Dakota School of Mines and Technology",
        "col1": "H. Wilson",
        "col2": "Blue & Old Gold",
        "col3": "34000000",
        "col4": "2311"
    },
    {
        "col0": "Smith College",
        "col1": "K. McCartney",
        "col2": "Blue with gold trim",
        "col3": "1782000000",
        "col4": "2874"
    },
    {
        "col0": "Skidmore College",
        "col1": "P. A. Glotzbach",
        "col2": "Green and Yellow",
        "col3": "330600000",
        "col4": "2646"
    },
    {
        "col0": "Simon Fraser University",
        "col1": "A. Petter",
        "col2": "Red, blue, and grey",
        "col3": "402000000",
        "col4": "34990"
    },
    {
        "col0": "Seminole State College of Florida",
        "col1": "Ed.D.",
        "col2": "BlueandGold",
        "col3": "12670000",
        "col4": "32771"
    },
    {
        "col0": "Seattle University",
        "col1": "S. o. Jesus",
        "col2": "Red and White",
        "col3": "210600000",
        "col4": "7755"
    },
    {
        "col0": "Santa Clara University",
        "col1": "M. Engh",
        "col2": "Redandwhite",
        "col3": "884700000",
        "col4": "8770"
    },
    {
        "col0": "San Francisco State University",
        "col1": "L. E. Wong",
        "col2": "Purple and Gold",
        "col3": "67700000",
        "col4": "30256"
    },
    {
        "col0": "San Diego Continuing Education",
        "col1": "Ph.D.",
        "col2": "Bright Green,Light BlueandYellow",
        "col3": "60500000",
        "col4": "40000"
    },
    {
        "col0": "Samford University",
        "col1": "A. Westmoreland",
        "col2": "Blue and Red",
        "col3": "259500000",
        "col4": "5206"
    },
    {
        "col0": "Sam Houston State University",
        "col1": "D. G. Hoyt",
        "col2": "Orange, White",
        "col3": "97510000",
        "col4": "20181"
    },
    {
        "col0": "Saint Louis University",
        "col1": "F. Pestello",
        "col2": "Blue and White",
        "col3": "1020000000",
        "col4": "13505"
    },
    {
        "col0": "Saint Leo University",
        "col1": "William J. Lennox, Jr.",
        "col2": "GreenandGold",
        "col3": "43682218",
        "col4": "16275"
    },
    {
        "col0": "Saint Joseph's University",
        "col1": "M. Reed",
        "col2": "Crimson and Gray",
        "col3": "216000000",
        "col4": "8629"
    },
    {
        "col0": "Saint Anselm College",
        "col1": "S. DiSalvo",
        "col2": "Navy and White",
        "col3": "126300000",
        "col4": "1954"
    },
    {
        "col0": "Rutgers University-Newark",
        "col1": "R. L. Barchi",
        "col2": "Scarlet",
        "col3": "603000000",
        "col4": "11314"
    },
    {
        "col0": "Rutgers University-Camden",
        "col1": "R. L. Barchi",
        "col2": "Scarlet",
        "col3": "603000000",
        "col4": "6158"
    },
    {
        "col0": "Rutgers University - New Brunswick",
        "col1": "R. L. Barchi",
        "col2": "Scarlet",
        "col3": "1009000000",
        "col4": "41565"
    },
    {
        "col0": "Rutgers University-Newark",
        "col1": "R. L. Barchi",
        "col2": "Scarlet",
        "col3": "603000000",
        "col4": "11314"
    },
    {
        "col0": "Rutgers University-Camden",
        "col1": "R. L. Barchi",
        "col2": "Scarlet",
        "col3": "603000000",
        "col4": "6158"
    },
    {
        "col0": "Rutgers University",
        "col1": "R. Barchi",
        "col2": "Scarlet",
        "col3": "1002000000",
        "col4": "67000"
    },
    {
        "col0": "Roger Williams University",
        "col1": "D. J. Farish",
        "col2": "Royal Blue, Gold, and White",
        "col3": "62700000",
        "col4": "4416"
    },
    {
        "col0": "Rockhurst University",
        "col1": "T. Curran",
        "col2": "Blue and white",
        "col3": "34700000",
        "col4": "2801"
    },
    {
        "col0": "Rochester Institute of Technology",
        "col1": "W. W. Destler",
        "col2": "Brown and Orange",
        "col3": "761900000",
        "col4": "16842"
    },
    {
        "col0": "Rice University",
        "col1": "D. Leebron",
        "col2": "Blue and gray",
        "col3": "5557000000",
        "col4": "6623"
    },
    {
        "col0": "Rensselaer Polytechnic Institute",
        "col1": "S. A. Jackson",
        "col2": "Cherry and white",
        "col3": "676500000",
        "col4": "7028"
    },
    {
        "col0": "Reed College",
        "col1": "J. Kroger",
        "col2": "Reed Red",
        "col3": "545200000",
        "col4": "1394"
    },
    {
        "col0": "Quinnipiac University",
        "col1": "J. L. Lahey",
        "col2": "Blueandgold",
        "col3": "368000000",
        "col4": "9000"
    },
    {
        "col0": "Purdue University",
        "col1": "M. Daniels",
        "col2": "Black and Old Gold",
        "col3": "2398000000",
        "col4": "39409"
    },
    {
        "col0": "Princeton University",
        "col1": "C. L. Eisgruber",
        "col2": "Orange and Black",
        "col3": "22723000000",
        "col4": "8088"
    },
    {
        "col0": "Pittsburg State University",
        "col1": "S. A. Scott",
        "col2": "Crimson and Gold",
        "col3": "71220000",
        "col4": "7244"
    },
    {
        "col0": "Pennsylvania State University",
        "col1": "E. J. Barron",
        "col2": "Blue and white",
        "col3": "3640000000",
        "col4": "97494"
    },
    {
        "col0": "Pace University",
        "col1": "S. J. Friedman",
        "col2": "Blue&Gold",
        "col3": "156700000",
        "col4": "12772"
    },
    {
        "col0": "Osaka University",
        "col1": "S. Nishio",
        "col2": "Sky blue",
        "col3": "264300000000",
        "col4": "25248"
    },
    {
        "col0": "Oregon State University",
        "col1": "E. J. Ray",
        "col2": "Orange and Black",
        "col3": "505400000",
        "col4": "30058"
    },
    {
        "col0": "Oral Roberts University",
        "col1": "B. Wilson",
        "col2": "Dark blue and light brown",
        "col3": "37800000",
        "col4": "3661"
    }
]