[
    {
        "col0": "Thunder in the Sun",
        "col1": "C. Schaeffer",
        "col2": "R. Rouse",
        "col3": "S. Stern"
    },
    {
        "col0": "Thunder in the Desert",
        "col1": "S. R. Luby",
        "col2": "S. Newfield",
        "col3": "G. H. Plympton"
    },
    {
        "col0": "Thunder in the City",
        "col1": "A. Hilton",
        "col2": "M. Gering",
        "col3": "R. E. Sherwood"
    },
    {
        "col0": "Thunder in God's Country",
        "col1": "H. Minter",
        "col2": "G. Blair",
        "col3": "A. E. Orloff"
    },
    {
        "col0": "Thunder and Lightning",
        "col1": "O. Rosander",
        "col2": "A. Henrikson",
        "col3": "P. Wodehouse"
    },
    {
        "col0": "Thunder Rock",
        "col1": "R. Boulting",
        "col2": "R. Boulting",
        "col3": "B. Miles"
    },
    {
        "col0": "Thunder Birds",
        "col1": "W. A. Thompson",
        "col2": "W. A. Wellman",
        "col3": "D. F. Zanuck"
    },
    {
        "col0": "Thumbsucker",
        "col1": "A. Wall",
        "col2": "M. Mills",
        "col3": "M. Mills"
    },
    {
        "col0": "Thumbs Up",
        "col1": "T. Richards",
        "col2": "J. Santley",
        "col3": "P. G. Smith"
    },
    {
        "col0": "Thulluvadho Ilamai",
        "col1": "S. Urs",
        "col2": "Selvaraghavan",
        "col3": "Selvaraghavan"
    },
    {
        "col0": "Thulli Vilayadu",
        "col1": "V. T. Vijayan",
        "col2": "V. Selva",
        "col3": "V. Selva"
    },
    {
        "col0": "Through the Olive Trees",
        "col1": "A. Kiarostami",
        "col2": "A. Kiarostami",
        "col3": "A. Kiarostami"
    },
    {
        "col0": "Through the Forests and Through the Trees",
        "col1": "H. Taschner",
        "col2": "G. W. Pabst",
        "col3": "W. Forster"
    },
    {
        "col0": "Throttle",
        "col1": "J. Seale",
        "col2": "J. Seale",
        "col3": "J. Seale"
    },
    {
        "col0": "Throne of Blood",
        "col1": "A. Kurosawa",
        "col2": "A. Kurosawa",
        "col3": "S. Hashimoto"
    },
    {
        "col0": "Thrill of a Lifetime",
        "col1": "D. Harrison",
        "col2": "G. Archainbaud",
        "col3": "S. Owen"
    },
    {
        "col0": "Three to Tango",
        "col1": "S. Semel",
        "col2": "D. Santostefano",
        "col3": "R. P. Vaccaro"
    },
    {
        "col0": "Three into Two Won't Go",
        "col1": "A. Osbiston",
        "col2": "P. Hall",
        "col3": "E. O'Brien"
    },
    {
        "col0": "Three for the Show",
        "col1": "V. Lawrence",
        "col2": "H. C. Potter",
        "col3": "L. B. Stern"
    },
    {
        "col0": "Three for the Road",
        "col1": "C. Greenbury",
        "col2": "B. L. Norton",
        "col3": "R. Martini"
    },
    {
        "col0": "Three for Bedroom \"C\"",
        "col1": "A. Hilton",
        "col2": "M. H. Bren",
        "col3": "G. Lieberson"
    },
    {
        "col0": "Three Women",
        "col1": "V. Mercanton",
        "col2": "A. Michel",
        "col3": "G. d. Maupassant"
    },
    {
        "col0": "Three Who Loved",
        "col1": "J. Kitchin",
        "col2": "G. Archainbaud",
        "col3": "B. M. Dix"
    },
    {
        "col0": "Three Weeks in Paris",
        "col1": "C. Kolster",
        "col2": "R. D. Ruth",
        "col3": "D. Zanuck"
    },
    {
        "col0": "Three Violent People",
        "col1": "A. Macrorie",
        "col2": "R. Mate",
        "col3": "J. E. Grant"
    },
    {
        "col0": "Three Strangers",
        "col1": "G. Amy",
        "col2": "J. Negulesco",
        "col3": "J. Huston"
    },
    {
        "col0": "Three Stories of Love",
        "col1": "R. Hashiguchi",
        "col2": "R. Hashiguchi",
        "col3": "R. Hashiguchi"
    },
    {
        "col0": "Three Sons o' Guns",
        "col1": "T. O. Morse",
        "col2": "B. Stoloff",
        "col3": "F. N. Jr."
    },
    {
        "col0": "Three Smart Saps",
        "col1": "J. Thoms",
        "col2": "J. White",
        "col3": "C. Bruckman"
    },
    {
        "col0": "Three Smart Girls Grow Up",
        "col1": "B. W. Burton",
        "col2": "H. Koster",
        "col3": "B. Manning"
    },
    {
        "col0": "Three Smart Girls",
        "col1": "T. J. Kent",
        "col2": "H. Koster",
        "col3": "A. Comandini"
    },
    {
        "col0": "Three Sinners",
        "col1": "R. Bassler",
        "col2": "R. V. Lee",
        "col3": "J. d. Limur"
    },
    {
        "col0": "Three Sappy People",
        "col1": "C. Nelson",
        "col2": "J. White",
        "col3": "C. Bruckman"
    },
    {
        "col0": "Three Russian Girls",
        "col1": "G. C. Tallas",
        "col2": "F. Ozep",
        "col3": "D. James"
    },
    {
        "col0": "Three Nights of Love",
        "col1": "R. Cinquini",
        "col2": "L. Comencini",
        "col3": "M. Fondato"
    },
    {
        "col0": "Three Monkeys",
        "col1": "N. B. Ceylan",
        "col2": "N. B. Ceylan",
        "col3": "N. B. Ceylan"
    },
    {
        "col0": "Three Men on a Horse",
        "col1": "R. Dawson",
        "col2": "M. LeRoy",
        "col3": "G. Abbott"
    },
    {
        "col0": "Three Men of the River",
        "col1": "C. Rinaldi",
        "col2": "M. Soffici",
        "col3": "R. G. Pacheco"
    },
    {
        "col0": "Three Men in a Boat",
        "col1": "R. Kemplen",
        "col2": "K. Annakin",
        "col3": "H. Gregg"
    },
    {
        "col0": "Three Men and a Leg",
        "col1": "M. Spoletini",
        "col2": "Aldo, Giovanni & Giacomo",
        "col3": "G. Band"
    },
    {
        "col0": "Three Married Men",
        "col1": "E. Dmytryk",
        "col2": "E. Buzzell",
        "col3": "D. Parker"
    },
    {
        "col0": "Three Lucky Fools",
        "col1": "M. Bonnard",
        "col2": "M. Bonnard",
        "col3": "M. Bonnard"
    },
    {
        "col0": "Three Live Ghosts",
        "col1": "T. Held",
        "col2": "H. B. Humberstone",
        "col3": "C. G. Sullivan"
    },
    {
        "col0": "Three Little Twirps",
        "col1": "P. Borofsky",
        "col2": "H. Edwards",
        "col3": "E. Ullman"
    },
    {
        "col0": "Three Little Sew and Sews",
        "col1": "C. Nelson",
        "col2": "D. Lord",
        "col3": "E. Adamson"
    },
    {
        "col0": "Three Little Pirates",
        "col1": "P. Borofsky",
        "col2": "E. Bernds",
        "col3": "C. Bruckman"
    },
    {
        "col0": "Three Little Pigskins",
        "col1": "J. Sweeney",
        "col2": "R. McCarey",
        "col3": "F. Adler"
    },
    {
        "col0": "Three Little Girls in Blue",
        "col1": "B. McLean",
        "col2": "H. B. Humberstone",
        "col3": "V. Davies"
    },
    {
        "col0": "Three Little Beers",
        "col1": "W. Lyon",
        "col2": "D. Lord",
        "col3": "C. Bruckman"
    },
    {
        "col0": "Three Kingdoms: Resurrection of the Dragon",
        "col1": "C. Ka-fai",
        "col2": "D. Lee",
        "col3": "D. Lee"
    },
    {
        "col0": "Three Hours to Kill",
        "col1": "G. Havlick",
        "col2": "A. L. Werker",
        "col3": "M. Shane"
    },
    {
        "col0": "Three Girls from Rome",
        "col1": "J. Benvenuti",
        "col2": "L. Emmer",
        "col3": "S. Amidei"
    },
    {
        "col0": "Three Fugitives",
        "col1": "B. Green",
        "col2": "F. Veber",
        "col3": "F. Veber"
    },
    {
        "col0": "Three Flavours Cornetto trilogy",
        "col1": "C. Dickens",
        "col2": "E. Wright",
        "col3": "S. Pegg"
    },
    {
        "col0": "Three Days of the Condor",
        "col1": "D. Guidice",
        "col2": "S. Pollack",
        "col3": "L. S. Jr."
    },
    {
        "col0": "Three Daring Daughters",
        "col1": "A. Fazan",
        "col2": "F. M. Wilcox",
        "col3": "A. Mannheimer"
    },
    {
        "col0": "Three Crowns of the Sailor",
        "col1": "V. Sarmiento",
        "col2": "R. Ruiz",
        "col3": "R. Ruiz"
    },
    {
        "col0": "Three Crooked Men",
        "col1": "M. Rootes",
        "col2": "E. Morris",
        "col3": "B. Clemens"
    },
    {
        "col0": "Three Comrades",
        "col1": "F. Sullivan",
        "col2": "F. Borzage",
        "col3": "F. S. Fitzgerald"
    },
    {
        "col0": "Three Colours: Red",
        "col1": "J. Witta",
        "col2": "K. Kieslowski",
        "col3": "K. Kieslowski"
    },
    {
        "col0": "Three Colors: Blue",
        "col1": "J. Witta",
        "col2": "K. Kieslowski",
        "col3": "K. Kieslowski"
    },
    {
        "col0": "Three Cheers for the Irish",
        "col1": "W. Holmes",
        "col2": "L. Bacon",
        "col3": "J. Wald"
    },
    {
        "col0": "Three Cheers for Love",
        "col1": "E. Dmytryk",
        "col2": "R. McCarey",
        "col3": "G. M. Jr."
    },
    {
        "col0": "Three Came Home",
        "col1": "D. Spencer",
        "col2": "J. Negulesco",
        "col3": "N. Johnson"
    },
    {
        "col0": "Three Brothers",
        "col1": "R. Mastroianni",
        "col2": "F. Rosi",
        "col3": "T. Guerra"
    },
    {
        "col0": "Three Brave Men",
        "col1": "D. Bretherton",
        "col2": "P. Dunne",
        "col3": "P. Dunne"
    },
    {
        "col0": "Three Black Angels",
        "col1": "C. Savage",
        "col2": "F. Cortes",
        "col3": "F. Cortes"
    },
    {
        "col0": "Three Bewildered People in the Night",
        "col1": "G. Araki",
        "col2": "G. Araki",
        "col3": "G. Araki"
    },
    {
        "col0": "Three Argentines in Paris",
        "col1": "J. Soffici",
        "col2": "M. Romero",
        "col3": "M. Romero"
    },
    {
        "col0": "Three",
        "col1": "M. Bonnefoy",
        "col2": "T. Tykwer",
        "col3": "T. Tykwer"
    },
    {
        "col0": "Three",
        "col1": "N. Nimibutr",
        "col2": "K. Jee-woon",
        "col3": "K. Jee-woon"
    },
    {
        "col0": "Three-Ring Marriage",
        "col1": "S. Heisler",
        "col2": "M. Neilan",
        "col3": "D. Willson"
    },
    {
        "col0": "Thread of Lies",
        "col1": "N. Na-yeong",
        "col2": "L. Han",
        "col3": "L. Han"
    },
    {
        "col0": "Thoughtcrimes",
        "col1": "J. Cassidy",
        "col2": "B. Eisner",
        "col3": "Thomas Dean Donnelly and Joshua Oppenheimer"
    },
    {
        "col0": "Thou Wast Mild and Lovely",
        "col1": "J. Decker",
        "col2": "J. Decker",
        "col3": "J. Decker"
    },
    {
        "col0": "Thou Shalt Not Kill... Except",
        "col1": "J. Becker",
        "col2": "J. Becker",
        "col3": "S. Spiegel"
    },
    {
        "col0": "Thou-Vou falakros praktor, epiheirisis \"Yis Mathiam\"",
        "col1": "D. Katsouridis",
        "col2": "T. Vengos",
        "col3": "G. Lazaridis"
    },
    {
        "col0": "Thotti Jaya",
        "col1": "Anthony",
        "col2": "V. Z. Durai",
        "col3": "V. Z. Durai"
    },
    {
        "col0": "Thotti Gang",
        "col1": "M. K. Venkatesh",
        "col2": "E. V. V. Satyanarayana",
        "col3": "E. V. V. Satyanarayana"
    },
    {
        "col0": "Those Who Dance",
        "col1": "G. Amy",
        "col2": "W. Beaudine",
        "col3": "J. Jackson"
    },
    {
        "col0": "Those Were the Days...",
        "col1": "M. Mak",
        "col2": "R. Yip",
        "col3": "M. Wong"
    },
    {
        "col0": "Those Were the Days!",
        "col1": "W. Shea",
        "col2": "T. Reed",
        "col3": "G. H. Fitch"
    },
    {
        "col0": "Those Two",
        "col1": "F. Tropea",
        "col2": "G. Righelli",
        "col3": "G. Righelli"
    },
    {
        "col0": "Those Magnificent Men in their Flying Machines",
        "col1": "A. V. Coates",
        "col2": "K. Annakin",
        "col3": "K. Annakin"
    },
    {
        "col0": "Those Endearing Young Charms",
        "col1": "R. Gross",
        "col2": "L. Allen",
        "col3": "J. Chodorov"
    },
    {
        "col0": "Thoroughbreds Don't Cry",
        "col1": "E. Veron",
        "col2": "A. E. Green",
        "col3": "D. Trumbo"
    },
    {
        "col0": "Thor and the Amazon Women",
        "col1": "R. Cinquini",
        "col2": "A. Leonviola",
        "col3": "A. Leonviola"
    },
    {
        "col0": "Thor",
        "col1": "P. Rubell",
        "col2": "K. Branagh",
        "col3": "D. Payne"
    },
    {
        "col0": "Thoovanathumbikal",
        "col1": "B. Lenin",
        "col2": "P. Padmarajan",
        "col3": "P. Padmarajan"
    },
    {
        "col0": "Thoongaa Vanam",
        "col1": "S. Mohammed",
        "col2": "R. Selva",
        "col3": "K. Haasan"
    },
    {
        "col0": "Thoonga Nagaram",
        "col1": "T. S. Suresh",
        "col2": "G. Narayanan",
        "col3": "G. Narayanan"
    },
    {
        "col0": "Tholi Prema",
        "col1": "M. K. Venkatesh",
        "col2": "A. Karunakaran",
        "col3": "A. Karunakaran"
    },
    {
        "col0": "Thodi Kodallu",
        "col1": "A. S. Rao",
        "col2": "A. S. Rao",
        "col3": "A. Atreya"
    },
    {
        "col0": "Thoda Pyaar Thoda Magic",
        "col1": "A. Shukla",
        "col2": "K. Kohli",
        "col3": "K. Kohli"
    },
    {
        "col0": "Thithi",
        "col1": "R. Reddy",
        "col2": "R. Reddy",
        "col3": "R. Reddy"
    },
    {
        "col0": "This World, Then the Fireworks",
        "col1": "E. E. Hickox",
        "col2": "M. Oblowitz",
        "col3": "L. Gross"
    },
    {
        "col0": "This Was a Woman",
        "col1": "E. B. Jarvis",
        "col2": "T. Whelan",
        "col3": "J. Morgan"
    },
    {
        "col0": "This Was Paris",
        "col1": "L. Norman",
        "col2": "J. Harlow",
        "col3": "G. Wellesley"
    },
    {
        "col0": "This Time for Keeps",
        "col1": "J. Dunning",
        "col2": "R. Thorpe",
        "col3": "G. Lehman"
    },
    {
        "col0": "This Sporting Life",
        "col1": "P. Taylor",
        "col2": "L. Anderson",
        "col3": "D. Storey"
    },
    {
        "col0": "This Property Is Condemned",
        "col1": "A. Fazan",
        "col2": "S. Pollack",
        "col3": "F. F. Coppola"
    },
    {
        "col0": "This Marriage Business",
        "col1": "H. Marker",
        "col2": "C. Cabanne",
        "col3": "J. R. Bren"
    },
    {
        "col0": "This Man in Paris",
        "col1": "R. Beck",
        "col2": "D. MacDonald",
        "col3": "R. MacDougall"
    },
    {
        "col0": "This Man Is News",
        "col1": "R. Beck",
        "col2": "D. MacDonald",
        "col3": "R. MacDougall"
    },
    {
        "col0": "This Land Is Mine",
        "col1": "F. Knudtson",
        "col2": "J. Renoir",
        "col3": "D. Nichols"
    },
    {
        "col0": "This Is the Life",
        "col1": "F. Allen",
        "col2": "M. Neilan",
        "col3": "L. Trotti"
    },
    {
        "col0": "This Is Where I Leave You",
        "col1": "D. Zimmerman",
        "col2": "S. Levy",
        "col3": "J. Tropper"
    },
    {
        "col0": "This Is Not Paradise",
        "col1": "M. Spoletini",
        "col2": "G. M. Tavarelli",
        "col3": "G. M. Tavarelli"
    },
    {
        "col0": "This Is Heaven",
        "col1": "V. Lawrence",
        "col2": "A. Santell",
        "col3": "G. M. Jr."
    },
    {
        "col0": "This Is England",
        "col1": "C. Dickens",
        "col2": "S. Meadows",
        "col3": "S. Meadows"
    },
    {
        "col0": "This Is 40",
        "col1": "B. White",
        "col2": "J. Apatow",
        "col3": "J. Apatow"
    }
]