[
    {
        "col0": "WLFL",
        "col1": "WRDC",
        "col2": "27 (UHF)",
        "col3": "610",
        "col4": "22 (UHF, 1981-2009)"
    },
    {
        "col0": "WLBZ",
        "col1": "WCSH",
        "col2": "2 (VHF)",
        "col3": "192",
        "col4": "2 (VHFanalog, 1954-2009)"
    },
    {
        "col0": "WLBT",
        "col1": "WDBD",
        "col2": "30 (UHF)",
        "col3": "609",
        "col4": "3 (VHF, 1953-2009)"
    },
    {
        "col0": "WLAX",
        "col1": "WFRV-TV",
        "col2": "Virtual:",
        "col3": "223",
        "col4": "25 (UHFanalog, 1986-2009)"
    },
    {
        "col0": "WLAJ",
        "col1": "WLNS-TV",
        "col2": "25 (UHF)",
        "col3": "299",
        "col4": "51 (UHF, 2004-2015)"
    },
    {
        "col0": "WKYU-TV",
        "col1": "WKYU-FM",
        "col2": "18 (UHF)",
        "col3": "176",
        "col4": "24 (UHFanalog, 1989-2009)"
    },
    {
        "col0": "WKYT-TV",
        "col1": "WYMT-TV",
        "col2": "36 (UHF)",
        "col3": "298",
        "col4": "13 (VHF, 2002-2010)"
    },
    {
        "col0": "WKUT-LD",
        "col1": "WCZU-LD",
        "col2": "32 (UHF)",
        "col3": "166",
        "col4": "Analog: 64 (UHF, 2007-2010)"
    },
    {
        "col0": "WKRG-TV",
        "col1": "WFNA",
        "col2": "27 (UHF)",
        "col3": "499",
        "col4": "5 (VHF, 1955-2009)"
    },
    {
        "col0": "WKRC-TV",
        "col1": "WSTR-TV",
        "col2": "12 (VHF)",
        "col3": "305",
        "col4": "11 (VHF, 1949-1952)"
    },
    {
        "col0": "WKPT-TV",
        "col1": "WOPI-CD",
        "col2": "27 (UHF)",
        "col3": "695",
        "col4": "19 (UHF, 1969-2009)"
    },
    {
        "col0": "WKOW",
        "col1": "WREX",
        "col2": "26 (UHF)",
        "col3": "455",
        "col4": "27 (UHF, 1953-2009)"
    },
    {
        "col0": "WKNO",
        "col1": "WKNO-FM",
        "col2": "29 (UHF)",
        "col3": "320",
        "col4": "10 (VHF, 1956-2009)"
    },
    {
        "col0": "WKDH",
        "col1": "WLOV-TV",
        "col2": "45 (UHF)",
        "col3": "491",
        "col4": "45 (UHF; 2001-2007)"
    },
    {
        "col0": "WKBT-DT",
        "col1": "WISC-TV",
        "col2": "8 (VHF)",
        "col3": "464",
        "col4": "41 (UHFdigital, 2003-2009)"
    },
    {
        "col0": "WKBN-TV",
        "col1": "WYTV",
        "col2": "41 (UHF)",
        "col3": "440",
        "col4": "27 (UHF, 1953-2009)"
    },
    {
        "col0": "WKAR-TV",
        "col1": "WKAR",
        "col2": "40 (UHF)",
        "col3": "295",
        "col4": "10 (VHF, 1959-1972, shared withWILX-TV)"
    },
    {
        "col0": "WJZY",
        "col1": "Fox Sports Carolinas",
        "col2": "47 (UHF)",
        "col3": "554",
        "col4": "46 (UHF, 1987-2009)"
    },
    {
        "col0": "WJZ-TV",
        "col1": "WJZ",
        "col2": "13 (VHF)",
        "col3": "295",
        "col4": "13 (VHF, 1948-2009)"
    },
    {
        "col0": "WJTV",
        "col1": "WIAT",
        "col2": "12 (VHF)",
        "col3": "491",
        "col4": "12 (VHF, 1955-2009)"
    },
    {
        "col0": "WJTC",
        "col1": "WPMI-TV",
        "col2": "45 (UHF)",
        "col3": "457",
        "col4": "44 (UHF, 1984-2009)"
    },
    {
        "col0": "WJSP-TV",
        "col1": "WJSP-FM",
        "col2": "23 (UHF)",
        "col3": "462",
        "col4": "28 (UHF, 1964-2009)"
    },
    {
        "col0": "WJRT-TV",
        "col1": "WTVG",
        "col2": "12 (VHF)",
        "col3": "286",
        "col4": "12 (VHF, 1958-2009)"
    },
    {
        "col0": "WJMN-TV",
        "col1": "WFRV-TV",
        "col2": "48 (UHF)",
        "col3": "355",
        "col4": "3 (VHF, 1969-2009)"
    },
    {
        "col0": "WJLA-TV",
        "col1": "NewsChannel 8",
        "col2": "7 (VHF)",
        "col3": "235",
        "col4": "39 (UHF, 2000-2009)"
    },
    {
        "col0": "WJKT",
        "col1": "WATN-TV",
        "col2": "39 (UHF)",
        "col3": "296",
        "col4": "16 (UHFanalog, 1985-2009)"
    },
    {
        "col0": "WJKP-LD",
        "col1": "WVTT-CD",
        "col2": "39 (UHF) &",
        "col3": "205",
        "col4": "Analog: 39 (2003-2009)"
    },
    {
        "col0": "WJHG-TV",
        "col1": "WSWG",
        "col2": "18 (UHF)",
        "col3": "261",
        "col4": "7 (VHF, 1953-2009)"
    },
    {
        "col0": "WJFW-TV",
        "col1": "WFVX-LD",
        "col2": "16 (UHF)",
        "col3": "362",
        "col4": "12 (VHFanalog, 1966-2009)"
    },
    {
        "col0": "WJAC-TV",
        "col1": "WPGH-TV",
        "col2": "34 (UHF)",
        "col3": "388",
        "col4": "13 (1949-1952)"
    },
    {
        "col0": "WIYE-LD2",
        "col1": "WTAP-TV",
        "col2": "WIYE-LD 47.2 (UHF/PSIP)",
        "col3": "191",
        "col4": "WTAP-DT 49.3 (2006-2012)"
    },
    {
        "col0": "WIYE-LD",
        "col1": "WSAZ-TV",
        "col2": "47 (UHF/PSIP)",
        "col3": "191",
        "col4": "64 (UHFanalog)"
    },
    {
        "col0": "WIVT",
        "col1": "WSYR-TV",
        "col2": "34 (UHF)",
        "col3": "278",
        "col4": "34 (UHF, 1962-2009)"
    },
    {
        "col0": "WIVB-TV",
        "col1": "WNLO",
        "col2": "39 (UHF)",
        "col3": "417",
        "col4": "4 (1948-2009)"
    },
    {
        "col0": "WISC-TV",
        "col1": "WKBT-DT",
        "col2": "50 (UHF)",
        "col3": "466",
        "col4": "3 (VHF, 1956-2009)"
    },
    {
        "col0": "WIPR-TV",
        "col1": "WIPR",
        "col2": "43 (UHF)",
        "col3": "776",
        "col4": "6 (1958-2009, analog)"
    },
    {
        "col0": "WIPB",
        "col1": "WBST",
        "col2": "23 (UHF)",
        "col3": "246",
        "col4": "49 (UHF, 1971-2009)"
    },
    {
        "col0": "WINK-TV",
        "col1": "WINK-FM",
        "col2": "50 (UHF)",
        "col3": "443",
        "col4": "11 (VHF, 1954-2009)"
    },
    {
        "col0": "WILX-TV",
        "col1": "WJRT-TV",
        "col2": "10 (VHF)",
        "col3": "298",
        "col4": "10 (VHF, 1959-2009)"
    },
    {
        "col0": "WILM-LD",
        "col1": "WRAL-TV",
        "col2": "40 (UHF)",
        "col3": "258",
        "col4": "10 (VHFanalog, 1989-2008)"
    },
    {
        "col0": "WILL",
        "col1": "WILL",
        "col2": "9 (VHF)",
        "col3": "302",
        "col4": "12 (VHF, 1955-2009)"
    },
    {
        "col0": "WIIH-CD",
        "col1": "WISH-TV",
        "col2": "17 (VHF)",
        "col3": "144",
        "col4": "11 (UHF, 1988-2002)"
    },
    {
        "col0": "WIFR",
        "col1": "WNDU-TV",
        "col2": "41 (UHF)",
        "col3": "219",
        "col4": "23 (UHF, 1965-2009)"
    },
    {
        "col0": "WIDP",
        "col1": "WNRT",
        "col2": "45 (UHF)",
        "col3": "631",
        "col4": "46 (analog, 1997-2009)"
    },
    {
        "col0": "WICZ-TV",
        "col1": "Low-power television",
        "col2": "8 (VHF)",
        "col3": "371",
        "col4": "40 (UHF, 1957-2009)"
    },
    {
        "col0": "WICU-TV",
        "col1": "WSEE-TV",
        "col2": "12 (VHF) &",
        "col3": "306",
        "col4": "12 (VHFanalog, 1949-2009)"
    },
    {
        "col0": "WICS",
        "col1": "WRSP-TV",
        "col2": "42 (UHF)",
        "col3": "402",
        "col4": "20 (UHF, 1953-2009)"
    },
    {
        "col0": "WICD",
        "col1": "WBUI",
        "col2": "41 (UHF)",
        "col3": "375",
        "col4": "15 (UHF, 1967-2009)"
    },
    {
        "col0": "WHWD-LD",
        "col1": "WDMC-LD",
        "col2": "48 (UHF)",
        "col3": "90",
        "col4": "21 (2007-2012)"
    },
    {
        "col0": "WHUT-TV",
        "col1": "WHUR-FM",
        "col2": "33 (UHF)",
        "col3": "254",
        "col4": "32 (UHF, 1980-2009)"
    },
    {
        "col0": "WHTV",
        "col1": "WSYM-TV",
        "col2": "34 (UHF)",
        "col3": "263",
        "col4": "18 (UHF, 1999-2009)"
    },
    {
        "col0": "WHSV-TV",
        "col1": "WSVF-CD",
        "col2": "49 (UHF)",
        "col3": "639",
        "col4": "3 (VHFanalog, 1953-2009)"
    },
    {
        "col0": "WHSG-TV",
        "col1": "Georgia",
        "col2": "44 (UHF)",
        "col3": "303",
        "col4": "63 (UHF, 1991-2009)"
    },
    {
        "col0": "WHRO-TV",
        "col1": "WHRO-FM",
        "col2": "16 (UHF)",
        "col3": "360",
        "col4": "15 (UHF, 1961-2009)"
    },
    {
        "col0": "WHPM-LD",
        "col1": "WMDN",
        "col2": "23 (UHF/PSIP)",
        "col3": "142",
        "col4": "30 (UHFanalog, 2005-2009)"
    },
    {
        "col0": "WHOI",
        "col1": "Decatur, Illinois",
        "col2": "19 (UHF)",
        "col3": "203",
        "col4": "19 (UHF analog, 1963-2009)"
    },
    {
        "col0": "WHLT",
        "col1": "WJTV",
        "col2": "22 (UHF)",
        "col3": "243",
        "col4": "22 (UHFanalog, 1987-2009)"
    },
    {
        "col0": "WHIZ-TV",
        "col1": "WHIZ",
        "col2": "40 (UHF)",
        "col3": "169",
        "col4": "18 (UHF analog, 1955-2008)"
    },
    {
        "col0": "WHDT",
        "col1": "WHDT-LD",
        "col2": "42 (UHF)",
        "col3": "439",
        "col4": "Digital: 59 (UHF, 2000-2009)"
    },
    {
        "col0": "WHBF-TV",
        "col1": "KLJB",
        "col2": "4 (VHF)",
        "col3": "409",
        "col4": "4 (VHF, 1950-2009)"
    },
    {
        "col0": "WHAM-TV",
        "col1": "WNYO-TV",
        "col2": "13 (VHF)",
        "col3": "152",
        "col4": "Analog: 13 (1962-2009)"
    },
    {
        "col0": "WGTU",
        "col1": "WSMH",
        "col2": "WGTQ: 8 (VHF)",
        "col3": "288",
        "col4": "29 (UHFanalog, 1971-2009)"
    },
    {
        "col0": "WGTE-TV",
        "col1": "WGTE-FM",
        "col2": "29 (UHF)",
        "col3": "313",
        "col4": "30 (UHFanalog, 1960-2009)"
    },
    {
        "col0": "WGSR-LD",
        "col1": "WMDV-LD",
        "col2": "47 (UHF)",
        "col3": "252",
        "col4": "14 (UHF, 1988-2004)"
    },
    {
        "col0": "WGNT",
        "col1": "WTKR",
        "col2": "50 (UHF)",
        "col3": "306",
        "col4": "27 (UHF, 1953-2009)"
    },
    {
        "col0": "WGN-TV",
        "col1": "WGN America",
        "col2": ")",
        "col3": "454",
        "col4": "* 9 ("
    },
    {
        "col0": "WGME-TV",
        "col1": "WPFO",
        "col2": "38 (UHF)",
        "col3": "465",
        "col4": "13 (VHFanalog, 1954-2009)"
    },
    {
        "col0": "WGMB-TV",
        "col1": "KZUP-CD",
        "col2": "45 (UHF)",
        "col3": "424",
        "col4": "44 (UHF, 1991-2009)"
    },
    {
        "col0": "WGGB-TV",
        "col1": "WFSB",
        "col2": "40 (UHF)",
        "col3": "324",
        "col4": "40 (UHF, 1957-2008)"
    },
    {
        "col0": "WGFL",
        "col1": "WNBW-DT",
        "col2": "28 (UHF/PSIP)",
        "col3": "265",
        "col4": "Analog: 53 (1997-2008)"
    },
    {
        "col0": "WGEM-TV",
        "col1": "WGEM",
        "col2": "10 (VHF)",
        "col3": "238",
        "col4": "10 (VHF, 1953-2009)"
    },
    {
        "col0": "WGCU",
        "col1": "WGCU-FM",
        "col2": "31 (UHF)",
        "col3": "276",
        "col4": "30 (UHF, 1983-2009)"
    },
    {
        "col0": "WGBX-TV",
        "col1": "WGBH-TV",
        "col2": "43 (UHF)",
        "col3": "391",
        "col4": "44 (UHF, 1967-2009)"
    },
    {
        "col0": "WGBO-DT",
        "col1": "WXFT-DT",
        "col2": "38 (UHF)",
        "col3": "401",
        "col4": "53 (UHF, 2005-2009)"
    },
    {
        "col0": "WGBC",
        "col1": "WHPM-LD",
        "col2": "31 (UHF)",
        "col3": "165",
        "col4": "30 (UHF, 1953 & 1982-2009)"
    },
    {
        "col0": "WGBA-TV",
        "col1": "WACY-TV",
        "col2": "41 (UHF)",
        "col3": "367",
        "col4": "26 (UHF, 1980-2009)"
    },
    {
        "col0": "WFXV",
        "col1": "WBGH-CD",
        "col2": "27 (UHF)",
        "col3": "211",
        "col4": "33 (UHFanalog, 1986-2009)"
    },
    {
        "col0": "WFXR",
        "col1": "WWCW",
        "col2": "17 (UHF) &",
        "col3": "594",
        "col4": "27 (UHF, 1986-2009)"
    },
    {
        "col0": "WFXP",
        "col1": "WJET-TV",
        "col2": "22 (UHF)",
        "col3": "286",
        "col4": "66 (UHFanalog, 1986-2009)"
    },
    {
        "col0": "WFXL",
        "col1": "WTLH",
        "col2": "12 (VHF)",
        "col3": "253",
        "col4": "31 (UHF, 1982-2009)"
    },
    {
        "col0": "WFXI",
        "col1": "WCTI-TV",
        "col2": "47 (UHF)",
        "col3": "247",
        "col4": "14 (UHF analog, 1992-2009)"
    },
    {
        "col0": "WFXG",
        "col1": "WBTV",
        "col2": "31 (UHF)",
        "col3": "384",
        "col4": "54 (UHFanalog, 1991-2009)"
    },
    {
        "col0": "WFTC",
        "col1": "KMSP-TV",
        "col2": "KFTC: 26 (UHF)",
        "col3": "156",
        "col4": "(1982-2009)"
    },
    {
        "col0": "WFSU-TV",
        "col1": "WFSU-FM",
        "col2": "Virtual:",
        "col3": "137",
        "col4": "11 (VHF, 1960-2009)"
    },
    {
        "col0": "WFRV-TV",
        "col1": "WJMN-TV",
        "col2": "39 (UHF)",
        "col3": "364",
        "col4": "42 (UHF, 1953-1955)"
    },
    {
        "col0": "WFQX-TV",
        "col1": "WWTV",
        "col2": "WFQX: 32.1 (UHF)",
        "col3": "324",
        "col4": "31 W31BOAlpena"
    },
    {
        "col0": "WFPA-CD",
        "col1": "WUVP-DT",
        "col2": "28 (UHF),WUVP-DT65.2 (PSIP)",
        "col3": "357",
        "col4": "28 (2000-2015)"
    },
    {
        "col0": "WFNA",
        "col1": "WKRG-TV",
        "col2": "25 (UHF)",
        "col3": "308",
        "col4": "55 (UHF, 2001-2009)"
    },
    {
        "col0": "WFMY-TV",
        "col1": "WCNC-TV",
        "col2": "51 (UHF)",
        "col3": "568",
        "col4": "2 (VHF, 1949-2009)"
    },
    {
        "col0": "WFLX",
        "col1": "WPTV-TV",
        "col2": "28 (UHF)",
        "col3": "458",
        "col4": "Analog: 29 (1982-2009)"
    },
    {
        "col0": "WFLI-TV",
        "col1": "WDSI-TV",
        "col2": "42 (UHF)",
        "col3": "333",
        "col4": "53 (UHF, 1987-2009)"
    },
    {
        "col0": "WFLD",
        "col1": "WPWR-TV",
        "col2": ")",
        "col3": "475",
        "col4": "* 32 ("
    },
    {
        "col0": "WFLA-TV",
        "col1": "WTTA",
        "col2": "7 (VHF)",
        "col3": "465",
        "col4": "8 (VHF, 1955-2009)"
    },
    {
        "col0": "WFGX",
        "col1": "WPMI-TV",
        "col2": "50 (UHF)",
        "col3": "582",
        "col4": "35 (UHF, 1987-2009)"
    },
    {
        "col0": "WFFP-TV",
        "col1": "WLHG-CD",
        "col2": "24 (UHF)",
        "col3": "378",
        "col4": "24 (UHF, 1994-2008)"
    },
    {
        "col0": "WFFF-TV",
        "col1": "WVNY",
        "col2": "43 (UHF)",
        "col3": "839",
        "col4": "44 (UHF, 1997-2009)"
    },
    {
        "col0": "WEYI-TV",
        "col1": "WBSF",
        "col2": "30 (UHF)",
        "col3": "356",
        "col4": "25 (UHF, 1965-2009)"
    },
    {
        "col0": "WETM-TV",
        "col1": "WBGH-CD",
        "col2": "18 (UHF/PSIP)",
        "col3": "376",
        "col4": "Analog: 18 (1956-2009)"
    },
    {
        "col0": "WETM-DT2",
        "col1": "WWTI",
        "col2": "Virtual: 18.2 (PSIP)",
        "col3": "376",
        "col4": "Analog: 30 (UHF)"
    },
    {
        "col0": "WEPX-TV",
        "col1": "WPXU-TV",
        "col2": "26 (UHF)",
        "col3": "154",
        "col4": "38 (UHFanalog, 1998-2009)"
    },
    {
        "col0": "WENY-TV",
        "col1": "WICU-TV",
        "col2": "36 (UHF/PSIP)",
        "col3": "342",
        "col4": "Analog: 36 (1969-2009)"
    },
    {
        "col0": "WEMT",
        "col1": "WCYB-TV",
        "col2": "38 (UHF)",
        "col3": "721",
        "col4": "39 (UHF, 1985-2009)"
    },
    {
        "col0": "WELU",
        "col1": "WVQS-LD",
        "col2": "34 (UHF)",
        "col3": "605",
        "col4": "Analog: 32 (1986-2009)"
    },
    {
        "col0": "WEIU-TV",
        "col1": "WEIU",
        "col2": "50 (UHF)",
        "col3": "146",
        "col4": "51 (UHF, 1986-2009)"
    },
    {
        "col0": "WEHT",
        "col1": "WTVW",
        "col2": "7 (VHF)",
        "col3": "316",
        "col4": "25 (UHF, 1964-2009)"
    },
    {
        "col0": "WEEK-TV",
        "col1": "WEEK-DT2",
        "col2": "25 (UHF)",
        "col3": "211",
        "col4": "25 (UHF analog, 1964-2009)"
    },
    {
        "col0": "WECT",
        "col1": "WSFX-TV",
        "col2": "44 (UHF)",
        "col3": "590",
        "col4": "6 (VHF, 1954-2008)"
    },
    {
        "col0": "WECP-LD",
        "col1": "WJHG-TV",
        "col2": "29 (UHF) &",
        "col3": "214",
        "col4": "18 (UHF, 2012-2015)"
    },
    {
        "col0": "WECN",
        "col1": "WRUA",
        "col2": "18 (UHF)",
        "col3": "221",
        "col4": "64 (UHF, 1986-2009)"
    },
    {
        "col0": "WEAU",
        "col1": "WMTV",
        "col2": "38 (UHF)",
        "col3": "607",
        "col4": "13 (VHF digital, 2009-2011)"
    },
    {
        "col0": "WEAR-TV",
        "col1": "WPMI-TV",
        "col2": "17 (UHF)",
        "col3": "579",
        "col4": "3 (VHF, 1954-2009)"
    },
    {
        "col0": "WDTV",
        "col1": "WVFX",
        "col2": "5 (VHF/PSIP)",
        "col3": "240",
        "col4": "35 (1954-1955)"
    },
    {
        "col0": "WDSI-TV",
        "col1": "WFLI-TV",
        "col2": "40 (UHF)",
        "col3": "350",
        "col4": "61 (UHF, 1972-2009)"
    },
    {
        "col0": "WDKA",
        "col1": "KBSI",
        "col2": "49 (UHF) &",
        "col3": "327",
        "col4": "49 (UHF, 1997-2009)"
    },
    {
        "col0": "WDHN",
        "col1": "WMBB",
        "col2": "21 (UHF)",
        "col3": "190",
        "col4": "18 (UHFanalog, 1970-2009)"
    },
    {
        "col0": "WDFX-TV",
        "col1": "WBRC",
        "col2": "33 (UHF)",
        "col3": "148",
        "col4": "34 (UHFanalog, 1991-2009)"
    },
    {
        "col0": "WDCQ-TV",
        "col1": "WUCX-FM",
        "col2": "15 (UHF)",
        "col3": "309",
        "col4": "35 (UHF, 1986-2009)"
    },
    {
        "col0": "WDBD",
        "col1": "WLBT",
        "col2": "40 (UHF)",
        "col3": "598",
        "col4": "40 (UHF, 1984-2009)"
    },
    {
        "col0": "WDAZ-TV",
        "col1": "WDAY",
        "col2": "8 (VHF)",
        "col3": "451",
        "col4": "59 (UHF, until 2009)"
    },
    {
        "col0": "WDAY-TV",
        "col1": "WDAY",
        "col2": "21 (UHF)",
        "col3": "322",
        "col4": "6 (VHF, 1953-2009)"
    },
    {
        "col0": "WDAM-TV",
        "col1": "WLOX",
        "col2": "7 (VHF)",
        "col3": "155",
        "col4": "28 (UHFdigital, 2001-2010)"
    },
    {
        "col0": "WCYB-TV",
        "col1": "WEMT",
        "col2": "5 (VHF)",
        "col3": "743",
        "col4": "28 (UHF, 1996-2009)"
    },
    {
        "col0": "WCWN",
        "col1": "WRGB",
        "col2": "43 (UHF)",
        "col3": "426",
        "col4": "45 (UHF, 1984-2009)"
    },
    {
        "col0": "WCWF",
        "col1": "WLUK-TV",
        "col2": "21 (UHF)",
        "col3": "332",
        "col4": "14 (UHF, 1984-2009)"
    },
    {
        "col0": "WCVE-TV",
        "col1": "WCVE-FM",
        "col2": "Virtual:",
        "col3": "328",
        "col4": "23 (UHF, 1964-2009)"
    },
    {
        "col0": "WCTV",
        "col1": "WRGX-LD",
        "col2": "46 (UHF)",
        "col3": "566",
        "col4": "6 (VHF, 1955-2009)"
    },
    {
        "col0": "WCTI-TV",
        "col1": "WFXI",
        "col2": "12 (VHF/PSIP)",
        "col3": "589",
        "col4": "12 (VHFanalog, 1963-2009)"
    },
    {
        "col0": "WCSH",
        "col1": "WLBZ",
        "col2": "44 (UHF)",
        "col3": "587",
        "col4": "6 (VHFanalog, 1953-2009)"
    },
    {
        "col0": "WCSC-TV",
        "col1": "WIS",
        "col2": "47 (UHF)",
        "col3": "521",
        "col4": "5 (VHF, 1953-2009)"
    },
    {
        "col0": "WCOV-TV",
        "col1": "WALE-LD",
        "col2": "20 (UHF)",
        "col3": "518",
        "col4": "16 (UHF, 1997-2009)"
    },
    {
        "col0": "WCMU-TV",
        "col1": "WCMU-FM",
        "col2": "17 (UHF) WCMV",
        "col3": "299",
        "col4": "14 (UHFanalog, 1967-2009)"
    },
    {
        "col0": "WCJB-TV",
        "col1": "WABI-TV",
        "col2": "16 (UHF)",
        "col3": "254",
        "col4": "Analog: 20 (1971-2009)"
    },
    {
        "col0": "WCIX",
        "col1": "WQRF-TV",
        "col2": "13 (VHF)",
        "col3": "175",
        "col4": "49 (UHF, 1967-2009)"
    },
    {
        "col0": "WCIV",
        "col1": "WTAT-TV",
        "col2": "36 (UHF)",
        "col3": "583",
        "col4": "35 (UHF, until 2009)"
    },
    {
        "col0": "WCIU-TV",
        "col1": "WWME-CD",
        "col2": ")",
        "col3": "473",
        "col4": "26 (UHF, 1964-2009)"
    },
    {
        "col0": "WCIA",
        "col1": "WHBF-TV",
        "col2": "48 (UHF)",
        "col3": "245",
        "col4": "3 (VHF, 1953-2009)"
    },
    {
        "col0": "WCET",
        "col1": "WPTD",
        "col2": "34 (UHF)",
        "col3": "326",
        "col4": "48 (UHF, 1954-2009)"
    },
    {
        "col0": "WCCO-TV",
        "col1": "WCCO",
        "col2": "32 (UHF)",
        "col3": "432",
        "col4": "4 (VHF, 1949-2009)"
    },
    {
        "col0": "WCBD-TV",
        "col1": "WBTW",
        "col2": "50 (UHF)",
        "col3": "581",
        "col4": "2 (VHF, 1954-2009)"
    },
    {
        "col0": "WCAV",
        "col1": "WSVF-CD",
        "col2": "19 (UHF)",
        "col3": "325",
        "col4": "19 (UHF, 2004-2009)"
    },
    {
        "col0": "WBXX-TV",
        "col1": "WVLT-TV",
        "col2": "20 (UHF/PSIP)",
        "col3": "735",
        "col4": "Analog: 20 (1997-2009)"
    },
    {
        "col0": "WBXH-CD",
        "col1": "KSLA-TV",
        "col2": "39 (UHF)",
        "col3": "510",
        "col4": "46 (UHF, 1995-2002)"
    },
    {
        "col0": "WBUY-TV",
        "col1": "WPGD-TV",
        "col2": "41 (UHF)",
        "col3": "122",
        "col4": "40 (UHF, 1991-2009)"
    },
    {
        "col0": "WBUP",
        "col1": "WBKP",
        "col2": "10 (VHF) &",
        "col3": "105",
        "col4": "10 (VHF, 2003-2009)"
    },
    {
        "col0": "WBUI",
        "col1": "WRSP-TV",
        "col2": "22 (UHF)",
        "col3": "401",
        "col4": "23 (UHF, 1984-2009)"
    },
    {
        "col0": "WBSF",
        "col1": "WSMH",
        "col2": "46 (UHF)",
        "col3": "306",
        "col4": "46 (UHF, 2006-2009)"
    },
    {
        "col0": "WBRZ-TV",
        "col1": "KBTR-CA",
        "col2": "13 (VHF)",
        "col3": "515",
        "col4": "2 (VHF, 1955-2009)"
    },
    {
        "col0": "WBRE-TV",
        "col1": "WYOU",
        "col2": "11 (VHF)",
        "col3": "471",
        "col4": "Analog: 28 (1953-2009)"
    },
    {
        "col0": "WBOC-TV",
        "col1": "WBOC-FM",
        "col2": "21 (UHF)",
        "col3": "279",
        "col4": "16 (UHF, 1954-2009)"
    },
    {
        "col0": "WBNS-TV",
        "col1": "WBNS",
        "col2": "21 (UHF)",
        "col3": "279",
        "col4": "10 (VHF, 1949-2009)"
    },
    {
        "col0": "WBND-LD",
        "col1": "WCWW-LD",
        "col2": "34 (UHF)",
        "col3": "361",
        "col4": "49 (UHF, 2007-2012)"
    },
    {
        "col0": "WBMM",
        "col1": "WAKA",
        "col2": "22 (UHF) &",
        "col3": "341",
        "col4": "22 (UHF, 2002-2009)"
    },
    {
        "col0": "WBME-CD",
        "col1": "WMLW-TV",
        "col2": "24 (UHF)",
        "col3": "317",
        "col4": "13 (VHF, 2007-2012)"
    },
    {
        "col0": "WBKP",
        "col1": "WBUP",
        "col2": "5 (VHF) &",
        "col3": "105",
        "col4": "(UHFtranslator, 1997-2003)"
    },
    {
        "col0": "WBKO",
        "col1": "WYMT",
        "col2": "13 (VHF/PSIP)",
        "col3": "220",
        "col4": "13 (VHFanalog, 1962-2009)"
    },
    {
        "col0": "WBKB-TV",
        "col1": "WBKP",
        "col2": "11 (VHF)",
        "col3": "202",
        "col4": "11 (VHFanalog, 1975-2009)"
    },
    {
        "col0": "WBGH-CD",
        "col1": "WSYR-TV",
        "col2": "20 (UHF)",
        "col3": "204",
        "col4": "20 (UHF, 2001-2015)"
    },
    {
        "col0": "WBFF",
        "col1": "WNUV",
        "col2": "46 (UHF)",
        "col3": "372",
        "col4": "45 (UHF, 1971-2009)"
    },
    {
        "col0": "WBEC-TV",
        "col1": "WKPX",
        "col2": "40 (UHF)",
        "col3": "285",
        "col4": "63 (UHF, 1986-2009)"
    },
    {
        "col0": "WBDT",
        "col1": "WDTN",
        "col2": "26 (UHF)",
        "col3": "349",
        "col4": "18 (UHF, until 2009)"
    },
    {
        "col0": "WBBM-TV",
        "col1": "WBBM-FM",
        "col2": ")",
        "col3": "497",
        "col4": "* 2 (VHF, 1953-2009)"
    },
    {
        "col0": "WBBH-TV",
        "col1": "WVIR-TV",
        "col2": "15 (UHF)",
        "col3": "453",
        "col4": "20 (UHF, 1968-2009)"
    },
    {
        "col0": "WBAL-TV",
        "col1": "WBAL",
        "col2": "11 (VHF)",
        "col3": "299",
        "col4": "11 (VHF, 1948-2009)"
    },
    {
        "col0": "WAWV-TV",
        "col1": "WTWO",
        "col2": "39 (UHF)",
        "col3": "248",
        "col4": "38 (UHF, 1973-2009)"
    },
    {
        "col0": "WAVY-TV",
        "col1": "WVBT",
        "col2": "31 (UHF)",
        "col3": "280",
        "col4": "10 (VHF, 1957-2009)"
    },
    {
        "col0": "WATM-TV",
        "col1": "WWCP-TV",
        "col2": "24 (UHF) &",
        "col3": "311",
        "col4": "23 (1986-2009)"
    },
    {
        "col0": "WAOW",
        "col1": "KTTC",
        "col2": "9 (VHF/PSIP)",
        "col3": "368",
        "col4": "29 (UHFdigital, 1999-2009)"
    },
    {
        "col0": "WAKA",
        "col1": "WBMM",
        "col2": "42 (UHF)",
        "col3": "496",
        "col4": "55 (UHF, 2005-2008)"
    }
]