[
    {
        "col0": "A. Mickey",
        "col1": "UnitedHealthcare Women's Team",
        "col2": "1990-07-03",
        "col3": "1990-07-03"
    },
    {
        "col0": "A. Madani",
        "col1": "Groupement Sportif Petrolier Algerie",
        "col2": "1983-02-28",
        "col3": "1983-02-28"
    },
    {
        "col0": "A. Benyoucef",
        "col1": "Groupement Sportif des Petroliers d'Algerie",
        "col2": "1987-04-10",
        "col3": "1987-04-10"
    },
    {
        "col0": "A. Hannachi",
        "col1": "Groupement Sportif des Petroliers d'Algerie",
        "col2": "1985-02-02",
        "col3": "1985-02-02"
    },
    {
        "col0": "A. Gate",
        "col1": "An Post-ChainReaction",
        "col2": "1990-11-26",
        "col3": "1990-11-26"
    },
    {
        "col0": "A. Eshuis",
        "col1": "Parkhotel Valkenburg Continental Team",
        "col2": "1987-11-24",
        "col3": "1987-11-24"
    },
    {
        "col0": "L. Bodnar",
        "col1": "ActiveJet Team",
        "col2": "1982-05-10",
        "col3": "1982-05-10"
    },
    {
        "col0": "O. Pujol",
        "col1": "Team Ukyo",
        "col2": "1983-10-16",
        "col3": "1983-10-16"
    },
    {
        "col0": "E. Viennet",
        "col1": "FDJ.fr",
        "col2": "1992-02-06",
        "col3": "1992-02-06"
    },
    {
        "col0": "A. Edo",
        "col1": "Vitoria-ASC",
        "col2": "1970-08-04",
        "col3": "1970-08-04"
    }
]