[
    {
        "col0": "Z. Willis",
        "col1": "1967-12-30",
        "col2": "1967-12-30",
        "col3": "1-1 (NCAA D-II playoffs)"
    },
    {
        "col0": "W. Fritz",
        "col1": "1960-04-02",
        "col2": "1960-04-02",
        "col3": "0-1 (NCAA D-II playoffs)"
    },
    {
        "col0": "W. A. Thomas",
        "col1": "1948-10-21",
        "col2": "1948-10-21",
        "col3": "1-1 (NCAA D-I-AA playoffs)"
    },
    {
        "col0": "W. Bailey",
        "col1": "1939-06-03",
        "col2": "1939-06-03",
        "col3": "0-6 (NCAA D-II playoffs)"
    },
    {
        "col0": "W. Wade",
        "col1": "1982-11-26",
        "col2": "1982-11-26",
        "col3": "NCAA: 1-1"
    },
    {
        "col0": "W. Brown",
        "col1": "1950-04-19",
        "col2": "1950-04-19",
        "col3": "0-1 (NCAA D-I playoffs)"
    },
    {
        "col0": "V. Kehres",
        "col1": "1976-2-1",
        "col2": "1976-2-1",
        "col3": "13-2 (NCAA D-III playoffs)"
    },
    {
        "col0": "V. Shealy",
        "col1": "1961-07-14",
        "col2": "1961-07-14",
        "col3": "4-0 (NAIA playoffs)"
    },
    {
        "col0": "V. Bubas",
        "col1": "1927-01-28",
        "col2": "1927-01-28",
        "col3": "11-4 (.733)"
    },
    {
        "col0": "V. Peterson",
        "col1": "1892-05-02",
        "col2": "1892-05-02",
        "col3": "NCAA: 3-2 ()"
    },
    {
        "col0": "T. Gill",
        "col1": "1962-08-13",
        "col2": "1962-08-13",
        "col3": "1-1"
    },
    {
        "col0": "T. Raymond",
        "col1": "1926-11-04",
        "col2": "1926-11-04",
        "col3": "11-11 (NCAA-D-I-AA playoffs)"
    },
    {
        "col0": "T. Smith",
        "col1": "1966-02-14",
        "col2": "1966-02-14",
        "col3": "Big Ten: 17-7"
    },
    {
        "col0": "T. Storti",
        "col1": "1922-06-19",
        "col2": "1922-06-19",
        "col3": "0-0-1 (NAIA playoffs)"
    },
    {
        "col0": "T. Samuel",
        "col1": "1955-11-14",
        "col2": "1955-11-14",
        "col3": "0-1 (NCAA D-I playoffs)"
    },
    {
        "col0": "T. Rossi",
        "col1": "1943-12-11",
        "col2": "1943-12-11",
        "col3": "1-4 ()"
    },
    {
        "col0": "T. Knap",
        "col1": "1914-12-08",
        "col2": "1914-12-08",
        "col3": "1-3 (D-II playoffs)"
    },
    {
        "col0": "T. Bennett",
        "col1": "1969-06-01",
        "col2": "1969-06-01",
        "col3": "NCAA: 9-6 ()"
    },
    {
        "col0": "T. Barbee",
        "col1": "1971-08-10",
        "col2": "1971-08-10",
        "col3": "0-1 (NCAA)"
    },
    {
        "col0": "T. Lee",
        "col1": "1941-09-11",
        "col2": "1941-09-11",
        "col3": "0-1 (NAIA playoffs)"
    },
    {
        "col0": "T. Masella",
        "col1": "1959-07-11",
        "col2": "1959-07-11",
        "col3": "0-1 (NCAA D-I playoffs)"
    },
    {
        "col0": "T. Gilmore",
        "col1": "1964-09-25",
        "col2": "1964-09-25",
        "col3": "0-1 (NCAA D-I playoffs)"
    },
    {
        "col0": "T. Crean",
        "col1": "1966-03-25",
        "col2": "1966-03-25",
        "col3": "(NCAA): 11-8"
    },
    {
        "col0": "T. Blackburn",
        "col1": "1906-01-23",
        "col2": "1906-01-23",
        "col3": "NCAA: 1-1 ()"
    },
    {
        "col0": "T. Beck",
        "col1": "1940-12-21",
        "col2": "1940-12-21",
        "col3": "0-2 (NCAA D-II playoffs)"
    },
    {
        "col0": "T. Whitting",
        "col1": "1972-06-13",
        "col2": "1972-06-13",
        "col3": "C-USA: 4-6"
    },
    {
        "col0": "T. Mooney",
        "col1": "1965-06-13",
        "col2": "1965-06-13",
        "col3": "0-1 (NCAA D-III playoffs)"
    },
    {
        "col0": "T. Hoffner",
        "col1": "1966-06-17",
        "col2": "1966-06-17",
        "col3": "3-4 (NCAA D-II playoffs)"
    },
    {
        "col0": "T. Tadlock",
        "col1": "1968-12-21",
        "col2": "1968-12-21",
        "col3": "1-2 (Big 12)"
    },
    {
        "col0": "T. Stowers",
        "col1": "1958-02-08",
        "col2": "1958-02-08",
        "col3": "6-2 (NCAA D-I-AA playoffs)"
    },
    {
        "col0": "T. LaKose",
        "col1": "1969-05-28",
        "col2": "1969-05-28",
        "col3": "1-2 (NCAA D-I Ind.)6-5 (NCAA D-II)"
    },
    {
        "col0": "T. Chambers",
        "col1": "1965-01-27",
        "col2": "1965-01-27",
        "col3": "NCAA: 1-2"
    },
    {
        "col0": "T. Beck",
        "col1": "1964-01-18",
        "col2": "1964-01-18",
        "col3": "4-0 (NCAA D-II playoffs)"
    },
    {
        "col0": "T. Rooney",
        "col1": "1973-11-29",
        "col2": "1973-11-29",
        "col3": "C-USA: 4-7"
    },
    {
        "col0": "T. Puhl",
        "col1": "1956-07-08",
        "col2": "1956-07-08",
        "col3": "20-15"
    },
    {
        "col0": "T. Gurnett",
        "col1": "1955-1-1",
        "col2": "1955-1-1",
        "col3": "10 University Athletic"
    },
    {
        "col0": "T. Bowden",
        "col1": "1956-02-25",
        "col2": "1956-02-25",
        "col3": "2-2 (NCAA D-IAA playoffs)"
    },
    {
        "col0": "T. Allen",
        "col1": "1957-06-27",
        "col2": "1957-06-27",
        "col3": "6-7 (NCAA D-I-AA playoffs)"
    },
    {
        "col0": "T. Mahan",
        "col1": "1955-09-07",
        "col2": "1955-09-07",
        "col3": "NCAA:"
    },
    {
        "col0": "T. K. Jr.",
        "col1": "1964-12-10",
        "col2": "1964-12-10",
        "col3": "7-2 (NAIA playoffs)"
    },
    {
        "col0": "T. Louis",
        "col1": "1975-06-17",
        "col2": "1975-06-17",
        "col3": "1-2 (NJCAAD-II)"
    },
    {
        "col0": "S. Johnson",
        "col1": "1974-04-26",
        "col2": "1974-04-26",
        "col3": "0-1NCAA"
    },
    {
        "col0": "S. Guevara",
        "col1": "1954-07-08",
        "col2": "1954-07-08",
        "col3": "1-4 (NCAA)"
    },
    {
        "col0": "S. Fulton",
        "col1": "1929-10-24",
        "col2": "1929-10-24",
        "col3": "0-1 (NCAA Division III)"
    },
    {
        "col0": "S. Traylor",
        "col1": "1951-02-15",
        "col2": "1951-02-15",
        "col3": "ACC: 6-22"
    },
    {
        "col0": "S. Smith",
        "col1": "1961-2-2",
        "col2": "1961-2-2",
        "col3": "Big 12: 30-33"
    },
    {
        "col0": "S. Roberts",
        "col1": "1964-10-13",
        "col2": "1964-10-13",
        "col3": "0-1 (NCAA D-I-AA playoffs)"
    },
    {
        "col0": "S. Prohm",
        "col1": "1974-07-12",
        "col2": "1974-07-12",
        "col3": "CIT: 5-0"
    },
    {
        "col0": "S. McClain",
        "col1": "1962-08-15",
        "col2": "1962-08-15",
        "col3": "(NCAA): 1-1"
    },
    {
        "col0": "S. Marino",
        "col1": "1949-8-24",
        "col2": "1949-8-24",
        "col3": "0-1 (NCAA D-III playoffs)"
    },
    {
        "col0": "S. Johnson",
        "col1": "1956-05-25",
        "col2": "1956-05-25",
        "col3": "9-8 (NCAA D-III playoffs)"
    },
    {
        "col0": "S. Cleveland",
        "col1": "1952-02-04",
        "col2": "1952-02-04",
        "col3": "0-3 (NCAA)"
    },
    {
        "col0": "S. Campbell",
        "col1": "1966-04-11",
        "col2": "1966-04-11",
        "col3": "4-0 (NCAA D-II playoffs)"
    },
    {
        "col0": "S. Watts",
        "col1": "1911-08-30",
        "col2": "1911-08-30",
        "col3": "NCAA: 4-10 ()"
    },
    {
        "col0": "S. Sheriff",
        "col1": "1932-04-24",
        "col2": "1932-04-24",
        "col3": "0-1 (NCAA D-II playoffs)"
    },
    {
        "col0": "S. Morrison",
        "col1": "1939-10-15",
        "col2": "1939-10-15",
        "col3": "0-4 (NCAA)"
    },
    {
        "col0": "S. McGarvey",
        "col1": "1949-05-07",
        "col2": "1949-05-07",
        "col3": "2-2 (NAIA D-II playoffs)"
    },
    {
        "col0": "S. Woods",
        "col1": "1953-12-20",
        "col2": "1953-12-20",
        "col3": "2-2 (NCAA D-I-AA playoffs)"
    },
    {
        "col0": "S. McFarland",
        "col1": "1954-05-24",
        "col2": "1954-05-24",
        "col3": "CAA: 22-20"
    },
    {
        "col0": "S. Jackson",
        "col1": "1938-09-24",
        "col2": "1938-09-24",
        "col3": "1-1 (NCAA D-I-AA playoffs)"
    },
    {
        "col0": "S. Laval",
        "col1": "1955-12-20",
        "col2": "1955-12-20",
        "col3": "17-17"
    },
    {
        "col0": "S. Holtz",
        "col1": "1964-03-12",
        "col2": "1964-03-12",
        "col3": "1-1 (NCAA DI-AA playoffs)"
    },
    {
        "col0": "S. Hall",
        "col1": "1944-02-18",
        "col2": "1944-02-18",
        "col3": "2-2 (NCAA D-I-AA playoffs)"
    },
    {
        "col0": "S. Wilson",
        "col1": "1925-09-26",
        "col2": "1925-09-26",
        "col3": "1-3 (NAIA D-I playoffs)"
    },
    {
        "col0": "S. Metcalf",
        "col1": "1930-12-23",
        "col2": "1930-12-23",
        "col3": "7-9"
    },
    {
        "col0": "S. Chatman",
        "col1": "1947-12-15",
        "col2": "1947-12-15",
        "col3": "0-4"
    },
    {
        "col0": "S. Smart",
        "col1": "1877-4-8",
        "col2": "1877-4-8",
        "col3": "(CBI): 5-0"
    },
    {
        "col0": "S. Miller",
        "col1": "1968-11-17",
        "col2": "1968-11-17",
        "col3": "0-1 () (NIT)"
    },
    {
        "col0": "S. Heather",
        "col1": "1975-09-14",
        "col2": "1975-09-14",
        "col3": "1-2"
    },
    {
        "col0": "S. Garson",
        "col1": "1976-04-24",
        "col2": "1976-04-24",
        "col3": "2-2 (NAIA D-II)"
    },
    {
        "col0": "S. Drew",
        "col1": "1970-10-23",
        "col2": "1970-10-23",
        "col3": "(NCAA): 8-6 (NIT): 9-2"
    },
    {
        "col0": "S. Botham",
        "col1": "1965-12-12",
        "col2": "1965-12-12",
        "col3": "0-2 (NCAA Division I)"
    },
    {
        "col0": "S. Piraro",
        "col1": "1951-12-22",
        "col2": "1951-12-22",
        "col3": "0-2 (College World Series)"
    },
    {
        "col0": "R. Williams",
        "col1": "1969-03-26",
        "col2": "1969-03-26",
        "col3": "0-1 (NCAA D-I)"
    },
    {
        "col0": "R. Hubbard",
        "col1": "1946-1-1",
        "col2": "1946-1-1",
        "col3": "2-0 (NCAA D-I-AA playoffs)"
    },
    {
        "col0": "R. Greene",
        "col1": "1905-05-02",
        "col2": "1905-05-02",
        "col3": "NCAA: 0-2 ()"
    },
    {
        "col0": "R. Kidd",
        "col1": "1931-12-04",
        "col2": "1931-12-04",
        "col3": "0-1 (NCAA D-II playoffs)"
    },
    {
        "col0": "R. Els",
        "col1": "1965-08-14",
        "col2": "1965-08-14",
        "col3": "1-2"
    },
    {
        "col0": "R. Schipper",
        "col1": "1928-08-07",
        "col2": "1928-08-07",
        "col3": "16-11 (NCAA D-III playoffs)"
    },
    {
        "col0": "R. McBride",
        "col1": "1939-10-14",
        "col2": "1939-10-14",
        "col3": "1-2 (NCAA D-I playoffs)"
    },
    {
        "col0": "R. Massimino",
        "col1": "1934-11-13",
        "col2": "1934-11-13",
        "col3": "0-2 (NCAA College Division)"
    },
    {
        "col0": "R. Terry",
        "col1": "1968-03-27",
        "col2": "1968-03-27",
        "col3": "0-1 (NCAA)"
    },
    {
        "col0": "R. Reed",
        "col1": "1966-09-15",
        "col2": "1966-09-15",
        "col3": "1-1 (NCAA D-I playoffs)"
    },
    {
        "col0": "R. Broadway",
        "col1": "1955-04-09",
        "col2": "1955-04-09",
        "col3": "0-2 (NCAA D-II playoffs)"
    },
    {
        "col0": "R. Rees",
        "col1": "1949-06-09",
        "col2": "1949-06-09",
        "col3": "1-3 (NCAA D-II playoffs)"
    },
    {
        "col0": "R. Hager",
        "col1": "1951-08-29",
        "col2": "1951-08-29",
        "col3": "12-5 (NCAA D-II playoffs)"
    },
    {
        "col0": "R. Selvig",
        "col1": "1952-08-21",
        "col2": "1952-08-21",
        "col3": "6-22 (NCAA)"
    },
    {
        "col0": "R. Wolfe",
        "col1": "1946-11-24",
        "col2": "1946-11-24",
        "col3": "1-2 (NAIA D-II playoffs)"
    },
    {
        "col0": "R. Anae",
        "col1": "1958-12-21",
        "col2": "1958-12-21",
        "col3": "35"
    }
]