[
    {
        "col0": "Labioscrotal swelling",
        "col1": "Genital tubercle",
        "col2": "1214",
        "col3": "252"
    },
    {
        "col0": "Intermaxillary segment",
        "col1": "Medial nasal prominence",
        "col2": "68",
        "col3": "13"
    },
    {
        "col0": "Inner cell mass",
        "col1": "Blastocyst",
        "col2": "46",
        "col3": "6"
    },
    {
        "col0": "Hindgut",
        "col1": "Mesenchyme",
        "col2": "1101",
        "col3": "241"
    },
    {
        "col0": "Gubernaculum testis",
        "col1": "Gubernaculum",
        "col2": "1211",
        "col3": "252"
    },
    {
        "col0": "Gubernaculum",
        "col1": "Intermediate mesoderm",
        "col2": "1211",
        "col3": "252"
    },
    {
        "col0": "Gonadal ridge",
        "col1": "Urogenital folds",
        "col2": "1207",
        "col3": "252"
    },
    {
        "col0": "Genital tubercle",
        "col1": "Somatopleure",
        "col2": "1213",
        "col3": "252"
    },
    {
        "col0": "Foregut",
        "col1": "Mesenchyme",
        "col2": "1101",
        "col3": "241"
    },
    {
        "col0": "Endoderm",
        "col1": "Hypoblast",
        "col2": "49",
        "col3": "6"
    },
    {
        "col0": "Endocardial cushions",
        "col1": "Lateral plate mesoderm",
        "col2": "512",
        "col3": "135"
    },
    {
        "col0": "Cloacal membrane",
        "col1": "Primitive streak",
        "col2": "47",
        "col3": "6"
    },
    {
        "col0": "Cloaca",
        "col1": "Endoderm",
        "col2": "1109",
        "col3": "241"
    },
    {
        "col0": "Blood islands",
        "col1": "Mesoderm",
        "col2": "506",
        "col3": "135"
    },
    {
        "col0": "Basal plate",
        "col1": "Neural tube",
        "col2": "735",
        "col3": "184"
    },
    {
        "col0": "Axial mesoderm",
        "col1": "Mesoderm",
        "col2": "50",
        "col3": "6"
    },
    {
        "col0": "Aorticopulmonary septum",
        "col1": "Neural crest",
        "col2": "514",
        "col3": "135"
    },
    {
        "col0": "Aortic sac",
        "col1": "Neural crest",
        "col2": "514",
        "col3": "135"
    },
    {
        "col0": "Allantois",
        "col1": "Yolk sac",
        "col2": "54",
        "col3": "12"
    },
    {
        "col0": "Alar plate",
        "col1": "Neural tube",
        "col2": "735",
        "col3": "184"
    }
]