[
    {
        "col0": "Vienna, City of Song",
        "col1": "I. Sym",
        "col2": "E. Neubach",
        "col3": "6060"
    },
    {
        "col0": "Vienna, City of My Dreams",
        "col1": "A. Hoven",
        "col2": "W. Forst",
        "col3": "6240"
    },
    {
        "col0": "Vidyapati",
        "col1": "P. Kapoor",
        "col2": "K. Sharma",
        "col3": "8460"
    },
    {
        "col0": "Viduthalai",
        "col1": "R. S. Manohar",
        "col2": "K. Ramnoth",
        "col3": "10200"
    },
    {
        "col0": "Vidukathai",
        "col1": "P. Raj",
        "col2": "Agathiyan",
        "col3": "9060"
    },
    {
        "col0": "Vidocq",
        "col1": "G. Canet",
        "col2": "E. F. Vidocq",
        "col3": "5880"
    },
    {
        "col0": "Vidocq",
        "col1": "R. Ferte",
        "col2": "E. F. Vidocq",
        "col3": "6300"
    },
    {
        "col0": "Vidiyum Varai Kaathiru",
        "col1": "K. Bhagyaraj",
        "col2": "K. Bhagyaraj",
        "col3": "7980"
    },
    {
        "col0": "Vidivelli",
        "col1": "S. V. Ranga Rao",
        "col2": "C. V. Sridhar",
        "col3": "7560"
    },
    {
        "col0": "Vidheyan",
        "col1": "Mammootty",
        "col2": "A. Gopalakrishnan",
        "col3": "6720"
    },
    {
        "col0": "Videodrome",
        "col1": "D. Harry",
        "col2": "D. Cronenberg",
        "col3": "5340"
    },
    {
        "col0": "Video from Hell",
        "col1": "F. Zappa",
        "col2": "F. Zappa",
        "col3": "3600"
    },
    {
        "col0": "Video de Familia",
        "col1": "E. Molina",
        "col2": "H. Padron",
        "col3": "2820"
    },
    {
        "col0": "Vidas Secas",
        "col1": "M. Ribeiro",
        "col2": "Nelson Pereira dos Santos",
        "col3": "6180"
    },
    {
        "col0": "Vidaaya",
        "col1": "L. Gopalaswamy",
        "col2": "P. Sheshadri",
        "col3": "6120"
    },
    {
        "col0": "Vida de Menina",
        "col1": "D. Vigh",
        "col2": "H. Solberg",
        "col3": "5400"
    },
    {
        "col0": "Victory Through Air Power",
        "col1": "A. d. Seversky",
        "col2": "G. Stallings",
        "col3": "4200"
    },
    {
        "col0": "Victory",
        "col1": "A. Kher",
        "col2": "A. P. Mangat",
        "col3": "9540"
    },
    {
        "col0": "Victory",
        "col1": "R. Sewell",
        "col2": "M. Peploe",
        "col3": "5940"
    },
    {
        "col0": "Victory",
        "col1": "W. Beery",
        "col2": "J. Furthman",
        "col3": "3720"
    },
    {
        "col0": "Victoria the Great",
        "col1": "A. Neagle",
        "col2": "M. Malleson",
        "col3": "6720"
    },
    {
        "col0": "Victoria in Dover",
        "col1": "A. Hoven",
        "col2": "E. Marischka",
        "col3": "7080"
    },
    {
        "col0": "Victoria in Dover",
        "col1": "O. Limburg",
        "col2": "E. Marischka",
        "col3": "5760"
    },
    {
        "col0": "Victoria Day",
        "col1": "M. Rendall",
        "col2": "D. Bezmozgis",
        "col3": "5220"
    },
    {
        "col0": "Victoria",
        "col1": "F. Lau",
        "col2": "S. Schipper",
        "col3": "8280"
    },
    {
        "col0": "Victoria",
        "col1": "A. Karina",
        "col2": "A. Karina",
        "col3": "5700"
    },
    {
        "col0": "Victoria",
        "col1": "E. A. Felix",
        "col2": "H. James",
        "col3": "5340"
    },
    {
        "col0": "Victor and Victoria",
        "col1": "J. Heesters",
        "col2": "R. Schunzel",
        "col3": "6420"
    },
    {
        "col0": "Victor and Victoria",
        "col1": "H. Hildebrand",
        "col2": "R. Schunzel",
        "col3": "6000"
    },
    {
        "col0": "Victor Frankenstein",
        "col1": "J. McAvoy",
        "col2": "M. Landis",
        "col3": "6600"
    },
    {
        "col0": "Victor",
        "col1": "P. Richard",
        "col2": "L. Azuelos",
        "col3": "5700"
    },
    {
        "col0": "Victor",
        "col1": "J. Gabin",
        "col2": "H. Bernstein",
        "col3": "5400"
    },
    {
        "col0": "Victor/Victoria",
        "col1": "J. Andrews",
        "col2": "B. Edwards",
        "col3": "7920"
    },
    {
        "col0": "Victims of Vice",
        "col1": "M. Pascal",
        "col2": "J. Scandelari",
        "col3": "4800"
    },
    {
        "col0": "Victims and Murderers",
        "col1": "K. Roden",
        "col2": "A. Sedlackova",
        "col3": "5760"
    },
    {
        "col0": "Victim Five",
        "col1": "L. Barker",
        "col2": "P. Yeldham",
        "col3": "5280"
    },
    {
        "col0": "Victim",
        "col1": "A. Chin",
        "col2": "A. Chin",
        "col3": "5160"
    },
    {
        "col0": "Victim",
        "col1": "C. Chou",
        "col2": "R. Lam",
        "col3": "6240"
    },
    {
        "col0": "Vicky the Viking",
        "col1": "W. Kobus",
        "col2": "M. Herbig",
        "col3": "5100"
    },
    {
        "col0": "Vicky Donor",
        "col1": "Y. Gautam",
        "col2": "J. Chaturvedi",
        "col3": "7500"
    },
    {
        "col0": "Vicky Daada",
        "col1": "J. Chawla",
        "col2": "P. Brothers",
        "col3": "8400"
    },
    {
        "col0": "Vicky Cristina Barcelona",
        "col1": "P. Clarkson",
        "col2": "W. Allen",
        "col3": "5820"
    },
    {
        "col0": "Vicious Circle",
        "col1": "E. Rios",
        "col2": "P. Boyd",
        "col3": "5400"
    },
    {
        "col0": "Vichitra Prema",
        "col1": "R. Prasad",
        "col2": "J. S. Sastry",
        "col3": "7920"
    },
    {
        "col0": "Vice and Virtue",
        "col1": "A. Girardot",
        "col2": "R. Vadim",
        "col3": "6480"
    },
    {
        "col0": "Vice Versa",
        "col1": "K. Walsh",
        "col2": "P. Ustinov",
        "col3": "6660"
    },
    {
        "col0": "Vice Squad",
        "col1": "W. Hauser",
        "col2": "G. Sherman",
        "col3": "5820"
    },
    {
        "col0": "Vice Squad",
        "col1": "E. Barclay",
        "col2": "M. Boutel",
        "col3": "6360"
    },
    {
        "col0": "Vice Academy",
        "col1": "L. Quigley",
        "col2": "R. Sloane",
        "col3": "32280"
    },
    {
        "col0": "Vic and Flo Saw a Bear",
        "col1": "M. Grondin",
        "col2": "D. Cote",
        "col3": "5700"
    },
    {
        "col0": "Vibrator",
        "col1": "S. Terajima",
        "col2": "H. Arai",
        "col3": "5700"
    },
    {
        "col0": "Vibes",
        "col1": "C. Lauper",
        "col2": "L. Ganz",
        "col3": "5940"
    },
    {
        "col0": "Viaje sin regreso",
        "col1": "G. Battaglia",
        "col2": "H. M. Dougall",
        "col3": "5100"
    },
    {
        "col0": "Viaje al centro de la Tierra",
        "col1": "K. More",
        "col2": "J. P. Simon",
        "col3": "5400"
    },
    {
        "col0": "Via degli specchi",
        "col1": "N. Garcia",
        "col2": "J. Gruault",
        "col3": "4920"
    },
    {
        "col0": "Via Montenapoleone",
        "col1": "C. Alt",
        "col2": "C. Vanzina",
        "col3": "6240"
    },
    {
        "col0": "Via Mala",
        "col1": "G. Frobe",
        "col2": "J. Knittel",
        "col3": "5580"
    },
    {
        "col0": "Via Mala",
        "col1": "C. Wery",
        "col2": "T. v. Harbou",
        "col3": "6480"
    },
    {
        "col0": "Vi har det jo dejligt",
        "col1": "D. Passer",
        "col2": "B. Ramsing",
        "col3": "5160"
    },
    {
        "col0": "Vi er allesammen tossede",
        "col1": "D. Passer",
        "col2": "A. Stentoft",
        "col3": "6000"
    },
    {
        "col0": "Vi arme syndere",
        "col1": "I. Schonberg",
        "col2": "F. Lynge",
        "col3": "6300"
    },
    {
        "col0": "Vexille",
        "col1": "M. Kuroki",
        "col2": "F. Sori",
        "col3": "6660"
    },
    {
        "col0": "Vettaiyaadu Vilaiyaadu",
        "col1": "Jyothika",
        "col2": "G. V. Menon",
        "col3": "10440"
    },
    {
        "col0": "Vettaikaaran",
        "col1": "A. Shetty",
        "col2": "B. Babusivan",
        "col3": "9960"
    },
    {
        "col0": "Vettai",
        "col1": "R. Madhavan",
        "col2": "N. Linguswamy",
        "col3": "10080"
    },
    {
        "col0": "Vetri Vinayagar",
        "col1": "N. Ravi",
        "col2": "K. Shankar",
        "col3": "8160"
    },
    {
        "col0": "Vetri Kodi Kattu",
        "col1": "Manorama",
        "col2": "Cheran",
        "col3": "10080"
    },
    {
        "col0": "Veteran",
        "col1": "H. Jung-min",
        "col2": "R. Seung-wan",
        "col3": "7380"
    },
    {
        "col0": "Vetagaadu",
        "col1": "N. T. Rama Rao",
        "col2": "K. R. Rao",
        "col3": "8940"
    },
    {
        "col0": "Vesna",
        "col1": "S. Sever",
        "col2": "F. Cap",
        "col3": "5760"
    },
    {
        "col0": "Veronico Cruz",
        "col1": "J. J. Camero",
        "col2": "M. Pereira",
        "col3": "5760"
    },
    {
        "col0": "Very Ordinary Couple",
        "col1": "L. Min-ki",
        "col2": "R. Deok",
        "col3": "6720"
    },
    {
        "col0": "Very Important Person",
        "col1": "L. Phillips",
        "col2": "J. Davies",
        "col3": "5880"
    },
    {
        "col0": "Very Happy Alexander",
        "col1": "P. Noiret",
        "col2": "Y. Robert",
        "col3": "6000"
    },
    {
        "col0": "Very Good Girls",
        "col1": "D. Moore",
        "col2": "N. Foner",
        "col3": "5460"
    },
    {
        "col0": "Very Blue Beard",
        "col1": "O. Anofriev",
        "col2": "A. Arkanov",
        "col3": "1217"
    },
    {
        "col0": "Very Bad Things",
        "col1": "C. Slater",
        "col2": "P. Berg",
        "col3": "6000"
    },
    {
        "col0": "Very Annie Mary",
        "col1": "I. Gruffudd",
        "col2": "S. Sugarman",
        "col3": "6240"
    },
    {
        "col0": "Vertigo",
        "col1": "A. Mariscal",
        "col2": "E. F. Ardavin",
        "col3": "5460"
    },
    {
        "col0": "Vertical Limit",
        "col1": "B. Paxton",
        "col2": "R. King",
        "col3": "7440"
    },
    {
        "col0": "Vertical",
        "col1": "V. Vysotsky",
        "col2": "N. Rasheyev",
        "col3": "4380"
    },
    {
        "col0": "Versus",
        "col1": "T. Sakaguchi",
        "col2": "R. Kitamura",
        "col3": "7200"
    },
    {
        "col0": "Verso Sud",
        "col1": "A. Ponziani",
        "col2": "P. Pozzessere",
        "col3": "5280"
    },
    {
        "col0": "Veronika Voss",
        "col1": "H. Thate",
        "col2": "R. W. Fassbinder",
        "col3": "6240"
    },
    {
        "col0": "Veronica Mars",
        "col1": "E. Colantoni",
        "col2": "R. Thomas",
        "col3": "6420"
    },
    {
        "col0": "Veronica Guerin",
        "col1": "C. Blanchett",
        "col2": "M. A. Donoghue",
        "col3": "5880"
    },
    {
        "col0": "Vermont Is for Lovers",
        "col1": "M. Cohn",
        "col2": "J. O'Brien",
        "col3": "5280"
    },
    {
        "col0": "Verdict of the Sea",
        "col1": "J. Stuart",
        "col2": "F. Miller",
        "col3": "3900"
    },
    {
        "col0": "Verdict",
        "col1": "J. Gabin",
        "col2": "A. Cayatte",
        "col3": "5700"
    },
    {
        "col0": "Verboten!",
        "col1": "J. Best",
        "col2": "S. Fuller",
        "col3": "5580"
    },
    {
        "col0": "Verbena Tragica",
        "col1": "C. Villarias",
        "col2": "J. Bart",
        "col3": "4500"
    },
    {
        "col0": "Vera Drake",
        "col1": "S. Hawkins",
        "col2": "M. Leigh",
        "col3": "7500"
    },
    {
        "col0": "Vera Cruz",
        "col1": "B. Lancaster",
        "col2": "J. R. Webb",
        "col3": "5640"
    },
    {
        "col0": "Vera",
        "col1": "R. Cortez",
        "col2": "S. Toledo",
        "col3": "5220"
    },
    {
        "col0": "Veronico Cruz",
        "col1": "J. J. Camero",
        "col2": "M. Pereira",
        "col3": "5760"
    },
    {
        "col0": "Venussian Tabutasco",
        "col1": "D. Shokof",
        "col2": "D. Shokof",
        "col3": "3600"
    },
    {
        "col0": "Venusberg",
        "col1": "M. Mell",
        "col2": "R. Thiele",
        "col3": "5280"
    },
    {
        "col0": "Venus on Trial",
        "col1": "S. Breuer",
        "col2": "H. H. Zerlett",
        "col3": "5400"
    },
    {
        "col0": "Venus in the East",
        "col1": "B. Washburn",
        "col2": "W. Irwin",
        "col3": "3000"
    },
    {
        "col0": "Venus in Furs",
        "col1": "K. Kinski",
        "col2": "J. Franco",
        "col3": "5160"
    },
    {
        "col0": "Venus in Fur",
        "col1": "M. Amalric",
        "col2": "R. Polanski",
        "col3": "5760"
    },
    {
        "col0": "Venus fra Vesto",
        "col1": "M. Schwartz",
        "col2": "J. Tickell",
        "col3": "6960"
    },
    {
        "col0": "Venus Rising",
        "col1": "J. Alba",
        "col2": "H. Bean",
        "col3": "5040"
    },
    {
        "col0": "Venus Peter",
        "col1": "R. McAnally",
        "col2": "C. Rush",
        "col3": "5640"
    },
    {
        "col0": "Venus Beauty Institute",
        "col1": "A. Tautou",
        "col2": "J. Audiard",
        "col3": "6300"
    },
    {
        "col0": "Venus",
        "col1": "P. O'Toole",
        "col2": "H. Kureishi",
        "col3": "5700"
    },
    {
        "col0": "Vento del sud",
        "col1": "C. Cardinale",
        "col2": "G. Mangione",
        "col3": "5880"
    },
    {
        "col0": "Venomous",
        "col1": "H. Jaenicke",
        "col2": "S. McGinly",
        "col3": "5820"
    },
    {
        "col0": "Venom",
        "col1": "M. McAdam",
        "col2": "M. McAdam",
        "col3": "960"
    },
    {
        "col0": "Venom",
        "col1": "M. Good",
        "col2": "F. Dille",
        "col3": "5100"
    },
    {
        "col0": "Venom",
        "col1": "K. Kinski",
        "col2": "R. Carrington",
        "col3": "5520"
    },
    {
        "col0": "Vennira Iravuggal",
        "col1": "S. Krishnasamy",
        "col2": "P. Rajaram",
        "col3": "6000"
    },
    {
        "col0": "Vennira Aadai",
        "col1": "Jayalalithaa",
        "col2": "C. V. Sridhar",
        "col3": "10680"
    },
    {
        "col0": "Vennila Kabadi Kuzhu",
        "col1": "Kishore",
        "col2": "Susindran",
        "col3": "8700"
    },
    {
        "col0": "Vennela",
        "col1": "R. Abel",
        "col2": "D. Katta",
        "col3": "7980"
    },
    {
        "col0": "Venice/Venice",
        "col1": "D. Duchovny",
        "col2": "H. Jaglom",
        "col3": "6480"
    },
    {
        "col0": "Vengo",
        "col1": "A. Canales",
        "col2": "T. Gatlif",
        "col3": "5400"
    },
    {
        "col0": "Venghai",
        "col1": "Tamannaah",
        "col2": "Hari",
        "col3": "9300"
    },
    {
        "col0": "Vengeance of the Zombies",
        "col1": "P. Naschy",
        "col2": "P. Naschy",
        "col3": "5400"
    },
    {
        "col0": "Vengeance of Rannah",
        "col1": "R. T. Tin",
        "col2": "J. O. Curwood",
        "col3": "3360"
    },
    {
        "col0": "Vengeance Valley",
        "col1": "R. Walker",
        "col2": "I. Ravetch",
        "col3": "4980"
    },
    {
        "col0": "Vengeance Is a Dish Served Cold",
        "col1": "K. Kinski",
        "col2": "P. Squitieri",
        "col3": "5820"
    },
    {
        "col0": "Vengeance Is Mine",
        "col1": "M. Ogawa",
        "col2": "R. Saki",
        "col3": "8400"
    },
    {
        "col0": "Vengeance",
        "col1": "D. Chiang",
        "col2": "C. Cheh",
        "col3": "5880"
    },
    {
        "col0": "Vengeance",
        "col1": "R. Harrison",
        "col2": "A. Margheriti",
        "col3": "4860"
    },
    {
        "col0": "Vengeance",
        "col1": "M. Alexandre",
        "col2": "J. A. Bardem",
        "col3": "7320"
    },
    {
        "col0": "Venga a bailar el rock",
        "col1": "N. Lobato",
        "col2": "J. Porter",
        "col3": "3600"
    },
    {
        "col0": "Vendredi soir",
        "col1": "V. Lindon",
        "col2": "C. Denis",
        "col3": "5400"
    },
    {
        "col0": "Vendetta for a Samurai",
        "col1": "T. Shimura",
        "col2": "A. Kurosawa",
        "col3": "4920"
    },
    {
        "col0": "Vendetta dal futuro",
        "col1": "D. Greene",
        "col2": "S. Martino",
        "col3": "5640"
    },
    {
        "col0": "Vendetta",
        "col1": "B. Davison",
        "col2": "T. Prager",
        "col3": "7020"
    },
    {
        "col0": "Vendetta",
        "col1": "F. Domergue",
        "col2": "P. Merimee",
        "col3": "4980"
    },
    {
        "col0": "Vendetta... sarda",
        "col1": "W. Chiari",
        "col2": "M. Monicelli",
        "col3": "5580"
    },
    {
        "col0": "Ven mi corazon te llama",
        "col1": "T. Lusiardo",
        "col2": "M. Romero",
        "col3": "5340"
    },
    {
        "col0": "Velvet Hands",
        "col1": "A. Celentano",
        "col2": "C. &. Pipolo",
        "col3": "6000"
    },
    {
        "col0": "Velvet Goldmine",
        "col1": "C. Bale",
        "col2": "J. Lyons",
        "col3": "7440"
    },
    {
        "col0": "Velocity Trap",
        "col1": "A. Coppola",
        "col2": "P. Phillips",
        "col3": "5340"
    },
    {
        "col0": "Vellivelichathil",
        "col1": "Iniya",
        "col2": "C. V. Balakrishnan",
        "col3": "7200"
    },
    {
        "col0": "Vellanakalude Nadu",
        "col1": "Mohanlal",
        "col2": "Sreenivasan",
        "col3": "7740"
    },
    {
        "col0": "Velicham Vitharunna Penkutty",
        "col1": "Swapna",
        "col2": "Durai",
        "col3": "7800"
    },
    {
        "col0": "Velayudham",
        "col1": "G. D'Souza",
        "col2": "Subha",
        "col3": "11160"
    },
    {
        "col0": "Velainu Vandhutta Vellaikaaran",
        "col1": "N. Galrani",
        "col2": "Ezhil",
        "col3": "7620"
    },
    {
        "col0": "Velaikaari",
        "col1": "M. N. Nambiar",
        "col2": "C. N. Annadurai",
        "col3": "10800"
    },
    {
        "col0": "Velaiilla Pattadhari",
        "col1": "A. Paul",
        "col2": "Velraj",
        "col3": "7980"
    },
    {
        "col0": "Vel",
        "col1": "Asin",
        "col2": "Hari",
        "col3": "9660"
    },
    {
        "col0": "Vehicle 19",
        "col1": "P. Walker",
        "col2": "M. M. Dewil",
        "col3": "5100"
    },
    {
        "col0": "Veguli Penn",
        "col1": "G. Ganesan",
        "col2": "V. V. Sundaram",
        "col3": "7380"
    },
    {
        "col0": "Vegetarian Cannibal",
        "col1": "E. Hadzihafizbegovic",
        "col2": "B. Schmidt",
        "col3": "5100"
    },
    {
        "col0": "Vegas in Space",
        "col1": "D. Fish",
        "col2": "D. Fish",
        "col3": "5100"
    },
    {
        "col0": "Veetula Raman Veliyila Krishnan",
        "col1": "Sivakumar",
        "col2": "Manivannan",
        "col3": "7680"
    },
    {
        "col0": "Veetuku Oru Kannagi",
        "col1": "Vijayakanth",
        "col2": "S. A. Chandrasekhar",
        "col3": "8640"
    },
    {
        "col0": "Veerappan",
        "col1": "L. Ray",
        "col2": "R. G. Varma",
        "col3": "7500"
    },
    {
        "col0": "Veerapandiya Kattabomman",
        "col1": "G. Ganesan",
        "col2": "M. P. Si.",
        "col3": "9960"
    },
    {
        "col0": "Veeram Vilanja Mannu",
        "col1": "Vijayakanth",
        "col2": "K. Raja",
        "col3": "10200"
    },
    {
        "col0": "Veeram",
        "col1": "A. Kumar",
        "col2": "Siva",
        "col3": "9360"
    },
    {
        "col0": "Veera Madakari",
        "col1": "Sudeep",
        "col2": "Sudeep",
        "col3": "10500"
    },
    {
        "col0": "Veer-Zaara",
        "col1": "A. Bachchan",
        "col2": "A. Chopra",
        "col3": "11760"
    },
    {
        "col0": "Veendum Chila Veettukaryangal",
        "col1": "Jayaram",
        "col2": "A. K. Lohithadas",
        "col3": "9000"
    },
    {
        "col0": "Veedu",
        "col1": "Archana",
        "col2": "B. Mahendra",
        "col3": "6480"
    },
    {
        "col0": "Veede",
        "col1": "R. Teja",
        "col2": "Dharani",
        "col3": "10800"
    },
    {
        "col0": "Vedhala Ulagam",
        "col1": "T. R. Mahalingam",
        "col2": "P. Neelakantan",
        "col3": "9600"
    },
    {
        "col0": "Vedan",
        "col1": "S. Babu",
        "col2": "S. Krissna",
        "col3": "8400"
    },
    {
        "col0": "Vedalam",
        "col1": "A. Kumar",
        "col2": "Siva",
        "col3": "8880"
    },
    {
        "col0": "Ved kongelunden...",
        "col1": "D. Passer",
        "col2": "P. Sarauw",
        "col3": "5280"
    }
]