[
    {
        "col0": "Yukon Vengeance",
        "col1": "K. Grant",
        "col2": "J. O. Curwood",
        "col3": "4080"
    },
    {
        "col0": "Yukon Manhunt",
        "col1": "M. Hyer",
        "col2": "J. O. Curwood",
        "col3": "3660"
    },
    {
        "col0": "Yukon Gold",
        "col1": "M. Hyer",
        "col2": "J. O. Curwood",
        "col3": "3720"
    },
    {
        "col0": "Yugant",
        "col1": "A. Dutt",
        "col2": "A. Sen",
        "col3": "7260"
    },
    {
        "col0": "Yugandhar",
        "col1": "N. R. Rao",
        "col2": "Salim-Javed",
        "col3": "9540"
    },
    {
        "col0": "Yuga Purusha",
        "col1": "Vajramuni",
        "col2": "D. R. Babu",
        "col3": "8100"
    },
    {
        "col0": "Yuddho",
        "col1": "M. Chakraborty",
        "col2": "N. Salil",
        "col3": "9960"
    },
    {
        "col0": "Yuddham Sei",
        "col1": "Cheran",
        "col2": "Mysskin",
        "col3": "9120"
    },
    {
        "col0": "Yu-Gi-Oh! The Movie: Pyramid of Light",
        "col1": "K. Tsuda",
        "col2": "N. J. Grossfeld",
        "col3": "5340"
    },
    {
        "col0": "Yu-Gi-Oh!: The Dark Side of Dimensions",
        "col1": "R. Matsumoto",
        "col2": "K. Takahashi",
        "col3": "7800"
    },
    {
        "col0": "Yrrol",
        "col1": "S. Sauk",
        "col2": "P. Dalle",
        "col3": "5280"
    },
    {
        "col0": "Youthful Folly",
        "col1": "J. Carr",
        "col2": "J. Tey",
        "col3": "4440"
    },
    {
        "col0": "Youth of Chopin",
        "col1": "A. Slaska",
        "col2": "A. Ford",
        "col3": "7260"
    },
    {
        "col0": "Youth in Revolt",
        "col1": "S. Buscemi",
        "col2": "G. Nash",
        "col3": "5340"
    },
    {
        "col0": "Youth Without Youth",
        "col1": "A. M. Lara",
        "col2": "F. F. Coppola",
        "col3": "7440"
    },
    {
        "col0": "Youth Will Be Served",
        "col1": "J. Withers",
        "col2": "W. Tuchock",
        "col3": "4080"
    },
    {
        "col0": "Youth Runs Wild",
        "col1": "B. Granville",
        "col2": "J. Fante",
        "col3": "4020"
    },
    {
        "col0": "Youth",
        "col1": "J. Fonda",
        "col2": "P. Sorrentino",
        "col3": "7440"
    },
    {
        "col0": "Yours Truly, Blake",
        "col1": "E. Constantine",
        "col2": "J. Vilfrid",
        "col3": "5820"
    },
    {
        "col0": "Yours Emotionally",
        "col1": "P. Gandhi",
        "col2": "S. Rangayan",
        "col3": "5160"
    },
    {
        "col0": "Yours, Mine and Ours",
        "col1": "H. Fonda",
        "col2": "M. Shavelson",
        "col3": "6660"
    },
    {
        "col0": "Your Witness",
        "col1": "R. Montgomery",
        "col2": "H. Butler",
        "col3": "6000"
    },
    {
        "col0": "Your Whole Life Ahead of You",
        "col1": "S. Ferilli",
        "col2": "P. Virzi",
        "col3": "7020"
    },
    {
        "col0": "Your Vice Is a Locked Room and Only I Have the Key",
        "col1": "E. Fenech",
        "col2": "E. Gastaldi",
        "col3": "5760"
    },
    {
        "col0": "Your Uncle Dudley",
        "col1": "E. E. Horton",
        "col2": "D. Schary",
        "col3": "4200"
    },
    {
        "col0": "Your Studio and You",
        "col1": "D. Moore",
        "col2": "M. Stone",
        "col3": "840"
    },
    {
        "col0": "Your Sister's Sister",
        "col1": "E. Blunt",
        "col2": "L. Shelton",
        "col3": "5400"
    },
    {
        "col0": "Your Name Is Justine",
        "col1": "D. Pinon",
        "col2": "F. d. Pena",
        "col3": "5820"
    },
    {
        "col0": "Your Name",
        "col1": "N. Shimazaki",
        "col2": "M. Shinkai",
        "col3": "6420"
    },
    {
        "col0": "Your Money or Your Life",
        "col1": "S. Tofano",
        "col2": "C. L. Bragaglia",
        "col3": "4260"
    },
    {
        "col0": "Your Highness",
        "col1": "J. Franco",
        "col2": "D. McBride",
        "col3": "6120"
    },
    {
        "col0": "Your Friends & Neighbors",
        "col1": "A. Eckhart",
        "col2": "N. LaBute",
        "col3": "6000"
    },
    {
        "col0": "Younger and Younger",
        "col1": "D. Sutherland",
        "col2": "P. Adlon",
        "col3": "5940"
    },
    {
        "col0": "Youngblood Hawke",
        "col1": "S. Pleshette",
        "col2": "H. Wouk",
        "col3": "8220"
    },
    {
        "col0": "Youngblood",
        "col1": "P. Swayze",
        "col2": "P. Markle",
        "col3": "6600"
    },
    {
        "col0": "Youngblood",
        "col1": "L. Hilton-Jacobs",
        "col2": "P. C. Harrison",
        "col3": "5400"
    },
    {
        "col0": "Young at Heart",
        "col1": "D. Day",
        "col2": "J. J. Epstein",
        "col3": "7020"
    },
    {
        "col0": "Young as You Feel",
        "col1": "S. Byington",
        "col2": "L. Beach",
        "col3": "3600"
    },
    {
        "col0": "Young as You Feel",
        "col1": "F. D'Orsay",
        "col2": "G. Ade",
        "col3": "4680"
    },
    {
        "col0": "Young and Willing",
        "col1": "R. Benchley",
        "col2": "V. V. Upp",
        "col3": "4980"
    },
    {
        "col0": "Young and Wild",
        "col1": "A. Rodriguez",
        "col2": "S. Sepulveda",
        "col3": "5700"
    },
    {
        "col0": "Young and Wild",
        "col1": "G. Evans",
        "col2": "A. T. Horman",
        "col3": "4140"
    },
    {
        "col0": "Young and Innocent",
        "col1": "D. D. Marney",
        "col2": "A. Reville",
        "col3": "4980"
    },
    {
        "col0": "Young and Dangerous 5",
        "col1": "S. Qi",
        "col2": "M. Wong",
        "col3": "6840"
    },
    {
        "col0": "Young and Dangerous 4",
        "col1": "J. Chan",
        "col2": "M. Wong",
        "col3": "6360"
    },
    {
        "col0": "Young and Dangerous: The Prequel",
        "col1": "S. Qi",
        "col2": "M. Wong",
        "col3": "6960"
    },
    {
        "col0": "Young and Dangerous",
        "col1": "J. Chan",
        "col2": "M. Wong",
        "col3": "5820"
    },
    {
        "col0": "Young and Beautiful",
        "col1": "J. Cawthorn",
        "col2": "D. Schary",
        "col3": "4080"
    },
    {
        "col0": "Young Woodley",
        "col1": "M. Carroll",
        "col2": "J. V. Druten",
        "col3": "4740"
    },
    {
        "col0": "Young Wives' Tale",
        "col1": "J. Greenwood",
        "col2": "R. Jeans",
        "col3": "4740"
    },
    {
        "col0": "Young Winston",
        "col1": "A. Bancroft",
        "col2": "C. Foreman",
        "col3": "9420"
    },
    {
        "col0": "Young Torless",
        "col1": "M. Carriere",
        "col2": "R. Musil",
        "col3": "5220"
    },
    {
        "col0": "Young Tom Edison",
        "col1": "F. Bainter",
        "col2": "H. Butler",
        "col3": "5160"
    },
    {
        "col0": "Young Torless",
        "col1": "M. Carriere",
        "col2": "R. Musil",
        "col3": "5220"
    },
    {
        "col0": "Young Soul Rebels",
        "col1": "F. Barber",
        "col2": "I. Julien",
        "col3": "6300"
    },
    {
        "col0": "Young Sinners",
        "col1": "H. Albright",
        "col2": "M. Watkins",
        "col3": "4740"
    },
    {
        "col0": "Young Sherlocks",
        "col1": "A. Hoskins",
        "col2": "H. Roach",
        "col3": "1200"
    },
    {
        "col0": "Young Sherlock Holmes",
        "col1": "R. Ashton-Griffiths",
        "col2": "C. Columbus",
        "col3": "6540"
    },
    {
        "col0": "Young Romance",
        "col1": "T. Forman",
        "col2": "W. C. deMille",
        "col3": "3540"
    },
    {
        "col0": "Young Pioneers' Christmas",
        "col1": "L. Purl",
        "col2": "R. W. Lane",
        "col3": "6000"
    },
    {
        "col0": "Young People",
        "col1": "A. Chan",
        "col2": "C. Cheh",
        "col3": "7080"
    },
    {
        "col0": "Young People",
        "col1": "T. Velazquez",
        "col2": "L. Alcoriza",
        "col3": "6000"
    },
    {
        "col0": "Young Ones",
        "col1": "M. Shannon",
        "col2": "J. Paltrow",
        "col3": "6000"
    },
    {
        "col0": "Young Nowheres",
        "col1": "R. Barthelmess",
        "col2": "B. King",
        "col3": "3900"
    },
    {
        "col0": "Young Mr. Lincoln",
        "col1": "H. Fonda",
        "col2": "L. Trotti",
        "col3": "6000"
    },
    {
        "col0": "Young Man with a Horn",
        "col1": "D. Day",
        "col2": "E. H. North",
        "col3": "6720"
    },
    {
        "col0": "Young Man with Ideas",
        "col1": "G. Ford",
        "col2": "A. Sheekman",
        "col3": "5100"
    },
    {
        "col0": "Young Man of Manhattan",
        "col1": "C. Ruggles",
        "col2": "K. Brush",
        "col3": "4740"
    },
    {
        "col0": "Young Man's Fancy",
        "col1": "A. Lee",
        "col2": "R. Stevenson",
        "col3": "4620"
    },
    {
        "col0": "Young Jesse James",
        "col1": "E. Meyer",
        "col2": "O. H. Hampton",
        "col3": "4380"
    },
    {
        "col0": "Young Husbands",
        "col1": "F. Interlenghi",
        "col2": "P. F. Campanile",
        "col3": "5880"
    },
    {
        "col0": "Young Hunters: The Beast of Bevendean",
        "col1": "J. Hansler",
        "col2": "E. Gorman",
        "col3": "4620"
    },
    {
        "col0": "Young Hearts",
        "col1": "I. Lutz",
        "col2": "R. Meyer",
        "col3": "5220"
    },
    {
        "col0": "Young Guns II",
        "col1": "C. Slater",
        "col2": "J. Fusco",
        "col3": "6240"
    },
    {
        "col0": "Young Guns",
        "col1": "J. Palance",
        "col2": "J. Fusco",
        "col3": "6180"
    },
    {
        "col0": "Young Goethe in Love",
        "col1": "M. Bleibtreu",
        "col2": "P. Stolzl",
        "col3": "6120"
    },
    {
        "col0": "Young Gods",
        "col1": "J. Banerjee",
        "col2": "J. Vieno",
        "col3": "5940"
    },
    {
        "col0": "Young Fury",
        "col1": "R. Calhoun",
        "col2": "S. Fisher",
        "col3": "4800"
    },
    {
        "col0": "Young Frankenstein",
        "col1": "C. Leachman",
        "col2": "G. Wilder",
        "col3": "6300"
    },
    {
        "col0": "Young Einstein",
        "col1": "J. Howard",
        "col2": "Y. Serious",
        "col3": "5460"
    },
    {
        "col0": "Young Eagles",
        "col1": "B. Rogers",
        "col2": "G. Jones",
        "col3": "4320"
    },
    {
        "col0": "Young Dr. Kildare",
        "col1": "L. Barrymore",
        "col2": "M. Brand",
        "col3": "4920"
    },
    {
        "col0": "Young Donovan's Kid",
        "col1": "J. Cooper",
        "col2": "J. W. Ruben",
        "col3": "4620"
    },
    {
        "col0": "Young Desire",
        "col1": "M. Busch",
        "col2": "C. G. Sullivan",
        "col3": "4080"
    },
    {
        "col0": "Young Catherine",
        "col1": "V. Redgrave",
        "col2": "C. Bryant",
        "col3": "9000"
    },
    {
        "col0": "Young Cassidy",
        "col1": "R. Taylor",
        "col2": "J. Whiting",
        "col3": "6600"
    },
    {
        "col0": "Young Buffalo Bill",
        "col1": "R. Rogers",
        "col2": "G. Geraghty",
        "col3": "3240"
    },
    {
        "col0": "Young Bride",
        "col1": "A. Judge",
        "col2": "J. Murfin",
        "col3": "4560"
    },
    {
        "col0": "Young Billy Young",
        "col1": "R. Mitchum",
        "col2": "B. Kennedy",
        "col3": "5340"
    },
    {
        "col0": "Young Bess",
        "col1": "C. Laughton",
        "col2": "A. Wimperis",
        "col3": "6720"
    },
    {
        "col0": "Young America",
        "col1": "J. Withers",
        "col2": "S. G. Engel",
        "col3": "4380"
    },
    {
        "col0": "Young America",
        "col1": "S. Tracy",
        "col2": "M. D. Watkins",
        "col3": "4200"
    },
    {
        "col0": "Young Adult",
        "col1": "C. Theron",
        "col2": "D. Cody",
        "col3": "5640"
    },
    {
        "col0": "Young Adam",
        "col1": "E. Mortimer",
        "col2": "D. Mackenzie",
        "col3": "5880"
    },
    {
        "col0": "You to Me Are Everything",
        "col1": "D. Dantes",
        "col2": "A. Adlawan",
        "col3": "7200"
    },
    {
        "col0": "You for Me",
        "col1": "J. Greer",
        "col2": "W. Roberts",
        "col3": "4260"
    },
    {
        "col0": "You and Me Are Three",
        "col1": "A. d. Mendoza",
        "col2": "E. J. Poncela",
        "col3": "5340"
    },
    {
        "col0": "You and Me",
        "col1": "J. Yaqin",
        "col2": "M. Liwen",
        "col3": "4980"
    },
    {
        "col0": "You and Me",
        "col1": "S. Sidney",
        "col2": "N. Krasna",
        "col3": "5400"
    },
    {
        "col0": "You and I",
        "col1": "J. Gottschalk",
        "col2": "C. J. Braun",
        "col3": "6360"
    },
    {
        "col0": "You Will Remember",
        "col1": "R. Morley",
        "col2": "C. Morley",
        "col3": "5160"
    },
    {
        "col0": "You Will Meet a Tall Dark Stranger",
        "col1": "A. Hopkins",
        "col2": "W. Allen",
        "col3": "6000"
    },
    {
        "col0": "You Will Be a Duchess",
        "col1": "F. Gravey",
        "col2": "Y. Mirande",
        "col3": "5100"
    },
    {
        "col0": "You Will Be My Wife",
        "col1": "R. Treville",
        "col2": "I. v. Cube",
        "col3": "5460"
    },
    {
        "col0": "You Will Be My Son",
        "col1": "L. Deutsch",
        "col2": "D. d. Vigan",
        "col3": "6120"
    },
    {
        "col0": "You Were Never Lovelier",
        "col1": "F. Astaire",
        "col2": "D. Daves",
        "col3": "5820"
    },
    {
        "col0": "You Were Meant for Me",
        "col1": "O. Levant",
        "col2": "V. Davies",
        "col3": "5520"
    },
    {
        "col0": "You Too Brutus",
        "col1": "Sreenivasan",
        "col2": "Hindi",
        "col3": "6060"
    },
    {
        "col0": "You Stupid Man",
        "col1": "W. Baldwin",
        "col2": "B. Burns",
        "col3": "5700"
    },
    {
        "col0": "You So Crazy",
        "col1": "M. Lawrence",
        "col2": "M. Lawrence",
        "col3": "5100"
    },
    {
        "col0": "You Shoot, I Shoot",
        "col1": "E. Kot",
        "col2": "V. Kok",
        "col3": "5640"
    },
    {
        "col0": "You Said a Mouthful",
        "col1": "P. Foster",
        "col2": "R. Lord",
        "col3": "4200"
    },
    {
        "col0": "You Only Live Twice",
        "col1": "S. Connery",
        "col2": "R. Dahl",
        "col3": "7020"
    },
    {
        "col0": "You Only Live Once",
        "col1": "H. Fonda",
        "col2": "C. G. Baker",
        "col3": "5160"
    },
    {
        "col0": "You Never Saw Such a Girl",
        "col1": "H. Ford",
        "col2": "M. Fairfax",
        "col3": "3000"
    },
    {
        "col0": "You Never Can Tell",
        "col1": "D. Powell",
        "col2": "L. Breslow",
        "col3": "4680"
    },
    {
        "col0": "You Never Can Tell",
        "col1": "B. Daniels",
        "col2": "T. J. Geraghty",
        "col3": "3000"
    },
    {
        "col0": "You Nazty Spy!",
        "col1": "C. Howard",
        "col2": "C. Bruckman",
        "col3": "1079"
    },
    {
        "col0": "You Must Be Joking!",
        "col1": "L. Schuster",
        "col2": "L. Schuster",
        "col3": "5760"
    },
    {
        "col0": "You Must Be Joking!",
        "col1": "L. Jeffries",
        "col2": "M. Winner",
        "col3": "6000"
    },
    {
        "col0": "You Me and Captain Longbridge",
        "col1": "J. Fiennes",
        "col2": "C. Carver",
        "col3": "900"
    },
    {
        "col0": "You May Not Kiss the Bride",
        "col1": "K. Bates",
        "col2": "R. Hedden",
        "col3": "5940"
    },
    {
        "col0": "You May Be Next",
        "col1": "L. Nolan",
        "col2": "J. Whale",
        "col3": "3960"
    },
    {
        "col0": "You Lucky People",
        "col1": "T. Trinder",
        "col2": "T. Trinder",
        "col3": "4740"
    },
    {
        "col0": "You Love Only Once",
        "col1": "M. Manojlovic",
        "col2": "R. Grlic",
        "col3": "6180"
    },
    {
        "col0": "You Live and Learn",
        "col1": "G. Farrell",
        "col2": "B. Williams",
        "col3": "4860"
    },
    {
        "col0": "You Light Up My Life",
        "col1": "J. Silver",
        "col2": "J. Brooks",
        "col3": "5400"
    },
    {
        "col0": "You Know My Name",
        "col1": "C. McCormick",
        "col2": "J. K. Harrison",
        "col3": "5640"
    },
    {
        "col0": "You Kill Me",
        "col1": "B. Kingsley",
        "col2": "Christopher Markus & Stephen McFeely",
        "col3": "5580"
    },
    {
        "col0": "You Instead",
        "col1": "M. Baynton",
        "col2": "T. Leveritt",
        "col3": "4800"
    },
    {
        "col0": "You I Love",
        "col1": "L. Tolkalina",
        "col2": "D. Troitsky",
        "col3": "5160"
    },
    {
        "col0": "You Have to be Beautiful",
        "col1": "A. Ondra",
        "col2": "G. Kampendonk",
        "col3": "5760"
    },
    {
        "col0": "You Had To Be a Gypsy",
        "col1": "C. Sevilla",
        "col2": "L. Alcoriza",
        "col3": "5280"
    },
    {
        "col0": "You Gotta Stay Happy",
        "col1": "J. Stewart",
        "col2": "R. Carson",
        "col3": "6000"
    },
    {
        "col0": "You Got Served: Beat the World",
        "col1": "M. Morgan",
        "col2": "R. Adetuyi",
        "col3": "5460"
    },
    {
        "col0": "You Got Served",
        "col1": "M. Good",
        "col2": "C. Stokes",
        "col3": "5700"
    },
    {
        "col0": "You Don't Mess with the Zohan",
        "col1": "J. Turturro",
        "col2": "A. Sandler",
        "col3": "6720"
    },
    {
        "col0": "You Don't Forget Such a Girl",
        "col1": "D. Haas",
        "col2": "H. Wilhelm",
        "col3": "5520"
    },
    {
        "col0": "You Deserve Everything",
        "col1": "S. Joab",
        "col2": "G. Stolevski",
        "col3": "1140"
    },
    {
        "col0": "You Carry Me",
        "col1": "L. Baric",
        "col2": "I. Juka",
        "col3": "9300"
    },
    {
        "col0": "You Can Thank Me Later",
        "col1": "E. Burstyn",
        "col2": "O. Safdie",
        "col3": "6600"
    },
    {
        "col0": "You Can Tell 'Em I Said It",
        "col1": "E. Griffin",
        "col2": "E. Griffin",
        "col3": "4920"
    },
    {
        "col0": "You Can Count On Me",
        "col1": "J. Tenney",
        "col2": "K. Lonergan",
        "col3": "6660"
    },
    {
        "col0": "You Can't Win 'Em All",
        "col1": "T. Curtis",
        "col2": "L. Gordon",
        "col3": "5820"
    },
    {
        "col0": "You Can't Take It with You",
        "col1": "E. Arnold",
        "col2": "R. Riskin",
        "col3": "7560"
    },
    {
        "col0": "You Can't See 'round Corners",
        "col1": "K. Shorter",
        "col2": "R. Lane",
        "col3": "5880"
    },
    {
        "col0": "You Can't Save Yourself Alone",
        "col1": "J. Trinca",
        "col2": "M. Mazzantini",
        "col3": "6120"
    },
    {
        "col0": "You Can't Run Away from It",
        "col1": "J. Lemmon",
        "col2": "R. Riskin",
        "col3": "5700"
    },
    {
        "col0": "You Can't Hurry Love",
        "col1": "B. Fonda",
        "col2": "R. Martini",
        "col3": "5520"
    },
    {
        "col0": "You Can't Have Everything",
        "col1": "D. Ameche",
        "col2": "G. Ratoff",
        "col3": "6000"
    },
    {
        "col0": "You Can't Get Away with Murder",
        "col1": "H. Bogart",
        "col2": "R. Buckner",
        "col3": "4740"
    },
    {
        "col0": "You Can't Fool Your Wife",
        "col1": "N. Naldi",
        "col2": "W. Young",
        "col3": "3600"
    },
    {
        "col0": "You Can't Fool Your Wife",
        "col1": "L. Ball",
        "col2": "J. Cady",
        "col3": "4080"
    },
    {
        "col0": "You Can't Fool Antoinette",
        "col1": "S. Renant",
        "col2": "M. Hennequin",
        "col3": "4620"
    },
    {
        "col0": "You Can't Escape Forever",
        "col1": "G. Lockhart",
        "col2": "F. N. Jr.",
        "col3": "4620"
    },
    {
        "col0": "You Can't Buy Everything",
        "col1": "J. Parker",
        "col2": "D. Nichols",
        "col3": "4920"
    },
    {
        "col0": "You Can't Beat Love",
        "col1": "J. Fontaine",
        "col2": "M. Shane",
        "col3": "3720"
    },
    {
        "col0": "You Came Along",
        "col1": "D. DeFore",
        "col2": "A. Rand",
        "col3": "-6180"
    },
    {
        "col0": "You Belong to Me",
        "col1": "H. Fonda",
        "col2": "C. Binyon",
        "col3": "5640"
    },
    {
        "col0": "You Belong to Me",
        "col1": "A. Pierson",
        "col2": "G. Jones",
        "col3": "4020"
    },
    {
        "col0": "You Are the Apple of My Eye",
        "col1": "K. Chen-tung",
        "col2": "G. Ko",
        "col3": "6600"
    },
    {
        "col0": "You Are Not I",
        "col1": "L. Sante",
        "col2": "P. Bowles",
        "col3": "3000"
    },
    {
        "col0": "You Are My Sunshine",
        "col1": "J. Do-yeon",
        "col2": "P. Jin-pyo",
        "col3": "7260"
    },
    {
        "col0": "You Are My Love",
        "col1": "S. Fernandez",
        "col2": "M. Romero",
        "col3": "5220"
    },
    {
        "col0": "You Are My Adventure",
        "col1": "S. Carlsson",
        "col2": "S. Olin",
        "col3": "5820"
    },
    {
        "col0": "You Ain't Seen Nothin' Yet",
        "col1": "M. Amalric",
        "col2": "A. Resnais",
        "col3": "6900"
    },
    {
        "col0": "You, Me & Marley",
        "col1": "B. Gallagher",
        "col2": "G. Reid",
        "col3": "5040"
    },
    {
        "col0": "You, John Jones!",
        "col1": "A. Sothern",
        "col2": "C. Wilson",
        "col3": "660"
    },
    {
        "col0": "You've Got to Walk It Like You Talk It or You'll Lose That Beat",
        "col1": "R. Pryor",
        "col2": "P. Locke",
        "col3": "5100"
    },
    {
        "col0": "You've Got Me By the Wing",
        "col1": "G. Valdes",
        "col2": "G. Walerstein",
        "col3": "5400"
    },
    {
        "col0": "You've Got Mail",
        "col1": "D. Chappelle",
        "col2": "D. Ephron",
        "col3": "7140"
    },
    {
        "col0": "You're the One",
        "col1": "E. E. Horton",
        "col2": "G. Markey",
        "col3": "4980"
    },
    {
        "col0": "You're the Doctor",
        "col1": "G. Withers",
        "col2": "H. Maltby",
        "col3": "4680"
    }
]