[
    {
        "col0": "The Dream Job",
        "col1": "The Gentlemen",
        "col2": "2016-08-08",
        "col3": "2700"
    },
    {
        "col0": "The Dream Catchers",
        "col1": "Housewives' Holiday",
        "col2": "2009-03-03",
        "col3": "2700"
    },
    {
        "col0": "The Dots",
        "col1": "Great Award",
        "col2": "2004-01-15",
        "col3": "5400"
    },
    {
        "col0": "The Dean Martin Show",
        "col1": "The Dean Martin Celebrity Roast",
        "col2": "1974-04-05",
        "col3": "3600"
    },
    {
        "col0": "The Day Today",
        "col1": "Brass Eye",
        "col2": "1994-02-23",
        "col3": "1800"
    },
    {
        "col0": "The Daily Show",
        "col1": "Today",
        "col2": "2012-03-02",
        "col3": "3000"
    },
    {
        "col0": "The Crow: Stairway to Heaven",
        "col1": "The Crow: Salvation",
        "col2": "1999-05-22",
        "col3": "2580"
    },
    {
        "col0": "The Criminal Investigator",
        "col1": "The Criminal Investigator II",
        "col2": "1995-07-29",
        "col3": "2520"
    },
    {
        "col0": "The Contrarians",
        "col1": "Keneally and Cameron",
        "col2": "2014-09-12",
        "col3": "7200"
    },
    {
        "col0": "The Condor Heroes 95",
        "col1": "The Heaven Sword and Dragon Saber",
        "col2": "1995-09-09",
        "col3": "2700"
    },
    {
        "col0": "The Computer Programme",
        "col1": "Making the Most of the Micro",
        "col2": "1982-03-15",
        "col3": "1500"
    },
    {
        "col0": "The Color of Passion",
        "col1": "Yo no creo en los hombres",
        "col2": "2014-08-31",
        "col3": "-2700"
    },
    {
        "col0": "The CollegeHumor Show",
        "col1": "Pranked",
        "col2": "2009-03-15",
        "col3": "1260"
    },
    {
        "col0": "The Closer",
        "col1": "Major Crimes",
        "col2": "2012-08-13",
        "col3": "-3600"
    },
    {
        "col0": "The City Hall",
        "col1": "Swallow the Sun",
        "col2": "2009-07-02",
        "col3": "1315"
    },
    {
        "col0": "The City",
        "col1": "Port Charles",
        "col2": "1997-03-28",
        "col3": "1800"
    },
    {
        "col0": "The Circle",
        "col1": "Studio 10",
        "col2": "2012-08-03",
        "col3": "9000"
    },
    {
        "col0": "The Chaser",
        "col1": "Faith",
        "col2": "2012-07-15",
        "col3": "1315"
    },
    {
        "col0": "The Channel Four Daily",
        "col1": "The Big Breakfast",
        "col2": "1992-09-25",
        "col3": "10500"
    },
    {
        "col0": "The Challenge: Rivals III",
        "col1": "The Challenge: Season 29",
        "col2": "2016-08-03",
        "col3": "3600"
    },
    {
        "col0": "The Challenge: Rivals II",
        "col1": "The Challenge: Free Agents",
        "col2": "2013-09-25",
        "col3": "3600"
    },
    {
        "col0": "The Challenge: Rivals",
        "col1": "The Challenge: Battle of the Exes",
        "col2": "2011-09-07",
        "col3": "3600"
    },
    {
        "col0": "The Challenge: Fresh Meat II",
        "col1": "The Challenge: Cutthroat",
        "col2": "2010-06-09",
        "col3": "3600"
    },
    {
        "col0": "The Challenge: Free Agents",
        "col1": "The Challenge: Battle of the Exes II",
        "col2": "2014-06-26",
        "col3": "3600"
    },
    {
        "col0": "The Challenge: Cutthroat",
        "col1": "The Challenge: Rivals",
        "col2": "2010-12-22",
        "col3": "3600"
    },
    {
        "col0": "The Challenge: Battle of the Seasons",
        "col1": "The Challenge: Rivals II",
        "col2": "2012-12-19",
        "col3": "3600"
    },
    {
        "col0": "The Challenge: Battle of the Exes II",
        "col1": "The Challenge: Battle of the Bloodlines",
        "col2": "2015-03-24",
        "col3": "3600"
    },
    {
        "col0": "The Challenge: Battle of the Exes",
        "col1": "The Challenge: Battle of the Seasons",
        "col2": "2012-04-04",
        "col3": "3600"
    },
    {
        "col0": "The Challenge: Battle of the Bloodlines",
        "col1": "The Challenge: Rivals III",
        "col2": "2016-02-17",
        "col3": "3600"
    },
    {
        "col0": "The Caroline Rhea Show",
        "col1": "The Ellen DeGeneres Show",
        "col2": "2003-05-21",
        "col3": "3600"
    },
    {
        "col0": "The Carol Burnett Show",
        "col1": "Mama's Family",
        "col2": "1978-03-29",
        "col3": "3240"
    },
    {
        "col0": "The Bund",
        "col1": "The Bund II",
        "col2": "1980-04-11",
        "col3": "2700"
    },
    {
        "col0": "The Brady Kids",
        "col1": "The Brady Bunch Hour",
        "col2": "1973-10-06",
        "col3": "1800"
    },
    {
        "col0": "The Brady Bunch Hour",
        "col1": "The Brady Bunch",
        "col2": "1977-05-25",
        "col3": "3600"
    },
    {
        "col0": "The Brady Bunch",
        "col1": "A Very Brady Christmas",
        "col2": "1974-03-08",
        "col3": "-1560"
    },
    {
        "col0": "The Bob Newhart Show",
        "col1": "Newhart",
        "col2": "1978-04-01",
        "col3": "1800"
    },
    {
        "col0": "The Blue Knight",
        "col1": "The Blue Knight",
        "col2": "1973-11-14",
        "col3": "6000"
    },
    {
        "col0": "The Blade and Petal",
        "col1": "Secret Love",
        "col2": "2013-09-05",
        "col3": "1315"
    },
    {
        "col0": "The Black Adder",
        "col1": "Blackadder II",
        "col2": "1983-07-20",
        "col3": "1980"
    },
    {
        "col0": "The Birth of a Family",
        "col1": "Ugly Alert",
        "col2": "2013-05-17",
        "col3": "1160"
    },
    {
        "col0": "The Biggest Loser Pinoy Edition",
        "col1": "The Biggest Loser Pinoy Edition: Doubles",
        "col2": "2011-09-30",
        "col3": "2700"
    },
    {
        "col0": "The Biggest Loser Australia",
        "col1": "The Biggest Loser Australia",
        "col2": "2007-04-26",
        "col3": "1800"
    },
    {
        "col0": "The Biggest Loser Australia",
        "col1": "The Biggest Loser Australia",
        "col2": "2006-04-27",
        "col3": "1800"
    },
    {
        "col0": "The Biggest Loser Australia: The Next Generation",
        "col1": "The Biggest Loser Australia: Challenge Australia",
        "col2": "2013-05-28",
        "col3": "3600"
    },
    {
        "col0": "The Biggest Loser Australia: Singles",
        "col1": "The Biggest Loser Australia: The Next Generation",
        "col2": "2012-05-08",
        "col3": "3600"
    },
    {
        "col0": "The Biggest Loser Australia: Families",
        "col1": "The Biggest Loser Australia: Singles",
        "col2": "2011-05-02",
        "col3": "3600"
    },
    {
        "col0": "The Biggest Loser Australia: Challenge Australia",
        "col1": "The Biggest Loser Australia 2015: Families",
        "col2": "2014-04-13",
        "col3": "3600"
    },
    {
        "col0": "The Biggest Loser Asia",
        "col1": "The Biggest Loser Asia",
        "col2": "2010-03-09",
        "col3": "3600"
    },
    {
        "col0": "The Big Story",
        "col1": "Glenn Beck",
        "col2": "2008-02-22",
        "col3": "3600"
    },
    {
        "col0": "The Big Breakfast",
        "col1": "Cheez TV",
        "col2": "1995-07-05",
        "col3": "5400"
    },
    {
        "col0": "The Big Breakfast",
        "col1": "RI:SE",
        "col2": "2002-03-29",
        "col3": "20100"
    },
    {
        "col0": "The Bible",
        "col1": "A.D. The Bible Continues",
        "col2": "2013-03-31",
        "col3": "26400"
    },
    {
        "col0": "The Best Things in Life",
        "col1": "New Beginnings",
        "col2": "2010-04-13",
        "col3": "2700"
    },
    {
        "col0": "The Berenstain Bears",
        "col1": "The Berenstain Bears",
        "col2": "1987-03-07",
        "col3": "1320"
    },
    {
        "col0": "The Beatles",
        "col1": "Yellow Submarine",
        "col2": "1969-05-09",
        "col3": "1080"
    },
    {
        "col0": "The Batman",
        "col1": "Batman: The Brave and the Bold",
        "col2": "2008-03-22",
        "col3": "1320"
    },
    {
        "col0": "The Basil Brush Show",
        "col1": "Basil's Swap Shop",
        "col2": "2007-12-21",
        "col3": "1440"
    },
    {
        "col0": "The Baseball Network",
        "col1": "Major League Baseball on Fox",
        "col2": "1995-10-28",
        "col3": "12600"
    },
    {
        "col0": "The Avengers: Earth's Mightiest Heroes",
        "col1": "Avengers Assemble",
        "col2": "2013-05-05",
        "col3": "300"
    },
    {
        "col0": "The Archie Show",
        "col1": "The Archie Comedy Hour",
        "col2": "1969-08-30",
        "col3": "1440"
    },
    {
        "col0": "The Andy Griffith Show",
        "col1": "Mayberry R.F.D.",
        "col2": "1968-04-01",
        "col3": "-1560"
    },
    {
        "col0": "The Amazing Spider-Man",
        "col1": "Spider-Man",
        "col2": "1979-07-06",
        "col3": "-2400"
    },
    {
        "col0": "The Amazing Adventures of Morph",
        "col1": "The Morph Files",
        "col2": "1981-05-18",
        "col3": "300"
    },
    {
        "col0": "The Alvin Show",
        "col1": "Alvin and the Chipmunks",
        "col2": "1962-09-12",
        "col3": "1800"
    },
    {
        "col0": "The All New Popeye Hour",
        "col1": "Popeye and Son",
        "col2": "1983-09-05",
        "col3": "420"
    },
    {
        "col0": "The All New Alexei Sayle Show",
        "col1": "Alexei Sayle's Merry-Go-Round",
        "col2": "1995-07-01",
        "col3": "1800"
    },
    {
        "col0": "The All Ireland Talent Show",
        "col1": "The Voice of Ireland",
        "col2": "2011-03-27",
        "col3": "1800"
    },
    {
        "col0": "The All-New Super Friends Hour",
        "col1": "Challenge of the Super Friends",
        "col2": "1978-09-02",
        "col3": "3600"
    },
    {
        "col0": "The Adventures of Super Mario Bros. 3",
        "col1": "Super Mario World",
        "col2": "1990-12-01",
        "col3": "1440"
    },
    {
        "col0": "The Adventures of Jimmy Neutron: Boy Genius",
        "col1": "Planet Sheen",
        "col2": "2006-11-25",
        "col3": "-1440"
    },
    {
        "col0": "The Adventures of Black Beauty",
        "col1": "The New Adventures of Black Beauty",
        "col2": "1974-03-10",
        "col3": "1500"
    },
    {
        "col0": "The Addams Family",
        "col1": "Halloween with the New Addams Family",
        "col2": "1973-12-22",
        "col3": "1800"
    },
    {
        "col0": "The Addams Family",
        "col1": "Halloween with the New Addams Family",
        "col2": "1966-04-08",
        "col3": "1500"
    },
    {
        "col0": "The A-List: New York",
        "col1": "The A-List: Dallas",
        "col2": "2011-10-17",
        "col3": "2520"
    },
    {
        "col0": "The 7.30 Report",
        "col1": "7.30",
        "col2": "2011-03-04",
        "col3": "1800"
    },
    {
        "col0": "The 13 Ghosts of Scooby-Doo",
        "col1": "A Pup Named Scooby-Doo",
        "col2": "1985-12-07",
        "col3": "1320"
    },
    {
        "col0": "The 11:30 Report",
        "col1": "GMA Headline News",
        "col2": "1986-05-16",
        "col3": "1800"
    },
    {
        "col0": "Thayumanavan",
        "col1": "Andal Azhagar",
        "col2": "2014-05-09",
        "col3": "-1320"
    },
    {
        "col0": "That Was the Week That Was",
        "col1": "Not So Much a Programme, More a Way of Life",
        "col2": "1963-12-28",
        "col3": "3000"
    },
    {
        "col0": "That Peter Kay Thing",
        "col1": "Phoenix Nights",
        "col2": "1999-02-18",
        "col3": "1800"
    },
    {
        "col0": "That's So Raven",
        "col1": "Cory in the House",
        "col2": "2007-11-10",
        "col3": "1380"
    },
    {
        "col0": "Thangam",
        "col1": "Rajakumari",
        "col2": "2013-01-25",
        "col3": "-13"
    },
    {
        "col0": "Teysi ng Tahanan",
        "col1": "Today with Kris Aquino",
        "col2": "1997-02-21",
        "col3": "1800"
    },
    {
        "col0": "Tetsuwan Tantei Robotack",
        "col1": "Ganbare!! Robocon",
        "col2": "1999-01-24",
        "col3": "-1500"
    },
    {
        "col0": "Terry Pratchett's Hogfather",
        "col1": "Terry Pratchett's The Colour of Magic",
        "col2": "2006-12-18",
        "col3": "11340"
    },
    {
        "col0": "Terra Nostra",
        "col1": "Lacos de Familia",
        "col2": "2000-06-03",
        "col3": "3900"
    },
    {
        "col0": "Teresa",
        "col1": "Yo compro esa mujer",
        "col2": "1990-01-26",
        "col3": "-2640"
    },
    {
        "col0": "Tenias que ser tu",
        "col1": "Clarisa",
        "col2": "1993-03-12",
        "col3": "-2640"
    },
    {
        "col0": "Tensou Sentai Goseiger",
        "col1": "Kaizoku Sentai Gokaiger",
        "col2": "2011-02-06",
        "col3": "-1500"
    },
    {
        "col0": "Tenacious D",
        "col1": "Tenacious D in the Pick of Destiny",
        "col2": "2000-03-15",
        "col3": "1500"
    },
    {
        "col0": "Tenias que ser tu",
        "col1": "Clarisa",
        "col2": "1993-03-12",
        "col3": "-2640"
    },
    {
        "col0": "Temptation",
        "col1": "Secret Door",
        "col2": "2014-09-16",
        "col3": "1315"
    },
    {
        "col0": "Teledyaryo",
        "col1": "News @ 1",
        "col2": "2012-06-29",
        "col3": "3600"
    },
    {
        "col0": "Teenage Mutant Ninja Turtles",
        "col1": "Teenage Mutant Ninja Turtles",
        "col2": "2010-03-27",
        "col3": "-1380"
    },
    {
        "col0": "Teenage Mutant Ninja Turtles",
        "col1": "Teenage Mutant Ninja Turtles",
        "col2": "1996-11-02",
        "col3": "1320"
    },
    {
        "col0": "Teen Titans",
        "col1": "Teen Titans Go!",
        "col2": "2006-09-15",
        "col3": "-1380"
    },
    {
        "col0": "Te sigo amando",
        "col1": "Pueblo chico, infierno grande",
        "col2": "1997-04-25",
        "col3": "-2640"
    },
    {
        "col0": "Te Contei?",
        "col1": "Pecado Rasgado",
        "col2": "1978-09-01",
        "col3": "2400"
    },
    {
        "col0": "Tasty Life",
        "col1": "My Lover, Madame Butterfly",
        "col2": "2012-09-23",
        "col3": "1240"
    },
    {
        "col0": "Taste of Love",
        "col1": "Shia Wa Se",
        "col2": "2016-01-22",
        "col3": "5400"
    },
    {
        "col0": "Taste of Love",
        "col1": "Just in Singapore",
        "col2": "2008-02-22",
        "col3": "2700"
    },
    {
        "col0": "Tarzan and the Super 7",
        "col1": "The Tarzan/Lone Ranger Adventure Hour",
        "col2": "1980-09-06",
        "col3": "3600"
    },
    {
        "col0": "Tapur Tupur",
        "col1": "Bojhena Se Bojhena",
        "col2": "2013-11-02",
        "col3": "1200"
    },
    {
        "col0": "Tanner '88",
        "col1": "Tanner on Tanner",
        "col2": "1988-08-22",
        "col3": "1800"
    },
    {
        "col0": "Tall Tales & Legends",
        "col1": "Nightmare Classics",
        "col2": "1987-01-02",
        "col3": "3600"
    },
    {
        "col0": "Talk TV",
        "col1": "Morning Girls with Kris and Korina",
        "col2": "2002-07-19",
        "col3": "5400"
    },
    {
        "col0": "Talk Soup",
        "col1": "The Soup",
        "col2": "2002-05-17",
        "col3": "1320"
    },
    {
        "col0": "Talang 2010",
        "col1": "Talang 2011",
        "col2": "2010-06-04",
        "col3": "5400"
    },
    {
        "col0": "Talang 2007",
        "col1": "Talang 2008",
        "col2": "2007-06-01",
        "col3": "3600"
    },
    {
        "col0": "Tal como somos",
        "col1": "Dos vidas",
        "col2": "1988-04-15",
        "col3": "-1320"
    },
    {
        "col0": "Takeshi's Castle",
        "col1": "Da Big Show",
        "col2": "1990-10-19",
        "col3": "1500"
    },
    {
        "col0": "Take a Look",
        "col1": "Discoveries",
        "col2": "1956-06-27",
        "col3": "900"
    },
    {
        "col0": "Take Me Out",
        "col1": "Hole in the Wall",
        "col2": "2010-07-02",
        "col3": "-2700"
    },
    {
        "col0": "Take Care of Us, Captain",
        "col1": "Rooftop Prince",
        "col2": "2012-03-08",
        "col3": "1315"
    },
    {
        "col0": "Taiyo Sentai Sun Vulcan",
        "col1": "Dai Sentai Goggle-V",
        "col2": "1982-01-30",
        "col3": "1800"
    },
    {
        "col0": "Tabloid",
        "col1": "Seven-O-One",
        "col2": "1960-09-09",
        "col3": "1800"
    },
    {
        "col0": "Table of Glory",
        "col1": "My School Daze",
        "col2": "2009-04-28",
        "col3": "2700"
    },
    {
        "col0": "TV Novel: Eunhui",
        "col1": "Land of Gold",
        "col2": "2014-01-03",
        "col3": "540"
    },
    {
        "col0": "TV Nation",
        "col1": "The Awful Truth",
        "col2": "1995-09-08",
        "col3": "2700"
    },
    {
        "col0": "TV3 News at 5.30",
        "col1": "The 5:30",
        "col2": "2012-10-19",
        "col3": "1800"
    },
    {
        "col0": "TOP gogo",
        "col1": "TOP gogo",
        "col2": "2012-10-22",
        "col3": "3600"
    },
    {
        "col0": "TEN: The Evening News",
        "col1": "Aksyon",
        "col2": "2010-03-31",
        "col3": "1800"
    },
    {
        "col0": "T.I.'s Road to Redemption",
        "col1": "T.I. and Tiny: The Family Hustle",
        "col2": "2009-04-07",
        "col3": "2640"
    },
    {
        "col0": "Tu y yo",
        "col1": "Sentimientos Ajenos",
        "col2": "1997-03-21",
        "col3": "-2640"
    },
    {
        "col0": "Tu o nadie",
        "col1": "Vivir un poco",
        "col2": "1985-07-29",
        "col3": "-1320"
    },
    {
        "col0": "Setimo Sentido",
        "col1": "Sol de Verao",
        "col2": "1982-10-08",
        "col3": "3000"
    },
    {
        "col0": "Switched!",
        "col1": "Honour and Passion",
        "col2": "2007-07-23",
        "col3": "2700"
    },
    {
        "col0": "Swipe Tap Love",
        "col1": "Journey to the West",
        "col2": "2014-04-25",
        "col3": "2700"
    },
    {
        "col0": "Swing Gently",
        "col1": "Fancy Free",
        "col2": "1960-09-19",
        "col3": "3600"
    },
    {
        "col0": "Swing Easy",
        "col1": "Swing Gently",
        "col2": "1959-09-26",
        "col3": "1800"
    },
    {
        "col0": "Sweet Sweet Bodyguard",
        "col1": "Lady Maid Maid",
        "col2": "2012-11-26",
        "col3": "3600"
    },
    {
        "col0": "Sweet Secret",
        "col1": "Love on a Rooftop",
        "col2": "2015-04-03",
        "col3": "1190"
    },
    {
        "col0": "Swallow the Sun",
        "col1": "You're Beautiful",
        "col2": "2009-10-01",
        "col3": "1315"
    },
    {
        "col0": "Survivor's Law",
        "col1": "Survivor's Law II",
        "col2": "2003-08-15",
        "col3": "2700"
    },
    {
        "col0": "Surgeon Bong Dal-hee",
        "col1": "Witch Yoo Hee",
        "col2": "2007-03-15",
        "col3": "1315"
    },
    {
        "col0": "Supermanoela",
        "col1": "Corrida do Ouro",
        "col2": "1974-06-05",
        "col3": "2700"
    },
    {
        "col0": "Supercar",
        "col1": "Fireball XL5",
        "col2": "1962-04-29",
        "col3": "1500"
    },
    {
        "col0": "Super Snoops",
        "col1": "Curse of the Royal Harem",
        "col2": "2011-10-28",
        "col3": "2640"
    },
    {
        "col0": "Super Senior",
        "col1": "The Journey: Our Homeland",
        "col2": "2015-07-15",
        "col3": "2700"
    },
    {
        "col0": "Super Robot Red Baron",
        "col1": "Super Robot Mach Baron",
        "col2": "1974-03-27",
        "col3": "1800"
    },
    {
        "col0": "Super Robot Mach Baron",
        "col1": "Ganbaron",
        "col2": "1975-03-31",
        "col3": "1800"
    },
    {
        "col0": "Super Inggo",
        "col1": "Super Inggo 1.5: Ang Bagong Bangis",
        "col2": "2007-02-09",
        "col3": "-1800"
    },
    {
        "col0": "Super Friends",
        "col1": "The All-New Super Friends Hour",
        "col2": "1973-12-22",
        "col3": "3600"
    }
]