[
    {
        "col0": "Gauge",
        "col1": "Americans",
        "col2": "Caucasian race",
        "col3": "1980-07-24"
    },
    {
        "col0": "F. Malcom",
        "col1": "Italian people",
        "col2": "Italian people",
        "col3": "1971-11-27"
    },
    {
        "col0": "E. Lin",
        "col1": "Philippines",
        "col2": "Ireland",
        "col3": "1985-05-04"
    },
    {
        "col0": "E. Gomez",
        "col1": "Colombian people",
        "col2": "Latin Americans",
        "col3": "1983-05-13"
    },
    {
        "col0": "E. Fontes",
        "col1": "Portugal",
        "col2": "Caucasian race",
        "col3": "1991-05-14"
    },
    {
        "col0": "E. Akira",
        "col1": "Japanese people",
        "col2": "Japanese people",
        "col3": "1986-01-25"
    },
    {
        "col0": "E. Powers",
        "col1": "Americans",
        "col2": "White people",
        "col3": "1954-10-25"
    },
    {
        "col0": "Cytherea",
        "col1": "United States",
        "col2": "Caucasian race",
        "col3": "1981-09-27"
    },
    {
        "col0": "Catalina",
        "col1": "Americans",
        "col2": "Mexican American",
        "col3": "1978-07-01"
    },
    {
        "col0": "A. Kishi",
        "col1": "Japan",
        "col2": "Japanese people",
        "col3": "1988-02-01"
    }
]