[
    {
        "col0": "Inferior pancreaticoduodenal artery",
        "col1": "Superior mesenteric artery",
        "col2": "607",
        "col3": "154"
    },
    {
        "col0": "Inferior palpebral nerve",
        "col1": "Infraorbital nerve",
        "col2": "891",
        "col3": "200"
    },
    {
        "col0": "Inferior mesenteric plexus",
        "col1": "Abdominal aortic plexus",
        "col2": "987",
        "col3": "220"
    },
    {
        "col0": "Inferior mesenteric artery",
        "col1": "Abdominal aorta",
        "col2": "609",
        "col3": "154"
    },
    {
        "col0": "Inferior labial artery",
        "col1": "Facial artery",
        "col2": "555",
        "col3": "144"
    },
    {
        "col0": "Inferior hypophysial artery",
        "col1": "Cavernous part of internal carotid artery",
        "col2": "568",
        "col3": "146"
    },
    {
        "col0": "Inferior gluteal nerve",
        "col1": "Sacral plexus",
        "col2": "659",
        "col3": "213"
    },
    {
        "col0": "Inferior gluteal artery",
        "col1": "Internal iliac artery",
        "col2": "620",
        "col3": "155"
    },
    {
        "col0": "Inferior ganglion of vagus nerve",
        "col1": "Vagus nerve",
        "col2": "911",
        "col3": "205"
    },
    {
        "col0": "Inferior ganglion of glossopharyngeal nerve",
        "col1": "Glossopharyngeal nerve",
        "col2": "98",
        "col3": "204"
    },
    {
        "col0": "Inferior epigastric artery",
        "col1": "External iliac artery",
        "col2": "623",
        "col3": "156"
    },
    {
        "col0": "Inferior dental plexus",
        "col1": "Inferior alveolar nerve",
        "col2": "897",
        "col3": "200"
    },
    {
        "col0": "Inferior cluneal nerves",
        "col1": "Posterior cutaneous nerve of the thigh",
        "col2": "959",
        "col3": "213"
    },
    {
        "col0": "Inferior alveolar nerve",
        "col1": "Mandibular nerve",
        "col2": "896",
        "col3": "200"
    },
    {
        "col0": "Inferior alveolar artery",
        "col1": "Maxillary artery",
        "col2": "561",
        "col3": "144"
    },
    {
        "col0": "Iliolumbar artery",
        "col1": "Internal iliac artery",
        "col2": "621",
        "col3": "155"
    },
    {
        "col0": "Ilioinguinal nerve",
        "col1": "Lumbar plexus",
        "col2": "952",
        "col3": "212"
    },
    {
        "col0": "Iliohypogastric nerve",
        "col1": "Lumbar plexus",
        "col2": "950",
        "col3": "212"
    },
    {
        "col0": "Ileocolic artery",
        "col1": "Superior mesenteric artery",
        "col2": "607",
        "col3": "154"
    },
    {
        "col0": "Ileal branch of ileocolic artery",
        "col1": "Ileocolic artery",
        "col2": "607",
        "col3": "154"
    },
    {
        "col0": "Ileal arteries",
        "col1": "Superior mesenteric artery",
        "col2": "607",
        "col3": "154"
    },
    {
        "col0": "Hepatic artery proper",
        "col1": "Common hepatic artery",
        "col2": "603",
        "col3": "154"
    },
    {
        "col0": "Greater petrosal nerve",
        "col1": "Facial nerve",
        "col2": "903",
        "col3": "202"
    },
    {
        "col0": "Greater pancreatic artery",
        "col1": "Splenic artery",
        "col2": "606",
        "col3": "154"
    },
    {
        "col0": "Greater palatine nerve",
        "col1": "Pterygopalatine ganglion",
        "col2": "893",
        "col3": "200"
    },
    {
        "col0": "Greater occipital nerve",
        "col1": "Cervical nerves",
        "col2": "923",
        "col3": "209"
    },
    {
        "col0": "Great auricular nerve",
        "col1": "Cervical plexus",
        "col2": "926",
        "col3": "210"
    },
    {
        "col0": "Glandular branches of facial artery",
        "col1": "Facial artery",
        "col2": "555",
        "col3": "144"
    },
    {
        "col0": "Genitofemoral nerve",
        "col1": "Lumbar plexus",
        "col2": "953",
        "col3": "212"
    },
    {
        "col0": "Genital branch of genitofemoral nerve",
        "col1": "Genitofemoral nerve",
        "col2": "953",
        "col3": "212"
    },
    {
        "col0": "Gastroduodenal artery",
        "col1": "Common hepatic artery",
        "col2": "604",
        "col3": "154"
    },
    {
        "col0": "Frontal nerve",
        "col1": "Ophthalmic nerve",
        "col2": "887",
        "col3": "200"
    },
    {
        "col0": "Frontal branch of superficial temporal artery",
        "col1": "Superficial temporal artery",
        "col2": "559",
        "col3": "144"
    },
    {
        "col0": "Fibular artery",
        "col1": "Popliteal artery",
        "col2": "638",
        "col3": "162"
    }
]