[
    {
        "col0": "H. Flavin",
        "col1": "Croom GAA",
        "col2": "1981-1-1",
        "col3": "1981-1-1"
    },
    {
        "col0": "H. Emerson",
        "col1": "Portarlington GAA",
        "col2": "1974-1-1",
        "col3": "1974-1-1"
    },
    {
        "col0": "H. Downey",
        "col1": "Lavey GAC",
        "col2": "1966-12-27",
        "col3": "1966-12-27"
    },
    {
        "col0": "H. Dawson",
        "col1": "Skerries Harps GAA",
        "col2": "1992-3-28",
        "col3": "1992-3-28"
    },
    {
        "col0": "G. Maher",
        "col1": "Claremorris GAA",
        "col2": "1967-0-0",
        "col3": "1967-0-0"
    },
    {
        "col0": "G. O'Connell",
        "col1": "Austin Stacks",
        "col2": "1987-1-1",
        "col3": "1987-1-1"
    },
    {
        "col0": "G. Geraghty",
        "col1": "Clann na nGael GAA",
        "col2": "1973-5-17",
        "col3": "1973-5-17"
    },
    {
        "col0": "G. Clarke",
        "col1": "Ballygalget GAA",
        "col2": "1974-3-27",
        "col3": "1974-3-27"
    },
    {
        "col0": "G. Callinan",
        "col1": "Glen Rovers GAA",
        "col2": "1982-1-1",
        "col3": "1982-1-1"
    },
    {
        "col0": "G. Mulcahy",
        "col1": "Kilmallock GAA",
        "col2": "1990-6-2",
        "col3": "1990-6-2"
    },
    {
        "col0": "G. Ryan",
        "col1": "Round Towers GAA",
        "col2": "1972-10-20",
        "col3": "1972-10-20"
    },
    {
        "col0": "G. Quinn",
        "col1": "Corofin GAA",
        "col2": "1980-7-24",
        "col3": "1980-7-24"
    },
    {
        "col0": "G. McInerney",
        "col1": "Sixmilebridge GAA",
        "col2": "1961-1-1",
        "col3": "1961-1-1"
    },
    {
        "col0": "G. McElhinney",
        "col1": "Banagher GAC",
        "col2": "1956-9-19",
        "col3": "1956-9-19"
    },
    {
        "col0": "G. Keegan",
        "col1": "Celbridge GAA",
        "col2": "1994-3-12",
        "col3": "1994-3-12"
    },
    {
        "col0": "G. Murphy",
        "col1": "Midleton GAA",
        "col2": "1928-1-1",
        "col3": "1928-1-1"
    },
    {
        "col0": "G. McCarthy",
        "col1": "St. Finbarr's GAA",
        "col2": "1945-9-12",
        "col3": "1945-9-12"
    },
    {
        "col0": "G. Rogan",
        "col1": "O'Donovan Rossa GAC Belfast",
        "col2": "1963-1-1",
        "col3": "1963-1-1"
    },
    {
        "col0": "G. Reidy",
        "col1": "Castleisland Desmonds",
        "col2": "1986-6-29",
        "col3": "1986-6-29"
    },
    {
        "col0": "G. Power",
        "col1": "Midleton GAA",
        "col2": "1960-5-9",
        "col3": "1960-5-9"
    },
    {
        "col0": "G. Power",
        "col1": "Austin Stacks",
        "col2": "1952-6-27",
        "col3": "1952-6-27"
    },
    {
        "col0": "G. O'Driscoll",
        "col1": "Newcestown GAA",
        "col2": "1987-2-5",
        "col3": "1987-2-5"
    },
    {
        "col0": "G. Lynch",
        "col1": "Valentia Young Islanders",
        "col2": "1958-12-10",
        "col3": "1958-12-10"
    },
    {
        "col0": "G. Cunningham",
        "col1": "St. Finbarr's GAA",
        "col2": "1961-8-30",
        "col3": "1961-8-30"
    },
    {
        "col0": "G. Garrett",
        "col1": "Blackrock GAA",
        "col2": "1909-1-1",
        "col3": "1909-1-1"
    },
    {
        "col0": "G. McGonagle",
        "col1": "Dungiven GAC",
        "col2": "1974-9-26",
        "col3": "1974-9-26"
    },
    {
        "col0": "G. Savage",
        "col1": "Ballycran GAA",
        "col2": "1970-0-0",
        "col3": "1970-0-0"
    },
    {
        "col0": "G. Maguire",
        "col1": "Ballyboden St. Enda's GAA",
        "col2": "1983-6-26",
        "col3": "1983-6-26"
    },
    {
        "col0": "G. Kavanagh",
        "col1": "Stradbally GAA",
        "col2": "1979-1-1",
        "col3": "1979-1-1"
    },
    {
        "col0": "G. Coleman",
        "col1": "Magherafelt GAC",
        "col2": "1972-6-26",
        "col3": "1972-6-26"
    },
    {
        "col0": "G. Howard",
        "col1": "Croom GAA",
        "col2": "1899-12-10",
        "col3": "1899-12-10"
    },
    {
        "col0": "G. Johnson",
        "col1": "Ballygalget GAA",
        "col2": "1974-3-27",
        "col3": "1974-3-27"
    },
    {
        "col0": "G. Clarke",
        "col1": "Ballygalget GAA",
        "col2": "1981-1-1",
        "col3": "1981-1-1"
    },
    {
        "col0": "F. Walsh",
        "col1": "Mount Sion GAA",
        "col2": "1936-0-0",
        "col3": "1936-0-0"
    },
    {
        "col0": "F. Donnelly",
        "col1": "Carrickmore St. Colmcille's GFC",
        "col2": "1933-1-1",
        "col3": "1933-1-1"
    },
    {
        "col0": "F. Stockwell",
        "col1": "Tuam Stars",
        "col2": "1928-12-7",
        "col3": "1928-12-7"
    },
    {
        "col0": "F. McGlynn",
        "col1": "Glenfin GAA",
        "col2": "1986-0-0",
        "col3": "1986-0-0"
    },
    {
        "col0": "F. Cummins",
        "col1": "Blackrock GAA",
        "col2": "1947-11-9",
        "col3": "1947-11-9"
    },
    {
        "col0": "F. Cogan",
        "col1": "UCC GAA",
        "col2": "1944-1-1",
        "col3": "1944-1-1"
    },
    {
        "col0": "F. Bellew",
        "col1": "Crossmaglen Rangers GAC",
        "col2": "1976-3-25",
        "col3": "1976-3-25"
    },
    {
        "col0": "F. Coffey",
        "col1": "Thurles Sarsfields GAA",
        "col2": "1920-1-1",
        "col3": "1920-1-1"
    },
    {
        "col0": "F. Hanley",
        "col1": "Salthill-Knocknacarra GAA",
        "col2": "1985-1-4",
        "col3": "1985-1-4"
    },
    {
        "col0": "F. Delaney",
        "col1": "Blackrock GAA",
        "col2": "1956-1-1",
        "col3": "1956-1-1"
    },
    {
        "col0": "F. McCusker",
        "col1": "Glen GAC",
        "col2": "1970-3-16",
        "col3": "1970-3-16"
    },
    {
        "col0": "F. Healy",
        "col1": "Craughwell GAA",
        "col2": "1977-1-1",
        "col3": "1977-1-1"
    },
    {
        "col0": "F. Hartley",
        "col1": "Ballygunner GAA",
        "col2": "1972-2-4",
        "col3": "1972-2-4"
    },
    {
        "col0": "F. Doherty",
        "col1": "Bellaghy GAC",
        "col2": "1981-10-7",
        "col3": "1981-10-7"
    },
    {
        "col0": "E. Reilly",
        "col1": "Abbeyleix GAA",
        "col2": "1989-1-1",
        "col3": "1989-1-1"
    },
    {
        "col0": "E. Quigley",
        "col1": "Sarsfields GAA",
        "col2": "1981-10-13",
        "col3": "1981-10-13"
    },
    {
        "col0": "E. Mulligan",
        "col1": "Cookstown Fr. Rock's GAC",
        "col2": "1981-6-3",
        "col3": "1981-6-3"
    },
    {
        "col0": "E. McGrath",
        "col1": "Mount Sion GAA",
        "col2": "1980-11-2",
        "col3": "1980-11-2"
    }
]