[
    {
        "col0": "William Campbell Preston Breckinridge",
        "col1": "J. C. Breckinridge",
        "col2": "D. Breckinridge",
        "col3": "Baltimore"
    },
    {
        "col0": "S. Smith",
        "col1": "J. Smith",
        "col2": "J. Smith",
        "col3": "Peterborough, New Hampshire"
    },
    {
        "col0": "N. Upham",
        "col1": "T. Upham",
        "col2": "N. G. Upham",
        "col3": "New Hampshire"
    },
    {
        "col0": "M. C. Butler",
        "col1": "J. Marshall",
        "col2": "H. N. Butler",
        "col3": "United States"
    },
    {
        "col0": "J. Hunt",
        "col1": "J. Webster",
        "col2": "L. Hunt",
        "col3": "Vermont"
    },
    {
        "col0": "J. S. Newberry",
        "col1": "H. B. Joy",
        "col2": "T. H. Newberry",
        "col3": "New York"
    },
    {
        "col0": "C. H. Atherton",
        "col1": "W. Gordon",
        "col2": "C. G. Atherton",
        "col3": "New Hampshire"
    },
    {
        "col0": "A. Livermore",
        "col1": "S. Livermore",
        "col2": "S. Livermore",
        "col3": "New Hampshire"
    }
]