[
    {
        "col0": "W. Rockefeller",
        "col1": "R. family",
        "col2": "New York",
        "col3": "W. P. Rockefeller",
        "col4": "1912-05-01"
    },
    {
        "col0": "S. Dinsmoor",
        "col1": "G. Reid",
        "col2": "New Hampshire",
        "col3": "S. D. Jr.",
        "col4": "1766-07-01"
    },
    {
        "col0": "R. C. Moody",
        "col1": "J. W. Webb-Jones",
        "col2": "Barbados",
        "col3": "Richard Stanley Hawks Moody",
        "col4": "1813-02-13"
    },
    {
        "col0": "P. Dillingham",
        "col1": "W. P. Dillingham",
        "col2": "Shutesbury, Massachusetts",
        "col3": "W. P. Dillingham",
        "col4": "1799-08-10"
    },
    {
        "col0": "L. H. Arnold",
        "col1": "I. P. Rodman",
        "col2": "St. Johnsbury, Vermont",
        "col3": "R. Arnold",
        "col4": "1792-01-29"
    },
    {
        "col0": "J. Bell",
        "col1": "S. Bell",
        "col2": "Londonderry, New Hampshire",
        "col3": "C. H. Bell",
        "col4": "1765-07-20"
    },
    {
        "col0": "H. H. Crapo",
        "col1": "W. C. Durant",
        "col2": "Dartmouth, Massachusetts",
        "col3": "W. W. Crapo",
        "col4": "1804-05-24"
    }
]