[
    {
        "col0": "W. W. II",
        "col1": "W. F. Whiting",
        "col2": "1841-05-24",
        "col3": "1911-01-09"
    },
    {
        "col0": "W. Lawrence",
        "col1": "J. Lawrence",
        "col2": "1814-09-02",
        "col3": "1895-09-08"
    },
    {
        "col0": "W. H. English",
        "col1": "W. E. English",
        "col2": "1822-08-27",
        "col3": "1896-02-07"
    },
    {
        "col0": "W. G. Angel",
        "col1": "W. Angel",
        "col2": "1790-07-17",
        "col3": "1858-10-13"
    },
    {
        "col0": "W. D. Kelley",
        "col1": "F. Kelley",
        "col2": "1814-04-12",
        "col3": "1890-01-09"
    },
    {
        "col0": "W. C. Bradley",
        "col1": "J. D. Bradley",
        "col2": "1782-03-23",
        "col3": "1867-03-03"
    },
    {
        "col0": "W. Cogswell",
        "col1": "W. Cogswell",
        "col2": "1838-08-23",
        "col3": "1895-05-22"
    },
    {
        "col0": "William Campbell Preston Breckinridge",
        "col1": "D. Breckinridge",
        "col2": "1837-08-28",
        "col3": "1904-11-18"
    },
    {
        "col0": "W. Chandler",
        "col1": "W. Chandler",
        "col2": "1887-10-05",
        "col3": "1967-10-01"
    },
    {
        "col0": "T. Rice",
        "col1": "T. Rice",
        "col2": "1768-03-30",
        "col3": "1832-06-23"
    },
    {
        "col0": "T. H. Hubbard",
        "col1": "B. Hubbard",
        "col2": "1781-12-05",
        "col3": "1857-05-21"
    },
    {
        "col0": "T. B. King",
        "col1": "J. F. King",
        "col2": "1800-08-27",
        "col3": "1864-05-10"
    },
    {
        "col0": "T. Lyman",
        "col1": "T. Lyman",
        "col2": "1833-08-23",
        "col3": "1897-09-09"
    },
    {
        "col0": "S. McKinney",
        "col1": "J. P. McKinney",
        "col2": "1931-01-30",
        "col3": "1987-05-07"
    },
    {
        "col0": "S. W. Downey",
        "col1": "S. Downey",
        "col2": "1839-07-25",
        "col3": "1902-08-03"
    },
    {
        "col0": "S. Coburn",
        "col1": "L. H. Coburn",
        "col2": "1817-11-11",
        "col3": "1882-07-04"
    },
    {
        "col0": "S. C. Phillips",
        "col1": "S. H. Phillips",
        "col2": "1801-11-04",
        "col3": "1857-06-26"
    },
    {
        "col0": "S. Larned",
        "col1": "P. Massachusetts",
        "col2": "1753-08-03",
        "col3": "1817-11-16"
    },
    {
        "col0": "S. E. Burroughs",
        "col1": "R. P. Burroughs",
        "col2": "1870-02-06",
        "col3": "1923-01-27"
    },
    {
        "col0": "S. Smith",
        "col1": "J. Smith",
        "col2": "1765-11-11",
        "col3": "1842-04-25"
    },
    {
        "col0": "S. S. Stratton",
        "col1": "B. U. Stratton",
        "col2": "1916-09-27",
        "col3": "1990-09-13"
    },
    {
        "col0": "S. A. Eliot",
        "col1": "C. W. Eliot",
        "col2": "1798-03-05",
        "col3": "1862-01-29"
    },
    {
        "col0": "S. A. Otis",
        "col1": "H. G. Otis",
        "col2": "1740-11-24",
        "col3": "1814-04-22"
    },
    {
        "col0": "R. B. Pratt",
        "col1": "Edwin H Baker Pratt",
        "col2": "1877-08-24",
        "col3": "1965-08-23"
    },
    {
        "col0": "R. T. Lytle",
        "col1": "W. H. Lytle",
        "col2": "1804-05-19",
        "col3": "1839-12-22"
    },
    {
        "col0": "P. I. Borst",
        "col1": "P. B. Borst",
        "col2": "1797-04-24",
        "col3": "1848-11-14"
    },
    {
        "col0": "P. F. Jr.",
        "col1": "R. P. Frelinghuysen",
        "col2": "1916-01-17",
        "col3": "2011-05-23"
    },
    {
        "col0": "P. A. Peyser",
        "col1": "P. Peyser",
        "col2": "1921-09-07",
        "col3": "2014-10-09"
    },
    {
        "col0": "P. Bass",
        "col1": "C. F. Bass",
        "col2": "1912-10-06",
        "col3": "2011-10-25"
    },
    {
        "col0": "P. Simon",
        "col1": "S. Simon",
        "col2": "1928-11-29",
        "col3": "2003-12-09"
    },
    {
        "col0": "P. J. Sorg",
        "col1": "P. A. Sorg",
        "col2": "1840-09-23",
        "col3": "1902-05-28"
    },
    {
        "col0": "O. Ames",
        "col1": "O. Ames",
        "col2": "1804-01-10",
        "col3": "1873-05-08"
    },
    {
        "col0": "N. Begich",
        "col1": "M. Begich",
        "col2": "1932-04-06",
        "col3": "1972-10-16"
    },
    {
        "col0": "N. Steers",
        "col1": "B. Steers",
        "col2": "1917-01-13",
        "col3": "1993-02-11"
    },
    {
        "col0": "N. Upham",
        "col1": "N. G. Upham",
        "col2": "1774-06-09",
        "col3": "1829-07-10"
    },
    {
        "col0": "N. B. Borden",
        "col1": "S. Borden",
        "col2": "1801-04-15",
        "col3": "1865-04-10"
    },
    {
        "col0": "M. B. Corwin",
        "col1": "J. A. Corwin",
        "col2": "1790-01-05",
        "col3": "1872-04-07"
    },
    {
        "col0": "M. Trafton",
        "col1": "A. Trafton",
        "col2": "1810-08-01",
        "col3": "1901-03-08"
    },
    {
        "col0": "M. E. Benton",
        "col1": "T. H. Benton",
        "col2": "1848-01-29",
        "col3": "1924-04-27"
    },
    {
        "col0": "M. C. Butler",
        "col1": "H. N. Butler",
        "col2": "1925-06-02",
        "col3": "2014-07-29"
    },
    {
        "col0": "L. M. Rivera",
        "col1": "L. M. Marin",
        "col2": "1859-07-17",
        "col3": "1916-11-15"
    },
    {
        "col0": "L. E. Blackwell",
        "col1": "T. W. Blackwell",
        "col2": "1931-08-01",
        "col3": "2003-01-24"
    },
    {
        "col0": "L. Stokes",
        "col1": "L. Stokes",
        "col2": "1925-02-23",
        "col3": "2015-08-18"
    },
    {
        "col0": "L. W. Douglas",
        "col1": "S. Douglas",
        "col2": "1894-07-02",
        "col3": "1974-03-07"
    },
    {
        "col0": "L. S. I",
        "col1": "L. Saltonstall",
        "col2": "1783-06-13",
        "col3": "1845-05-08"
    },
    {
        "col0": "L. D. Volk",
        "col1": "Okinawa",
        "col2": "1884-09-17",
        "col3": "1962-04-30"
    },
    {
        "col0": "L. G. Sasscer",
        "col1": "Lansdale Ghiselin Sasscer, Jr.",
        "col2": "1893-09-30",
        "col3": "1964-11-05"
    },
    {
        "col0": "L. M. Rivers",
        "col1": "L. Mendel Rivers, Jr.",
        "col2": "1905-09-28",
        "col3": "1970-12-28"
    },
    {
        "col0": "J. C. Rios",
        "col1": "J. C. Alegria",
        "col2": "1925-08-20",
        "col3": "1992-08-26"
    },
    {
        "col0": "J. Q. III",
        "col1": "J. Q. Jr.",
        "col2": "1772-02-04",
        "col3": "1864-07-01"
    },
    {
        "col0": "J. Patterson",
        "col1": "M. R. Patterson",
        "col2": "1837-04-14",
        "col3": "1904-2-10"
    },
    {
        "col0": "J. H. Walker",
        "col1": "J. H. Walker",
        "col2": "1829-12-21",
        "col3": "1907-04-03"
    },
    {
        "col0": "J. Hunt",
        "col1": "L. Hunt",
        "col2": "1787-08-12",
        "col3": "1832-05-15"
    },
    {
        "col0": "J. W. Boehne",
        "col1": "John W. Boehne, Jr.",
        "col2": "1856-10-28",
        "col3": "1946-12-27"
    },
    {
        "col0": "John Thomson Mason, Jr.",
        "col1": "J. T. Mason",
        "col2": "1815-05-09",
        "col3": "1873-03-28"
    },
    {
        "col0": "J. S. Newberry",
        "col1": "T. H. Newberry",
        "col2": "1826-11-18",
        "col3": "1887-01-02"
    },
    {
        "col0": "J. Scott",
        "col1": "J. Scott",
        "col2": "1784-12-25",
        "col3": "1850-09-22"
    },
    {
        "col0": "J. R. Neal",
        "col1": "John Randolph Neal, Jr.",
        "col2": "1836-11-26",
        "col3": "1889-3-16"
    },
    {
        "col0": "J. M. Murphy",
        "col1": "M. Murphy",
        "col2": "1926-08-03",
        "col3": "2015-05-25"
    },
    {
        "col0": "J. J. Davis",
        "col1": "J. W. Davis",
        "col2": "1835-05-05",
        "col3": "1916-03-19"
    },
    {
        "col0": "J. H. Kyl",
        "col1": "J. Kyl",
        "col2": "1919-05-09",
        "col3": "2002-12-23"
    },
    {
        "col0": "J. G. Schmitz",
        "col1": "M. K. Letourneau",
        "col2": "1930-08-12",
        "col3": "2001-01-10"
    },
    {
        "col0": "J. D. Lodge",
        "col1": "L. Lodge",
        "col2": "1903-10-20",
        "col3": "1985-10-29"
    },
    {
        "col0": "J. Bacon",
        "col1": "E. Bacon",
        "col2": "1738-04-05",
        "col3": "1820-10-25"
    },
    {
        "col0": "J. Wilcox",
        "col1": "L. Wilcox",
        "col2": "1768-11-18",
        "col3": "1838-07-18"
    },
    {
        "col0": "J. O. Sr.",
        "col1": "M. O. Warren",
        "col2": "1702-1-1",
        "col3": "1778-1-1"
    },
    {
        "col0": "J. F. Briggs",
        "col1": "F. O. Briggs",
        "col2": "1827-10-23",
        "col3": "1905-01-21"
    },
    {
        "col0": "I. Straus",
        "col1": "J. I. Straus",
        "col2": "1845-02-06",
        "col3": "1912-04-15"
    },
    {
        "col0": "H. B. Sr.",
        "col1": "H. Baker",
        "col2": "1902-01-12",
        "col3": "1964-1-7"
    },
    {
        "col0": "H. Pell",
        "col1": "Claiborne de Borda Pell",
        "col2": "1884-02-16",
        "col3": "1961-07-17"
    },
    {
        "col0": "H. B. Gonzalez",
        "col1": "C. Gonzalez",
        "col2": "1916-05-03",
        "col3": "2000-11-28"
    },
    {
        "col0": "H. O. Staggers",
        "col1": "Harley O. Staggers Jr.",
        "col2": "1907-08-03",
        "col3": "1991-08-20"
    },
    {
        "col0": "G. D. Johnson",
        "col1": "Glen D. Johnson, Jr.",
        "col2": "1911-09-11",
        "col3": "1983-2-10"
    },
    {
        "col0": "G. W. Fairchild",
        "col1": "S. M. Fairchild",
        "col2": "1854-05-06",
        "col3": "1924-12-31"
    },
    {
        "col0": "G. W. Woodward",
        "col1": "G. A. Woodward",
        "col2": "1809-03-26",
        "col3": "1875-05-10"
    },
    {
        "col0": "G. K. Denton",
        "col1": "W. K. Denton",
        "col2": "1864-11-17",
        "col3": "1926-01-04"
    },
    {
        "col0": "Fred A. Hartley Jr.",
        "col1": "A. Hartley",
        "col2": "1902-02-22",
        "col3": "1969-05-11"
    },
    {
        "col0": "F. Carr",
        "col1": "J. Carr",
        "col2": "1751-12-06",
        "col3": "1821-10-06"
    },
    {
        "col0": "F. B. Fay",
        "col1": "F. B. Fay",
        "col2": "1793-06-12",
        "col3": "1876-10-06"
    },
    {
        "col0": "F. V. Brown",
        "col1": "J. E. Brown",
        "col2": "1852-12-24",
        "col3": "1937-03-26"
    },
    {
        "col0": "F. E. Hebert",
        "col1": "John Malcolm Duhe, Jr.",
        "col2": "1901-10-12",
        "col3": "1979-12-29"
    },
    {
        "col0": "E. R. Potter",
        "col1": "E. R. Potter",
        "col2": "1764-11-05",
        "col3": "1835-09-26"
    },
    {
        "col0": "E. Thayer",
        "col1": "J. A. Thayer",
        "col2": "1819-06-11",
        "col3": "1899-04-15"
    },
    {
        "col0": "E. Cooke",
        "col1": "J. Cooke",
        "col2": "1787-12-25",
        "col3": "1864-12-27"
    }
]