[
    {
        "col0": "Columbia blue",
        "col1": "196",
        "col2": "11",
        "col3": "89",
        "col4": "200",
        "col5": "0"
    },
    {
        "col0": "Coffee",
        "col1": "111",
        "col2": "57",
        "col3": "44",
        "col4": "25",
        "col5": "51"
    },
    {
        "col0": "Citron",
        "col1": "158",
        "col2": "34",
        "col3": "66",
        "col4": "64",
        "col5": "82"
    },
    {
        "col0": "Citrine",
        "col1": "228",
        "col2": "11",
        "col3": "89",
        "col4": "54",
        "col5": "96"
    },
    {
        "col0": "Cinereous",
        "col1": "152",
        "col2": "40",
        "col3": "60",
        "col4": "12",
        "col5": "19"
    },
    {
        "col0": "Chocolate",
        "col1": "123",
        "col2": "82",
        "col3": "48",
        "col4": "31",
        "col5": "86"
    },
    {
        "col0": "Chestnut",
        "col1": "149",
        "col2": "42",
        "col3": "58",
        "col4": "10",
        "col5": "64"
    },
    {
        "col0": "Chartreuse",
        "col1": "127",
        "col2": "0",
        "col3": "100",
        "col4": "90",
        "col5": "100"
    },
    {
        "col0": "Champagne",
        "col1": "247",
        "col2": "3",
        "col3": "97",
        "col4": "37",
        "col5": "17"
    },
    {
        "col0": "Cerulean",
        "col1": "0",
        "col2": "35",
        "col3": "65",
        "col4": "196",
        "col5": "0"
    },
    {
        "col0": "Cerise",
        "col1": "222",
        "col2": "0",
        "col3": "87",
        "col4": "343",
        "col5": "46"
    },
    {
        "col0": "Carmine",
        "col1": "150",
        "col2": "1",
        "col3": "59",
        "col4": "350",
        "col5": "42"
    },
    {
        "col0": "Cardinal",
        "col1": "196",
        "col2": "23",
        "col3": "77",
        "col4": "350",
        "col5": "70"
    },
    {
        "col0": "Capri",
        "col1": "0",
        "col2": "0",
        "col3": "100",
        "col4": "195",
        "col5": "0"
    },
    {
        "col0": "Candy apple red",
        "col1": "255",
        "col2": "0",
        "col3": "100",
        "col4": "2",
        "col5": "100"
    },
    {
        "col0": "Camel",
        "col1": "193",
        "col2": "24",
        "col3": "76",
        "col4": "33",
        "col5": "45"
    },
    {
        "col0": "Cadet grey",
        "col1": "145",
        "col2": "0",
        "col3": "69",
        "col4": "205",
        "col5": "24"
    },
    {
        "col0": "Byzantium",
        "col1": "112",
        "col2": "56",
        "col3": "44",
        "col4": "311",
        "col5": "12"
    },
    {
        "col0": "Buff",
        "col1": "240",
        "col2": "6",
        "col3": "94",
        "col4": "49",
        "col5": "46"
    },
    {
        "col0": "Brown",
        "col1": "150",
        "col2": "41",
        "col3": "59",
        "col4": "30",
        "col5": "100"
    },
    {
        "col0": "Bronze",
        "col1": "205",
        "col2": "0",
        "col3": "80",
        "col4": "30",
        "col5": "86"
    },
    {
        "col0": "British racing green",
        "col1": "1",
        "col2": "74",
        "col3": "26",
        "col4": "153",
        "col5": "44"
    },
    {
        "col0": "Bole",
        "col1": "121",
        "col2": "53",
        "col3": "47",
        "col4": "9",
        "col5": "51"
    },
    {
        "col0": "Blue-green",
        "col1": "13",
        "col2": "27",
        "col3": "72",
        "col4": "192",
        "col5": "0"
    },
    {
        "col0": "Blue-gray",
        "col1": "102",
        "col2": "20",
        "col3": "80",
        "col4": "210",
        "col5": "0"
    },
    {
        "col0": "Bleu de France",
        "col1": "49",
        "col2": "9",
        "col3": "91",
        "col4": "210",
        "col5": "0"
    },
    {
        "col0": "Bistre",
        "col1": "61",
        "col2": "76",
        "col3": "24",
        "col4": "24",
        "col5": "49"
    },
    {
        "col0": "Beige",
        "col1": "245",
        "col2": "4",
        "col3": "96",
        "col4": "60",
        "col5": "10"
    },
    {
        "col0": "Baker-Miller Pink",
        "col1": "255",
        "col2": "0",
        "col3": "100",
        "col4": "344",
        "col5": "31"
    },
    {
        "col0": "Baby blue",
        "col1": "137",
        "col2": "6",
        "col3": "94",
        "col4": "199",
        "col5": "0"
    },
    {
        "col0": "Aqua",
        "col1": "0",
        "col2": "0",
        "col3": "100",
        "col4": "180",
        "col5": "0"
    },
    {
        "col0": "Apricot",
        "col1": "251",
        "col2": "16",
        "col3": "98",
        "col4": "24",
        "col5": "30"
    },
    {
        "col0": "Android green",
        "col1": "164",
        "col2": "22",
        "col3": "78",
        "col4": "74",
        "col5": "71"
    },
    {
        "col0": "Amber",
        "col1": "255",
        "col2": "0",
        "col3": "100",
        "col4": "45",
        "col5": "100"
    },
    {
        "col0": "Amaranth",
        "col1": "241",
        "col2": "5",
        "col3": "95",
        "col4": "338",
        "col5": "22"
    },
    {
        "col0": "Alizarin crimson",
        "col1": "227",
        "col2": "11",
        "col3": "89",
        "col4": "355",
        "col5": "76"
    },
    {
        "col0": "Alice blue",
        "col1": "240",
        "col2": "0",
        "col3": "100",
        "col4": "208",
        "col5": "1"
    },
    {
        "col0": "Acid green",
        "col1": "176",
        "col2": "25",
        "col3": "75",
        "col4": "65",
        "col5": "86"
    }
]