[
    {
        "col0": "W. M. Crane",
        "col1": "L. Crane",
        "col2": "Dalton, Massachusetts",
        "col3": "J. P. Boardman",
        "col4": "1853-04-23"
    },
    {
        "col0": "W. Hutchinson",
        "col1": "S. Cole",
        "col2": "Lincolnshire",
        "col3": "A. Hutchinson",
        "col4": "1586-0-0"
    },
    {
        "col0": "W. Iwan",
        "col1": "P. Silesia",
        "col2": "Niemodlin",
        "col3": "P. Silesia",
        "col4": "1871-08-05"
    },
    {
        "col0": "V. Santos",
        "col1": "L. Manzano",
        "col2": "Philippines",
        "col3": "R. Recto",
        "col4": "1953-11-03"
    },
    {
        "col0": "R. LeBlanc",
        "col1": "D. LeBlanc",
        "col2": "Canada",
        "col3": "D. F. LeBlanc",
        "col4": "1927-12-18"
    },
    {
        "col0": "R. S. Vilella",
        "col1": "R. S. Ramos",
        "col2": "Puerto Rico",
        "col3": "C. Dapena",
        "col4": "1913-02-19"
    },
    {
        "col0": "R. C. Moody",
        "col1": "Richard Stanley Hawks Moody",
        "col2": "Barbados",
        "col3": "H. family",
        "col4": "1813-02-13"
    },
    {
        "col0": "P. Brown",
        "col1": "J. Brown",
        "col2": "California",
        "col3": "B. L. Brown",
        "col4": "1905-04-21"
    },
    {
        "col0": "Mateo de Toro Zambrano, 1st Count of La Conquista",
        "col1": "Gregorio Jose de Toro, 2nd Count of la Conquista",
        "col2": "Chile",
        "col3": "N. Valdes",
        "col4": "1727-09-20"
    },
    {
        "col0": "L. M. Marin",
        "col1": "V. M. Mendoza",
        "col2": "San Juan, Puerto Rico",
        "col3": "I. Mendoza",
        "col4": "1898-02-18"
    },
    {
        "col0": "L. Stanford",
        "col1": "L. S. Jr.",
        "col2": "Watervliet",
        "col3": "J. Stanford",
        "col4": "1824-03-09"
    },
    {
        "col0": "J. Clarke",
        "col1": "W. Clarke",
        "col2": "Kent",
        "col3": "F. Latham",
        "col4": "1605-12-01"
    },
    {
        "col0": "H. L. III",
        "col1": "R. E. Lee",
        "col2": "Colony of Virginia",
        "col3": "Anne Hill Carter Lee",
        "col4": "1756-01-29"
    },
    {
        "col0": "H. A. Smith",
        "col1": "R. A. Smith",
        "col2": "London",
        "col3": "Lady May Abel Smith",
        "col4": "1900-03-08"
    },
    {
        "col0": "Harold Alexander, 1st Earl Alexander of Tunis",
        "col1": "T. Honourable",
        "col2": "England",
        "col3": "Margaret Alexander, Countess Alexander of Tunis",
        "col4": "1891-12-10"
    },
    {
        "col0": "F. Pizarro",
        "col1": "F. P. Yupanqui",
        "col2": "Crown of Castile",
        "col3": "Q. Sisa",
        "col4": "1478-3-16"
    },
    {
        "col0": "E. Binay",
        "col1": "N. Binay",
        "col2": "Commonwealth of the Philippines",
        "col3": "J. C. Binay",
        "col4": "1944-11-09"
    },
    {
        "col0": "D. Wallace",
        "col1": "L. Wallace",
        "col2": "Lewistown, Pennsylvania",
        "col3": "Z. G. Wallace",
        "col4": "1799-04-24"
    },
    {
        "col0": "B. Waller",
        "col1": "William L. Waller, Jr.",
        "col2": "Lafayette County, Mississippi",
        "col3": "C. Waller",
        "col4": "1926-10-21"
    },
    {
        "col0": "A. Ames",
        "col1": "A. A. Jr.",
        "col2": "Maine",
        "col3": "B. B. Ames",
        "col4": "1835-10-31"
    }
]