[
    {
        "col0": "L. Page",
        "col1": "California",
        "col2": "1920-10-19",
        "col3": "Alberta Peal"
    },
    {
        "col0": "K. Everett",
        "col1": "London",
        "col2": "1944-12-25",
        "col3": "Maurice James Christopher Cole"
    },
    {
        "col0": "K. Williams",
        "col1": "London",
        "col2": "1926-02-22",
        "col3": "Kenneth Charles Williams"
    },
    {
        "col0": "K. Goodwin",
        "col1": "Rhos-on-Sea",
        "col2": "1933-04-07",
        "col3": "William Kenneth Unwin"
    },
    {
        "col0": "J. Winters",
        "col1": "Montecito, California",
        "col2": "1925-11-11",
        "col3": "Jonathan Harshman Winters III"
    },
    {
        "col0": "J. Carson",
        "col1": "California",
        "col2": "1925-10-23",
        "col3": "John William Carson"
    },
    {
        "col0": "J. Clower",
        "col1": "Jackson, Mississippi",
        "col2": "1926-09-28",
        "col3": "Howard Gerald Clower"
    },
    {
        "col0": "J. Wood",
        "col1": "Bedfordshire",
        "col2": "1972-01-21",
        "col3": "Jason Robert Wood"
    },
    {
        "col0": "J. Paar",
        "col1": "Greenwich, Connecticut",
        "col2": "1918-05-01",
        "col3": "Jack Harold Paar"
    },
    {
        "col0": "H. Morgan",
        "col1": "New York City",
        "col2": "1915-03-31",
        "col3": "Henry Lerner Van Ost, Jr."
    },
    {
        "col0": "Henfil",
        "col1": "Rio de Janeiro",
        "col2": "1944-02-05",
        "col3": "Henrique de Souza Filho"
    },
    {
        "col0": "H. Korman",
        "col1": "California",
        "col2": "1927-02-15",
        "col3": "Harvey Herschel Korman"
    },
    {
        "col0": "H. Wittels",
        "col1": "California",
        "col2": "1984-04-20",
        "col3": "Harris Lee Wittels"
    },
    {
        "col0": "H. Ritz",
        "col1": "California",
        "col2": "1907-05-22",
        "col3": "Harold Joachim"
    },
    {
        "col0": "H. Lloyd",
        "col1": "California",
        "col2": "1893-04-20",
        "col3": "Harold Clayton Lloyd"
    },
    {
        "col0": "G. Marx",
        "col1": "California",
        "col2": "1890-10-02",
        "col3": "Julius Henry Marx"
    },
    {
        "col0": "G. Giraldo",
        "col1": "New Jersey",
        "col2": "1965-12-10",
        "col3": "Gregory C. Giraldo"
    },
    {
        "col0": "G. Nutt",
        "col1": "Vinemont, Alabama",
        "col2": "1934-09-02",
        "col3": "Grady Lee Nutt"
    },
    {
        "col0": "G. Roper",
        "col1": "Cheshire",
        "col2": "1934-05-15",
        "col3": "George Francis Furnival"
    },
    {
        "col0": "G. Shandling",
        "col1": "California",
        "col2": "1949-11-29",
        "col3": "Garry Emmanuel Shandling"
    },
    {
        "col0": "F. Travalena",
        "col1": "Encino, California",
        "col2": "1942-10-06",
        "col3": "Frederick Albert Travalena III"
    },
    {
        "col0": "F. Suero",
        "col1": "Dominican Republic",
        "col2": "1960-06-04",
        "col3": "Francisco de la Cruz Suero"
    },
    {
        "col0": "F. Potenza",
        "col1": "Los Angeles, California",
        "col2": "1933-11-11",
        "col3": "Francis Potenza"
    },
    {
        "col0": "F. Carson",
        "col1": "Blackpool",
        "col2": "1926-11-06",
        "col3": "Hugh Francis Carson"
    },
    {
        "col0": "F. Wilson",
        "col1": "Malibu, California",
        "col2": "1933-12-08",
        "col3": "Clerow Wilson, Jr."
    },
    {
        "col0": "F. Holzmann",
        "col1": "Chemnitz",
        "col2": "1921-07-08",
        "col3": "Felix Holzmann"
    },
    {
        "col0": "E. Kovacs",
        "col1": "California",
        "col2": "1919-01-23",
        "col3": "Ernest Edward Kovacs"
    },
    {
        "col0": "D. Gee",
        "col1": "Merseyside",
        "col2": "1942-06-24",
        "col3": "Gerald Harrison"
    },
    {
        "col0": "D. Harron",
        "col1": "Ontario",
        "col2": "1924-09-19",
        "col3": "Donald Hugh Harron"
    },
    {
        "col0": "Dolphy",
        "col1": "Philippines",
        "col2": "1928-07-25",
        "col3": "Rodolfo Vera Quizon, Sr."
    },
    {
        "col0": "D. Martin",
        "col1": "Santa Monica, California",
        "col2": "1922-01-30",
        "col3": "Thomas Richard Martin"
    },
    {
        "col0": "D. Frye",
        "col1": "Las Vegas, Nevada",
        "col2": "1933-11-21",
        "col3": "David Shapiro"
    },
    {
        "col0": "D. Brenner",
        "col1": "New York City",
        "col2": "1936-02-04",
        "col3": "David Norris Brenner"
    },
    {
        "col0": "D. Morris",
        "col1": "Blackpool",
        "col2": "1896-07-05",
        "col3": "David Morris"
    },
    {
        "col0": "D. Gans",
        "col1": "Henderson, Nevada",
        "col2": "1956-10-25",
        "col3": "Daniel Davies Gans"
    },
    {
        "col0": "D. Rowan",
        "col1": "Siesta Key, Florida",
        "col2": "1922-07-22",
        "col3": "Daniel Hale Rowan"
    },
    {
        "col0": "Chichay",
        "col1": "Manila",
        "col2": "1918-01-21",
        "col3": "Ampario Robles Custodio"
    },
    {
        "col0": "C. Callas",
        "col1": "Las Vegas",
        "col2": "1924-12-20",
        "col3": "Charles Callias"
    }
]