[
    {
        "col0": "Von Ryan's Express",
        "col1": "J. Goldsmith",
        "col2": "W. H. Daniels",
        "col3": "W. Mayes"
    },
    {
        "col0": "Von Richthofen and Brown",
        "col1": "H. Friedhofer",
        "col2": "M. Reed",
        "col3": "J. W. Corrington"
    },
    {
        "col0": "Volver a la vida",
        "col1": "G. Andreani",
        "col2": "A. Hoss",
        "col3": "A. Hoss"
    },
    {
        "col0": "Volver",
        "col1": "A. Iglesias",
        "col2": "J. L. Alcaine",
        "col3": "P. Almodovar"
    },
    {
        "col0": "Volevo i pantaloni",
        "col1": "G. Bigazzi",
        "col2": "M. Calvesi",
        "col3": "L. Benvenuti"
    },
    {
        "col0": "Volcano",
        "col1": "A. Silvestri",
        "col2": "Theo van de Sande",
        "col3": "B. Ray"
    },
    {
        "col0": "Volcano",
        "col1": "E. Masetti",
        "col2": "A. Gallea",
        "col3": "M. Chiari"
    },
    {
        "col0": "Voice of Silence",
        "col1": "E. Masetti",
        "col2": "G. Pogany",
        "col3": "G. W. Pabst"
    },
    {
        "col0": "Voice in the Wind",
        "col1": "M. Michelet",
        "col2": "R. Fryer",
        "col3": "F. Torberg"
    },
    {
        "col0": "Voglia di guardare",
        "col1": "S. Mainetti",
        "col2": "J. D'Amato",
        "col3": "A. Massaccesi"
    },
    {
        "col0": "Voces inocentes",
        "col1": "A. Abujamra",
        "col2": "J. R. Anchia",
        "col3": "L. Mandoki"
    },
    {
        "col0": "Vive le Tour",
        "col1": "G. Delerue",
        "col2": "L. Malle",
        "col3": "L. Malle"
    },
    {
        "col0": "Vivasaayi Magan",
        "col1": "Sirpy",
        "col2": "P. S. Nivas",
        "col3": "Ramarajan"
    },
    {
        "col0": "Vivahithare Ithile",
        "col1": "J. Amaldev",
        "col2": "J. Vincent",
        "col3": "B. Menon"
    },
    {
        "col0": "Vivahitha",
        "col1": "G. Devarajan",
        "col2": "V. Selvaraj",
        "col3": "T. Bhasi"
    }
]