[
    {
        "col0": "O. Gonzalez",
        "col1": "1923-11-10",
        "col2": "2006-11-5",
        "col3": "0"
    },
    {
        "col0": "E. Bayol",
        "col1": "1914-2-28",
        "col2": "1995-5-25",
        "col3": "0"
    },
    {
        "col0": "X. Perrot",
        "col1": "1932-2-1",
        "col2": "2008-12-8",
        "col3": "0"
    },
    {
        "col0": "W. Seidel",
        "col1": "1926-7-4",
        "col2": "1987-3-1",
        "col3": "0"
    },
    {
        "col0": "W. Mairesse",
        "col1": "1928-10-1",
        "col2": "1969-9-9",
        "col3": "0"
    },
    {
        "col0": "W. Ferguson",
        "col1": "1940-3-6",
        "col2": "2007-5-19",
        "col3": "0"
    },
    {
        "col0": "W. Cantrell",
        "col1": "1908-1-31",
        "col2": "1996-1-22",
        "col3": "0"
    },
    {
        "col0": "W. Krakau",
        "col1": "1911-12-4",
        "col2": "1995-4-26",
        "col3": "0"
    },
    {
        "col0": "W. Heeks",
        "col1": "1922-2-13",
        "col2": "1996-8-13",
        "col3": "0"
    },
    {
        "col0": "W. Cantrell",
        "col1": "1914-12-6",
        "col2": "1986-2-6",
        "col3": "0"
    },
    {
        "col0": "W. Weiler",
        "col1": "1934-12-9",
        "col2": "2005-10-13",
        "col3": "0"
    },
    {
        "col0": "W. Faulkner",
        "col1": "1918-2-16",
        "col2": "1956-4-22",
        "col3": "0"
    },
    {
        "col0": "W. Brown",
        "col1": "1911-12-30",
        "col2": "1951-7-29",
        "col3": "0"
    },
    {
        "col0": "W. Ader",
        "col1": "1913-12-15",
        "col2": "1982-11-25",
        "col3": "0"
    },
    {
        "col0": "V. Brambilla",
        "col1": "1937-11-11",
        "col2": "2001-5-26",
        "col3": "1"
    },
    {
        "col0": "V. Wilson",
        "col1": "1931-4-14",
        "col2": "2001-1-14",
        "col3": "0"
    },
    {
        "col0": "T. Taylor",
        "col1": "1936-12-26",
        "col2": "2010-9-27",
        "col3": "0"
    },
    {
        "col0": "T. Webb",
        "col1": "1910-10-8",
        "col2": "1990-1-27",
        "col3": "0"
    },
    {
        "col0": "T. d. Graffenried",
        "col1": "1914-5-18",
        "col2": "2007-1-22",
        "col3": "0"
    },
    {
        "col0": "T. Shelly",
        "col1": "1937-2-2",
        "col2": "1998-10-4",
        "col3": "0"
    },
    {
        "col0": "T. Marsh",
        "col1": "1931-7-20",
        "col2": "2009-5-7",
        "col3": "0"
    },
    {
        "col0": "T. Maggs",
        "col1": "1937-2-9",
        "col2": "2009-6-2",
        "col3": "0"
    },
    {
        "col0": "T. Lanfranchi",
        "col1": "1935-6-25",
        "col2": "2004-10-7",
        "col3": "0"
    },
    {
        "col0": "T. Crook",
        "col1": "1920-2-16",
        "col2": "2014-1-21",
        "col3": "0"
    },
    {
        "col0": "T. Brise",
        "col1": "1952-3-28",
        "col2": "1975-11-29",
        "col3": "0"
    },
    {
        "col0": "T. Branca",
        "col1": "1916-9-15",
        "col2": "1985-5-10",
        "col3": "0"
    },
    {
        "col0": "T. Pryce",
        "col1": "1949-6-11",
        "col2": "1977-3-5",
        "col3": "0"
    },
    {
        "col0": "T. Jones",
        "col1": "1943-4-26",
        "col2": "2015-5-29",
        "col3": "0"
    },
    {
        "col0": "T. Bridger",
        "col1": "1934-6-24",
        "col2": "1991-7-30",
        "col3": "0"
    },
    {
        "col0": "T. Mayer",
        "col1": "1938-2-22",
        "col2": "1964-2-28",
        "col3": "0"
    },
    {
        "col0": "T. Helfrich",
        "col1": "1913-5-13",
        "col2": "1978-4-29",
        "col3": "0"
    },
    {
        "col0": "S. Lewis-Evans",
        "col1": "1930-4-20",
        "col2": "1958-10-25",
        "col3": "0"
    },
    {
        "col0": "S. Moser",
        "col1": "1941-4-24",
        "col2": "1974-5-26",
        "col3": "0"
    },
    {
        "col0": "S. Templeman",
        "col1": "1919-8-12",
        "col2": "1962-8-24",
        "col3": "0"
    },
    {
        "col0": "S. Summers",
        "col1": "1936-6-23",
        "col2": "1961-6-1",
        "col3": "0"
    },
    {
        "col0": "S. Mantovani",
        "col1": "1929-5-22",
        "col2": "2001-2-23",
        "col3": "0"
    },
    {
        "col0": "S. Tingle",
        "col1": "1921-8-24",
        "col2": "2008-12-19",
        "col3": "0"
    },
    {
        "col0": "S. Hanks",
        "col1": "1914-7-13",
        "col2": "1994-6-27",
        "col3": "1"
    },
    {
        "col0": "R. Schoeller",
        "col1": "1902-4-27",
        "col2": "1978-3-7",
        "col3": "0"
    },
    {
        "col0": "R. Krause",
        "col1": "1907-3-30",
        "col2": "1987-4-11",
        "col3": "0"
    },
    {
        "col0": "R. Fischer",
        "col1": "1912-4-19",
        "col2": "1976-12-30",
        "col3": "0"
    },
    {
        "col0": "R. Salvadori",
        "col1": "1922-5-12",
        "col2": "2012-6-3",
        "col3": "0"
    },
    {
        "col0": "R. Peterson",
        "col1": "1944-2-14",
        "col2": "1978-9-11",
        "col3": "10"
    },
    {
        "col0": "R. Flockhart",
        "col1": "1923-6-16",
        "col2": "1962-4-12",
        "col3": "0"
    },
    {
        "col0": "R. Ratzenberger",
        "col1": "1960-7-4",
        "col2": "1994-4-30",
        "col3": "0"
    },
    {
        "col0": "R. Williamson",
        "col1": "1948-2-2",
        "col2": "1973-7-29",
        "col3": "0"
    },
    {
        "col0": "R. Loyer",
        "col1": "1907-8-5",
        "col2": "1988-3-24",
        "col3": "0"
    },
    {
        "col0": "R. Laurent",
        "col1": "1913-2-21",
        "col2": "1997-2-6",
        "col3": "0"
    },
    {
        "col0": "R. Ward",
        "col1": "1921-1-10",
        "col2": "2004-7-5",
        "col3": "1"
    },
    {
        "col0": "R. Mieres",
        "col1": "1924-12-3",
        "col2": "2012-1-26",
        "col3": "0"
    },
    {
        "col0": "R. Lippi",
        "col1": "1926-10-17",
        "col2": "2011-10-31",
        "col3": "0"
    },
    {
        "col0": "R. Bonomi",
        "col1": "1919-9-30",
        "col2": "1992-1-10",
        "col3": "0"
    },
    {
        "col0": "R. O'Brien",
        "col1": "1908-4-11",
        "col2": "1987-2-10",
        "col3": "0"
    },
    {
        "col0": "R. Manzon",
        "col1": "1917-4-12",
        "col2": "2015-1-19",
        "col3": "0"
    },
    {
        "col0": "R. L. Caze",
        "col1": "1917-2-26",
        "col2": "2015-7-1",
        "col3": "0"
    },
    {
        "col0": "R. Slotemaker",
        "col1": "1929-6-13",
        "col2": "1979-9-16",
        "col3": "0"
    },
    {
        "col0": "R. Schroeder",
        "col1": "1926-5-11",
        "col2": "2011-12-3",
        "col3": "0"
    },
    {
        "col0": "R. Ginther",
        "col1": "1930-8-5",
        "col2": "1989-9-20",
        "col3": "1"
    },
    {
        "col0": "R. Rodriguez",
        "col1": "1942-2-14",
        "col2": "1962-11-1",
        "col3": "0"
    },
    {
        "col0": "R. Londono",
        "col1": "1949-8-8",
        "col2": "2009-7-18",
        "col3": "0"
    },
    {
        "col0": "R. Zorzi",
        "col1": "1946-12-12",
        "col2": "2015-5-15",
        "col3": "0"
    },
    {
        "col0": "R. Parnell",
        "col1": "1911-7-2",
        "col2": "1964-1-7",
        "col3": "0"
    },
    {
        "col0": "R. Amick",
        "col1": "1929-1-19",
        "col2": "1995-5-16",
        "col3": "0"
    },
    {
        "col0": "R. Sommer",
        "col1": "1906-8-31",
        "col2": "1950-9-10",
        "col3": "0"
    },
    {
        "col0": "R. Crawford",
        "col1": "1915-10-26",
        "col2": "1996-2-1",
        "col3": "0"
    },
    {
        "col0": "P. Courage",
        "col1": "1942-5-27",
        "col2": "1970-6-21",
        "col3": "0"
    },
    {
        "col0": "P. Taruffi",
        "col1": "1906-10-12",
        "col2": "1988-1-12",
        "col3": "1"
    },
    {
        "col0": "P. Scotti",
        "col1": "1909-11-11",
        "col2": "1976-2-14",
        "col3": "0"
    },
    {
        "col0": "P. Drogo",
        "col1": "1926-8-8",
        "col2": "1973-4-28",
        "col3": "0"
    },
    {
        "col0": "P. Carini",
        "col1": "1921-3-6",
        "col2": "1957-5-30",
        "col3": "0"
    },
    {
        "col0": "P. Hill",
        "col1": "1927-4-20",
        "col2": "2008-8-28",
        "col3": "3"
    },
    {
        "col0": "P. Cade",
        "col1": "1916-6-12",
        "col2": "2001-8-28",
        "col3": "0"
    },
    {
        "col0": "P. d. Klerk",
        "col1": "1935-3-16",
        "col2": "2015-7-11",
        "col3": "0"
    },
    {
        "col0": "P. Westbury",
        "col1": "1938-5-26",
        "col2": "2015-12-11",
        "col3": "0"
    },
    {
        "col0": "P. Ryan",
        "col1": "1940-6-10",
        "col2": "1962-7-2",
        "col3": "0"
    },
    {
        "col0": "P. Revson",
        "col1": "1939-2-27",
        "col2": "1974-3-22",
        "col3": "2"
    },
    {
        "col0": "P. Monteverdi",
        "col1": "1934-6-7",
        "col2": "1998-7-4",
        "col3": "0"
    },
    {
        "col0": "P. Hirt",
        "col1": "1910-3-30",
        "col2": "1992-6-28",
        "col3": "0"
    },
    {
        "col0": "P. Gethin",
        "col1": "1940-2-21",
        "col2": "2011-12-5",
        "col3": "1"
    },
    {
        "col0": "P. Collins",
        "col1": "1931-11-6",
        "col2": "1958-8-3",
        "col3": "3"
    },
    {
        "col0": "P. Broeker",
        "col1": "1926-5-15",
        "col2": "1980-11-4",
        "col3": "0"
    },
    {
        "col0": "P. Arundell",
        "col1": "1933-11-8",
        "col2": "2009-6-16",
        "col3": "0"
    },
    {
        "col0": "P. Lovely",
        "col1": "1926-4-11",
        "col2": "2011-5-15",
        "col3": "0"
    },
    {
        "col0": "P. Rodriguez",
        "col1": "1940-1-18",
        "col2": "1971-7-11",
        "col3": "2"
    },
    {
        "col0": "P. Russo",
        "col1": "1914-4-10",
        "col2": "1976-2-13",
        "col3": "0"
    },
    {
        "col0": "P. Pietsch",
        "col1": "1911-6-20",
        "col2": "2012-5-31",
        "col3": "0"
    },
    {
        "col0": "P. Hawkins",
        "col1": "1937-10-12",
        "col2": "1969-5-26",
        "col3": "0"
    },
    {
        "col0": "P. Frere",
        "col1": "1917-1-30",
        "col2": "2008-2-23",
        "col3": "0"
    },
    {
        "col0": "P. England",
        "col1": "1929-3-28",
        "col2": "2014-6-17",
        "col3": "0"
    },
    {
        "col0": "P. Emery",
        "col1": "1916-11-12",
        "col2": "1993-2-3",
        "col3": "0"
    },
    {
        "col0": "P. O'Connor",
        "col1": "1928-10-9",
        "col2": "1958-5-30",
        "col3": "0"
    },
    {
        "col0": "P. Flaherty",
        "col1": "1926-1-6",
        "col2": "2002-4-9",
        "col3": "1"
    },
    {
        "col0": "P. Birger",
        "col1": "1924-1-7",
        "col2": "1966-3-9",
        "col3": "0"
    },
    {
        "col0": "O. Karch",
        "col1": "1917-3-6",
        "col2": "2009-1-28",
        "col3": "0"
    },
    {
        "col0": "O. A. Galvez",
        "col1": "1913-8-17",
        "col2": "1989-12-16",
        "col3": "0"
    },
    {
        "col0": "O. Marimon",
        "col1": "1923-12-23",
        "col2": "1954-7-31",
        "col3": "0"
    },
    {
        "col0": "M. Fohr",
        "col1": "1912-6-17",
        "col2": "1994-1-14",
        "col3": "0"
    },
    {
        "col0": "M. Solana",
        "col1": "1935-12-26",
        "col2": "1969-7-27",
        "col3": "0"
    },
    {
        "col0": "M. Spence",
        "col1": "1936-12-30",
        "col2": "1968-5-7",
        "col3": "0"
    },
    {
        "col0": "M. Parkes",
        "col1": "1931-9-24",
        "col2": "1977-8-28",
        "col3": "0"
    },
    {
        "col0": "M. Nazaruk",
        "col1": "1921-10-2",
        "col2": "1955-5-1",
        "col3": "0"
    },
    {
        "col0": "M. Magill",
        "col1": "1920-2-8",
        "col2": "2006-8-31",
        "col3": "0"
    },
    {
        "col0": "M. Hawthorn",
        "col1": "1929-4-10",
        "col2": "1959-1-22",
        "col3": "3"
    },
    {
        "col0": "M. Boffa",
        "col1": "1930-1-4",
        "col2": "1996-9-28",
        "col3": "0"
    }
]