[
    {
        "col0": "L. Utyosov",
        "col1": "Odessa",
        "col2": "Vocals",
        "col3": "1982-03-09"
    },
    {
        "col0": "L. Williams",
        "col1": "New Orleans",
        "col2": "Piano",
        "col3": "1980-01-07"
    },
    {
        "col0": "K. Pfaff",
        "col1": "Minneapolis",
        "col2": "Cello",
        "col3": "1994-06-16"
    },
    {
        "col0": "K. Carpenter",
        "col1": "California",
        "col2": "Remo",
        "col3": "1983-02-04"
    },
    {
        "col0": "J. Samples",
        "col1": "Cumming, Georgia",
        "col2": "Harmonica",
        "col3": "1983-11-13"
    },
    {
        "col0": "J. O'Keefe",
        "col1": "Sydney",
        "col2": "Vocals",
        "col3": "1978-10-06"
    },
    {
        "col0": "J. Herald",
        "col1": "New York",
        "col2": "Guitar",
        "col3": "2005-07-18"
    },
    {
        "col0": "J. Hartford",
        "col1": "St. Louis, Missouri",
        "col2": "Mandolin",
        "col3": "2001-06-04"
    },
    {
        "col0": "J. Witherspoon",
        "col1": "Arkansas",
        "col2": "Human voice",
        "col3": "1997-09-18"
    },
    {
        "col0": "J. Joplin",
        "col1": "San Francisco, California",
        "col2": "Singing",
        "col3": "1970-10-04"
    },
    {
        "col0": "I. Cutler",
        "col1": "Glasgow",
        "col2": "Harmonium",
        "col3": "2006-03-03"
    },
    {
        "col0": "I. Hayes",
        "col1": "Shelby County, Tennessee",
        "col2": "Piano",
        "col3": "2008-08-10"
    },
    {
        "col0": "H. Axton",
        "col1": "Comanche, Oklahoma",
        "col2": "Guitar",
        "col3": "1999-10-26"
    },
    {
        "col0": "H. Carter",
        "col1": "United States",
        "col2": "Accordion",
        "col3": "1998-06-02"
    },
    {
        "col0": "G. Jones",
        "col1": "Akron, Ohio",
        "col2": "Banjo",
        "col3": "1998-02-19"
    },
    {
        "col0": "F. Young",
        "col1": "United States",
        "col2": "Acoustic Guitar",
        "col3": "1996-12-10"
    },
    {
        "col0": "E. Jannacci",
        "col1": "Milan",
        "col2": "Piano",
        "col3": "2013-03-29"
    }
]