[
    {
        "col0": "Y. Avila",
        "col1": "Jose Joaquin Avila Portalatin",
        "col2": "2013-06-28",
        "col3": "1925-09-11"
    },
    {
        "col0": "W. Kiek",
        "col1": "Winifred Jackson",
        "col2": "1975-05-23",
        "col3": "1884-07-27"
    },
    {
        "col0": "W. Inge",
        "col1": "William Ralph Inge",
        "col2": "1954-02-26",
        "col3": "1860-06-06"
    },
    {
        "col0": "W. D. Coleman",
        "col1": "William Dawson Coleman",
        "col2": "2001-10-22",
        "col3": "1915-11-26"
    },
    {
        "col0": "W. Penner",
        "col1": "Waldo Penner",
        "col2": "2006-05-05",
        "col3": "1919-10-03"
    },
    {
        "col0": "W. D. McClure",
        "col1": "William Donald McClure",
        "col2": "1977-03-27",
        "col3": "1906-04-28"
    },
    {
        "col0": "V. Tirtha",
        "col1": "Vittlacharya",
        "col2": "1592-0-0",
        "col3": "1514-0-0"
    },
    {
        "col0": "V. Motoc",
        "col1": "Vasile Motoc Varlaam",
        "col2": "1657-1-1",
        "col3": "1585-1-1"
    },
    {
        "col0": "T. Tow",
        "col1": "Tow Siang Hui",
        "col2": "2009-04-20",
        "col3": "1920-12-28"
    },
    {
        "col0": "T. Guerin",
        "col1": "Anne-Therese Guerin",
        "col2": "1856-05-14",
        "col3": "1798-10-02"
    },
    {
        "col0": "T. Guerin",
        "col1": "Anne-Therese Guerin",
        "col2": "1856-05-14",
        "col3": "1798-10-02"
    },
    {
        "col0": "T. S. Wan",
        "col1": "Tara Singh",
        "col2": "1726-03-30",
        "col3": "1687-0-0"
    },
    {
        "col0": "S. C. Partridge",
        "col1": "Sidney Catlin Partridge",
        "col2": "1930-06-22",
        "col3": "1857-09-01"
    },
    {
        "col0": "S. E. Krupa Rao",
        "col1": "Sreemanthula Eleazar Krupa Rao",
        "col2": "1993-0-0",
        "col3": "1939-0-0"
    }
]