[
    {
        "col0": "Kamen Rider Kabuto",
        "col1": "T. Inoue",
        "col2": "R. Tasaki",
        "col3": "2007-01-21"
    },
    {
        "col0": "Kamen Rider Hibiki",
        "col1": "T. Inoue",
        "col2": "O. Kaneda",
        "col3": "2006-01-22"
    },
    {
        "col0": "Kamen Rider Ghost",
        "col1": "K. Hasegawa",
        "col2": "K. Sakamoto",
        "col3": "2016-09-25"
    },
    {
        "col0": "Kamen Rider Gaim",
        "col1": "G. Urobuchi",
        "col2": "R. Tasaki",
        "col3": "2014-09-28"
    },
    {
        "col0": "Kamen Rider Fourze",
        "col1": "R. Sanjo",
        "col2": "K. Sakamoto",
        "col3": "2012-08-26"
    },
    {
        "col0": "Kamen Rider Drive",
        "col1": "R. Sanjo",
        "col2": "R. Tasaki",
        "col3": "2015-09-27"
    },
    {
        "col0": "Kamen Rider Den-O",
        "col1": "S. Yonemura",
        "col2": "R. Tasaki",
        "col3": "2008-01-20"
    },
    {
        "col0": "Kamen Rider Decade",
        "col1": "S. Yonemura",
        "col2": "O. Kaneda",
        "col3": "2009-08-30"
    },
    {
        "col0": "Kamen Rider Agito",
        "col1": "T. Inoue",
        "col2": "R. Tasaki",
        "col3": "2002-01-27"
    },
    {
        "col0": "Kamen Rider 555",
        "col1": "T. Inoue",
        "col2": "R. Tasaki",
        "col3": "2004-01-18"
    },
    {
        "col0": "Kaisay Tum Se Kahoon",
        "col1": "M. Malik",
        "col2": "F. Burney",
        "col3": "2015-12-13"
    },
    {
        "col0": "Kahaani Ghar Ghar Kii",
        "col1": "A. Gandhi",
        "col2": "A. Babbal",
        "col3": "2008-10-09"
    },
    {
        "col0": "K Street",
        "col1": "H. Bean",
        "col2": "S. Soderbergh",
        "col3": "2003-11-16"
    },
    {
        "col0": "KYTV",
        "col1": "G. Perkins",
        "col2": "J. Stroud",
        "col3": "1993-10-22"
    },
    {
        "col0": "Just the Ten of Us",
        "col1": "S. Marshall",
        "col2": "J. Johnston",
        "col3": "1990-05-04"
    },
    {
        "col0": "Just for Kicks",
        "col1": "M. Dearborn",
        "col2": "S. McNamara",
        "col3": "2006-08-13"
    },
    {
        "col0": "Journey to the Center of the Earth",
        "col1": "D. R. Christensen",
        "col2": "H. Sutherland",
        "col3": "1969-09-06"
    },
    {
        "col0": "Jossy's Giants",
        "col1": "S. Waddell",
        "col2": "E. Pugh",
        "col3": "1987-04-08"
    },
    {
        "col0": "Joseph Schildkraut Presents",
        "col1": "T. Mosel",
        "col2": "B. Shear",
        "col3": "1954-01-21"
    },
    {
        "col0": "Jonny Quest",
        "col1": "C. Hoffman",
        "col2": "J. Barbera",
        "col3": "1965-03-11"
    },
    {
        "col0": "Jonathan Strange & Mr Norrell",
        "col1": "P. Harness",
        "col2": "T. Haynes",
        "col3": "2015-06-28"
    },
    {
        "col0": "Jonah from Tonga",
        "col1": "C. Lilley",
        "col2": "C. Lilley",
        "col3": "2014-05-04"
    },
    {
        "col0": "Jon Benjamin Has a Van",
        "col1": "H. J. Benjamin",
        "col2": "J. Lee",
        "col3": "2011-08-10"
    },
    {
        "col0": "Johnny Ringo",
        "col1": "A. Spelling",
        "col2": "D. L. Rich",
        "col3": "1960-06-30"
    },
    {
        "col0": "Johnny Bravo",
        "col1": "B. Hartman",
        "col2": "B. Hartman",
        "col3": "2004-08-27"
    },
    {
        "col0": "John Safran vs God",
        "col1": "J. Safran",
        "col2": "C. Melville",
        "col3": "2004-10-18"
    },
    {
        "col0": "Joe and Sons",
        "col1": "B. Illes",
        "col2": "P. Baldwin",
        "col3": "1976-01-13"
    },
    {
        "col0": "Joanie Loves Chachi",
        "col1": "L. Ganz",
        "col2": "L. Ganz",
        "col3": "1983-05-24"
    },
    {
        "col0": "Jo",
        "col1": "D. Son",
        "col2": "S. Folkson",
        "col3": "2013-03-07"
    },
    {
        "col0": "Jesus of Nazareth",
        "col1": "A. Burgess",
        "col2": "F. Zeffirelli",
        "col3": "1977-04-24"
    },
    {
        "col0": "Jennifer Slept Here",
        "col1": "B. Ferber",
        "col2": "C. S. Dubin",
        "col3": "1984-09-05"
    },
    {
        "col0": "Jennifer Lopez Presents: Como Ama una Mujer",
        "col1": "X. Escalante",
        "col2": "A. Serrano",
        "col3": "2007-11-27"
    },
    {
        "col0": "Jekyll",
        "col1": "S. Moffat",
        "col2": "D. Mackinnon",
        "col3": "2007-07-28"
    },
    {
        "col0": "Jazz",
        "col1": "G. Ward",
        "col2": "K. Burns",
        "col3": "2001-01-31"
    },
    {
        "col0": "Jane Eyre",
        "col1": "C. Bronte",
        "col2": "S. White",
        "col3": "2006-10-15"
    },
    {
        "col0": "James at 15",
        "col1": "D. Wakefield",
        "col2": "E. Pintoff",
        "col3": "1978-06-29"
    },
    {
        "col0": "Jacquou le Croquant",
        "col1": "S. Lorenzi",
        "col2": "S. Lorenzi",
        "col3": "1969-11-08"
    },
    {
        "col0": "Jackson Heights",
        "col1": "Chaudhry",
        "col2": "M. Jabbar",
        "col3": "2015-03-20"
    },
    {
        "col0": "Ja'mie: Private School Girl",
        "col1": "C. Lilley",
        "col2": "C. Lilley",
        "col3": "2013-11-27"
    },
    {
        "col0": "Itna Karo Na Mujhe Pyaar",
        "col1": "V. Mehta",
        "col2": "A. V. Kumar",
        "col3": "2015-11-17"
    },
    {
        "col0": "It Might Be You",
        "col1": "R. Lee",
        "col2": "G. Perez",
        "col3": "2004-12-10"
    },
    {
        "col0": "It",
        "col1": "L. D. Cohen",
        "col2": "T. L. Wallace",
        "col3": "1990-11-20"
    },
    {
        "col0": "It's Your Move",
        "col1": "M. G. Moye",
        "col2": "P. Bonerz",
        "col3": "1985-02-23"
    },
    {
        "col0": "It's Okay, That's Love",
        "col1": "N. Hee-kyung",
        "col2": "K. Kyu-tae",
        "col3": "2014-09-11"
    },
    {
        "col0": "Iron Horse",
        "col1": "S. Fuller",
        "col2": "L. Penn",
        "col3": "1968-01-06"
    },
    {
        "col0": "Invasion",
        "col1": "R. Cook",
        "col2": "A. Mastroianni",
        "col3": "1997-05-05"
    },
    {
        "col0": "Intruders",
        "col1": "G. Morgan",
        "col2": "D. Stamm",
        "col3": "2014-10-11"
    },
    {
        "col0": "Into the West",
        "col1": "C. Nowrasteh",
        "col2": "M. W. Watkins",
        "col3": "2005-07-22"
    },
    {
        "col0": "Into the Labyrinth",
        "col1": "A. Read",
        "col2": "P. G. Scott",
        "col3": "1982-09-08"
    },
    {
        "col0": "Insurrection",
        "col1": "H. Leonard",
        "col2": "L. Lentin",
        "col3": "1966-04-17"
    },
    {
        "col0": "In the Flow with Affion Crockett",
        "col1": "A. Crockett",
        "col2": "R. Cundieff",
        "col3": "2011-09-11"
    },
    {
        "col0": "In the Flesh",
        "col1": "D. Mitchell",
        "col2": "J. Campbell",
        "col3": "2014-06-08"
    },
    {
        "col0": "In and Out of the Kitchen",
        "col1": "M. Jupp",
        "col2": "M. Fletcher",
        "col3": "2015-03-25"
    },
    {
        "col0": "Impostora",
        "col1": "S. Doctolero",
        "col2": "Maryo J. de los Reyes",
        "col3": "2007-09-21"
    },
    {
        "col0": "I Was a Rat",
        "col1": "P. Pullman",
        "col2": "L. Lynd",
        "col3": "2001-12-20"
    },
    {
        "col0": "I Married Dora",
        "col1": "M. J. Leeson",
        "col2": "L. Shallat-Chemel",
        "col3": "1988-01-08"
    },
    {
        "col0": "I Led Three Lives",
        "col1": "G. Roddenberry",
        "col2": "H. L. Strock",
        "col3": "1956-01-01"
    },
    {
        "col0": "I Dare You",
        "col1": "J. Johnson",
        "col2": "J. Johnson",
        "col3": "2007-01-13"
    },
    {
        "col0": "I, Lovett",
        "col1": "N. Lovett",
        "col2": "R. Bain",
        "col3": "1993-04-28"
    },
    {
        "col0": "I, Claudius",
        "col1": "J. Pulman",
        "col2": "H. Wise",
        "col3": "1976-12-06"
    },
    {
        "col0": "I'm Sorry, I Love You",
        "col1": "L. Kyung-hee",
        "col2": "L. Hyung-min",
        "col3": "2004-12-28"
    },
    {
        "col0": "Hyperion Bay",
        "col1": "J. Dougherty",
        "col2": "P. Lang",
        "col3": "1999-03-08"
    },
    {
        "col0": "Husbands",
        "col1": "J. Espenson",
        "col2": "J. Greenstein",
        "col3": "2013-10-03"
    },
    {
        "col0": "Hunderby",
        "col1": "B. O'Shaughnessy",
        "col2": "T. Dow",
        "col3": "2015-12-17"
    },
    {
        "col0": "Humsafar",
        "col1": "F. Ishtiaq",
        "col2": "S. S. Khoosat",
        "col3": "2012-03-03"
    },
    {
        "col0": "Hum Log",
        "col1": "M. S. Joshi",
        "col2": "P. K. Vasudev",
        "col3": "1985-12-17"
    },
    {
        "col0": "Hum Aapke Hain In Laws",
        "col1": "A. Dhir",
        "col2": "A. Dhir",
        "col3": "2013-06-07"
    },
    {
        "col0": "Hullabaloo",
        "col1": "F. Peppiatt",
        "col2": "S. Binder",
        "col3": "1966-08-29"
    }
]