[
    {
        "col0": "Good God",
        "col1": "K. Finkleman",
        "col2": "K. Finkleman",
        "col3": "2012-06-11"
    },
    {
        "col0": "Good Girls Don't",
        "col1": "C. Lonow",
        "col2": "T. Busfield",
        "col3": "2004-08-01"
    },
    {
        "col0": "Good Advice",
        "col1": "M. P. King",
        "col2": "M. Lembeck",
        "col3": "1994-09-06"
    },
    {
        "col0": "Golden Years",
        "col1": "S. King",
        "col2": "A. Coulter",
        "col3": "1991-08-22"
    },
    {
        "col0": "Going My Way",
        "col1": "R. L. Bare",
        "col2": "J. Pevney",
        "col3": "1963-04-24"
    },
    {
        "col0": "Godzilla: The Series",
        "col1": "J. Kline",
        "col2": "A. Paden",
        "col3": "2000-04-22"
    },
    {
        "col0": "Go Fish",
        "col1": "Phil Lord and Chris Miller",
        "col2": "A. Sanford",
        "col3": "2001-07-03"
    },
    {
        "col0": "Glynis",
        "col1": "J. Oppenheimer",
        "col2": "E. Swackhamer",
        "col3": "1963-12-11"
    },
    {
        "col0": "Glory Days",
        "col1": "K. Williamson",
        "col2": "P. Lang",
        "col3": "2002-03-25"
    },
    {
        "col0": "Glenroe",
        "col1": "W. Burrowes",
        "col2": "B. Island",
        "col3": "2001-05-06"
    },
    {
        "col0": "Girltrash!",
        "col1": "A. Robinson",
        "col2": "A. Robinson",
        "col3": "2009-09-03"
    },
    {
        "col0": "Ghar Ki Baat Hai",
        "col1": "K. Dhillon",
        "col2": "A. Mahadevan",
        "col3": "2009-07-04"
    },
    {
        "col0": "Getting Together",
        "col1": "R. Baer",
        "col2": "L. Antonio",
        "col3": "1972-01-08"
    },
    {
        "col0": "Getting On",
        "col1": "M. V. Olsen",
        "col2": "H. Deutch",
        "col3": "2015-12-13"
    },
    {
        "col0": "Gerry Anderson's New Captain Scarlet",
        "col1": "G. Anderson",
        "col2": "D. Lane",
        "col3": "2005-11-26"
    },
    {
        "col0": "George and Leo",
        "col1": "Phil Baker and Drew Vaupen",
        "col2": "J. Burrows",
        "col3": "1998-03-16"
    },
    {
        "col0": "Generation Kill",
        "col1": "D. Simon",
        "col2": "S. White",
        "col3": "2008-08-24"
    },
    {
        "col0": "Gemini Man",
        "col1": "Steven E. de Souza",
        "col2": "A. J. Levi",
        "col3": "1976-10-28"
    },
    {
        "col0": "Gates",
        "col1": "A. Collins",
        "col2": "L. Bowen",
        "col3": "2012-09-11"
    },
    {
        "col0": "Garo",
        "col1": "K. Amemiya",
        "col2": "K. Amemiya",
        "col3": "2006-03-31"
    },
    {
        "col0": "Garo: Makai no Hana",
        "col1": "K. Amemiya",
        "col2": "A. Ohashi",
        "col3": "2014-09-26"
    },
    {
        "col0": "Garo: Makai Senki",
        "col1": "T. Inoue",
        "col2": "K. Amemiya",
        "col3": "2012-03-22"
    },
    {
        "col0": "Garfield and Friends",
        "col1": "M. Evanier",
        "col2": "T. Ray",
        "col3": "1994-12-10"
    },
    {
        "col0": "Gangsters",
        "col1": "P. Martin",
        "col2": "A. Reid",
        "col3": "1978-02-10"
    },
    {
        "col0": "Gadget & the Gadgetinis",
        "col1": "J. Chalopin",
        "col2": "B. Bianchi",
        "col3": "2003-12-27"
    },
    {
        "col0": "Gabriela",
        "col1": "W. Carrasco",
        "col2": "M. M. Filho",
        "col3": "2012-10-26"
    },
    {
        "col0": "GE True",
        "col1": "D. Riesner",
        "col2": "W. Conrad",
        "col3": "1963-05-26"
    },
    {
        "col0": "G.B.H.",
        "col1": "A. Bleasdale",
        "col2": "R. Young",
        "col3": "1991-07-18"
    },
    {
        "col0": "Fury",
        "col1": "R. Schayer",
        "col2": "L. Selander",
        "col3": "1960-03-19"
    },
    {
        "col0": "Funky Squad",
        "col1": "J. Kennedy",
        "col2": "J. Kennedy",
        "col3": "1995-06-05"
    },
    {
        "col0": "Fudge",
        "col1": "J. Blume",
        "col2": "B. Clark",
        "col3": "1997-12-16"
    },
    {
        "col0": "Fry's Planet Word",
        "col1": "S. Fry",
        "col2": "J. Davidson",
        "col3": "2011-10-23"
    },
    {
        "col0": "Frontier Circus",
        "col1": "S. A. Peeples",
        "col2": "T. Garnett",
        "col3": "1962-09-06"
    },
    {
        "col0": "Frisky Dingo",
        "col1": "A. Reed",
        "col2": "A. Reed",
        "col3": "2008-03-23"
    },
    {
        "col0": "Fresh Meat",
        "col1": "T. Basden",
        "col2": "D. Kerr",
        "col3": "2016-03-28"
    },
    {
        "col0": "Freaky",
        "col1": "T. Robins",
        "col2": "T. Robins",
        "col3": "2003-12-14"
    },
    {
        "col0": "Frankenstein",
        "col1": "M. Shelley",
        "col2": "K. Connor",
        "col3": "2004-10-06"
    },
    {
        "col0": "Frank's Place",
        "col1": "H. Wilson",
        "col2": "H. Wilson",
        "col3": "1988-03-22"
    },
    {
        "col0": "Foster's Home for Imaginary Friends",
        "col1": "L. Faust",
        "col2": "C. McCracken",
        "col3": "2009-05-03"
    },
    {
        "col0": "Fortunes of War",
        "col1": "O. Manning",
        "col2": "J. C. Jones",
        "col3": "1987-11-22"
    }
]