[
    {
        "col0": "1927 Italian Grand Prix",
        "col1": "R. Benoist",
        "col2": "E. Cooper",
        "col3": "Officine Meccaniche",
        "col4": "Delage",
        "col5": "9994"
    },
    {
        "col0": "1926 San Sebastian Grand Prix",
        "col1": "J. Goux",
        "col2": "M. Costantini",
        "col3": "Delage",
        "col4": "Delage",
        "col5": "17750"
    },
    {
        "col0": "1925 Italian Grand Prix",
        "col1": "G. Brilli-Peri",
        "col2": "M. Costantini",
        "col3": "Alfa Romeo in motorsport",
        "col4": "Duesenberg",
        "col5": "9994"
    },
    {
        "col0": "1925 French Grand Prix",
        "col1": "R. Benoist",
        "col2": "G. Masetti",
        "col3": "Delage",
        "col4": "Sunbeam Motor Car Company",
        "col5": "12500"
    },
    {
        "col0": "1924 Italian Grand Prix",
        "col1": "A. Ascari",
        "col2": "G. Campari",
        "col3": "Alfa Romeo in motorsport",
        "col4": "Alfa Romeo in motorsport",
        "col5": "9994"
    },
    {
        "col0": "1924 French Grand Prix",
        "col1": "G. Campari",
        "col2": "R. Benoist",
        "col3": "Delage",
        "col4": "Sunbeam Motor Car Company",
        "col5": "23142"
    },
    {
        "col0": "1923 French Grand Prix",
        "col1": "H. Segrave",
        "col2": "E. Friderich",
        "col3": "Sunbeam Motor Car Company",
        "col4": "Fiat",
        "col5": "22830"
    },
    {
        "col0": "1922 Italian Grand Prix",
        "col1": "P. Bordino",
        "col2": "P. d. Vizcaya",
        "col3": "Fiat",
        "col4": "Fiat",
        "col5": "9994"
    },
    {
        "col0": "1921 Italian Grand Prix",
        "col1": "J. Goux",
        "col2": "L. Wagner",
        "col3": "Ballot",
        "col4": "Fiat",
        "col5": "17300"
    },
    {
        "col0": "1921 French Grand Prix",
        "col1": "J. A. Murphy",
        "col2": "J. Goux",
        "col3": "Ballot",
        "col4": "Duesenberg",
        "col5": "17252"
    },
    {
        "col0": "1914 French Grand Prix",
        "col1": "C. Lautenschlager",
        "col2": "O. Salzer",
        "col3": "Mercedes",
        "col4": "Mercedes",
        "col5": "37626"
    },
    {
        "col0": "1913 French Grand Prix",
        "col1": "G. Boillot",
        "col2": "J. Chassagne",
        "col3": "Peugot",
        "col4": "Delage",
        "col5": "31620"
    },
    {
        "col0": "1910 American Grand Prize",
        "col1": "D. Bruce-Brown",
        "col2": "B. Burman",
        "col3": "Mercedes-Benz",
        "col4": "Fiat",
        "col5": "27800"
    },
    {
        "col0": "1908 American Grand Prize",
        "col1": "L. Wagner",
        "col2": "F. Nazzaro",
        "col3": "Benz & Cie.",
        "col4": "Fiat",
        "col5": "40434"
    },
    {
        "col0": "1907 French Grand Prix",
        "col1": "F. Nazzaro",
        "col2": "P. Baras",
        "col3": "Renault",
        "col4": "Lorraine-Dietrich",
        "col5": "76989"
    },
    {
        "col0": "1906 French Grand Prix",
        "col1": "F. Szisz",
        "col2": "A. Clement",
        "col3": "Fiat",
        "col4": "Brasier",
        "col5": "103175"
    }
]