[
    {
        "Title": "Adventures of Huckleberry Finn",
        "Author": "Mark Twain",
        "Source": "ALA [11]"
    },
    {
        "Title": "The Adventures of Super Diaper Baby",
        "Author": "Dav Pilkey",
        "Source": "ALA [47]"
    },
    {
        "Title": "The Adventures of Tom Sawyer",
        "Author": "Mark Twain",
        "Source": "ALA"
    },
    {
        "Title": "Alice series",
        "Author": "Phyllis Reynolds Naylor",
        "Source": "ALA [2]"
    },
    {
        "Title": "All the King's Men",
        "Author": "Robert Penn Warren",
        "Source": "Rad"
    },
    {
        "Title": "Always Running",
        "Author": "Luis J. Rodriguez",
        "Source": "ALA [66]"
    },
    {
        "Title": "American Psycho",
        "Author": "Bret Easton Ellis",
        "Source": "ALA"
    },
    {
        "Title": "An American Tragedy",
        "Author": "Theodore Dreiser",
        "Source": "Rad"
    },
    {
        "Title": "The Anarchist Cookbook",
        "Author": "William Powell",
        "Source": "ALA"
    },
    {
        "Title": "Anastasia Again!",
        "Author": "Lois Lowry",
        "Source": "ALA [81]"
    },
    {
        "Title": "And Tango Makes Three",
        "Author": "Justin Richardson and Peter Parnell",
        "Source": "ALA [9]"
    },
    {
        "Title": "Angus, Thongs and Full-Frontal Snogging",
        "Author": "Louise Rennison",
        "Source": "ALA [32]"
    },
    {
        "Title": "Annie on My Mind",
        "Author": "Nancy Garden",
        "Source": "ALA"
    },
    {
        "Title": "Are You There God? It's Me, Margaret",
        "Author": "Judy Blume",
        "Source": "ALA [82]"
    },
    {
        "Title": "Arming America",
        "Author": "Michael Bellasiles",
        "Source": "ALA [34]"
    },
    {
        "Title": "Arizona Kid",
        "Author": "Ron Koertge",
        "Source": "ALA"
    },
    {
        "Title": "As I Lay Dying",
        "Author": "William Faulkner",
        "Source": "Rad"
    },
    {
        "Title": "Asking About Sex and Growing Up",
        "Author": "Joanna Cole",
        "Source": "ALA"
    },
    {
        "Title": "Athletic Shorts",
        "Author": "Chris Crutcher",
        "Source": "ALA [38]"
    },
    {
        "Title": "Beloved",
        "Author": "Toni Morrison",
        "Source": "ALA [24] /Rad"
    },
    {
        "Title": "Black Boy",
        "Author": "Richard Wright",
        "Source": "ALA [67]"
    },
    {
        "Title": "Bless Me, Ultima",
        "Author": "Rudolfo A. Anaya",
        "Source": "ALA [39]"
    },
    {
        "Title": "Blood and Chocolate",
        "Author": "Annette Curtis Klause",
        "Source": "ALA [54]"
    },
    {
        "Title": "Blubber",
        "Author": "Judy Blume",
        "Source": "ALA [36]"
    },
    {
        "Title": "The Bluest Eye",
        "Author": "Toni Morrison",
        "Source": "ALA [12]"
    },
    {
        "Title": "The Boy Who Lost His Face",
        "Author": "Louis Sachar",
        "Source": "ALA [79]"
    },
    {
        "Title": "Boys and Sex",
        "Author": "Wardell Pomeroy",
        "Source": "ALA"
    },
    {
        "Title": "Brave New World",
        "Author": "Aldous Huxley",
        "Source": "ALA [37] /Rad"
    },
    {
        "Title": "Bridge to Terabithia",
        "Author": "Katherine Paterson",
        "Source": "ALA [20]"
    },
    {
        "Title": "Bumps in the Night",
        "Author": "Harry Allard",
        "Source": "ALA [83]"
    },
    {
        "Title": "The Call of the Wild",
        "Author": "Jack London",
        "Source": "Rad"
    },
    {
        "Title": "Captain Underpants",
        "Author": "Dav Pilkey",
        "Source": "ALA [10]"
    },
    {
        "Title": "Carrie",
        "Author": "Stephen King",
        "Source": "ALA"
    },
    {
        "Title": "The Catcher in the Rye",
        "Author": "J. D. Salinger",
        "Source": "ALA [19] /Rad"
    },
    {
        "Title": "Catch-22",
        "Author": "Joseph Heller",
        "Source": "Rad"
    },
    {
        "Title": "Cat's Cradle",
        "Author": "Kurt Vonnegut",
        "Source": "Rad"
    },
    {
        "Title": "The Chocolate War",
        "Author": "Robert Cormier",
        "Source": "ALA [3]"
    },
    {
        "Title": "Christine",
        "Author": "Stephen King",
        "Source": "ALA"
    },
    {
        "Title": "A Clockwork Orange",
        "Author": "Anthony Burgess",
        "Source": "Rad"
    },
    {
        "Title": "The Color Purple",
        "Author": "Alice Walker",
        "Source": "ALA [14] /Rad"
    },
    {
        "Title": "Crazy Lady!",
        "Author": "Jane Conly",
        "Source": "ALA [42]"
    },
    {
        "Title": "Cross Your Fingers, Spit in Your Hat",
        "Author": "Alvin Schwartz",
        "Source": "ALA"
    },
    {
        "Title": "Cujo",
        "Author": "Stephen King",
        "Source": "ALA"
    },
    {
        "Title": "Curses, Hexes and Spells",
        "Author": "Daniel Cohen",
        "Source": "ALA"
    },
    {
        "Title": "Cut",
        "Author": "Patricia McCormick",
        "Source": "ALA [86]"
    },
    {
        "Title": "Daddy's Roommate",
        "Author": "Michael Willhoite",
        "Source": "ALA"
    },
    {
        "Title": "A Day No Pigs Would Die",
        "Author": "Robert Newton Peck",
        "Source": "ALA"
    },
    {
        "Title": "The Dead Zone",
        "Author": "Stephen King",
        "Source": "ALA"
    },
    {
        "Title": "Deenie",
        "Author": "Judy Blume",
        "Source": "ALA"
    },
    {
        "Title": "Detour for Emmy",
        "Author": "Marilyn Reynolds",
        "Source": "ALA"
    },
    {
        "Title": "The Drowning of Stephan Jones",
        "Author": "Bette Greene",
        "Source": "ALA"
    },
    {
        "Title": "Earth's Children (series)",
        "Author": "Jean M. Auel",
        "Source": "ALA"
    },
    {
        "Title": "The Exorcist",
        "Author": "William Peter Blatty",
        "Source": "ALA"
    },
    {
        "Title": "The Face on the Milk Carton",
        "Author": "Caroline B. Cooney",
        "Source": "ALA"
    },
    {
        "Title": "Fade",
        "Author": "Robert Cormier",
        "Source": "ALA"
    },
    {
        "Title": "Fallen Angels",
        "Author": "Walter Dean Myers",
        "Source": "ALA"
    },
    {
        "Title": "Family Secrets",
        "Author": "Norma Klein",
        "Source": "ALA"
    },
    {
        "Title": "A Farewell to Arms",
        "Author": "Ernest Hemingway",
        "Source": "Rad"
    },
    {
        "Title": "Final Exit",
        "Author": "Derek Humphry",
        "Source": "ALA"
    },
    {
        "Title": "Flowers for Algernon",
        "Author": "Daniel Keyes",
        "Source": "ALA"
    },
    {
        "Title": "For Whom the Bell Tolls",
        "Author": "Ernest Hemingway",
        "Source": "Rad"
    },
    {
        "Title": "Forever",
        "Author": "Judy Blume",
        "Source": "ALA"
    },
    {
        "Title": "Girls and Sex",
        "Author": "Wardell Pomeroy",
        "Source": "ALA"
    },
    {
        "Title": "The Giver",
        "Author": "Lois Lowry",
        "Source": "ALA [014]"
    },
    {
        "Title": "Go Ask Alice",
        "Author": "Anonymous",
        "Source": "ALA"
    },
    {
        "Title": "Go Tell It on the Mountain",
        "Author": "James Baldwin",
        "Source": "Rad"
    },
    {
        "Title": "The Goats",
        "Author": "Brock Cole",
        "Source": "ALA"
    },
    {
        "Title": "Gone with the Wind",
        "Author": "Margaret Mitchell",
        "Source": "Rad"
    },
    {
        "Title": "Goosebumps (series)",
        "Author": "R. L. Stine",
        "Source": "ALA"
    },
    {
        "Title": "The Grapes of Wrath",
        "Author": "John Steinbeck",
        "Source": "Rad"
    },
    {
        "Title": "The Great Gatsby",
        "Author": "F. Scott Fitzgerald",
        "Source": "Rad"
    },
    {
        "Title": "The Great Gilly Hopkins",
        "Author": "Katherine Paterson",
        "Source": "ALA"
    },
    {
        "Title": "Guess What?",
        "Author": "Mem Fox",
        "Source": "ALA"
    },
    {
        "Title": "Halloween ABC",
        "Author": "Eve Merriam",
        "Source": "ALA"
    },
    {
        "Title": "The Handmaid's Tale",
        "Author": "Margaret Atwood",
        "Source": "ALA"
    },
    {
        "Title": "Harry Potter (series)",
        "Author": "J. K. Rowling",
        "Source": "ALA"
    },
    {
        "Title": "Heart of Darkness",
        "Author": "Joseph Conrad",
        "Source": "Rad"
    },
    {
        "Title": "Heather Has Two Mommies",
        "Author": "Lesl?a Newman",
        "Source": "ALA"
    },
    {
        "Title": "The House of the Spirits",
        "Author": "Isabel Allende",
        "Source": "ALA"
    },
    {
        "Title": "How to Eat Fried Worms",
        "Author": "Thomas Rockwell",
        "Source": "ALA"
    },
    {
        "Title": "I Know Why the Caged Bird Sings",
        "Author": "Maya Angelou",
        "Source": "ALA"
    },
    {
        "Title": "In Cold Blood",
        "Author": "Truman Capote",
        "Source": "Rad"
    },
    {
        "Title": "In the Night Kitchen",
        "Author": "Maurice Sendak",
        "Source": "ALA"
    },
    {
        "Title": "Invisible Man",
        "Author": "Ralph Ellison",
        "Source": "Rad"
    },
    {
        "Title": "It's Perfectly Normal",
        "Author": "Robie Harris",
        "Source": "ALA"
    },
    {
        "Title": "It's So Amazing",
        "Author": "Robie Harris",
        "Source": "ALA"
    },
    {
        "Title": "Jack",
        "Author": "A. M. Homes",
        "Source": "ALA"
    },
    {
        "Title": "James and the Giant Peach",
        "Author": "Roald Dahl",
        "Source": "ALA"
    },
    {
        "Title": "Jay's Journal",
        "Author": "Anonymous",
        "Source": "ALA"
    },
    {
        "Title": "Julie of the Wolves",
        "Author": "Jean Craighead George",
        "Source": "ALA"
    },
    {
        "Title": "Jump Ship to Freedom",
        "Author": "James Lincoln Collier and Christopher Collier",
        "Source": "ALA"
    },
    {
        "Title": "Jumper",
        "Author": "Steven Gould",
        "Source": "ALA"
    },
    {
        "Title": "The Jungle",
        "Author": "Upton Sinclair",
        "Source": "Rad"
    },
    {
        "Title": "Kaffir Boy",
        "Author": "Mark Mathabane",
        "Source": "ALA"
    },
    {
        "Title": "Killing Mr. Griffin",
        "Author": "Lois Duncan",
        "Source": "ALA"
    },
    {
        "Title": "Lady Chatterley's Lover",
        "Author": "D. H. Lawrence",
        "Source": "Rad"
    },
    {
        "Title": "A Light in the Attic",
        "Author": "Shel Silverstein",
        "Source": "ALA"
    },
    {
        "Title": "Little Black Sambo",
        "Author": "Helen Bannerman",
        "Source": "ALA"
    },
    {
        "Title": "Lolita",
        "Author": "Vladimir Nabokov",
        "Source": "Rad"
    },
    {
        "Title": "Lord of the Flies",
        "Author": "William Golding",
        "Source": "ALA/ Rad"
    },
    {
        "Title": "Mommy Laid An Egg",
        "Author": "Babette Cole",
        "Source": "ALA"
    },
    {
        "Title": "My Brother Sam Is Dead",
        "Author": "James Lincoln Collier and Christopher Collier",
        "Source": "ALA"
    },
    {
        "Title": "The Naked and the Dead",
        "Author": "Norman Mailer",
        "Source": "Rad"
    },
    {
        "Title": "Naked Lunch",
        "Author": "William S. Burroughs",
        "Source": "Rad"
    },
    {
        "Title": "Native Son",
        "Author": "Richard Wright",
        "Source": "ALA /Rad"
    },
    {
        "Title": "The New Joy of Gay Sex",
        "Author": "Charles Silverstein and Felice Picano",
        "Source": "ALA"
    },
    {
        "Title": "Nineteen Eighty-four (1984)",
        "Author": "George Orwell",
        "Source": "Rad"
    },
    {
        "Title": "Of Mice and Men",
        "Author": "John Steinbeck",
        "Source": "ALA /Rad"
    },
    {
        "Title": "On My Honor",
        "Author": "Marion Dane Bauer",
        "Source": "ALA"
    },
    {
        "Title": "One Flew Over the Cuckoo's Nest",
        "Author": "Ken Kesey",
        "Source": "Rad"
    },
    {
        "Title": "Ordinary People",
        "Author": "Judith Guest",
        "Source": "ALA"
    },
    {
        "Title": "The Outsiders",
        "Author": "S. E. Hinton",
        "Source": "ALA"
    },
    {
        "Title": "The Perks of Being a Wallflower",
        "Author": "Stephen Chbosky",
        "Source": "ALA"
    },
    {
        "Title": "The Pillars of the Earth",
        "Author": "Ken Follett",
        "Source": "ALA"
    },
    {
        "Title": "The Pigman",
        "Author": "Paul Zindel",
        "Source": "ALA"
    },
    {
        "Title": "Private Parts",
        "Author": "Howard Stern",
        "Source": "ALA"
    },
    {
        "Title": "Rabbit, Run",
        "Author": "John Updike",
        "Source": "Rad"
    },
    {
        "Title": "The Rabbit's Wedding",
        "Author": "Garth Williams",
        "Source": "ALA"
    },
    {
        "Title": "Rainbow Boys",
        "Author": "Alex Sanchez",
        "Source": "ALA"
    },
    {
        "Title": "Running Loose",
        "Author": "Chris Crutcher",
        "Source": "ALA"
    },
    {
        "Title": "The Satanic Verses",
        "Author": "Salman Rushdie",
        "Source": "Rad"
    },
    {
        "Title": "Scary Stories (series)",
        "Author": "Alvin Schwartz",
        "Source": "ALA"
    },
    {
        "Title": "A Separate Peace",
        "Author": "John Knowles",
        "Source": "Rad"
    },
    {
        "Title": "Sex",
        "Author": "Madonna",
        "Source": "ALA"
    },
    {
        "Title": "Sex Education",
        "Author": "Jenny Davis",
        "Source": "ALA"
    },
    {
        "Title": "Slaughterhouse-Five",
        "Author": "Kurt Vonnegut",
        "Source": "ALA [069] /Rad"
    },
    {
        "Title": "The Sledding Hill",
        "Author": "Chris Crutcher",
        "Source": "ALA"
    },
    {
        "Title": "Sleeping Beauty Trilogy",
        "Author": "A. N. Roquelaure (Anne Rice)",
        "Source": "ALA"
    },
    {
        "Title": "Song of Solomon (novel)",
        "Author": "Toni Morrison",
        "Source": "ALA /Rad"
    },
    {
        "Title": "Sons and Lovers",
        "Author": "D. H. Lawrence",
        "Source": "Rad"
    },
    {
        "Title": "The Stupids (series)",
        "Author": "Harry Allard",
        "Source": "ALA"
    },
    {
        "Title": "Summer of My German Soldier",
        "Author": "Bette Greene",
        "Source": "ALA"
    },
    {
        "Title": "The Sun Also Rises",
        "Author": "Ernest Hemingway",
        "Source": "Rad"
    },
    {
        "Title": "That Was Then, This Is Now",
        "Author": "S. E. Hinton",
        "Source": "ALA"
    },
    {
        "Title": "Their Eyes Were Watching God",
        "Author": "Zora Neale Hurston",
        "Source": "Rad"
    },
    {
        "Title": "Tiger Eyes",
        "Author": "Judy Blume",
        "Source": "ALA"
    },
    {
        "Title": "To Kill a Mockingbird",
        "Author": "Harper Lee",
        "Source": "ALA [041] /Rad"
    },
    {
        "Title": "Tropic of Cancer",
        "Author": "Henry Miller",
        "Source": "Rad"
    },
    {
        "Title": "Ulysses",
        "Author": "James Joyce",
        "Source": "Rad"
    },
    {
        "Title": "View from the Cherry Tree",
        "Author": "Willo Davis Roberts",
        "Source": "ALA"
    },
    {
        "Title": "We All Fall Down",
        "Author": "Robert Cormier",
        "Source": "ALA"
    },
    {
        "Title": "Whale Talk",
        "Author": "Chris Crutcher",
        "Source": "ALA"
    },
    {
        "Title": "What My Mother Doesn't Know",
        "Author": "Sonya Sones",
        "Source": "ALA"
    },
    {
        "Title": "What's Happening to My Body? Book for Boys: A Growing-Up Guide for Parents & Sons",
        "Author": "Lynda Madaras",
        "Source": "ALA"
    },
    {
        "Title": "What's Happening to My Body? Book for Girls: A Growing-Up Guide for Parents & Daughters",
        "Author": "Lynda Madaras",
        "Source": "ALA"
    },
    {
        "Title": "Where Did I Come From?",
        "Author": "Peter Mayle",
        "Source": "ALA"
    },
    {
        "Title": "The Wish Giver",
        "Author": "Bill Brittain",
        "Source": "ALA"
    },
    {
        "Title": "The Witches",
        "Author": "Roald Dahl",
        "Source": "ALA"
    },
    {
        "Title": "Women in Love",
        "Author": "D. H. Lawrence",
        "Source": "Rad"
    },
    {
        "Title": "Women on Top: How Real Life Has Changed Women?s Sexual Fantasies",
        "Author": "Nancy Friday",
        "Source": "ALA"
    },
    {
        "Title": "A Wrinkle in Time",
        "Author": "Madeleine L'Engle",
        "Source": "ALA"
    }
]