[
    {
        "Company": "Fort Detrick Campus (Army, National Cancer Institute and other tenants",
        "Industry": "Army, National Cancer Institute and tenants",
        "Employees": "9,200"
    },
    {
        "Company": "Frederick County Board of Education",
        "Industry": "Public Education",
        "Employees": "5,540"
    },
    {
        "Company": "Frederick Memorial Healthcare System",
        "Industry": "Comprehensive Health Care",
        "Employees": "2,295"
    },
    {
        "Company": "Bechtel Corporation",
        "Industry": "Headquarters - Global Engineering, Construction and Telecommunications",
        "Employees": "2,203"
    },
    {
        "Company": "Frederick County Government",
        "Industry": "County Government",
        "Employees": "2,130"
    },
    {
        "Company": "SAIC-Frederick",
        "Industry": "Medical Research",
        "Employees": "1,965"
    },
    {
        "Company": "Wells Fargo Home Mortgage",
        "Industry": "Mortgage Loans & Service Center",
        "Employees": "1,500"
    },
    {
        "Company": "Frederick Community College",
        "Industry": "Two-Year College",
        "Employees": "899"
    },
    {
        "Company": "Frederick City Government",
        "Industry": "Municipal Government",
        "Employees": "852"
    },
    {
        "Company": "United Health Care",
        "Industry": "Insurance",
        "Employees": "832"
    },
    {
        "Company": "State Farm Insurance Co.",
        "Industry": "Regional Headquarters",
        "Employees": "793"
    },
    {
        "Company": "Wal-Mart",
        "Industry": "Consumer Goods",
        "Employees": "700"
    },
    {
        "Company": "National Emergency Training Center (US Fire Academy, FEMA, and other tenants",
        "Industry": "Federal Government",
        "Employees": "577"
    },
    {
        "Company": "Wegman's",
        "Industry": "Grocery Store",
        "Employees": "550"
    },
    {
        "Company": "Mount Saint Mary's University",
        "Industry": "Four-Year College",
        "Employees": "511"
    },
    {
        "Company": "Home Call",
        "Industry": "In-Home Medical Services",
        "Employees": "480"
    },
    {
        "Company": "NVR Building Products",
        "Industry": "Wood Building Products",
        "Employees": "450"
    },
    {
        "Company": "Lonza Bio Science Walkersville, Inc",
        "Industry": "Biological Products",
        "Employees": "400"
    },
    {
        "Company": "Hood College",
        "Industry": "Four Year College",
        "Employees": "418"
    },
    {
        "Company": "Plamondon Companies",
        "Industry": "Hospitality (Hotels, Restaurants & Restaurant Management)",
        "Employees": "396"
    },
    {
        "Company": "RR Donnelley",
        "Industry": "Business Documents",
        "Employees": "387"
    },
    {
        "Company": "Stulz Air Technology Systems, Inc.",
        "Industry": "Manufacturer, Commercial Air Conditioners and Dehumidifiers",
        "Employees": "380"
    },
    {
        "Company": "Frederick County Family YMCA",
        "Industry": "Recreation and Sports Center",
        "Employees": "350"
    },
    {
        "Company": "Home Depot",
        "Industry": "Retail Stores",
        "Employees": "330"
    },
    {
        "Company": "Homewood Retirement Center",
        "Industry": "Retirement Community",
        "Employees": "275"
    },
    {
        "Company": "Richard F. Kline",
        "Industry": "Asphalt Contractors",
        "Employees": "275"
    },
    {
        "Company": "Experient",
        "Industry": "Conference Services",
        "Employees": "270"
    },
    {
        "Company": "Canam Steel Corporation",
        "Industry": "Steel Joists and Trusses",
        "Employees": "266"
    },
    {
        "Company": "Maryland School for the Deaf",
        "Industry": "Educational Institution",
        "Employees": "266"
    },
    {
        "Company": "Trans-Tech",
        "Industry": "Ceramic Components",
        "Employees": "260"
    },
    {
        "Company": "Toys-R-Us",
        "Industry": "Toy Distribution Warehouse & Retail Store",
        "Employees": "260"
    },
    {
        "Company": "Fountain Rock Management Group Corp",
        "Industry": "Restaurant Management Services",
        "Employees": "250"
    },
    {
        "Company": "Fannie Mae",
        "Industry": "Home Loan Products - Data Center",
        "Employees": "250"
    },
    {
        "Company": "Life Technologies",
        "Industry": "Biotech Research",
        "Employees": "250"
    },
    {
        "Company": "MedImmune",
        "Industry": "BioTech Manufacturing",
        "Employees": "246"
    },
    {
        "Company": "Tyler Companies",
        "Industry": "Real Estate, HVAC and Mechanical Contracting Services",
        "Employees": "245"
    },
    {
        "Company": "BB&T",
        "Industry": "Full Service Community Bank",
        "Employees": "242"
    },
    {
        "Company": "Costco Wholesale",
        "Industry": "Wholesale General Products",
        "Employees": "232"
    },
    {
        "Company": "Verizon",
        "Industry": "Telecommunications",
        "Employees": "226"
    },
    {
        "Company": "PNC Bank",
        "Industry": "Banking Headquarters & Regional Branches",
        "Employees": "226"
    },
    {
        "Company": "Tamko Roofing Products",
        "Industry": "Asphalt Shingle & Coating Materials Mfg",
        "Employees": "213"
    }
]