[
    {
        "Rank": "1",
        "Title": "2001: A Space Odyssey",
        "Year": "1968",
        "Director(s)": "Stanley Kubrick",
        "Overall Rank": "4"
    },
    {
        "Rank": "2",
        "Title": "The Wizard of Oz",
        "Year": "1939",
        "Director(s)": "Victor Fleming",
        "Overall Rank": "5"
    },
    {
        "Rank": "3",
        "Title": "Star Wars",
        "Year": "1977",
        "Director(s)": "George Lucas",
        "Overall Rank": "8"
    },
    {
        "Rank": "4",
        "Title": "Lawrence of Arabia",
        "Year": "1962",
        "Director(s)": "David Lean",
        "Overall Rank": "9"
    },
    {
        "Rank": "5",
        "Title": "E.T. the Extra-Terrestrial",
        "Year": "1982",
        "Director(s)": "Steven Spielberg",
        "Overall Rank": "23"
    },
    {
        "Rank": "6",
        "Title": "The Searchers",
        "Year": "1956",
        "Director(s)": "John Ford",
        "Overall Rank": "28"
    },
    {
        "Rank": "7",
        "Title": "Raiders of the Lost Ark",
        "Year": "1981",
        "Director(s)": "Steven Spielberg",
        "Overall Rank": "29"
    },
    {
        "Rank": "8",
        "Title": "North by Northwest",
        "Year": "1959",
        "Director(s)": "Alfred Hitchcock",
        "Overall Rank": "31"
    },
    {
        "Rank": "9",
        "Title": "The Seven Samurai",
        "Year": "1954",
        "Director(s)": "Akira Kurosawa",
        "Overall Rank": "32"
    },
    {
        "Rank": "10",
        "Title": "The Matrix",
        "Year": "1999",
        "Director(s)": "Andy and Larry Wachowski",
        "Overall Rank": "42"
    },
    {
        "Rank": "11",
        "Title": "The Empire Strikes Back",
        "Year": "1980",
        "Director(s)": "Irvin Kershner",
        "Overall Rank": "43"
    },
    {
        "Rank": "12",
        "Title": "King Kong",
        "Year": "1933",
        "Director(s)": "Merian C. Cooper and Ernest B. Schoedsack",
        "Overall Rank": "47"
    },
    {
        "Rank": "13",
        "Title": "The Bridge on the River Kwai",
        "Year": "1957",
        "Director(s)": "David Lean",
        "Overall Rank": "57"
    },
    {
        "Rank": "14",
        "Title": "The Lord of the Rings: The Fellowship of the Ring",
        "Year": "2001",
        "Director(s)": "Peter Jackson",
        "Overall Rank": "60"
    },
    {
        "Rank": "15",
        "Title": "Titanic",
        "Year": "1997",
        "Director(s)": "James Cameron",
        "Overall Rank": "63"
    },
    {
        "Rank": "16",
        "Title": "Toy Story",
        "Year": "1995",
        "Director(s)": "John Lasseter",
        "Overall Rank": "64"
    },
    {
        "Rank": "17",
        "Title": "Back to the Future",
        "Year": "1985",
        "Director(s)": "Robert Zemeckis",
        "Overall Rank": "91"
    },
    {
        "Rank": "18",
        "Title": "The Treasure of the Sierra Madre",
        "Year": "1948",
        "Director(s)": "John Huston",
        "Overall Rank": "92"
    },
    {
        "Rank": "19",
        "Title": "The Lord of the Rings: The Return of the King",
        "Year": "2003",
        "Director(s)": "Peter Jackson",
        "Overall Rank": "96"
    },
    {
        "Rank": "20",
        "Title": "The Gold Rush",
        "Year": "1925",
        "Director(s)": "Charles Chaplin",
        "Overall Rank": "97"
    },
    {
        "Rank": "21",
        "Title": "Gladiator",
        "Year": "2000",
        "Director(s)": "Ridley Scott",
        "Overall Rank": "113"
    },
    {
        "Rank": "22",
        "Title": "Butch Cassidy and the Sundance Kid",
        "Year": "1969",
        "Director(s)": "George Roy Hill",
        "Overall Rank": "114"
    },
    {
        "Rank": "23",
        "Title": "The African Queen",
        "Year": "1951",
        "Director(s)": "John Huston",
        "Overall Rank": "120"
    },
    {
        "Rank": "24",
        "Title": "The Lord of the Rings: The Two Towers",
        "Year": "2002",
        "Director(s)": "Peter Jackson",
        "Overall Rank": "123"
    },
    {
        "Rank": "25",
        "Title": "Sullivan's Travels",
        "Year": "1941",
        "Director(s)": "Preston Sturges",
        "Overall Rank": "125"
    },
    {
        "Rank": "26",
        "Title": "The Princess Bride",
        "Year": "1987",
        "Director(s)": "Rob Reiner",
        "Overall Rank": "132"
    },
    {
        "Rank": "27",
        "Title": "Monty Python and the Holy Grail",
        "Year": "1975",
        "Director(s)": "Terry Gilliam and Terry Jones",
        "Overall Rank": "133"
    },
    {
        "Rank": "28",
        "Title": "Ben-Hur",
        "Year": "1959",
        "Director(s)": "William Wyler",
        "Overall Rank": "140"
    },
    {
        "Rank": "29",
        "Title": "Jurassic Park",
        "Year": "1993",
        "Director(s)": "Steven Spielberg",
        "Overall Rank": "149"
    },
    {
        "Rank": "30",
        "Title": "The Adventures of Robin Hood",
        "Year": "1938",
        "Director(s)": "Michael Curtiz and William Keighley",
        "Overall Rank": "153"
    },
    {
        "Rank": "31",
        "Title": "Crouching Tiger, Hidden Dragon",
        "Year": "2000",
        "Director(s)": "Ang Lee",
        "Overall Rank": "165"
    },
    {
        "Rank": "32",
        "Title": "The Great Escape",
        "Year": "1963",
        "Director(s)": "John Sturges",
        "Overall Rank": "166"
    },
    {
        "Rank": "33",
        "Title": "Spirited Away",
        "Year": "2001",
        "Director(s)": "Hayao Miyazaki",
        "Overall Rank": "174"
    },
    {
        "Rank": "34",
        "Title": "Return of the Jedi",
        "Year": "1983",
        "Director(s)": "Richard Marquand",
        "Overall Rank": "178"
    },
    {
        "Rank": "35",
        "Title": "Goldfinger",
        "Year": "1964",
        "Director(s)": "Guy Hamilton",
        "Overall Rank": "186"
    },
    {
        "Rank": "36",
        "Title": "Aguirre: The Wrath of God",
        "Year": "1972",
        "Director(s)": "Werner Herzog",
        "Overall Rank": "188"
    },
    {
        "Rank": "37",
        "Title": "Spartacus",
        "Year": "1960",
        "Director(s)": "Stanley Kubrick",
        "Overall Rank": "211"
    },
    {
        "Rank": "38",
        "Title": "Dances with Wolves",
        "Year": "1990",
        "Director(s)": "Kevin Costner",
        "Overall Rank": "213"
    },
    {
        "Rank": "39",
        "Title": "Pinocchio",
        "Year": "1940",
        "Director(s)": "Hamilton Luske and Ben Sharpsteen",
        "Overall Rank": "217"
    },
    {
        "Rank": "40",
        "Title": "Red River",
        "Year": "1948",
        "Director(s)": "Howard Hawks",
        "Overall Rank": "234"
    },
    {
        "Rank": "41",
        "Title": "Planet of the Apes",
        "Year": "1968",
        "Director(s)": "Franklin J. Schaffner",
        "Overall Rank": "240"
    },
    {
        "Rank": "42",
        "Title": "Toy Story 2",
        "Year": "1999",
        "Director(s)": "John Lasseter",
        "Overall Rank": "268"
    },
    {
        "Rank": "43",
        "Title": "The Lion King",
        "Year": "1994",
        "Director(s)": "Roger Allers and Rob Minkoff",
        "Overall Rank": "270"
    },
    {
        "Rank": "44",
        "Title": "Superman",
        "Year": "1978",
        "Director(s)": "Richard Donner",
        "Overall Rank": "272"
    },
    {
        "Rank": "45",
        "Title": "Shrek",
        "Year": "2001",
        "Director(s)": "Andrew Adamson and Vicky Jenson",
        "Overall Rank": "284"
    },
    {
        "Rank": "46",
        "Title": "The Road Warrior",
        "Year": "1981",
        "Director(s)": "George Miller",
        "Overall Rank": "306"
    },
    {
        "Rank": "47",
        "Title": "Ghostbusters",
        "Year": "1984",
        "Director(s)": "Ivan Reitman",
        "Overall Rank": "314"
    },
    {
        "Rank": "48",
        "Title": "Stand by Me",
        "Year": "1986",
        "Director(s)": "Rob Reiner",
        "Overall Rank": "315"
    },
    {
        "Rank": "49",
        "Title": "The Magnificent Seven",
        "Year": "1960",
        "Director(s)": "John Sturges",
        "Overall Rank": "318"
    },
    {
        "Rank": "50",
        "Title": "Deliverance",
        "Year": "1972",
        "Director(s)": "John Boorman",
        "Overall Rank": "326"
    },
    {
        "Rank": "51",
        "Title": "The Right Stuff",
        "Year": "1983",
        "Director(s)": "Philip Kaufman",
        "Overall Rank": "371"
    },
    {
        "Rank": "52",
        "Title": "Babe",
        "Year": "1995",
        "Director(s)": "Chris Noonan",
        "Overall Rank": "372"
    },
    {
        "Rank": "53",
        "Title": "Finding Nemo",
        "Year": "2003",
        "Director(s)": "Andrew Stanton",
        "Overall Rank": "374"
    },
    {
        "Rank": "54",
        "Title": "Solaris",
        "Year": "1972",
        "Director(s)": "Andrei Tarkovsky",
        "Overall Rank": "377"
    },
    {
        "Rank": "55",
        "Title": "Pirates of the Caribbean: The Curse of the Black Pearl",
        "Year": "2003",
        "Director(s)": "Gore Verbinski",
        "Overall Rank": "379"
    },
    {
        "Rank": "56",
        "Title": "To Have and Have Not",
        "Year": "1944",
        "Director(s)": "Howard Hawks",
        "Overall Rank": "383"
    },
    {
        "Rank": "57",
        "Title": "The Incredibles",
        "Year": "2004",
        "Director(s)": "Brad Bird",
        "Overall Rank": "385"
    },
    {
        "Rank": "58",
        "Title": "Austin Powers: International Man of Mystery",
        "Year": "1997",
        "Director(s)": "Jay Roach",
        "Overall Rank": "401"
    },
    {
        "Rank": "59",
        "Title": "The Ten Commandments",
        "Year": "1956",
        "Director(s)": "Cecil B. DeMille",
        "Overall Rank": "403"
    },
    {
        "Rank": "60",
        "Title": "Independence Day",
        "Year": "1996",
        "Director(s)": "Roland Emmerich",
        "Overall Rank": "431"
    },
    {
        "Rank": "61",
        "Title": "Tom Jones",
        "Year": "1963",
        "Director(s)": "Tony Richardson",
        "Overall Rank": "435"
    },
    {
        "Rank": "62",
        "Title": "Starship Troopers",
        "Year": "1997",
        "Director(s)": "Paul Verhoeven",
        "Overall Rank": "441"
    },
    {
        "Rank": "63",
        "Title": "Mutiny on the Bounty",
        "Year": "1935",
        "Director(s)": "Frank Lloyd",
        "Overall Rank": "447"
    },
    {
        "Rank": "64",
        "Title": "The Jungle Book",
        "Year": "1967",
        "Director(s)": "Wolfgang Reitherman",
        "Overall Rank": "449"
    },
    {
        "Rank": "65",
        "Title": "Indiana Jones and the Last Crusade",
        "Year": "1989",
        "Director(s)": "Steven Spielberg",
        "Overall Rank": "450"
    },
    {
        "Rank": "66",
        "Title": "The Iron Giant",
        "Year": "1999",
        "Director(s)": "Brad Bird",
        "Overall Rank": "463"
    },
    {
        "Rank": "67",
        "Title": "The Last of the Mohicans",
        "Year": "1992",
        "Director(s)": "Michael Mann",
        "Overall Rank": "468"
    },
    {
        "Rank": "68",
        "Title": "Apollo 13",
        "Year": "1995",
        "Director(s)": "Ron Howard",
        "Overall Rank": "485"
    },
    {
        "Rank": "69",
        "Title": "Zulu",
        "Year": "1964",
        "Director(s)": "Cy Endfield",
        "Overall Rank": "491"
    },
    {
        "Rank": "70",
        "Title": "The Fugitive",
        "Year": "1993",
        "Director(s)": "Andrew Davis",
        "Overall Rank": "496"
    },
    {
        "Rank": "71",
        "Title": "Out of Africa",
        "Year": "1985",
        "Director(s)": "Sydney Pollack",
        "Overall Rank": "498"
    },
    {
        "Rank": "72",
        "Title": "Spider-Man",
        "Year": "2002",
        "Director(s)": "Sam Raimi",
        "Overall Rank": "501"
    },
    {
        "Rank": "73",
        "Title": "Star Trek: The Wrath of Khan",
        "Year": "1982",
        "Director(s)": "Nicholas Meyer",
        "Overall Rank": "507"
    },
    {
        "Rank": "74",
        "Title": "Stalker",
        "Year": "1979",
        "Director(s)": "Andrei Tarkovsky",
        "Overall Rank": "509"
    },
    {
        "Rank": "75",
        "Title": "Voyage to the Moon",
        "Year": "1902",
        "Director(s)": "Georges M?li?s",
        "Overall Rank": "517"
    },
    {
        "Rank": "76",
        "Title": "Dr. No",
        "Year": "1962",
        "Director(s)": "Terence Young",
        "Overall Rank": "524"
    },
    {
        "Rank": "77",
        "Title": "Raising Arizona",
        "Year": "1987",
        "Director(s)": "Joel Coen",
        "Overall Rank": "528"
    },
    {
        "Rank": "78",
        "Title": "Princess Mononoke",
        "Year": "1997",
        "Director(s)": "Hayao Miyazaki",
        "Overall Rank": "537"
    },
    {
        "Rank": "79",
        "Title": "Fitzcarraldo",
        "Year": "1982",
        "Director(s)": "Werner Herzog",
        "Overall Rank": "541"
    },
    {
        "Rank": "80",
        "Title": "My Neighbor Totoro",
        "Year": "1988",
        "Director(s)": "Hayao Miyazaki",
        "Overall Rank": "554"
    },
    {
        "Rank": "81",
        "Title": "Men in Black",
        "Year": "1997",
        "Director(s)": "Barry Sonnenfeld",
        "Overall Rank": "562"
    },
    {
        "Rank": "82",
        "Title": "Seven Brides for Seven Brothers",
        "Year": "1954",
        "Director(s)": "Stanley Donen",
        "Overall Rank": "580"
    },
    {
        "Rank": "83",
        "Title": "A.I.: Artificial Intelligence",
        "Year": "2001",
        "Director(s)": "Steven Spielberg",
        "Overall Rank": "584"
    },
    {
        "Rank": "84",
        "Title": "Gallipoli",
        "Year": "1981",
        "Director(s)": "Peter Weir",
        "Overall Rank": "598"
    },
    {
        "Rank": "85",
        "Title": "Mad Max",
        "Year": "1979",
        "Director(s)": "George Miller",
        "Overall Rank": "606"
    },
    {
        "Rank": "86",
        "Title": "Monsters, Inc.",
        "Year": "2001",
        "Director(s)": "Pete Docter",
        "Overall Rank": "607"
    },
    {
        "Rank": "87",
        "Title": "Children of Men",
        "Year": "2006",
        "Director(s)": "Alfonso Cuar?n",
        "Overall Rank": "609"
    },
    {
        "Rank": "88",
        "Title": "Gunga Din",
        "Year": "1939",
        "Director(s)": "George Stevens",
        "Overall Rank": "623"
    },
    {
        "Rank": "89",
        "Title": "The Outlaw Josey Wales",
        "Year": "1976",
        "Director(s)": "Clint Eastwood",
        "Overall Rank": "645"
    },
    {
        "Rank": "90",
        "Title": "WALL?E",
        "Year": "2008",
        "Director(s)": "Andrew Stanton",
        "Overall Rank": "650"
    },
    {
        "Rank": "91",
        "Title": "The Abyss",
        "Year": "1989",
        "Director(s)": "James Cameron",
        "Overall Rank": "661"
    },
    {
        "Rank": "92",
        "Title": "Three Kings",
        "Year": "1999",
        "Director(s)": "David O. Russell",
        "Overall Rank": "663"
    },
    {
        "Rank": "93",
        "Title": "The Man Who Would be King",
        "Year": "1975",
        "Director(s)": "John Huston",
        "Overall Rank": "665"
    },
    {
        "Rank": "94",
        "Title": "Indiana Jones and the Temple of Doom",
        "Year": "1984",
        "Director(s)": "Steven Spielberg",
        "Overall Rank": "676"
    },
    {
        "Rank": "95",
        "Title": "Harry Potter and the Sorcerer's Stone",
        "Year": "2001",
        "Director(s)": "Chris Columbus",
        "Overall Rank": "692"
    },
    {
        "Rank": "96",
        "Title": "The Thief of Bagdad",
        "Year": "1924",
        "Director(s)": "Raoul Walsh",
        "Overall Rank": "694"
    },
    {
        "Rank": "97",
        "Title": "Tron",
        "Year": "1982",
        "Director(s)": "Steven Lisberger",
        "Overall Rank": "703"
    },
    {
        "Rank": "98",
        "Title": "The Thief of Bagdad",
        "Year": "1940",
        "Director(s)": "Ludwig Berger, Michael Powell, and Tim Whelan",
        "Overall Rank": "709"
    },
    {
        "Rank": "99",
        "Title": "Jason and the Argonauts",
        "Year": "1963",
        "Director(s)": "Don Chaffey",
        "Overall Rank": "715"
    },
    {
        "Rank": "100",
        "Title": "From Russia with Love",
        "Year": "1963",
        "Director(s)": "Terence Young",
        "Overall Rank": "720"
    }
]