[
    {
        "Vespasian": "Titus",
        "69-79": "79-81",
        "Titus Flavius Vespasianus": "Titus Flavius Sabinus Vespasianus",
        "col 4": "son of Vespasian",
        "Domitia": ""
    },
    {
        "Vespasian": "Domitian",
        "69-79": "81-96",
        "Titus Flavius Vespasianus": "Titus Flavius Domitianus",
        "col 4": "son of Vespasian",
        "Domitia": ""
    },
    {
        "Vespasian": "Nerva",
        "69-79": "96-8",
        "Titus Flavius Vespasianus": "Marcus Cocceius Nerva",
        "col 4": "",
        "Domitia": ""
    },
    {
        "Vespasian": "Trajan",
        "69-79": "98-117",
        "Titus Flavius Vespasianus": "Marcus Ulpius Trajanus",
        "col 4": "",
        "Domitia": ""
    },
    {
        "Vespasian": "Hadrian",
        "69-79": "117-8",
        "Titus Flavius Vespasianus": "Publius Aelius Hadrianus",
        "col 4": "Kinsman of Trajan",
        "Domitia": ""
    }
]