[
    {
        "Adam av Bremen": "Hildegard fra Bingen",
        "1040?85": "1098?1179",
        "Historieskriver": "Abbedisse, klostergrunnlegger, visjon?r-profetisk forfatter, komponist, urtemedisiner og naturforsker"
    },
    {
        "Adam av Bremen": "Johannes Regiomontanus",
        "1040?85": "1436?76",
        "Historieskriver": "Astronom og matematiker"
    },
    {
        "Adam av Bremen": "Albrecht D?rer",
        "1040?85": "1471?1528",
        "Historieskriver": "Maler, tegner, kobberstikker, tresnittkunstner; det st?rste navn i tysk kunsthistorie"
    },
    {
        "Adam av Bremen": "Martin Luther",
        "1040?85": "1483?1546",
        "Historieskriver": "Prest; opphavsmann til reformasjonen, reformerte ogs? det h?ytyske skriftspr?ket gjennom Bibel-oversettelsen"
    },
    {
        "Adam av Bremen": "Thomas M?nzer",
        "1040?85": "f?r 1491?1525",
        "Historieskriver": "Prest og oppr?rer; en av lederne under bondekrigen"
    },
    {
        "Adam av Bremen": "Hans Sachs",
        "1040?85": "1494?1576",
        "Historieskriver": "Skomaker og dikter; en av mestersangerne fra N?rnberg, ud?deliggjort i Richard Wagners opera"
    },
    {
        "Adam av Bremen": "Hans Holbein d.y.",
        "1040?85": "1497?1543",
        "Historieskriver": "Maler, tegner og grafiker"
    },
    {
        "Adam av Bremen": "Johannes Kepler",
        "1040?85": "1571?1630",
        "Historieskriver": "Astronom og matematiker; fant lovene for planetenes bevegelser"
    },
    {
        "Adam av Bremen": "Gottfried Wilhelm Leibniz",
        "1040?85": "1646?1716",
        "Historieskriver": "Filosof og matematiker; ledende rasjonalist"
    },
    {
        "Adam av Bremen": "Johann Sebastian Bach",
        "1040?85": "1685?1750",
        "Historieskriver": "Komponist; barokkmusikkens store hovedfigur"
    },
    {
        "Adam av Bremen": "Georg Friedrich H?ndel",
        "1040?85": "1685?1759",
        "Historieskriver": "Komponist; skrev bl.a. Water Music (ca. 1717)"
    },
    {
        "Adam av Bremen": "Immanuel Kant",
        "1040?85": "1724?1804",
        "Historieskriver": "Filosof; en av filosofiens mast ruvende skikkelser"
    },
    {
        "Adam av Bremen": "Johann Gottfried von Herder",
        "1040?85": "1744?1803",
        "Historieskriver": "Filosof og forfatter; ?vde stor innflytelse p? tysk kultur"
    },
    {
        "Adam av Bremen": "Johann Wolfgang van Goethe",
        "1040?85": "1749?1832",
        "Historieskriver": "Forfatter og naturvitenskapsmann; ansett som tysk litteraturs st?rste dikter"
    },
    {
        "Adam av Bremen": "Friedrich von Schiller",
        "1040?85": "1759?1805",
        "Historieskriver": "Forfatter; skrev dramaer og dikt"
    },
    {
        "Adam av Bremen": "Wilhelm von Humboldt",
        "1040?85": "1767?1835",
        "Historieskriver": "Filosof, spr?kforsker og politiker"
    },
    {
        "Adam av Bremen": "Alexander von Humboldt",
        "1040?85": "1769?1859",
        "Historieskriver": "Naturvitenskapsmann: kjent geograf og geolog"
    },
    {
        "Adam av Bremen": "Ludwig van Beethoven",
        "1040?85": "1770?1827",
        "Historieskriver": "Komponist; et av de st?rste navn i musikkhistorien"
    },
    {
        "Adam av Bremen": "Georg Wilhelm Friedrich Hegel",
        "1040?85": "1770?1831",
        "Historieskriver": "Filosof; ?vde store innflytelse p? 1800-tallets tenkere"
    },
    {
        "Adam av Bremen": "Caspar David Friedrich",
        "1040?85": "1774?1840",
        "Historieskriver": "Maler; romantikkens store maler i Tyskland"
    },
    {
        "Adam av Bremen": "E. T. A. Hoffmann",
        "1040?85": "1776?1822",
        "Historieskriver": "Forfatter; kjent for sine fantastiske fortellinger"
    },
    {
        "Adam av Bremen": "Heinrich von Kleist",
        "1040?85": "1777?1811",
        "Historieskriver": "Dramatiker; betydelig skildrer av sjelelivet"
    },
    {
        "Adam av Bremen": "Carl Friedrich Gauss",
        "1040?85": "1777?1855",
        "Historieskriver": "Matematiker, fysiker og astronom; en av de mest sentrale p? alle disse omr?der"
    },
    {
        "Adam av Bremen": "Karl Friedrich Schinkel",
        "1040?85": "1781?1841",
        "Historieskriver": "Arkitekt og maler; en av nyklassisismens fremste arkitekter"
    },
    {
        "Adam av Bremen": "Jacob og Wilhelm Grimm",
        "1040?85": "1785?1863 og 1786?1859",
        "Historieskriver": "Litteratur- og spr?kforskere; samlet og utgav tyske folkeeventyr"
    },
    {
        "Adam av Bremen": "Friedrich Krupp",
        "1040?85": "1787?1826",
        "Historieskriver": "Industrimann; grunnla Krupp-konsernet"
    },
    {
        "Adam av Bremen": "Arthur Schopenhauer",
        "1040?85": "1788?1860",
        "Historieskriver": "Filosof; an av 1800-tallets mest s?regne tenkere"
    },
    {
        "Adam av Bremen": "Helmuth Carl Bernhard Moltke",
        "1040?85": "1800?91",
        "Historieskriver": "Offiser; betydelig feltherre, hvis ideer danner grunnlaget for moderne generalstabsvirksomhet"
    },
    {
        "Adam av Bremen": "Justus von Liebig",
        "1040?85": "1803?73",
        "Historieskriver": "Kjemiker; en av 1800-tallets mast betydelige vitenskapsmenn"
    },
    {
        "Adam av Bremen": "Felix Mendelssohn-Bartholdy",
        "1040?85": "1809?47",
        "Historieskriver": "Komponist; en av romantikkens f?rende skikkelser"
    },
    {
        "Adam av Bremen": "Robert Schumann",
        "1040?85": "1810?56",
        "Historieskriver": "Komponist; en av romantikkens f?rende skikkelser"
    },
    {
        "Adam av Bremen": "Richard Wagner",
        "1040?85": "1813?83",
        "Historieskriver": "Komponist; operakunstens store fornyer"
    },
    {
        "Adam av Bremen": "Otto von Bismarck",
        "1040?85": "1815?98",
        "Historieskriver": "Statsmann; skaperen av Det tyske rike"
    },
    {
        "Adam av Bremen": "Theodor Mommsen",
        "1040?85": "1817?1903",
        "Historieskriver": "Historiker og forfatter"
    },
    {
        "Adam av Bremen": "Karl Marx",
        "1040?85": "1818?83",
        "Historieskriver": "Filosof; marxismens opphavsmann og forfatter av Kapitalen"
    },
    {
        "Adam av Bremen": "Clara Schumann (f. Wieck)",
        "1040?85": "1819?96",
        "Historieskriver": "Pianist og komponist: en av 1800-tallets fremste pianister"
    },
    {
        "Adam av Bremen": "Friedrich Engels",
        "1040?85": "1820?95",
        "Historieskriver": "Filosof; medforfatter av Det kommunistiske manifest"
    },
    {
        "Adam av Bremen": "Heinrich Schliemann",
        "1040?85": "1822?90",
        "Historieskriver": "Arkeolog; ledet utgravningene av Troja"
    },
    {
        "Adam av Bremen": "Leopold Kronecker",
        "1040?85": "1823?91",
        "Historieskriver": "Matematiker; sentral innen tallteori og algebra"
    },
    {
        "Adam av Bremen": "Gustav Robert Kirchhoff",
        "1040?85": "1824?87",
        "Historieskriver": "Fysiker; grunnlegger av den matematiske fysikk"
    },
    {
        "Adam av Bremen": "Georg Friedrich Bernhard Riemann",
        "1040?85": "1826?66",
        "Historieskriver": "Matematiker; meget sentral innen analyse og funksjonsteori, ogs? stor innflytelse p? fysikken"
    },
    {
        "Adam av Bremen": "Johannes Brahms",
        "1040?85": "1833?97",
        "Historieskriver": "Komponist, skrev bl.a. fire symfonier og Ein deutsches Requiem"
    },
    {
        "Adam av Bremen": "Gottlieb Daimler",
        "1040?85": "1834?1900",
        "Historieskriver": "Ingeni?r; en av bilens ?fedre?"
    },
    {
        "Adam av Bremen": "Ernst Haeckel",
        "1040?85": "1834?1919",
        "Historieskriver": "Biolog; arbeidet mye med utviklingsl?ren, formulerte den biogenetiske grunnlov"
    },
    {
        "Adam av Bremen": "Friedrich Wilhelm Nietzsche",
        "1040?85": "1844?1900",
        "Historieskriver": "Filosof og dikter; en av filosofiens mest omstridte skikkelser"
    },
    {
        "Adam av Bremen": "Carl Friedrich Benz",
        "1040?85": "1844?1929",
        "Historieskriver": "Ingeni?r; konstruerte Benz-motoren som ble grunnlaget for produksjon av Benz-bilene"
    },
    {
        "Adam av Bremen": "Georg Cantor",
        "1040?85": "1845?1918",
        "Historieskriver": "Matematiker; grunnlegger av mengdel?ren"
    },
    {
        "Adam av Bremen": "Wilhelm von R?ntgen",
        "1040?85": "1845?1923",
        "Historieskriver": "Fysiker; oppdaget r?ntgenstr?lingen, Nobelprisen 1901"
    },
    {
        "Adam av Bremen": "Emil Fischer",
        "1040?85": "1852?1919",
        "Historieskriver": "Kjemiker; en av de betydeligste organiske kjemikere. Nobelprisen 1902"
    },
    {
        "Adam av Bremen": "Max Karl Ernst Ludwig Planck",
        "1040?85": "1858?1947",
        "Historieskriver": "Fysiker; viktige bidrag til kvanteteorien, Nobelprisen 1918"
    },
    {
        "Adam av Bremen": "David Hilbert",
        "1040?85": "1862?1943",
        "Historieskriver": "Matematiker; viktige arbeider innen geometriens aksiomer og oppbygning"
    },
    {
        "Adam av Bremen": "Max Weber",
        "1040?85": "1864?1920",
        "Historieskriver": "Sosiolog; en av sosiologiens grunnleggere, skrev bl.a. Den protestantiske etikk og kapitalismens ?nd (1904?05)"
    },
    {
        "Adam av Bremen": "Richard Strauss",
        "1040?85": "1864?1949",
        "Historieskriver": "Komponist og dirigent: skrev bl.a. operaen Rosenkavaleren"
    },
    {
        "Adam av Bremen": "Rosa Luxemburg",
        "1040?85": "1870?1919",
        "Historieskriver": "Revolusjon?r politiker: en av initiativtakerne till Spartakusforbundet"
    },
    {
        "Adam av Bremen": "Thomas Mann",
        "1040?85": "1875?1955",
        "Historieskriver": "Forfatter; kjent for sine romaner og noveller. Nobelprisen 1929"
    },
    {
        "Adam av Bremen": "Albert Einstein",
        "1040?85": "1879?1955",
        "Historieskriver": "Fysiker; s?rlig kjent for sin relativitetsteori"
    },
    {
        "Adam av Bremen": "Waiter Gropius",
        "1040?85": "1883?1969",
        "Historieskriver": "Arkitekt; en av funksjonalismens skapere"
    },
    {
        "Adam av Bremen": "Wilhelm Furtw?ngler",
        "1040?85": "1886?1954",
        "Historieskriver": "Dirigent; en av 1900-tallets st?rste dirigenter"
    },
    {
        "Adam av Bremen": "Ludwig Mies van der Rohe",
        "1040?85": "1886?1969",
        "Historieskriver": "Arkitekt; en av modernismens st?rste arkitekter"
    },
    {
        "Adam av Bremen": "Karl von Frisch",
        "1040?85": "1886?1982",
        "Historieskriver": "Zoolog; s?rlig kjent for atferdsstudier hos bier. Nobelprisen 1973"
    },
    {
        "Adam av Bremen": "Friedrich Wilhelm Murnau",
        "1040?85": "1888?1931",
        "Historieskriver": "Filmregiss?r; stumfilmens st?rste tyske navn"
    },
    {
        "Adam av Bremen": "Martin Heidegger",
        "1040?85": "1889?1976",
        "Historieskriver": "Filosof; f?rende navn innenfor eksistensfilosofien"
    },
    {
        "Adam av Bremen": "Walter Benjamin",
        "1040?85": "1892?1940",
        "Historieskriver": "Filosof; sentral marxistisk kulturteoretiker"
    },
    {
        "Adam av Bremen": "Wilhelm Kempff",
        "1040?85": "1895?1991",
        "Historieskriver": "Pianist og komponist; en av sin tids fremste tolkere av Beethoven, Schumann og Brahms"
    },
    {
        "Adam av Bremen": "Bertolt Brecht",
        "1040?85": "1898?1956",
        "Historieskriver": "Forfatter og teaterleder; kjent for sine skuespill"
    },
    {
        "Adam av Bremen": "Kurt Weill",
        "1040?85": "1900?50",
        "Historieskriver": "Komponist; kjent for sitt samarbeid med Bertolt Brecht"
    },
    {
        "Adam av Bremen": "Warner Karl Heisenberg",
        "1040?85": "1901?76",
        "Historieskriver": "Fysiker; en av grunnleggerne av kvantefysikken, s?rlig kjent for sin usikkerhetsrelasjon. Nobelprisen 1932"
    },
    {
        "Adam av Bremen": "Marlene Dietrich",
        "1040?85": "1901?92",
        "Historieskriver": "Filmskuespiller og kabaretartist"
    },
    {
        "Adam av Bremen": "Theodor Adorno",
        "1040?85": "1903?69",
        "Historieskriver": "Filosof; innflytelsesrik estetikkteoretiker og kulturfilosof"
    },
    {
        "Adam av Bremen": "Konrad Lorenz",
        "1040?85": "1903?89",
        "Historieskriver": "Zoolog og lege; en av grunnleggerne av etologien. Nobelprisen i fysiologi og medisin 1973"
    },
    {
        "Adam av Bremen": "Wernher von Braun",
        "1040?85": "1912?77",
        "Historieskriver": "Rakettforsker, sentral i USAs romfartsprogram"
    },
    {
        "Adam av Bremen": "Willy Brandt",
        "1040?85": "1913?92",
        "Historieskriver": "Politiker; forbundskansler 1969?74. Nobels fredspris 1971 for sin tiln?rmingspolitikk overfor ?st-Europa"
    },
    {
        "Adam av Bremen": "Heinrich B?ll",
        "1040?85": "1917?85",
        "Historieskriver": "Forfatter; kjent for sine romaner og noveller; Nobelprisen 1972"
    },
    {
        "Adam av Bremen": "Siegfried Lenz",
        "1040?85": "1926?",
        "Historieskriver": "Forfatter; kjent for sine romaner og noveller"
    },
    {
        "Adam av Bremen": "G?nter Grass",
        "1040?85": "1927?",
        "Historieskriver": "Forfatter og billedkunstner; kjent for sine romaner og noveller, Nobelprisen 1999"
    },
    {
        "Adam av Bremen": "Christa Wolf",
        "1040?85": "1929?",
        "Historieskriver": "Forfatter; kjent for sine romaner og noveller"
    },
    {
        "Adam av Bremen": "J?rgen Habermas",
        "1040?85": "1929?",
        "Historieskriver": "Filosof; en hovedtalsmann for den ?kritiske teori?."
    },
    {
        "Adam av Bremen": "Franz Beckenbauer",
        "1040?85": "1945?",
        "Historieskriver": "Fotballspiller; ?rets spiller i Europa 1972 og 1976"
    },
    {
        "Adam av Bremen": "Anselm Kiefer",
        "1040?85": "1945?",
        "Historieskriver": "Billedkunstner; forl?per for retningen ?Die neue Wilden?"
    },
    {
        "Adam av Bremen": "Rainer Werner Fassbinder",
        "1040?85": "1946?82",
        "Historieskriver": "Filmregiss?r; en av filmens produktive realister"
    },
    {
        "Adam av Bremen": "Daniel Libeskind",
        "1040?85": "1946?",
        "Historieskriver": "Arkitekt; en rekke monumentalbygg i de senere ?r"
    },
    {
        "Adam av Bremen": "Joschka Fischer",
        "1040?85": "1948?",
        "Historieskriver": "Politiker; den ledende politiker fra De gr?nne, utenriksminister og visekansler 1998?2005"
    },
    {
        "Adam av Bremen": "Michael Schumacher",
        "1040?85": "1969?",
        "Historieskriver": "Racerkj?rer; sju verdensmesterskap i formel 1"
    }
]