[
    {
        "Rk": "1",
        "?": "Ty Cobb",
        "Yrs": "17",
        "From": "1907",
        "To": "1927",
        "Age": "20-40",
        "? 7": "Ind. Seasons"
    },
    {
        "Rk": "2",
        "?": "Derek Jeter",
        "Yrs": "15",
        "From": "1996",
        "To": "2011",
        "Age": "22-37",
        "? 7": "Ind. Seasons"
    },
    {
        "Rk": "3",
        "?": "Paul Waner",
        "Yrs": "12",
        "From": "1927",
        "To": "1938",
        "Age": "24-35",
        "? 7": "Ind. Seasons"
    },
    {
        "Rk": "4",
        "?": "Sam Rice",
        "Yrs": "12",
        "From": "1917",
        "To": "1930",
        "Age": "27-40",
        "? 7": "Ind. Seasons"
    },
    {
        "Rk": "5",
        "?": "Eddie Collins",
        "Yrs": "12",
        "From": "1910",
        "To": "1924",
        "Age": "23-37",
        "? 7": "Ind. Seasons"
    },
    {
        "Rk": "6",
        "?": "Sam Crawford",
        "Yrs": "12",
        "From": "1902",
        "To": "1915",
        "Age": "22-35",
        "? 7": "Ind. Seasons"
    },
    {
        "Rk": "7",
        "?": "Roberto Clemente",
        "Yrs": "11",
        "From": "1956",
        "To": "1971",
        "Age": "21-36",
        "? 7": "Ind. Seasons"
    },
    {
        "Rk": "8",
        "?": "Pie Traynor",
        "Yrs": "11",
        "From": "1922",
        "To": "1933",
        "Age": "23-34",
        "? 7": "Ind. Seasons"
    },
    {
        "Rk": "9",
        "?": "George Sisler",
        "Yrs": "11",
        "From": "1916",
        "To": "1929",
        "Age": "23-36",
        "? 7": "Ind. Seasons"
    },
    {
        "Rk": "10",
        "?": "Tris Speaker",
        "Yrs": "11",
        "From": "1909",
        "To": "1927",
        "Age": "21-39",
        "? 7": "Ind. Seasons"
    },
    {
        "Rk": "11",
        "?": "Steve Garvey",
        "Yrs": "10",
        "From": "1974",
        "To": "1985",
        "Age": "25-36",
        "? 7": "Ind. Seasons"
    },
    {
        "Rk": "12",
        "?": "Pete Rose",
        "Yrs": "9",
        "From": "1965",
        "To": "1980",
        "Age": "24-39",
        "? 7": "Ind. Seasons"
    },
    {
        "Rk": "13",
        "?": "Heinie Manush",
        "Yrs": "9",
        "From": "1926",
        "To": "1934",
        "Age": "24-32",
        "? 7": "Ind. Seasons"
    },
    {
        "Rk": "14",
        "?": "Joe Sewell",
        "Yrs": "9",
        "From": "1921",
        "To": "1929",
        "Age": "22-30",
        "? 7": "Ind. Seasons"
    },
    {
        "Rk": "15",
        "?": "Michael Young",
        "Yrs": "8",
        "From": "2003",
        "To": "2011",
        "Age": "26-34",
        "? 7": "Ind. Seasons"
    },
    {
        "Rk": "16",
        "?": "Kirby Puckett",
        "Yrs": "8",
        "From": "1985",
        "To": "1993",
        "Age": "25-33",
        "? 7": "Ind. Seasons"
    },
    {
        "Rk": "17",
        "?": "Arky Vaughan",
        "Yrs": "8",
        "From": "1932",
        "To": "1943",
        "Age": "20-31",
        "? 7": "Ind. Seasons"
    },
    {
        "Rk": "18",
        "?": "Charlie Gehringer",
        "Yrs": "8",
        "From": "1928",
        "To": "1937",
        "Age": "25-34",
        "? 7": "Ind. Seasons"
    },
    {
        "Rk": "19",
        "?": "Bill Terry",
        "Yrs": "8",
        "From": "1927",
        "To": "1935",
        "Age": "28-36",
        "? 7": "Ind. Seasons"
    },
    {
        "Rk": "20",
        "?": "Al Simmons",
        "Yrs": "8",
        "From": "1924",
        "To": "1936",
        "Age": "22-34",
        "? 7": "Ind. Seasons"
    },
    {
        "Rk": "21",
        "?": "Frankie Frisch",
        "Yrs": "8",
        "From": "1921",
        "To": "1934",
        "Age": "22-35",
        "? 7": "Ind. Seasons"
    },
    {
        "Rk": "22",
        "?": "Harry Heilmann",
        "Yrs": "8",
        "From": "1920",
        "To": "1928",
        "Age": "25-33",
        "? 7": "Ind. Seasons"
    },
    {
        "Rk": "23",
        "?": "Rogers Hornsby",
        "Yrs": "8",
        "From": "1917",
        "To": "1929",
        "Age": "21-33",
        "? 7": "Ind. Seasons"
    },
    {
        "Rk": "24",
        "?": "Edd Roush",
        "Yrs": "8",
        "From": "1915",
        "To": "1926",
        "Age": "22-33",
        "? 7": "Ind. Seasons"
    },
    {
        "Rk": "25",
        "?": "Zack Wheat",
        "Yrs": "8",
        "From": "1914",
        "To": "1925",
        "Age": "26-37",
        "? 7": "Ind. Seasons"
    },
    {
        "Rk": "26",
        "?": "Stuffy McInnis",
        "Yrs": "8",
        "From": "1912",
        "To": "1923",
        "Age": "21-32",
        "? 7": "Ind. Seasons"
    },
    {
        "Rk": "27",
        "?": "Honus Wagner",
        "Yrs": "8",
        "From": "1901",
        "To": "1910",
        "Age": "27-36",
        "? 7": "Ind. Seasons"
    },
    {
        "Rk": "28",
        "?": "Roberto Alomar",
        "Yrs": "7",
        "From": "1990",
        "To": "2001",
        "Age": "22-33",
        "? 7": "Ind. Seasons"
    },
    {
        "Rk": "29",
        "?": "Don Mattingly",
        "Yrs": "7",
        "From": "1984",
        "To": "1992",
        "Age": "23-31",
        "? 7": "Ind. Seasons"
    },
    {
        "Rk": "30",
        "?": "Tony Gwynn",
        "Yrs": "7",
        "From": "1984",
        "To": "1997",
        "Age": "24-37",
        "? 7": "Ind. Seasons"
    },
    {
        "Rk": "31",
        "?": "Johnny Ray",
        "Yrs": "7",
        "From": "1982",
        "To": "1989",
        "Age": "25-32",
        "? 7": "Ind. Seasons"
    },
    {
        "Rk": "32",
        "?": "Paul Molitor",
        "Yrs": "7",
        "From": "1979",
        "To": "1996",
        "Age": "22-39",
        "? 7": "Ind. Seasons"
    },
    {
        "Rk": "33",
        "?": "Keith Hernandez",
        "Yrs": "7",
        "From": "1979",
        "To": "1987",
        "Age": "25-33",
        "? 7": "Ind. Seasons"
    },
    {
        "Rk": "34",
        "?": "Al Oliver",
        "Yrs": "7",
        "From": "1972",
        "To": "1983",
        "Age": "25-36",
        "? 7": "Ind. Seasons"
    },
    {
        "Rk": "35",
        "?": "Billy Williams",
        "Yrs": "7",
        "From": "1962",
        "To": "1973",
        "Age": "24-35",
        "? 7": "Ind. Seasons"
    },
    {
        "Rk": "36",
        "?": "Willie Davis",
        "Yrs": "7",
        "From": "1962",
        "To": "1974",
        "Age": "22-34",
        "? 7": "Ind. Seasons"
    },
    {
        "Rk": "37",
        "?": "Vada Pinson",
        "Yrs": "7",
        "From": "1959",
        "To": "1967",
        "Age": "20-28",
        "? 7": "Ind. Seasons"
    },
    {
        "Rk": "38",
        "?": "Ken Boyer",
        "Yrs": "7",
        "From": "1956",
        "To": "1964",
        "Age": "25-33",
        "? 7": "Ind. Seasons"
    },
    {
        "Rk": "39",
        "?": "Stan Musial",
        "Yrs": "7",
        "From": "1943",
        "To": "1952",
        "Age": "22-31",
        "? 7": "Ind. Seasons"
    },
    {
        "Rk": "40",
        "?": "Joe Medwick",
        "Yrs": "7",
        "From": "1934",
        "To": "1944",
        "Age": "22-32",
        "? 7": "Ind. Seasons"
    },
    {
        "Rk": "41",
        "?": "Kiki Cuyler",
        "Yrs": "7",
        "From": "1925",
        "To": "1936",
        "Age": "26-37",
        "? 7": "Ind. Seasons"
    },
    {
        "Rk": "42",
        "?": "Goose Goslin",
        "Yrs": "7",
        "From": "1923",
        "To": "1935",
        "Age": "22-34",
        "? 7": "Ind. Seasons"
    },
    {
        "Rk": "43",
        "?": "Bobby Veach",
        "Yrs": "7",
        "From": "1915",
        "To": "1922",
        "Age": "27-34",
        "? 7": "Ind. Seasons"
    },
    {
        "Rk": "44",
        "?": "Shoeless Joe Jackson",
        "Yrs": "7",
        "From": "1911",
        "To": "1920",
        "Age": "23-32",
        "? 7": "Ind. Seasons"
    },
    {
        "Rk": "45",
        "?": "Nap Lajoie",
        "Yrs": "7",
        "From": "1901",
        "To": "1913",
        "Age": "26-38",
        "? 7": "Ind. Seasons"
    }
]