[
    {
        "col 1": "",
        "Movie": "Mission Impossible 3",
        "Rel.": "2006",
        "Director": "Abrams, J.J.",
        "Reviewed": "20061209"
    },
    {
        "col 1": "",
        "Movie": "Super 8",
        "Rel.": "2011",
        "Director": "Abrams, J.J.",
        "Reviewed": "20111214"
    },
    {
        "col 1": "",
        "Movie": "The Corporation",
        "Rel.": "2003",
        "Director": "Achbar, Mark",
        "Reviewed": "20070102"
    },
    {
        "col 1": "",
        "Movie": "Gone Baby Gone",
        "Rel.": "2007",
        "Director": "Affleck, Ben",
        "Reviewed": "20071116"
    },
    {
        "col 1": "",
        "Movie": "Lion of the Desert",
        "Rel.": "1981",
        "Director": "Akkad, Moustapha",
        "Reviewed": "20111005"
    },
    {
        "col 1": "",
        "Movie": "Emperor of the North",
        "Rel.": "1973",
        "Director": "Aldrich, Robert",
        "Reviewed": "20110525"
    },
    {
        "col 1": "",
        "Movie": "Burlesque",
        "Rel.": "2010",
        "Director": "Antin, Steve",
        "Reviewed": "20120118"
    },
    {
        "col 1": "",
        "Movie": "Harold and Maude",
        "Rel.": "1971",
        "Director": "Ashby, Hal",
        "Reviewed": "20091126"
    },
    {
        "col 1": "",
        "Movie": "Coming Home",
        "Rel.": "1978",
        "Director": "Ashby, Hal",
        "Reviewed": "20081024"
    },
    {
        "col 1": "",
        "Movie": "Akeelah and the Bee",
        "Rel.": "2006",
        "Director": "Atchison, Doug",
        "Reviewed": "20090813"
    },
    {
        "col 1": "",
        "Movie": "A Bridge Too Far",
        "Rel.": "1977",
        "Director": "Attenborough, Richard",
        "Reviewed": "20090312"
    },
    {
        "col 1": "",
        "Movie": "The Tillman Story",
        "Rel.": "2011",
        "Director": "Bar-Lev, Amir",
        "Reviewed": "20110323"
    },
    {
        "col 1": "",
        "Movie": "The Island",
        "Rel.": "2005",
        "Director": "Bay, Michael",
        "Reviewed": "20070928"
    },
    {
        "col 1": "",
        "Movie": "Wild Hogs",
        "Rel.": "2007",
        "Director": "Becker, Walt",
        "Reviewed": "20070309"
    },
    {
        "col 1": "",
        "Movie": "Management",
        "Rel.": "2008",
        "Director": "Belber, Stephen",
        "Reviewed": "20091224"
    },
    {
        "col 1": "",
        "Movie": "Nobody's Fool",
        "Rel.": "1994",
        "Director": "Benton, Robert",
        "Reviewed": "20081002"
    },
    {
        "col 1": "",
        "Movie": "Mao's Last Dancer",
        "Rel.": "2009",
        "Director": "Beresford, Bruce",
        "Reviewed": "20111019"
    },
    {
        "col 1": "",
        "Movie": "Friday Night Lights",
        "Rel.": "2006",
        "Director": "Berg, Peter",
        "Reviewed": "20080111"
    },
    {
        "col 1": "",
        "Movie": "Improbable Collapse",
        "Rel.": "2006",
        "Director": "Berger, Michael",
        "Reviewed": "20070427"
    },
    {
        "col 1": "",
        "Movie": "Crude",
        "Rel.": "2009",
        "Director": "Berlinger, Joe",
        "Reviewed": "20100819"
    },
    {
        "col 1": "",
        "Movie": "The Hurt Locker",
        "Rel.": "2009",
        "Director": "Bigelow, Kathryn",
        "Reviewed": "20100616"
    },
    {
        "col 1": "",
        "Movie": "Last Picture Show",
        "Rel.": "1971",
        "Director": "Bogdanovich, Peter",
        "Reviewed": "20090924"
    },
    {
        "col 1": "",
        "Movie": "Seven Men from Now",
        "Rel.": "1956",
        "Director": "Boetticher, Budd",
        "Reviewed": "20071207"
    },
    {
        "col 1": "",
        "Movie": "Slumdog Millionaire",
        "Rel.": "2008",
        "Director": "Boyle, Danny",
        "Reviewed": "20090129"
    },
    {
        "col 1": "",
        "Movie": "Limitless",
        "Rel.": "2011",
        "Director": "Burger, Neil",
        "Reviewed": "20120111"
    },
    {
        "col 1": "",
        "Movie": "The Lucky Ones",
        "Rel.": "2008",
        "Director": "Burger, Neil",
        "Reviewed": "20090319"
    },
    {
        "col 1": "",
        "Movie": "Ed Wood",
        "Rel.": "1994",
        "Director": "Burton, Tim",
        "Reviewed": "20090514"
    },
    {
        "col 1": "",
        "Movie": "The China Syndrome",
        "Rel.": "1979",
        "Director": "Bridges, James",
        "Reviewed": "20070511"
    },
    {
        "col 1": "",
        "Movie": "Avatar",
        "Rel.": "2009",
        "Director": "Cameron, James",
        "Reviewed": "20100121"
    },
    {
        "col 1": "",
        "Movie": "Casino Royale",
        "Rel.": "2006",
        "Director": "Campbell, Martin",
        "Reviewed": "20061203"
    },
    {
        "col 1": "",
        "Movie": "King of California",
        "Rel.": "2007",
        "Director": "Cahill, Mike",
        "Reviewed": "20080321"
    },
    {
        "col 1": "",
        "Movie": "It's a Wonderful Life",
        "Rel.": "1946",
        "Director": "Capra, Frank",
        "Reviewed": "20110309"
    },
    {
        "col 1": "",
        "Movie": "They Live",
        "Rel.": "1988",
        "Director": "Carpenter, John",
        "Reviewed": "20091105"
    },
    {
        "col 1": "",
        "Movie": "North Country",
        "Rel.": "2005",
        "Director": "Caro, Niki",
        "Reviewed": "20070128"
    },
    {
        "col 1": "",
        "Movie": "Religulous",
        "Rel.": "2008",
        "Director": "Charles, Larry",
        "Reviewed": "20100128"
    },
    {
        "col 1": "",
        "Movie": "A Christmas Story",
        "Rel.": "1983",
        "Director": "Clark, Bob",
        "Reviewed": "20071221"
    },
    {
        "col 1": "",
        "Movie": "The Big Lebowski",
        "Rel.": "1998",
        "Director": "Coen, Joel",
        "Reviewed": "20110302"
    },
    {
        "col 1": "",
        "Movie": "Crazy Heart",
        "Rel.": "2009",
        "Director": "Cooper, Scott",
        "Reviewed": "20100528"
    },
    {
        "col 1": "",
        "Movie": "Tucker: The Man and His Dream",
        "Rel.": "1988",
        "Director": "Coppola, Francis Ford",
        "Reviewed": "20090122"
    },
    {
        "col 1": "",
        "Movie": "Dances with Wolves",
        "Rel.": "1990",
        "Director": "Costner, Kevin",
        "Reviewed": "20090909"
    },
    {
        "col 1": "",
        "Movie": "Remember Me",
        "Rel.": "2010",
        "Director": "Coulter, Allen",
        "Reviewed": "20110126"
    },
    {
        "col 1": "",
        "Movie": "Dear America: Letters from Vietnam",
        "Rel.": "1988",
        "Director": "Couturi\u00e9, Bill",
        "Reviewed": "20090820"
    },
    {
        "col 1": "",
        "Movie": "Children of Men",
        "Rel.": "2006",
        "Director": "Cuaron, Alfonso",
        "Reviewed": "20070121"
    },
    {
        "col 1": "",
        "Movie": "Love Actually",
        "Rel.": "2003",
        "Director": "Curtis, Richard",
        "Reviewed": "20071130"
    },
    {
        "col 1": "",
        "Movie": "Mildred Pierce",
        "Rel.": "1945",
        "Director": "Curtiz, Michael",
        "Reviewed": "20110330"
    },
    {
        "col 1": "",
        "Movie": "Romance on the High Seas",
        "Rel.": "1948",
        "Director": "Curtiz, Michael",
        "Reviewed": "20111109"
    },
    {
        "col 1": "",
        "Movie": "Amreeka",
        "Rel.": "2009",
        "Director": "Dabis, Cherien",
        "Reviewed": "20100225"
    },
    {
        "col 1": "",
        "Movie": "Shawshank Redemption",
        "Rel.": "1994",
        "Director": "Darabont, Frank",
        "Reviewed": "20100826"
    },
    {
        "col 1": "",
        "Movie": "Hearts and Minds",
        "Rel.": "1974",
        "Director": "Davis, Peter",
        "Reviewed": "20101027"
    },
    {
        "col 1": "",
        "Movie": "Little Miss Sunshine",
        "Rel.": "2006",
        "Director": "Dayton, Jonathan",
        "Reviewed": "20070223"
    },
    {
        "col 1": "",
        "Movie": "City Island",
        "Rel.": "2009",
        "Director": "de Felitta, Raymond",
        "Reviewed": "20110914"
    },
    {
        "col 1": "",
        "Movie": "Rachel Getting Married",
        "Rel.": "2008",
        "Director": "Demme, Jonathan",
        "Reviewed": "20090702"
    },
    {
        "col 1": "",
        "Movie": "Swing Shift",
        "Rel.": "1984",
        "Director": "Demme, Jonathan",
        "Reviewed": "20080530"
    },
    {
        "col 1": "",
        "Movie": "Beautiful Girls",
        "Rel.": "1996",
        "Director": "Demme, Ted",
        "Reviewed": "20071102"
    },
    {
        "col 1": "",
        "Movie": "The Good Shepherd",
        "Rel.": "2006",
        "Director": "DeNiro, Robert",
        "Reviewed": "20070413"
    },
    {
        "col 1": "",
        "Movie": "The Day the Earth Stood Still",
        "Rel.": "2008",
        "Director": "Derrickson, Scott",
        "Reviewed": "20091112"
    },
    {
        "col 1": "",
        "Movie": "The Replacements",
        "Rel.": "2000",
        "Director": "Deutch, Howard",
        "Reviewed": "20070831"
    },
    {
        "col 1": "",
        "Movie": "The Lives of Others",
        "Rel.": "2006",
        "Director": "Donnersmarck, F.H.",
        "Reviewed": "20070914"
    },
    {
        "col 1": "",
        "Movie": "Main Street",
        "Rel.": "2010",
        "Director": "Doyle, John",
        "Reviewed": "20120125"
    },
    {
        "col 1": "",
        "Movie": "The Thorn Birds",
        "Rel.": "1983",
        "Director": "Duke, Daryl",
        "Reviewed": "20110105"
    },
    {
        "col 1": "",
        "Movie": "The Apostle",
        "Rel.": "1997",
        "Director": "Duvall, Robert",
        "Reviewed": "20100929"
    },
    {
        "col 1": "",
        "Movie": "The Great Waltz",
        "Rel.": "1938",
        "Director": "Duvivier, Julien",
        "Reviewed": "20090115"
    },
    {
        "col 1": "",
        "Movie": "The Bridges of Madison County",
        "Rel.": "1995",
        "Director": "Eastwood, Clint",
        "Reviewed": "20101020"
    },
    {
        "col 1": "",
        "Movie": "Changeling",
        "Rel.": "2008",
        "Director": "Eastwood, Clint",
        "Reviewed": "20090528"
    },
    {
        "col 1": "",
        "Movie": "Flags of Our Fathers",
        "Rel.": "2006",
        "Director": "Eastwood, Clint",
        "Reviewed": "20070212"
    },
    {
        "col 1": "",
        "Movie": "Gran Torino",
        "Rel.": "2008",
        "Director": "Eastwood, Clint",
        "Reviewed": "20090219"
    },
    {
        "col 1": "",
        "Movie": "Heartbreak Ridge",
        "Rel.": "1986",
        "Director": "Eastwood, Clint",
        "Reviewed": "20080516"
    },
    {
        "col 1": "",
        "Movie": "Invictus",
        "Rel.": "2009",
        "Director": "Eastwood, Clint",
        "Reviewed": "20091231"
    },
    {
        "col 1": "",
        "Movie": "Julie and Julia",
        "Rel.": "2009",
        "Director": "Ephron, Nora",
        "Reviewed": "20110119"
    },
    {
        "col 1": "",
        "Movie": "Sleepless in Seattle",
        "Rel.": "1993",
        "Director": "Ephron, Nora",
        "Reviewed": "20091008"
    },
    {
        "col 1": "",
        "Movie": "You've Got Mail",
        "Rel.": "1998",
        "Director": "Ephron, Nora",
        "Reviewed": "20110921"
    },
    {
        "col 1": "",
        "Movie": "Bobby",
        "Rel.": "2006",
        "Director": "Estevez, Emilio",
        "Reviewed": "20061212"
    },
    {
        "col 1": "",
        "Movie": "Iron Man",
        "Rel.": "2008",
        "Director": "Favreau, Jon",
        "Reviewed": "20100721"
    },
    {
        "col 1": "",
        "Movie": "Inside Job",
        "Rel.": "2010",
        "Director": "Ferguson, Charles",
        "Reviewed": "20110713"
    },
    {
        "col 1": "",
        "Movie": "Little Children",
        "Rel.": "2006",
        "Director": "Field, Todd",
        "Reviewed": "20070525"
    },
    {
        "col 1": "",
        "Movie": "Cherry",
        "Rel.": "2010",
        "Director": "Fine, Jeffrey",
        "Reviewed": "20111116"
    },
    {
        "col 1": "",
        "Movie": "27 Dresses",
        "Rel.": "2008",
        "Director": "Fletcher, Anne",
        "Reviewed": "20080703"
    },
    {
        "col 1": "",
        "Movie": "The Proposal",
        "Rel.": "2009",
        "Director": "Fletcher, Anne",
        "Reviewed": "20090625"
    },
    {
        "col 1": "",
        "Movie": "Perfect Stranger",
        "Rel.": "2007",
        "Director": "Foley, James",
        "Reviewed": "20070921"
    },
    {
        "col 1": "",
        "Movie": "The Stepford Wives",
        "Rel.": "1975",
        "Director": "Forbes, Bryan",
        "Reviewed": "20061202"
    },
    {
        "col 1": "",
        "Movie": "Grapes of Wrath",
        "Rel.": "1940",
        "Director": "Ford, John",
        "Reviewed": "20090423"
    },
    {
        "col 1": "",
        "Movie": "Stranger than Fiction",
        "Rel.": "2006",
        "Director": "Forster, Marc",
        "Reviewed": "20070824"
    },
    {
        "col 1": "",
        "Movie": "The Beaver",
        "Rel.": "2011",
        "Director": "Foster, Jodie",
        "Reviewed": "20111012"
    },
    {
        "col 1": "",
        "Movie": "The Lookout",
        "Rel.": "2007",
        "Director": "Frank, Scott",
        "Reviewed": "20070518"
    },
    {
        "col 1": "",
        "Movie": "The Devil Wears Prada",
        "Rel.": "2006",
        "Director": "Frankel, David",
        "Reviewed": "20070719"
    },
    {
        "col 1": "",
        "Movie": "Shooter",
        "Rel.": "2007",
        "Director": "Fuqua, Antoine",
        "Reviewed": "20071005"
    },
    {
        "col 1": "",
        "Movie": "Grand Prix",
        "Rel.": "1966",
        "Director": "Frankenheimer, John",
        "Reviewed": "20070713"
    },
    {
        "col 1": "",
        "Movie": "Love Song for Bobby Long",
        "Rel.": "2004",
        "Director": "Gabel, Shainee",
        "Reviewed": "2009060"
    },
    {
        "col 1": "",
        "Movie": "Interstate 60",
        "Rel.": "2002",
        "Director": "Gale, Bob",
        "Reviewed": "20110202"
    },
    {
        "col 1": "",
        "Movie": "Glory Road",
        "Rel.": "2006",
        "Director": "Gartner, James",
        "Reviewed": "20061126"
    },
    {
        "col 1": "",
        "Movie": "Michael Clayton",
        "Rel.": "2007",
        "Director": "Gilroy, Tony",
        "Reviewed": "20071026"
    },
    {
        "col 1": "",
        "Movie": "The Running Man",
        "Rel.": "1987",
        "Director": "Glaser, Paul Michael",
        "Reviewed": "20110727"
    },
    {
        "col 1": "",
        "Movie": "Conviction",
        "Rel.": "2010",
        "Director": "Goldwyn, Tony",
        "Reviewed": "20110615"
    },
    {
        "col 1": "",
        "Movie": "An Inconvenient Truth",
        "Rel.": "2006",
        "Director": "Gore, Al",
        "Reviewed": "20061210"
    },
    {
        "col 1": "",
        "Movie": "Dark Victory",
        "Rel.": "1939",
        "Director": "Goulding, Edmund",
        "Reviewed": "20110511"
    },
    {
        "col 1": "",
        "Movie": "The Green Zone",
        "Rel.": "2009",
        "Director": "Greengrass, Paul",
        "Reviewed": "20100922"
    },
    {
        "col 1": "",
        "Movie": "Rich Man, Poor Man",
        "Rel.": "1976",
        "Director": "Greene, David",
        "Reviewed": "20101124"
    },
    {
        "col 1": "",
        "Movie": "The Bridge at Remagen",
        "Rel.": "1969",
        "Director": "Guillermin, John",
        "Reviewed": "20090312"
    },
    {
        "col 1": "",
        "Movie": "The Next Three Days",
        "Rel.": "2010",
        "Director": "Haggis, Paul",
        "Reviewed": "20101201"
    },
    {
        "col 1": "",
        "Movie": "The White Ribbon",
        "Rel.": "2009",
        "Director": "Haneke, MIchael",
        "Reviewed": "20111026"
    },
    {
        "col 1": "",
        "Movie": "Twilight",
        "Rel.": "2008",
        "Director": "Hardwicke, Catherine",
        "Reviewed": "20101215"
    },
    {
        "col 1": "",
        "Movie": "True Grit",
        "Rel.": "1969",
        "Director": "Hathaway, Henry",
        "Reviewed": "20080411"
    },
    {
        "col 1": "",
        "Movie": "From the Earth to the Moon",
        "Rel.": "1998",
        "Director": "Hanks, Tom et al",
        "Reviewed": "20080803"
    },
    {
        "col 1": "",
        "Movie": "Far from Heaven",
        "Rel.": "2002",
        "Director": "Haynes, Todd",
        "Reviewed": "20080829"
    },
    {
        "col 1": "",
        "Movie": "Clueless",
        "Rel.": "1995",
        "Director": "Heckerling, Amy",
        "Reviewed": "20090917"
    },
    {
        "col 1": "",
        "Movie": "Bad Lieutenant: Port of Call, N. Orleans",
        "Rel.": "2009",
        "Director": "Herzog, Werner",
        "Reviewed": "20100812"
    },
    {
        "col 1": "",
        "Movie": "Dan in Real Life",
        "Rel.": "2007",
        "Director": "Hedges, Peter",
        "Reviewed": "20081204"
    },
    {
        "col 1": "",
        "Movie": "The Men Who Stare at Goats",
        "Rel.": "2009",
        "Director": "Heslov, Grant",
        "Reviewed": "20100428"
    },
    {
        "col 1": "",
        "Movie": "Snow Falling on Cedars",
        "Rel.": "1999",
        "Director": "Hicks, Scott",
        "Reviewed": "20090611"
    },
    {
        "col 1": "",
        "Movie": "Geronimo",
        "Rel.": "1993",
        "Director": "Hill, Walter",
        "Reviewed": "20100623"
    },
    {
        "col 1": "",
        "Movie": "The Americanization of Emily",
        "Rel.": "1964",
        "Director": "Hiller, Arthur",
        "Reviewed": "20110831"
    },
    {
        "col 1": "",
        "Movie": "The Answer Man",
        "Rel.": "2009",
        "Director": "Hindman, John",
        "Reviewed": "20100728"
    },
    {
        "col 1": "",
        "Movie": "The Invasion",
        "Rel.": "2007",
        "Director": "Hirschbiegel, Oliver",
        "Reviewed": "20080918"
    },
    {
        "col 1": "",
        "Movie": "Untraceable",
        "Rel.": "2008",
        "Director": "Hoblit, Gregory",
        "Reviewed": "20080711"
    },
    {
        "col 1": "",
        "Movie": "Croupier",
        "Rel.": "1998",
        "Director": "Hodges, Mike",
        "Reviewed": "20080307"
    },
    {
        "col 1": "",
        "Movie": "The King's Speech",
        "Rel.": "2010",
        "Director": "Hooper, Tom",
        "Reviewed": "20110501"
    },
    {
        "col 1": "",
        "Movie": "Last Chance Harvey",
        "Rel.": "2008",
        "Director": "Hopkins, Joel",
        "Reviewed": "20090931"
    },
    {
        "col 1": "",
        "Movie": "Angels and Demons",
        "Rel.": "2009",
        "Director": "Howard, Ron",
        "Reviewed": "20090521"
    },
    {
        "col 1": "",
        "Movie": "Apollo 13",
        "Rel.": "1995",
        "Director": "Howard, Ron",
        "Reviewed": "20071012"
    },
    {
        "col 1": "",
        "Movie": "The Da Vinci Code",
        "Rel.": "2006",
        "Director": "Howard, Ron",
        "Reviewed": "20070727"
    },
    {
        "col 1": "",
        "Movie": "Frost/Nixon",
        "Rel.": "2008",
        "Director": "Howard, Ron",
        "Reviewed": "20090827"
    },
    {
        "col 1": "",
        "Movie": "The Outlaw",
        "Rel.": "1943",
        "Director": "Hughes, Howard",
        "Reviewed": "20100218"
    },
    {
        "col 1": "",
        "Movie": "The Misfits",
        "Rel.": "1961",
        "Director": "Huston, John",
        "Reviewed": "20110720"
    },
    {
        "col 1": "",
        "Movie": "Sunshine Cleaning",
        "Rel.": "2008",
        "Director": "Jeffs, Christine",
        "Reviewed": "20091022"
    },
    {
        "col 1": "",
        "Movie": "Overcoming 911 Psych Resistance",
        "Rel.": "2005",
        "Director": "Jenkins, Ken",
        "Reviewed": "20080125"
    },
    {
        "col 1": "",
        "Movie": "The Savages",
        "Rel.": "2007",
        "Director": "Jenkins, Tamara",
        "Reviewed": "20080718"
    },
    {
        "col 1": "",
        "Movie": "Atlas Shrugged the Movie, I",
        "Rel.": "2011",
        "Director": "Johansson, Paul",
        "Reviewed": "20110420"
    },
    {
        "col 1": "",
        "Movie": "October Sky",
        "Rel.": "1999",
        "Director": "Johnston, Joe",
        "Reviewed": "20090326"
    },
    {
        "col 1": "",
        "Movie": "Three Burials of Melquiades Estrada",
        "Rel.": "2005",
        "Director": "Jones, Tommy Lee",
        "Reviewed": "20090205"
    },
    {
        "col 1": "",
        "Movie": "Taking Chance",
        "Rel.": "2009",
        "Director": "Katz, Ross",
        "Reviewed": "20091217"
    },
    {
        "col 1": "",
        "Movie": "A Tree Grows in Brooklyn",
        "Rel.": "1945",
        "Director": "Kazan, Elia",
        "Reviewed": "20090212"
    },
    {
        "col 1": "",
        "Movie": "Sex and the City",
        "Rel.": "2008",
        "Director": "King, Michael Patrick",
        "Reviewed": "20080627"
    },
    {
        "col 1": "",
        "Movie": "Sex and the City 2",
        "Rel.": "2010",
        "Director": "King, Michael Patrick",
        "Reviewed": "20101229"
    },
    {
        "col 1": "",
        "Movie": "Suburban Girl",
        "Rel.": "2007",
        "Director": "Klein, Marc",
        "Reviewed": "20080606"
    },
    {
        "col 1": "",
        "Movie": "Weeds",
        "Rel.": "2005",
        "Director": "Kohan, Jenji",
        "Reviewed": "20100421"
    },
    {
        "col 1": "",
        "Movie": "That Hamilton Woman",
        "Rel.": "1941",
        "Director": "Korda, Alexander",
        "Reviewed": "20080201"
    },
    {
        "col 1": "",
        "Movie": "Spartacus",
        "Rel.": "1960",
        "Director": "Kubrick, Stanley",
        "Reviewed": "20110928"
    },
    {
        "col 1": "",
        "Movie": "Music and Lyrics",
        "Rel.": "2007",
        "Director": "Lawrence, Marc",
        "Reviewed": "20070321"
    },
    {
        "col 1": "",
        "Movie": "Brief Encounter",
        "Rel.": "1945",
        "Director": "Lean, David",
        "Reviewed": "20101110"
    },
    {
        "col 1": "",
        "Movie": "Pay it Forward",
        "Rel.": "2000",
        "Director": "Leder, Mimi",
        "Reviewed": "20101215"
    },
    {
        "col 1": "",
        "Movie": "Wag the Dog",
        "Rel.": "1997",
        "Director": "Levinson, Barry",
        "Reviewed": "20070803"
    },
    {
        "col 1": "",
        "Movie": "Night at the Museum",
        "Rel.": "2006",
        "Director": "Levy, Shawn",
        "Reviewed": "20080118"
    },
    {
        "col 1": "",
        "Movie": "Fair Game",
        "Rel.": "2010",
        "Director": "Liman, Doug",
        "Reviewed": "20110803"
    },
    {
        "col 1": "",
        "Movie": "Picnic",
        "Rel.": "1955",
        "Director": "Logan, Joshua",
        "Reviewed": "20100902"
    },
    {
        "col 1": "",
        "Movie": "Australia",
        "Rel.": "2008",
        "Director": "Luhrmann, Baz",
        "Reviewed": "20110209"
    },
    {
        "col 1": "",
        "Movie": "Before the Devil Knows You're Dead",
        "Rel.": "2007",
        "Director": "Lumet, Sidney",
        "Reviewed": "20080501"
    },
    {
        "col 1": "",
        "Movie": "Network",
        "Rel.": "1976",
        "Director": "Lumet, Sidney",
        "Reviewed": "20080208"
    },
    {
        "col 1": "",
        "Movie": "State of Play",
        "Rel.": "2009",
        "Director": "Macdonald, Kevin",
        "Reviewed": "20090430"
    },
    {
        "col 1": "",
        "Movie": "The Last of the Mohicans",
        "Rel.": "1992",
        "Director": "Mann, Michael",
        "Reviewed": "20090409"
    },
    {
        "col 1": "",
        "Movie": "The Flamingo Kid",
        "Rel.": "1984",
        "Director": "Marshall, Garry",
        "Reviewed": "20101103"
    },
    {
        "col 1": "",
        "Movie": "Cadillac Records",
        "Rel.": "2008",
        "Director": "Martin, Darnell",
        "Reviewed": "20090618"
    },
    {
        "col 1": "",
        "Movie": "An Affair to Remember",
        "Rel.": "1957",
        "Director": "McCarey, Leo",
        "Reviewed": "20100204"
    },
    {
        "col 1": "",
        "Movie": "The Visitor",
        "Rel.": "2007",
        "Director": "McCarthy, Thomas",
        "Reviewed": "20081218"
    },
    {
        "col 1": "",
        "Movie": "Win Win",
        "Rel.": "2011",
        "Director": "McCarthy, Thomas",
        "Reviewed": "20120202"
    },
    {
        "col 1": "",
        "Movie": "Talladega Nights",
        "Rel.": "2006",
        "Director": "McKay, Adam",
        "Reviewed": "20070316"
    },
    {
        "col 1": "",
        "Movie": "V for Vendetta",
        "Rel.": "2005",
        "Director": "McTeigue, James",
        "Reviewed": "20070622"
    },
    {
        "col 1": "",
        "Movie": "The Passion of Ayn Rand",
        "Rel.": "1999",
        "Director": "Menaul, Christopher",
        "Reviewed": "20100114"
    },
    {
        "col 1": "",
        "Movie": "American Beauty",
        "Rel.": "1999",
        "Director": "Mendes, Sam",
        "Reviewed": "20080229"
    },
    {
        "col 1": "",
        "Movie": "Revolutionary Road",
        "Rel.": "2008",
        "Director": "Mendes, Sam",
        "Reviewed": "20090716"
    },
    {
        "col 1": "",
        "Movie": "It's Complicated",
        "Rel.": "2009",
        "Director": "Meyers, Nancy",
        "Reviewed": "20101006"
    },
    {
        "col 1": "",
        "Movie": "Martian Child",
        "Rel.": "2007",
        "Director": "Meyjes, Menno",
        "Reviewed": "20080314"
    },
    {
        "col 1": "",
        "Movie": "Executive Action",
        "Rel.": "1973",
        "Director": "Miller, David",
        "Reviewed": "20111221"
    },
    {
        "col 1": "",
        "Movie": "The Girl from Petrovka",
        "Rel.": "1974",
        "Director": "Miller, Robert Ellis",
        "Reviewed": "20110706"
    },
    {
        "col 1": "",
        "Movie": "Gigi",
        "Rel.": "1958",
        "Director": "Minnelli, Vincente",
        "Reviewed": "20110223"
    },
    {
        "col 1": "",
        "Movie": "Sicko",
        "Rel.": "2007",
        "Director": "Moore, Michael",
        "Reviewed": "20090416"
    },
    {
        "col 1": "",
        "Movie": "How to Make an American Quilt",
        "Rel.": "1995",
        "Director": "Moorhouse, Jocelyn",
        "Reviewed": "20080912"
    },
    {
        "col 1": "",
        "Movie": "The Pursuit of Happyness",
        "Rel.": "2006",
        "Director": "Muccino, Gabriele",
        "Reviewed": "20070608"
    },
    {
        "col 1": "",
        "Movie": "Eat Pray Love",
        "Rel.": "2010",
        "Director": "Murphy, Ryan",
        "Reviewed": "20111228"
    },
    {
        "col 1": "",
        "Movie": "Miss Pettigrew Lives for a Day",
        "Rel.": "2008",
        "Director": "Nalluri, Bharat",
        "Reviewed": "20090507"
    },
    {
        "col 1": "",
        "Movie": "Selena",
        "Rel.": "1997",
        "Director": "Nava, Gregory",
        "Reviewed": "20071214"
    },
    {
        "col 1": "",
        "Movie": "Charlie Wilson's War",
        "Rel.": "2007",
        "Director": "Nichols, Mike",
        "Reviewed": "20080425"
    },
    {
        "col 1": "",
        "Movie": "The Graduate",
        "Rel.": "1967",
        "Director": "Nichols, Mike",
        "Reviewed": "20100915"
    },
    {
        "col 1": "",
        "Movie": "Postcards from the Edge",
        "Rel.": "1990",
        "Director": "Nichols, Mike",
        "Reviewed": "20070118"
    },
    {
        "col 1": "",
        "Movie": "Dark Knight",
        "Rel.": "2008",
        "Director": "Nolan, Christopher",
        "Reviewed": "20080808"
    },
    {
        "col 1": "",
        "Movie": "Ulee's Gold",
        "Rel.": "1997",
        "Director": "Nunez, Victor",
        "Reviewed": "20070420"
    },
    {
        "col 1": "",
        "Movie": "Who Killed the Electric Car?",
        "Rel.": "2005",
        "Director": "Paine, Chris",
        "Reviewed": "20061125"
    },
    {
        "col 1": "",
        "Movie": "Ayn Rand: A Sense of Life",
        "Rel.": "1997",
        "Director": "Paxton, Michael",
        "Reviewed": "20100107"
    },
    {
        "col 1": "",
        "Movie": "Sideways",
        "Rel.": "2004",
        "Director": "Payne, Alexander",
        "Reviewed": "20100401"
    },
    {
        "col 1": "",
        "Movie": "Stop-Loss",
        "Rel.": "2008",
        "Director": "Peirce, Kimberly",
        "Reviewed": "20090806"
    },
    {
        "col 1": "",
        "Movie": "Lifeguard",
        "Rel.": "1976",
        "Director": "Petrie, Daniel",
        "Reviewed": "20111123"
    },
    {
        "col 1": "",
        "Movie": "Charlie Bartlett",
        "Rel.": "2007",
        "Director": "Poll, Jon",
        "Reviewed": "20081106"
    },
    {
        "col 1": "",
        "Movie": "Ghost Writer",
        "Rel.": "2010",
        "Director": "Polanski, Roman",
        "Reviewed": "20110216"
    },
    {
        "col 1": "",
        "Movie": "They Shoot Horses Don't They",
        "Rel.": "1970",
        "Director": "Pollack, Sydney",
        "Reviewed": "20091119"
    },
    {
        "col 1": "",
        "Movie": "The Legend of Bagger Vance",
        "Rel.": "2000",
        "Director": "Redford, Robert",
        "Reviewed": "20081226"
    },
    {
        "col 1": "",
        "Movie": "The Third Man",
        "Rel.": "1949",
        "Director": "Reed, Carol",
        "Reviewed": "20101208"
    },
    {
        "col 1": "",
        "Movie": "The Bucket List",
        "Rel.": "2007",
        "Director": "Reiner, Rob",
        "Reviewed": "20080620"
    },
    {
        "col 1": "",
        "Movie": "A Few Good Men",
        "Rel.": "1992",
        "Director": "Reiner, Rob",
        "Reviewed": "20070601"
    },
    {
        "col 1": "",
        "Movie": "Up in the Air",
        "Rel.": "2009",
        "Director": "Reitman, Jason",
        "Reviewed": "20100708"
    },
    {
        "col 1": "",
        "Movie": "Spy Who Came In from the Cold",
        "Rel.": "1965",
        "Director": "Ritt, Martin",
        "Reviewed": "20090903"
    },
    {
        "col 1": "",
        "Movie": "Bob Roberts",
        "Rel.": "1992",
        "Director": "Robbins, Tim",
        "Reviewed": "20061119"
    },
    {
        "col 1": "",
        "Movie": "Walkabout",
        "Rel.": "1971",
        "Director": "Roeg, Nicolas",
        "Reviewed": "20110209"
    },
    {
        "col 1": "",
        "Movie": "Pleasantville",
        "Rel.": "1998",
        "Director": "Ross, Gary",
        "Reviewed": "20070907"
    },
    {
        "col 1": "",
        "Movie": "Bonneville",
        "Rel.": "2006",
        "Director": "Rowley, Christopher",
        "Reviewed": "20090730"
    },
    {
        "col 1": "",
        "Movie": "The Fighter",
        "Rel.": "2010",
        "Director": "Russell, David O.",
        "Reviewed": "20110406"
    },
    {
        "col 1": "",
        "Movie": "The Ultimate Gift",
        "Rel.": "2007",
        "Director": "Sajbel, Michael",
        "Reviewed": "20080822"
    },
    {
        "col 1": "",
        "Movie": "Follow the Fleet",
        "Rel.": "1936",
        "Director": "Sandrich, Mark",
        "Reviewed": "20070810"
    },
    {
        "col 1": "",
        "Movie": "Colossus: The Forbin Project",
        "Rel.": "1970",
        "Director": "Sargent, Joseph",
        "Reviewed": "20110413"
    },
    {
        "col 1": "",
        "Movie": "Lone Star",
        "Rel.": "1996",
        "Director": "Sayles, John",
        "Reviewed": "20070124"
    },
    {
        "col 1": "",
        "Movie": "Get Low",
        "Rel.": "2009",
        "Director": "Schneider, Aaron",
        "Reviewed": "20110316"
    },
    {
        "col 1": "",
        "Movie": "The Aviator",
        "Rel.": "2004",
        "Director": "Scorsese, Martin",
        "Reviewed": "20070629"
    },
    {
        "col 1": "",
        "Movie": "The Departed",
        "Rel.": "2006",
        "Director": "Scorcese, Martin",
        "Reviewed": "20070615"
    },
    {
        "col 1": "",
        "Movie": "Robin Hood",
        "Rel.": "2010",
        "Director": "Scott, Ridley",
        "Reviewed": "20110112"
    },
    {
        "col 1": "",
        "Movie": "Enemy of the State",
        "Rel.": "1998",
        "Director": "Scott, Tony",
        "Reviewed": "20070406"
    },
    {
        "col 1": "",
        "Movie": "War, Inc.",
        "Rel.": "2008",
        "Director": "Seftel, Joshua",
        "Reviewed": "20081030"
    },
    {
        "col 1": "",
        "Movie": "Evan Almighty",
        "Rel.": "2007",
        "Director": "Shadyac, Tom",
        "Reviewed": "20071019"
    },
    {
        "col 1": "",
        "Movie": "Hairspray",
        "Rel.": "2007",
        "Director": "Shankman, Adam",
        "Reviewed": "20070817"
    },
    {
        "col 1": "",
        "Movie": "Waitress",
        "Rel.": "2007",
        "Director": "Shelly, Adrienne",
        "Reviewed": "20080215"
    },
    {
        "col 1": "",
        "Movie": "The Happening",
        "Rel.": "2008",
        "Director": "Shyamalan, M. Night",
        "Reviewed": "20081127"
    },
    {
        "col 1": "",
        "Movie": "Imitation of Life",
        "Rel.": "1959",
        "Director": "Sirk, Douglas",
        "Reviewed": "20111130"
    },
    {
        "col 1": "",
        "Movie": "RV",
        "Rel.": "2006",
        "Director": "Sonnenberg, Barry",
        "Reviewed": "20061118"
    },
    {
        "col 1": "",
        "Movie": "Imitation of Life (1934)",
        "Rel.": "1934",
        "Director": "Stahl, John",
        "Reviewed": "20111207"
    },
    {
        "col 1": "",
        "Movie": "WALL-E",
        "Rel.": "2008",
        "Director": "Stanton, Andrew",
        "Reviewed": "20081120"
    },
    {
        "col 1": "",
        "Movie": "Forgetting Sarah Marshall",
        "Rel.": "2008",
        "Director": "Stoller, Nicholas",
        "Reviewed": "20081010"
    },
    {
        "col 1": "",
        "Movie": "JFK",
        "Rel.": "1991",
        "Director": "Stone, Oliver",
        "Reviewed": "20081113"
    },
    {
        "col 1": "",
        "Movie": "W.",
        "Rel.": "2008",
        "Director": "Stone, Oliver",
        "Reviewed": "20090305"
    },
    {
        "col 1": "",
        "Movie": "Grace is Gone",
        "Rel.": "2008",
        "Director": "Strouse, James",
        "Reviewed": "20081016"
    },
    {
        "col 1": "",
        "Movie": "Fool's Gold",
        "Rel.": "2008",
        "Director": "Tennant, Andy",
        "Reviewed": "20080703"
    },
    {
        "col 1": "",
        "Movie": "Out of the Past",
        "Rel.": "1947",
        "Director": "Tourneur, Jacques",
        "Reviewed": "20091015"
    },
    {
        "col 1": "",
        "Movie": "Silent Running",
        "Rel.": "1972",
        "Director": "Trumbull, Douglas",
        "Reviewed": "20101013"
    },
    {
        "col 1": "",
        "Movie": "The International",
        "Rel.": "2009",
        "Director": "Tykwer, Tom",
        "Reviewed": "20090723"
    },
    {
        "col 1": "",
        "Movie": "City Slickers",
        "Rel.": "1991",
        "Director": "Underwood, Ron",
        "Reviewed": "20110824"
    },
    {
        "col 1": "",
        "Movie": "Good Will Hunting",
        "Rel.": "1997",
        "Director": "Van Sant, Gus",
        "Reviewed": "20090402"
    },
    {
        "col 1": "",
        "Movie": "Milk",
        "Rel.": "2008",
        "Director": "Van Zant, Gus",
        "Reviewed": "20090709"
    },
    {
        "col 1": "",
        "Movie": "Black Book",
        "Rel.": "2006",
        "Director": "Verhoeven, Paul",
        "Reviewed": "20071123"
    },
    {
        "col 1": "",
        "Movie": "Gilda",
        "Rel.": "1946",
        "Director": "Vidor, Charles",
        "Reviewed": "20100211"
    },
    {
        "col 1": "",
        "Movie": "The Matrix",
        "Rel.": "1999",
        "Director": "Wachowski, A and L",
        "Reviewed": "20070330"
    },
    {
        "col 1": "",
        "Movie": "Secretariat",
        "Rel.": "2010",
        "Director": "Wallace, Randall",
        "Reviewed": "20110907"
    },
    {
        "col 1": "",
        "Movie": "The Great Debaters",
        "Rel.": "2007",
        "Director": "Washington, Denzel",
        "Reviewed": "20080523"
    },
    {
        "col 1": "",
        "Movie": "(500) Days of Summer",
        "Rel.": "2009",
        "Director": "Webb, Marc",
        "Reviewed": "20100311"
    },
    {
        "col 1": "",
        "Movie": "The Way Back",
        "Rel.": "2010",
        "Director": "Weir, Peter",
        "Reviewed": "20110608"
    },
    {
        "col 1": "",
        "Movie": "A Better Life",
        "Rel.": "2011",
        "Director": "Weitz, Chris",
        "Reviewed": "20111116"
    },
    {
        "col 1": "",
        "Movie": "The Company Men",
        "Rel.": "2010",
        "Director": "Wells, John",
        "Reviewed": "20110810"
    },
    {
        "col 1": "",
        "Movie": "Lost Weekend",
        "Rel.": "1945",
        "Director": "Wilder, Billy",
        "Reviewed": "20110427"
    },
    {
        "col 1": "",
        "Movie": "Road to Guantanamo",
        "Rel.": "2006",
        "Director": "Winterbottom, Michael",
        "Reviewed": "20070207"
    },
    {
        "col 1": "",
        "Movie": "Hot Fuzz",
        "Rel.": "2007",
        "Director": "Wright, Edgar",
        "Reviewed": "20070504"
    },
    {
        "col 1": "",
        "Movie": "The Best Years of Our Lives",
        "Rel.": "1946",
        "Director": "Wyler, William",
        "Reviewed": "20101117"
    },
    {
        "col 1": "",
        "Movie": "High Noon",
        "Rel.": "1952",
        "Director": "Zinnemann, Fred",
        "Reviewed": "20091029"
    },
    {
        "col 1": "",
        "Movie": "Blood Diamond",
        "Rel.": "2006",
        "Director": "Zwick, Edward",
        "Reviewed": "20070706"
    },
    {
        "col 1": "",
        "Movie": "Legends of the Fall",
        "Rel.": "1995",
        "Director": "Zwick, Edward",
        "Reviewed": "20100714"
    },
    {
        "col 1": "",
        "Movie": "",
        "Rel.": "",
        "Director": "",
        "Reviewed": ""
    }
]