[
    {
        "Saint": "Abraham the Syrian",
        "Anglican": "--",
        "Ethiopian": "Yes",
        "Orthodox": "--",
        "Catholic": "--",
        "Non-historical": "--"
    },
    {
        "Saint": "Adalbert of Magdeburg",
        "Anglican": "--",
        "Ethiopian": "--",
        "Orthodox": "--",
        "Catholic": "Yes",
        "Non-historical": "--"
    },
    {
        "Saint": "Adalbert of Prague",
        "Anglican": "--",
        "Ethiopian": "--",
        "Orthodox": "--",
        "Catholic": "Yes",
        "Non-historical": "--"
    },
    {
        "Saint": "Adelaide of Italy",
        "Anglican": "--",
        "Ethiopian": "--",
        "Orthodox": "--",
        "Catholic": "Yes",
        "Non-historical": "--"
    },
    {
        "Saint": "Pope Adeodatus I",
        "Anglican": "--",
        "Ethiopian": "--",
        "Orthodox": "--",
        "Catholic": "Yes",
        "Non-historical": "--"
    },
    {
        "Saint": "Adrian of Nicomedia",
        "Anglican": "--",
        "Ethiopian": "--",
        "Orthodox": "Yes",
        "Catholic": "Yes",
        "Non-historical": "--"
    },
    {
        "Saint": "Pope Adrian III",
        "Anglican": "--",
        "Ethiopian": "--",
        "Orthodox": "--",
        "Catholic": "Yes",
        "Non-historical": "--"
    },
    {
        "Saint": "Pope Agapitus I",
        "Anglican": "--",
        "Ethiopian": "--",
        "Orthodox": "--",
        "Catholic": "Yes",
        "Non-historical": "--"
    },
    {
        "Saint": "Pope Agatho",
        "Anglican": "--",
        "Ethiopian": "--",
        "Orthodox": "--",
        "Catholic": "Yes",
        "Non-historical": "--"
    },
    {
        "Saint": "Agnes",
        "Anglican": "--",
        "Ethiopian": "--",
        "Orthodox": "--",
        "Catholic": "Yes",
        "Non-historical": "--"
    },
    {
        "Saint": "Aidan of Lindisfarne",
        "Anglican": "Yes",
        "Ethiopian": "--",
        "Orthodox": "--",
        "Catholic": "Yes",
        "Non-historical": "--"
    },
    {
        "Saint": "Alban",
        "Anglican": "Yes",
        "Ethiopian": "--",
        "Orthodox": "Yes",
        "Catholic": "Yes",
        "Non-historical": "--"
    },
    {
        "Saint": "Pope Alexander I",
        "Anglican": "--",
        "Ethiopian": "--",
        "Orthodox": "--",
        "Catholic": "Yes",
        "Non-historical": "--"
    },
    {
        "Saint": "Alphege",
        "Anglican": "--",
        "Ethiopian": "--",
        "Orthodox": "--",
        "Catholic": "Yes",
        "Non-historical": "--"
    },
    {
        "Saint": "Ambrose of Milan",
        "Anglican": "Yes",
        "Ethiopian": "--",
        "Orthodox": "Yes",
        "Catholic": "Yes",
        "Non-historical": "--"
    },
    {
        "Saint": "Pope Anacletus",
        "Anglican": "--",
        "Ethiopian": "--",
        "Orthodox": "--",
        "Catholic": "Yes",
        "Non-historical": "--"
    },
    {
        "Saint": "Pope Anastasius I",
        "Anglican": "--",
        "Ethiopian": "--",
        "Orthodox": "--",
        "Catholic": "Yes",
        "Non-historical": "--"
    },
    {
        "Saint": "Andrew",
        "Anglican": "Yes",
        "Ethiopian": "Yes",
        "Orthodox": "Yes",
        "Catholic": "Yes",
        "Non-historical": "--"
    },
    {
        "Saint": "Pope Anicetus",
        "Anglican": "--",
        "Ethiopian": "--",
        "Orthodox": "--",
        "Catholic": "Yes",
        "Non-historical": "--"
    },
    {
        "Saint": "Anselm",
        "Anglican": "Yes",
        "Ethiopian": "--",
        "Orthodox": "--",
        "Catholic": "Yes",
        "Non-historical": "--"
    },
    {
        "Saint": "Pope Antheros",
        "Anglican": "--",
        "Ethiopian": "--",
        "Orthodox": "--",
        "Catholic": "Yes",
        "Non-historical": "--"
    },
    {
        "Saint": "Anthony the Great",
        "Anglican": "--",
        "Ethiopian": "Yes",
        "Orthodox": "Yes",
        "Catholic": "Yes",
        "Non-historical": "--"
    },
    {
        "Saint": "Anthony of Padua",
        "Anglican": "Yes",
        "Ethiopian": "--",
        "Orthodox": "--",
        "Catholic": "Yes",
        "Non-historical": "--"
    },
    {
        "Saint": "Athanasius of Alexandria",
        "Anglican": "Yes",
        "Ethiopian": "Yes",
        "Orthodox": "Yes",
        "Catholic": "Yes",
        "Non-historical": "--"
    },
    {
        "Saint": "Augustine of Hippo",
        "Anglican": "Yes",
        "Ethiopian": "--",
        "Orthodox": "--",
        "Catholic": "Yes",
        "Non-historical": "--"
    },
    {
        "Saint": "Augustine of Canterbury",
        "Anglican": "Yes",
        "Ethiopian": "--",
        "Orthodox": "--",
        "Catholic": "Yes",
        "Non-historical": "--"
    },
    {
        "Saint": "Barbara[?]",
        "Anglican": "--",
        "Ethiopian": "Yes",
        "Orthodox": "Yes",
        "Catholic": "--",
        "Non-historical": "Possible"
    },
    {
        "Saint": "Barnabas",
        "Anglican": "Yes",
        "Ethiopian": "Yes",
        "Orthodox": "Yes",
        "Catholic": "Yes",
        "Non-historical": "--"
    },
    {
        "Saint": "Bartholomew",
        "Anglican": "Yes",
        "Ethiopian": "--",
        "Orthodox": "--",
        "Catholic": "Yes",
        "Non-historical": "--"
    },
    {
        "Saint": "Basil the Great",
        "Anglican": "Yes",
        "Ethiopian": "--",
        "Orthodox": "Yes",
        "Catholic": "--",
        "Non-historical": "--"
    },
    {
        "Saint": "Benedict",
        "Anglican": "--",
        "Ethiopian": "--",
        "Orthodox": "--",
        "Catholic": "Yes",
        "Non-historical": "--"
    },
    {
        "Saint": "Benedict of Aniane[?]",
        "Anglican": "--",
        "Ethiopian": "--",
        "Orthodox": "--",
        "Catholic": "Yes",
        "Non-historical": "--"
    },
    {
        "Saint": "Pope Benedict II",
        "Anglican": "--",
        "Ethiopian": "--",
        "Orthodox": "--",
        "Catholic": "Yes",
        "Non-historical": "--"
    },
    {
        "Saint": "Bernard of Clairvaux",
        "Anglican": "Yes",
        "Ethiopian": "--",
        "Orthodox": "--",
        "Catholic": "Yes",
        "Non-historical": "--"
    },
    {
        "Saint": "Birgitta",
        "Anglican": "--",
        "Ethiopian": "--",
        "Orthodox": "--",
        "Catholic": "Yes",
        "Non-historical": "--"
    },
    {
        "Saint": "Bride",
        "Anglican": "--",
        "Ethiopian": "--",
        "Orthodox": "--",
        "Catholic": "Yes",
        "Non-historical": "--"
    },
    {
        "Saint": "Bride of the Isles",
        "Anglican": "--",
        "Ethiopian": "--",
        "Orthodox": "--",
        "Catholic": "Yes",
        "Non-historical": "--"
    },
    {
        "Saint": "Bridget",
        "Anglican": "--",
        "Ethiopian": "--",
        "Orthodox": "--",
        "Catholic": "Yes",
        "Non-historical": "--"
    },
    {
        "Saint": "BRIGID of Ireland",
        "Anglican": "--",
        "Ethiopian": "--",
        "Orthodox": "--",
        "Catholic": "Yes",
        "Non-historical": "--"
    },
    {
        "Saint": "Brigid of Kildare",
        "Anglican": "--",
        "Ethiopian": "--",
        "Orthodox": "--",
        "Catholic": "Yes",
        "Non-historical": "--"
    },
    {
        "Saint": "Brigit",
        "Anglican": "--",
        "Ethiopian": "--",
        "Orthodox": "--",
        "Catholic": "Yes",
        "Non-historical": "--"
    },
    {
        "Saint": "Boniface",
        "Anglican": "Yes",
        "Ethiopian": "--",
        "Orthodox": "Yes",
        "Catholic": "Yes",
        "Non-historical": "--"
    },
    {
        "Saint": "Pope Boniface I",
        "Anglican": "--",
        "Ethiopian": "--",
        "Orthodox": "--",
        "Catholic": "Yes",
        "Non-historical": "--"
    },
    {
        "Saint": "Pope Boniface IV",
        "Anglican": "--",
        "Ethiopian": "--",
        "Orthodox": "--",
        "Catholic": "Yes",
        "Non-historical": "--"
    },
    {
        "Saint": "Bruno of Querfurt",
        "Anglican": "--",
        "Ethiopian": "--",
        "Orthodox": "--",
        "Catholic": "Yes",
        "Non-historical": "--"
    },
    {
        "Saint": "Pope Caius",
        "Anglican": "--",
        "Ethiopian": "--",
        "Orthodox": "--",
        "Catholic": "Yes",
        "Non-historical": "--"
    },
    {
        "Saint": "Pope Callistus I",
        "Anglican": "--",
        "Ethiopian": "--",
        "Orthodox": "--",
        "Catholic": "Yes",
        "Non-historical": "--"
    },
    {
        "Saint": "Casimir",
        "Anglican": "--",
        "Ethiopian": "--",
        "Orthodox": "--",
        "Catholic": "Yes",
        "Non-historical": "--"
    },
    {
        "Saint": "Catherine of Alexandria",
        "Anglican": "--",
        "Ethiopian": "--",
        "Orthodox": "--",
        "Catholic": "Yes",
        "Non-historical": "--"
    },
    {
        "Saint": "Catherine of Siena",
        "Anglican": "Yes",
        "Ethiopian": "--",
        "Orthodox": "--",
        "Catholic": "Yes",
        "Non-historical": "--"
    },
    {
        "Saint": "Pope Celestine I",
        "Anglican": "--",
        "Ethiopian": "--",
        "Orthodox": "--",
        "Catholic": "Yes",
        "Non-historical": "--"
    },
    {
        "Saint": "Pope Celestine V",
        "Anglican": "--",
        "Ethiopian": "--",
        "Orthodox": "--",
        "Catholic": "Yes",
        "Non-historical": "--"
    },
    {
        "Saint": "Charlie",
        "Anglican": "--",
        "Ethiopian": "--",
        "Orthodox": "--",
        "Catholic": "Yes",
        "Non-historical": "--"
    },
    {
        "Saint": "Christopher",
        "Anglican": "--",
        "Ethiopian": "--",
        "Orthodox": "--",
        "Catholic": "Yes",
        "Non-historical": "--"
    },
    {
        "Saint": "Pope Clement I",
        "Anglican": "--",
        "Ethiopian": "--",
        "Orthodox": "--",
        "Catholic": "Yes",
        "Non-historical": "--"
    },
    {
        "Saint": "Columba",
        "Anglican": "Yes",
        "Ethiopian": "--",
        "Orthodox": "--",
        "Catholic": "Yes",
        "Non-historical": "--"
    },
    {
        "Saint": "Columbanus",
        "Anglican": "--",
        "Ethiopian": "--",
        "Orthodox": "--",
        "Catholic": "Yes",
        "Non-historical": "--"
    },
    {
        "Saint": "Pope Cornelius",
        "Anglican": "--",
        "Ethiopian": "--",
        "Orthodox": "--",
        "Catholic": "Yes",
        "Non-historical": "--"
    },
    {
        "Saint": "Cunigunde of Luxemburg[?]",
        "Anglican": "--",
        "Ethiopian": "--",
        "Orthodox": "--",
        "Catholic": "Yes",
        "Non-historical": "--"
    },
    {
        "Saint": "Cyril, Apostle to the Slavs",
        "Anglican": "??",
        "Ethiopian": "??",
        "Orthodox": "Yes",
        "Catholic": "??",
        "Non-historical": "--"
    },
    {
        "Saint": "Cyril of Alexandria",
        "Anglican": "Yes",
        "Ethiopian": "Yes",
        "Orthodox": "Yes",
        "Catholic": "Yes",
        "Non-historical": "--"
    },
    {
        "Saint": "Cyril of Jerusalem",
        "Anglican": "Yes",
        "Ethiopian": "Yes",
        "Orthodox": "Yes",
        "Catholic": "Yes",
        "Non-historical": "--"
    },
    {
        "Saint": "Pope Damasus I",
        "Anglican": "--",
        "Ethiopian": "--",
        "Orthodox": "--",
        "Catholic": "Yes",
        "Non-historical": "--"
    },
    {
        "Saint": "David (Dewi) of Wales",
        "Anglican": "Yes",
        "Ethiopian": "--",
        "Orthodox": "--",
        "Catholic": "--",
        "Non-historical": "--"
    },
    {
        "Saint": "Denis",
        "Anglican": "--",
        "Ethiopian": "--",
        "Orthodox": "Yes",
        "Catholic": "Yes",
        "Non-historical": "--"
    },
    {
        "Saint": "Dismas",
        "Anglican": "--",
        "Ethiopian": "--",
        "Orthodox": "Yes",
        "Catholic": "Yes",
        "Non-historical": "--"
    },
    {
        "Saint": "Dunstan",
        "Anglican": "Yes",
        "Ethiopian": "--",
        "Orthodox": "Yes",
        "Catholic": "Yes",
        "Non-historical": "--"
    },
    {
        "Saint": "Pope Dionysius",
        "Anglican": "--",
        "Ethiopian": "--",
        "Orthodox": "--",
        "Catholic": "Yes",
        "Non-historical": "--"
    },
    {
        "Saint": "Edith Stein",
        "Anglican": "--",
        "Ethiopian": "--",
        "Orthodox": "--",
        "Catholic": "Yes",
        "Non-historical": "--"
    },
    {
        "Saint": "Edward the Martyr",
        "Anglican": "??",
        "Ethiopian": "--",
        "Orthodox": "Yes",
        "Catholic": "Yes",
        "Non-historical": "--"
    },
    {
        "Saint": "Pope Eleutherius",
        "Anglican": "--",
        "Ethiopian": "--",
        "Orthodox": "--",
        "Catholic": "Yes",
        "Non-historical": "--"
    },
    {
        "Saint": "Elizabeth Ann Seton[?]",
        "Anglican": "--",
        "Ethiopian": "--",
        "Orthodox": "--",
        "Catholic": "Yes",
        "Non-historical": "--"
    },
    {
        "Saint": "Emelia[?]",
        "Anglican": "--",
        "Ethiopian": "--",
        "Orthodox": "Yes",
        "Catholic": "--",
        "Non-historical": "--"
    },
    {
        "Saint": "Ephraim the Syrian",
        "Anglican": "--",
        "Ethiopian": "--",
        "Orthodox": "Yes",
        "Catholic": "Yes",
        "Non-historical": "--"
    },
    {
        "Saint": "Ethelbert of Kent",
        "Anglican": "--",
        "Ethiopian": "--",
        "Orthodox": "--",
        "Catholic": "Yes",
        "Non-historical": "--"
    },
    {
        "Saint": "Pope Eugene I",
        "Anglican": "--",
        "Ethiopian": "--",
        "Orthodox": "--",
        "Catholic": "Yes",
        "Non-historical": "--"
    },
    {
        "Saint": "Pope Eusebius",
        "Anglican": "--",
        "Ethiopian": "--",
        "Orthodox": "--",
        "Catholic": "Yes",
        "Non-historical": "--"
    },
    {
        "Saint": "Pope Eutychian",
        "Anglican": "--",
        "Ethiopian": "--",
        "Orthodox": "--",
        "Catholic": "Yes",
        "Non-historical": "--"
    },
    {
        "Saint": "Pope Evaristus",
        "Anglican": "--",
        "Ethiopian": "--",
        "Orthodox": "--",
        "Catholic": "Yes",
        "Non-historical": "--"
    },
    {
        "Saint": "Pope Fabian",
        "Anglican": "--",
        "Ethiopian": "Yes",
        "Orthodox": "Yes",
        "Catholic": "Yes",
        "Non-historical": "--"
    },
    {
        "Saint": "Pope Felix I",
        "Anglican": "--",
        "Ethiopian": "--",
        "Orthodox": "--",
        "Catholic": "Yes",
        "Non-historical": "--"
    },
    {
        "Saint": "Pope Felix II",
        "Anglican": "--",
        "Ethiopian": "--",
        "Orthodox": "--",
        "Catholic": "Yes",
        "Non-historical": "--"
    },
    {
        "Saint": "Pope Felix III",
        "Anglican": "--",
        "Ethiopian": "--",
        "Orthodox": "--",
        "Catholic": "Yes",
        "Non-historical": "--"
    },
    {
        "Saint": "Pope Felix IV",
        "Anglican": "--",
        "Ethiopian": "--",
        "Orthodox": "--",
        "Catholic": "Yes",
        "Non-historical": "--"
    },
    {
        "Saint": "Ffraid",
        "Anglican": "--",
        "Ethiopian": "--",
        "Orthodox": "--",
        "Catholic": "Yes",
        "Non-historical": "--"
    },
    {
        "Saint": "Francis of Assisi",
        "Anglican": "Yes",
        "Ethiopian": "--",
        "Orthodox": "--",
        "Catholic": "Yes",
        "Non-historical": "--"
    },
    {
        "Saint": "Francis Xavier",
        "Anglican": "Yes",
        "Ethiopian": "--",
        "Orthodox": "--",
        "Catholic": "Yes",
        "Non-historical": "--"
    },
    {
        "Saint": "Gall",
        "Anglican": "--",
        "Ethiopian": "--",
        "Orthodox": "--",
        "Catholic": "Yes",
        "Non-historical": "--"
    },
    {
        "Saint": "Pope Gelasius I",
        "Anglican": "--",
        "Ethiopian": "--",
        "Orthodox": "--",
        "Catholic": "Yes",
        "Non-historical": "--"
    },
    {
        "Saint": "George",
        "Anglican": "Yes",
        "Ethiopian": "--",
        "Orthodox": "--",
        "Catholic": "--",
        "Non-historical": "Possible"
    },
    {
        "Saint": "Gregory the Illuminator",
        "Anglican": "--",
        "Ethiopian": "--",
        "Orthodox": "Yes",
        "Catholic": "Yes",
        "Non-historical": "--"
    },
    {
        "Saint": "Gregory Nazianzus",
        "Anglican": "Yes",
        "Ethiopian": "--",
        "Orthodox": "Yes",
        "Catholic": "--",
        "Non-historical": "--"
    },
    {
        "Saint": "Gregory of Nyssa",
        "Anglican": "--",
        "Ethiopian": "--",
        "Orthodox": "Yes",
        "Catholic": "--",
        "Non-historical": "--"
    },
    {
        "Saint": "Pope Gregory I",
        "Anglican": "--",
        "Ethiopian": "--",
        "Orthodox": "--",
        "Catholic": "Yes",
        "Non-historical": "--"
    },
    {
        "Saint": "Pope Gregory II",
        "Anglican": "--",
        "Ethiopian": "--",
        "Orthodox": "--",
        "Catholic": "Yes",
        "Non-historical": "--"
    },
    {
        "Saint": "Pope Gregory III",
        "Anglican": "--",
        "Ethiopian": "--",
        "Orthodox": "--",
        "Catholic": "Yes",
        "Non-historical": "--"
    },
    {
        "Saint": "Pope Gregory VII",
        "Anglican": "--",
        "Ethiopian": "--",
        "Orthodox": "--",
        "Catholic": "Yes",
        "Non-historical": "--"
    },
    {
        "Saint": "Hedwig of Andechs",
        "Anglican": "--",
        "Ethiopian": "--",
        "Orthodox": "--",
        "Catholic": "Yes",
        "Non-historical": "--"
    },
    {
        "Saint": "Helena",
        "Anglican": "--",
        "Ethiopian": "--",
        "Orthodox": "Yes",
        "Catholic": "Yes",
        "Non-historical": "--"
    },
    {
        "Saint": "Henry I, Holy Roman Emperor",
        "Anglican": "--",
        "Ethiopian": "--",
        "Orthodox": "--",
        "Catholic": "Yes",
        "Non-historical": "--"
    },
    {
        "Saint": "Herman of Alaska",
        "Anglican": "--",
        "Ethiopian": "--",
        "Orthodox": "Yes",
        "Catholic": "--",
        "Non-historical": "--"
    },
    {
        "Saint": "Pope Hilarius",
        "Anglican": "--",
        "Ethiopian": "--",
        "Orthodox": "--",
        "Catholic": "Yes",
        "Non-historical": "--"
    },
    {
        "Saint": "Pope Hildebrand[?]",
        "Anglican": "--",
        "Ethiopian": "--",
        "Orthodox": "--",
        "Catholic": "Yes",
        "Non-historical": "--"
    },
    {
        "Saint": "Pope Hormisdas",
        "Anglican": "--",
        "Ethiopian": "--",
        "Orthodox": "--",
        "Catholic": "Yes",
        "Non-historical": "--"
    },
    {
        "Saint": "Pope Hyginus",
        "Anglican": "--",
        "Ethiopian": "--",
        "Orthodox": "--",
        "Catholic": "Yes",
        "Non-historical": "--"
    },
    {
        "Saint": "Ignatius of Antioch",
        "Anglican": "Yes",
        "Ethiopian": "Yes",
        "Orthodox": "Yes",
        "Catholic": "Yes",
        "Non-historical": "--"
    },
    {
        "Saint": "Ignatius Loyola",
        "Anglican": "Yes",
        "Ethiopian": "--",
        "Orthodox": "--",
        "Catholic": "Yes",
        "Non-historical": "--"
    },
    {
        "Saint": "Pope Innocent I",
        "Anglican": "--",
        "Ethiopian": "--",
        "Orthodox": "--",
        "Catholic": "Yes",
        "Non-historical": "--"
    },
    {
        "Saint": "Irenaeus of Lyons",
        "Anglican": "Yes",
        "Ethiopian": "Yes",
        "Orthodox": "Yes",
        "Catholic": "Yes",
        "Non-historical": "--"
    },
    {
        "Saint": "Isidore of Seville",
        "Anglican": "??",
        "Ethiopian": "--",
        "Orthodox": "--",
        "Catholic": "Yes",
        "Non-historical": "--"
    },
    {
        "Saint": "Jadwiga",
        "Anglican": "--",
        "Ethiopian": "--",
        "Orthodox": "--",
        "Catholic": "Yes",
        "Non-historical": "--"
    },
    {
        "Saint": "James the Great",
        "Anglican": "Yes",
        "Ethiopian": "--",
        "Orthodox": "--",
        "Catholic": "Yes",
        "Non-historical": "--"
    },
    {
        "Saint": "James the Less[?]",
        "Anglican": "Yes",
        "Ethiopian": "--",
        "Orthodox": "--",
        "Catholic": "Yes",
        "Non-historical": "--"
    },
    {
        "Saint": "Jerome",
        "Anglican": "Yes",
        "Ethiopian": "--",
        "Orthodox": "--",
        "Catholic": "Yes",
        "Non-historical": "--"
    },
    {
        "Saint": "John the Baptist",
        "Anglican": "Yes",
        "Ethiopian": "Yes",
        "Orthodox": "Yes",
        "Catholic": "Yes",
        "Non-historical": "--"
    },
    {
        "Saint": "John Baptist de La Salle",
        "Anglican": "--",
        "Ethiopian": "--",
        "Orthodox": "--",
        "Catholic": "Yes",
        "Non-historical": "--"
    },
    {
        "Saint": "John Bosco",
        "Anglican": "--",
        "Ethiopian": "--",
        "Orthodox": "--",
        "Catholic": "Yes",
        "Non-historical": "--"
    },
    {
        "Saint": "John Chrysostom",
        "Anglican": "Yes",
        "Ethiopian": "--",
        "Orthodox": "Yes",
        "Catholic": "--",
        "Non-historical": "--"
    },
    {
        "Saint": "John Climacus",
        "Anglican": "--",
        "Ethiopian": "--",
        "Orthodox": "Yes",
        "Catholic": "Yes",
        "Non-historical": "--"
    },
    {
        "Saint": "John of the Cross",
        "Anglican": "Yes",
        "Ethiopian": "--",
        "Orthodox": "--",
        "Catholic": "Yes",
        "Non-historical": "--"
    },
    {
        "Saint": "John of Damascus",
        "Anglican": "--",
        "Ethiopian": "--",
        "Orthodox": "Yes",
        "Catholic": "Yes",
        "Non-historical": "--"
    },
    {
        "Saint": "John the Evangelist",
        "Anglican": "Yes",
        "Ethiopian": "Yes",
        "Orthodox": "Yes",
        "Catholic": "Yes",
        "Non-historical": "--"
    },
    {
        "Saint": "John Maron",
        "Anglican": "--",
        "Ethiopian": "--",
        "Orthodox": "--",
        "Catholic": "Yes",
        "Non-historical": "--"
    },
    {
        "Saint": "Pope John I",
        "Anglican": "--",
        "Ethiopian": "--",
        "Orthodox": "--",
        "Catholic": "Yes",
        "Non-historical": "--"
    },
    {
        "Saint": "Josaphat",
        "Anglican": "--",
        "Ethiopian": "--",
        "Orthodox": "--",
        "Catholic": "Yes",
        "Non-historical": "Possible"
    },
    {
        "Saint": "Joseph the Betrothed",
        "Anglican": "Yes",
        "Ethiopian": "Yes",
        "Orthodox": "Yes",
        "Catholic": "Yes",
        "Non-historical": "--"
    },
    {
        "Saint": "Jude[?]",
        "Anglican": "Yes",
        "Ethiopian": "--",
        "Orthodox": "--",
        "Catholic": "Yes",
        "Non-historical": "--"
    },
    {
        "Saint": "Pope Julius I",
        "Anglican": "--",
        "Ethiopian": "--",
        "Orthodox": "--",
        "Catholic": "Yes",
        "Non-historical": "--"
    },
    {
        "Saint": "Katherine of Alexandria",
        "Anglican": "--",
        "Ethiopian": "--",
        "Orthodox": "--",
        "Catholic": "Yes",
        "Non-historical": "--"
    },
    {
        "Saint": "Justin Martyr",
        "Anglican": "Yes",
        "Ethiopian": "Yes",
        "Orthodox": "Yes",
        "Catholic": "Yes",
        "Non-historical": "--"
    },
    {
        "Saint": "Lazarus",
        "Anglican": "Yes",
        "Ethiopian": "Yes",
        "Orthodox": "Yes",
        "Catholic": "Yes",
        "Non-historical": "--"
    },
    {
        "Saint": "Pope Leo I",
        "Anglican": "--",
        "Ethiopian": "--",
        "Orthodox": "--",
        "Catholic": "Yes",
        "Non-historical": "--"
    },
    {
        "Saint": "Pope Leo II",
        "Anglican": "--",
        "Ethiopian": "--",
        "Orthodox": "--",
        "Catholic": "Yes",
        "Non-historical": "--"
    },
    {
        "Saint": "Pope Leo III",
        "Anglican": "--",
        "Ethiopian": "--",
        "Orthodox": "--",
        "Catholic": "Yes",
        "Non-historical": "--"
    },
    {
        "Saint": "Pope Leo IV",
        "Anglican": "--",
        "Ethiopian": "--",
        "Orthodox": "--",
        "Catholic": "Yes",
        "Non-historical": "--"
    },
    {
        "Saint": "Pope Leo IX",
        "Anglican": "--",
        "Ethiopian": "--",
        "Orthodox": "--",
        "Catholic": "Yes",
        "Non-historical": "--"
    },
    {
        "Saint": "Pope Linus",
        "Anglican": "--",
        "Ethiopian": "--",
        "Orthodox": "--",
        "Catholic": "Yes",
        "Non-historical": "--"
    },
    {
        "Saint": "Lorenzo Ruiz[?]",
        "Anglican": "--",
        "Ethiopian": "--",
        "Orthodox": "--",
        "Catholic": "Yes",
        "Non-historical": "--"
    },
    {
        "Saint": "Louis",
        "Anglican": "--",
        "Ethiopian": "--",
        "Orthodox": "--",
        "Catholic": "Yes",
        "Non-historical": "--"
    },
    {
        "Saint": "Pope Lucius I",
        "Anglican": "--",
        "Ethiopian": "--",
        "Orthodox": "--",
        "Catholic": "Yes",
        "Non-historical": "--"
    },
    {
        "Saint": "Lucy of Syracuse",
        "Anglican": "Yes",
        "Ethiopian": "--",
        "Orthodox": "Yes",
        "Catholic": "Yes",
        "Non-historical": "--"
    },
    {
        "Saint": "Luke the Evangelist",
        "Anglican": "Yes",
        "Ethiopian": "Yes",
        "Orthodox": "Yes",
        "Catholic": "Yes",
        "Non-historical": "--"
    },
    {
        "Saint": "Mary of the Gael",
        "Anglican": "--",
        "Ethiopian": "--",
        "Orthodox": "--",
        "Catholic": "Yes",
        "Non-historical": "--"
    },
    {
        "Saint": "Macrina[?]",
        "Anglican": "?",
        "Ethiopian": "Yes",
        "Orthodox": "Yes",
        "Catholic": "Yes",
        "Non-historical": "--"
    },
    {
        "Saint": "Pope Marcellinus",
        "Anglican": "--",
        "Ethiopian": "--",
        "Orthodox": "--",
        "Catholic": "Yes",
        "Non-historical": "--"
    },
    {
        "Saint": "Pope Marcellus I",
        "Anglican": "--",
        "Ethiopian": "--",
        "Orthodox": "--",
        "Catholic": "Yes",
        "Non-historical": "--"
    },
    {
        "Saint": "Pope Marcus",
        "Anglican": "--",
        "Ethiopian": "--",
        "Orthodox": "--",
        "Catholic": "Yes",
        "Non-historical": "--"
    },
    {
        "Saint": "Margaret of Scotland[?]",
        "Anglican": "--",
        "Ethiopian": "--",
        "Orthodox": "--",
        "Catholic": "Yes",
        "Non-historical": "--"
    },
    {
        "Saint": "Margarita",
        "Anglican": "--",
        "Ethiopian": "--",
        "Orthodox": "--",
        "Catholic": "Yes",
        "Non-historical": "--"
    },
    {
        "Saint": "Mark the Evangelist",
        "Anglican": "Yes",
        "Ethiopian": "Yes",
        "Orthodox": "Yes",
        "Catholic": "Yes",
        "Non-historical": "--"
    },
    {
        "Saint": "Martin of Tours",
        "Anglican": "Yes",
        "Ethiopian": "--",
        "Orthodox": "--",
        "Catholic": "Yes",
        "Non-historical": "--"
    },
    {
        "Saint": "Pope Martin I",
        "Anglican": "--",
        "Ethiopian": "--",
        "Orthodox": "--",
        "Catholic": "Yes",
        "Non-historical": "--"
    },
    {
        "Saint": "The Virgin Mary",
        "Anglican": "Yes",
        "Ethiopian": "Yes",
        "Orthodox": "Yes",
        "Catholic": "Yes",
        "Non-historical": "--"
    },
    {
        "Saint": "Mary Magdalene",
        "Anglican": "Yes",
        "Ethiopian": "Yes",
        "Orthodox": "Yes",
        "Catholic": "Yes",
        "Non-historical": "--"
    },
    {
        "Saint": "Matheos the Poor",
        "Anglican": "--",
        "Ethiopian": "Yes",
        "Orthodox": "--",
        "Catholic": "--",
        "Non-historical": "--"
    },
    {
        "Saint": "Matthew the Evangelist",
        "Anglican": "Yes",
        "Ethiopian": "Yes",
        "Orthodox": "Yes",
        "Catholic": "Yes",
        "Non-historical": "--"
    },
    {
        "Saint": "Matthias",
        "Anglican": "Yes",
        "Ethiopian": "Yes",
        "Orthodox": "Yes",
        "Catholic": "Yes",
        "Non-historical": "--"
    },
    {
        "Saint": "Maurice",
        "Anglican": "--",
        "Ethiopian": "--",
        "Orthodox": "Yes",
        "Catholic": "Yes",
        "Non-historical": "--"
    },
    {
        "Saint": "Maximillian Kolbe",
        "Anglican": "Yes",
        "Ethiopian": "--",
        "Orthodox": "--",
        "Catholic": "Yes",
        "Non-historical": "--"
    },
    {
        "Saint": "Methodius",
        "Anglican": "??",
        "Ethiopian": "??",
        "Orthodox": "Yes",
        "Catholic": "??",
        "Non-historical": "--"
    },
    {
        "Saint": "Michael",
        "Anglican": "Yes",
        "Ethiopian": "Yes",
        "Orthodox": "Yes",
        "Catholic": "Yes",
        "Non-historical": "--"
    },
    {
        "Saint": "Pope Miltiades",
        "Anglican": "--",
        "Ethiopian": "--",
        "Orthodox": "--",
        "Catholic": "Yes",
        "Non-historical": "--"
    },
    {
        "Saint": "Saint Nicephorus",
        "Anglican": "??",
        "Ethiopian": "??",
        "Orthodox": "Yes",
        "Catholic": "Yes",
        "Non-historical": "--"
    },
    {
        "Saint": "Nicholas of Myra",
        "Anglican": "Yes",
        "Ethiopian": "??",
        "Orthodox": "Yes",
        "Catholic": "Yes",
        "Non-historical": "--"
    },
    {
        "Saint": "Pope Nicholas I",
        "Anglican": "--",
        "Ethiopian": "--",
        "Orthodox": "Yes",
        "Catholic": "Yes",
        "Non-historical": "--"
    },
    {
        "Saint": "Ninian",
        "Anglican": "Yes",
        "Ethiopian": "--",
        "Orthodox": "Yes",
        "Catholic": "Yes",
        "Non-historical": "--"
    },
    {
        "Saint": "Gregory Palamas",
        "Anglican": "--",
        "Ethiopian": "--",
        "Orthodox": "Yes",
        "Catholic": "--",
        "Non-historical": "--"
    },
    {
        "Saint": "Pope Paschal I",
        "Anglican": "--",
        "Ethiopian": "--",
        "Orthodox": "--",
        "Catholic": "Yes",
        "Non-historical": "--"
    },
    {
        "Saint": "Patrick",
        "Anglican": "Yes",
        "Ethiopian": "--",
        "Orthodox": "Yes",
        "Catholic": "Yes",
        "Non-historical": "--"
    },
    {
        "Saint": "Paul",
        "Anglican": "Yes",
        "Ethiopian": "Yes",
        "Orthodox": "Yes",
        "Catholic": "Yes",
        "Non-historical": "--"
    },
    {
        "Saint": "Pope Paul I",
        "Anglican": "--",
        "Ethiopian": "--",
        "Orthodox": "--",
        "Catholic": "Yes",
        "Non-historical": "--"
    },
    {
        "Saint": "Paulinus of Nola",
        "Anglican": "--",
        "Ethiopian": "--",
        "Orthodox": "--",
        "Catholic": "Yes",
        "Non-historical": "--"
    },
    {
        "Saint": "Perpetua and her companions",
        "Anglican": "Yes",
        "Ethiopian": "Yes",
        "Orthodox": "Yes",
        "Catholic": "Yes",
        "Non-historical": "--"
    },
    {
        "Saint": "Peter",
        "Anglican": "Yes",
        "Ethiopian": "Yes",
        "Orthodox": "Yes",
        "Catholic": "Yes",
        "Non-historical": "--"
    },
    {
        "Saint": "Peter the Aleut",
        "Anglican": "--",
        "Ethiopian": "--",
        "Orthodox": "Yes",
        "Catholic": "--",
        "Non-historical": "--"
    },
    {
        "Saint": "Peter of Alexandria",
        "Anglican": "--",
        "Ethiopian": "Yes",
        "Orthodox": "Yes",
        "Catholic": "Yes",
        "Non-historical": "--"
    },
    {
        "Saint": "Peter of Sebaste[?]",
        "Anglican": "--",
        "Ethiopian": "--",
        "Orthodox": "Yes",
        "Catholic": "--",
        "Non-historical": "--"
    },
    {
        "Saint": "Philip",
        "Anglican": "Yes",
        "Ethiopian": "Yes",
        "Orthodox": "Yes",
        "Catholic": "Yes",
        "Non-historical": "--"
    },
    {
        "Saint": "Philomena",
        "Anglican": "--",
        "Ethiopian": "--",
        "Orthodox": "--",
        "Catholic": "Yes",
        "Non-historical": "--"
    },
    {
        "Saint": "Piran",
        "Anglican": "--",
        "Ethiopian": "--",
        "Orthodox": "--",
        "Catholic": "Yes",
        "Non-historical": "--"
    },
    {
        "Saint": "Pope Pius V",
        "Anglican": "--",
        "Ethiopian": "--",
        "Orthodox": "--",
        "Catholic": "Yes",
        "Non-historical": "--"
    },
    {
        "Saint": "Pope Pius X",
        "Anglican": "--",
        "Ethiopian": "--",
        "Orthodox": "--",
        "Catholic": "Yes",
        "Non-historical": "--"
    },
    {
        "Saint": "Polycarp",
        "Anglican": "Yes",
        "Ethiopian": "Yes",
        "Orthodox": "Yes",
        "Catholic": "Yes",
        "Non-historical": "--"
    },
    {
        "Saint": "Pope Pontain[?]",
        "Anglican": "--",
        "Ethiopian": "--",
        "Orthodox": "--",
        "Catholic": "Yes",
        "Non-historical": "--"
    },
    {
        "Saint": "Raphael of Brooklyn",
        "Anglican": "--",
        "Ethiopian": "--",
        "Orthodox": "Yes",
        "Catholic": "--",
        "Non-historical": "--"
    },
    {
        "Saint": "Romuald[?]",
        "Anglican": "--",
        "Ethiopian": "--",
        "Orthodox": "--",
        "Catholic": "Yes",
        "Non-historical": "--"
    },
    {
        "Saint": "Rosalia",
        "Anglican": "?",
        "Ethiopian": "--",
        "Orthodox": "--",
        "Catholic": "Yes",
        "Non-historical": "--"
    },
    {
        "Saint": "Sergius",
        "Anglican": "--",
        "Ethiopian": "--",
        "Orthodox": "--",
        "Catholic": "Yes",
        "Non-historical": "--"
    },
    {
        "Saint": "Pope Sergius I",
        "Anglican": "--",
        "Ethiopian": "--",
        "Orthodox": "--",
        "Catholic": "Yes",
        "Non-historical": "--"
    },
    {
        "Saint": "Pope Silverius",
        "Anglican": "--",
        "Ethiopian": "--",
        "Orthodox": "--",
        "Catholic": "Yes",
        "Non-historical": "--"
    },
    {
        "Saint": "Simon",
        "Anglican": "Yes",
        "Ethiopian": "--",
        "Orthodox": "Yes",
        "Catholic": "Yes",
        "Non-historical": "--"
    },
    {
        "Saint": "Pope Simplicius",
        "Anglican": "--",
        "Ethiopian": "--",
        "Orthodox": "--",
        "Catholic": "Yes",
        "Non-historical": "--"
    },
    {
        "Saint": "Pope Siricius",
        "Anglican": "--",
        "Ethiopian": "--",
        "Orthodox": "--",
        "Catholic": "Yes",
        "Non-historical": "--"
    },
    {
        "Saint": "Pope Sixtus I",
        "Anglican": "--",
        "Ethiopian": "--",
        "Orthodox": "--",
        "Catholic": "Yes",
        "Non-historical": "--"
    },
    {
        "Saint": "Pope Sixtus II",
        "Anglican": "--",
        "Ethiopian": "--",
        "Orthodox": "--",
        "Catholic": "Yes",
        "Non-historical": "--"
    },
    {
        "Saint": "Pope Sixtus III",
        "Anglican": "--",
        "Ethiopian": "--",
        "Orthodox": "--",
        "Catholic": "Yes",
        "Non-historical": "--"
    },
    {
        "Saint": "Pope Soter",
        "Anglican": "--",
        "Ethiopian": "--",
        "Orthodox": "--",
        "Catholic": "Yes",
        "Non-historical": "--"
    },
    {
        "Saint": "Stephen",
        "Anglican": "Yes",
        "Ethiopian": "Yes",
        "Orthodox": "Yes",
        "Catholic": "Yes",
        "Non-historical": "--"
    },
    {
        "Saint": "Stephen of Hungary",
        "Anglican": "--",
        "Ethiopian": "--",
        "Orthodox": "--",
        "Catholic": "Yes",
        "Non-historical": "--"
    },
    {
        "Saint": "Pope Stephen I",
        "Anglican": "--",
        "Ethiopian": "--",
        "Orthodox": "--",
        "Catholic": "Yes",
        "Non-historical": "--"
    },
    {
        "Saint": "Pope Sylvester I",
        "Anglican": "--",
        "Ethiopian": "--",
        "Orthodox": "--",
        "Catholic": "Yes",
        "Non-historical": "--"
    },
    {
        "Saint": "Pope Symmachus",
        "Anglican": "--",
        "Ethiopian": "--",
        "Orthodox": "--",
        "Catholic": "Yes",
        "Non-historical": "--"
    },
    {
        "Saint": "Pope Telesphorus",
        "Anglican": "--",
        "Ethiopian": "--",
        "Orthodox": "--",
        "Catholic": "Yes",
        "Non-historical": "--"
    },
    {
        "Saint": "Teresa of Avila",
        "Anglican": "Yes",
        "Ethiopian": "--",
        "Orthodox": "--",
        "Catholic": "Yes",
        "Non-historical": "--"
    },
    {
        "Saint": "Theodore the Studite",
        "Anglican": "--",
        "Ethiopian": "--",
        "Orthodox": "Yes",
        "Catholic": "--",
        "Non-historical": "--"
    },
    {
        "Saint": "Theophan the Recluse",
        "Anglican": "--",
        "Ethiopian": "--",
        "Orthodox": "Yes",
        "Catholic": "--",
        "Non-historical": "--"
    },
    {
        "Saint": "Therese of Liseaux[?]",
        "Anglican": "--",
        "Ethiopian": "--",
        "Orthodox": "--",
        "Catholic": "Yes",
        "Non-historical": "--"
    },
    {
        "Saint": "Thomas",
        "Anglican": "Yes",
        "Ethiopian": "Yes",
        "Orthodox": "Yes",
        "Catholic": "Yes",
        "Non-historical": "--"
    },
    {
        "Saint": "Thomas Aquinas",
        "Anglican": "Yes",
        "Ethiopian": "--",
        "Orthodox": "--",
        "Catholic": "Yes",
        "Non-historical": "--"
    },
    {
        "Saint": "Thomas More",
        "Anglican": "--",
        "Ethiopian": "--",
        "Orthodox": "--",
        "Catholic": "Yes",
        "Non-historical": "--"
    },
    {
        "Saint": "Tikhon of Moscow",
        "Anglican": "--",
        "Ethiopian": "--",
        "Orthodox": "Yes",
        "Catholic": "--",
        "Non-historical": "--"
    },
    {
        "Saint": "Tikhon of Zadonsk",
        "Anglican": "--",
        "Ethiopian": "--",
        "Orthodox": "Yes",
        "Catholic": "--",
        "Non-historical": "--"
    },
    {
        "Saint": "Timothy the Apostle",
        "Anglican": "Yes",
        "Ethiopian": "Yes",
        "Orthodox": "Yes",
        "Catholic": "Yes",
        "Non-historical": "--"
    },
    {
        "Saint": "Ulrich of Augsburg",
        "Anglican": "--",
        "Ethiopian": "--",
        "Orthodox": "--",
        "Catholic": "Yes",
        "Non-historical": "--"
    },
    {
        "Saint": "Pope Urban I",
        "Anglican": "--",
        "Ethiopian": "--",
        "Orthodox": "--",
        "Catholic": "Yes",
        "Non-historical": "--"
    },
    {
        "Saint": "Veronica",
        "Anglican": "--",
        "Ethiopian": "--",
        "Orthodox": "--",
        "Catholic": "Yes",
        "Non-historical": "--"
    },
    {
        "Saint": "Pope Victor I",
        "Anglican": "--",
        "Ethiopian": "--",
        "Orthodox": "--",
        "Catholic": "Yes",
        "Non-historical": "--"
    },
    {
        "Saint": "Vincent Ferrer[?]",
        "Anglican": "--",
        "Ethiopian": "--",
        "Orthodox": "--",
        "Catholic": "Yes",
        "Non-historical": "--"
    },
    {
        "Saint": "Vincent of Lerins",
        "Anglican": "--",
        "Ethiopian": "--",
        "Orthodox": "Yes",
        "Catholic": "Yes",
        "Non-historical": "--"
    },
    {
        "Saint": "Pope Vitalian",
        "Anglican": "--",
        "Ethiopian": "--",
        "Orthodox": "--",
        "Catholic": "Yes",
        "Non-historical": "--"
    },
    {
        "Saint": "Vladimir of Kiev",
        "Anglican": "--",
        "Ethiopian": "--",
        "Orthodox": "Yes",
        "Catholic": "Yes",
        "Non-historical": "--"
    },
    {
        "Saint": "Pope Zacharias",
        "Anglican": "--",
        "Ethiopian": "--",
        "Orthodox": "--",
        "Catholic": "Yes",
        "Non-historical": "--"
    },
    {
        "Saint": "Pope Zephyrinus",
        "Anglican": "--",
        "Ethiopian": "--",
        "Orthodox": "--",
        "Catholic": "Yes",
        "Non-historical": "--"
    },
    {
        "Saint": "Pope Zosimus",
        "Anglican": "--",
        "Ethiopian": "--",
        "Orthodox": "--",
        "Catholic": "Yes",
        "Non-historical": "--"
    }
]