[
    {
        "col 1": "Fianna F\u00e1il",
        "Total funding received under the Party Leaders Allowance for 2002 ?": "2,094,432",
        "Total funding received under the Electoral Acts for 2002 ?": "1,898,164",
        "Overall total Exchequer funding for 2002 ?": "3,992,596"
    },
    {
        "col 1": "Fine Gael",
        "Total funding received under the Party Leaders Allowance for 2002 ?": "1,826,963",
        "Total funding received under the Electoral Acts for 2002 ?": "1,193,566",
        "Overall total Exchequer funding for 2002 ?": "3,020,529"
    },
    {
        "col 1": "Labour Party",
        "Total funding received under the Party Leaders Allowance for 2002 ?": "1,052,611",
        "Total funding received under the Electoral Acts for 2002 ?": "627,385",
        "Overall total Exchequer funding for 2002 ?": "1,679,996"
    },
    {
        "col 1": "Progressive Democrats",
        "Total funding received under the Party Leaders Allowance for 2002 ?": "331,620",
        "Total funding received under the Electoral Acts for 2002 ?": "307,594",
        "Overall total Exchequer funding for 2002 ?": "639,214"
    },
    {
        "col 1": "Green Party",
        "Total funding received under the Party Leaders Allowance for 2002 ?": "232,629",
        "Total funding received under the Electoral Acts for 2002 ?": "272,834",
        "Overall total Exchequer funding for 2002 ?": "505,463"
    },
    {
        "col 1": "Sinn F\u00e9in",
        "Total funding received under the Party Leaders Allowance for 2002 ?": "182,322",
        "Total funding received under the Electoral Acts for 2002 ?": "347,664",
        "Overall total Exchequer funding for 2002 ?": "529,986"
    },
    {
        "col 1": "Socialist Party",
        "Total funding received under the Party Leaders Allowance for 2002 ?": "50,305",
        "Total funding received under the Electoral Acts for 2002 ?": "n/a",
        "Overall total Exchequer funding for 2002 ?": "50,305"
    },
    {
        "col 1": "Total",
        "Total funding received under the Party Leaders Allowance for 2002 ?": "5,770,882",
        "Total funding received under the Electoral Acts for 2002 ?": "4,647,207",
        "Overall total Exchequer funding for 2002 ?": "10,418,089"
    }
]