[
    {
        "Rank": "1",
        "Player (2011 TBs)": "Hank Aaron",
        "TBs": "6,856"
    },
    {
        "Rank": "2",
        "Player (2011 TBs)": "Stan Musial",
        "TBs": "6,134"
    },
    {
        "Rank": "3",
        "Player (2011 TBs)": "Willie Mays",
        "TBs": "6,066"
    },
    {
        "Rank": "4",
        "Player (2011 TBs)": "Barry Bonds",
        "TBs": "5,976"
    },
    {
        "Rank": "5",
        "Player (2011 TBs)": "Ty Cobb",
        "TBs": "5,854"
    },
    {
        "Rank": "6",
        "Player (2011 TBs)": "Babe Ruth",
        "TBs": "5,793"
    },
    {
        "Rank": "7",
        "Player (2011 TBs)": "Pete Rose",
        "TBs": "5,752"
    },
    {
        "Rank": "8",
        "Player (2011 TBs)": "Carl Yastrzemski",
        "TBs": "5,539"
    },
    {
        "Rank": "9",
        "Player (2011 TBs)": "Eddie Murray",
        "TBs": "5,397"
    },
    {
        "Rank": "10",
        "Player (2011 TBs)": "Rafael Palmeiro",
        "TBs": "5,388"
    },
    {
        "Rank": "11",
        "Player (2011 TBs)": "Frank Robinson",
        "TBs": "5,373"
    },
    {
        "Rank": "12",
        "Player (2011 TBs)": "Ken Griffey Jr.",
        "TBs": "5,271"
    },
    {
        "Rank": "13",
        "Player (2011 TBs)": "Dave Winfield",
        "TBs": "5,221"
    },
    {
        "Rank": "14",
        "Player (2011 TBs)": "Alex Rodriguez (172)",
        "TBs": "5,215"
    },
    {
        "Rank": "15",
        "Player (2011 TBs)": "Cal Ripken Jr.",
        "TBs": "5,168"
    },
    {
        "Rank": "16",
        "Player (2011 TBs)": "Tris Speaker",
        "TBs": "5,101"
    },
    {
        "Rank": "17",
        "Player (2011 TBs)": "Lou Gehrig",
        "TBs": "5,060"
    },
    {
        "Rank": "18",
        "Player (2011 TBs)": "George Brett",
        "TBs": "5,044"
    },
    {
        "Rank": "19",
        "Player (2011 TBs)": "Mel Ott",
        "TBs": "5,041"
    },
    {
        "Rank": "20",
        "Player (2011 TBs)": "Jimmie Foxx",
        "TBs": "4,956"
    },
    {
        "Rank": "21",
        "Player (2011 TBs)": "Ted Williams",
        "TBs": "4,884"
    },
    {
        "Rank": "22",
        "Player (2011 TBs)": "Honus Wagner",
        "TBs": "4,862"
    },
    {
        "Rank": "23",
        "Player (2011 TBs)": "Paul Molitor",
        "TBs": "4,854"
    },
    {
        "Rank": "24",
        "Player (2011 TBs)": "Al Kaline",
        "TBs": "4,852"
    },
    {
        "Rank": "25",
        "Player (2011 TBs)": "Reggie Jackson",
        "TBs": "4,834"
    },
    {
        "Rank": "26",
        "Player (2011 TBs)": "Manny Ram?rez",
        "TBs": "4,826"
    },
    {
        "Rank": "27",
        "Player (2011 TBs)": "Andre Dawson",
        "TBs": "4,787"
    }
]