[
    {
        "RANG": "1",
        "Museum": "MoMA The Museum of Modern Art",
        "Stadt": "New York",
        "Facebook-Fans": "353230"
    },
    {
        "RANG": "2",
        "Museum": "Metropolitan Museum of Art",
        "Stadt": "New York",
        "Facebook-Fans": "178838"
    },
    {
        "RANG": "3",
        "Museum": "Acropolis Museum",
        "Stadt": "Athen",
        "Facebook-Fans": "159006"
    },
    {
        "RANG": "4",
        "Museum": "Mus?e du Louvre",
        "Stadt": "Paris",
        "Facebook-Fans": "98307"
    },
    {
        "RANG": "5",
        "Museum": "Tate Modern",
        "Stadt": "London",
        "Facebook-Fans": "66289"
    },
    {
        "RANG": "6",
        "Museum": "Design Museum",
        "Stadt": "London",
        "Facebook-Fans": "62866"
    },
    {
        "RANG": "7",
        "Museum": "Guggenheim Museum",
        "Stadt": "New York",
        "Facebook-Fans": "67894"
    },
    {
        "RANG": "8",
        "Museum": "City Museum",
        "Stadt": "St Louis",
        "Facebook-Fans": "39960"
    },
    {
        "RANG": "9",
        "Museum": "The Getty Museum",
        "Stadt": "Los Angeles",
        "Facebook-Fans": "36767"
    },
    {
        "RANG": "10",
        "Museum": "Salvador Dali Museum",
        "Stadt": "Saint Petersburg",
        "Facebook-Fans": "35182"
    },
    {
        "RANG": "11",
        "Museum": "Museo del Prado",
        "Stadt": "Madrid",
        "Facebook-Fans": "37000"
    },
    {
        "RANG": "12",
        "Museum": "Victoria & Albert Museum,",
        "Stadt": "London",
        "Facebook-Fans": "31851"
    },
    {
        "RANG": "13",
        "Museum": "Centre Pompidou",
        "Stadt": "Paris",
        "Facebook-Fans": "32353"
    },
    {
        "RANG": "14",
        "Museum": "British Museum",
        "Stadt": "London",
        "Facebook-Fans": "28408"
    },
    {
        "RANG": "15",
        "Museum": "Whitney Museum of American Art",
        "Stadt": "New York",
        "Facebook-Fans": "25803"
    },
    {
        "RANG": "16",
        "Museum": "Creation Museum",
        "Stadt": "Petersburg",
        "Facebook-Fans": "25981"
    },
    {
        "RANG": "17",
        "Museum": "Natural History Museum",
        "Stadt": "London",
        "Facebook-Fans": "23566"
    },
    {
        "RANG": "18",
        "Museum": "National Museum of the American Indian",
        "Stadt": "Washington D.C.",
        "Facebook-Fans": "23059"
    },
    {
        "RANG": "19",
        "Museum": "American Museum of Natural History",
        "Stadt": "New York",
        "Facebook-Fans": "21904"
    },
    {
        "RANG": "20",
        "Museum": "New Museum",
        "Stadt": "New York",
        "Facebook-Fans": "21235"
    }
]