[
    {
        "Lake Name": "Bony Lake",
        "Access": "Water",
        "Acres": "191",
        "Class": "B",
        "Category": "2"
    },
    {
        "Lake Name": "Buffalo Lake",
        "Access": "Walk-in",
        "Acres": "179",
        "Class": "B",
        "Category": "1"
    },
    {
        "Lake Name": "Buskey Bay",
        "Access": "Ramp",
        "Acres": "100",
        "Class": "A1",
        "Category": "2"
    },
    {
        "Lake Name": "Chippewa",
        "Access": "Ramp",
        "Acres": "319",
        "Class": "B",
        "Category": "1"
    },
    {
        "Lake Name": "Cranberry Lake T44N R09W S30",
        "Access": "Water",
        "Acres": "131",
        "Class": "B",
        "Category": "1"
    },
    {
        "Lake Name": "Devils Lake",
        "Access": "Water",
        "Acres": "23",
        "Class": "C",
        "Category": "2"
    },
    {
        "Lake Name": "Eagle Lake (Murray,Inch)",
        "Access": "Water",
        "Acres": "170",
        "Class": "B",
        "Category": "2"
    },
    {
        "Lake Name": "Eau Claire Lake, Lower*",
        "Access": "Ramp",
        "Acres": "802",
        "Class": "B",
        "Category": "2"
    },
    {
        "Lake Name": "Eau Claire Lake, Middle",
        "Access": "Ramp",
        "Acres": "902",
        "Class": "A1",
        "Category": "2"
    },
    {
        "Lake Name": "Eau Claire Lake, Upper",
        "Access": "Ramp",
        "Acres": "996",
        "Class": "B",
        "Category": "2"
    },
    {
        "Lake Name": "Flynn Lake T46N R08W S03",
        "Access": "Water",
        "Acres": "29",
        "Class": "B",
        "Category": "2"
    },
    {
        "Lake Name": "Ghost Lake",
        "Access": "Water",
        "Acres": "132",
        "Class": "B",
        "Category": "1"
    },
    {
        "Lake Name": "Hart Lake (Heart,Wiehe)",
        "Access": "Water",
        "Acres": "259",
        "Class": "A1",
        "Category": "2"
    },
    {
        "Lake Name": "Hildur (Bluebird) Lake",
        "Access": "Road",
        "Acres": "67",
        "Class": "C",
        "Category": "1"
    },
    {
        "Lake Name": "Jackson Lake",
        "Access": "Water",
        "Acres": "142",
        "Class": "B",
        "Category": "2"
    },
    {
        "Lake Name": "McCarry Lake",
        "Access": "Water",
        "Acres": "32",
        "Class": "C",
        "Category": "2"
    },
    {
        "Lake Name": "Millicent Lake (Pike)",
        "Access": "Water",
        "Acres": "183",
        "Class": "A1",
        "Category": "2"
    },
    {
        "Lake Name": "Muskellunge Lake (Butte)",
        "Access": "Road",
        "Acres": "44",
        "Class": "C",
        "Category": "2"
    },
    {
        "Lake Name": "Namekagon Lake(Spring, Garden)",
        "Access": "Ramp",
        "Acres": "3227",
        "Class": "A1",
        "Category": "2"
    },
    {
        "Lake Name": "Pacwawong Lake*",
        "Access": "Ramp",
        "Acres": "160",
        "Class": "",
        "Category": ""
    },
    {
        "Lake Name": "Pike Lake",
        "Access": "Water",
        "Acres": "17",
        "Class": "C",
        "Category": "2"
    },
    {
        "Lake Name": "Shunenberg Lake",
        "Access": "Water",
        "Acres": "44",
        "Class": "C",
        "Category": "2"
    },
    {
        "Lake Name": "Smith Lake",
        "Access": "Water",
        "Acres": "31",
        "Class": "C",
        "Category": "2"
    },
    {
        "Lake Name": "Swett Lake (Sweet)",
        "Access": "Water",
        "Acres": "88",
        "Class": "C",
        "Category": "2"
    },
    {
        "Lake Name": "Twin Bear Lake (Crow)",
        "Access": "Ramp",
        "Acres": "172",
        "Class": "A1",
        "Category": "2"
    },
    {
        "Lake Name": "White Bass Lake",
        "Access": "None",
        "Acres": "112",
        "Class": "C",
        "Category": "1"
    }
]