[
    {
        "Animal": "Alligator",
        "Male": "bull",
        "Female": "cow",
        "Baby": "hatchling",
        "Group of Animals": "congregation, pod (of young)",
        "Family": ""
    },
    {
        "Animal": "Antelope",
        "Male": "buck",
        "Female": "doe",
        "Baby": "calf",
        "Group of Animals": "herd",
        "Family": ""
    },
    {
        "Animal": "Ape",
        "Male": "male",
        "Female": "female",
        "Baby": "baby",
        "Group of Animals": "shrewdness",
        "Family": ""
    },
    {
        "Animal": "Armadillo",
        "Male": "male",
        "Female": "female",
        "Baby": "pup",
        "Group of Animals": "-",
        "Family": ""
    },
    {
        "Animal": "Badger",
        "Male": "boar",
        "Female": "sow",
        "Baby": "kit, cub",
        "Group of Animals": "cete",
        "Family": ""
    },
    {
        "Animal": "Bat",
        "Male": "male",
        "Female": "female",
        "Baby": "pup",
        "Group of Animals": "colony",
        "Family": ""
    },
    {
        "Animal": "Bear",
        "Male": "boar",
        "Female": "sow",
        "Baby": "cub",
        "Group of Animals": "sleuth, sloth",
        "Family": "ursine"
    },
    {
        "Animal": "Beaver",
        "Male": "-",
        "Female": "-",
        "Baby": "pup, kitten",
        "Group of Animals": "colony",
        "Family": ""
    },
    {
        "Animal": "Bee",
        "Male": "drone",
        "Female": "queen, worker",
        "Baby": "larva",
        "Group of Animals": "hive, swarm (in flight), bike, drift, grist",
        "Family": ""
    },
    {
        "Animal": "Bird",
        "Male": "cock",
        "Female": "hen,",
        "Baby": "hatchling, chick",
        "Group of Animals": "dissimulation (small birds only), fleet, flight, flock, parcel, pod, volery",
        "Family": ""
    },
    {
        "Animal": "Bison, Buffalo",
        "Male": "bull",
        "Female": "cow",
        "Baby": "calf",
        "Group of Animals": "gang, herd",
        "Family": "bovine"
    },
    {
        "Animal": "Boar",
        "Male": "boar",
        "Female": "sow",
        "Baby": "piglet, shoat, farrow",
        "Group of Animals": "singular, sounder",
        "Family": "porcine"
    },
    {
        "Animal": "Butterfly",
        "Male": "male",
        "Female": "female",
        "Baby": "caterpillar, larva, pupa, chrysalis",
        "Group of Animals": "swarm, rabble (group of caterpillars is an army)",
        "Family": ""
    },
    {
        "Animal": "Camel",
        "Male": "bull",
        "Female": "cow",
        "Baby": "calf",
        "Group of Animals": "flock",
        "Family": "cameline"
    },
    {
        "Animal": "Cat",
        "Male": "tomcat",
        "Female": "queen",
        "Baby": "kitten",
        "Group of Animals": "clutter, clowder, litter (young born to one female), kindle (kittens)",
        "Family": "feline"
    },
    {
        "Animal": "Cattle",
        "Male": "bull",
        "Female": "cow",
        "Baby": "calf",
        "Group of Animals": "drift, drove, herd, mob",
        "Family": "bovine"
    },
    {
        "Animal": "Cheetah",
        "Male": "male",
        "Female": "female",
        "Baby": "cub",
        "Group of Animals": "coalition",
        "Family": "feline"
    },
    {
        "Animal": "Chicken",
        "Male": "rooster",
        "Female": "hen",
        "Baby": "chick, pullet (young hen), cockrell (young rooster)",
        "Group of Animals": "flock, brood (of hens), clutch (of chicks), peep (of chicks)",
        "Family": ""
    },
    {
        "Animal": "Clam",
        "Male": "-",
        "Female": "-",
        "Baby": "larva",
        "Group of Animals": "bed",
        "Family": ""
    },
    {
        "Animal": "Cockroach",
        "Male": "-",
        "Female": "-",
        "Baby": "nymph",
        "Group of Animals": "-",
        "Family": ""
    },
    {
        "Animal": "Codfish",
        "Male": "-",
        "Female": "-",
        "Baby": "codling, hake, sprag, sprat",
        "Group of Animals": "school",
        "Family": ""
    },
    {
        "Animal": "Coyote",
        "Male": "dog",
        "Female": "bitch",
        "Baby": "pup, whelp",
        "Group of Animals": "pack, rout",
        "Family": "canine"
    },
    {
        "Animal": "Crane",
        "Male": "-",
        "Female": "-",
        "Baby": "chick",
        "Group of Animals": "herd, sedge, siege",
        "Family": ""
    },
    {
        "Animal": "Crow",
        "Male": "cock",
        "Female": "hen",
        "Baby": "chick",
        "Group of Animals": "murder, muster",
        "Family": "crovine"
    },
    {
        "Animal": "Deer",
        "Male": "buck, stag",
        "Female": "doe",
        "Baby": "fawn",
        "Group of Animals": "herd, mob",
        "Family": "cervine"
    },
    {
        "Animal": "Dinosaur",
        "Male": "bull",
        "Female": "cow",
        "Baby": "hatchling, juvenile",
        "Group of Animals": "herd (of plant-eaters), pack (of meat-eaters)",
        "Family": ""
    },
    {
        "Animal": "Dog",
        "Male": "dog",
        "Female": "bitch",
        "Baby": "pup",
        "Group of Animals": "litter (pups from one mother), pack (wild), kennel",
        "Family": "canine"
    },
    {
        "Animal": "Dolphin",
        "Male": "bull",
        "Female": "cow",
        "Baby": "pup, calf",
        "Group of Animals": "herd, pod, school",
        "Family": ""
    },
    {
        "Animal": "Donkey",
        "Male": "jack, jackass",
        "Female": "jennet, jenny",
        "Baby": "colt, foal",
        "Group of Animals": "drove, herd",
        "Family": "asinine"
    },
    {
        "Animal": "Dove",
        "Male": "cock",
        "Female": "hen",
        "Baby": "squab, chick",
        "Group of Animals": "dole, flight, piteousness",
        "Family": ""
    },
    {
        "Animal": "Duck",
        "Male": "drake",
        "Female": "duck",
        "Baby": "duckling",
        "Group of Animals": "badelynge, brace, bunch, flock, paddling, raft, team",
        "Family": ""
    },
    {
        "Animal": "Eagle",
        "Male": "-",
        "Female": "-",
        "Baby": "fledgling, eaglet",
        "Group of Animals": "aerie, convocation",
        "Family": ""
    },
    {
        "Animal": "Echidna",
        "Male": "-",
        "Female": "-",
        "Baby": "puggle",
        "Group of Animals": "-",
        "Family": ""
    },
    {
        "Animal": "Eel",
        "Male": "-",
        "Female": "-",
        "Baby": "leptocephalus (larva), elver (juvenile)",
        "Group of Animals": "swarm",
        "Family": ""
    },
    {
        "Animal": "Elephant",
        "Male": "bull",
        "Female": "cow",
        "Baby": "calf",
        "Group of Animals": "herd, parade",
        "Family": "elephantine"
    },
    {
        "Animal": "Elk",
        "Male": "bull",
        "Female": "cow",
        "Baby": "calf",
        "Group of Animals": "herd, gang",
        "Family": ""
    },
    {
        "Animal": "Falcon",
        "Male": "tercel, terzel",
        "Female": "falcon",
        "Baby": "chick",
        "Group of Animals": ".",
        "Family": ""
    },
    {
        "Animal": "Ferret",
        "Male": "hob",
        "Female": "jill",
        "Baby": "kit",
        "Group of Animals": "business, fesynes",
        "Family": ""
    },
    {
        "Animal": "Fish",
        "Male": "-",
        "Female": "-",
        "Baby": "fry, fingerling",
        "Group of Animals": "draft, run, school, shoal",
        "Family": ""
    },
    {
        "Animal": "Finch",
        "Male": "cock",
        "Female": "hen",
        "Baby": "chick",
        "Group of Animals": "charm",
        "Family": ""
    },
    {
        "Animal": "Fly",
        "Male": "-",
        "Female": "-",
        "Baby": "maggot",
        "Group of Animals": "cloud, swarm",
        "Family": ""
    },
    {
        "Animal": "Fox",
        "Male": "reynard",
        "Female": "vixen",
        "Baby": "kit, cub, pup",
        "Group of Animals": "skulk, leash",
        "Family": "vulpine"
    },
    {
        "Animal": "Frog",
        "Male": "-",
        "Female": "-",
        "Baby": "tadpole, polliwog, froglet",
        "Group of Animals": "army, knot",
        "Family": ""
    },
    {
        "Animal": "Gerbil",
        "Male": "buck",
        "Female": "doe",
        "Baby": "pup",
        "Group of Animals": "horde",
        "Family": ""
    },
    {
        "Animal": "Giraffe",
        "Male": "bull",
        "Female": "doe",
        "Baby": "calf",
        "Group of Animals": "herd, corps, tower, group",
        "Family": ""
    },
    {
        "Animal": "Gnat",
        "Male": "male",
        "Female": "female",
        "Baby": "larva",
        "Group of Animals": "cloud, horde",
        "Family": ""
    },
    {
        "Animal": "Gnu",
        "Male": "bull",
        "Female": "cow",
        "Baby": "calf",
        "Group of Animals": "herd",
        "Family": ""
    },
    {
        "Animal": "Goat",
        "Male": "buck, billy",
        "Female": "doe, nanny",
        "Baby": "kid, billy",
        "Group of Animals": "herd, tribe, trip",
        "Family": "hirsine"
    },
    {
        "Animal": "Goose",
        "Male": "gander",
        "Female": "goose",
        "Baby": "gosling",
        "Group of Animals": "flock, gaggle, skein (only while in flight), wedge (flying in a \"V\" formation)",
        "Family": ""
    },
    {
        "Animal": "Gorilla",
        "Male": "male",
        "Female": "female",
        "Baby": "infant",
        "Group of Animals": "band",
        "Family": ""
    },
    {
        "Animal": "Grasshopper",
        "Male": "male",
        "Female": "female",
        "Baby": "nymph",
        "Group of Animals": "swarm",
        "Family": ""
    },
    {
        "Animal": "Guinea pig",
        "Male": "boar",
        "Female": "sow",
        "Baby": "pup",
        "Group of Animals": "group",
        "Family": ""
    },
    {
        "Animal": "Gull",
        "Male": "cock",
        "Female": "hen",
        "Baby": "chick",
        "Group of Animals": "colony",
        "Family": ""
    },
    {
        "Animal": "Hamster",
        "Male": "buck",
        "Female": "doe",
        "Baby": "pup",
        "Group of Animals": "horde",
        "Family": ""
    },
    {
        "Animal": "Hare",
        "Male": "buck",
        "Female": "doe",
        "Baby": "leveret",
        "Group of Animals": "down, husk, warren",
        "Family": "lapine"
    },
    {
        "Animal": "Hawk",
        "Male": "tiercel",
        "Female": "hen",
        "Baby": "eyas",
        "Group of Animals": "aerie, cast",
        "Family": ""
    },
    {
        "Animal": "Hedgehog",
        "Male": "boar",
        "Female": "sow",
        "Baby": "piglet, pup",
        "Group of Animals": "array",
        "Family": ""
    },
    {
        "Animal": "Heron",
        "Male": "cock",
        "Female": "hen",
        "Baby": "chick",
        "Group of Animals": "sedge, siege",
        "Family": ""
    },
    {
        "Animal": "Hippopotamus",
        "Male": "bull",
        "Female": "cow",
        "Baby": "calf",
        "Group of Animals": "herd, bloat",
        "Family": ""
    },
    {
        "Animal": "Hornet",
        "Male": "male",
        "Female": "female",
        "Baby": "larva",
        "Group of Animals": "nest",
        "Family": ""
    },
    {
        "Animal": "Hog",
        "Male": "boar",
        "Female": "sow",
        "Baby": "shoat, farrow",
        "Group of Animals": "drove, herd, litter (a group of young born to one mother)",
        "Family": ""
    },
    {
        "Animal": "Horse",
        "Male": "stallion, stud",
        "Female": "mare, dam",
        "Baby": "foal, colt (male), filly (female)",
        "Group of Animals": "stable, harras, herd, team (working horses), string or field (race horses)",
        "Family": "equine"
    },
    {
        "Animal": "Hound",
        "Male": "dog",
        "Female": "bitch",
        "Baby": "pup",
        "Group of Animals": "cry, mute, pack",
        "Family": "canine"
    },
    {
        "Animal": "Human",
        "Male": "man",
        "Female": "woman",
        "Baby": "baby, infant, toddler",
        "Group of Animals": "clan (related), crowd, family (closely related), community, gang, mob, tribe, etc.",
        "Family": ""
    },
    {
        "Animal": "Hummingbird",
        "Male": "cock",
        "Female": "hen",
        "Baby": "chick",
        "Group of Animals": "charm",
        "Family": ""
    },
    {
        "Animal": "Hyena",
        "Male": "male",
        "Female": "female",
        "Baby": "cub",
        "Group of Animals": "clan",
        "Family": "canine"
    },
    {
        "Animal": "Jay",
        "Male": "cock",
        "Female": "hen",
        "Baby": "chick",
        "Group of Animals": "band, party",
        "Family": ""
    },
    {
        "Animal": "Jellyfish",
        "Male": "-",
        "Female": "-",
        "Baby": "ephyna",
        "Group of Animals": "smack",
        "Family": ""
    },
    {
        "Animal": "Kangaroo",
        "Male": "buck, boomer, jack",
        "Female": "doe, flyer, jill, roo",
        "Baby": "joey",
        "Group of Animals": "troop, herd, mob",
        "Family": ""
    },
    {
        "Animal": "Koala",
        "Male": "male",
        "Female": "female",
        "Baby": "joey",
        "Group of Animals": "n/a",
        "Family": ""
    },
    {
        "Animal": "Leopard",
        "Male": "leopard",
        "Female": "leopardess",
        "Baby": "cub",
        "Group of Animals": "leap, prowl (some say it should be a spot of leopards)",
        "Family": "feline"
    },
    {
        "Animal": "Lion",
        "Male": "lion",
        "Female": "lioness",
        "Baby": "cub",
        "Group of Animals": "pride",
        "Family": "feline"
    },
    {
        "Animal": "Llama",
        "Male": "-",
        "Female": "-",
        "Baby": "cria",
        "Group of Animals": "herd",
        "Family": ""
    },
    {
        "Animal": "Locust",
        "Male": "-",
        "Female": "-",
        "Baby": "-",
        "Group of Animals": "host, swarm",
        "Family": ""
    },
    {
        "Animal": "Louse (plural lice)",
        "Male": "male",
        "Female": "female",
        "Baby": "nymph",
        "Group of Animals": "colony, infestation, lice",
        "Family": ""
    },
    {
        "Animal": "Magpie",
        "Male": "cock",
        "Female": "hen",
        "Baby": "chick",
        "Group of Animals": "tiding, tribe, charm, gulp, flock, murder",
        "Family": ""
    },
    {
        "Animal": "Mallard",
        "Male": "drake",
        "Female": "duck",
        "Baby": "duckling",
        "Group of Animals": "flush, sord",
        "Family": ""
    },
    {
        "Animal": "Mole",
        "Male": "male",
        "Female": "female",
        "Baby": "pup",
        "Group of Animals": "labour",
        "Family": ""
    },
    {
        "Animal": "Monkey",
        "Male": "male",
        "Female": "female",
        "Baby": "infant",
        "Group of Animals": "troop, cartload",
        "Family": ""
    },
    {
        "Animal": "Moose",
        "Male": "bull",
        "Female": "cow",
        "Baby": "calf",
        "Group of Animals": "herd",
        "Family": ""
    },
    {
        "Animal": "Mosquito",
        "Male": "male",
        "Female": "female",
        "Baby": "lnymph, wriggler, tumbler",
        "Group of Animals": "swarm",
        "Family": ""
    },
    {
        "Animal": "Mouse",
        "Male": "buck",
        "Female": "doe",
        "Baby": "pup, pinkie, kitten",
        "Group of Animals": "horde, mischief",
        "Family": ""
    },
    {
        "Animal": "Mule",
        "Male": "jack",
        "Female": "hinney",
        "Baby": "foal",
        "Group of Animals": "barren, pack, span,",
        "Family": ""
    },
    {
        "Animal": "Nightingale",
        "Male": "cock",
        "Female": "hen",
        "Baby": "chick",
        "Group of Animals": "watch",
        "Family": ""
    },
    {
        "Animal": "Opossum",
        "Male": "jack",
        "Female": "jill",
        "Baby": "joey",
        "Group of Animals": "-",
        "Family": ""
    },
    {
        "Animal": "Ostrich",
        "Male": "cock",
        "Female": "hen",
        "Baby": "chick",
        "Group of Animals": "flock",
        "Family": ""
    },
    {
        "Animal": "Otter",
        "Male": "male",
        "Female": "female",
        "Baby": "whelp, pup",
        "Group of Animals": "family, raft",
        "Family": ""
    },
    {
        "Animal": "Owl",
        "Male": "-",
        "Female": "-",
        "Baby": "owlet",
        "Group of Animals": "parliament",
        "Family": ""
    },
    {
        "Animal": "Ox",
        "Male": "steer, bull",
        "Female": "cow",
        "Baby": "stot, calf",
        "Group of Animals": "drove, herd, yoke",
        "Family": "bovine"
    },
    {
        "Animal": "Oyster",
        "Male": "-",
        "Female": "-",
        "Baby": "spat",
        "Group of Animals": "bed",
        "Family": ""
    },
    {
        "Animal": "Panda",
        "Male": "boar",
        "Female": "sow",
        "Baby": "cub",
        "Group of Animals": "-",
        "Family": ""
    },
    {
        "Animal": "Parrot",
        "Male": "cock",
        "Female": "hen",
        "Baby": "chick",
        "Group of Animals": "company, flock",
        "Family": ""
    },
    {
        "Animal": "Peafowl",
        "Male": "peacock",
        "Female": "peahen",
        "Baby": "peachick",
        "Group of Animals": "muster, ostentation",
        "Family": ""
    },
    {
        "Animal": "Penguin",
        "Male": "male",
        "Female": "female",
        "Baby": "chick",
        "Group of Animals": "rookery",
        "Family": ""
    },
    {
        "Animal": "Pheasant",
        "Male": "cock",
        "Female": "hen",
        "Baby": "chick",
        "Group of Animals": "brood (a family), nye (a large group)",
        "Family": ""
    },
    {
        "Animal": "Pig",
        "Male": "boar",
        "Female": "sow",
        "Baby": "piglet, shoat, farrow",
        "Group of Animals": "drove, herd, litter (of pups), sounder",
        "Family": "porcine"
    },
    {
        "Animal": "Pigeon",
        "Male": "cock",
        "Female": "hen",
        "Baby": "squab, squeaker",
        "Group of Animals": "flock, kit",
        "Family": ""
    },
    {
        "Animal": "Platypus",
        "Male": "-",
        "Female": "-",
        "Baby": "puggle",
        "Group of Animals": "-",
        "Family": ""
    },
    {
        "Animal": "Porpoise",
        "Male": "bull",
        "Female": "cow",
        "Baby": "calf",
        "Group of Animals": "herd, pod, school",
        "Family": ""
    },
    {
        "Animal": "Prairie dog",
        "Male": "boar",
        "Female": "sow",
        "Baby": "pup",
        "Group of Animals": "coterie, town",
        "Family": ""
    },
    {
        "Animal": "Pronghorn",
        "Male": "buck",
        "Female": "doe",
        "Baby": "fawn",
        "Group of Animals": "herd",
        "Family": ""
    },
    {
        "Animal": "Quail",
        "Male": "cock",
        "Female": "hen",
        "Baby": "chick",
        "Group of Animals": "bevy, covey, drift",
        "Family": ""
    },
    {
        "Animal": "Rabbit",
        "Male": "buck",
        "Female": "doe",
        "Baby": "kitten, bunny, kit",
        "Group of Animals": "colony, drove, leash, nest, trace, warren",
        "Family": "lapine"
    },
    {
        "Animal": "Raccoon",
        "Male": "boar",
        "Female": "sow",
        "Baby": "cub",
        "Group of Animals": "nursery",
        "Family": ""
    },
    {
        "Animal": "Rat",
        "Male": "buck",
        "Female": "doe",
        "Baby": "pup, pinkie, kitten",
        "Group of Animals": "horde, mischief",
        "Family": "murine"
    },
    {
        "Animal": "Raven",
        "Male": "-",
        "Female": "-",
        "Baby": "-",
        "Group of Animals": "congress, unkindness",
        "Family": ""
    },
    {
        "Animal": "Rhinoceros",
        "Male": "bull",
        "Female": "cow",
        "Baby": "calf",
        "Group of Animals": "crash",
        "Family": ""
    },
    {
        "Animal": "Sand Dollar",
        "Male": "male",
        "Female": "female",
        "Baby": "larva, pluteus (free-swimming stage), juvenile (young urchin)",
        "Group of Animals": "-",
        "Family": ""
    },
    {
        "Animal": "Seal",
        "Male": "bull",
        "Female": "cow",
        "Baby": "pup",
        "Group of Animals": "herd, pod, rookery, harem",
        "Family": ""
    },
    {
        "Animal": "Seastar",
        "Male": "male",
        "Female": "female",
        "Baby": "larva, pluteus (free-swimming stage), juvenile (young urchin)",
        "Group of Animals": "-",
        "Family": ""
    },
    {
        "Animal": "Sea Urchin",
        "Male": "male",
        "Female": "female",
        "Baby": "larva, pluteus (free-swimming stage), juvenile (young urchin)",
        "Group of Animals": "-",
        "Family": ""
    },
    {
        "Animal": "Serval",
        "Male": "male",
        "Female": "female",
        "Baby": "kitten",
        "Group of Animals": "-",
        "Family": ""
    },
    {
        "Animal": "Shark",
        "Male": "bull",
        "Female": "female",
        "Baby": "pup",
        "Group of Animals": "school, shiver",
        "Family": ""
    },
    {
        "Animal": "Sheep",
        "Male": "buck, ram",
        "Female": "ewe, dam",
        "Baby": "lamb, lambkin, cosset",
        "Group of Animals": "drift, drove, flock, herd, mob, trip",
        "Family": "ovine"
    },
    {
        "Animal": "Skunk",
        "Male": "-",
        "Female": "-",
        "Baby": "kit",
        "Group of Animals": "surfeit",
        "Family": ""
    },
    {
        "Animal": "Snake",
        "Male": "male",
        "Female": "female",
        "Baby": "Snakelet, neonate (a newly-born snake), hatchling (a newly-hatched snake)",
        "Group of Animals": "bed, nest, pit",
        "Family": ""
    },
    {
        "Animal": "Spider",
        "Male": "male",
        "Female": "female",
        "Baby": "spiderling",
        "Group of Animals": "-",
        "Family": ""
    },
    {
        "Animal": "Squirrel",
        "Male": "buck",
        "Female": "doe",
        "Baby": "pup, kit, kitten",
        "Group of Animals": "dray",
        "Family": ""
    },
    {
        "Animal": "Swallow",
        "Male": "-",
        "Female": "-",
        "Baby": "-",
        "Group of Animals": "flight",
        "Family": ""
    },
    {
        "Animal": "Swan",
        "Male": "cob",
        "Female": "pen",
        "Baby": "cygnet, flapper",
        "Group of Animals": "bevy, game, herd, team, wedge (flying in a \"V\" formation)",
        "Family": ""
    },
    {
        "Animal": "Termite",
        "Male": "male",
        "Female": "female",
        "Baby": "larva",
        "Group of Animals": "swarm (while flying), colony",
        "Family": ""
    },
    {
        "Animal": "Tiger",
        "Male": "tiger",
        "Female": "tigress",
        "Baby": "cub, whelp",
        "Group of Animals": "ambush, streak",
        "Family": "feline"
    },
    {
        "Animal": "Toad",
        "Male": "male",
        "Female": "female",
        "Baby": "tadpole",
        "Group of Animals": "knot",
        "Family": ""
    },
    {
        "Animal": "Turkey",
        "Male": "tom",
        "Female": "hen",
        "Baby": "poult",
        "Group of Animals": "rafter",
        "Family": ""
    },
    {
        "Animal": "Turtle",
        "Male": "male",
        "Female": "female",
        "Baby": "hatchling",
        "Group of Animals": "bale",
        "Family": ""
    },
    {
        "Animal": "Wallaby",
        "Male": "jack",
        "Female": "jill",
        "Baby": "joey",
        "Group of Animals": "mob",
        "Family": ""
    },
    {
        "Animal": "Walrus",
        "Male": "bull",
        "Female": "cow",
        "Baby": "cub, pup",
        "Group of Animals": "herd, pod",
        "Family": ""
    },
    {
        "Animal": "Wasp",
        "Male": "drone",
        "Female": "queen (reproducing female), worker (non-reproducing female)",
        "Baby": "larva",
        "Group of Animals": "colony",
        "Family": ""
    },
    {
        "Animal": "Weasel",
        "Male": "dog, buck, Jack, hob",
        "Female": "bitch, doe, Jill",
        "Baby": "kit",
        "Group of Animals": "gang",
        "Family": "musteline"
    },
    {
        "Animal": "Whale",
        "Male": "bull",
        "Female": "cow",
        "Baby": "calf",
        "Group of Animals": "gam, grind, herd, pod, school",
        "Family": ""
    },
    {
        "Animal": "Wolf",
        "Male": "dog",
        "Female": "bitch",
        "Baby": "pup, whelp",
        "Group of Animals": "pack, rout",
        "Family": "lupine"
    },
    {
        "Animal": "Wombat",
        "Male": "jack",
        "Female": "jill",
        "Baby": "joey",
        "Group of Animals": "mob",
        "Family": ""
    },
    {
        "Animal": "Woodpecker",
        "Male": "male",
        "Female": "female",
        "Baby": "chick",
        "Group of Animals": "descent",
        "Family": ""
    },
    {
        "Animal": "Wren",
        "Male": "cock",
        "Female": "jenny",
        "Baby": "chick",
        "Group of Animals": "flock, herd",
        "Family": ""
    },
    {
        "Animal": "Yak",
        "Male": "bull",
        "Female": "cow",
        "Baby": "calf",
        "Group of Animals": "herd",
        "Family": ""
    },
    {
        "Animal": "Yellow Jacket",
        "Male": "drone",
        "Female": "queen (egg-laying female), worker (non-reproducing female)",
        "Baby": "larva",
        "Group of Animals": "colony",
        "Family": ""
    },
    {
        "Animal": "Zebra",
        "Male": "stallion",
        "Female": "mare",
        "Baby": "colt, foal",
        "Group of Animals": "herd, crossing",
        "Family": ""
    }
]