[
    {
        "Pompey the Great": "Sextus Pompey",
        "Imperator": "Imperatorial General",
        "81 - 48 B.C.": "45 - 35 B.C.",
        "col 4": ""
    },
    {
        "Pompey the Great": "Julius Caesar",
        "Imperator": "Imperator & Dictator",
        "81 - 48 B.C.": "61 - 44 B.C.",
        "col 4": ""
    },
    {
        "Pompey the Great": "Brutus",
        "Imperator": "Imperatorial General",
        "81 - 48 B.C.": "50 - 42 B.C.",
        "col 4": ""
    },
    {
        "Pompey the Great": "Cassius",
        "Imperator": "Imperatorial General",
        "81 - 48 B.C.": "50 - 42 B.C.",
        "col 4": ""
    },
    {
        "Pompey the Great": "Ahenobarbus",
        "Imperator": "Imperatorial General",
        "81 - 48 B.C.": "42 - 32 B.C.",
        "col 4": ""
    },
    {
        "Pompey the Great": "Marcus Antonius",
        "Imperator": "Imperator and General",
        "81 - 48 B.C.": "61- 30 B.C.",
        "col 4": ""
    },
    {
        "Pompey the Great": "Lepidus",
        "Imperator": "Imperator",
        "81 - 48 B.C.": "46 - 42 B.C.",
        "col 4": ""
    },
    {
        "Pompey the Great": "Augustus (Octavian)",
        "Imperator": "First Roman Emperor",
        "81 - 48 B.C.": "27 B.C. - 14 A.D.",
        "col 4": ""
    },
    {
        "Pompey the Great": "Agrippa",
        "Imperator": "Imperial General",
        "81 - 48 B.C.": "31 B.C. - 12",
        "col 4": ""
    },
    {
        "Pompey the Great": "Tiberius",
        "Imperator": "Emperor",
        "81 - 48 B.C.": "14 - 37 A.D.",
        "col 4": ""
    },
    {
        "Pompey the Great": "Drusus",
        "Imperator": "Son of Tiberius",
        "81 - 48 B.C.": "23 A.D.",
        "col 4": ""
    },
    {
        "Pompey the Great": "Nero Claudius Drusus",
        "Imperator": "Brother of Tiberius",
        "81 - 48 B.C.": "Died 9 B.C.",
        "col 4": ""
    },
    {
        "Pompey the Great": "Germanicus",
        "Imperator": "Nephew and Adopted Son of Tiberius",
        "81 - 48 B.C.": "Died 19 A.D.",
        "col 4": ""
    },
    {
        "Pompey the Great": "Caligula",
        "Imperator": "Emperor",
        "81 - 48 B.C.": "37 - 41 A.D.",
        "col 4": ""
    },
    {
        "Pompey the Great": "Claudius",
        "Imperator": "Emperor",
        "81 - 48 B.C.": "41 - 54 A.D.",
        "col 4": ""
    },
    {
        "Pompey the Great": "Britannicus",
        "Imperator": "Son of Claudius",
        "81 - 48 B.C.": "Died 55 A.D.",
        "col 4": ""
    },
    {
        "Pompey the Great": "Nero",
        "Imperator": "Emperor",
        "81 - 48 B.C.": "54 - 68 A.D.",
        "col 4": ""
    },
    {
        "Pompey the Great": "Clodius Macer",
        "Imperator": "Rebel against Galba",
        "81 - 48 B.C.": "68 A.D.",
        "col 4": ""
    },
    {
        "Pompey the Great": "Galba",
        "Imperator": "Emperor",
        "81 - 48 B.C.": "68 - 69 A.D.",
        "col 4": ""
    },
    {
        "Pompey the Great": "Otho",
        "Imperator": "Emperor",
        "81 - 48 B.C.": "69 A.D.",
        "col 4": ""
    },
    {
        "Pompey the Great": "Vitellius",
        "Imperator": "Emperor",
        "81 - 48 B.C.": "69 A.D.",
        "col 4": ""
    },
    {
        "Pompey the Great": "Vespasian",
        "Imperator": "Emperor",
        "81 - 48 B.C.": "69 - 79 A.D.",
        "col 4": ""
    },
    {
        "Pompey the Great": "Titus",
        "Imperator": "Emperor",
        "81 - 48 B.C.": "79 - 81 A.D.",
        "col 4": ""
    },
    {
        "Pompey the Great": "Domitian",
        "Imperator": "Emperor",
        "81 - 48 B.C.": "81 - 96 A.D.",
        "col 4": ""
    },
    {
        "Pompey the Great": "Nerva",
        "Imperator": "Emperor",
        "81 - 48 B.C.": "96 - 98 A.D.",
        "col 4": ""
    },
    {
        "Pompey the Great": "Trajan",
        "Imperator": "Emperor",
        "81 - 48 B.C.": "98 - 117 A.D.",
        "col 4": ""
    },
    {
        "Pompey the Great": "Hadrian",
        "Imperator": "Emperor",
        "81 - 48 B.C.": "117 - 138 A.D.",
        "col 4": ""
    },
    {
        "Pompey the Great": "Aelius",
        "Imperator": "Caesar",
        "81 - 48 B.C.": "136 - 138 A.D.",
        "col 4": ""
    },
    {
        "Pompey the Great": "Antoninus Pius",
        "Imperator": "Emperor",
        "81 - 48 B.C.": "138 - 161 A.D.",
        "col 4": ""
    },
    {
        "Pompey the Great": "Marcus Aurelius",
        "Imperator": "Emperor",
        "81 - 48 B.C.": "161 - 180 A.D.",
        "col 4": ""
    },
    {
        "Pompey the Great": "Lucius Verus",
        "Imperator": "Emperor",
        "81 - 48 B.C.": "161 - 169 A.D.",
        "col 4": ""
    },
    {
        "Pompey the Great": "Commodus",
        "Imperator": "Emperor",
        "81 - 48 B.C.": "180 - 192 A.D.",
        "col 4": ""
    },
    {
        "Pompey the Great": "Pertinax",
        "Imperator": "Emperor",
        "81 - 48 B.C.": "193 A.D.",
        "col 4": ""
    },
    {
        "Pompey the Great": "Didius Julianus",
        "Imperator": "Emperor",
        "81 - 48 B.C.": "193 A.D.",
        "col 4": ""
    },
    {
        "Pompey the Great": "Clodius Albinus",
        "Imperator": "Caesar/Contender For the Throne",
        "81 - 48 B.C.": "195 - 197 A.D.",
        "col 4": ""
    },
    {
        "Pompey the Great": "Pescennius Niger",
        "Imperator": "Caesar",
        "81 - 48 B.C.": "193 - 194 A.D.",
        "col 4": ""
    },
    {
        "Pompey the Great": "Septimius Severus",
        "Imperator": "Emperor",
        "81 - 48 B.C.": "193 - 211 A.D.",
        "col 4": ""
    },
    {
        "Pompey the Great": "Geta",
        "Imperator": "Emperor",
        "81 - 48 B.C.": "211 - 212 A.D.",
        "col 4": ""
    },
    {
        "Pompey the Great": "Caracalla",
        "Imperator": "Emperor",
        "81 - 48 B.C.": "211 - 217 A.D.",
        "col 4": ""
    },
    {
        "Pompey the Great": "Macrinus",
        "Imperator": "Emperor",
        "81 - 48 B.C.": "217 - 218 A.D.",
        "col 4": ""
    },
    {
        "Pompey the Great": "Elagabalus",
        "Imperator": "Emperor",
        "81 - 48 B.C.": "218 - 222 A.D.",
        "col 4": ""
    },
    {
        "Pompey the Great": "Severus Alexander",
        "Imperator": "Emperor",
        "81 - 48 B.C.": "222 - 235 A.D.",
        "col 4": ""
    },
    {
        "Pompey the Great": "Maximinus I",
        "Imperator": "Emperor",
        "81 - 48 B.C.": "235 - 238 A.D.",
        "col 4": ""
    },
    {
        "Pompey the Great": "Gordianus I - Africanus",
        "Imperator": "Emperor",
        "81 - 48 B.C.": "238 A.D.",
        "col 4": ""
    },
    {
        "Pompey the Great": "Gordianus II - Africanus",
        "Imperator": "Emperor",
        "81 - 48 B.C.": "238 A.D.",
        "col 4": ""
    },
    {
        "Pompey the Great": "Balbinus and Pupienus",
        "Imperator": "Emperors",
        "81 - 48 B.C.": "238 A.D.",
        "col 4": ""
    },
    {
        "Pompey the Great": "Gordianus III",
        "Imperator": "Emperor",
        "81 - 48 B.C.": "238 - 244 A.D.",
        "col 4": ""
    },
    {
        "Pompey the Great": "Philip I - The Arab",
        "Imperator": "Emperor",
        "81 - 48 B.C.": "244 - 249 A.D.",
        "col 4": ""
    },
    {
        "Pompey the Great": "Philip II",
        "Imperator": "Emperor",
        "81 - 48 B.C.": "247 - 249 A.D.",
        "col 4": ""
    },
    {
        "Pompey the Great": "Pacatian and Jotapian",
        "Imperator": "Usurpers",
        "81 - 48 B.C.": "248 A.D.",
        "col 4": ""
    },
    {
        "Pompey the Great": "Trajan Decius",
        "Imperator": "Emperor",
        "81 - 48 B.C.": "249 - 251 A.D.",
        "col 4": ""
    },
    {
        "Pompey the Great": "Herennius Etruscus",
        "Imperator": "Emperor",
        "81 - 48 B.C.": "251 A.D.",
        "col 4": ""
    },
    {
        "Pompey the Great": "Hostilian",
        "Imperator": "Emperor",
        "81 - 48 B.C.": "251 A.D.",
        "col 4": ""
    },
    {
        "Pompey the Great": "Trebonianus Gallus",
        "Imperator": "Emperor",
        "81 - 48 B.C.": "251 - 253 A.D.",
        "col 4": ""
    },
    {
        "Pompey the Great": "Volusianus",
        "Imperator": "Emperor",
        "81 - 48 B.C.": "251 - 253 A.D.",
        "col 4": ""
    },
    {
        "Pompey the Great": "Aemilianus",
        "Imperator": "Emperor",
        "81 - 48 B.C.": "253 A.D.",
        "col 4": ""
    },
    {
        "Pompey the Great": "Uranius Antoninus",
        "Imperator": "Usurper in Emesa",
        "81 - 48 B.C.": "253 - 254 A.D.",
        "col 4": ""
    },
    {
        "Pompey the Great": "Valerian I",
        "Imperator": "Emperor",
        "81 - 48 B.C.": "253 - 260 A.D.",
        "col 4": ""
    },
    {
        "Pompey the Great": "Valerian II",
        "Imperator": "Caesar",
        "81 - 48 B.C.": "253 - 255 A.D.",
        "col 4": ""
    },
    {
        "Pompey the Great": "Gallienus",
        "Imperator": "Emperor",
        "81 - 48 B.C.": "253 - 268 A.D.",
        "col 4": ""
    },
    {
        "Pompey the Great": "Saloninus",
        "Imperator": "Emperor",
        "81 - 48 B.C.": "259 A.D.",
        "col 4": ""
    },
    {
        "Pompey the Great": "Macrianus",
        "Imperator": "Usurper in the East",
        "81 - 48 B.C.": "260 - 261 A.D.",
        "col 4": ""
    },
    {
        "Pompey the Great": "Quietus",
        "Imperator": "Usurper in the East",
        "81 - 48 B.C.": "260 - 261 A.D.",
        "col 4": ""
    },
    {
        "Pompey the Great": "Postumus",
        "Imperator": "Rebel Emperor in Gaul",
        "81 - 48 B.C.": "259 - 268 A.D.",
        "col 4": ""
    },
    {
        "Pompey the Great": "Laelianus",
        "Imperator": "Rebel Emperor in Gaul",
        "81 - 48 B.C.": "268 A.D.",
        "col 4": ""
    },
    {
        "Pompey the Great": "Marius",
        "Imperator": "Rebel Emperor in Gaul",
        "81 - 48 B.C.": "268 A.D.",
        "col 4": ""
    },
    {
        "Pompey the Great": "Victorinus",
        "Imperator": "Rebel Emperor in Gaul",
        "81 - 48 B.C.": "268 - 270 A.D.",
        "col 4": ""
    },
    {
        "Pompey the Great": "Tetricus I",
        "Imperator": "Rebel Emperor in Gaul",
        "81 - 48 B.C.": "270 - 273 A.D.",
        "col 4": ""
    },
    {
        "Pompey the Great": "Tetricus II",
        "Imperator": "Rebel Emperor in Gaul",
        "81 - 48 B.C.": "270 - 273 A.D.",
        "col 4": ""
    },
    {
        "Pompey the Great": "Claudius Gothicus II",
        "Imperator": "Emperor",
        "81 - 48 B.C.": "268 - 270 A.D.",
        "col 4": ""
    },
    {
        "Pompey the Great": "Quintillius",
        "Imperator": "Emperor",
        "81 - 48 B.C.": "270 A.D.",
        "col 4": ""
    },
    {
        "Pompey the Great": "Aurelianus",
        "Imperator": "Emperor",
        "81 - 48 B.C.": "270 - 275 A.D.",
        "col 4": ""
    },
    {
        "Pompey the Great": "Valabathus Dux Romanorum",
        "Imperator": "Ruler of Palmyra",
        "81 - 48 B.C.": "271 - 272 A.D.",
        "col 4": ""
    },
    {
        "Pompey the Great": "Tacitus",
        "Imperator": "Emperor",
        "81 - 48 B.C.": "275 - 276 A.D.",
        "col 4": ""
    },
    {
        "Pompey the Great": "Florianus",
        "Imperator": "Emperor",
        "81 - 48 B.C.": "276 A.D.",
        "col 4": ""
    },
    {
        "Pompey the Great": "Probus",
        "Imperator": "Emperor",
        "81 - 48 B.C.": "276 - 282 A.D.",
        "col 4": ""
    },
    {
        "Pompey the Great": "Carus",
        "Imperator": "Emperor",
        "81 - 48 B.C.": "282 - 283 A.D.",
        "col 4": ""
    },
    {
        "Pompey the Great": "Carinus",
        "Imperator": "Emperor",
        "81 - 48 B.C.": "283 - 285 A.D.",
        "col 4": ""
    },
    {
        "Pompey the Great": "Numerianus",
        "Imperator": "Emperor",
        "81 - 48 B.C.": "283 - 284 A.D.",
        "col 4": ""
    },
    {
        "Pompey the Great": "Carausius",
        "Imperator": "Rebel Emperor in Britain",
        "81 - 48 B.C.": "287 - 293 A.D.",
        "col 4": ""
    },
    {
        "Pompey the Great": "Allectus",
        "Imperator": "Emperor",
        "81 - 48 B.C.": "293 - 296 A.D.",
        "col 4": ""
    },
    {
        "Pompey the Great": "Diocletian",
        "Imperator": "Emperor",
        "81 - 48 B.C.": "284 - 305 A.D.",
        "col 4": ""
    },
    {
        "Pompey the Great": "Maximianus",
        "Imperator": "Emperor",
        "81 - 48 B.C.": "286 - 305 + 306 - 308 A.D.",
        "col 4": ""
    },
    {
        "Pompey the Great": "Galerius",
        "Imperator": "Emperor",
        "81 - 48 B.C.": "305 - 311 A.D.",
        "col 4": ""
    },
    {
        "Pompey the Great": "Constantius I (Chlorus)",
        "Imperator": "Emperor",
        "81 - 48 B.C.": "305 - 306 A.D.",
        "col 4": ""
    },
    {
        "Pompey the Great": "Severus II",
        "Imperator": "Emperor",
        "81 - 48 B.C.": "306 - 307 A.D.",
        "col 4": ""
    },
    {
        "Pompey the Great": "Maximinus",
        "Imperator": "Emperor",
        "81 - 48 B.C.": "309 - 313 A.D.",
        "col 4": ""
    },
    {
        "Pompey the Great": "Constantine I (The Great)",
        "Imperator": "Emperor",
        "81 - 48 B.C.": "306 - 337 A.D.",
        "col 4": ""
    },
    {
        "Pompey the Great": "Maxentius",
        "Imperator": "Emperor",
        "81 - 48 B.C.": "306 - 312 A.D.",
        "col 4": ""
    },
    {
        "Pompey the Great": "Romulus",
        "Imperator": "Caesar",
        "81 - 48 B.C.": "Died - 309 A.D.",
        "col 4": ""
    },
    {
        "Pompey the Great": "Licinius I",
        "Imperator": "Emperor",
        "81 - 48 B.C.": "308 - 324 A.D.",
        "col 4": ""
    },
    {
        "Pompey the Great": "Licinius II",
        "Imperator": "Caesar",
        "81 - 48 B.C.": "317 - 324 A.D.",
        "col 4": ""
    },
    {
        "Pompey the Great": "Crispus",
        "Imperator": "Caesar",
        "81 - 48 B.C.": "317 - 326 A.D.",
        "col 4": ""
    },
    {
        "Pompey the Great": "Delmatius",
        "Imperator": "Caesar",
        "81 - 48 B.C.": "335 - 337 A.D.",
        "col 4": ""
    },
    {
        "Pompey the Great": "Hanniballinus",
        "Imperator": "Rex",
        "81 - 48 B.C.": "335 - 337 A.D.",
        "col 4": ""
    },
    {
        "Pompey the Great": "Constantine II",
        "Imperator": "Emperor",
        "81 - 48 B.C.": "337 - 340 A.D.",
        "col 4": ""
    },
    {
        "Pompey the Great": "Constans",
        "Imperator": "Emperor",
        "81 - 48 B.C.": "337 - 350 A.D.",
        "col 4": ""
    },
    {
        "Pompey the Great": "Constantius II",
        "Imperator": "Emperor",
        "81 - 48 B.C.": "337 - 361 A.D.",
        "col 4": ""
    },
    {
        "Pompey the Great": "Constantius Gallus",
        "Imperator": "Caesar",
        "81 - 48 B.C.": "351 - 354 A.D.",
        "col 4": ""
    },
    {
        "Pompey the Great": "Magnentius",
        "Imperator": "Emperor",
        "81 - 48 B.C.": "350 - 353 A.D.",
        "col 4": ""
    },
    {
        "Pompey the Great": "Decentius",
        "Imperator": "Caesar",
        "81 - 48 B.C.": "351 - 353 A.D.",
        "col 4": ""
    },
    {
        "Pompey the Great": "Vetranio",
        "Imperator": "Loyal Usurper",
        "81 - 48 B.C.": "350 A.D.",
        "col 4": ""
    },
    {
        "Pompey the Great": "Julian II (The Apostate)",
        "Imperator": "Emperor",
        "81 - 48 B.C.": "361 - 363 A.D.",
        "col 4": ""
    },
    {
        "Pompey the Great": "Jovian",
        "Imperator": "Emperor",
        "81 - 48 B.C.": "363 - 364 A.D.",
        "col 4": ""
    },
    {
        "Pompey the Great": "Valentinian I",
        "Imperator": "Emperor",
        "81 - 48 B.C.": "364 - 375 A.D.",
        "col 4": ""
    },
    {
        "Pompey the Great": "Valens",
        "Imperator": "Emperor",
        "81 - 48 B.C.": "364 - 378 A.D.",
        "col 4": ""
    },
    {
        "Pompey the Great": "Procopius",
        "Imperator": "Usurper",
        "81 - 48 B.C.": "365 - 366 A.D.",
        "col 4": ""
    },
    {
        "Pompey the Great": "Gratian",
        "Imperator": "Emperor",
        "81 - 48 B.C.": "367 - 383 A.D.",
        "col 4": ""
    },
    {
        "Pompey the Great": "Valentinian",
        "Imperator": "Emperor",
        "81 - 48 B.C.": "375 - 392 A.D.",
        "col 4": ""
    },
    {
        "Pompey the Great": "Eugenius",
        "Imperator": "Emperor",
        "81 - 48 B.C.": "394 A.D.",
        "col 4": ""
    },
    {
        "Pompey the Great": "Magnus Maximus",
        "Imperator": "Emperor",
        "81 - 48 B.C.": "383 - 388 A.D.",
        "col 4": ""
    },
    {
        "Pompey the Great": "Theodosius I (The Great)",
        "Imperator": "Emperor",
        "81 - 48 B.C.": "379 - 395 A.D.",
        "col 4": ""
    },
    {
        "Pompey the Great": "Honorius",
        "Imperator": "Emperor",
        "81 - 48 B.C.": "395 - 423 A.D.",
        "col 4": ""
    },
    {
        "Pompey the Great": "Arcadius",
        "Imperator": "Emperor",
        "81 - 48 B.C.": "395 - 408 A.D.",
        "col 4": ""
    },
    {
        "Pompey the Great": "Constantine III",
        "Imperator": "Emperor",
        "81 - 48 B.C.": "407 - 411 A.D.",
        "col 4": ""
    },
    {
        "Pompey the Great": "Constans II",
        "Imperator": "Emperor",
        "81 - 48 B.C.": "408 - 411 A.D.",
        "col 4": ""
    },
    {
        "Pompey the Great": "Constantius III",
        "Imperator": "Emperor",
        "81 - 48 B.C.": "411 A.D.",
        "col 4": ""
    },
    {
        "Pompey the Great": "Priscus Attalus",
        "Imperator": "Puppet Emperor",
        "81 - 48 B.C.": "409 - 410 & 414 - 415A.D.",
        "col 4": ""
    },
    {
        "Pompey the Great": "Johannes",
        "Imperator": "Usurper",
        "81 - 48 B.C.": "423 - 425 A.D.",
        "col 4": ""
    },
    {
        "Pompey the Great": "Theodosius II",
        "Imperator": "Emperor",
        "81 - 48 B.C.": "402 - 450 A.D.",
        "col 4": ""
    },
    {
        "Pompey the Great": "Valentinian III",
        "Imperator": "Emperor",
        "81 - 48 B.C.": "425 - 455 A.D.",
        "col 4": ""
    },
    {
        "Pompey the Great": "Marcian",
        "Imperator": "Emperor",
        "81 - 48 B.C.": "450 - 457 A.D.",
        "col 4": ""
    },
    {
        "Pompey the Great": "Petronius Maximus",
        "Imperator": "Emperor",
        "81 - 48 B.C.": "455 A.D",
        "col 4": ""
    },
    {
        "Pompey the Great": "Avitus",
        "Imperator": "Emperor",
        "81 - 48 B.C.": "456 - 457 A.D.",
        "col 4": ""
    },
    {
        "Pompey the Great": "Leo I",
        "Imperator": "Emperor",
        "81 - 48 B.C.": "457 - 474 A.D.",
        "col 4": ""
    },
    {
        "Pompey the Great": "Majorian",
        "Imperator": "Emperor",
        "81 - 48 B.C.": "457 - 461 A.D.",
        "col 4": ""
    },
    {
        "Pompey the Great": "Minor 5th Century Western Emperors",
        "Imperator": "",
        "81 - 48 B.C.": "461 - 480 A.D.",
        "col 4": ""
    },
    {
        "Pompey the Great": "Romulus Augustus",
        "Imperator": "Emperor",
        "81 - 48 B.C.": "475 - 476 A.D.",
        "col 4": ""
    },
    {
        "Pompey the Great": "Zeno",
        "Imperator": "Emperor",
        "81 - 48 B.C.": "474 - 491 A.D.",
        "col 4": ""
    },
    {
        "Pompey the Great": "Anastasius",
        "Imperator": "Emperor",
        "81 - 48 B.C.": "491 - 518 A.D.",
        "col 4": ""
    },
    {
        "Pompey the Great": "Justin I",
        "Imperator": "Emperor",
        "81 - 48 B.C.": "518 - 527 A.D.",
        "col 4": ""
    },
    {
        "Pompey the Great": "Justinian",
        "Imperator": "Emperor",
        "81 - 48 B.C.": "527 - 565 A.D.",
        "col 4": ""
    }
]