[
    {
        "Name": "Algeria",
        "Date": "1962",
        "Previous Names": "Maghreb",
        "Capital": "Algiers",
        "Government": "Military Dictatorship",
        "Languages": "Arabic French Kabyle"
    },
    {
        "Name": "Angola",
        "Date": "1975",
        "Previous Names": "",
        "Capital": "Luanda",
        "Government": "One Party State",
        "Languages": "Mbundu Portuguese Kongo"
    },
    {
        "Name": "Benin",
        "Date": "",
        "Previous Names": "Dahomey",
        "Capital": "Porto-Novo",
        "Government": "Republic",
        "Languages": "Fon French"
    },
    {
        "Name": "Botswana",
        "Date": "1966",
        "Previous Names": "Bechuanaland",
        "Capital": "Gaborone",
        "Government": "Republic",
        "Languages": "Tswana English Bushmen"
    },
    {
        "Name": "Burkina Faso",
        "Date": "1919",
        "Previous Names": "Upper Volta",
        "Capital": "Ouagadougou",
        "Government": "",
        "Languages": "More French"
    },
    {
        "Name": "Burundi",
        "Date": "",
        "Previous Names": "",
        "Capital": "Bujumbura",
        "Government": "One Party State",
        "Languages": "Rundi French"
    },
    {
        "Name": "Cameroon",
        "Date": "1960",
        "Previous Names": "",
        "Capital": "Yaounde",
        "Government": "Military Dictatorship",
        "Languages": "Fang Bulu Yaunde Fulani English French"
    },
    {
        "Name": "Cape Verde",
        "Date": "",
        "Previous Names": "",
        "Capital": "Praia",
        "Government": "Republic",
        "Languages": "Portuguese"
    },
    {
        "Name": "Central African Republic",
        "Date": "",
        "Previous Names": "",
        "Capital": "Bangui",
        "Government": "Republic",
        "Languages": "Sango French Gbaya Banda"
    },
    {
        "Name": "Chad",
        "Date": "1920",
        "Previous Names": "",
        "Capital": "N'Djamena",
        "Government": "One Party State",
        "Languages": "Sara Arabic French"
    },
    {
        "Name": "Comoros",
        "Date": "",
        "Previous Names": "",
        "Capital": "Moroni",
        "Government": "One Party State",
        "Languages": "Comoran French Arabic"
    },
    {
        "Name": "Congo (Brazzaville)",
        "Date": "",
        "Previous Names": "",
        "Capital": "Brazzaville",
        "Government": "One Party State",
        "Languages": "Lingala Kongo French"
    },
    {
        "Name": "Congo",
        "Date": "",
        "Previous Names": "Zaire",
        "Capital": "Kinshasa",
        "Government": "No effective government",
        "Languages": "Kingwana Luba Kongo Lingala French many others"
    },
    {
        "Name": "Djibouti",
        "Date": "1977",
        "Previous Names": "Afars and Issas",
        "Capital": "Djibouti",
        "Government": "Republic",
        "Languages": "Arabic Afar Somali French"
    },
    {
        "Name": "Egypt",
        "Date": "c3000BC",
        "Previous Names": "United Arab Republic",
        "Capital": "Cairo",
        "Government": "One Party State",
        "Languages": "Arabic"
    },
    {
        "Name": "Equatorial Guinea",
        "Date": "",
        "Previous Names": "",
        "Capital": "Malabo",
        "Government": "Military Dictatorship",
        "Languages": "Fang Spanish"
    },
    {
        "Name": "Eritrea",
        "Date": "1993",
        "Previous Names": "",
        "Capital": "Asmara",
        "Government": "One Party State",
        "Languages": "Tigrinya Tigre"
    },
    {
        "Name": "Ethiopia",
        "Date": "c500BC",
        "Previous Names": "Abassynia",
        "Capital": "Addis Ababa",
        "Government": "Republic",
        "Languages": "Amharic Tigrinya Galla Sidamo Somali English many others"
    },
    {
        "Name": "Gabon",
        "Date": "1839",
        "Previous Names": "",
        "Capital": "Libreville",
        "Government": "One Party State",
        "Languages": "Fang French many others"
    },
    {
        "Name": "Gambia",
        "Date": "",
        "Previous Names": "",
        "Capital": "Banjul",
        "Government": "Military Dictatorship",
        "Languages": "Wolof Malinke English"
    },
    {
        "Name": "Ghana",
        "Date": "1957",
        "Previous Names": "Gold Coast",
        "Capital": "Accra",
        "Government": "Republic",
        "Languages": "Twi Fanti Ewe English"
    },
    {
        "Name": "Guinea",
        "Date": "",
        "Previous Names": "",
        "Capital": "Conakry",
        "Government": "One Party State",
        "Languages": "Fulani Malinke French"
    },
    {
        "Name": "Guinea-Bissaau",
        "Date": "1446",
        "Previous Names": "",
        "Capital": "Bissau",
        "Government": "Republic",
        "Languages": "Balante Fulani Portuguese"
    },
    {
        "Name": "Ivory Coast",
        "Date": "",
        "Previous Names": "",
        "Capital": "Abidjan",
        "Government": "One Party State",
        "Languages": "Dyula French many others"
    },
    {
        "Name": "Kenya",
        "Date": "1885",
        "Previous Names": "East Africa",
        "Capital": "Nairobi",
        "Government": "Republic",
        "Languages": "Swahili English Kikuyu Kamba Luo"
    },
    {
        "Name": "Lesotho",
        "Date": "1818",
        "Previous Names": "Basutoland",
        "Capital": "Maseru",
        "Government": "Republic",
        "Languages": "Sotho English"
    },
    {
        "Name": "Liberia",
        "Date": "",
        "Previous Names": "",
        "Capital": "Monrovia",
        "Government": "No effective government",
        "Languages": "Kpelle English"
    },
    {
        "Name": "Libya",
        "Date": "1934",
        "Previous Names": "",
        "Capital": "Tripoli",
        "Government": "One Party State",
        "Languages": "Arabic Tamashek"
    },
    {
        "Name": "Malagasy Republic",
        "Date": "1958",
        "Previous Names": "Madagascar",
        "Capital": "Antananarivo",
        "Government": "Republic",
        "Languages": "Malagasay"
    },
    {
        "Name": "Malawi",
        "Date": "",
        "Previous Names": "Nyasaland",
        "Capital": "Lilongwe",
        "Government": "Republic",
        "Languages": "Nyanja English Yao"
    },
    {
        "Name": "Mali",
        "Date": "1960",
        "Previous Names": "Soudan",
        "Capital": "Bamako",
        "Government": "Republic",
        "Languages": "Bambara Fulani Soninke Malinke French many others"
    },
    {
        "Name": "Mauritania",
        "Date": "",
        "Previous Names": "",
        "Capital": "Nouakchott",
        "Government": "Military Dictatorship",
        "Languages": "Arabic French"
    },
    {
        "Name": "Mauritius",
        "Date": "",
        "Previous Names": "",
        "Capital": "Port Louis",
        "Government": "Republic",
        "Languages": "French English"
    },
    {
        "Name": "Mayotte",
        "Date": "",
        "Previous Names": "",
        "Capital": "Mamoudzou",
        "Government": "Colony (France)",
        "Languages": ""
    },
    {
        "Name": "Morocco",
        "Date": "1649",
        "Previous Names": "Maghreb",
        "Capital": "Rabat",
        "Government": "Monarchy",
        "Languages": "Arabic Shluh Tamazight Riffian French"
    },
    {
        "Name": "Mozambique",
        "Date": "",
        "Previous Names": "",
        "Capital": "Maputo",
        "Government": "Republic",
        "Languages": "Makua Tsonga Portuguese"
    },
    {
        "Name": "Namibia",
        "Date": "1989",
        "Previous Names": "South West Africa",
        "Capital": "Windhoek",
        "Government": "Republic",
        "Languages": "Ambo English Afrikaans German many others"
    },
    {
        "Name": "Niger",
        "Date": "1922",
        "Previous Names": "",
        "Capital": "Niamey",
        "Government": "Republic",
        "Languages": "Hausa DjermaFulani French"
    },
    {
        "Name": "Nigeria",
        "Date": "",
        "Previous Names": "",
        "Capital": "Abuja",
        "Government": "Republic",
        "Languages": "Hausa Yoruba Ibo Fulani Kanuri Efik English many others"
    },
    {
        "Name": "Reunion",
        "Date": "",
        "Previous Names": "",
        "Capital": "Saint-Denis",
        "Government": "Colony (France)",
        "Languages": "French"
    },
    {
        "Name": "Rwanda",
        "Date": "1915",
        "Previous Names": "",
        "Capital": "Kigali",
        "Government": "One Party State",
        "Languages": "Ruanda French Swahili"
    },
    {
        "Name": "Sao Tome & Principe",
        "Date": "",
        "Previous Names": "",
        "Capital": "Sao Tome",
        "Government": "Republic",
        "Languages": "Portuguese"
    },
    {
        "Name": "Senegal",
        "Date": "1959",
        "Previous Names": "",
        "Capital": "Dakar",
        "Government": "Republic",
        "Languages": "Wolof French Fulani"
    },
    {
        "Name": "Seychelles",
        "Date": "",
        "Previous Names": "",
        "Capital": "Victoria",
        "Government": "Republic",
        "Languages": "French English"
    },
    {
        "Name": "Sierra Leone",
        "Date": "1787",
        "Previous Names": "",
        "Capital": "Freetown",
        "Government": "Republic",
        "Languages": "Mende Temne English"
    },
    {
        "Name": "Somalia",
        "Date": "1886",
        "Previous Names": "Somaliland",
        "Capital": "Mogadishu",
        "Government": "No effective government",
        "Languages": "Somali"
    },
    {
        "Name": "South Africa",
        "Date": "1910",
        "Previous Names": "",
        "Capital": "Pretoria",
        "Government": "Republic",
        "Languages": "English Afrikaans Xhosa Zulu Tswana Sotho Pedi Swazi many others"
    },
    {
        "Name": "Sudan",
        "Date": "1899",
        "Previous Names": "",
        "Capital": "Khartoum",
        "Government": "No effective government",
        "Languages": "Arabic Nubian Beja Dinka"
    },
    {
        "Name": "Swaziland",
        "Date": "1968",
        "Previous Names": "",
        "Capital": "Mbabana",
        "Government": "Monarchy",
        "Languages": "Swazi English"
    },
    {
        "Name": "Tanzania",
        "Date": "1961",
        "Previous Names": "Tanganyka",
        "Capital": "Dar es Salaam",
        "Government": "",
        "Languages": "Swahili English many others"
    },
    {
        "Name": "Togo",
        "Date": "1884",
        "Previous Names": "Togoland",
        "Capital": "Lome",
        "Government": "One Party State",
        "Languages": "Ewe French"
    },
    {
        "Name": "Tunisia",
        "Date": "1881",
        "Previous Names": "Carthage Maghreb",
        "Capital": "Tunis",
        "Government": "",
        "Languages": "Arabic French"
    },
    {
        "Name": "Uganda",
        "Date": "1961",
        "Previous Names": "",
        "Capital": "Kampala",
        "Government": "",
        "Languages": "Luganda English many others"
    },
    {
        "Name": "Zambia",
        "Date": "1888",
        "Previous Names": "Northern Rhodesia",
        "Capital": "Lusaka",
        "Government": "One Party State",
        "Languages": "Bemba English"
    },
    {
        "Name": "Zimbabwe",
        "Date": "1890",
        "Previous Names": "Rhodesia Southern Rhodesia",
        "Capital": "Harare",
        "Government": "One Party State",
        "Languages": "Shona Matebele English"
    }
]