[
    {
        "Name": "Argentina",
        "Date": "1816",
        "Previous Names": "",
        "Capital": "Buenos Aires",
        "Government": "Federal Republic",
        "Languages": "Spanish Italian German"
    },
    {
        "Name": "Bolivia",
        "Date": "1825",
        "Previous Names": "Alto-Peru",
        "Capital": "La Paz",
        "Government": "Republic",
        "Languages": "Spanish Aymara Quechua Guarani"
    },
    {
        "Name": "Bouvet Island",
        "Date": "",
        "Previous Names": "",
        "Capital": "",
        "Government": "Colony (Norway)",
        "Languages": ""
    },
    {
        "Name": "Brazil",
        "Date": "1822",
        "Previous Names": "",
        "Capital": "Brasilia",
        "Government": "Federal Republic",
        "Languages": "Portuguese Tupi Arawak Guarani"
    },
    {
        "Name": "Chile",
        "Date": "1818",
        "Previous Names": "",
        "Capital": "Santiago",
        "Government": "Republic",
        "Languages": "Spanish German Mapuche"
    },
    {
        "Name": "Colombia",
        "Date": "1819",
        "Previous Names": "New Granada",
        "Capital": "Bogota",
        "Government": "Republic",
        "Languages": "Spanish Arawak Carib"
    },
    {
        "Name": "Ecuador",
        "Date": "1830",
        "Previous Names": "New Granada",
        "Capital": "Quito",
        "Government": "Republic",
        "Languages": "Spanish Quechua"
    },
    {
        "Name": "Falkland Islands",
        "Date": "",
        "Previous Names": "",
        "Capital": "Stanley",
        "Government": "Dependency (UK)",
        "Languages": "English"
    },
    {
        "Name": "French Guiana",
        "Date": "",
        "Previous Names": "",
        "Capital": "Cayenne",
        "Government": "Colony (France)",
        "Languages": "French"
    },
    {
        "Name": "Guyana",
        "Date": "",
        "Previous Names": "",
        "Capital": "Georgetown",
        "Government": "Constitutional Monarchy",
        "Languages": "English Arawak"
    },
    {
        "Name": "Paraguay",
        "Date": "1811",
        "Previous Names": "",
        "Capital": "Asuncion",
        "Government": "Republic",
        "Languages": "Spanish Guarani"
    },
    {
        "Name": "Peru",
        "Date": "1824",
        "Previous Names": "",
        "Capital": "Lima",
        "Government": "Republic",
        "Languages": "Spanish Quechua"
    },
    {
        "Name": "South Georgia",
        "Date": "",
        "Previous Names": "",
        "Capital": "Grytviken",
        "Government": "Dependency (UK)",
        "Languages": ""
    },
    {
        "Name": "Suriname",
        "Date": "",
        "Previous Names": "",
        "Capital": "Paramaribo",
        "Government": "Republic",
        "Languages": "Dutch Pidgin English"
    },
    {
        "Name": "Uruguay",
        "Date": "1828",
        "Previous Names": "",
        "Capital": "Montevideo",
        "Government": "Republic",
        "Languages": "Spanish"
    },
    {
        "Name": "Venezuela",
        "Date": "1821",
        "Previous Names": "New Grenada",
        "Capital": "Caracas",
        "Government": "Republic",
        "Languages": "Spanish"
    }
]