[
    {
        "World rank": "n/r",
        "City": "MacAllen",
        "Country": "USA",
        "City population": "110,000",
        "Metro population": "1,058,000",
        "Mayor": "n/k"
    },
    {
        "World rank": "437",
        "City": "Maceio",
        "Country": "Brazil",
        "City population": "922,000",
        "Metro population": "1,100,000",
        "Mayor": "Jos\u00e9 C\u00edcero Soares de Almeida"
    },
    {
        "World rank": "152",
        "City": "Macheng",
        "Country": "China",
        "City population": "1,880,000",
        "Metro population": "",
        "Mayor": "n/k"
    },
    {
        "World rank": "73",
        "City": "MADRID",
        "Country": "Spain",
        "City population": "3,213,000",
        "Metro population": "5,300,000",
        "Mayor": "Alberto Ruiz-Gallard\u00f3n"
    },
    {
        "World rank": "355",
        "City": "Madurai",
        "Country": "India",
        "City population": "1,130,000",
        "Metro population": "",
        "Mayor": "Thenmozhi Gopinathan"
    },
    {
        "World rank": "n/r",
        "City": "Magdeburg",
        "Country": "Germany",
        "City population": "230,000",
        "Metro population": "",
        "Mayor": "Lutz Tr\u00fcmper"
    },
    {
        "World rank": "324",
        "City": "Maiduguri",
        "Country": "Nigeria",
        "City population": "1,200,000",
        "Metro population": "1,200,000",
        "Mayor": "n/k"
    },
    {
        "World rank": "360",
        "City": "Makasar",
        "Country": "Indonesia",
        "City population": "1,113,000",
        "Metro population": "",
        "Mayor": "Ilham Arief Sirajuddin"
    },
    {
        "World rank": "523",
        "City": "Malang",
        "Country": "Indonesia",
        "City population": "742,000",
        "Metro population": "921,000",
        "Mayor": "n/k"
    },
    {
        "World rank": "n/r",
        "City": "Malmo",
        "Country": "Sweden",
        "City population": "244,000",
        "Metro population": "1,340,000",
        "Mayor": "Ilmar Reepalu"
    },
    {
        "World rank": "332",
        "City": "MANAGUA",
        "Country": "Nicaragua",
        "City population": "1,185,000",
        "Metro population": "1,342,000",
        "Mayor": "Daisy Torres"
    },
    {
        "World rank": "173",
        "City": "Manaus",
        "Country": "Brazil",
        "City population": "1,739,000",
        "Metro population": "1,924,000",
        "Mayor": "Amazonino Mendes"
    },
    {
        "World rank": "n/r",
        "City": "Manchester",
        "Country": "UK",
        "City population": "464,000",
        "Metro population": "2,240,230",
        "Mayor": "Mavis Smitheman"
    },
    {
        "World rank": "425",
        "City": "Mandalay",
        "Country": "Myanmar (Burma)",
        "City population": "961,000",
        "Metro population": "1,300,000",
        "Mayor": "Phone Zaw Han"
    },
    {
        "World rank": "7",
        "City": "MANILA METRO",
        "Country": "Philippines",
        "City population": "11,550,000",
        "Metro population": "13,503,000",
        "Mayor": "Alfredo S Lim"
    },
    {
        "World rank": "n/r",
        "City": "Mannheim",
        "Country": "Germany",
        "City population": "311,000",
        "Metro population": "1,456,000",
        "Mayor": "Peter Kurz"
    },
    {
        "World rank": "313",
        "City": "MAPUTO",
        "Country": "Mozambique",
        "City population": "1,244,000",
        "Metro population": "1,640,000",
        "Mayor": "David Simango"
    },
    {
        "World rank": "164",
        "City": "Maracaibo",
        "Country": "Venezuela",
        "City population": "1,799,000",
        "Metro population": "1,868,000",
        "Mayor": "Eveling Trejo"
    },
    {
        "World rank": "n/r",
        "City": "Maracay",
        "Country": "Venezuela",
        "City population": "479,000",
        "Metro population": "1,125,000",
        "Mayor": "Humberto Prieto"
    },
    {
        "World rank": "380",
        "City": "Marrakech",
        "Country": "Morocco",
        "City population": "1,071,000",
        "Metro population": "",
        "Mayor": "n/k"
    },
    {
        "World rank": "464",
        "City": "Marseille",
        "Country": "France",
        "City population": "852,000",
        "Metro population": "1,605,000",
        "Mayor": "Jean-Claude Gaudin"
    },
    {
        "World rank": "81",
        "City": "Mashhad",
        "Country": "Iran",
        "City population": "2,910,000",
        "Metro population": "3,000,000",
        "Mayor": "Mohammad Pejman"
    },
    {
        "World rank": "511",
        "City": "Masqat-Matrah",
        "Country": "Oman",
        "City population": "776,000",
        "Metro population": "776,000",
        "Mayor": "n/k"
    },
    {
        "World rank": "n/r",
        "City": "Matamoros",
        "Country": "Mexico",
        "City population": "370,000",
        "Metro population": "780,000",
        "Mayor": "n/k"
    },
    {
        "World rank": "n/r",
        "City": "Mataram",
        "Country": "Indonesia",
        "City population": "330,000",
        "Metro population": "1,081,000",
        "Mayor": "n/k"
    },
    {
        "World rank": "444",
        "City": "Mbuji-Mayi",
        "Country": "Congo D.R.",
        "City population": "905,000",
        "Metro population": "1,054,000",
        "Mayor": "n/k"
    },
    {
        "World rank": "177",
        "City": "Mecca",
        "Country": "Saudi Arabia",
        "City population": "1,700,000",
        "Metro population": "2,500,000",
        "Mayor": "Osama Al-Bar"
    },
    {
        "World rank": "141",
        "City": "Medan",
        "Country": "Indonesia",
        "City population": "1,990,000",
        "Metro population": "2,390,000",
        "Mayor": "Rahudman Harahap"
    },
    {
        "World rank": "128",
        "City": "Medellin",
        "Country": "Colombia",
        "City population": "2,223,000",
        "Metro population": "3,312,000",
        "Mayor": "Alonso Salazar Jaramillo"
    },
    {
        "World rank": "291",
        "City": "Medina",
        "Country": "Saudi Arabia",
        "City population": "1,300,000",
        "Metro population": "1,300,000",
        "Mayor": "Abdulaziz Bin Majid"
    },
    {
        "World rank": "306",
        "City": "Meerut",
        "Country": "India",
        "City population": "1,277,000",
        "Metro population": "",
        "Mayor": "n/k"
    },
    {
        "World rank": "61",
        "City": "Melbourne",
        "Country": "Australia",
        "City population": "3,635,000",
        "Metro population": "3,3635,000",
        "Mayor": "Robert Doyle"
    },
    {
        "World rank": "555",
        "City": "Memphis",
        "Country": "USA",
        "City population": "670,000",
        "Metro population": "1,281,000",
        "Mayor": "AC Wharton"
    },
    {
        "World rank": "n/r",
        "City": "Mendoza",
        "Country": "Argentina",
        "City population": "113,000",
        "Metro population": "849,000",
        "Mayor": "V\u00edctor Fayad"
    },
    {
        "World rank": "525",
        "City": "Merida",
        "Country": "Mexico",
        "City population": "734,000",
        "Metro population": "890,000",
        "Mayor": "C\u00e9sar Boj\u00f3rquez Zapata"
    },
    {
        "World rank": "411",
        "City": "Mexicali",
        "Country": "Mexico",
        "City population": "1,000,000",
        "Metro population": "1,000,000",
        "Mayor": "n/k"
    },
    {
        "World rank": "14",
        "City": "MEXICO CITY",
        "Country": "Mexico",
        "City population": "8,841,000",
        "Metro population": "21,163,000",
        "Mayor": "Marcelo Ebrard"
    },
    {
        "World rank": "n/r",
        "City": "Miami",
        "Country": "USA",
        "City population": "386,000",
        "Metro population": "5,413,000",
        "Mayor": "Tom\u00e1s Regalado"
    },
    {
        "World rank": "292",
        "City": "Mianyang",
        "Country": "China",
        "City population": "1,300,000",
        "Metro population": "5,200,000",
        "Mayor": "Liu Dong"
    },
    {
        "World rank": "289",
        "City": "Milan",
        "Country": "Italy",
        "City population": "1,302,000",
        "Metro population": "4,051,000",
        "Mayor": "Letizia Moratti"
    },
    {
        "World rank": "569",
        "City": "Milwaukee",
        "Country": "USA",
        "City population": "604,000",
        "Metro population": "1,740,000",
        "Mayor": "Tom Barrett"
    },
    {
        "World rank": "n/r",
        "City": "Minneapolis",
        "Country": "USA",
        "City population": "392,000",
        "Metro population": "3,503,000",
        "Mayor": "R T Rybak"
    },
    {
        "World rank": "155",
        "City": "MINSK",
        "Country": "Belarus",
        "City population": "1,831,000",
        "Metro population": "",
        "Mayor": "Nikolai Ladutko"
    },
    {
        "World rank": "370",
        "City": "Mirat",
        "Country": "India",
        "City population": "1,095,000",
        "Metro population": "1,095,000",
        "Mayor": "n/k"
    },
    {
        "World rank": "218",
        "City": "MOGADISHU",
        "Country": "Somalia",
        "City population": "1,500,000",
        "Metro population": "2,500,000",
        "Mayor": "Mohamud Ahmed Tarzan"
    },
    {
        "World rank": "458",
        "City": "Mombasa",
        "Country": "Kenia",
        "City population": "880,000",
        "Metro population": "",
        "Mayor": "Ahmed Abubakar Mohdhar"
    },
    {
        "World rank": "594",
        "City": "MONROVIA",
        "Country": "Liberia",
        "City population": "543,000",
        "Metro population": "1,010,000",
        "Mayor": "Ophelia Hoff Saytumah"
    },
    {
        "World rank": "137",
        "City": "Monterrey",
        "Country": "Mexico",
        "City population": "2,057,000",
        "Metro population": "3,650,000",
        "Mayor": "Fernando Larrazabal"
    },
    {
        "World rank": "285",
        "City": "MONTEVIDEO",
        "Country": "Uruguay",
        "City population": "1,326,000",
        "Metro population": "1,723,000",
        "Mayor": "Ana Olivera"
    },
    {
        "World rank": "n/r",
        "City": "Montpellier",
        "Country": "France",
        "City population": "252,000",
        "Metro population": "",
        "Mayor": "H\u00e9l\u00e8ne Mandroux-Colas"
    },
    {
        "World rank": "189",
        "City": "Montreal",
        "Country": "Canada",
        "City population": "1,621,000",
        "Metro population": "3,636,000",
        "Mayor": "G\u00e9rald Tremblay"
    },
    {
        "World rank": "10",
        "City": "MOSCOW",
        "Country": "Russia",
        "City population": "10,524,000",
        "Metro population": "14,800,000",
        "Mayor": "Sergei Sobyanin"
    },
    {
        "World rank": "348",
        "City": "Mosul",
        "Country": "Iraq",
        "City population": "1,139,000",
        "Metro population": "1,139,000",
        "Mayor": "n/k"
    },
    {
        "World rank": "402",
        "City": "Mudanjiang",
        "Country": "China",
        "City population": "1,014,000",
        "Metro population": "2,707,000",
        "Mayor": "n/k"
    },
    {
        "World rank": "243",
        "City": "Multan",
        "Country": "Pakistan",
        "City population": "1,424,000",
        "Metro population": "1,500,000",
        "Mayor": "Mian Faisal Mukhtar"
    },
    {
        "World rank": "3",
        "City": "Mumbai (Bombay)",
        "Country": "India",
        "City population": "13,900,000",
        "Metro population": "21,200,000",
        "Mayor": "Shraddha Jadhav"
    },
    {
        "World rank": "271",
        "City": "Munich",
        "Country": "Germany",
        "City population": "1,367,000",
        "Metro population": "2,600,000",
        "Mayor": "Christian Ude"
    },
    {
        "World rank": "n/r",
        "City": "M\u00fcnster",
        "Country": "Germany",
        "City population": "274,000",
        "Metro population": "",
        "Mayor": "Markus Lewe"
    },
    {
        "World rank": "501",
        "City": "Mysore",
        "Country": "India",
        "City population": "799,000",
        "Metro population": "",
        "Mayor": "Purushotham"
    },
    {
        "World rank": "125",
        "City": "Nagoya",
        "Country": "Japan",
        "City population": "2,260,000",
        "Metro population": "9,250,000",
        "Mayor": "Takashi Kawamura"
    },
    {
        "World rank": "117",
        "City": "Nagpur",
        "Country": "India",
        "City population": "2,420,000",
        "Metro population": "",
        "Mayor": "Archana Dehankar"
    },
    {
        "World rank": "74",
        "City": "NAIROBI",
        "Country": "Kenya",
        "City population": "3,130,000",
        "Metro population": "3,300,000",
        "Mayor": "Geoffrey Majiwa"
    },
    {
        "World rank": "224",
        "City": "Nanan",
        "Country": "China",
        "City population": "1,480,000",
        "Metro population": "",
        "Mayor": "Chen Law"
    },
    {
        "World rank": "154",
        "City": "Nanchang",
        "Country": "China",
        "City population": "1,844,000",
        "Metro population": "3.790,000",
        "Mayor": "Hu Xian"
    },
    {
        "World rank": "144",
        "City": "Nanchong",
        "Country": "China",
        "City population": "1,950,000",
        "Metro population": "7,300,000",
        "Mayor": "Liu Hongjian"
    },
    {
        "World rank": "51",
        "City": "Nanjing",
        "Country": "China",
        "City population": "4,150,000",
        "Metro population": "7,600,000",
        "Mayor": "Ji Jianye"
    },
    {
        "World rank": "115",
        "City": "Nanning",
        "Country": "China",
        "City population": "2,450,000",
        "Metro population": "6,480,000",
        "Mayor": "Huang Fangfang"
    },
    {
        "World rank": "n/r",
        "City": "Nantes",
        "Country": "France",
        "City population": "283,000",
        "Metro population": "804,000",
        "Mayor": "Jean-Marc Ayrault"
    },
    {
        "World rank": "500",
        "City": "Nanyang",
        "Country": "China",
        "City population": "800,000",
        "Metro population": "10,700,000",
        "Mayor": "Huang Xingwei"
    },
    {
        "World rank": "423",
        "City": "Naples",
        "Country": "Italy",
        "City population": "963,000",
        "Metro population": "3,000,000",
        "Mayor": "Rosa Russo Jervolino"
    },
    {
        "World rank": "190",
        "City": "Nashik",
        "Country": "India",
        "City population": "1,620,000",
        "Metro population": "",
        "Mayor": "Nayana Gholap"
    },
    {
        "World rank": "565",
        "City": "Nashville",
        "Country": "USA",
        "City population": "626,000",
        "Metro population": "1,633,000",
        "Mayor": "Karl Dean"
    },
    {
        "World rank": "503",
        "City": "Natal",
        "Country": "Brazil",
        "City population": "790,000",
        "Metro population": "1,100,000",
        "Mayor": "n/k"
    },
    {
        "World rank": "478",
        "City": "Naucalpan",
        "Country": "Mexico",
        "City population": "822,000",
        "Metro population": "835,000",
        "Mayor": "Azucena Olivares Villag\u00f3mez"
    },
    {
        "World rank": "201",
        "City": "Neijiang",
        "Country": "China",
        "City population": "1,560,000",
        "Metro population": "",
        "Mayor": "n/k"
    },
    {
        "World rank": "n/r",
        "City": "New Orleans",
        "Country": "USA",
        "City population": "488,000",
        "Metro population": "1,350,000",
        "Mayor": "Mitch Landrieu"
    },
    {
        "World rank": "17",
        "City": "New York City",
        "Country": "USA",
        "City population": "8,364,000",
        "Metro population": "20,090,000",
        "Mayor": "Michael Bloomberg"
    },
    {
        "World rank": "n/r",
        "City": "Newcastle upon Tyne",
        "Country": "UK",
        "City population": "234,000",
        "Metro population": "800,000",
        "Mayor": "n/k"
    },
    {
        "World rank": "346",
        "City": "Nezahualcoyotl",
        "Country": "Mexico",
        "City population": "1,141,000",
        "Metro population": "1,150,000",
        "Mayor": "Edgar Ces\u00e1reo Navarro S\u00e1nchez"
    },
    {
        "World rank": "n/r",
        "City": "Nice",
        "Country": "France",
        "City population": "347,000",
        "Metro population": "943,000",
        "Mayor": "Christian Estrosi"
    },
    {
        "World rank": "486",
        "City": "Niigata",
        "Country": "Japan",
        "City population": "812,000",
        "Metro population": "",
        "Mayor": "Akira Shinoda"
    },
    {
        "World rank": "130",
        "City": "Ningbo",
        "Country": "China",
        "City population": "2,201,000",
        "Metro population": "5,600,000",
        "Mayor": "Mao Guanglie"
    },
    {
        "World rank": "304",
        "City": "Nizhniy Novgorod",
        "Country": "Russia",
        "City population": "1,280,000",
        "Metro population": "1,900,000",
        "Mayor": "Vadim Bulavinov"
    },
    {
        "World rank": "466",
        "City": "Norfolk",
        "Country": "USA",
        "City population": "850,000",
        "Metro population": "1,616,000",
        "Mayor": "Paul D Fraim"
    },
    {
        "World rank": "469",
        "City": "Nova Iguacu",
        "Country": "Brazil",
        "City population": "846,000",
        "Metro population": "959,000",
        "Mayor": "Lindberg Farias"
    },
    {
        "World rank": "258",
        "City": "Novosibirsk",
        "Country": "Russia",
        "City population": "1,396,000",
        "Metro population": "1,429,000",
        "Mayor": "Vladimir Gorodetsky"
    },
    {
        "World rank": "n/r",
        "City": "Nuremberg",
        "Country": "Germany",
        "City population": "504,000",
        "Metro population": "1,008,000",
        "Mayor": "Ulrich Maly"
    },
    {
        "World rank": "n/r",
        "City": "Oakland",
        "Country": "USA",
        "City population": "446,900",
        "Metro population": "",
        "Mayor": "Jean Quan"
    },
    {
        "World rank": "n/r",
        "City": "Oberhausen",
        "Country": "Germany",
        "City population": "216,000",
        "Metro population": "",
        "Mayor": "Klaus Wehling"
    },
    {
        "World rank": "377",
        "City": "Odessa",
        "Country": "Ukraine",
        "City population": "1,080,000",
        "Metro population": "1,200,000",
        "Mayor": "Eduard Gurwits"
    },
    {
        "World rank": "527",
        "City": "Ogbomosho",
        "Country": "Nigeria",
        "City population": "726,000",
        "Metro population": "985,000",
        "Mayor": "n/k"
    },
    {
        "World rank": "539",
        "City": "Okayama",
        "Country": "Japan",
        "City population": "700,000",
        "Metro population": "1,250,000",
        "Mayor": "Shigeo Takaya"
    },
    {
        "World rank": "n/r",
        "City": "Okinawa",
        "Country": "Japan",
        "City population": "129,000",
        "Metro population": "",
        "Mayor": "Kita Kurose"
    },
    {
        "World rank": "588",
        "City": "Oklahoma City",
        "Country": "USA",
        "City population": "551,000",
        "Metro population": "1,276,000",
        "Mayor": "Mick Cornett"
    },
    {
        "World rank": "118",
        "City": "Omdurman",
        "Country": "Sudan",
        "City population": "2,400,000",
        "Metro population": "",
        "Mayor": "Al-Fatih Az-ddin"
    },
    {
        "World rank": "350",
        "City": "Omsk",
        "Country": "Russia",
        "City population": "1,137,000",
        "Metro population": "1,145,000",
        "Mayor": "Viktor Shreyder"
    },
    {
        "World rank": "n/r",
        "City": "Onitsha",
        "Country": "Nigeria",
        "City population": "509,000",
        "Metro population": "1,001,000",
        "Mayor": "n/k"
    },
    {
        "World rank": "547",
        "City": "Oran",
        "Country": "Algeria",
        "City population": "683,000",
        "Metro population": "772,000",
        "Mayor": "Saddek Benkada"
    },
    {
        "World rank": "n/r",
        "City": "Orlando",
        "Country": "USA",
        "City population": "231,000",
        "Metro population": "2,055,000",
        "Mayor": "Buddy Dyer"
    },
    {
        "World rank": "95",
        "City": "Osaka",
        "Country": "Japan",
        "City population": "2,647,000",
        "Metro population": "17,590,000",
        "Mayor": "Kunio Hiramatsu"
    },
    {
        "World rank": "n/r",
        "City": "Osh",
        "Country": "Kyrgyztan",
        "City population": "230,000",
        "Metro population": "",
        "Mayor": "Melis Myrzakmatov"
    },
    {
        "World rank": "n/r",
        "City": "Oshogbo",
        "Country": "Nigeria",
        "City population": "421,000",
        "Metro population": "1,309,000",
        "Mayor": "n/k"
    },
    {
        "World rank": "575",
        "City": "OSLO",
        "Country": "Norway",
        "City population": "584,000",
        "Metro population": "876,000",
        "Mayor": "Fabian Stang"
    },
    {
        "World rank": "483",
        "City": "OTTAWA",
        "Country": "Canada",
        "City population": "815,000",
        "Metro population": "1,131,000",
        "Mayor": "Larry O'Brien"
    },
    {
        "World rank": "225",
        "City": "OUAGADOUGOU",
        "Country": "Burkina Faso",
        "City population": "1,475,000",
        "Metro population": "1,727,000",
        "Mayor": "Simon Compaor\u00e9"
    },
    {
        "World rank": "481",
        "City": "Padang",
        "Country": "Indonesia",
        "City population": "820,000",
        "Metro population": "900,000",
        "Mayor": "Fauzi Bahar"
    },
    {
        "World rank": "195",
        "City": "Palembang",
        "Country": "Indonesia",
        "City population": "1,600,000",
        "Metro population": "",
        "Mayor": "Eddy Santana Putra"
    },
    {
        "World rank": "546",
        "City": "Palermo",
        "Country": "Italy",
        "City population": "684,000",
        "Metro population": "947,000",
        "Mayor": "Diego Cammarata"
    },
    {
        "World rank": "467",
        "City": "PANAMA CITY",
        "Country": "Panama",
        "City population": "850,000",
        "Metro population": "1,220,000",
        "Mayor": "Bosco Vallarino"
    },
    {
        "World rank": "n/r",
        "City": "Panzhihua",
        "Country": "China",
        "City population": "478,000",
        "Metro population": "771,000",
        "Mayor": "n/k"
    },
    {
        "World rank": "133",
        "City": "PARIS",
        "Country": "France",
        "City population": "2,113,000",
        "Metro population": "11,769,000",
        "Mayor": "Bertrand Delano\u00eb"
    },
    {
        "World rank": "160",
        "City": "Patna",
        "Country": "India",
        "City population": "1,800,000",
        "Metro population": "2,500,000",
        "Mayor": "GhanShyam Kumar"
    },
    {
        "World rank": "404",
        "City": "Perm",
        "Country": "Russia",
        "City population": "1,010,000",
        "Metro population": "1,200,000",
        "Mayor": "Igor Shubin"
    },
    {
        "World rank": "193",
        "City": "Perth",
        "Country": "Australia",
        "City population": "1,603,000",
        "Metro population": "",
        "Mayor": "Lisa Scaffidi"
    },
    {
        "World rank": "367",
        "City": "Peshawar",
        "Country": "Pakistan",
        "City population": "1,100,000",
        "Metro population": "3,100,000",
        "Mayor": "Muhammad Umar Khan"
    },
    {
        "World rank": "205",
        "City": "Philadelphia",
        "Country": "USA",
        "City population": "1,540,000",
        "Metro population": "5,345,000",
        "Mayor": "Michael Nutter"
    },
    {
        "World rank": "314",
        "City": "PHNOM PENH",
        "Country": "Cambodia",
        "City population": "1,242,000",
        "Metro population": "2,001,000",
        "Mayor": "Keb Chutema"
    },
    {
        "World rank": "199",
        "City": "Phoenix",
        "Country": "USA",
        "City population": "1,568,000",
        "Metro population": "4,282,000",
        "Mayor": "Phil Gordon"
    },
    {
        "World rank": "325",
        "City": "Pikine-Guediawaye",
        "Country": "Senegal",
        "City population": "1,200,000",
        "Metro population": "",
        "Mayor": "n/k"
    },
    {
        "World rank": "213",
        "City": "Pimpri Chinchwad",
        "Country": "India",
        "City population": "1,515,000",
        "Metro population": "",
        "Mayor": "Yogesh Behl"
    },
    {
        "World rank": "316",
        "City": "Pingdingshan",
        "Country": "China",
        "City population": "1,230,000",
        "Metro population": "5,200,000",
        "Mayor": "Deng Yongjian"
    },
    {
        "World rank": "281",
        "City": "Pingdu",
        "Country": "China",
        "City population": "1,340,000",
        "Metro population": "",
        "Mayor": "n/k"
    },
    {
        "World rank": "n/r",
        "City": "Pittsburgh",
        "Country": "USA",
        "City population": "335,000",
        "Metro population": "2,411,000",
        "Mayor": "Luke Ravenstahl"
    },
    {
        "World rank": "n/r",
        "City": "Pointe Noire",
        "Country": "Congo Br",
        "City population": "527,000",
        "Metro population": "789,000",
        "Mayor": "n/k"
    },
    {
        "World rank": "471",
        "City": "Port Elizabeth",
        "Country": "South Africa",
        "City population": "833,000",
        "Metro population": "1,245,000",
        "Mayor": "Nondumiso Maphasi"
    },
    {
        "World rank": "94",
        "City": "Port Harcourt",
        "Country": "Nigeria",
        "City population": "2,667,000",
        "Metro population": "3,761,000",
        "Mayor": "Azubuike Nmerukini"
    },
    {
        "World rank": "376",
        "City": "PORT-AU-PRINCE",
        "Country": "Haiti",
        "City population": "1,083,000",
        "Metro population": "1,728,000",
        "Mayor": "Jean Yves Jason"
    },
    {
        "World rank": "596",
        "City": "Portland",
        "Country": "USA",
        "City population": "542,000",
        "Metro population": "2,255,000",
        "Mayor": "Sam Adams"
    },
    {
        "World rank": "n/r",
        "City": "Porto",
        "Country": "Portugal",
        "City population": "263,000",
        "Metro population": "1,210,000",
        "Mayor": "Rui Rio"
    },
    {
        "World rank": "273",
        "City": "Porto Alegre",
        "Country": "Brazil",
        "City population": "1,355,000",
        "Metro population": "3,646,000",
        "Mayor": "Jos\u00e9 Fortunati"
    },
    {
        "World rank": "315",
        "City": "PRAGUE",
        "Country": "Czech Republic",
        "City population": "1,242,000",
        "Metro population": "1,900,000",
        "Mayor": "Zdenek Tuma"
    },
    {
        "World rank": "150",
        "City": "Puebla",
        "Country": "Mexico",
        "City population": "1,888,000",
        "Metro population": "2,500,000",
        "Mayor": "Blanca Alcala Ruiz"
    },
    {
        "World rank": "71",
        "City": "Pune",
        "Country": "India",
        "City population": "3,337,000",
        "Metro population": "4,470,000",
        "Mayor": "Mohansingh Rajpal"
    },
    {
        "World rank": "72",
        "City": "PYONGYANG",
        "Country": "North Korea",
        "City population": "3,255,000",
        "Metro population": "3,400,000",
        "Mayor": "n/k"
    },
    {
        "World rank": "330",
        "City": "Qianjiang",
        "Country": "China",
        "City population": "1,190,000",
        "Metro population": "",
        "Mayor": "n/k"
    },
    {
        "World rank": "342",
        "City": "Qidong",
        "Country": "China",
        "City population": "1,160,000",
        "Metro population": "",
        "Mayor": "n/k"
    },
    {
        "World rank": "88",
        "City": "Qingdao",
        "Country": "China",
        "City population": "2,755,000",
        "Metro population": "7,580,000",
        "Mayor": "Xia Geng"
    },
    {
        "World rank": "240",
        "City": "Qiqihaer",
        "Country": "China",
        "City population": "1,439,000",
        "Metro population": "6,011,000",
        "Mayor": "Liu Gang"
    },
    {
        "World rank": "393",
        "City": "Qom",
        "Country": "Iran",
        "City population": "1,042,000",
        "Metro population": "",
        "Mayor": "n/k"
    },
    {
        "World rank": "220",
        "City": "Quanzhou",
        "Country": "China",
        "City population": "1,490,000",
        "Metro population": "7,790,000",
        "Mayor": "Zhu Ming"
    },
    {
        "World rank": "n/r",
        "City": "Qu\u00e9bec",
        "Country": "Canada",
        "City population": "495,000",
        "Metro population": "717,000",
        "Mayor": "R\u00e9gis Labeaume"
    },
    {
        "World rank": "92",
        "City": "Quezon City",
        "Country": "Philippines",
        "City population": "2,680,000",
        "Metro population": "",
        "Mayor": "Herbert M Bautis"
    },
    {
        "World rank": "187",
        "City": "QUITO",
        "Country": "Ecuador",
        "City population": "1,648,000",
        "Metro population": "1,842,000",
        "Mayor": "Augusto Barrera"
    },
    {
        "World rank": "564",
        "City": "RABAT",
        "Country": "Morocco",
        "City population": "627,000",
        "Metro population": "1,790,000",
        "Mayor": "Omar El Bahraoui"
    },
    {
        "World rank": "283",
        "City": "Rajkot",
        "Country": "India",
        "City population": "1,336,000",
        "Metro population": "",
        "Mayor": "Sandhya Vyas"
    },
    {
        "World rank": "n/r",
        "City": "Raleigh",
        "Country": "USA",
        "City population": "393,000",
        "Metro population": "1,691,000",
        "Mayor": "Charles Meeker"
    },
    {
        "World rank": "298",
        "City": "Ranchi",
        "Country": "India",
        "City population": "1,290,000",
        "Metro population": "",
        "Mayor": "Rama Khalkho"
    },
    {
        "World rank": "202",
        "City": "Rawalpindi",
        "Country": "Pakistan",
        "City population": "1,558,000",
        "Metro population": "2,548,000",
        "Mayor": "Raja Hamid Nawaz"
    },
    {
        "World rank": "200",
        "City": "Recife",
        "Country": "Brazil",
        "City population": "1,561,000",
        "Metro population": "3,769,000",
        "Mayor": "Jo\u00e3o da Costa Bezerra Filho"
    },
    {
        "World rank": "n/r",
        "City": "Rennes",
        "Country": "France",
        "City population": "206,000",
        "Metro population": "",
        "Mayor": "Daniel Delaveau"
    },
    {
        "World rank": "591",
        "City": "Ribeirao Preto",
        "Country": "Brazil",
        "City population": "547,000",
        "Metro population": "789,000",
        "Mayor": "D\u00e1rcy Vera"
    },
    {
        "World rank": "n/r",
        "City": "Richmond",
        "Country": "USA",
        "City population": "200,000",
        "Metro population": "1,213,000",
        "Mayor": "Dwight Clinton Jones"
    },
    {
        "World rank": "528",
        "City": "RIGA",
        "Country": "Latvia",
        "City population": "725,000",
        "Metro population": "878,000",
        "Mayor": "Nils Usakovs"
    },
    {
        "World rank": "31",
        "City": "Rio de Janeiro",
        "Country": "Brazil",
        "City population": "6,093,000",
        "Metro population": "14,387,000",
        "Mayor": "Eduardo Paes"
    },
    {
        "World rank": "40",
        "City": "RIYADH",
        "Country": "Saudi Arabia",
        "City population": "4,950,000",
        "Metro population": "5,855,000",
        "Mayor": "Abdul Aziz ibn 'Ayyaf Al Migrin"
    },
    {
        "World rank": "299",
        "City": "Rizhao",
        "Country": "China",
        "City population": "1,290,000",
        "Metro population": "",
        "Mayor": "Zhao Xiaowei"
    },
    {
        "World rank": "n/r",
        "City": "Rochester",
        "Country": "USA",
        "City population": "220,000",
        "Metro population": "1,100,000",
        "Mayor": "n/k"
    },
    {
        "World rank": "90",
        "City": "ROME",
        "Country": "Italy",
        "City population": "2,732,000",
        "Metro population": "3,555,000",
        "Mayor": "Gianni Alemanno"
    },
    {
        "World rank": "343",
        "City": "Rosario",
        "Country": "Argentina",
        "City population": "1,160,000",
        "Metro population": "1,358,000",
        "Mayor": "Miguel Lifschitz"
    },
    {
        "World rank": "n/r",
        "City": "Rostock",
        "Country": "Germany",
        "City population": "201,000",
        "Metro population": "",
        "Mayor": "Roland Methling"
    },
    {
        "World rank": "382",
        "City": "Rostov on Don",
        "Country": "Russia",
        "City population": "1,068,000",
        "Metro population": "1,250,000",
        "Mayor": "Mikhail Chernyshyov"
    },
    {
        "World rank": "572",
        "City": "Rotterdam",
        "Country": "Netherlands",
        "City population": "590,000",
        "Metro population": "1,187,000",
        "Mayor": "Ahmed Aboutaleb"
    },
    {
        "World rank": "232",
        "City": "Rugao",
        "Country": "China",
        "City population": "1,453,000",
        "Metro population": "",
        "Mayor": "Ding Dawei"
    },
    {
        "World rank": "311",
        "City": "Ruian",
        "Country": "China",
        "City population": "1,250,000",
        "Metro population": "",
        "Mayor": "n/k"
    }
]