[
    {
        "Name": "Honorius",
        "Vollstandiger Name": "Flavius Honorius",
        "Regierungszeit": "395\u0096423",
        "Anmerkungen": "Mitkaiser von Theodosius I. und Arcadius seit 393 (gegen Eugenius); Regent: Stilicho (bis 408)"
    },
    {
        "Name": "Gildo",
        "Vollstandiger Name": "unbekannt",
        "Regierungszeit": "397\u0096398",
        "Anmerkungen": "Usurpator (?) in Africa"
    },
    {
        "Name": "Marcus",
        "Vollstandiger Name": "unbekannt",
        "Regierungszeit": "406",
        "Anmerkungen": "Usurpator in Britannien"
    },
    {
        "Name": "Gratian",
        "Vollstandiger Name": "unbekannt",
        "Regierungszeit": "407",
        "Anmerkungen": "Usurpator in Britannien"
    },
    {
        "Name": "Konstantin (III.)",
        "Vollstandiger Name": "Flavius Claudius Constantinus",
        "Regierungszeit": "407\u0096411",
        "Anmerkungen": "Gegenkaiser in Gallien, Spanien und Britannien (409 nominell Mitkaiser des Honorius), ab 409/10 mit Constans (II., Caesar seit 408); Caesar: Julian (ab 409/10)"
    },
    {
        "Name": "Priscus Attalus",
        "Vollstandiger Name": "unbekannt",
        "Regierungszeit": "409\u0096410 414\u0096415",
        "Anmerkungen": "Gegenkaiser in Italien (durch Alarich) bzw. S\u00fcdgallien (durch Athaulf)"
    },
    {
        "Name": "Maximus",
        "Vollstandiger Name": "unbekannt",
        "Regierungszeit": "409/10\u0096411 418/19\u0096420/21",
        "Anmerkungen": "Gegenkaiser in Spanien (durch Gerontius bzw. Gunderich)"
    },
    {
        "Name": "Jovinus",
        "Vollstandiger Name": "unbekannt",
        "Regierungszeit": "411\u0096413",
        "Anmerkungen": "Gegenkaiser in Gallien (durch Gundahar und Goar), ab 412 mit Sebastianus"
    },
    {
        "Name": "Heraclianus",
        "Vollstandiger Name": "unbekannt",
        "Regierungszeit": "412\u0096413",
        "Anmerkungen": "Usurpator (?) in Africa"
    },
    {
        "Name": "Constantius III.",
        "Vollstandiger Name": "Flavius Constantius",
        "Regierungszeit": "421",
        "Anmerkungen": "Mitkaiser des Honorius (Mitregent seit 417), von Theodosius II. nicht anerkannt"
    },
    {
        "Name": "Johannes",
        "Vollstandiger Name": "unbekannt",
        "Regierungszeit": "423\u0096425",
        "Anmerkungen": "durch Castinus (?), von Theodosius II. nicht anerkannt"
    },
    {
        "Name": "Valentinian III.",
        "Vollstandiger Name": "Flavius Placidus Valentinianus",
        "Regierungszeit": "425\u0096455",
        "Anmerkungen": "Caesar unter Theodosius II. seit 424 (gegen Johannes); Regenten: Galla Placidia (bis 437), A\u00ebtius (435\u0096454); erkannte Geiserich als Regenten in Africa an"
    },
    {
        "Name": "Vortigern",
        "Vollstandiger Name": "unbekannt",
        "Regierungszeit": "426\u0096441?",
        "Anmerkungen": "Usurpator (?) in Britannien; Nachfolger: ?Ambrosius Aurelianus"
    },
    {
        "Name": "Pirrus",
        "Vollstandiger Name": "unbekannt",
        "Regierungszeit": "428",
        "Anmerkungen": "Usurpator (?) in Italien"
    },
    {
        "Name": "Petronius Maximus",
        "Vollstandiger Name": "Flavius Petronius Maximus",
        "Regierungszeit": "455",
        "Anmerkungen": "von Markian nicht anerkannt; Caesar: Palladius"
    },
    {
        "Name": "Avitus",
        "Vollstandiger Name": "Flavius Eparchius Avitus",
        "Regierungszeit": "455\u0096456",
        "Anmerkungen": "durch Theoderich II., von Markian nicht anerkannt (?)"
    },
    {
        "Name": "Majorian",
        "Vollstandiger Name": "Flavius Iulius Valerius Maiorianus",
        "Regierungszeit": "457\u0096461",
        "Anmerkungen": "durch Ricimer (?), 457 nominell Caesar (?) unter Leo I."
    },
    {
        "Name": "Marcellus",
        "Vollstandiger Name": "unbekannt",
        "Regierungszeit": "457?",
        "Anmerkungen": "Usurpator (?) in Gallien"
    },
    {
        "Name": "Libius Severus",
        "Vollstandiger Name": "Flavius Libius Severus",
        "Regierungszeit": "461\u0096465",
        "Anmerkungen": "durch Ricimer, von Leo I. nicht anerkannt (?)"
    },
    {
        "Name": "Aegidius",
        "Vollstandiger Name": "unbekannt",
        "Regierungszeit": "461\u0096464/65",
        "Anmerkungen": "Usurpator (?) in Gallien; Nachfolger: Paulus (469?), Syagrius (bis 486/87)"
    },
    {
        "Name": "Anthemius",
        "Vollstandiger Name": "Flavius Procopius Anthemius",
        "Regierungszeit": "467\u0096472",
        "Anmerkungen": "467 Caesar unter Leo I.; Mitregent: Ricimer (bis 470/71)"
    },
    {
        "Name": "Arvandus",
        "Vollstandiger Name": "unbekannt",
        "Regierungszeit": "468",
        "Anmerkungen": "Usurpator (?) in Gallien (durch Eurich)"
    },
    {
        "Name": "Romanus",
        "Vollstandiger Name": "unbekannt",
        "Regierungszeit": "470",
        "Anmerkungen": "Usurpator (?) in Italien (durch Ricimer?)"
    },
    {
        "Name": "Olybrius",
        "Vollstandiger Name": "Flavius Anicius Olybrius",
        "Regierungszeit": "472",
        "Anmerkungen": "durch Ricimer (und Geiserich?), gegen Anthemius, von Leo I. nicht anerkannt (?)"
    },
    {
        "Name": "Glycerius",
        "Vollstandiger Name": "unbekannt",
        "Regierungszeit": "473\u0096474",
        "Anmerkungen": "durch Gundobad, von Leo I. nicht anerkannt"
    },
    {
        "Name": "Julius Nepos",
        "Vollstandiger Name": "Flavius Iulius Nepos",
        "Regierungszeit": "474\u0096480",
        "Anmerkungen": "474 Caesar (?) unter Leo II. und Zenon (gegen Glycerius), Exil ab 475 in Dalmatien; erkannte Eurich als Regenten in S\u00fcdgallien und Spanien an"
    },
    {
        "Name": "Romulus Augustulus",
        "Vollstandiger Name": "Romulus A(u)gustus",
        "Regierungszeit": "475\u0096476",
        "Anmerkungen": "Gegenkaiser in Italien (durch Orestes), von Odoaker abgesetzt"
    }
]