[
    {
        "Title": "Super Mario 64",
        "Developer(s)": "Nintendo",
        "Publisher(s)": "Nintendo",
        "Release Date": "02006-11-19 November 19, 2006",
        "ESRB": "E"
    },
    {
        "Title": "Mario Kart 64",
        "Developer(s)": "Nintendo",
        "Publisher(s)": "Nintendo",
        "Release Date": "02007-01-29 January 29, 2007",
        "ESRB": "E"
    },
    {
        "Title": "Legend of Zelda: Ocarina of TimeThe Legend of Zelda: Ocarina of Time",
        "Developer(s)": "Nintendo",
        "Publisher(s)": "Nintendo",
        "Release Date": "02007-02-26 February 26, 2007",
        "ESRB": "E"
    },
    {
        "Title": "Star Fox 64",
        "Developer(s)": "Nintendo",
        "Publisher(s)": "Nintendo",
        "Release Date": "02007-04-02 April 2, 2007",
        "ESRB": "E"
    },
    {
        "Title": "F-Zero X",
        "Developer(s)": "Nintendo",
        "Publisher(s)": "Nintendo",
        "Release Date": "02007-06-25 June 25, 2007",
        "ESRB": "E"
    },
    {
        "Title": "Paper Mario",
        "Developer(s)": "Intelligent Systems",
        "Publisher(s)": "Nintendo",
        "Release Date": "02007-07-16 July 16, 2007",
        "ESRB": "E"
    },
    {
        "Title": "Wave Race 64",
        "Developer(s)": "Nintendo",
        "Publisher(s)": "Nintendo",
        "Release Date": "02007-08-06 August 6, 2007",
        "ESRB": "E"
    },
    {
        "Title": "Yoshi's Story",
        "Developer(s)": "Nintendo",
        "Publisher(s)": "Nintendo",
        "Release Date": "02007-09-17 September 17, 2007",
        "ESRB": "E"
    },
    {
        "Title": "Sin and Punishment",
        "Developer(s)": "Treasure",
        "Publisher(s)": "Nintendo",
        "Release Date": "02007-10-01 October 1, 2007",
        "ESRB": "T"
    },
    {
        "Title": "Pok?mon Snap",
        "Developer(s)": "HAL Laboratory, Pax Softnica",
        "Publisher(s)": "Nintendo",
        "Release Date": "02007-12-10 December 10, 2007",
        "ESRB": "E"
    },
    {
        "Title": "1080? Snowboarding",
        "Developer(s)": "Nintendo",
        "Publisher(s)": "Nintendo",
        "Release Date": "02008-01-28 January 28, 2008",
        "ESRB": "E"
    },
    {
        "Title": "Kirby 64: The Crystal Shards",
        "Developer(s)": "HAL Laboratory",
        "Publisher(s)": "Nintendo",
        "Release Date": "02008-02-25 February 25, 2008",
        "ESRB": "E"
    },
    {
        "Title": "Cruis'n USA",
        "Developer(s)": "Midway Games",
        "Publisher(s)": "Nintendo",
        "Release Date": "02008-03-31 March 31, 2008",
        "ESRB": "E"
    },
    {
        "Title": "Pok?mon Puzzle League",
        "Developer(s)": "Nintendo Software Technology, Intelligent Systems",
        "Publisher(s)": "Nintendo",
        "Release Date": "02008-05-05 May 5, 2008",
        "ESRB": "E"
    },
    {
        "Title": "Mario Golf",
        "Developer(s)": "Camelot Software",
        "Publisher(s)": "Nintendo",
        "Release Date": "02008-10-06 October 6, 2008",
        "ESRB": "E"
    },
    {
        "Title": "Legend of Zelda: Majora's MaskThe Legend of Zelda: Majora's Mask",
        "Developer(s)": "Nintendo EAD",
        "Publisher(s)": "Nintendo",
        "Release Date": "02009-05-18 May 18, 2009",
        "ESRB": "E"
    },
    {
        "Title": "Super Smash Bros.",
        "Developer(s)": "HAL Laboratory",
        "Publisher(s)": "Nintendo",
        "Release Date": "02009-12-21 December 21, 2009",
        "ESRB": "E"
    },
    {
        "Title": "Ogre Battle 64: Person of Lordly Caliber",
        "Developer(s)": "Quest, Dual Corporation",
        "Publisher(s)": "Square Enix",
        "Release Date": "02010-03-29 March 29, 2010",
        "ESRB": "T"
    },
    {
        "Title": "Mario Tennis",
        "Developer(s)": "Camelot Software",
        "Publisher(s)": "Nintendo",
        "Release Date": "02010-06-28 June 28, 2010",
        "ESRB": "E"
    },
    {
        "Title": "Mario Party 2",
        "Developer(s)": "Hudson Soft",
        "Publisher(s)": "Nintendo",
        "Release Date": "02010-12-20 December 20, 2010",
        "ESRB": "E"
    },
    {
        "Title": "Bomberman Hero",
        "Developer(s)": "Hudson Soft",
        "Publisher(s)": "Hudson Soft",
        "Release Date": "02011-03-07 March 7, 2011",
        "ESRB": "E"
    }
]