[
    {
        "#": "1",
        "Media": "Dainik Jagran",
        "MIX": "30.250"
    },
    {
        "#": "2",
        "Media": "NDTV",
        "MIX": "25.000"
    },
    {
        "#": "3",
        "Media": "Dainik Bhaskar",
        "MIX": "24.800"
    },
    {
        "#": "4",
        "Media": "CNN Editions (International)",
        "MIX": "12.800"
    },
    {
        "#": "5",
        "Media": "CNN",
        "MIX": "12.000"
    },
    {
        "#": "6",
        "Media": "Times of India",
        "MIX": "12.000"
    },
    {
        "#": "7",
        "Media": "Aajtak TV",
        "MIX": "9.000"
    },
    {
        "#": "8",
        "Media": "Rajasthan Patrika",
        "MIX": "7.400"
    },
    {
        "#": "9",
        "Media": "Dina Thanthi",
        "MIX": "7.000"
    },
    {
        "#": "10",
        "Media": "Eenadu",
        "MIX": "6.750"
    },
    {
        "#": "11",
        "Media": "Times Now",
        "MIX": "6.000"
    },
    {
        "#": "12",
        "Media": "ddinews",
        "MIX": "5.600"
    },
    {
        "#": "13",
        "Media": "IBN live",
        "MIX": "5.500"
    },
    {
        "#": "14",
        "Media": "WALL STREET JOURNAL USA",
        "MIX": "5.500"
    },
    {
        "#": "15",
        "Media": "Amar Ujala",
        "MIX": "5.400"
    },
    {
        "#": "16",
        "Media": "Punjab Kesari",
        "MIX": "5.000"
    },
    {
        "#": "17",
        "Media": "Dinamalar",
        "MIX": "5.000"
    },
    {
        "#": "18",
        "Media": "Dinakaran",
        "MIX": "5.000"
    },
    {
        "#": "19",
        "Media": "Anandabazar Patrika",
        "MIX": "5.000"
    },
    {
        "#": "20",
        "Media": "zee news",
        "MIX": "4.800"
    },
    {
        "#": "",
        "Media": "More Media >>",
        "MIX": ""
    }
]