[
    {
        "Rang": "1.",
        "Name": "Kaspisches-Meer",
        "Staat(en)": "Aserbaidschan Russland Kasachstan Turkmenistan Iran",
        "Flache-(km2)": "371.000",
        "Lange-(km)": "1199",
        "Max.-Tiefe-(m)": "1025",
        "Volumen-(km?)": "78.200"
    },
    {
        "Rang": "2.",
        "Name": "Oberer-See",
        "Staat(en)": "USA-Kanada",
        "Flache-(km2)": "82.414",
        "Lange-(km)": "616",
        "Max.-Tiefe-(m)": "405",
        "Volumen-(km?)": "12.100"
    },
    {
        "Rang": "3.",
        "Name": "Victoriasee",
        "Staat(en)": "Kenia Tansania Uganda",
        "Flache-(km2)": "69.485",
        "Lange-(km)": "322",
        "Max.-Tiefe-(m)": "84",
        "Volumen-(km?)": "2750"
    },
    {
        "Rang": "4.",
        "Name": "Huronsee",
        "Staat(en)": "USA-Kanada",
        "Flache-(km2)": "59.596",
        "Lange-(km)": "397",
        "Max.-Tiefe-(m)": "229",
        "Volumen-(km?)": "3540"
    },
    {
        "Rang": "5.",
        "Name": "Michigansee",
        "Staat(en)": "USA",
        "Flache-(km2)": "58.016",
        "Lange-(km)": "517",
        "Max.-Tiefe-(m)": "282",
        "Volumen-(km?)": "4918"
    },
    {
        "Rang": "6.",
        "Name": "Tanganjikasee",
        "Staat(en)": "Tansania DR-Kongo Sambia Burundi",
        "Flache-(km2)": "32.893",
        "Lange-(km)": "676",
        "Max.-Tiefe-(m)": "1470",
        "Volumen-(km?)": "18.900"
    },
    {
        "Rang": "7.",
        "Name": "Baikalsee",
        "Staat(en)": "Russland",
        "Flache-(km2)": "31.500",
        "Lange-(km)": "636",
        "Max.-Tiefe-(m)": "1680 (2008)",
        "Volumen-(km?)": "23.600"
    },
    {
        "Rang": "8.",
        "Name": "Gro?er-B?rensee",
        "Staat(en)": "Kanada",
        "Flache-(km2)": "31.080",
        "Lange-(km)": "373",
        "Max.-Tiefe-(m)": "446",
        "Volumen-(km?)": "2236"
    },
    {
        "Rang": "9.",
        "Name": "Malawisee",
        "Staat(en)": "Malawi Mosambik Tansania",
        "Flache-(km2)": "30.044",
        "Lange-(km)": "579",
        "Max.-Tiefe-(m)": "706",
        "Volumen-(km?)": "8400"
    },
    {
        "Rang": "10.",
        "Name": "Gro?er-Sklavensee",
        "Staat(en)": "Kanada",
        "Flache-(km2)": "28.930",
        "Lange-(km)": "480",
        "Max.-Tiefe-(m)": "614",
        "Volumen-(km?)": "2090"
    },
    {
        "Rang": "11.",
        "Name": "Eriesee",
        "Staat(en)": "USA-Kanada",
        "Flache-(km2)": "25.719",
        "Lange-(km)": "388",
        "Max.-Tiefe-(m)": "64",
        "Volumen-(km?)": "489"
    },
    {
        "Rang": "12.",
        "Name": "Winnipegsee",
        "Staat(en)": "Kanada",
        "Flache-(km2)": "23.553",
        "Lange-(km)": "425",
        "Max.-Tiefe-(m)": "18",
        "Volumen-(km?)": "283"
    },
    {
        "Rang": "13.",
        "Name": "Ontariosee",
        "Staat(en)": "USA-Kanada",
        "Flache-(km2)": "19.477",
        "Lange-(km)": "311",
        "Max.-Tiefe-(m)": "244",
        "Volumen-(km?)": "1639"
    },
    {
        "Rang": "14.",
        "Name": "Balchaschsee",
        "Staat(en)": "Kasachstan",
        "Flache-(km2)": "18.428",
        "Lange-(km)": "605",
        "Max.-Tiefe-(m)": "26",
        "Volumen-(km?)": "106"
    },
    {
        "Rang": "15.",
        "Name": "Ladogasee",
        "Staat(en)": "Russland",
        "Flache-(km2)": "18.130",
        "Lange-(km)": "219",
        "Max.-Tiefe-(m)": "230",
        "Volumen-(km?)": "908"
    },
    {
        "Rang": "16.",
        "Name": "Aralsee",
        "Staat(en)": "Kasachstan Usbekistan",
        "Flache-(km2)": "17.160",
        "Lange-(km)": "428",
        "Max.-Tiefe-(m)": "-",
        "Volumen-(km?)": "-"
    },
    {
        "Rang": "17.",
        "Name": "Wostoksee",
        "Staat(en)": "Antarktis",
        "Flache-(km2)": "15.690",
        "Lange-(km)": "250",
        "Max.-Tiefe-(m)": "1000",
        "Volumen-(km?)": "5400"
    },
    {
        "Rang": "18.",
        "Name": "Onegasee",
        "Staat(en)": "Russland",
        "Flache-(km2)": "9891",
        "Lange-(km)": "248",
        "Max.-Tiefe-(m)": "120",
        "Volumen-(km?)": "280"
    },
    {
        "Rang": "19.",
        "Name": "Titicacasee",
        "Staat(en)": "Bolivien-Peru",
        "Flache-(km2)": "8135",
        "Lange-(km)": "177",
        "Max.-Tiefe-(m)": "281",
        "Volumen-(km?)": "893"
    },
    {
        "Rang": "20.",
        "Name": "Nicaraguasee",
        "Staat(en)": "Nicaragua",
        "Flache-(km2)": "8001",
        "Lange-(km)": "177",
        "Max.-Tiefe-(m)": "26",
        "Volumen-(km?)": "-"
    },
    {
        "Rang": "21.",
        "Name": "Athabascasee",
        "Staat(en)": "Kanada",
        "Flache-(km2)": "7920",
        "Lange-(km)": "335",
        "Max.-Tiefe-(m)": "243",
        "Volumen-(km?)": "204"
    },
    {
        "Rang": "22.",
        "Name": "Turkanasee",
        "Staat(en)": "Kenia-?thiopien",
        "Flache-(km2)": "6405",
        "Lange-(km)": "248",
        "Max.-Tiefe-(m)": "109",
        "Volumen-(km?)": "204"
    },
    {
        "Rang": "23.",
        "Name": "Reindeer-Lake",
        "Staat(en)": "Kanada",
        "Flache-(km2)": "6330",
        "Lange-(km)": "245",
        "Max.-Tiefe-(m)": "337",
        "Volumen-(km?)": "?"
    },
    {
        "Rang": "24.",
        "Name": "Issyk-Kul",
        "Staat(en)": "Kirgisistan",
        "Flache-(km2)": "6200",
        "Lange-(km)": "182",
        "Max.-Tiefe-(m)": "668",
        "Volumen-(km?)": "1738"
    },
    {
        "Rang": "25.",
        "Name": "Urmia-See",
        "Staat(en)": "Iran",
        "Flache-(km2)": "6001",
        "Lange-(km)": "130",
        "Max.-Tiefe-(m)": "16",
        "Volumen-(km?)": "-"
    },
    {
        "Rang": "26.",
        "Name": "Koko-Nor",
        "Staat(en)": "VR-China",
        "Flache-(km2)": "5694",
        "Lange-(km)": "-",
        "Max.-Tiefe-(m)": "-",
        "Volumen-(km?)": "-"
    },
    {
        "Rang": "27.",
        "Name": "V?nern",
        "Staat(en)": "Schweden",
        "Flache-(km2)": "5545",
        "Lange-(km)": "140",
        "Max.-Tiefe-(m)": "106",
        "Volumen-(km?)": "153"
    },
    {
        "Rang": "28.",
        "Name": "Lake-Winnipegosis",
        "Staat(en)": "Kanada",
        "Flache-(km2)": "5403",
        "Lange-(km)": "245",
        "Max.-Tiefe-(m)": "-",
        "Volumen-(km?)": "-"
    },
    {
        "Rang": "29.",
        "Name": "Albertsee",
        "Staat(en)": "Uganda DR-Kongo",
        "Flache-(km2)": "5299",
        "Lange-(km)": "161",
        "Max.-Tiefe-(m)": "58",
        "Volumen-(km?)": "280"
    },
    {
        "Rang": "30.",
        "Name": "Mwerusee",
        "Staat(en)": "Sambia DR-Kongo",
        "Flache-(km2)": "5120",
        "Lange-(km)": "-",
        "Max.-Tiefe-(m)": "27",
        "Volumen-(km?)": "-"
    },
    {
        "Rang": "31.",
        "Name": "Nettilling-Lake",
        "Staat(en)": "Kanada",
        "Flache-(km2)": "5051",
        "Lange-(km)": "123",
        "Max.-Tiefe-(m)": "-",
        "Volumen-(km?)": "-"
    },
    {
        "Rang": "32.",
        "Name": "Lake-Nipigon",
        "Staat(en)": "Kanada",
        "Flache-(km2)": "4848",
        "Lange-(km)": "-",
        "Max.-Tiefe-(m)": "165",
        "Volumen-(km?)": "-"
    },
    {
        "Rang": "33.",
        "Name": "Lake-Manitoba",
        "Staat(en)": "Kanada",
        "Flache-(km2)": "4706",
        "Lange-(km)": "200",
        "Max.-Tiefe-(m)": "-",
        "Volumen-(km?)": "-"
    },
    {
        "Rang": "34.",
        "Name": "Taimyrsee",
        "Staat(en)": "Russland",
        "Flache-(km2)": "4560",
        "Lange-(km)": "250",
        "Max.-Tiefe-(m)": "26",
        "Volumen-(km?)": "-"
    },
    {
        "Rang": "35.",
        "Name": "Chankasee",
        "Staat(en)": "Russland VR-China",
        "Flache-(km2)": "4400",
        "Lange-(km)": "80",
        "Max.-Tiefe-(m)": "-",
        "Volumen-(km?)": "-"
    },
    {
        "Rang": "36.",
        "Name": "Lake-of-the-Woods",
        "Staat(en)": "Kanada-USA",
        "Flache-(km2)": "4390",
        "Lange-(km)": "120",
        "Max.-Tiefe-(m)": "-",
        "Volumen-(km?)": "-"
    },
    {
        "Rang": "37.",
        "Name": "Lake-Dubawnt",
        "Staat(en)": "Kanada",
        "Flache-(km2)": "3833",
        "Lange-(km)": "-",
        "Max.-Tiefe-(m)": "-",
        "Volumen-(km?)": "-"
    },
    {
        "Rang": "38.",
        "Name": "Vansee",
        "Staat(en)": "T?rkei",
        "Flache-(km2)": "3740",
        "Lange-(km)": "120",
        "Max.-Tiefe-(m)": "457",
        "Volumen-(km?)": "-"
    },
    {
        "Rang": "39.",
        "Name": "Tanasee",
        "Staat(en)": "?thiopien",
        "Flache-(km2)": "3628",
        "Lange-(km)": "84",
        "Max.-Tiefe-(m)": "14",
        "Volumen-(km?)": "-"
    },
    {
        "Rang": "40.",
        "Name": "Peipussee",
        "Staat(en)": "Estland Russland",
        "Flache-(km2)": "3555",
        "Lange-(km)": "143",
        "Max.-Tiefe-(m)": "14",
        "Volumen-(km?)": "-"
    },
    {
        "Rang": "41.",
        "Name": "Ubsa-Nor",
        "Staat(en)": "Mongolei",
        "Flache-(km2)": "3350",
        "Lange-(km)": "200",
        "Max.-Tiefe-(m)": "-",
        "Volumen-(km?)": "-"
    },
    {
        "Rang": "42.",
        "Name": "Amadjuak-Lake",
        "Staat(en)": "Kanada",
        "Flache-(km2)": "3115",
        "Lange-(km)": "80",
        "Max.-Tiefe-(m)": "-",
        "Volumen-(km?)": "-"
    },
    {
        "Rang": "43.",
        "Name": "Aydar-Ko?l",
        "Staat(en)": "Usbekistan",
        "Flache-(km2)": "3000",
        "Lange-(km)": "250",
        "Max.-Tiefe-(m)": "-",
        "Volumen-(km?)": "44,3"
    },
    {
        "Rang": "44.",
        "Name": "Kiwusee",
        "Staat(en)": "DR-Kongo Ruanda",
        "Flache-(km2)": "2650",
        "Lange-(km)": "-",
        "Max.-Tiefe-(m)": "450",
        "Volumen-(km?)": "-"
    },
    {
        "Rang": "45.",
        "Name": "Alakol",
        "Staat(en)": "Kasachstan",
        "Flache-(km2)": "2650",
        "Lange-(km)": "-",
        "Max.-Tiefe-(m)": "54",
        "Volumen-(km?)": "58,6"
    },
    {
        "Rang": "46.",
        "Name": "Iliamna-Lake",
        "Staat(en)": "USA",
        "Flache-(km2)": "2622",
        "Lange-(km)": "120",
        "Max.-Tiefe-(m)": ">150",
        "Volumen-(km?)": "-"
    },
    {
        "Rang": "47.",
        "Name": "Chubsogol-Nor",
        "Staat(en)": "Mongolei",
        "Flache-(km2)": "2620",
        "Lange-(km)": "136",
        "Max.-Tiefe-(m)": "262",
        "Volumen-(km?)": "-"
    },
    {
        "Rang": "48.",
        "Name": "Poop?-See",
        "Staat(en)": "Bolivien",
        "Flache-(km2)": "2600",
        "Lange-(km)": "-",
        "Max.-Tiefe-(m)": "-",
        "Volumen-(km?)": "4,02"
    },
    {
        "Rang": "49.",
        "Name": "Lake-Garry",
        "Staat(en)": "Kanada",
        "Flache-(km2)": "2538",
        "Lange-(km)": "-",
        "Max.-Tiefe-(m)": "-",
        "Volumen-(km?)": "-"
    },
    {
        "Rang": "50.",
        "Name": "Eduardsee",
        "Staat(en)": "DR-Kongo Uganda",
        "Flache-(km2)": "2325",
        "Lange-(km)": "65",
        "Max.-Tiefe-(m)": "112",
        "Volumen-(km?)": "-"
    },
    {
        "Rang": "51.",
        "Name": "Wollaston-Lake",
        "Staat(en)": "Kanada",
        "Flache-(km2)": "2286",
        "Lange-(km)": "-",
        "Max.-Tiefe-(m)": "71",
        "Volumen-(km?)": "75"
    },
    {
        "Rang": "52.",
        "Name": "Nueltin-Lake",
        "Staat(en)": "Kanada",
        "Flache-(km2)": "2279",
        "Lange-(km)": "-",
        "Max.-Tiefe-(m)": "-",
        "Volumen-(km?)": "-"
    },
    {
        "Rang": "53.",
        "Name": "Tai-Hu",
        "Staat(en)": "VR-China",
        "Flache-(km2)": "2250",
        "Lange-(km)": "-",
        "Max.-Tiefe-(m)": "-",
        "Volumen-(km?)": "-"
    },
    {
        "Rang": "54.",
        "Name": "Southern-Indian-Lake",
        "Staat(en)": "Kanada",
        "Flache-(km2)": "2248",
        "Lange-(km)": "-",
        "Max.-Tiefe-(m)": "-",
        "Volumen-(km?)": "-"
    },
    {
        "Rang": "55.",
        "Name": "Yathkyed-Lake",
        "Staat(en)": "Kanada",
        "Flache-(km2)": "2227",
        "Lange-(km)": "-",
        "Max.-Tiefe-(m)": "-",
        "Volumen-(km?)": "-"
    },
    {
        "Rang": "56.",
        "Name": "Nam-Tso",
        "Staat(en)": "VR-China",
        "Flache-(km2)": "2207",
        "Lange-(km)": "70",
        "Max.-Tiefe-(m)": "33",
        "Volumen-(km?)": "-"
    },
    {
        "Rang": "57.",
        "Name": "Lake-Mistassini",
        "Staat(en)": "Kanada",
        "Flache-(km2)": "2176",
        "Lange-(km)": "150",
        "Max.-Tiefe-(m)": "-",
        "Volumen-(km?)": "-"
    },
    {
        "Rang": "58.",
        "Name": "Hungtze-Hu",
        "Staat(en)": "VR-China",
        "Flache-(km2)": "1960",
        "Lange-(km)": "-",
        "Max.-Tiefe-(m)": "-",
        "Volumen-(km?)": "-"
    },
    {
        "Rang": "59.",
        "Name": "V?ttern",
        "Staat(en)": "Schweden",
        "Flache-(km2)": "1912",
        "Lange-(km)": "-",
        "Max.-Tiefe-(m)": "119",
        "Volumen-(km?)": "-"
    },
    {
        "Rang": "60.",
        "Name": "Lake-Okeechobee",
        "Staat(en)": "USA",
        "Flache-(km2)": "1890",
        "Lange-(km)": "56",
        "Max.-Tiefe-(m)": "4",
        "Volumen-(km?)": "-"
    },
    {
        "Rang": "61.",
        "Name": "Lago-Buenos-Aires",
        "Staat(en)": "Chile Argentinien",
        "Flache-(km2)": "1850",
        "Lange-(km)": "-",
        "Max.-Tiefe-(m)": "590",
        "Volumen-(km?)": "-"
    },
    {
        "Rang": "62.",
        "Name": "Tschelkar-Tengis",
        "Staat(en)": "Kasachstan",
        "Flache-(km2)": "1825",
        "Lange-(km)": "-",
        "Max.-Tiefe-(m)": "-",
        "Volumen-(km?)": "-"
    },
    {
        "Rang": "63.",
        "Name": "Hara-Usa-Nor",
        "Staat(en)": "Mongolei",
        "Flache-(km2)": "1760",
        "Lange-(km)": "-",
        "Max.-Tiefe-(m)": "-",
        "Volumen-(km?)": "-"
    },
    {
        "Rang": "64.",
        "Name": "Saimaa",
        "Staat(en)": "Finnland",
        "Flache-(km2)": "1760",
        "Lange-(km)": "-",
        "Max.-Tiefe-(m)": "85",
        "Volumen-(km?)": "36"
    },
    {
        "Rang": "65.",
        "Name": "Manzalasee",
        "Staat(en)": "?gypten",
        "Flache-(km2)": "1709",
        "Lange-(km)": "-",
        "Max.-Tiefe-(m)": "-",
        "Volumen-(km?)": "-"
    },
    {
        "Rang": "66.",
        "Name": "Tschanysee",
        "Staat(en)": "Russland",
        "Flache-(km2)": "1700",
        "Lange-(km)": "-",
        "Max.-Tiefe-(m)": "12",
        "Volumen-(km?)": "-"
    },
    {
        "Rang": "67.",
        "Name": "Ziling-Tso",
        "Staat(en)": "VR-China",
        "Flache-(km2)": "1640",
        "Lange-(km)": "72",
        "Max.-Tiefe-(m)": "33",
        "Volumen-(km?)": "-"
    },
    {
        "Rang": "68.",
        "Name": "Lake-Pontchartrain",
        "Staat(en)": "USA",
        "Flache-(km2)": "1630",
        "Lange-(km)": "64",
        "Max.-Tiefe-(m)": "4,26",
        "Volumen-(km?)": "-"
    },
    {
        "Rang": "69.",
        "Name": "Tuz-G?l?",
        "Staat(en)": "T?rkei",
        "Flache-(km2)": "1620",
        "Lange-(km)": "80",
        "Max.-Tiefe-(m)": "2",
        "Volumen-(km?)": "-"
    },
    {
        "Rang": "70.",
        "Name": "Tengis-Ozero",
        "Staat(en)": "Kasachstan",
        "Flache-(km2)": "1590",
        "Lange-(km)": "-",
        "Max.-Tiefe-(m)": "-",
        "Volumen-(km?)": "-"
    },
    {
        "Rang": "71.",
        "Name": "Lago-Argentino",
        "Staat(en)": "Argentinien",
        "Flache-(km2)": "1490",
        "Lange-(km)": "-",
        "Max.-Tiefe-(m)": "500",
        "Volumen-(km?)": "-"
    },
    {
        "Rang": "72.",
        "Name": "Baker-Lake",
        "Staat(en)": "Kanada",
        "Flache-(km2)": "1480",
        "Lange-(km)": "-",
        "Max.-Tiefe-(m)": "-",
        "Volumen-(km?)": "-"
    },
    {
        "Rang": "73.",
        "Name": "Lake-Claire",
        "Staat(en)": "Kanada",
        "Flache-(km2)": "1436",
        "Lange-(km)": "59",
        "Max.-Tiefe-(m)": "-",
        "Volumen-(km?)": "-"
    },
    {
        "Rang": "74.",
        "Name": "Island-Lake",
        "Staat(en)": "Kanada",
        "Flache-(km2)": "1425",
        "Lange-(km)": "-",
        "Max.-Tiefe-(m)": "-",
        "Volumen-(km?)": "-"
    },
    {
        "Rang": "75.",
        "Name": "Lac-Seul",
        "Staat(en)": "Kanada",
        "Flache-(km2)": "1396",
        "Lange-(km)": "241",
        "Max.-Tiefe-(m)": "47",
        "Volumen-(km?)": "-"
    },
    {
        "Rang": "76.",
        "Name": "Lac-a-l'eau-Claire",
        "Staat(en)": "Kanada",
        "Flache-(km2)": "1386",
        "Lange-(km)": "-",
        "Max.-Tiefe-(m)": "-",
        "Volumen-(km?)": "-"
    },
    {
        "Rang": "77.",
        "Name": "Hirgis-Nur",
        "Staat(en)": "Mongolei",
        "Flache-(km2)": "1360",
        "Lange-(km)": "-",
        "Max.-Tiefe-(m)": "-",
        "Volumen-(km?)": "-"
    },
    {
        "Rang": "78.",
        "Name": "Moose-Lake",
        "Staat(en)": "Kanada",
        "Flache-(km2)": "1359",
        "Lange-(km)": "-",
        "Max.-Tiefe-(m)": "-",
        "Volumen-(km?)": "-"
    },
    {
        "Rang": "79.",
        "Name": "Cedar-Lake",
        "Staat(en)": "Kanada",
        "Flache-(km2)": "1339",
        "Lange-(km)": "-",
        "Max.-Tiefe-(m)": "-",
        "Volumen-(km?)": "-"
    },
    {
        "Rang": "80.",
        "Name": "Tangra-Tso",
        "Staat(en)": "VR-China",
        "Flache-(km2)": "1295",
        "Lange-(km)": "-",
        "Max.-Tiefe-(m)": "-",
        "Volumen-(km?)": "-"
    },
    {
        "Rang": "81.",
        "Name": "Tobasee",
        "Staat(en)": "Indonesien",
        "Flache-(km2)": "1264",
        "Lange-(km)": "100",
        "Max.-Tiefe-(m)": "505",
        "Volumen-(km?)": "240"
    },
    {
        "Rang": "82.",
        "Name": "Lac-Minto",
        "Staat(en)": "Kanada",
        "Flache-(km2)": "1256",
        "Lange-(km)": "-",
        "Max.-Tiefe-(m)": "-",
        "Volumen-(km?)": "-"
    },
    {
        "Rang": "83.",
        "Name": "Lake-Aberdeen",
        "Staat(en)": "Kanada",
        "Flache-(km2)": "1230",
        "Lange-(km)": "90",
        "Max.-Tiefe-(m)": "-",
        "Volumen-(km?)": "-"
    },
    {
        "Rang": "84.",
        "Name": "Wyg-ozero",
        "Staat(en)": "Russland",
        "Flache-(km2)": "1200",
        "Lange-(km)": "-",
        "Max.-Tiefe-(m)": "-",
        "Volumen-(km?)": "-"
    },
    {
        "Rang": "85.",
        "Name": "Lac-La-Martre",
        "Staat(en)": "Kanada",
        "Flache-(km2)": "1174",
        "Lange-(km)": "-",
        "Max.-Tiefe-(m)": "-",
        "Volumen-(km?)": "-"
    },
    {
        "Rang": "86.",
        "Name": "Kleiner-Sklavensee",
        "Staat(en)": "Kanada",
        "Flache-(km2)": "1168",
        "Lange-(km)": "97",
        "Max.-Tiefe-(m)": "20,5",
        "Volumen-(km?)": "-"
    },
    {
        "Rang": "87.",
        "Name": "Lac-La-Ronge",
        "Staat(en)": "Kanada",
        "Flache-(km2)": "1166",
        "Lange-(km)": "-",
        "Max.-Tiefe-(m)": "-",
        "Volumen-(km?)": "-"
    },
    {
        "Rang": "88.",
        "Name": "Cree-Lake",
        "Staat(en)": "Kanada",
        "Flache-(km2)": "1155",
        "Lange-(km)": "-",
        "Max.-Tiefe-(m)": "-",
        "Volumen-(km?)": "-"
    },
    {
        "Rang": "89.",
        "Name": "Abajasee",
        "Staat(en)": "?thiopien",
        "Flache-(km2)": "1150",
        "Lange-(km)": "72",
        "Max.-Tiefe-(m)": "13",
        "Volumen-(km?)": "-"
    },
    {
        "Rang": "90.",
        "Name": "Hawr-as-Saniyah",
        "Staat(en)": "Irak",
        "Flache-(km2)": "1142",
        "Lange-(km)": "-",
        "Max.-Tiefe-(m)": "-",
        "Volumen-(km?)": "-"
    },
    {
        "Rang": "91.",
        "Name": "M?laren",
        "Staat(en)": "Schweden",
        "Flache-(km2)": "1140",
        "Lange-(km)": "115",
        "Max.-Tiefe-(m)": "66",
        "Volumen-(km?)": "14,3"
    },
    {
        "Rang": "92.",
        "Name": "Lake-Champlain",
        "Staat(en)": "USA-Kanada",
        "Flache-(km2)": "1130",
        "Lange-(km)": "180",
        "Max.-Tiefe-(m)": "121",
        "Volumen-(km?)": "-"
    },
    {
        "Rang": "93.",
        "Name": "Beloje-Ozero",
        "Staat(en)": "Russland",
        "Flache-(km2)": "1125",
        "Lange-(km)": "-",
        "Max.-Tiefe-(m)": "-",
        "Volumen-(km?)": "-"
    },
    {
        "Rang": "94.",
        "Name": "Lake-St.Clair",
        "Staat(en)": "Kanada-USA",
        "Flache-(km2)": "1114",
        "Lange-(km)": "42",
        "Max.-Tiefe-(m)": "8,2",
        "Volumen-(km?)": "4"
    },
    {
        "Rang": "95.",
        "Name": "Lac-Sakami",
        "Staat(en)": "Kanada",
        "Flache-(km2)": "1100",
        "Lange-(km)": "-",
        "Max.-Tiefe-(m)": "-",
        "Volumen-(km?)": "-"
    },
    {
        "Rang": "96.",
        "Name": "Napaktulik-Lake",
        "Staat(en)": "Kanada",
        "Flache-(km2)": "1080",
        "Lange-(km)": "-",
        "Max.-Tiefe-(m)": "-",
        "Volumen-(km?)": "-"
    },
    {
        "Rang": "97.",
        "Name": "Kasba-Lake",
        "Staat(en)": "Kanada",
        "Flache-(km2)": "1077",
        "Lange-(km)": "-",
        "Max.-Tiefe-(m)": "-",
        "Volumen-(km?)": "-"
    },
    {
        "Rang": "98.",
        "Name": "P?ij?nne",
        "Staat(en)": "Finnland",
        "Flache-(km2)": "1068",
        "Lange-(km)": "-",
        "Max.-Tiefe-(m)": "95",
        "Volumen-(km?)": "-"
    },
    {
        "Rang": "99.",
        "Name": "MacKay-Lake",
        "Staat(en)": "Kanada",
        "Flache-(km2)": "1061",
        "Lange-(km)": "-",
        "Max.-Tiefe-(m)": "-",
        "Volumen-(km?)": "-"
    },
    {
        "Rang": "100.",
        "Name": "Chapalasee",
        "Staat(en)": "Mexiko",
        "Flache-(km2)": "1056",
        "Lange-(km)": "80",
        "Max.-Tiefe-(m)": "12",
        "Volumen-(km?)": "-"
    },
    {
        "Rang": "101.",
        "Name": "Top-ozero",
        "Staat(en)": "Russland",
        "Flache-(km2)": "1049",
        "Lange-(km)": "-",
        "Max.-Tiefe-(m)": "-",
        "Volumen-(km?)": "-"
    },
    {
        "Rang": "102.",
        "Name": "Inarisee",
        "Staat(en)": "Finnland",
        "Flache-(km2)": "1040",
        "Lange-(km)": "80",
        "Max.-Tiefe-(m)": "92",
        "Volumen-(km?)": "-"
    },
    {
        "Rang": "103.",
        "Name": "Kamilukuak-Lake",
        "Staat(en)": "Kanada",
        "Flache-(km2)": "1036",
        "Lange-(km)": "-",
        "Max.-Tiefe-(m)": "-",
        "Volumen-(km?)": "-"
    },
    {
        "Rang": "104.",
        "Name": "Kuschmurunsee",
        "Staat(en)": "Kasachstan",
        "Flache-(km2)": "1036",
        "Lange-(km)": "-",
        "Max.-Tiefe-(m)": "-",
        "Volumen-(km?)": "-"
    },
    {
        "Rang": "105.",
        "Name": "Managuasee",
        "Staat(en)": "Nicaragua",
        "Flache-(km2)": "1035",
        "Lange-(km)": "65",
        "Max.-Tiefe-(m)": "-",
        "Volumen-(km?)": "-"
    },
    {
        "Rang": "106.",
        "Name": "Ebi-Nor",
        "Staat(en)": "VR-China",
        "Flache-(km2)": "1024",
        "Lange-(km)": "-",
        "Max.-Tiefe-(m)": "-",
        "Volumen-(km?)": "-"
    },
    {
        "Rang": "107.",
        "Name": "Lac-Bienville",
        "Staat(en)": "Kanada",
        "Flache-(km2)": "1015",
        "Lange-(km)": "-",
        "Max.-Tiefe-(m)": "-",
        "Volumen-(km?)": "-"
    },
    {
        "Rang": "108.",
        "Name": "Granville-Lake",
        "Staat(en)": "Kanada",
        "Flache-(km2)": "1015",
        "Lange-(km)": "-",
        "Max.-Tiefe-(m)": "-",
        "Volumen-(km?)": "-"
    },
    {
        "Rang": "109.",
        "Name": "Lago-San-Martin",
        "Staat(en)": "Chile Argentinien",
        "Flache-(km2)": "1010",
        "Lange-(km)": "-",
        "Max.-Tiefe-(m)": "-",
        "Volumen-(km?)": "-"
    },
    {
        "Rang": "110.",
        "Name": "Lac-St.-Jean",
        "Staat(en)": "Kanada",
        "Flache-(km2)": "1003",
        "Lange-(km)": "43,8",
        "Max.-Tiefe-(m)": "63",
        "Volumen-(km?)": "-"
    }
]