[
    {
        "1T": "JP",
        "1Time": "Adria Airways",
        "WebCheckIn": "WebCheckIn",
        "Reisegepack": "Reisegep\u00e4ck"
    },
    {
        "1T": "A3",
        "1Time": "Aegean Airlines",
        "WebCheckIn": "WebCheckIn",
        "Reisegepack": "Reisegep\u00e4ck"
    },
    {
        "1T": "RE",
        "1Time": "Aer Arann",
        "WebCheckIn": "WebCheckIn",
        "Reisegepack": "Reisegep\u00e4ck"
    },
    {
        "1T": "EI",
        "1Time": "Aer Lingus",
        "WebCheckIn": "WebCheckIn",
        "Reisegepack": "Reisegep\u00e4ck"
    },
    {
        "1T": "AJ",
        "1Time": "Aero",
        "WebCheckIn": "WebCheckIn",
        "Reisegepack": "Reisegep\u00e4ck"
    },
    {
        "1T": "P5",
        "1Time": "Aero Republica",
        "WebCheckIn": "WebCheckIn",
        "Reisegepack": "Reisegep\u00e4ck"
    },
    {
        "1T": "SU",
        "1Time": "Aeroflot Russian Airlines",
        "WebCheckIn": "WebCheckIn",
        "Reisegepack": "Reisegep\u00e4ck"
    },
    {
        "1T": "7E",
        "1Time": "Aeroline GmbH",
        "WebCheckIn": "WebCheckIn",
        "Reisegepack": "Reisegep\u00e4ck"
    },
    {
        "1T": "AR",
        "1Time": "Aerolineas Argentinas",
        "WebCheckIn": "WebCheckIn",
        "Reisegepack": "Reisegep\u00e4ck"
    },
    {
        "1T": "VW",
        "1Time": "Aeromar",
        "WebCheckIn": "WebCheckIn",
        "Reisegepack": "Reisegep\u00e4ck"
    },
    {
        "1T": "AM",
        "1Time": "Aeromexico",
        "WebCheckIn": "WebCheckIn",
        "Reisegepack": "Reisegep\u00e4ck"
    },
    {
        "1T": "5L",
        "1Time": "Aerosur",
        "WebCheckIn": "WebCheckIn",
        "Reisegepack": "Reisegep\u00e4ck"
    },
    {
        "1T": "VV",
        "1Time": "Aerosvit",
        "WebCheckIn": "WebCheckIn",
        "Reisegepack": "Reisegep\u00e4ck"
    },
    {
        "1T": "8U",
        "1Time": "Afriqiyah Airways",
        "WebCheckIn": "WebCheckIn",
        "Reisegepack": "Reisegep\u00e4ck"
    },
    {
        "1T": "ZI",
        "1Time": "Aigle Azur",
        "WebCheckIn": "WebCheckIn",
        "Reisegepack": "Reisegep\u00e4ck"
    },
    {
        "1T": "AH",
        "1Time": "Air Algerie",
        "WebCheckIn": "WebCheckIn",
        "Reisegepack": "Reisegep\u00e4ck"
    },
    {
        "1T": "A6",
        "1Time": "Air Alps",
        "WebCheckIn": "WebCheckIn",
        "Reisegepack": "Reisegep\u00e4ck"
    },
    {
        "1T": "G9",
        "1Time": "Air Arabia",
        "WebCheckIn": "WebCheckIn",
        "Reisegepack": "Reisegep\u00e4ck"
    },
    {
        "1T": "KC",
        "1Time": "Air Astana",
        "WebCheckIn": "WebCheckIn",
        "Reisegepack": "Reisegep\u00e4ck"
    },
    {
        "1T": "UU",
        "1Time": "Air Austral",
        "WebCheckIn": "WebCheckIn",
        "Reisegepack": "Reisegep\u00e4ck"
    },
    {
        "1T": "JA",
        "1Time": "Air Bosna",
        "WebCheckIn": "WebCheckIn",
        "Reisegepack": "Reisegep\u00e4ck"
    },
    {
        "1T": "BP",
        "1Time": "Air Botswana",
        "WebCheckIn": "WebCheckIn",
        "Reisegepack": "Reisegep\u00e4ck"
    },
    {
        "1T": "SB",
        "1Time": "Air Caledonie International",
        "WebCheckIn": "WebCheckIn",
        "Reisegepack": "Reisegep\u00e4ck"
    },
    {
        "1T": "AC",
        "1Time": "Air Canada",
        "WebCheckIn": "WebCheckIn",
        "Reisegepack": "Reisegep\u00e4ck"
    },
    {
        "1T": "QK",
        "1Time": "Air Canada Jazz",
        "WebCheckIn": "WebCheckIn",
        "Reisegepack": "Reisegep\u00e4ck"
    },
    {
        "1T": "TX",
        "1Time": "Air Caraibes",
        "WebCheckIn": "WebCheckIn",
        "Reisegepack": "Reisegep\u00e4ck"
    },
    {
        "1T": "CV",
        "1Time": "Air Chathams",
        "WebCheckIn": "WebCheckIn",
        "Reisegepack": "Reisegep\u00e4ck"
    },
    {
        "1T": "CA",
        "1Time": "Air China",
        "WebCheckIn": "WebCheckIn",
        "Reisegepack": "Reisegep\u00e4ck"
    },
    {
        "1T": "UX",
        "1Time": "Air Europa",
        "WebCheckIn": "WebCheckIn",
        "Reisegepack": "Reisegep\u00e4ck"
    },
    {
        "1T": "AF",
        "1Time": "Air France",
        "WebCheckIn": "WebCheckIn",
        "Reisegepack": "Reisegep\u00e4ck"
    },
    {
        "1T": "GL",
        "1Time": "Air Greenland",
        "WebCheckIn": "WebCheckIn",
        "Reisegepack": "Reisegep\u00e4ck"
    },
    {
        "1T": "AI",
        "1Time": "Air India",
        "WebCheckIn": "WebCheckIn",
        "Reisegepack": "Reisegep\u00e4ck"
    },
    {
        "1T": "3H",
        "1Time": "Air Inuit",
        "WebCheckIn": "WebCheckIn",
        "Reisegepack": "Reisegep\u00e4ck"
    },
    {
        "1T": "I9",
        "1Time": "Air Italy",
        "WebCheckIn": "WebCheckIn",
        "Reisegepack": "Reisegep\u00e4ck"
    },
    {
        "1T": "VU",
        "1Time": "Air Ivoire",
        "WebCheckIn": "WebCheckIn",
        "Reisegepack": "Reisegep\u00e4ck"
    },
    {
        "1T": "JM",
        "1Time": "Air Jamaica",
        "WebCheckIn": "WebCheckIn",
        "Reisegepack": "Reisegep\u00e4ck"
    },
    {
        "1T": "4A",
        "1Time": "Air Kiribati",
        "WebCheckIn": "WebCheckIn",
        "Reisegepack": "Reisegep\u00e4ck"
    },
    {
        "1T": "NX",
        "1Time": "Air Macau",
        "WebCheckIn": "WebCheckIn",
        "Reisegepack": "Reisegep\u00e4ck"
    },
    {
        "1T": "MD",
        "1Time": "Air Madagaskar",
        "WebCheckIn": "WebCheckIn",
        "Reisegepack": "Reisegep\u00e4ck"
    },
    {
        "1T": "KM",
        "1Time": "Air Malta",
        "WebCheckIn": "WebCheckIn",
        "Reisegepack": "Reisegep\u00e4ck"
    },
    {
        "1T": "MK",
        "1Time": "Air Mauritius",
        "WebCheckIn": "WebCheckIn",
        "Reisegepack": "Reisegep\u00e4ck"
    },
    {
        "1T": "9U",
        "1Time": "Air Moldavia",
        "WebCheckIn": "WebCheckIn",
        "Reisegepack": "Reisegep\u00e4ck"
    },
    {
        "1T": "SW",
        "1Time": "Air Namibia",
        "WebCheckIn": "WebCheckIn",
        "Reisegepack": "Reisegep\u00e4ck"
    },
    {
        "1T": "NZ",
        "1Time": "Air New Zealand",
        "WebCheckIn": "WebCheckIn",
        "Reisegepack": "Reisegep\u00e4ck"
    },
    {
        "1T": "FJ",
        "1Time": "Air Pacific",
        "WebCheckIn": "WebCheckIn",
        "Reisegepack": "Reisegep\u00e4ck"
    },
    {
        "1T": "HM",
        "1Time": "Air Seychelles",
        "WebCheckIn": "WebCheckIn",
        "Reisegepack": "Reisegep\u00e4ck"
    },
    {
        "1T": "WO",
        "1Time": "Air Southwest",
        "WebCheckIn": "WebCheckIn",
        "Reisegepack": "Reisegep\u00e4ck"
    },
    {
        "1T": "VT",
        "1Time": "Air Tahiti",
        "WebCheckIn": "WebCheckIn",
        "Reisegepack": "Reisegep\u00e4ck"
    },
    {
        "1T": "TN",
        "1Time": "Air Tahiti Nui",
        "WebCheckIn": "WebCheckIn",
        "Reisegepack": "Reisegep\u00e4ck"
    },
    {
        "1T": "TS",
        "1Time": "Air Transat",
        "WebCheckIn": "WebCheckIn",
        "Reisegepack": "Reisegep\u00e4ck"
    },
    {
        "1T": "AK",
        "1Time": "AirAsia",
        "WebCheckIn": "WebCheckIn",
        "Reisegepack": "Reisegep\u00e4ck"
    },
    {
        "1T": "BT",
        "1Time": "airBaltic",
        "WebCheckIn": "WebCheckIn",
        "Reisegepack": "Reisegep\u00e4ck"
    },
    {
        "1T": "AB",
        "1Time": "airberlin",
        "WebCheckIn": "WebCheckIn",
        "Reisegepack": "Reisegep\u00e4ck"
    },
    {
        "1T": "4C",
        "1Time": "Aires Aero",
        "WebCheckIn": "WebCheckIn",
        "Reisegepack": "Reisegep\u00e4ck"
    },
    {
        "1T": "P2",
        "1Time": "AirKenya",
        "WebCheckIn": "WebCheckIn",
        "Reisegepack": "Reisegep\u00e4ck"
    },
    {
        "1T": "FL",
        "1Time": "AirTran Airways",
        "WebCheckIn": "WebCheckIn",
        "Reisegepack": "Reisegep\u00e4ck"
    },
    {
        "1T": "AS",
        "1Time": "Alaska Airlines",
        "WebCheckIn": "WebCheckIn",
        "Reisegepack": "Reisegep\u00e4ck"
    },
    {
        "1T": "AZ",
        "1Time": "Alitalia",
        "WebCheckIn": "WebCheckIn",
        "Reisegepack": "Reisegep\u00e4ck"
    },
    {
        "1T": "NH",
        "1Time": "All Nippon Airways",
        "WebCheckIn": "WebCheckIn",
        "Reisegepack": "Reisegep\u00e4ck"
    },
    {
        "1T": "G4",
        "1Time": "Allegiant Air",
        "WebCheckIn": "WebCheckIn",
        "Reisegepack": "Reisegep\u00e4ck"
    },
    {
        "1T": "AA",
        "1Time": "American Airlines",
        "WebCheckIn": "WebCheckIn",
        "Reisegepack": "Reisegep\u00e4ck"
    },
    {
        "1T": "KT",
        "1Time": "AnadoluJet",
        "WebCheckIn": "WebCheckIn",
        "Reisegepack": "Reisegep\u00e4ck"
    },
    {
        "1T": "FG",
        "1Time": "Ariana Airlines",
        "WebCheckIn": "WebCheckIn",
        "Reisegepack": "Reisegep\u00e4ck"
    },
    {
        "1T": "U8",
        "1Time": "Armavia",
        "WebCheckIn": "WebCheckIn",
        "Reisegepack": "Reisegep\u00e4ck"
    },
    {
        "1T": "OZ",
        "1Time": "Asiana",
        "WebCheckIn": "WebCheckIn",
        "Reisegepack": "Reisegep\u00e4ck"
    },
    {
        "1T": "8A",
        "1Time": "Atlas Blue",
        "WebCheckIn": "WebCheckIn",
        "Reisegepack": "Reisegep\u00e4ck"
    },
    {
        "1T": "KK",
        "1Time": "Atlasjet",
        "WebCheckIn": "WebCheckIn",
        "Reisegepack": "Reisegep\u00e4ck"
    },
    {
        "1T": "GR",
        "1Time": "Aurigny",
        "WebCheckIn": "WebCheckIn",
        "Reisegepack": "Reisegep\u00e4ck"
    },
    {
        "1T": "OS",
        "1Time": "Austrian Airlines",
        "WebCheckIn": "WebCheckIn",
        "Reisegepack": "Reisegep\u00e4ck"
    },
    {
        "1T": "2B",
        "1Time": "Bahrain Air",
        "WebCheckIn": "WebCheckIn",
        "Reisegepack": "Reisegep\u00e4ck"
    },
    {
        "1T": "PG",
        "1Time": "Bangkok Airways",
        "WebCheckIn": "WebCheckIn",
        "Reisegepack": "Reisegep\u00e4ck"
    },
    {
        "1T": "B2",
        "1Time": "Belavia",
        "WebCheckIn": "WebCheckIn",
        "Reisegepack": "Reisegep\u00e4ck"
    },
    {
        "1T": "NT",
        "1Time": "Binter Canarias",
        "WebCheckIn": "WebCheckIn",
        "Reisegepack": "Reisegep\u00e4ck"
    },
    {
        "1T": "O5",
        "1Time": "Blekingeflyg",
        "WebCheckIn": "WebCheckIn",
        "Reisegepack": "Reisegep\u00e4ck"
    },
    {
        "1T": "BV",
        "1Time": "Blu-Express",
        "WebCheckIn": "WebCheckIn",
        "Reisegepack": "Reisegep\u00e4ck"
    },
    {
        "1T": "SI",
        "1Time": "Blue Islands",
        "WebCheckIn": "WebCheckIn",
        "Reisegepack": "Reisegep\u00e4ck"
    },
    {
        "1T": "KF",
        "1Time": "Blue1",
        "WebCheckIn": "WebCheckIn",
        "Reisegepack": "Reisegep\u00e4ck"
    },
    {
        "1T": "WW",
        "1Time": "bmi baby",
        "WebCheckIn": "WebCheckIn",
        "Reisegepack": "Reisegep\u00e4ck"
    },
    {
        "1T": "BD",
        "1Time": "bmi British Midland",
        "WebCheckIn": "WebCheckIn",
        "Reisegepack": "Reisegep\u00e4ck"
    },
    {
        "1T": "BA",
        "1Time": "British Airways",
        "WebCheckIn": "WebCheckIn",
        "Reisegepack": "Reisegep\u00e4ck"
    },
    {
        "1T": "SN",
        "1Time": "Brussels Airlines",
        "WebCheckIn": "WebCheckIn",
        "Reisegepack": "Reisegep\u00e4ck"
    },
    {
        "1T": "C6",
        "1Time": "Can Jet",
        "WebCheckIn": "WebCheckIn",
        "Reisegepack": "Reisegep\u00e4ck"
    },
    {
        "1T": "BW",
        "1Time": "Caribbean Airlines",
        "WebCheckIn": "WebCheckIn",
        "Reisegepack": "Reisegep\u00e4ck"
    },
    {
        "1T": "V3",
        "1Time": "Carpatair",
        "WebCheckIn": "WebCheckIn",
        "Reisegepack": "Reisegep\u00e4ck"
    },
    {
        "1T": "CX",
        "1Time": "Cathay Pacific",
        "WebCheckIn": "WebCheckIn",
        "Reisegepack": "Reisegep\u00e4ck"
    },
    {
        "1T": "CI",
        "1Time": "China Airlines",
        "WebCheckIn": "WebCheckIn",
        "Reisegepack": "Reisegep\u00e4ck"
    },
    {
        "1T": "CZ",
        "1Time": "China Southern Airlines",
        "WebCheckIn": "WebCheckIn",
        "Reisegepack": "Reisegep\u00e4ck"
    },
    {
        "1T": "QI",
        "1Time": "Cimber Sterling",
        "WebCheckIn": "WebCheckIn",
        "Reisegepack": "Reisegep\u00e4ck"
    },
    {
        "1T": "C9",
        "1Time": "Cirrus Airlines",
        "WebCheckIn": "WebCheckIn",
        "Reisegepack": "Reisegep\u00e4ck"
    },
    {
        "1T": "WX",
        "1Time": "CityJet",
        "WebCheckIn": "WebCheckIn",
        "Reisegepack": "Reisegep\u00e4ck"
    },
    {
        "1T": "DE",
        "1Time": "Condor",
        "WebCheckIn": "WebCheckIn",
        "Reisegepack": "Reisegep\u00e4ck"
    },
    {
        "1T": "UA",
        "1Time": "Continental",
        "WebCheckIn": "WebCheckIn",
        "Reisegepack": "Reisegep\u00e4ck"
    },
    {
        "1T": "CO",
        "1Time": "Continental Airlines",
        "WebCheckIn": "WebCheckIn",
        "Reisegepack": "Reisegep\u00e4ck"
    },
    {
        "1T": "CM",
        "1Time": "Copa Airlines",
        "WebCheckIn": "WebCheckIn",
        "Reisegepack": "Reisegep\u00e4ck"
    },
    {
        "1T": "7H",
        "1Time": "Corendon",
        "WebCheckIn": "WebCheckIn",
        "Reisegepack": "Reisegep\u00e4ck"
    },
    {
        "1T": "OU",
        "1Time": "Croatia Airlines",
        "WebCheckIn": "WebCheckIn",
        "Reisegepack": "Reisegep\u00e4ck"
    },
    {
        "1T": "CU",
        "1Time": "Cubana",
        "WebCheckIn": "WebCheckIn",
        "Reisegepack": "Reisegep\u00e4ck"
    },
    {
        "1T": "CY",
        "1Time": "Cyprus Airways",
        "WebCheckIn": "WebCheckIn",
        "Reisegepack": "Reisegep\u00e4ck"
    },
    {
        "1T": "OK",
        "1Time": "Czech Airlines",
        "WebCheckIn": "WebCheckIn",
        "Reisegepack": "Reisegep\u00e4ck"
    },
    {
        "1T": "0D",
        "1Time": "Darwin Airline",
        "WebCheckIn": "WebCheckIn",
        "Reisegepack": "Reisegep\u00e4ck"
    },
    {
        "1T": "DX",
        "1Time": "DAT",
        "WebCheckIn": "WebCheckIn",
        "Reisegepack": "Reisegep\u00e4ck"
    },
    {
        "1T": "DL",
        "1Time": "Delta Air Lines",
        "WebCheckIn": "WebCheckIn",
        "Reisegepack": "Reisegep\u00e4ck"
    },
    {
        "1T": "KA",
        "1Time": "Dragonair",
        "WebCheckIn": "WebCheckIn",
        "Reisegepack": "Reisegep\u00e4ck"
    },
    {
        "1T": "U2",
        "1Time": "easyJet",
        "WebCheckIn": "WebCheckIn",
        "Reisegepack": "Reisegep\u00e4ck"
    },
    {
        "1T": "WK",
        "1Time": "Edelweiss Air",
        "WebCheckIn": "WebCheckIn",
        "Reisegepack": "Reisegep\u00e4ck"
    },
    {
        "1T": "MS",
        "1Time": "Egyptair",
        "WebCheckIn": "WebCheckIn",
        "Reisegepack": "Reisegep\u00e4ck"
    },
    {
        "1T": "LY",
        "1Time": "EL AL",
        "WebCheckIn": "WebCheckIn",
        "Reisegepack": "Reisegep\u00e4ck"
    },
    {
        "1T": "EK",
        "1Time": "Emirates",
        "WebCheckIn": "WebCheckIn",
        "Reisegepack": "Reisegep\u00e4ck"
    },
    {
        "1T": "OV",
        "1Time": "Estonian Air",
        "WebCheckIn": "WebCheckIn",
        "Reisegepack": "Reisegep\u00e4ck"
    },
    {
        "1T": "ET",
        "1Time": "Ethiopian Airlines",
        "WebCheckIn": "WebCheckIn",
        "Reisegepack": "Reisegep\u00e4ck"
    },
    {
        "1T": "EY",
        "1Time": "Etihad Airways",
        "WebCheckIn": "WebCheckIn",
        "Reisegepack": "Reisegep\u00e4ck"
    },
    {
        "1T": "EW",
        "1Time": "Eurowings",
        "WebCheckIn": "WebCheckIn",
        "Reisegepack": "Reisegep\u00e4ck"
    },
    {
        "1T": "BR",
        "1Time": "Eva Air",
        "WebCheckIn": "WebCheckIn",
        "Reisegepack": "Reisegep\u00e4ck"
    },
    {
        "1T": "AY",
        "1Time": "Finnair",
        "WebCheckIn": "WebCheckIn",
        "Reisegepack": "Reisegep\u00e4ck"
    },
    {
        "1T": "FC",
        "1Time": "Finncomm",
        "WebCheckIn": "WebCheckIn",
        "Reisegepack": "Reisegep\u00e4ck"
    },
    {
        "1T": "FY",
        "1Time": "Firefly",
        "WebCheckIn": "WebCheckIn",
        "Reisegepack": "Reisegep\u00e4ck"
    },
    {
        "1T": "DP",
        "1Time": "First Choice",
        "WebCheckIn": "WebCheckIn",
        "Reisegepack": "Reisegep\u00e4ck"
    },
    {
        "1T": "BE",
        "1Time": "FLYBE",
        "WebCheckIn": "WebCheckIn",
        "Reisegepack": "Reisegep\u00e4ck"
    },
    {
        "1T": "F9",
        "1Time": "Frontier Airlines",
        "WebCheckIn": "WebCheckIn",
        "Reisegepack": "Reisegep\u00e4ck"
    },
    {
        "1T": "GA",
        "1Time": "Garuda Indonesia",
        "WebCheckIn": "WebCheckIn",
        "Reisegepack": "Reisegep\u00e4ck"
    },
    {
        "1T": "4U",
        "1Time": "Germanwings",
        "WebCheckIn": "WebCheckIn",
        "Reisegepack": "Reisegep\u00e4ck"
    },
    {
        "1T": "G8",
        "1Time": "Go Air",
        "WebCheckIn": "WebCheckIn",
        "Reisegepack": "Reisegep\u00e4ck"
    },
    {
        "1T": "G3",
        "1Time": "GOL",
        "WebCheckIn": "WebCheckIn",
        "Reisegepack": "Reisegep\u00e4ck"
    },
    {
        "1T": "JZ",
        "1Time": "Gotlandsflyg",
        "WebCheckIn": "WebCheckIn",
        "Reisegepack": "Reisegep\u00e4ck"
    },
    {
        "1T": "GF",
        "1Time": "Gulf Air",
        "WebCheckIn": "WebCheckIn",
        "Reisegepack": "Reisegep\u00e4ck"
    },
    {
        "1T": "HU",
        "1Time": "Hainan Airlines",
        "WebCheckIn": "WebCheckIn",
        "Reisegepack": "Reisegep\u00e4ck"
    },
    {
        "1T": "HA",
        "1Time": "Hawaiian Airlines",
        "WebCheckIn": "WebCheckIn",
        "Reisegepack": "Reisegep\u00e4ck"
    },
    {
        "1T": "2L",
        "1Time": "Helvetic Airways",
        "WebCheckIn": "WebCheckIn",
        "Reisegepack": "Reisegep\u00e4ck"
    },
    {
        "1T": "HX",
        "1Time": "Hong Kong Airlines",
        "WebCheckIn": "WebCheckIn",
        "Reisegepack": "Reisegep\u00e4ck"
    },
    {
        "1T": "IB",
        "1Time": "Iberia",
        "WebCheckIn": "WebCheckIn",
        "Reisegepack": "Reisegep\u00e4ck"
    },
    {
        "1T": "5W",
        "1Time": "Iceland Express",
        "WebCheckIn": "WebCheckIn",
        "Reisegepack": "Reisegep\u00e4ck"
    },
    {
        "1T": "FI",
        "1Time": "Icelandair",
        "WebCheckIn": "WebCheckIn",
        "Reisegepack": "Reisegep\u00e4ck"
    },
    {
        "1T": "IC",
        "1Time": "Indian Airlines",
        "WebCheckIn": "WebCheckIn",
        "Reisegepack": "Reisegep\u00e4ck"
    },
    {
        "1T": "6E",
        "1Time": "IndiGo",
        "WebCheckIn": "WebCheckIn",
        "Reisegepack": "Reisegep\u00e4ck"
    },
    {
        "1T": "3L",
        "1Time": "InterSky",
        "WebCheckIn": "WebCheckIn",
        "Reisegepack": "Reisegep\u00e4ck"
    },
    {
        "1T": "IR",
        "1Time": "Iran Air",
        "WebCheckIn": "WebCheckIn",
        "Reisegepack": "Reisegep\u00e4ck"
    },
    {
        "1T": "JL",
        "1Time": "JAL Japan Airlines",
        "WebCheckIn": "WebCheckIn",
        "Reisegepack": "Reisegep\u00e4ck"
    },
    {
        "1T": "J9",
        "1Time": "Jazeera Airways",
        "WebCheckIn": "WebCheckIn",
        "Reisegepack": "Reisegep\u00e4ck"
    },
    {
        "1T": "9W",
        "1Time": "Jet Airways",
        "WebCheckIn": "WebCheckIn",
        "Reisegepack": "Reisegep\u00e4ck"
    },
    {
        "1T": "JQ",
        "1Time": "Jet Star",
        "WebCheckIn": "WebCheckIn",
        "Reisegepack": "Reisegep\u00e4ck"
    },
    {
        "1T": "LS",
        "1Time": "Jet2.com",
        "WebCheckIn": "WebCheckIn",
        "Reisegepack": "Reisegep\u00e4ck"
    },
    {
        "1T": "B6",
        "1Time": "JetBlue Airways",
        "WebCheckIn": "WebCheckIn",
        "Reisegepack": "Reisegep\u00e4ck"
    },
    {
        "1T": "S2",
        "1Time": "JetLite",
        "WebCheckIn": "WebCheckIn",
        "Reisegepack": "Reisegep\u00e4ck"
    },
    {
        "1T": "KQ",
        "1Time": "Kenia Airways",
        "WebCheckIn": "WebCheckIn",
        "Reisegepack": "Reisegep\u00e4ck"
    },
    {
        "1T": "IT",
        "1Time": "Kingfisher Airlines",
        "WebCheckIn": "WebCheckIn",
        "Reisegepack": "Reisegep\u00e4ck"
    },
    {
        "1T": "KL",
        "1Time": "KLM Royal Dutch Airlines",
        "WebCheckIn": "WebCheckIn",
        "Reisegepack": "Reisegep\u00e4ck"
    },
    {
        "1T": "KE",
        "1Time": "Korean Air",
        "WebCheckIn": "WebCheckIn",
        "Reisegepack": "Reisegep\u00e4ck"
    },
    {
        "1T": "2Q",
        "1Time": "Kullaflyg",
        "WebCheckIn": "WebCheckIn",
        "Reisegepack": "Reisegep\u00e4ck"
    },
    {
        "1T": "MN",
        "1Time": "Kulula Air",
        "WebCheckIn": "WebCheckIn",
        "Reisegepack": "Reisegep\u00e4ck"
    },
    {
        "1T": "KU",
        "1Time": "Kuwait Airways",
        "WebCheckIn": "WebCheckIn",
        "Reisegepack": "Reisegep\u00e4ck"
    },
    {
        "1T": "LA",
        "1Time": "LAN Airlines",
        "WebCheckIn": "WebCheckIn",
        "Reisegepack": "Reisegep\u00e4ck"
    },
    {
        "1T": "NG",
        "1Time": "Lauda Air",
        "WebCheckIn": "WebCheckIn",
        "Reisegepack": "Reisegep\u00e4ck"
    },
    {
        "1T": "LI",
        "1Time": "LIAT",
        "WebCheckIn": "WebCheckIn",
        "Reisegepack": "Reisegep\u00e4ck"
    },
    {
        "1T": "LO",
        "1Time": "LOT Polish Airlines",
        "WebCheckIn": "WebCheckIn",
        "Reisegepack": "Reisegep\u00e4ck"
    },
    {
        "1T": "LT",
        "1Time": "LTU Iinternational Airways",
        "WebCheckIn": "WebCheckIn",
        "Reisegepack": "Reisegep\u00e4ck"
    },
    {
        "1T": "LH",
        "1Time": "Lufthansa",
        "WebCheckIn": "WebCheckIn",
        "Reisegepack": "Reisegep\u00e4ck"
    },
    {
        "1T": "LG",
        "1Time": "Luxair",
        "WebCheckIn": "WebCheckIn",
        "Reisegepack": "Reisegep\u00e4ck"
    },
    {
        "1T": "MH",
        "1Time": "Malaysia Airlines",
        "WebCheckIn": "WebCheckIn",
        "Reisegepack": "Reisegep\u00e4ck"
    },
    {
        "1T": "MA",
        "1Time": "Malev Hungarian Airlines",
        "WebCheckIn": "WebCheckIn",
        "Reisegepack": "Reisegep\u00e4ck"
    },
    {
        "1T": "TF",
        "1Time": "Malmo Aviation",
        "WebCheckIn": "WebCheckIn",
        "Reisegepack": "Reisegep\u00e4ck"
    },
    {
        "1T": "MP",
        "1Time": "Martinair",
        "WebCheckIn": "WebCheckIn",
        "Reisegepack": "Reisegep\u00e4ck"
    },
    {
        "1T": "IG",
        "1Time": "Meridiana fly",
        "WebCheckIn": "WebCheckIn",
        "Reisegepack": "Reisegep\u00e4ck"
    },
    {
        "1T": "ME",
        "1Time": "Middle East Airlines - Air Liban",
        "WebCheckIn": "WebCheckIn",
        "Reisegepack": "Reisegep\u00e4ck"
    },
    {
        "1T": "ZB",
        "1Time": "Monarch Airlines",
        "WebCheckIn": "WebCheckIn",
        "Reisegepack": "Reisegep\u00e4ck"
    },
    {
        "1T": "YM",
        "1Time": "Montenegro Airlines",
        "WebCheckIn": "WebCheckIn",
        "Reisegepack": "Reisegep\u00e4ck"
    },
    {
        "1T": "XY",
        "1Time": "Nas Air",
        "WebCheckIn": "WebCheckIn",
        "Reisegepack": "Reisegep\u00e4ck"
    },
    {
        "1T": "2N",
        "1Time": "NextJet",
        "WebCheckIn": "WebCheckIn",
        "Reisegepack": "Reisegep\u00e4ck"
    },
    {
        "1T": "HG",
        "1Time": "NIKI",
        "WebCheckIn": "WebCheckIn",
        "Reisegepack": "Reisegep\u00e4ck"
    },
    {
        "1T": "DD",
        "1Time": "Nok Air",
        "WebCheckIn": "WebCheckIn",
        "Reisegepack": "Reisegep\u00e4ck"
    },
    {
        "1T": "DY",
        "1Time": "Norwegian Air Shuttle",
        "WebCheckIn": "WebCheckIn",
        "Reisegepack": "Reisegep\u00e4ck"
    },
    {
        "1T": "OA",
        "1Time": "Olympic Air",
        "WebCheckIn": "WebCheckIn",
        "Reisegepack": "Reisegep\u00e4ck"
    },
    {
        "1T": "WY",
        "1Time": "Oman Air",
        "WebCheckIn": "WebCheckIn",
        "Reisegepack": "Reisegep\u00e4ck"
    },
    {
        "1T": "8Q",
        "1Time": "Onur Air",
        "WebCheckIn": "WebCheckIn",
        "Reisegepack": "Reisegep\u00e4ck"
    },
    {
        "1T": "OL",
        "1Time": "Ostfriesische Lufttransport GmbH",
        "WebCheckIn": "WebCheckIn",
        "Reisegepack": "Reisegep\u00e4ck"
    },
    {
        "1T": "LW",
        "1Time": "Pacific Wings",
        "WebCheckIn": "WebCheckIn",
        "Reisegepack": "Reisegep\u00e4ck"
    },
    {
        "1T": "PK",
        "1Time": "Pakistan International Airlines",
        "WebCheckIn": "WebCheckIn",
        "Reisegepack": "Reisegep\u00e4ck"
    },
    {
        "1T": "I7",
        "1Time": "Paramount Airways",
        "WebCheckIn": "WebCheckIn",
        "Reisegepack": "Reisegep\u00e4ck"
    },
    {
        "1T": "PC",
        "1Time": "Pegasus Airlines",
        "WebCheckIn": "WebCheckIn",
        "Reisegepack": "Reisegep\u00e4ck"
    },
    {
        "1T": "KS",
        "1Time": "Peninsula Airways",
        "WebCheckIn": "WebCheckIn",
        "Reisegepack": "Reisegep\u00e4ck"
    },
    {
        "1T": "PR",
        "1Time": "Philippine Airlines",
        "WebCheckIn": "WebCheckIn",
        "Reisegepack": "Reisegep\u00e4ck"
    },
    {
        "1T": "PU",
        "1Time": "Pluna",
        "WebCheckIn": "WebCheckIn",
        "Reisegepack": "Reisegep\u00e4ck"
    },
    {
        "1T": "QF",
        "1Time": "Qantas Airways",
        "WebCheckIn": "WebCheckIn",
        "Reisegepack": "Reisegep\u00e4ck"
    },
    {
        "1T": "QR",
        "1Time": "Qatar Airways",
        "WebCheckIn": "WebCheckIn",
        "Reisegepack": "Reisegep\u00e4ck"
    },
    {
        "1T": "ZL",
        "1Time": "Regional Express Airlines",
        "WebCheckIn": "WebCheckIn",
        "Reisegepack": "Reisegep\u00e4ck"
    },
    {
        "1T": "RH",
        "1Time": "Robin Hood Aviation",
        "WebCheckIn": "WebCheckIn",
        "Reisegepack": "Reisegep\u00e4ck"
    },
    {
        "1T": "FV",
        "1Time": "Rossiya Airlines",
        "WebCheckIn": "WebCheckIn",
        "Reisegepack": "Reisegep\u00e4ck"
    },
    {
        "1T": "AT",
        "1Time": "Royal Air Maroc",
        "WebCheckIn": "WebCheckIn",
        "Reisegepack": "Reisegep\u00e4ck"
    },
    {
        "1T": "BI",
        "1Time": "Royal Brunei Airlines",
        "WebCheckIn": "WebCheckIn",
        "Reisegepack": "Reisegep\u00e4ck"
    },
    {
        "1T": "RJ",
        "1Time": "Royal Jordanian Airline",
        "WebCheckIn": "WebCheckIn",
        "Reisegepack": "Reisegep\u00e4ck"
    },
    {
        "1T": "FR",
        "1Time": "Ryanair",
        "WebCheckIn": "WebCheckIn",
        "Reisegepack": "Reisegep\u00e4ck"
    },
    {
        "1T": "S7",
        "1Time": "S7 Airlines",
        "WebCheckIn": "WebCheckIn",
        "Reisegepack": "Reisegep\u00e4ck"
    },
    {
        "1T": "SK",
        "1Time": "SAS Scandinavian Airlines",
        "WebCheckIn": "WebCheckIn",
        "Reisegepack": "Reisegep\u00e4ck"
    },
    {
        "1T": "S4",
        "1Time": "SATA International",
        "WebCheckIn": "WebCheckIn",
        "Reisegepack": "Reisegep\u00e4ck"
    },
    {
        "1T": "SV",
        "1Time": "Saudi Arabian Airlines",
        "WebCheckIn": "WebCheckIn",
        "Reisegepack": "Reisegep\u00e4ck"
    },
    {
        "1T": "ZH",
        "1Time": "Shenzhen Airlines",
        "WebCheckIn": "WebCheckIn",
        "Reisegepack": "Reisegep\u00e4ck"
    },
    {
        "1T": "MI",
        "1Time": "Silk Air",
        "WebCheckIn": "WebCheckIn",
        "Reisegepack": "Reisegep\u00e4ck"
    },
    {
        "1T": "SQ",
        "1Time": "Singapore Airlines",
        "WebCheckIn": "WebCheckIn",
        "Reisegepack": "Reisegep\u00e4ck"
    },
    {
        "1T": "XW",
        "1Time": "Sky Express",
        "WebCheckIn": "WebCheckIn",
        "Reisegepack": "Reisegep\u00e4ck"
    },
    {
        "1T": "SX",
        "1Time": "Sky Work Airlines",
        "WebCheckIn": "WebCheckIn",
        "Reisegepack": "Reisegep\u00e4ck"
    },
    {
        "1T": "QS",
        "1Time": "Smartwings",
        "WebCheckIn": "WebCheckIn",
        "Reisegepack": "Reisegep\u00e4ck"
    },
    {
        "1T": "SA",
        "1Time": "South African Airways",
        "WebCheckIn": "WebCheckIn",
        "Reisegepack": "Reisegep\u00e4ck"
    },
    {
        "1T": "WN",
        "1Time": "Southwest Airlines",
        "WebCheckIn": "WebCheckIn",
        "Reisegepack": "Reisegep\u00e4ck"
    },
    {
        "1T": "JK",
        "1Time": "Spanair",
        "WebCheckIn": "WebCheckIn",
        "Reisegepack": "Reisegep\u00e4ck"
    },
    {
        "1T": "SG",
        "1Time": "SpiceJet",
        "WebCheckIn": "WebCheckIn",
        "Reisegepack": "Reisegep\u00e4ck"
    },
    {
        "1T": "NK",
        "1Time": "Spirit Airlines",
        "WebCheckIn": "WebCheckIn",
        "Reisegepack": "Reisegep\u00e4ck"
    },
    {
        "1T": "UL",
        "1Time": "Srilankan Airlines",
        "WebCheckIn": "WebCheckIn",
        "Reisegepack": "Reisegep\u00e4ck"
    },
    {
        "1T": "SY",
        "1Time": "Sun Country Airlines",
        "WebCheckIn": "WebCheckIn",
        "Reisegepack": "Reisegep\u00e4ck"
    },
    {
        "1T": "2U",
        "1Time": "Sun d Or",
        "WebCheckIn": "WebCheckIn",
        "Reisegepack": "Reisegep\u00e4ck"
    },
    {
        "1T": "XQ",
        "1Time": "Sun Express",
        "WebCheckIn": "WebCheckIn",
        "Reisegepack": "Reisegep\u00e4ck"
    },
    {
        "1T": "WG",
        "1Time": "Sunwing Airlines",
        "WebCheckIn": "WebCheckIn",
        "Reisegepack": "Reisegep\u00e4ck"
    },
    {
        "1T": "LX",
        "1Time": "Swiss International Air Lines",
        "WebCheckIn": "WebCheckIn",
        "Reisegepack": "Reisegep\u00e4ck"
    },
    {
        "1T": "DT",
        "1Time": "TAAG Angola Airways",
        "WebCheckIn": "WebCheckIn",
        "Reisegepack": "Reisegep\u00e4ck"
    },
    {
        "1T": "TA",
        "1Time": "TACA",
        "WebCheckIn": "WebCheckIn",
        "Reisegepack": "Reisegep\u00e4ck"
    },
    {
        "1T": "JJ",
        "1Time": "TAM Linhas Aereas",
        "WebCheckIn": "WebCheckIn",
        "Reisegepack": "Reisegep\u00e4ck"
    },
    {
        "1T": "TP",
        "1Time": "TAP Portugal",
        "WebCheckIn": "WebCheckIn",
        "Reisegepack": "Reisegep\u00e4ck"
    },
    {
        "1T": "RO",
        "1Time": "Tarom",
        "WebCheckIn": "WebCheckIn",
        "Reisegepack": "Reisegep\u00e4ck"
    },
    {
        "1T": "TG",
        "1Time": "Thai Airways International",
        "WebCheckIn": "WebCheckIn",
        "Reisegepack": "Reisegep\u00e4ck"
    },
    {
        "1T": "FQ",
        "1Time": "Thomas Cook Airlines",
        "WebCheckIn": "WebCheckIn",
        "Reisegepack": "Reisegep\u00e4ck"
    },
    {
        "1T": "MT",
        "1Time": "Thomas Cook Belgium",
        "WebCheckIn": "WebCheckIn",
        "Reisegepack": "Reisegep\u00e4ck"
    },
    {
        "1T": "BY",
        "1Time": "Thomsonfly",
        "WebCheckIn": "WebCheckIn",
        "Reisegepack": "Reisegep\u00e4ck"
    },
    {
        "1T": "TR",
        "1Time": "Tiger Airways",
        "WebCheckIn": "WebCheckIn",
        "Reisegepack": "Reisegep\u00e4ck"
    },
    {
        "1T": "UN",
        "1Time": "Transaero Airlines",
        "WebCheckIn": "WebCheckIn",
        "Reisegepack": "Reisegep\u00e4ck"
    },
    {
        "1T": "HV",
        "1Time": "Transavia",
        "WebCheckIn": "WebCheckIn",
        "Reisegepack": "Reisegep\u00e4ck"
    },
    {
        "1T": "T4",
        "1Time": "Trip Linhas Aereas",
        "WebCheckIn": "WebCheckIn",
        "Reisegepack": "Reisegep\u00e4ck"
    },
    {
        "1T": "X3",
        "1Time": "Tuifly",
        "WebCheckIn": "WebCheckIn",
        "Reisegepack": "Reisegep\u00e4ck"
    },
    {
        "1T": "TU",
        "1Time": "Tunisair",
        "WebCheckIn": "WebCheckIn",
        "Reisegepack": "Reisegep\u00e4ck"
    },
    {
        "1T": "TK",
        "1Time": "Turkish Airlines",
        "WebCheckIn": "WebCheckIn",
        "Reisegepack": "Reisegep\u00e4ck"
    },
    {
        "1T": "PS",
        "1Time": "Ukraine International Airlines",
        "WebCheckIn": "WebCheckIn",
        "Reisegepack": "Reisegep\u00e4ck"
    },
    {
        "1T": "U6",
        "1Time": "Ural Airlines",
        "WebCheckIn": "WebCheckIn",
        "Reisegepack": "Reisegep\u00e4ck"
    },
    {
        "1T": "US",
        "1Time": "US Airways",
        "WebCheckIn": "WebCheckIn",
        "Reisegepack": "Reisegep\u00e4ck"
    },
    {
        "1T": "UT",
        "1Time": "UTair",
        "WebCheckIn": "WebCheckIn",
        "Reisegepack": "Reisegep\u00e4ck"
    },
    {
        "1T": "HY",
        "1Time": "Uzbekistan Airways",
        "WebCheckIn": "WebCheckIn",
        "Reisegepack": "Reisegep\u00e4ck"
    },
    {
        "1T": "VN",
        "1Time": "Vietnam Airlines",
        "WebCheckIn": "WebCheckIn",
        "Reisegepack": "Reisegep\u00e4ck"
    },
    {
        "1T": "VX",
        "1Time": "Virgin America",
        "WebCheckIn": "WebCheckIn",
        "Reisegepack": "Reisegep\u00e4ck"
    },
    {
        "1T": "VS",
        "1Time": "Virgin Atlantic Airways",
        "WebCheckIn": "WebCheckIn",
        "Reisegepack": "Reisegep\u00e4ck"
    },
    {
        "1T": "DJ",
        "1Time": "Virgin Blue Airlines",
        "WebCheckIn": "WebCheckIn",
        "Reisegepack": "Reisegep\u00e4ck"
    },
    {
        "1T": "VG",
        "1Time": "VLM Airlines",
        "WebCheckIn": "WebCheckIn",
        "Reisegepack": "Reisegep\u00e4ck"
    },
    {
        "1T": "Y4",
        "1Time": "Volaris",
        "WebCheckIn": "WebCheckIn",
        "Reisegepack": "Reisegep\u00e4ck"
    },
    {
        "1T": "VY",
        "1Time": "Vueling",
        "WebCheckIn": "WebCheckIn",
        "Reisegepack": "Reisegep\u00e4ck"
    },
    {
        "1T": "WH",
        "1Time": "Webjet-Linhas Aereas",
        "WebCheckIn": "WebCheckIn",
        "Reisegepack": "Reisegep\u00e4ck"
    },
    {
        "1T": "2W",
        "1Time": "Welcome Air",
        "WebCheckIn": "WebCheckIn",
        "Reisegepack": "Reisegep\u00e4ck"
    },
    {
        "1T": "WS",
        "1Time": "Westjet Airlines",
        "WebCheckIn": "WebCheckIn",
        "Reisegepack": "Reisegep\u00e4ck"
    },
    {
        "1T": "WM",
        "1Time": "Win Air",
        "WebCheckIn": "WebCheckIn",
        "Reisegepack": "Reisegep\u00e4ck"
    },
    {
        "1T": "IV",
        "1Time": "Wind Jet",
        "WebCheckIn": "WebCheckIn",
        "Reisegepack": "Reisegep\u00e4ck"
    },
    {
        "1T": "W6",
        "1Time": "Wizz Air",
        "WebCheckIn": "WebCheckIn",
        "Reisegepack": "Reisegep\u00e4ck"
    },
    {
        "1T": "IY",
        "1Time": "Yemen Airways",
        "WebCheckIn": "WebCheckIn",
        "Reisegepack": "Reisegep\u00e4ck"
    }
]