[
    {
        "Nr.": "1",
        "Museum": "Museum of Modern Art (MoMA)",
        "Country": "USA",
        "Score *": "11"
    },
    {
        "Nr.": "2",
        "Museum": "Metropolitan Museum of Art",
        "Country": "USA",
        "Score *": "14"
    },
    {
        "Nr.": "3",
        "Museum": "Mus?e du Louvre",
        "Country": "France",
        "Score *": "34"
    },
    {
        "Nr.": "4",
        "Museum": "National Gallery of Art",
        "Country": "USA",
        "Score *": "35"
    },
    {
        "Nr.": "5",
        "Museum": "Victoria and Albert Museum",
        "Country": "United Kingdom",
        "Score *": "37"
    },
    {
        "Nr.": "6",
        "Museum": "J. Paul Getty Museum",
        "Country": "USA",
        "Score *": "40"
    },
    {
        "Nr.": "7",
        "Museum": "Deutsches Historisches Museum",
        "Country": "Germany",
        "Score *": "50"
    },
    {
        "Nr.": "8",
        "Museum": "Los Angeles County Museum of Art (LACMA)",
        "Country": "USA",
        "Score *": "51"
    },
    {
        "Nr.": "9",
        "Museum": "State Hermitage Museum",
        "Country": "Russia",
        "Score *": "53"
    },
    {
        "Nr.": "10",
        "Museum": "Brooklyn Museum of Art",
        "Country": "USA",
        "Score *": "58"
    },
    {
        "Nr.": "11",
        "Museum": "National Maritime Museum",
        "Country": "United Kingdom",
        "Score *": "59"
    },
    {
        "Nr.": "12",
        "Museum": "Museum of Fine Arts (MFA)",
        "Country": "USA",
        "Score *": "61"
    },
    {
        "Nr.": "13",
        "Museum": "National Gallery",
        "Country": "United Kingdom",
        "Score *": "67"
    },
    {
        "Nr.": "14",
        "Museum": "Rijksmuseum",
        "Country": "Netherlands",
        "Score *": "69"
    },
    {
        "Nr.": "15",
        "Museum": "Museo Nacional del Prado",
        "Country": "Spain",
        "Score *": "72"
    },
    {
        "Nr.": "16",
        "Museum": "Royal Academy of Arts",
        "Country": "United Kingdom",
        "Score *": "74"
    },
    {
        "Nr.": "17",
        "Museum": "Tate Britain",
        "Country": "United Kingdom",
        "Score *": "76"
    },
    {
        "Nr.": "18",
        "Museum": "Museum of New Zealand Te Papa Tongarewa",
        "Country": "New Zealand",
        "Score *": "83"
    },
    {
        "Nr.": "19",
        "Museum": "Philadelphia Museum of Art",
        "Country": "USA",
        "Score *": "87"
    },
    {
        "Nr.": "20",
        "Museum": "Minneapolis Institute of Arts",
        "Country": "USA",
        "Score *": "88"
    },
    {
        "Nr.": "21",
        "Museum": "Indianapolis Museum of Art",
        "Country": "USA",
        "Score *": "89"
    },
    {
        "Nr.": "22",
        "Museum": "Ashmolean Museum",
        "Country": "United Kingdom",
        "Score *": "94"
    },
    {
        "Nr.": "23",
        "Museum": "Detroit Institute of Arts (DIA)",
        "Country": "USA",
        "Score *": "108"
    },
    {
        "Nr.": "24",
        "Museum": "Museo Thyssen-Bornemisza",
        "Country": "Spain",
        "Score *": "111"
    },
    {
        "Nr.": "25",
        "Museum": "Seattle Art Museum",
        "Country": "USA",
        "Score *": "114"
    },
    {
        "Nr.": "26",
        "Museum": "Saint Louis Art Museum (SLAM)",
        "Country": "USA",
        "Score *": "123"
    },
    {
        "Nr.": "27",
        "Museum": "Art Gallery of Ontario (AGO)",
        "Country": "Canada",
        "Score *": "133"
    },
    {
        "Nr.": "28",
        "Museum": "Manchester Art Gallery",
        "Country": "United Kingdom",
        "Score *": "141"
    },
    {
        "Nr.": "29",
        "Museum": "Corcoran Gallery of Art",
        "Country": "USA",
        "Score *": "141"
    },
    {
        "Nr.": "30",
        "Museum": "National Gallery of Scotland /National Portrait Gallery",
        "Country": "United Kingdom",
        "Score *": "145"
    },
    {
        "Nr.": "31",
        "Museum": "Royal Collection",
        "Country": "United Kingdom",
        "Score *": "149"
    },
    {
        "Nr.": "32",
        "Museum": "National Museum of Western Art",
        "Country": "Japan",
        "Score *": "150"
    },
    {
        "Nr.": "33",
        "Museum": "High Museum of Art",
        "Country": "USA",
        "Score *": "156"
    },
    {
        "Nr.": "34",
        "Museum": "Jewish Museum",
        "Country": "USA",
        "Score *": "161"
    },
    {
        "Nr.": "35",
        "Museum": "Norton Simon Museum",
        "Country": "USA",
        "Score *": "165"
    },
    {
        "Nr.": "36",
        "Museum": "Kunsthistorisches Museum (KHM)",
        "Country": "Austria",
        "Score *": "168"
    },
    {
        "Nr.": "37",
        "Museum": "Frick Collection",
        "Country": "USA",
        "Score *": "168"
    },
    {
        "Nr.": "38",
        "Museum": "Isabella Stewart Gardner Museum",
        "Country": "USA",
        "Score *": "175"
    },
    {
        "Nr.": "39",
        "Museum": "Museum of Fine Arts, Houston",
        "Country": "USA",
        "Score *": "178"
    },
    {
        "Nr.": "40",
        "Museum": "Denver Art Museum",
        "Country": "USA",
        "Score *": "183"
    },
    {
        "Nr.": "41",
        "Museum": "National Museum of Wales",
        "Country": "United Kingdom",
        "Score *": "184"
    },
    {
        "Nr.": "42",
        "Museum": "Palacio Real",
        "Country": "Spain",
        "Score *": "186"
    },
    {
        "Nr.": "43",
        "Museum": "Sinebrychoffin Taidemuseo",
        "Country": "Finland",
        "Score *": "187"
    },
    {
        "Nr.": "44",
        "Museum": "Patrimonio Nacional",
        "Country": "Spain",
        "Score *": "189"
    },
    {
        "Nr.": "45",
        "Museum": "Wallace Collection",
        "Country": "United Kingdom",
        "Score *": "190"
    },
    {
        "Nr.": "46",
        "Museum": "Statens Museum for Kunst",
        "Country": "Denmark",
        "Score *": "194"
    },
    {
        "Nr.": "47",
        "Museum": "Muzeum Ksiazat Lubomirskich",
        "Country": "Poland",
        "Score *": "197"
    },
    {
        "Nr.": "48",
        "Museum": "Milwaukee Art Museum",
        "Country": "USA",
        "Score *": "203"
    },
    {
        "Nr.": "49",
        "Museum": "Walters Art Museum",
        "Country": "USA",
        "Score *": "209"
    },
    {
        "Nr.": "50",
        "Museum": "Carnegie Museum of Art",
        "Country": "USA",
        "Score *": "218"
    },
    {
        "Nr.": "51",
        "Museum": "Worcester Art Museum",
        "Country": "USA",
        "Score *": "225"
    },
    {
        "Nr.": "52",
        "Museum": "St?del Museum",
        "Country": "Germany",
        "Score *": "227"
    },
    {
        "Nr.": "53",
        "Museum": "Cleveland Museum of Art",
        "Country": "USA",
        "Score *": "234"
    },
    {
        "Nr.": "54",
        "Museum": "Hamburger Kunsthalle",
        "Country": "Germany",
        "Score *": "237"
    },
    {
        "Nr.": "55",
        "Museum": "Klassik Stiftung Weimar",
        "Country": "Germany",
        "Score *": "244"
    },
    {
        "Nr.": "56",
        "Museum": "Portland Art Museum",
        "Country": "USA",
        "Score *": "249"
    },
    {
        "Nr.": "57",
        "Museum": "Nelson-Atkins Museum of Art",
        "Country": "USA",
        "Score *": "253"
    },
    {
        "Nr.": "58",
        "Museum": "Albright-Knox Art Gallery",
        "Country": "USA",
        "Score *": "254"
    },
    {
        "Nr.": "59",
        "Museum": "Landesmuseum f?r Kunst und Kulturgeschichte",
        "Country": "Germany",
        "Score *": "255"
    },
    {
        "Nr.": "60",
        "Museum": "Museum Boijmans Van Beuningen",
        "Country": "Netherlands",
        "Score *": "255"
    },
    {
        "Nr.": "61",
        "Museum": "Phoenix Art Museum",
        "Country": "USA",
        "Score *": "256"
    },
    {
        "Nr.": "62",
        "Museum": "Schloss Sanssouci",
        "Country": "Germany",
        "Score *": "257"
    },
    {
        "Nr.": "63",
        "Museum": "National Gallery of Canada",
        "Country": "Canada",
        "Score *": "261"
    },
    {
        "Nr.": "64",
        "Museum": "Gem?ldegalerie, Staatliche Museen zu Berlin",
        "Country": "Germany",
        "Score *": "265"
    },
    {
        "Nr.": "65",
        "Museum": "North Carolina Museum of Art",
        "Country": "USA",
        "Score *": "265"
    },
    {
        "Nr.": "66",
        "Museum": "John and Mable Ringling Museum of Art",
        "Country": "USA",
        "Score *": "270"
    },
    {
        "Nr.": "67",
        "Museum": "Kunst- und Ausstellungshalle der Bundesrepublik Deutschland",
        "Country": "Germany",
        "Score *": "270"
    },
    {
        "Nr.": "68",
        "Museum": "Dallas Museum of Art",
        "Country": "USA",
        "Score *": "272"
    },
    {
        "Nr.": "69",
        "Museum": "Germanisches Nationalmuseum",
        "Country": "Germany",
        "Score *": "274"
    },
    {
        "Nr.": "70",
        "Museum": "Sz?pm?v?szeti M?zeum",
        "Country": "Hungary",
        "Score *": "277"
    },
    {
        "Nr.": "71",
        "Museum": "Landesmuseum Joanneum - Alte Galerie",
        "Country": "Austria",
        "Score *": "286"
    },
    {
        "Nr.": "72",
        "Museum": "Mus?e Jacquemart-Andr?",
        "Country": "France",
        "Score *": "289"
    },
    {
        "Nr.": "73",
        "Museum": "Koninklijke Musea voor Schone Kunsten van Belgi?",
        "Country": "Belgium",
        "Score *": "290"
    },
    {
        "Nr.": "74",
        "Museum": "British Museum",
        "Country": "United Kingdom",
        "Score *": "292"
    },
    {
        "Nr.": "75",
        "Museum": "Mus?e National d'Histoire et d'Art",
        "Country": "Luxembourg",
        "Score *": "292"
    },
    {
        "Nr.": "76",
        "Museum": "Van Gogh Museum",
        "Country": "Netherlands",
        "Score *": "293"
    },
    {
        "Nr.": "77",
        "Museum": "City Museums and Art Gallery",
        "Country": "United Kingdom",
        "Score *": "293"
    },
    {
        "Nr.": "78",
        "Museum": "G?teborgs Konstmuseum",
        "Country": "Sweden",
        "Score *": "293"
    },
    {
        "Nr.": "79",
        "Museum": "Chatsworth House",
        "Country": "United Kingdom",
        "Score *": "294"
    },
    {
        "Nr.": "80",
        "Museum": "Peter the Great Museum of Anthropology and Ethnography",
        "Country": "Russia",
        "Score *": "295"
    },
    {
        "Nr.": "81",
        "Museum": "Sterling and Francine Clark Art Institute",
        "Country": "USA",
        "Score *": "309"
    },
    {
        "Nr.": "82",
        "Museum": "Kunstareal Munchen",
        "Country": "Germany",
        "Score *": "316"
    },
    {
        "Nr.": "83",
        "Museum": "Kr?ller-M?ller Museum",
        "Country": "Netherlands",
        "Score *": "316"
    },
    {
        "Nr.": "84",
        "Museum": "Slovensk? N?rodn? Gal?ria",
        "Country": "Slovak Republic",
        "Score *": "316"
    },
    {
        "Nr.": "85",
        "Museum": "Museum Gustavianum Uppsala",
        "Country": "Sweden",
        "Score *": "317"
    },
    {
        "Nr.": "86",
        "Museum": "Toledo Museum of Art",
        "Country": "USA",
        "Score *": "319"
    },
    {
        "Nr.": "87",
        "Museum": "San Diego Museum of Art",
        "Country": "USA",
        "Score *": "319"
    },
    {
        "Nr.": "88",
        "Museum": "Mauritshuis",
        "Country": "Netherlands",
        "Score *": "320"
    },
    {
        "Nr.": "89",
        "Museum": "Museum der bildenden K?nste Leipzig",
        "Country": "Germany",
        "Score *": "325"
    },
    {
        "Nr.": "90",
        "Museum": "Kunsthaus Z?rich",
        "Country": "Switzerland",
        "Score *": "329"
    },
    {
        "Nr.": "91",
        "Museum": "Pushkin State Museum of Fine Arts",
        "Country": "Russia",
        "Score *": "330"
    },
    {
        "Nr.": "92",
        "Museum": "Museo Nacional de Bellas Artes",
        "Country": "Argentina",
        "Score *": "330"
    },
    {
        "Nr.": "93",
        "Museum": "Joods Historisch Museum",
        "Country": "Netherlands",
        "Score *": "333"
    },
    {
        "Nr.": "94",
        "Museum": "Van Abbemuseum",
        "Country": "Netherlands",
        "Score *": "336"
    },
    {
        "Nr.": "95",
        "Museum": "Erfgoedcentrum DiEP",
        "Country": "Netherlands",
        "Score *": "339"
    },
    {
        "Nr.": "96",
        "Museum": "N?rodn? galerie v Praze",
        "Country": "Czech Republic",
        "Score *": "340"
    },
    {
        "Nr.": "97",
        "Museum": "Amsterdams Historisch Museum (AHM)",
        "Country": "Netherlands",
        "Score *": "344"
    },
    {
        "Nr.": "98",
        "Museum": "New Orleans Museum of Art (NOMA)",
        "Country": "USA",
        "Score *": "347"
    },
    {
        "Nr.": "99",
        "Museum": "Staatsgalerie Stuttgart",
        "Country": "Germany",
        "Score *": "347"
    },
    {
        "Nr.": "100",
        "Museum": "Ackland Art Museum",
        "Country": "USA",
        "Score *": "352"
    },
    {
        "Nr.": "101",
        "Museum": "Chrysler Museum of Art",
        "Country": "USA",
        "Score *": "354"
    },
    {
        "Nr.": "102",
        "Museum": "Blanton Museum of Art",
        "Country": "USA",
        "Score *": "356"
    },
    {
        "Nr.": "103",
        "Museum": "Museo Nacional de Bellas Artes de Cuba",
        "Country": "Cuba",
        "Score *": "357"
    },
    {
        "Nr.": "104",
        "Museum": "Mus?e des Beaux-Arts de Lyon",
        "Country": "France",
        "Score *": "358"
    },
    {
        "Nr.": "105",
        "Museum": "Auckland Art Gallery Toi o T??maki",
        "Country": "New Zealand",
        "Score *": "359"
    },
    {
        "Nr.": "106",
        "Museum": "Muzeum Narodowe w Warszawie",
        "Country": "Poland",
        "Score *": "359"
    },
    {
        "Nr.": "107",
        "Museum": "Galleria Borghese",
        "Country": "Italy",
        "Score *": "366"
    },
    {
        "Nr.": "108",
        "Museum": "Kunstmuseum Liechtenstein",
        "Country": "Liechtenstein",
        "Score *": "368"
    },
    {
        "Nr.": "109",
        "Museum": "Kunstmuseum Basel",
        "Country": "Switzerland",
        "Score *": "378"
    },
    {
        "Nr.": "110",
        "Museum": "Staatliche Kunstsammlungen Dresden",
        "Country": "Germany",
        "Score *": "385"
    },
    {
        "Nr.": "111",
        "Museum": "Centraal Museum",
        "Country": "Netherlands",
        "Score *": "386"
    },
    {
        "Nr.": "112",
        "Museum": "Mus?e des Beaux-Arts de Montr?al",
        "Country": "Canada",
        "Score *": "392"
    },
    {
        "Nr.": "113",
        "Museum": "Firenze Musei",
        "Country": "Italy",
        "Score *": "398"
    },
    {
        "Nr.": "114",
        "Museum": "Mus?e d'Art et d'Histoire",
        "Country": "Switzerland",
        "Score *": "402"
    },
    {
        "Nr.": "115",
        "Museum": "Israel Museum",
        "Country": "Israel",
        "Score *": "403"
    },
    {
        "Nr.": "116",
        "Museum": "Von der Heydt-Museum",
        "Country": "Germany",
        "Score *": "404"
    },
    {
        "Nr.": "117",
        "Museum": "Ober?sterreichisches Landesmuseum",
        "Country": "Austria",
        "Score *": "407"
    },
    {
        "Nr.": "118",
        "Museum": "Liechtenstein Museum",
        "Country": "Austria",
        "Score *": "407"
    },
    {
        "Nr.": "119",
        "Museum": "Williams College Museum of Art",
        "Country": "USA",
        "Score *": "407"
    },
    {
        "Nr.": "120",
        "Museum": "Baltimore Museum of Art",
        "Country": "USA",
        "Score *": "408"
    },
    {
        "Nr.": "121",
        "Museum": "National Museum of Fine Arts",
        "Country": "Malta",
        "Score *": "411"
    },
    {
        "Nr.": "122",
        "Museum": "Dayton Art Institute",
        "Country": "USA",
        "Score *": "412"
    },
    {
        "Nr.": "123",
        "Museum": "Museu de Arte",
        "Country": "Brazil",
        "Score *": "412"
    },
    {
        "Nr.": "124",
        "Museum": "Crocker Art Museum",
        "Country": "USA",
        "Score *": "414"
    },
    {
        "Nr.": "125",
        "Museum": "National Gallery of Ireland",
        "Country": "Ireland",
        "Score *": "417"
    },
    {
        "Nr.": "126",
        "Museum": "Wadsworth Atheneum Museum of Art",
        "Country": "USA",
        "Score *": "418"
    },
    {
        "Nr.": "127",
        "Museum": "Museo Nacional de Escultura",
        "Country": "Spain",
        "Score *": "419"
    },
    {
        "Nr.": "128",
        "Museum": "Bilboko Arte Eder Museoa",
        "Country": "Spain",
        "Score *": "420"
    },
    {
        "Nr.": "129",
        "Museum": "Stedelijk Museum",
        "Country": "Netherlands",
        "Score *": "432"
    },
    {
        "Nr.": "130",
        "Museum": "Palazzo Strozzi",
        "Country": "Italy",
        "Score *": "433"
    },
    {
        "Nr.": "131",
        "Museum": "Kulturgeschichtliches Museum",
        "Country": "Germany",
        "Score *": "440"
    },
    {
        "Nr.": "132",
        "Museum": "Sprengel Museum",
        "Country": "Germany",
        "Score *": "441"
    },
    {
        "Nr.": "133",
        "Museum": "Groninger Museum",
        "Country": "Netherlands",
        "Score *": "443"
    },
    {
        "Nr.": "134",
        "Museum": "Museum Het Valkhof",
        "Country": "Netherlands",
        "Score *": "450"
    },
    {
        "Nr.": "135",
        "Museum": "Barnes Foundation",
        "Country": "USA",
        "Score *": "451"
    },
    {
        "Nr.": "136",
        "Museum": "Dulwich Picture Gallery",
        "Country": "United Kingdom",
        "Score *": "451"
    },
    {
        "Nr.": "137",
        "Museum": "Koninklijk Instituut voor het Kunstpatrimonium (KIK)",
        "Country": "Belgium",
        "Score *": "454"
    },
    {
        "Nr.": "138",
        "Museum": "Staatliches Museum Schwerin",
        "Country": "Germany",
        "Score *": "455"
    },
    {
        "Nr.": "139",
        "Museum": "Speed Art Museum",
        "Country": "USA",
        "Score *": "457"
    },
    {
        "Nr.": "140",
        "Museum": "Nationalmuseum",
        "Country": "Sweden",
        "Score *": "459"
    },
    {
        "Nr.": "141",
        "Museum": "Moravsk? Galerie",
        "Country": "Czech Republic",
        "Score *": "460"
    },
    {
        "Nr.": "142",
        "Museum": "Noordbrabants Museum",
        "Country": "Netherlands",
        "Score *": "462"
    },
    {
        "Nr.": "143",
        "Museum": "Kunsthalle Bremen",
        "Country": "Germany",
        "Score *": "463"
    },
    {
        "Nr.": "144",
        "Museum": "Maritiem Museum Rotterdam",
        "Country": "Netherlands",
        "Score *": "465"
    },
    {
        "Nr.": "145",
        "Museum": "Stedelijk Museum De Lakenhal",
        "Country": "Netherlands",
        "Score *": "469"
    },
    {
        "Nr.": "146",
        "Museum": "Museum Boerhaave",
        "Country": "Netherlands",
        "Score *": "472"
    },
    {
        "Nr.": "147",
        "Museum": "Currier Museum of Art",
        "Country": "USA",
        "Score *": "474"
    },
    {
        "Nr.": "148",
        "Museum": "Historisches Museum Frankfurt am Main",
        "Country": "Germany",
        "Score *": "477"
    },
    {
        "Nr.": "149",
        "Museum": "Birmingham Museum of Art",
        "Country": "USA",
        "Score *": "478"
    },
    {
        "Nr.": "150",
        "Museum": "Muzeul Na??ional de Arta al Rom?niei",
        "Country": "Romania",
        "Score *": "478"
    },
    {
        "Nr.": "151",
        "Museum": "Zamek Kr?lewski na Wawelu",
        "Country": "Poland",
        "Score *": "479"
    },
    {
        "Nr.": "152",
        "Museum": "Museum Meermanno",
        "Country": "Netherlands",
        "Score *": "480"
    },
    {
        "Nr.": "153",
        "Museum": "Zuiderzeemuseum",
        "Country": "Netherlands",
        "Score *": "485"
    },
    {
        "Nr.": "154",
        "Museum": "Nederlands Scheepvaartmuseum Amsterdam",
        "Country": "Netherlands",
        "Score *": "489"
    },
    {
        "Nr.": "155",
        "Museum": "Bonnefantenmuseum",
        "Country": "Netherlands",
        "Score *": "489"
    },
    {
        "Nr.": "156",
        "Museum": "Cincinnati Art Museum",
        "Country": "USA",
        "Score *": "489"
    },
    {
        "Nr.": "157",
        "Museum": "Fries Museum",
        "Country": "Netherlands",
        "Score *": "490"
    },
    {
        "Nr.": "158",
        "Museum": "Tel Aviv Museum of Art",
        "Country": "Israel",
        "Score *": "494"
    },
    {
        "Nr.": "159",
        "Museum": "Museum Kunst Palast",
        "Country": "Germany",
        "Score *": "500"
    },
    {
        "Nr.": "160",
        "Museum": "Staatliche Kunsthalle",
        "Country": "Germany",
        "Score *": "502"
    },
    {
        "Nr.": "161",
        "Museum": "Albertina",
        "Country": "Austria",
        "Score *": "503"
    },
    {
        "Nr.": "162",
        "Museum": "Muzeum-Pa??ac w Wilan?wie",
        "Country": "Poland",
        "Score *": "503"
    },
    {
        "Nr.": "163",
        "Museum": "Norton Museum of Art",
        "Country": "USA",
        "Score *": "505"
    },
    {
        "Nr.": "164",
        "Museum": "Fundaci?n Carlos de Amberes",
        "Country": "Spain",
        "Score *": "506"
    },
    {
        "Nr.": "165",
        "Museum": "Museo L?zaro Galdiano",
        "Country": "Spain",
        "Score *": "508"
    },
    {
        "Nr.": "166",
        "Museum": "Kunsthalle der Hypo-Kulturstiftung",
        "Country": "Germany",
        "Score *": "511"
    },
    {
        "Nr.": "167",
        "Museum": "Museum of Art, Rhode Island School of Design",
        "Country": "USA",
        "Score *": "516"
    },
    {
        "Nr.": "168",
        "Museum": "Museum Catharijneconvent",
        "Country": "Netherlands",
        "Score *": "528"
    },
    {
        "Nr.": "169",
        "Museum": "Courtauld Institute of Art Gallery",
        "Country": "United Kingdom",
        "Score *": "529"
    },
    {
        "Nr.": "170",
        "Museum": "Galerij Prins Willem V",
        "Country": "Netherlands",
        "Score *": "531"
    },
    {
        "Nr.": "171",
        "Museum": "Geldmuseum Utrecht",
        "Country": "Netherlands",
        "Score *": "532"
    },
    {
        "Nr.": "172",
        "Museum": "Schleswig-Holsteinisches Landesmuseum Schloss Gottorf",
        "Country": "Germany",
        "Score *": "532"
    },
    {
        "Nr.": "173",
        "Museum": "Koninklijke Musea voor Kunst en Geschiedenis",
        "Country": "Belgium",
        "Score *": "534"
    },
    {
        "Nr.": "174",
        "Museum": "Vlaamse Kunstcollectie",
        "Country": "Belgium",
        "Score *": "535"
    },
    {
        "Nr.": "175",
        "Museum": "Historisch Museum Deventer",
        "Country": "Netherlands",
        "Score *": "541"
    },
    {
        "Nr.": "176",
        "Museum": "Peterhof Palace National Museum",
        "Country": "Russia",
        "Score *": "553"
    },
    {
        "Nr.": "177",
        "Museum": "Bowes Museum",
        "Country": "United Kingdom",
        "Score *": "556"
    },
    {
        "Nr.": "178",
        "Museum": "Dordrechts Museum",
        "Country": "Netherlands",
        "Score *": "557"
    },
    {
        "Nr.": "179",
        "Museum": "Martin-von-Wagner-Museum",
        "Country": "Germany",
        "Score *": "557"
    },
    {
        "Nr.": "180",
        "Museum": "Barber Institute of Fine Arts",
        "Country": "United Kingdom",
        "Score *": "558"
    },
    {
        "Nr.": "181",
        "Museum": "Teylers Museum",
        "Country": "Netherlands",
        "Score *": "562"
    },
    {
        "Nr.": "182",
        "Museum": "Mus?e des Augustins",
        "Country": "France",
        "Score *": "565"
    },
    {
        "Nr.": "183",
        "Museum": "Koninklijk Museum voor Schone Kunsten (KMSKA)",
        "Country": "Belgium",
        "Score *": "568"
    },
    {
        "Nr.": "184",
        "Museum": "Mus?e Cond?",
        "Country": "France",
        "Score *": "569"
    },
    {
        "Nr.": "185",
        "Museum": "Muzeul Na??ional Brukenthal",
        "Country": "Romania",
        "Score *": "575"
    },
    {
        "Nr.": "186",
        "Museum": "Museo Franz Mayer",
        "Country": "Mexico",
        "Score *": "577"
    },
    {
        "Nr.": "187",
        "Museum": "Bass Museum of Art",
        "Country": "USA",
        "Score *": "580"
    },
    {
        "Nr.": "188",
        "Museum": "Museo Poldi Pezzoli",
        "Country": "Italy",
        "Score *": "583"
    },
    {
        "Nr.": "189",
        "Museum": "Muzeum Narodowe w Krakowie",
        "Country": "Poland",
        "Score *": "585"
    },
    {
        "Nr.": "190",
        "Museum": "Cobra Museum voor Moderne Kunst",
        "Country": "Netherlands",
        "Score *": "586"
    },
    {
        "Nr.": "191",
        "Museum": "Nasjonalmuseet for Kunst, Arkitektur og Design",
        "Country": "Norway",
        "Score *": "586"
    },
    {
        "Nr.": "192",
        "Museum": "National Portrait Gallery",
        "Country": "United Kingdom",
        "Score *": "587"
    },
    {
        "Nr.": "193",
        "Museum": "Koninklijk Museum van het Leger en de Krijgsgeschiedenis",
        "Country": "Belgium",
        "Score *": "588"
    },
    {
        "Nr.": "194",
        "Museum": "Aachener Dom",
        "Country": "Germany",
        "Score *": "592"
    },
    {
        "Nr.": "195",
        "Museum": "Museo Nacional de Arte Decorativo",
        "Country": "Argentina",
        "Score *": "593"
    },
    {
        "Nr.": "196",
        "Museum": "Escher in het Paleis",
        "Country": "Netherlands",
        "Score *": "595"
    },
    {
        "Nr.": "197",
        "Museum": "Kenwood, The Iveagh Bequest",
        "Country": "United Kingdom",
        "Score *": "598"
    },
    {
        "Nr.": "198",
        "Museum": "Holland Museum",
        "Country": "USA",
        "Score *": "607"
    },
    {
        "Nr.": "199",
        "Museum": "Muzeum Narodowe w Poznaniu",
        "Country": "Poland",
        "Score *": "608"
    },
    {
        "Nr.": "200",
        "Museum": "Bergen Kunstmuseum",
        "Country": "Norway",
        "Score *": "612"
    },
    {
        "Nr.": "201",
        "Museum": "Castello del Buonconsiglio",
        "Country": "Italy",
        "Score *": "613"
    },
    {
        "Nr.": "202",
        "Museum": "Pavlovsk Palace",
        "Country": "Russia",
        "Score *": "614"
    },
    {
        "Nr.": "203",
        "Museum": "Rosenborg Slot",
        "Country": "Denmark",
        "Score *": "618"
    },
    {
        "Nr.": "204",
        "Museum": "Museum of Fine Arts, St. Petersburg",
        "Country": "USA",
        "Score *": "623"
    },
    {
        "Nr.": "205",
        "Museum": "Museum voor Moderne Kunst Arnhem (MMKA)",
        "Country": "Netherlands",
        "Score *": "623"
    },
    {
        "Nr.": "206",
        "Museum": "Zamek Kr?lewski w Warszawie",
        "Country": "Poland",
        "Score *": "623"
    },
    {
        "Nr.": "207",
        "Museum": "Drents Museum",
        "Country": "Netherlands",
        "Score *": "629"
    },
    {
        "Nr.": "208",
        "Museum": "Palais des Beaux-Arts",
        "Country": "France",
        "Score *": "636"
    },
    {
        "Nr.": "209",
        "Museum": "Muzeum Narodowe we Wroc??awiu",
        "Country": "Poland",
        "Score *": "638"
    },
    {
        "Nr.": "210",
        "Museum": "Mus?e de Grenoble",
        "Country": "France",
        "Score *": "640"
    },
    {
        "Nr.": "211",
        "Museum": "Philbrook Museum of Art",
        "Country": "USA",
        "Score *": "642"
    },
    {
        "Nr.": "212",
        "Museum": "Gemeentemuseum Den Haag",
        "Country": "Netherlands",
        "Score *": "644"
    },
    {
        "Nr.": "213",
        "Museum": "Muzeum Historyczne Miasta Gda??ska",
        "Country": "Poland",
        "Score *": "644"
    },
    {
        "Nr.": "214",
        "Museum": "Mus?e des Beaux-Arts de Rennes",
        "Country": "France",
        "Score *": "647"
    },
    {
        "Nr.": "215",
        "Museum": "Museum & Gallery at Bob Jones University",
        "Country": "USA",
        "Score *": "648"
    },
    {
        "Nr.": "216",
        "Museum": "Frans Hals Museum",
        "Country": "Netherlands",
        "Score *": "653"
    },
    {
        "Nr.": "217",
        "Museum": "Cummer Museum of Art and Gardens",
        "Country": "USA",
        "Score *": "654"
    },
    {
        "Nr.": "218",
        "Museum": "Museum voor Schone Kunsten",
        "Country": "Belgium",
        "Score *": "660"
    },
    {
        "Nr.": "219",
        "Museum": "Muzeum um??n?",
        "Country": "Czech Republic",
        "Score *": "662"
    },
    {
        "Nr.": "220",
        "Museum": "Singer Museum",
        "Country": "Netherlands",
        "Score *": "663"
    },
    {
        "Nr.": "221",
        "Museum": "Museum het Rembrandthuis",
        "Country": "Netherlands",
        "Score *": "666"
    },
    {
        "Nr.": "222",
        "Museum": "Timken Museum of Art",
        "Country": "USA",
        "Score *": "666"
    },
    {
        "Nr.": "223",
        "Museum": "Kunsthalle T?bingen",
        "Country": "Germany",
        "Score *": "672"
    },
    {
        "Nr.": "224",
        "Museum": "Taft Museum of Art",
        "Country": "USA",
        "Score *": "672"
    },
    {
        "Nr.": "225",
        "Museum": "Det Nationalhistoriske Museum p? Frederiksborg Slot",
        "Country": "Denmark",
        "Score *": "679"
    },
    {
        "Nr.": "226",
        "Museum": "Cabinet des Estampes et des Dessins de la Ville de Li?ge",
        "Country": "Belgium",
        "Score *": "680"
    },
    {
        "Nr.": "227",
        "Museum": "Mus?e National des Beaux-Arts du Qu?bec",
        "Country": "Canada",
        "Score *": "684"
    },
    {
        "Nr.": "228",
        "Museum": "Muzej za umjetnost i obrt",
        "Country": "Croatia",
        "Score *": "685"
    },
    {
        "Nr.": "229",
        "Museum": "Tatton Park, National Trust",
        "Country": "United Kingdom",
        "Score *": "685"
    },
    {
        "Nr.": "230",
        "Museum": "Residenzgalerie",
        "Country": "Austria",
        "Score *": "689"
    },
    {
        "Nr.": "231",
        "Museum": "Allard Pierson Museum",
        "Country": "Netherlands",
        "Score *": "690"
    },
    {
        "Nr.": "232",
        "Museum": "Herzog Anton Ulrich-Museum",
        "Country": "Germany",
        "Score *": "695"
    },
    {
        "Nr.": "233",
        "Museum": "Latvian Academy of Arts",
        "Country": "Latvia",
        "Score *": "700"
    },
    {
        "Nr.": "234",
        "Museum": "Allentown Art Museum",
        "Country": "USA",
        "Score *": "708"
    },
    {
        "Nr.": "235",
        "Museum": "Stedelijk Museum Schiedam",
        "Country": "Netherlands",
        "Score *": "711"
    },
    {
        "Nr.": "236",
        "Museum": "Zeeuws Museum",
        "Country": "Netherlands",
        "Score *": "716"
    },
    {
        "Nr.": "237",
        "Museum": "Winnipeg Art Gallery",
        "Country": "Canada",
        "Score *": "727"
    },
    {
        "Nr.": "238",
        "Museum": "Museum Schloss Wilhelmsh?he",
        "Country": "Germany",
        "Score *": "729"
    },
    {
        "Nr.": "239",
        "Museum": "Tiroler Landesmuseum Ferdinandeum",
        "Country": "Austria",
        "Score *": "729"
    },
    {
        "Nr.": "240",
        "Museum": "Museum Bredius",
        "Country": "Netherlands",
        "Score *": "731"
    },
    {
        "Nr.": "241",
        "Museum": "Ostfriesisches Landesmuseum Emden",
        "Country": "Germany",
        "Score *": "735"
    },
    {
        "Nr.": "242",
        "Museum": "Gal?ria Mesta Bratislavy",
        "Country": "Slovak Republic",
        "Score *": "736"
    },
    {
        "Nr.": "243",
        "Museum": "Zeeuws Maritiem MuZEEum",
        "Country": "Netherlands",
        "Score *": "740"
    },
    {
        "Nr.": "244",
        "Museum": "Slezsk? zemsk? muzeum",
        "Country": "Czech Republic",
        "Score *": "745"
    },
    {
        "Nr.": "245",
        "Museum": "Muzej Mimara",
        "Country": "Croatia",
        "Score *": "746"
    },
    {
        "Nr.": "246",
        "Museum": "Keramiekmuseum Princessehof",
        "Country": "Netherlands",
        "Score *": "749"
    },
    {
        "Nr.": "247",
        "Museum": "museumgoudA / Het Catharina Gasthuis",
        "Country": "Netherlands",
        "Score *": "749"
    },
    {
        "Nr.": "248",
        "Museum": "Institut National du Patrimoine",
        "Country": "France",
        "Score *": "750"
    },
    {
        "Nr.": "249",
        "Museum": "Hrvatska Akademija Znanostii Umjetnosti: Kabinet Grafike",
        "Country": "Croatia",
        "Score *": "750"
    },
    {
        "Nr.": "250",
        "Museum": "Chhatrapati Shivaji Maharaj Vastu Sangrahalaya",
        "Country": "India",
        "Score *": "754"
    },
    {
        "Nr.": "251",
        "Museum": "Galleria Doria Pamphilj",
        "Country": "Italy",
        "Score *": "759"
    },
    {
        "Nr.": "252",
        "Museum": "Stedelijk Museum Roermond",
        "Country": "Netherlands",
        "Score *": "759"
    },
    {
        "Nr.": "253",
        "Museum": "Muzeum Sztuki w ??odzi",
        "Country": "Poland",
        "Score *": "760"
    },
    {
        "Nr.": "254",
        "Museum": "Mus?e des Beaux-Arts de Strasbourg",
        "Country": "France",
        "Score *": "760"
    },
    {
        "Nr.": "255",
        "Museum": "Nordico - Museum der Stadt Linz",
        "Country": "Austria",
        "Score *": "761"
    },
    {
        "Nr.": "256",
        "Museum": "Museum Leuven",
        "Country": "Belgium",
        "Score *": "762"
    },
    {
        "Nr.": "257",
        "Museum": "Muzeum Zamek w ??a??cucie",
        "Country": "Poland",
        "Score *": "763"
    },
    {
        "Nr.": "258",
        "Museum": "Bayerisches Nationalmuseum",
        "Country": "Germany",
        "Score *": "764"
    },
    {
        "Nr.": "259",
        "Museum": "Historisch Museum Rotterdam",
        "Country": "Netherlands",
        "Score *": "765"
    },
    {
        "Nr.": "260",
        "Museum": "Muzeum w Nieborowie i Arkadii",
        "Country": "Poland",
        "Score *": "767"
    },
    {
        "Nr.": "261",
        "Museum": "Couven-Museum",
        "Country": "Germany",
        "Score *": "768"
    },
    {
        "Nr.": "262",
        "Museum": "National Art Museum of the Republic of Belarus",
        "Country": "Belarus",
        "Score *": "774"
    },
    {
        "Nr.": "263",
        "Museum": "Haus der Niederlande",
        "Country": "Germany",
        "Score *": "775"
    },
    {
        "Nr.": "264",
        "Museum": "Museum de Fundatie",
        "Country": "Netherlands",
        "Score *": "778"
    },
    {
        "Nr.": "265",
        "Museum": "Westfries Museum",
        "Country": "Netherlands",
        "Score *": "779"
    },
    {
        "Nr.": "266",
        "Museum": "Instituto Ricardo Brennand",
        "Country": "Brazil",
        "Score *": "780"
    },
    {
        "Nr.": "267",
        "Museum": "Mus?e Granet d'Aix-en-Provence",
        "Country": "France",
        "Score *": "781"
    },
    {
        "Nr.": "268",
        "Museum": "Museum Kranenburgh",
        "Country": "Netherlands",
        "Score *": "782"
    },
    {
        "Nr.": "269",
        "Museum": "Museu Nacional de Belas Artes",
        "Country": "Brazil",
        "Score *": "784"
    },
    {
        "Nr.": "270",
        "Museum": "York Art Gallery",
        "Country": "United Kingdom",
        "Score *": "787"
    },
    {
        "Nr.": "271",
        "Museum": "Museum Schloss B?ckeburg",
        "Country": "Germany",
        "Score *": "789"
    },
    {
        "Nr.": "272",
        "Museum": "Muzeum Narodowe w Szczecinie",
        "Country": "Poland",
        "Score *": "791"
    },
    {
        "Nr.": "273",
        "Museum": "New-York Historical Society",
        "Country": "USA",
        "Score *": "794"
    },
    {
        "Nr.": "274",
        "Museum": "Bijbels Museum",
        "Country": "Netherlands",
        "Score *": "797"
    },
    {
        "Nr.": "275",
        "Museum": "Museum Jan Cunen",
        "Country": "Netherlands",
        "Score *": "798"
    },
    {
        "Nr.": "276",
        "Museum": "Mus?e de l'Art Wallon",
        "Country": "Belgium",
        "Score *": "807"
    },
    {
        "Nr.": "277",
        "Museum": "Hyde Collection",
        "Country": "USA",
        "Score *": "808"
    },
    {
        "Nr.": "278",
        "Museum": "Gem?ldegalerie der Akademie der bildenden K?nste",
        "Country": "Austria",
        "Score *": "813"
    },
    {
        "Nr.": "279",
        "Museum": "Pretoria Art Museum",
        "Country": "South Africa",
        "Score *": "814"
    },
    {
        "Nr.": "280",
        "Museum": "Cheltenham Art Gallery and Museum",
        "Country": "United Kingdom",
        "Score *": "815"
    },
    {
        "Nr.": "281",
        "Museum": "Panorama Mesdag",
        "Country": "Netherlands",
        "Score *": "821"
    },
    {
        "Nr.": "282",
        "Museum": "Muzeum Czartoryskich",
        "Country": "Poland",
        "Score *": "825"
    },
    {
        "Nr.": "283",
        "Museum": "Oblastni Galerie",
        "Country": "Czech Republic",
        "Score *": "830"
    },
    {
        "Nr.": "284",
        "Museum": "Kunstverein Braunschweig",
        "Country": "Germany",
        "Score *": "833"
    },
    {
        "Nr.": "285",
        "Museum": "Landesmuseum Mainz",
        "Country": "Germany",
        "Score *": "834"
    },
    {
        "Nr.": "286",
        "Museum": "Rubenshuis, Musea Antwerpen",
        "Country": "Belgium",
        "Score *": "835"
    },
    {
        "Nr.": "287",
        "Museum": "National Gallery and Alexandros Soutzos Museum",
        "Country": "Greece",
        "Score *": "836"
    },
    {
        "Nr.": "288",
        "Museum": "Hessisches Landesmuseum",
        "Country": "Germany",
        "Score *": "837"
    },
    {
        "Nr.": "289",
        "Museum": "Onze-Lieve-Vrouwekathedraal Antwerpen",
        "Country": "Belgium",
        "Score *": "837"
    },
    {
        "Nr.": "290",
        "Museum": "Mus?e Fesch",
        "Country": "France",
        "Score *": "839"
    },
    {
        "Nr.": "291",
        "Museum": "Lviv Art Gallery",
        "Country": "Ukraine",
        "Score *": "840"
    },
    {
        "Nr.": "292",
        "Museum": "Historisch Museum De Bevelanden",
        "Country": "Netherlands",
        "Score *": "844"
    },
    {
        "Nr.": "293",
        "Museum": "Mus?e Jenisch",
        "Country": "Switzerland",
        "Score *": "848"
    },
    {
        "Nr.": "294",
        "Museum": "Strossmayerova galerija starih majstora",
        "Country": "Croatia",
        "Score *": "848"
    },
    {
        "Nr.": "295",
        "Museum": "Stedelijk Museum Het Prinsenhof",
        "Country": "Netherlands",
        "Score *": "850"
    },
    {
        "Nr.": "296",
        "Museum": "Museum Willet-Holthuysen",
        "Country": "Netherlands",
        "Score *": "850"
    },
    {
        "Nr.": "297",
        "Museum": "Haags Historisch Museum",
        "Country": "Netherlands",
        "Score *": "854"
    },
    {
        "Nr.": "298",
        "Museum": "Agnes Etherington Art Centre",
        "Country": "Canada",
        "Score *": "855"
    },
    {
        "Nr.": "299",
        "Museum": "Kimbell Art Museum",
        "Country": "USA",
        "Score *": "856"
    },
    {
        "Nr.": "300",
        "Museum": "Museum Kurhaus Kleve",
        "Country": "Germany",
        "Score *": "860"
    },
    {
        "Nr.": "301",
        "Museum": "La Cour d'Or-Mus?e de Metz",
        "Country": "France",
        "Score *": "860"
    },
    {
        "Nr.": "302",
        "Museum": "Collection Frits Lugt, Fondation Custodia",
        "Country": "France",
        "Score *": "865"
    },
    {
        "Nr.": "303",
        "Museum": "Stedelijk Museum Alkmaar",
        "Country": "Netherlands",
        "Score *": "866"
    },
    {
        "Nr.": "304",
        "Museum": "Schloss Friedenstein",
        "Country": "Germany",
        "Score *": "866"
    },
    {
        "Nr.": "305",
        "Museum": "Sammlung Oskar Reinhart ?Am R?merholz?",
        "Country": "Switzerland",
        "Score *": "869"
    },
    {
        "Nr.": "306",
        "Museum": "Mus?e des Beaux-Arts de Dijon",
        "Country": "France",
        "Score *": "870"
    },
    {
        "Nr.": "307",
        "Museum": "Karl Ernst Osthaus-Museum",
        "Country": "Germany",
        "Score *": "871"
    },
    {
        "Nr.": "308",
        "Museum": "Mittelrhein-Museum",
        "Country": "Germany",
        "Score *": "877"
    },
    {
        "Nr.": "309",
        "Museum": "Sammlung E.G. B?hrle",
        "Country": "Switzerland",
        "Score *": "879"
    },
    {
        "Nr.": "310",
        "Museum": "Schloss Rohrau - Graf Harrach'sche Familiensammlung",
        "Country": "Austria",
        "Score *": "881"
    },
    {
        "Nr.": "311",
        "Museum": "Mus?e du Ch?teau des Comtes de Marchin",
        "Country": "Belgium",
        "Score *": "882"
    },
    {
        "Nr.": "312",
        "Museum": "Mus?e National Magnin de Dijon",
        "Country": "France",
        "Score *": "883"
    },
    {
        "Nr.": "313",
        "Museum": "Al??ova jiho??esk? galerie",
        "Country": "Czech Republic",
        "Score *": "884"
    },
    {
        "Nr.": "314",
        "Museum": "Mus?e des Beaux-Arts de Charleroi",
        "Country": "Belgium",
        "Score *": "885"
    },
    {
        "Nr.": "315",
        "Museum": "Bonner Kunstverein",
        "Country": "Germany",
        "Score *": "891"
    },
    {
        "Nr.": "316",
        "Museum": "Muzeum Warmii i Mazur",
        "Country": "Poland",
        "Score *": "898"
    },
    {
        "Nr.": "317",
        "Museum": "Stedelijk Museum Zwolle",
        "Country": "Netherlands",
        "Score *": "899"
    },
    {
        "Nr.": "318",
        "Museum": "Kunstmuseum Winterthur",
        "Country": "Switzerland",
        "Score *": "901"
    },
    {
        "Nr.": "319",
        "Museum": "Meininger Museen",
        "Country": "Germany",
        "Score *": "903"
    },
    {
        "Nr.": "320",
        "Museum": "Schloss Weissenstein",
        "Country": "Germany",
        "Score *": "903"
    },
    {
        "Nr.": "321",
        "Museum": "Museo Municipal Qui?ones de Le?n",
        "Country": "Spain",
        "Score *": "911"
    },
    {
        "Nr.": "322",
        "Museum": "National History Museum of Latvia",
        "Country": "Latvia",
        "Score *": "912"
    },
    {
        "Nr.": "323",
        "Museum": "Museo de Arte de Ponce",
        "Country": "Puerto Rico",
        "Score *": "913"
    },
    {
        "Nr.": "324",
        "Museum": "Nationaal Glasmuseum Leerdam",
        "Country": "Netherlands",
        "Score *": "913"
    },
    {
        "Nr.": "325",
        "Museum": "Kasteel Huis Bergh",
        "Country": "Netherlands",
        "Score *": "919"
    },
    {
        "Nr.": "326",
        "Museum": "Muzeum Lubelskie",
        "Country": "Poland",
        "Score *": "928"
    },
    {
        "Nr.": "327",
        "Museum": "Muzeum ??azienki Kr?lewskie",
        "Country": "Poland",
        "Score *": "930"
    },
    {
        "Nr.": "328",
        "Museum": "Historisch Museum Arnhem",
        "Country": "Netherlands",
        "Score *": "932"
    },
    {
        "Nr.": "329",
        "Museum": "Breda's Museum",
        "Country": "Netherlands",
        "Score *": "932"
    },
    {
        "Nr.": "330",
        "Museum": "Sofia Art Gallery",
        "Country": "Bulgaria",
        "Score *": "942"
    },
    {
        "Nr.": "331",
        "Museum": "Museum Oskar Reinhardt am Stadtgarten",
        "Country": "Switzerland",
        "Score *": "946"
    },
    {
        "Nr.": "332",
        "Museum": "Mus?e des Beaux-Arts et d'Arch?ologie",
        "Country": "France",
        "Score *": "946"
    },
    {
        "Nr.": "333",
        "Museum": "Springfield Museum of Art",
        "Country": "USA",
        "Score *": "948"
    },
    {
        "Nr.": "334",
        "Museum": "B.C. Koekkoek-Haus",
        "Country": "Germany",
        "Score *": "953"
    },
    {
        "Nr.": "335",
        "Museum": "Museum Ons' Lieve Heer op Solder",
        "Country": "Netherlands",
        "Score *": "955"
    },
    {
        "Nr.": "336",
        "Museum": "Kunstmuseum St. Gallen",
        "Country": "Switzerland",
        "Score *": "958"
    },
    {
        "Nr.": "337",
        "Museum": "Mus?e Rupert de Chi?vres",
        "Country": "France",
        "Score *": "959"
    },
    {
        "Nr.": "338",
        "Museum": "Capilla Real de Granada",
        "Country": "Spain",
        "Score *": "960"
    },
    {
        "Nr.": "339",
        "Museum": "Rijksmuseum Twenthe",
        "Country": "Netherlands",
        "Score *": "963"
    },
    {
        "Nr.": "340",
        "Museum": "??rzemju m??kslas muzejs",
        "Country": "Latvia",
        "Score *": "970"
    },
    {
        "Nr.": "341",
        "Museum": "Kunstsammlungen der Veste Coburg",
        "Country": "Germany",
        "Score *": "980"
    },
    {
        "Nr.": "342",
        "Museum": "Museo Borgogna",
        "Country": "Italy",
        "Score *": "980"
    },
    {
        "Nr.": "343",
        "Museum": "Galleria Giorgio Franchetti alla Ca' d'Oro",
        "Country": "Italy",
        "Score *": "985"
    },
    {
        "Nr.": "344",
        "Museum": "Cobbe Collection",
        "Country": "United Kingdom",
        "Score *": "985"
    },
    {
        "Nr.": "345",
        "Museum": "St?dtisches Museum Schloss Rheydt",
        "Country": "Germany",
        "Score *": "987"
    },
    {
        "Nr.": "346",
        "Museum": "Museum Mesdag",
        "Country": "Netherlands",
        "Score *": "991"
    },
    {
        "Nr.": "347",
        "Museum": "Simon van Gijn - museum aan huis",
        "Country": "Netherlands",
        "Score *": "992"
    },
    {
        "Nr.": "348",
        "Museum": "Mus?e Calvet",
        "Country": "France",
        "Score *": "993"
    },
    {
        "Nr.": "349",
        "Museum": "Figge Art Museum",
        "Country": "USA",
        "Score *": "1004"
    },
    {
        "Nr.": "350",
        "Museum": "Rubenianum",
        "Country": "Belgium",
        "Score *": "1004"
    },
    {
        "Nr.": "351",
        "Museum": "Kereszt?ny M?zeum",
        "Country": "Hungary",
        "Score *": "1006"
    },
    {
        "Nr.": "352",
        "Museum": "Marie Tak van Poortvliet Museum",
        "Country": "Netherlands",
        "Score *": "1012"
    },
    {
        "Nr.": "353",
        "Museum": "G?sta Serlachius Museum of Fine Arts",
        "Country": "Finland",
        "Score *": "1015"
    },
    {
        "Nr.": "354",
        "Museum": "Rockoxhuis",
        "Country": "Belgium",
        "Score *": "1022"
    },
    {
        "Nr.": "355",
        "Museum": "Obraz?rna Prazsk?ho hradu, Prazsk?? hrad",
        "Country": "Czech Republic",
        "Score *": "1022"
    },
    {
        "Nr.": "356",
        "Museum": "Museum aan het Vrijthof",
        "Country": "Netherlands",
        "Score *": "1023"
    },
    {
        "Nr.": "357",
        "Museum": "William Humphreys Art Gallery",
        "Country": "South Africa",
        "Score *": "1025"
    },
    {
        "Nr.": "358",
        "Museum": "Muzeul de Art?? Timi??oara",
        "Country": "Romania",
        "Score *": "1025"
    },
    {
        "Nr.": "359",
        "Museum": "Museum Briner und Kern",
        "Country": "Switzerland",
        "Score *": "1029"
    },
    {
        "Nr.": "360",
        "Museum": "National Gallery for Foreign Art",
        "Country": "Bulgaria",
        "Score *": "1033"
    },
    {
        "Nr.": "361",
        "Museum": "Stedelijk Museum Zutphen",
        "Country": "Netherlands",
        "Score *": "1035"
    },
    {
        "Nr.": "362",
        "Museum": "Zilvermuseum Sterckshof Provincie Antwerpen",
        "Country": "Belgium",
        "Score *": "1050"
    },
    {
        "Nr.": "363",
        "Museum": "Kunsthaus Heylshof",
        "Country": "Germany",
        "Score *": "1051"
    },
    {
        "Nr.": "364",
        "Museum": "Galleria Nazionale di Palazzo Spinola",
        "Country": "Italy",
        "Score *": "1053"
    },
    {
        "Nr.": "365",
        "Museum": "Museum Schloss Ehrenburg",
        "Country": "Germany",
        "Score *": "1063"
    },
    {
        "Nr.": "366",
        "Museum": "Staatliche Graphische Sammlung M?nchen",
        "Country": "Germany",
        "Score *": "1064"
    },
    {
        "Nr.": "367",
        "Museum": "Nederlands Tegelmuseum",
        "Country": "Netherlands",
        "Score *": "1066"
    },
    {
        "Nr.": "368",
        "Museum": "Museo di Palazzo Ducale",
        "Country": "Italy",
        "Score *": "1067"
    },
    {
        "Nr.": "369",
        "Museum": "Nivaagaards Malerisamling",
        "Country": "Denmark",
        "Score *": "1069"
    },
    {
        "Nr.": "370",
        "Museum": "Villa Vauban - Mus?e d'Art de la Ville de Luxembourg",
        "Country": "Luxembourg",
        "Score *": "1073"
    },
    {
        "Nr.": "371",
        "Museum": "Kasteel van Loppem",
        "Country": "Belgium",
        "Score *": "1076"
    },
    {
        "Nr.": "372",
        "Museum": "Anhaltische Gem?ldegalerie",
        "Country": "Germany",
        "Score *": "1077"
    },
    {
        "Nr.": "373",
        "Museum": "Broelmuseum",
        "Country": "Belgium",
        "Score *": "1095"
    },
    {
        "Nr.": "374",
        "Museum": "Atlas van Stolk",
        "Country": "Netherlands",
        "Score *": "1105"
    },
    {
        "Nr.": "375",
        "Museum": "Ottema-Kingma Stichting",
        "Country": "Netherlands",
        "Score *": "1111"
    },
    {
        "Nr.": "376",
        "Museum": "Museo Nacional de Bellas Artes de Neuqu?n (MNBA Neuqu?n)",
        "Country": "Argentina",
        "Score *": "1130"
    },
    {
        "Nr.": "377",
        "Museum": "Keizerskapel",
        "Country": "Belgium",
        "Score *": "1144"
    }
]