col0,col1,col2,col3
J. Rolland,Sciences Po Lille,France,1979-05-11
J. V. Lanotte,Vrije Universiteit Brussel,Belgium,1955-07-06
J. Bruneau,Sciences Po,France,1963-09-07
J. Naugle,Florida Atlantic University,United States,1954-1-1
J. Moudenc,Toulouse 1 University Capitole,France,1960-07-19
J. Mayo,University of Louisiana at Monroe,African American,1957-03-30
J. C. Castro,Our Lady of the Rosary University,Colombian people,1938-03-28
J. Bompard,University of Montpellier,France,1943-02-24
I. Tijardović,University of Zagreb,Croatia,1895-9-18
I. Baldasar,University of Split,Croatia,1958-08-05
I. Kuret,University of Split,Croatia,1971-12-22
I. Tasmagambetov,"Oral, Kazakhstan",Kazakhs,1956-12-09
H. Mariton,École Polytechnique,France,1958-11-05
H. Zdanowska,Technical University of Łódź,Poland,1959-03-29
H. Abutalybov,Ioffe Institute,Azerbaijani people,1944-05-13
G. F. Zaide,University of Santo Tomas,Filipino people,1907-05-25
G. L. Pira,University of Messina,Italians,1904-01-09
G. Jennings,University at Albany,United States,1948-07-31
G. Poltavchenko,Saint Petersburg State University,Russia,1953-02-24
G. B. Mowad,Louisiana State University,Lebanese American,1932-02-05
F. Hofheinz,University of Texas,United States,1938-03-15
F. Baroin,Panthéon-Assas University,France,1965-06-21
F. Urbiztondo,Ateneo de Manila University,Philippines,1941-09-24
