col0,col1,col2,col3
1221 Amor,1932-03-12,0,0
121 Hermione,1872-05-12,0,21
11 Parthenope,1850-05-11,0,338
118401 LINEAR,1999-09-07,0,11
117 Lomia,1871-09-12,0,282
11754 Herbig,1960-09-24,0,9
115 Thyra,1871-08-06,0,151
114 Kassandra,1871-07-23,0,189
110 Lydia,1870-04-19,0,163
10 Hygiea,1849-04-12,0,756
109 Felicitas,1869-10-09,0,170
1099 Figneria,1928-09-13,0,55
1097 Vicia,1928-08-11,0,40
10979 Fristephenson,1973-09-29,0,7
107 Camilla,1868-11-17,0,21
1054 Forsytia,1925-11-20,0,86
100 Hekate,1868-07-11,0,194
(88710) 2001 SL9,2001-09-18,0,184
(85627) 1998 HP151,1998-04-28,0,584
(66391) 1999 KW4,1999-05-20,0,0
(66063) 1998 RO1,1998-09-14,0,359
(434326) 2004 JG6,2004-05-11,0,1
(410777) 2009 FD,2009-02-24,0,1
(391211) 2006 HZ51,2006-04-27,0,1
(33001) 1997 CU29,1997-02-06,0,436
(19299) 1996 SZ4,1996-09-16,0,192
(19255) 1994 VK8,1994-11-08,0,333
(16684) 1994 JQ1,1994-05-11,0,348
(15820) 1994 TB,1994-10-02,0,317
(15788) 1993 SB,1993-09-16,0,252
(153591) 2001 SN263,2001-09-20,0,396000
(144898) 2004 VD17,2004-11-07,0,1
(12538) 1998 OH,1998-07-19,0,5
(119878) 2002 CY224,2002-02-07,0,460
(119070) 2001 KP77,2001-05-23,0,216
(118702) 2000 OM67,2000-07-31,0,382
(118228) 1996 TQ66,1996-10-08,0,317
