col0,col1,col2,col3
Cemetery Dance,The Wheel of Darkness,PS3566.R3982 C46 2009,0-446-58029-5
Celandine,The Various,PZ7.A9125 Cel 2006,978-0-385-75048-6
Cats of the Clans,Secrets of the Clans,PZ7.H916625 Cat 2008,978-0-06-145856-9
Catching Fire,The Hunger Games,PZ7.C6837 Cat 2009,978-0-545-22724-7
Catch the Saint,The Saint and the People Importers,PZ4.L4774 Cat PS3562.E35,0-385-09936-3
Catalyst,Speak,PZ7.A54385 Cat 2002,0-670-03566-1
Cat's Eye,The Handmaid's Tale,PR9199.3.A8 C38 1988b,0-7710-0817-1
Castles Made of Sand,Bold As Love,PR6060.O5163 C37 2002,0-575-07032-3
Castle,The Fall,CPB Box no. 1880 vol. 18,0-439-17683-2
Cast Two Shadows,An Acquaintance with Darkness,PZ7.R459 Cas 1998,0-15-200881-0
Carnival of Souls,After Image,CPB Box no. 2490 vol. 2,1-4169-1182-0
Captain Vorpatril's Alliance,Cryoburn,PS3552.U397C37,978-1-4516-3845-5
Captain's Fury,Cursor's Fury,PS3602.U85 C37 2007,0-441-01527-1
Camber of Culdi,High Deryni,PS3561.U69 C36 1979,0-345-24590-3
Cadillac Beach,The Stingray Shuffle,PS3554.O719 C34 2004,0-06-052046-9
By Schism Rent Asunder,Off Armageddon Reef,PS3573.E217 B9 2008,978-0-7653-1501-4
By Heresies Distressed,By Schism Rent Asunder,PS3573.E217 B89 2009,0-7653-1503-3
Burning Tower,The Burning City,PS3564.I9 B873 2005,0-7434-1691-0
Bruja,Avatar,CPB Box no. 1799 vol. 4,0-7434-0701-6
Brotherhood of the Wolf,The Sum of All Men,PS3556.A71558 B7 1999,0-312-86742-5
Brother Odd,Forever Odd,PS3561.O55 F66 2006c,0-553-80480-4
Broken,Haunted,PS3551.R4678 B76 2006,0-553-58818-4
Broca's Brain,The Dragons of Eden,BF431 .S19,0-394-50169-1
