col0,col1,col2,col3
Norwegian Trekking Association,Oslo,"210,000",1868-01-21
Norwegian Skating Association,Norway,"7,000",1893-02-27
Norwegian Agrarian Association,Oslo,"61,000",1896-02-06
North American Electric Reliability Corporation,"Atlanta, Georgia","1,900+",2006-03-28
Nobel Assembly at Karolinska Institutet,Stockholm,50 members,1978-03-13
Nigerian Academy of Science,Nigeria,100 Fellows,1977-01-18
Newcastle United Supporters Trust,Newcastle upon Tyne,"Approximately 2,000 full members",2008-09-18
New England Rugby Football Union,"Boston, Massachusetts","Approximately 6000 athletes on 228 teams (youth clubs, high schools, colleges, clubs or other associations)",1975-02-03
National Trust for Historic Preservation,"Washington, D.C.","approximately 750,000",1949-10-26
National Society of Hispanic MBAs,"Dallas, Texas",23k+,1988-03-08
National Society of Collegiate Scholars,"Washington, DC","1,000,000+",1994-04-30
National Junior College Athletic Association,Colorado,525 schools in 24 regions,1938-05-14
National Federation of Priests' Councils,Chicago,"Councils of priests, priest member associations andreligious institutes in the United States.",1968-05-20
National Collegiate Athletic Association,United States,"1,281 schools/institutions, conferences, or other associations",1906-03-31
National Coalition for Syrian Revolutionary and Opposition Forces,Syrian opposition,Council of about 114 members,2012-11-11
Nahdlatul Ulama,Dutch East Indies,40 million (2013),1926-01-31
NASSCOM,Delhi,1500+,1988-03-01
Mumbai Amateur Radio Society,India,220,2000-08-07
Muhammadiyah,Dutch East Indies,29 million,1912-11-18
Mizoram College Teachers' Association,India,All incumbent college teachers underGovernment of Mizoram,1979-09-07
Mizo Zirlai Pawl,Aizawl,Allmizostudents,1935-10-27
Military Officers Association of America,Virginia,"380,000",1929-02-23
Maldivian Red Crescent,Maldives,International Red Cross and Red Crescent Movement,2009-08-16
Malaysian Hockey Confederation,Malaysia,22 Executive Board Memberss,1953-08-15
Mahjong International League,"Lausanne, Switzerland",20 countries and regions,2015-07-03
Mahamevnawa Buddhist Monastery,Sri Lanka,Practicing Buddhists,1999-08-14
London Fire and Emergency Planning Authority,London Fire Brigade,17 appointed members,2000-07-03
Lions Clubs International,"Oak Brook, Illinois","1,400,000",1917-06-07
Liga de Fútbol Profesional,Madrid,42 football clubs,1984-07-27
Liaison Committee for the Presidential Majority,France,"Union for a Popular Movement,Radical Party,Christian Democratic Party,The Progressives,New Centre,Modern Left,Movement for France,Hunting, Fishing, Nature, Tradition",2009-06-30
Lebensborn,Munich,"8,000 (1939)",1935-12-12
Kind Campaign,"Malibu, California",N/A,2009-02-11
Kansas Board of Regents,"Topeka, Kansas",32 public institutions,1925-07-01
Kadet Remaja Sekolah Malaysia,Kuala Lumpur,Open to all primary and secondary students,1987-06-27
Japan–British Society,Japan,"2000+ members, 120+ corporate members",1908-11-27
Japanese Red Cross,Japan,International Red Cross and Red Crescent Movement,1877-05-01
Japanese Cancer Association,"Shinjuku, Tokyo","More than 16,000",1941-04-05
Japan Karate Federation,"Koto-ku, Tokyo",Japan Olympic Association,1969-01-13
Japan–British Society,Japan,"2000+ members, 120+ corporate members",1908-11-27
Jacobin,Paris,"Around 500,000",1789-10-06
Interparliamentary Assembly on Orthodoxy,Athens,parliamentary committees of 21 national parliaments,1994-11-05
International Yo-Yo Federation,Czech Republic,National organization,2013-02-08
International Wushu Federation,Lausanne,147 nations,1990-10-03
International Workingmen's Association,Regent Street,5–8 million,1864-09-28
International Union of Socialist Youth,Austria,134,1907-08-24
International Tropical Fruits Network,Malaysia,"Government agencies, organizations, private companies, individual experts",2000-08-01
International Society of Military Sciences,Baltic Defence College,"Austrian National Defence Academy, theRoyal Military College of Canada, theRoyal Danish Defence College, theFinnish National Defence University, theNetherlands Defence Academy, theNorwegian Education Command, theSwedish National Defence College, theBaltic Defence College,National Defence University of Warsawand theRoyal Military Academy (Belgium)",2008-10-22
International Seabed Authority,"Kingston, Jamaica","The Authority has 167 members and theEuropean Union, composed of all parties to theLaw of the Sea Convention",1994-11-16
International Paralympic Committee,"Bonn, Germany",176National Paralympic Committees,1989-09-22
International Organization for Standardization,Geneva,[[#Membership,1947-02-23
International Monetary Fund,"Washington, D.C.",189 countries,1945-12-27
International Handball Federation,Basel,204 National Federations,1946-07-11
International Go Federation,Tokyo,List of Go organizations,1982-03-18
International Floorball Federation,Finland,62 members,1986-04-12
International Federation of Vexillological Associations,Houston,55 associations and institutions,1969-09-07
International Federation of Sport Climbing,Italy,81 member federations,2007-01-27
International Federation of Cerebral Palsy Football,South Africa,47 national CP football organizations,2015-01-01
International Federation of Blood Donor Organizations,Monaco,72 States,1955-12-04
International Centre for Integrated Mountain Development,"Lalitpur, Nepal",8 member countries,1983-12-05
International Astronomical Union,Paris,"12,450 individual members",1919-07-28
International Association of Athletics Federations,Monaco,215 member federations,1912-07-17
International Anti-Corruption Academy,Austria,"67 Parties, 53 Signatories",2011-03-08
Interface:2010,Geneva,11 members,2009-02-23
Intercollegiate Taiwanese American Students Association,"Evanston, Illinois",1000+,1998-02-17
Institution of Civil Engineers,London,(as of December 2015),1818-01-02
Institute of Physics,London,"51,809 (2015)",1874-02-14
Institute of National Remembrance,Warsaw,Staff,1998-12-18
Inner London Education Authority,London County Hall,58 directly elected members (1986–1990),1965-04-01
Information Processing Society of Japan,Tokyo,"(as of end of March, 2012)",1960-04-22
Indian Concrete Institute,Chennai,9300,1982-09-07
Illinois High School Association,"Bloomington, IL",777 high schools,1900-12-27
Hong Kong Institute of Urban Design,Lippo Centre,Urban designers,2010-06-17
Healthiest State in the Nation Campaign,Seattle,"1,300 businesses and organizations",2004-09-18
Grain and Feed Trade Association,London,Over 1500 Members in 89 countries,1871-11-17
Golden Key International Honour Society,"Atlanta, Georgia",Over 2 million,1977-11-29
Globcal International,"Vienna, Austria",2450,2009-05-09
German War Graves Commission,Germany,"114,098 (2013)",1916-12-16
Fédération Internationale de l'Automobile,Place de la Concorde,239 national organisations,1904-06-20
Football Association of Iranian Club,Iran,30 football clubs,1998-08-04
Florida High School Athletic Association,"Gainesville, FL",748 schools,1920-04-09
Finnish Workers' Sports Federation,Finland,"1,000 member associations",1919-01-26
Federation of Medical Students-Taiwan,Taipei city,"appx. 10,000 medical students (13 universities, 17 departments in Taiwan)",1988-08-11
Federation of International Bandy,Sweden,32 members,1955-02-12
Federation of Canadian Municipalities,Ontario,"2,035",1937-03-18
Federated Women's Institutes of Ontario,Canada,"3,500 members",1919-02-06
FIBA Americas,Puerto Rico,44 national associations,1975-10-11
Fédération Internationale de l'Automobile,Place de la Concorde,239 national organisations,1904-06-20
European Taekwondo Union,Netherlands,unknown,1976-05-02
European Stability Mechanism,Luxembourg,19 (all Member States of theeurozone),2012-09-27
European Professional Football Leagues,Switzerland,29 European Professional Football Leagues,2005-06-06
European Paralympic Committee,"Vienna, Austria",49 National Paralympic Committees,1999-07-02
European Mahjong Association,Denmark,14 national organizations,2005-06-25
