col0,col1,col2,col3
"Sir Owen Wynn, 3rd Baronet",1592-0-0,1592-0-0,1660-0-0
"Sir Oswald Mosley, 4th Baronet",1848-9-25,1848-9-25,1915-10-10
"Sir Nicholas Williams, 1st Baronet",1681-1-1,1681-1-1,1745-7-19
"Sir Nicholas Colthurst, 4th Baronet",1789-1-1,1789-1-1,1829-1-1
"Sir Nicholas Bacon, 1st Baronet, of Gillingham",1623-1-1,1623-1-1,1666-1-1
"Sir Nicholas Acheson, 4th Baronet",1655-0-0,1655-0-0,1701-0-0
"Sir Montague Cholmeley, 1st Baronet",1772-3-20,1772-3-20,1831-3-10
"Sir Miles Sandys, 1st Baronet",1563-3-29,1563-3-29,1645-1-1
"Sir Michael Shaw Stewart, 7th Baronet",1826-11-26,1826-11-26,1903-12-10
"Sir Matthew White Ridley, 4th Baronet",1807-9-9,1807-9-9,1877-9-25
"Sir Matthew White Ridley, 3rd Baronet",1778-4-18,1778-4-18,1836-7-14
"Sir Matthew Lamb, 1st Baronet",1705-1-1,1705-1-1,1768-11-6
"Sir Martin Lumley, 1st Baronet",1596-1-1,1596-1-1,1651-1-1
"Sir Mark Collet, 1st Baronet",1816-9-1,1816-9-1,1905-4-25
"Sir Lynch Cotton, 4th Baronet",1715-1-1,1715-1-1,1775-8-14
"Sir Lionel Smith, 1st Baronet",1778-10-9,1778-10-9,1842-1-2
"Sir Kildare Borrowes, 5th Baronet",1722-1-20,1722-1-20,1790-6-22
"Sir Kenneth Mackenzie, 3rd Baronet",1658-1-1,1658-1-1,1728-9-13
"Sir Justinian Isham, 7th Baronet",1740-7-8,1740-7-8,1818-4-1
"Sir Justinian Isham, 5th Baronet",1687-7-20,1687-7-20,1737-3-5
"Sir Joseph McConnell, 2nd Baronet",1877-9-17,1877-9-17,1942-8-27
"Sir Joseph Beecham, 1st Baronet",1848-6-8,1848-6-8,1916-10-23
"Sir Joseph Ashe, 1st Baronet",1618-1-1,1618-1-1,1686-4-15
"Sir John Yonge, 1st Baronet",1603-10-2,1603-10-2,1663-8-26
"Sir John Wynn, 2nd Baronet",1701-9-0,1701-9-0,1773-2-14
"Sir John Wright, 1st Baronet",1843-3-12,1843-3-12,1926-7-25
"Sir John Wilson, 1st Baronet",1844-1-1,1844-1-1,1918-1-1
"Sir John Stewart, 1st Baronet, of Fingask",1877-1-1,1877-1-1,1924-2-6
"Sir John Stepney, 8th Baronet",1743-1-1,1743-1-1,1811-1-1
"Sir John Starkey, 1st Baronet",1859-5-1,1859-5-1,1940-11-13
"Sir John Stanley, 1st Baronet",1663-1-1,1663-1-1,1744-11-30
"Sir John Shelley, 7th Baronet",1808-3-18,1808-3-18,1867-1-28
"Sir John Shelley, 6th Baronet",1771-12-18,1771-12-18,1849-3-14
"Sir John Seton, 1st Baronet",1639-9-29,1639-9-29,1686-0-0
"Sir John Sebright, 6th Baronet",1725-10-19,1725-10-19,1794-2-23
"Sir John Rogers, 3rd Baronet",1708-8-31,1708-8-31,1773-12-20
"Sir John Rogers, 2nd Baronet",1676-6-14,1676-6-14,1744-1-21
"Sir John Rogers, 1st Baronet",1649-1-1,1649-1-1,1710-4-23
"Sir John Reid, 2nd Baronet",1791-1-1,1791-1-1,1867-1-1
"Sir John Pakington, 4th Baronet",1671-1-1,1671-1-1,1727-1-1
"Sir John Ogilvy, 9th Baronet",1803-3-17,1803-3-17,1890-3-9
"Sir John McEwen, 1st Baronet",1894-6-21,1894-6-21,1962-4-19
"Sir John MacLeod, 1st Baronet",1857-1-1,1857-1-1,1934-1-1
"Sir John Leigh, 1st Baronet",1884-8-3,1884-8-3,1959-7-28
"Sir John Lawson, 1st Baronet, of Knavesmire Lodge",1856-7-28,1856-7-28,1919-5-27
"Sir John Lauder, 3rd Baronet",1669-12-3,1669-12-3,1728-2-0
"Sir John Latta, 1st Baronet",1867-5-9,1867-5-9,1946-12-5
"Sir John Key, 1st Baronet",1794-8-16,1794-8-16,1858-7-15
"Sir John Kennaway, 1st Baronet",1758-0-0,1758-0-0,1836-0-0
"Sir John Keane, 1st Baronet",1757-5-21,1757-5-21,1829-4-19
"Sir John Johnston, 3rd Baronet",1648-0-0,1648-0-0,1690-12-23
"Sir John Jardine, 1st Baronet",1844-9-27,1844-9-27,1919-4-26
"Sir John Jackson, 1st Baronet",1763-12-30,1763-12-30,1820-5-17
"Sir John Isham, 1st Baronet",1582-7-27,1582-7-27,1651-7-8
"Sir John Inglis, 2nd Baronet",1683-9-23,1683-9-23,1771-3-3
"Sir John Hynde Cotton, 4th Baronet",1717-1-1,1717-1-1,1795-1-1
"Sir John Hoskyns, 2nd Baronet",1634-7-23,1634-7-23,1705-9-12
"Sir John Hopkins, 1st Baronet",1863-2-16,1863-2-16,1946-2-16
"Sir John Honywood, 4th Baronet",1757-1-1,1757-1-1,1806-1-1
"Sir John Hobart, 3rd Baronet",1628-3-20,1628-3-20,1683-8-22
"Sir John Hayes, 1st Baronet",1750-1-1,1750-1-1,1809-1-1
"Sir John Hay, 6th Baronet",1788-8-3,1788-8-3,1838-11-1
"Sir John Hardy, 1st Baronet",1809-2-23,1809-2-23,1888-7-9
"Sir John Guise, 4th Baronet",1701-1-1,1701-1-1,1769-1-1
"Sir John Grey Egerton, 8th Baronet",1766-7-11,1766-7-11,1825-5-24
"Sir John Gladstone, 4th Baronet",1855-11-23,1855-11-23,1945-2-12
"Sir John Gladstone, 3rd Baronet",1852-4-26,1852-4-26,1926-6-25
"Sir John Fleming, 1st Baronet",1730-0-0,1730-0-0,1763-11-6
"Sir John Eyles, 2nd Baronet",1683-0-0,1683-0-0,1745-3-11
"Sir John Esmonde, 16th Baronet",1928-6-27,1928-6-27,1987-5-16
"Sir John Ennis, 2nd Baronet",1842-4-0,1842-4-0,1884-5-28
"Sir John Ennis, 1st Baronet",1809-1-1,1809-1-1,1878-8-8
"Sir John Edwards, 1st Baronet, of Garth",1770-1-1,1770-1-1,1850-1-1
"Sir John Dyke Acland, 16th Baronet",1939-5-13,1939-5-13,2009-9-26
"Sir John Dick-Lauder, 8th Baronet",1813-6-5,1813-6-5,1867-3-23
"Sir John Dick-Lauder, 11th Baronet",1883-7-22,1883-7-22,1958-9-19
"Sir John Delaval, 3rd Baronet",1654-11-7,1654-11-7,1729-6-4
"Sir John D'Oyly, 6th Baronet",1754-1-0,1754-1-0,1818-1-5
"Sir John Crosse, 2nd Baronet",1700-1-1,1700-1-1,1762-3-12
"Sir John Cotton, 4th Baronet, of Connington",1680-1-1,1680-1-1,1731-2-5
"Sir John Colleton, 1st Baronet",1608-1-1,1608-1-1,1666-1-1
"Sir John Chetwode, 4th Baronet",1764-5-11,1764-5-11,1845-12-17
"Sir John Carmichael-Anstruther, 5th Baronet",1785-6-1,1785-6-1,1818-1-28
"Sir John Briscoe, 1st Baronet",1836-12-6,1836-12-6,1919-5-1
"Sir John Bowyer, 2nd Baronet",1653-4-25,1653-4-25,1691-7-18
"Sir John Borlase, 2nd Baronet",1642-0-0,1642-0-0,1689-2-1
"Sir John Bingham, 6th Baronet",1728-11-0,1728-11-0,1750-11-27
"Sir John Barlow, 2nd Baronet",1898-6-15,1898-6-15,1986-1-5
"Sir John Barker, 4th Baronet",1655-1-1,1655-1-1,1696-8-14
"Sir John Baird, 2nd Baronet",1686-10-13,1686-10-13,1745-9-30
"Sir John Astley, 2nd Baronet",1687-1-24,1687-1-24,1772-1-29
"Sir John Astley, 1st Baronet",1778-6-27,1778-6-27,1842-1-19
"Sir John Anstruther, 1st Baronet, of Anstruther",1678-0-0,1678-0-0,1753-9-27
"Sir John Anderson, 1st Baronet, of Harrold Priory",1878-5-8,1878-5-8,1963-4-11
"Sir Jeremiah Colman, 1st Baronet",1859-4-24,1859-4-24,1942-1-16
"Sir James Stronge, 3rd Baronet",1811-1-1,1811-1-1,1885-1-1
"Sir James Somerville, 1st Baronet",1693-1-1,1693-1-1,1748-8-16
"Sir James Smyth, 1st Baronet",1686-1-1,1686-1-1,1717-2-28
"Sir James Oxenden, 2nd Baronet",1641-4-4,1641-4-4,1708-9-29
"Sir James Nasmyth, 2nd Baronet",1704-1-1,1704-1-1,1779-1-1
"Sir James Johnstone, 3rd Baronet",1697-2-9,1697-2-9,1772-12-10
"Sir James Graham, 1st Baronet, of Kirkstall",1753-11-18,1753-11-18,1825-3-21
"Sir James Foulis, 7th Baronet",1770-1-1,1770-1-1,1842-1-1
"Sir James Flower, 2nd Baronet",1794-12-14,1794-12-14,1850-5-17
"Sir James Duncan, 1st Baronet",1899-0-0,1899-0-0,1974-9-30
"Sir James Dalrymple, 1st Baronet",1650-0-0,1650-0-0,1719-5-0
"Sir James Colquhoun, 4th Baronet, of Luss",1804-2-7,1804-2-7,1873-12-18
"Sir James Colquhoun, 3rd Baronet, of Luss",1774-9-28,1774-9-28,1836-2-3
"Sir James Cockburn, 9th Baronet",1771-3-21,1771-3-21,1852-2-26
"Sir James Clavering, 1st Baronet",1620-2-3,1620-2-3,1702-3-24
"Sir James Anderson, 1st Baronet",1792-7-21,1792-7-21,1861-4-4
"Sir Jacob Downing, 4th Baronet",1717-1-1,1717-1-1,1764-2-6
"Sir Hyde Parker, 8th Baronet",1785-0-0,1785-0-0,1856-3-21
"Sir Hugh Stewart, 2nd Baronet",1792-5-14,1792-5-14,1854-11-19
"Sir Hugh Shaw Stewart, 8th Baronet",1854-7-11,1854-7-11,1942-6-29
"Sir Hugh Paterson, 2nd Baronet",1685-1-1,1685-1-1,1777-3-23
"Sir Hugh Cholmeley, 4th Baronet",1632-7-21,1632-7-21,1689-1-9
"Sir Howard Elphinstone, 2nd Baronet",1804-6-9,1804-6-9,1893-3-16
"Sir Hew Dalrymple, 2nd Baronet",1712-3-12,1712-3-12,1790-11-24
"Sir Herbert Williams-Wynn, 7th Baronet",1860-6-6,1860-6-6,1944-5-24
"Sir Herbert Smith, 1st Baronet",1872-6-22,1872-6-22,1943-7-14
"Sir Herbert Mackworth, 1st Baronet",1737-1-1,1737-1-1,1791-10-25
"Sir Herbert Croft, 9th Baronet",1838-7-25,1838-7-25,1902-2-11
"Sir Henry Willoughby, 3rd Baronet",1796-11-17,1796-11-17,1865-3-23
"Sir Henry Webb, 1st Baronet",1866-7-28,1866-7-28,1940-10-29
"Sir Henry St John-Mildmay, 3rd Baronet",1764-9-30,1764-9-30,1808-11-11
"Sir Henry Robinson, 1st Baronet",1857-11-20,1857-11-20,1927-10-16
"Sir Henry Peyton, 3rd Baronet",1804-6-30,1804-6-30,1866-1-1
"Sir Henry Peyton, 2nd Baronet",1779-0-0,1779-0-0,1854-0-0
"Sir Henry Peyton, 1st Baronet",1736-1-1,1736-1-1,1789-1-1
"Sir Henry Oxenden, 4th Baronet",1690-7-10,1690-7-10,1720-4-21
"Sir Henry Meux, 2nd Baronet",1817-1-1,1817-1-1,1883-1-1
"Sir Henry Jackson, 1st Baronet",1875-8-22,1875-8-22,1937-2-23
"Sir Henry Goldney, 4th Baronet",1886-7-3,1886-7-3,1974-2-26
"Sir Henry Fletcher, 3rd Baronet, of Hutton le Forest",1661-4-0,1661-4-0,1712-5-19
"Sir Henry Fletcher, 1st Baronet, of Clea Hall",1727-0-0,1727-0-0,1807-3-29
"Sir Henry Conway, 1st Baronet",1630-1-1,1630-1-1,1669-1-1
"Sir Henry Chamberlain, 1st Baronet",1773-1-1,1773-1-1,1829-7-31
"Sir Henry Bruce, 3rd Baronet",1820-9-22,1820-9-22,1907-12-8
"Sir Henry Bingham, 3rd Baronet",1654-0-0,1654-0-0,1714-7-5
"Sir Henry Bingham, 1st Baronet",1573-1-1,1573-1-1,1658-1-1
"Sir Henry Beaumont, 2nd Baronet",1638-4-2,1638-4-2,1689-1-27
"Sir Hedworth Williamson, 7th Baronet",1797-11-1,1797-11-1,1861-4-24
"Sir Godfrey Webster, 5th Baronet",1789-10-6,1789-10-6,1836-7-17
"Sir Gilbert Elliot, 1st Baronet, of Minto",1650-0-0,1650-0-0,1718-5-1
"Sir Gerald Hanson, 2nd Baronet",1867-4-23,1867-4-23,1946-1-18
"Sir George Wombwell, 1st Baronet",1734-6-11,1734-6-11,1780-11-2
"Sir George Shee, 1st Baronet",1758-1-1,1758-1-1,1825-2-3
"Sir George Russell, 4th Baronet",1828-8-23,1828-8-23,1898-3-7
"Sir George Philips, 2nd Baronet",1789-12-23,1789-12-23,1883-2-22
