col0,col1,col2,col3
USC&GS Discoverer,1922-04-07,1918-06-20,1918-09-28
USAT St. Mihiel,1920-10-29,1918-11-20,1919-11-19
USAT J. W. McAndrew,1940-11-08,1939-12-21,1940-07-13
USAT General John McE. Hyde,1922-12-05,1921-07-18,1922-03-11
USAT General Frank M. Coxe,1922-12-01,1921-07-16,1922-03-03
USAHS Marigold,1920-10-21,1919-03-20,1920-02-29
UBS Mayu,1947-05-25,1942-05-20,1942-11-09
Tontogany,1973-07-28,1972-12-04,1973-05-16
Tonkawa,1966-05-19,1965-12-22,1966-03-15
Tomahawk,1966-06-07,1966-01-31,1966-05-05
Toisa Pisces,1997-03-01,1996-04-30,1997-01-10
TS State of Maine,1990-08-31,1986-10-22,1989-02-28
TS Empire State VI,1962-04-19,1961-03-01,1961-09-16
Swedish frigate Venus,1789-06-01,1783-03-31,1783-07-19
SuperStar Virgo,1999-08-02,1996-11-18,1998-12-23
SuperStar Gemini,1992-11-04,1991-03-06,1992-02-24
SuperStar Aquarius,1993-05-04,1991-12-16,1992-11-14
Spanish ship San Juan Nepomuceno,1805-10-22,1765-06-19,1766-10-18
Spanish ship San Ildefonso,1805-10-21,1784-03-26,1785-01-22
Spanish schooner Virgen de Covadonga,1865-11-26,1858-02-13,1859-11-28
Spanish aircraft carrier Dédalo,1967-08-30,1942-03-16,1943-04-04
Soviet minesweeper T-120,1943-10-05,1942-11-01,1942-12-27
Soviet minesweeper T-119,1943-09-29,1942-11-01,1942-12-27
Soviet minesweeper T-118,1943-09-16,1942-10-18,1942-12-07
Soviet minesweeper T-117,1943-09-06,1942-10-10,1942-12-07
Soviet minesweeper T-116,1943-08-26,1942-06-08,1942-12-07
Soviet minesweeper T-115,1943-08-17,1942-06-08,1942-12-07
Soviet minesweeper T-114,1943-08-11,1942-04-08,1942-12-07
Soviet minesweeper T-113,1943-07-10,1942-04-08,1942-12-07
Soviet minesweeper T-112,1943-07-10,1942-04-08,1942-11-01
Soviet gunboat Krasnoye Znamya,1922-12-30,1894-12-27,1895-11-21
Shtandart,1703-09-08,1703-04-24,1703-08-22
Sea Cloud II,2000-12-29,1998-06-24,1999-03-18
Santaquin,1973-09-30,1973-03-05,1973-08-13
Saco,1969-01-08,1968-01-12,1968-07-03
SS Wright,1970-02-01,1968-06-01,1969-07-01
SS William S. Ladd,1942-12-23,1942-11-20,1942-12-15
SS United States,2011-02-01,1950-02-08,1951-06-23
SS Sea Owl,1944-06-27,1943-07-22,1943-12-17
SS Sea Marlin,1956-03-06,1943-04-21,1943-09-27
SS Rotterdam,1872-09-07,1871-06-22,1872-06-06
SS Robert E. Peary,1942-11-15,1942-11-08,1942-11-12
SS Richard Montgomery,1943-07-29,1943-03-15,1943-06-15
SS Red Oak Victory,1944-12-05,1944-09-09,1944-11-07
SS President Taylor,1921-03-07,1919-05-22,1920-07-31
SS Point Bonita,1918-10-07,1917-05-29,1918-03-27
SS Park Victory,1945-05-16,1945-03-11,1945-04-21
SS Ohio,1942-07-10,1939-09-07,1940-04-20
SS Northern Pacific,1917-09-17,1913-09-23,1914-10-17
SS Nomadic,1911-05-27,1910-12-22,1911-04-25
SS Munargo,1921-12-31,1920-09-30,1921-09-17
SS Manchuria,1918-04-10,1902-09-03,1903-11-02
SS John W. Brown,1942-09-19,1942-07-28,1942-09-07
SS John Burke,1942-12-23,1942-11-20,1942-12-15
SS Jan Pieterszoon Coen,1915-06-17,1913-10-14,1914-09-30
SS Iberia,1954-09-10,1952-02-08,1954-01-21
SS Green Mountain State,1992-03-15,1963-12-02,1964-08-20
SS Great Western,1847-04-24,1836-06-26,1837-07-19
SS Grand Canyon State,1965-11-04,1964-03-20,1965-01-23
SS George Washington Carver,1943-11-23,1943-04-12,1943-05-07
SS Gem State,1984-05-07,1965-02-10,1965-05-30
SS France,1979-06-26,1957-09-07,1960-05-11
SS Dorchester,1926-07-17,1925-09-10,1926-03-20
SS Davidson Victory,1945-03-30,1945-01-16,1945-02-27
SS Cornhusker State,1969-06-20,1967-11-27,1968-11-02
SS Claymont Victory,1944-12-15,1944-09-25,1944-11-18
SS Cape Mohican,1986-03-20,1971-07-15,1972-09-23
SS Cape May,1972-09-26,1971-10-31,1972-02-27
SS Cape Island,1977-06-02,1976-02-16,1976-12-21
SS Cape Isabel,1986-06-09,1975-07-28,1976-05-15
SS Cape Intrepid,1976-06-08,1975-01-27,1976-11-01
SS Cape Inscription,1987-09-08,1974-07-01,1975-05-24
SS Cape Florida,1987-02-17,1969-12-29,1970-10-10
SS Cape Flattery,1987-05-14,1972-02-10,1973-05-19
SS Cap Arcona,1940-11-29,1926-07-21,1927-05-14
SS Beaver State,1987-04-02,1964-04-13,1965-01-14
SS Antoine Saugrain,1943-08-28,1943-07-26,1943-08-15
SS Antigua,1941-12-26,1931-04-30,1931-12-12
SS American Victory,1945-06-20,1945-03-30,1945-05-24
SS America,1946-06-01,1938-08-22,1939-08-31
SS Alkimos,1943-10-18,1943-09-18,1943-10-11
SM UB-47,1917-07-21,1915-09-04,1916-06-17
SM UB-43,1917-07-21,1915-09-03,1916-04-08
SM U-10,1915-06-04,1914-11-01,1915-01-22
SMS Viribus Unitis,1918-10-31,1910-07-24,1911-06-24
SMS Saida,1920-09-19,1911-09-09,1912-10-26
SMS Helgoland,1920-09-19,1911-10-28,1912-11-23
SMS Goeben,1914-08-16,1909-08-28,1911-03-28
Russian battleship Retvizan,1905-01-02,1899-07-29,1900-10-23
Russian battleship Poltava,1916-04-04,1892-05-19,1894-11-06
Russian battleship Pobeda,1905-10-17,1899-02-21,1900-05-10
Russian battleship Peresvet,1905-06-29,1895-11-21,1898-05-19
Russian battleship Oryol,1905-05-28,1900-06-01,1902-07-19
Russian battleship Imperator Nikolai I,1905-05-28,1886-08-04,1889-06-01
Russian battleship Imperator Aleksandr III,1918-06-19,1911-10-30,1914-04-15
Royal Princess,2013-06-04,2011-10-20,2012-08-16
Redwing,1966-02-01,1965-08-09,1965-10-20
RV Thomas G. Thompson,1991-07-08,1989-03-29,1990-07-27
RV Sonne,2014-11-17,2013-04-12,2014-04-05
RV Roger Revelle,1996-06-11,1993-12-09,1995-04-20
RV Kilo Moana,2003-09-03,2001-02-09,2001-11-17
RV Atlantis,1998-02-25,1994-08-16,1996-02-01
RPS Rajah Soliman,1960-10-31,1943-01-14,1943-10-31
ROCS Tso Ying,2003-05-30,1978-06-26,1979-08-11
ROCS Su Ao,2003-05-30,1978-10-23,1979-12-01
ROCS Ma Kong,2003-05-30,1978-06-26,1980-05-24
ROCS Kee Lung,2003-05-30,1979-02-12,1980-03-01
RMS Olympic,1911-05-31,1908-12-16,1910-10-20
RMS Mauretania,1907-11-11,1904-08-18,1906-09-20
RMS Lusitania,1907-08-26,1904-08-17,1906-06-07
RFA Tarbatness,1981-09-30,1966-04-15,1967-02-28
RFA Stromness,1983-01-01,1965-10-05,1966-09-16
RFA Lyness,1982-03-01,1965-07-07,1966-04-07
Puyallup,2012-03-19,2011-03-01,2011-09-29
Piqua,1967-07-10,1966-09-29,1967-04-25
Pawhuska,1973-09-10,1973-01-09,1973-06-07
Palatka,1969-11-25,1968-11-29,1969-08-19
PS Duchess of Montrose,1915-02-15,1901-12-19,1902-05-08
PNS Tariq,1993-07-28,1971-09-01,1973-01-18
PNS Ghazi,1964-06-01,1944-08-11,1944-12-01
Ottoman cruiser Mecidiye,1915-05-31,1901-11-07,1903-07-25
Opelika,1969-01-30,1968-02-23,1968-08-21
ORP Wicher,1958-06-29,1949-02-15,1949-08-14
ORP Warszawa,1970-06-25,1954-12-25,1956-04-12
ORP Sokół,1945-07-27,1939-12-09,1940-09-30
ORP Orkan,1942-11-18,1939-12-07,1941-12-02
ORP Grom,1957-12-15,1950-03-01,1950-04-30
Norwegian Sky,1999-07-29,1995-09-01,1996-10-06
Norma,1944-06-06,1943-12-03,1944-06-04
Nogalesen,1965-10-22,1964-08-12,1965-06-24
Niantic,1965-11-10,1964-12-10,1965-09-07
Neodesha,1971-01-02,1971-05-10,1971-10-06
Natick,1961-06-19,1960-09-01,1961-02-28
Natchitoches,1969-05-22,1968-06-24,1969-01-09
Nashua,1964-06-20,1964-08-27,1965-05-11
Nanticoke,1970-06-21,1969-05-26,1969-12-14
NRP Bérrio,1993-03-31,1968-12-30,1969-11-11
NOAAS Thomas Jefferson,2003-03-03,1989-10-25,1991-02-14
NOAAS Oceanographer,1970-10-03,1963-07-22,1964-04-18
NOAAS McArthur,1970-10-03,1965-07-15,1965-11-15
NOAAS Fairweather,1970-10-03,1963-08-12,1967-03-15
NOAAS Discoverer,1970-10-03,1963-09-10,1964-10-29
NOAAS Bell M. Shimada,2010-01-21,2007-06-15,2008-09-26
Mira,1943-11-06,1943-05-22,1943-10-31
Menominee,1967-06-10,1966-09-06,1967-04-03
Menominee,2012-03-30,2011-04-01,2011-12-03
Mein Schiff 5,2016-06-20,2014-12-30,2016-01-15
Mein Schiff 4,2015-05-08,2013-04-06,2014-10-10
Mecosta,1973-05-17,1972-08-16,1973-03-26
Massapequa,1970-11-30,1969-10-30,1970-05-27
Marinette,1967-06-10,1966-09-08,1967-04-10
Manistee,1966-02-01,1965-08-09,1965-10-20
Manhattan,1965-12-01,1964-10-01,1965-07-15
Mandan,1968-10-15,1967-12-11,1968-04-30
Maltese patrol boat P31,1992-07-01,1968-12-12,1969-06-18
Maltese patrol boat P29,1997-07-24,1969-10-08,1970-05-22
MV Wilhelm Gustloff,1938-03-15,1936-08-01,1937-05-05
MV Viking Star,2015-03-28,2013-12-18,2014-06-23
MV Ventura,2008-03-31,2006-08-29,2007-06-08
MV Ocean Gala,1982-08-20,1981-04-06,1981-10-16
MV Northern Expedition,2009-03-12,2008-06-16,2008-09-25
MV Moby Corse,1978-04-28,1976-05-21,1977-06-21
MV Kaitaki,1995-05-15,1994-08-03,1995-01-01
MV Dubai Moon,1978-08-31,1977-09-29,1978-06-16
MV Coastal Celebration,2008-05-08,2007-09-01,2007-12-14
MV Ciudad de Barcelona,1929-08-30,1928-10-15,1929-06-08
MV Arcadia,2005-03-29,2003-07-12,2004-06-26
MS Viking XPRS,2008-04-21,2007-04-16,2007-09-19
MS Viking Cinderella,1989-11-07,1988-12-15,1989-04-15
MS Victoria I,2004-03-09,2003-03-11,2003-10-16
MS Vana Tallinn,1974-06-28,1973-05-07,1973-08-31
MS Svea Regina,1972-05-25,1971-02-06,1971-12-03
MS Svea Corona,1975-05-19,1974-02-18,1974-07-19
MS Superstar,2008-04-08,2007-01-18,2007-10-05
MS Superspeed 1,2008-02-27,2007-02-28,2007-08-01
MS Stena Performer,2012-04-16,2011-10-31,2012-01-12
MS Stavangerfjord,2013-07-08,2011-03-23,2012-04-12
MS Star,2007-03-10,2006-05-30,2006-11-23
MS Sleipner,1999-08-18,1998-06-28,1999-02-24
MS Silja Serenade,1990-11-15,1989-05-29,1989-11-06
MS Serenade of the Seas,2003-07-30,2001-09-26,2003-06-20
MS Seatruck Power,2012-02-03,2011-08-22,2011-10-28
MS SNAV Toscana,1981-06-24,1980-06-01,1980-11-01
MS SNAV Sardegna,1989-09-29,1988-09-10,1989-02-25
MS SNAV Adriatico,1986-04-22,1985-01-05,1985-11-09
MS Rosella,1980-04-25,1979-04-27,1979-08-14
MS Romantika,2002-05-10,2001-05-23,2001-12-14
MS Radiance of the Seas,2001-03-10,1998-06-24,2000-06-15
MS Princess Maria,1981-03-30,1980-02-18,1980-07-25
MS Pride of Rotterdam,2001-04-12,1999-03-01,2000-09-29
MS Pearl Seaways,1989-04-18,1988-05-27,1988-10-22
MS Nordlys,1994-03-16,1992-10-16,1993-08-13
MS Nautica,2000-01-29,1999-03-22,1999-07-31
MS Monarch,1991-10-15,1989-07-31,1990-09-22
MS Moby Zazà,1982-05-02,1981-06-03,1981-12-05
MS Moby Otta,1976-04-12,1975-04-02,1975-11-04
MS Mega Andrea,1986-01-09,1984-05-22,1985-03-15
MS Kaptain Boris,1966-04-27,1965-04-07,1965-10-28
