col0,col1,col2,col3
R. Hatun,1604,1516-1-1,Nadia Frankos
P. Shah,2001,1952-01-19,Prekshya Rajya Laxmi Devi
M. Hatun,1631,1615-0-0,"English: Marica,Turkish: Mariça"
L. Saigō,1589,1552-0-0,Tozuka Masako (戸塚昌子)
J. o. Schweinfurt,1058,1003-1-1,Judith
"Ivy Cavendish-Bentinck, Duchess of Portland",1982,1887-06-16,Ivy Gordon-Lennox
A. H. Sultan,1747,1682-0-0,Iona Theodora Loverdos
A. Begum,1512,1490-0-0,Ayesha
A. H. Sultan,1747,1682-0-0,Iona Theodora Loverdos
