col0,col1,col2,col3
Åre ski resort,Östersund,1420,390
Zauberberg,Graz,1344,996
Yabuli Ski Resort,Shangzhi,1345,397
Wolf Ridge Ski Resort,"Mars Hill, North Carolina",1402,1188
Wolf Mountain,"Ogden, Utah",1981,1676
Wolf Creek ski area,Colorado,3628,3139
Wisp Ski Resort,"McHenry, Maryland",949,736
Winterplace Ski Resort,West Virginia,1097,913
Wintergreen Resort,"Lynchburg, Virginia",1071,765
Winter Park Resort,"Winter Park, Colorado",3675,2743
Windham Mountain,Windham,944,457
Wilmot Mountain,"Wilmot, Wisconsin",292,234
Willamette Pass Resort,"Oakridge, Oregon",2036,1560
Wildcat Mountain Ski Area,"Jackson, New Hampshire",1238,594
Whitewater Ski Resort,"Nelson, British Columbia",2045,1422
Whitetail Ski Resort,Maryland,548,263
Whitefish Mountain Resort,"Missoula, Montana",2077,1360
White Pass Ski Area,"Tacoma, Washington",1981,1371
White Hills Ski Resort,Clarenville,381,206
Whistler Blackcomb,"Vancouver, British Columbia",2182,653
Whaleback,"Enfield, New Hampshire",548,335
West Mountain,New York,448,140
Welch Village,United States,323,213
Waterville Valley Resort,"Plymouth, New Hampshire",1170,554
Warner Canyon,"Lakeview, Oregon",1829,1606
Wachusett Mountain,Massachusetts,611,304
Vogel Ski Resort,Bled,1800,560
Vodafone Ski Resort,Covilhã,1984,1854
Velika Planina Ski Resort,Kamnik,1412,1666
Vallter 2000,Catalonia,2535,1910
Vallnord,Andorra la Vella,2625,1550
Valle Nevado,Santiago,5430,3000
Vall de Núria,Catalonia,2252,1964
Valdezcaray,Ezcaray,2125,1530
Valdesquí,Madrid,2280,1860
Val Thorens,Chambéry,3220,1850
Val-Louron,Tarbes,2150,1450
Vail Ski Resort,"Vail, Colorado",3526,2474
Tyrol Basin,"Mount Horeb, Wisconsin",344,265
Tuxedo Ridge Ski Center,"Tuxedo Park, New York",365,243
Turner Mountain Ski Resort,"Kalispell, Montana",1814,1171
Tuixent – la Vansa,Catalonia,2150,1830
Tsaghkadzor ski resort,Armenia,2820,1966
Trije Kralji Ski Resort,Slovenska Bistrica,1344,1180
Treble Cone,Wanaka,2088,1250
Timberline Lodge ski area,"Portland, Oregon",2602,1478
Tiffindell Ski Resort,"Rhodes, Eastern Cape",2900,2720
Thunderhill Ski Area,"Swan River, Manitoba",573,436
"Thredbo, New South Wales",Canberra,2037,1365
The Summit at Snoqualmie,"North Bend, Washington",1652,795
Teton Pass Ski Area,"Choteau, Montana",2194,1886
Tenney Mountain Ski Resort,"Plymouth, New Hampshire",655,228
Temple Basin,Arthur's Pass,1753,1326
Telluride Ski Resort,Colorado,4008,2659
Tamarack Ski Area,"Moscow, Idaho",1341,1158
Tamarack Resort,"Boise, Idaho",2334,1493
Takob,Varzob,3000,2100
Tahoe Donner Downhill,"Truckee, California",2255,2057
Superbagnères,Tarbes,2256,1775
Super Besse,Clermont-Ferrand,1800,1350
SuperDévoluy,Grenoble,2500,1500
Suomu,Kemijärvi,409,165
Sunshine Village,"Banff, Alberta",2730,1660
Sunrise Park Resort,Arizona,3383,2804
Sunlight Ski Area,"Glenwood Springs, Colorado",3015,2403
Sunday River,"Auburn, Maine",957,243
Sundance Resort,"Provo, Utah",2514,1859
Sun Peaks Resort,"Kamloops, British Columbia",2152,1255
Suicide Six,Vermont,365,167
Sugarloaf,"Farmington, Maine",1291,431
Sugarbush Resort,"Burlington, Vermont",1244,452
Sugar Bowl Ski Resort,"Norden, California",2555,2097
Stryn Sommerski,Stryn,1640,185
Stratton Mountain Resort,Manchester,1181,570
Stowe Mountain Resort,"Burlington, Vermont",1133,475
Stoneham Mountain Resort,Quebec City,593,248
Stevens Pass Ski Area,"Leavenworth, Washington",1706,1164
Steamboat Ski Resort,Colorado,3221,2103
Stari Vrh Ski Resort,Škofja Loka,1216,580
"Stagecoach, Colorado","Steamboat Springs, Colorado",2788,2270
Squaw Valley Ski Resort,"Reno, Nevada",2758,1889
Spout Springs Ski Area,"Tollgate, Oregon",1661,1499
Soriška Planina Ski Resort,Kranj,1550,1307
Solitude Mountain Resort,"Salt Lake City, Utah",3058,2434
Soldier Mountain,"Fairfield, Idaho",2187,1753
Soldier Hollow,"Midway, Utah",1792,1665
Snowy Range Ski Area,"Centennial, Wyoming",3048,2743
Snowshoe Mountain,"Lewisburg, West Virginia",1477,1020
Snowhaven,"Grangeville, Idaho",1706,1584
"Snowbird, Utah","Salt Lake City, Utah",3352,2365
Snowbasin,"Ogden, Utah",2849,1947
Snow Valley Ski Club,Edmonton,665,625
Snow Valley Mountain Resort,"Running Springs, California",2389,2072
Snow Summit,"Big Bear Lake, California",2491,2122
"Snow Farm, New Zealand","Wanaka, New Zealand",1965,1520
Smugglers' Notch,"Burlington, Vermont",1109,314
Sky Resort,Mongolia,1570,1379
Ski Wentworth,"Truro, Nova Scotia",302,53
Ski Montcalm,Montreal,330,190
Ski Idlewild,Colorado,2773,2651
Ski Cooper,"Leadville, Colorado",3566,3200
Ski Chantecler,"Saint-Jérôme, Quebec",457,274
Ski Cape Smokey,Nova Scotia,320,15
Silverton Mountain,Colorado,4110,3169
"Silver Summit, Alberta","Edson, Alberta",1448,1150
Silver Star Mountain Resort,"Vernon, British Columbia",1915,1155
Silver Mountain,"Spokane, Washington",1919,701
Sierra Nevada Ski Station,Granada,3300,2100
Sierra-at-Tahoe,"Twin Bridges, California",2698,2023
Shymbulak,Almaty,3200,2200
Showdown Ski Area,"Neihart, Montana",2499,2072
Seven Springs Mountain Resort,"Pittsburgh, Pennsylvania",912,682
Serre Chevalier,Grenoble,2800,1200
Selwyn Snowfields,Canberra,1614,1492
Schweitzer Mountain,"Spokane, Washington",1950,1207
Saddleback Maine,"Farmington, Maine",1255,646
Rødkleiva,Oslo,479,310
Roundtop Mountain Resort,"Lewisberry, Pennsylvania",406,230
Roundhill Ski Area,Timaru,2133,1350
Rotarun Ski Area,"Hailey, Idaho",1796,1652
Rosa Khutor Alpine Resort,Sochi,2320,940
Rogla Ski Resort,Slovenske Konjice,1517,1050
Revelstoke Mountain Resort,"Revelstoke, British Columbia",2225,512
Red Mountain Resort,"Spokane, Washington",2072,1185
Red Lodge Mountain,"Billings, Montana",2869,2138
Rødkleiva,Oslo,479,310
Păltiniș,"Sibiu, Romania",1681,1302
Purgatory Resort,Colorado,3298,2680
Praz de Lys-Sommand,Mieussy,2000,1500
