col0,col1,col2,col3,col4,col5
Lake Huron,23007000000,2977286,51700000000,228,59
Lake Harku,1629000,6772,47170000,2,1
Lake Goodwin,2165068,8690,14026404,15,7
Lake Garda,369980000,158400,2350000000,346,136
Lake Ermistu,4495000,19545,32300000,2,1
Lake Elsinore,12112241,22530,1942491082,12,8
Lake Ellsworth,22662395,86099,650087015,16,4
Lake Eden,161000,4500,1500000,15,6
Lake Diefenbaker,430000000,800000,135500000000,66,21
Lake Como,146000000,160000,4509000000,425,154
Lake Chelan,134938380,175740,2393149013,452,144
Lake Champlain,1331000000,945000,21326000000,122,19
Lake Chaffee,218530,2560,1149307,3,1
Lake Cadillac,4653884,12504,34356000000,8,3
Lake Billy Chinook,16187425,115872,19461170661,126,31
Lake Balaton,592000000,236000,5174000000,12,3
Lake Baikal,31722000000,2100000,560000000000,1642,744
Lake Akan,13000000,25900,148000000,44,17
Lake Abashiri,33000000,44000,1380000000,16,7
Lake Ülemiste,9436000,15219,99240000,4,2
Lago di Mergozzo,1810000,6200,10400000,73,45
Ladybower Reservoir,2100000,20921,25754194,41,28
Lac la Ronge,1413000000,1015000,10000000000,42,14
"Långsjön, Älvsjö",290000,4940,2430000,3,2
Kyrösjärvi,96066000,353450,2626000000,47,10
Kuortaneenjärvi,14880000,33800,1266000000,16,3
Kuolimo,79000000,395000,861000000,41,9
Kulovesi,36422000,152770,20822000000,36,7
Keoka Lake,1861553,7242,18388915,12,7
Kamloops Lake,52000000,60500,39050000000,152,71
Kalterer See,1400000,5300,55500000,5,3
Jubilee Lake,373646,4184,10877950,13,4
John Martin Reservoir,47178252,35405,48989625107,18,5
John C. Boyle Reservoir,1541852,12231,10567151490,13,3
Jerisjärvi,23510000,74830,132000000,11,3
Issyk-Kul,6236000000,669000,15844000000,668,278
Island Lake,165921,3218,3366984,6,1
Island Lake,1223000000,745000,20000000000,59,20
Hyatt Reservoir,3872841,12070,20719904,11,5
Hosmer Lake,801277,8046,33669845,3,0
Hills Creek Reservoir,11068152,51499,1007505374,91,39
Harveys Lake,2515121,13357,14568683,31,10
Hart Lake,29639176,33313,2833446992,3,1
Haidersee,890000,4500,33970000,15,6
Haddebyer Noor,1000000,4800,36200000,5,3
Hacksjön,133000,1590,1700000,1,0
Gömmaren,210000,4030,2000000,5,3
Grünsee,39200,800,2000000,9,5
Großer Plöner See,29970000,49600,393000000,58,13
Green Peter Reservoir,15054305,77248,717426706,96,34
Green Lake,29643223,47153,258998811,72,30
Green Lake,12674754,46349,153327296,51,13
Great Slave Lake,27200000000,3057000,971000000000,614,41
Great Pond,34531825,74190,214710014,21,6
Great East Lake,7385512,29000,40144815,31,10
Great Bear Lake,31153000000,2719000,114717000000,446,71
Graham Lake,37971653,144519,1292404067,14,5
Grünsee,39200,800,2000000,9,5
Gods Lake,1060000000,474000,20000000000,75,13
Ghost Lake,11600000,32000,6460000000,34,14
Gerber Reservoir,15438757,46510,606057217,19,8
Gömmaren,210000,4030,2000000,5,3
Futalaufquen Lake,44000000,72500,2920000000,168,101
Frobisher Lake,516000000,424000,4921000000,19,5
Floras Lake,955058,8368,25899881,10,5
Flathead Lake,510227657,259748,22240227903,112,50
Flaten,630000,5460,4030000,13,7
Flagstaff Lake,82151185,236895,1336433864,14,5
Fern Ridge Reservoir,37878576,48441,712246730,10,3
Fateh Sagar Lake,4000000,8500,54000000,13,5
Fall Creek Lake,6944405,35405,476557812,49,20
Enchanted Pond,1351650,8046,90649583,61,56
Elk Lake,1638976,8207,33669845,18,3
El Dorado Lake,32374851,157715,639727063,18,5
Eibsee,1774000,8060,13390000,35,12
Eel Lake,1436634,18507,25899881,19,10
East Grand Lake,64413813,126816,354828371,39,8
Dryvyaty,36100000,37600,459000000,12,6
Doré Lake,640000000,195000,2435000000,20,10
Doris Lake,279233,2735,2848986,28,7
Dorena Reservoir,7446215,20921,686346849,29,12
Doré Lake,640000000,195000,2435000000,20,10
Diamond Lake,12302443,14484,142449346,16,7
Dexter Reservoir,4148027,11265,2595168086,17,8
Deschambault Lake,542000000,680000,7356000000,22,6
Dead Sea,600000000,135000,41650000000,298,199
Dauphin Lake,521000000,190000,8870000000,3,2
Curlew Lake,3727154,25427,167054233,39,13
Crump Lake,31079857,114102,2162640072,1,0
Cross Lake,755000000,1330000,8099000000,12,1
Crescent Lake,18401056,19955,147629322,80,37
Cree Lake,1152000000,786000,4468000000,60,14
Crater Lake,53353755,35083,60346722,594,349
Crane Prairie Reservoir,13840248,35405,479147800,6,4
Cougar Reservoir,5179976,28968,536127538,129,52
Cordell Hull Lake,48400402,613160,20968543741,27,6
Cooper Creek Reservoir,671778,8207,11654946,21,7
Clinton Lake,28327994,136794,950525636,16,2
Cleawox Lake,352076,8368,4143980,14,5
Clear Lake,1282853,14001,5179976,36,16
Churchill Lake,559000000,212000,7874000000,24,9
Chasewater,1080000,5600,9000000,11,3
Caspian Sea,371000000000,7000000,3626000000000,1025,211
Bull Run Lake,1885835,6759,9064958,70,20
Buffalo Pound Lake,29500000,72500,3310000000,5,3
Browning Pond,360170,3218,31079857,12,3
Brooks Pond,9064958,6437,768902,6,3
Brautsee,72000,1310,620000,2,1
Brandy Pond,2994673,9977,515407633,13,4
Bradley Lake,93077,1609,6460000,10,7
Brabrand Lake,1000000,8000,282000000,2,0
Booth Wood Reservoir,209000,4988,15700000,46,1
Blue River Reservoir,3783810,27358,227918953,75,27
Bear Lake,282308704,77248,23726545189,63,28
Barmsee,550000,3300,3000000,30,16
Bannwaldsee,2280000,6790,21420000,12,6
Baltic Sea,377000000000,8000000,1641650000000,459,55
Balch Pond,2335036,16254,37036829,14,3
Applegate Lake,3998294,29772,577567348,68,25
Antholzer See,433000,2700,19060000,38,25
Antelope Reservoir,13293923,27358,1652412414,7,2
Aliyar Reservoir,6480000,16000,468800000,36,18
Albysjön,1180000,6470,84100000,24,8
Aishihik Lake,146000000,153000,2765000000,120,30
Agency Lake,37627671,41360,631957098,2,0
Adriatic Sea,138600000000,3739100,235000000000,1233,252
Abtsdorfer See,840000,4180,21300000,20,11
Černé jezero,184000,1300,1280000,40,15
Ältasjön,730000,5350,4370000,5,3
