col0,col1,col2,col3
Enoplometopus antillensis,Enoplometopidae,LC,iucn3.1
Engaewa similis,Parastacidae,LC,iucn3.1
Eidocamptophallus,Pseudothelphusidae,DD,iucn3.1
Dussartius,Diaptomidae,VU,IUCN2.3
Dugastella marocana,Atyidae,EN,IUCN3.1
Disparithelphusa,Pseudothelphusidae,DD,iucn3.1
Dexteria,Chirocephalidae,CR,iucn2.3
Demanietta renongensis,Potamidae,LC,iucn3.1
Daphnia occidentalis,Daphniidae,VU,IUCN2.3
Daphnia nivalis,Daphniidae,VU,IUCN2.3
Daphnia jollyi,Daphniidae,VU,IUCN2.3
Daphnia coronata,Daphniidae,VU,IUCN2.3
Curassanthura bermudensis,Leptanthuridae,CR,IUCN2.3
Crangonyx hobbsi,Crangonyctidae,VU,IUCN2.3
Crangonyx grandimanus,Crangonyctidae,VU,IUCN2.3
