col0,col1,col2,col3
Verașu River,Harghita County,Harghita County,Harghita County
Verșteag River,Caraş-Severin County,Caraş-Severin County,Caraş-Severin County
Vențel River,Covasna,Covasna,Covasna
Venețioara River,Braşov County,Braşov County,Braşov County
Veneția River,Braşov County,Braşov County,Braşov County
Venețioara River,Braşov County,Braşov County,Braşov County
Veneția River,Braşov County,Braşov County,Braşov County
Vențel River,Covasna,Covasna,Covasna
Velnița River,Neamţ County,Neamţ County,Neamţ County
Velna River,Iaşi County,Vaslui County,Iaşi County
Veljul River,Arad County,Arad County,Arad County
Veljul River,Arad County,Arad County,Arad County
Veljul Pustei River,Bihor County,Bihor County,Bihor County
Veljul Negreștilor River,Bihor County,Bihor County,Bihor County
Veljul Mic River,Bihor County,Bihor County,Bihor County
Veljul Mare River,Bihor County,Bihor County,Bihor County
Veljul Gurbediului River,Bihor County,Bihor County,Bihor County
Velicanul River,Braşov County,Braşov County,Braşov County
Veleșchia River,Harghita County,Harghita County,Harghita County
Veleșchia River,Harghita County,Harghita County,Harghita County
Veleșchia River,Harghita County,Harghita County,Harghita County
Veleșchia River,Harghita County,Harghita County,Harghita County
Veja River,Iaşi County,Iaşi County,Iaşi County
Vefsna,Mosjøen,Helgeland,Helgeland
Vedița River,Olt County,Olt County,Olt County
Vederoasa River,Constanţa County,Constanţa County,Constanţa County
Vedea,Roșiorii de Vede,Olt County,Argeș County
Vețca River,Mureș County,Mureș County,Mureș County
Veța River,Mureş County,Mureş County,Mureş County
Vața River,Vața de Sus,Căzănești,Vața de Jos
Vașar River,Covasna,Covasna,Covasna
Vaucouleurs,Eure-et-Loir,Eure-et-Loir,Eure-et-Loir
Vasău River,Neamţ County,Neamţ County,Neamţ County
Vaslui River,"Găneasa, Olt",Olt County,Olt County
Vaslui,Iași County,Iași County,Iași County
Vasilatu River,Vâlcea County,Vâlcea County,Vâlcea County
Vaser River,Maramureș County,Maramureș County,Maramureș County
Vasău River,Neamţ County,Neamţ County,Neamţ County
Varvizel River,Bihor County,Bihor County,Bihor County
Varul River,Sibiu County,Sibiu County,Sibiu County
Varu River,Hunedoara,Hunedoara,Hunedoara
Varnițele River,Neamţ County,Neamţ County,Neamţ County
Varnița River,Vrancea County,Vrancea County,Vrancea County
Varnița River,Braşov County,Braşov County,Braşov County
Varnița River,Caraş-Severin County,Caraş-Severin County,Caraş-Severin County
Varnița River,Botoşani County,Botoşani County,Botoşani County
Varnițele River,Neamţ County,Neamţ County,Neamţ County
Varnița River,Caraş-Severin County,Caraş-Severin County,Caraş-Severin County
Varnița River,Botoşani County,Botoşani County,Botoşani County
Varnița River,Vrancea County,Vrancea County,Vrancea County
Varnița River,Braşov County,Braşov County,Braşov County
Varna Mică River,Braşov County,Braşov County,Braşov County
Varna Mare River,Braşov County,Braşov County,Braşov County
Varlaam River,Buzău County,Buzău County,Buzău County
Varing River,Caraş-Severin County,Caraş-Severin County,Caraş-Severin County
Varieș River,Bihor County,Bihor County,Bihor County
Varasău River,Bihor County,Bihor County,Bihor County
Varad River,Caraş-Severin County,Caraş-Severin County,Caraş-Severin County
Var River,Harghita County,Harghita County,Harghita County
Var River,Harghita County,Harghita County,Harghita County
Vanga Mică River,Braşov County,Braşov County,Braşov County
Vanga Mare River,Braşov County,Braşov County,Braşov County
Vancea de Sus River,Braşov County,Braşov County,Braşov County
Vancea de Jos River,Braşov County,Braşov County,Braşov County
Vancea River,Neamţ County,Neamţ County,Neamţ County
Van Trump Creek,"Pierce County, Washington","Pierce County, Washington","Pierce County, Washington"
Van Duzen River,"Hydesville, California","Hydesville, California","Hydesville, California"
Vameș River,Galați County,"Costache Negri, Galați",Galați County
Vaman River,Harghita County,Harghita County,Harghita County
Vama Mică River,Braşov County,Braşov County,Braşov County
Vama Mare River,Braşov County,Braşov County,Braşov County
Valăul Coziei River,Caraş-Severin County,Caraş-Severin County,Caraş-Severin County
Valukkai Aru,Jaffna District,Jaffna District,Jaffna District
Vals River,Kroonstad,Kroonstad,Kroonstad
Valhalla Canyon,"Teton County, Wyoming","Teton County, Wyoming","Teton County, Wyoming"
Valerița River,Hunedoara,Hunedoara County,Hunedoara
Valenciano River,"Juncos, Puerto Rico","Juncos, Puerto Rico","Juncos, Puerto Rico"
Valea Țânțărenilor River,Hunedoara County,Hunedoara,Hunedoara
Valea Țigănești River,Braşov County,Braşov County,Braşov County
Valea Țiganului River,Bihor County,Bihor County,Bihor County
Valea Țiganului River,Bihor County,Bihor County,Bihor County
Valea Țiganului River,Maramureş County,Maramureş County,Maramureş County
Valea Țiganului,Timiș County,Timiș County,Timiș County
Valea Țiganilor River,Alba County,Alba County,Alba County
Valea Țarinii River,Bihor County,Bihor County,Bihor County
Valea Țapului River,Prahova County,Prahova County,Prahova County
Valea Șuiorului River,Cavnic,Maramureş County,Maramureş County
Valea Șugărilor River,Dâmboviţa County,Dâmboviţa County,Dâmboviţa County
Valea Șturului River,Maramureş County,Maramureş County,Maramureş County
Valea Șteitorilor River,Hunedoara,Hunedoara,Hunedoara
Valea Șteioarei River,Braşov County,Braşov County,Braşov County
Valea Ștefii River,Caraş-Severin County,Caraş-Severin County,Caraş-Severin County
Valea Șoimului River,Braşov County,Braşov County,Braşov County
Valea Șlipului River,Maramureş County,Maramureş County,Maramureş County
Valea Șindrilelor River,Hunedoara,Hunedoara,Hunedoara
Valea Șindilei River,Braşov,Braşov County,Braşov
Valea Șicanelor River,Alba County,Alba County,Alba County
Valea Șesului River,Sibiu County,Sibiu County,Sibiu County
Valea Șesii River,Sălaj County,Sălaj County,Sălaj County
Valea Șesii River,Alba County,Alba County,Alba County
Valea Șerpilor River,Hunedoara,Hunedoara,Hunedoara
Valea Șerpilor River,Bihor County,Bihor County,Bihor County
Valea Șerbări River,Hunedoara,Hunedoara,Hunedoara
Valea Șchiopului River,Buzău County,Buzău County,Buzău County
Valea Șaului River,Argeș County,Argeș County,Argeș County
Valea Șarpelui River,Craiova,Dolj County,Craiova
Valea între Fânețe River,Alba County,Alba County,Alba County
Valea Întunecoasă River,Maramureş County,Maramureş County,Maramureş County
Valea Întunecoasă River,Harghita County,Harghita County,Harghita County
Valea Îngustă River,Vrancea County,Vrancea County,Vrancea County
Valea Îngustă River,Maramureş County,Maramureş County,Maramureş County
Valea Îndărăt River,Argeș County,Argeș County,Argeș County
Valea lui Ștefănică River,Dâmboviţa County,Dâmboviţa County,Dâmboviţa County
Valea lui Șmit River,Braşov County,Braşov County,Braşov County
Valea lui Voicu River,Gorj County,Gorj County,Gorj County
Valea lui Vlad River,Vâlcea County,Vâlcea County,Vâlcea County
Valea lui Vasile River,Bihor County,"Dobrești, Bihor","Dobrești, Bihor"
Valea lui Tămâie River,Dâmboviţa County,Dâmboviţa County,Dâmboviţa County
Valea lui Tucă River,Olt County,Olt County,Olt County
Valea lui Tămâie River,Dâmboviţa County,Dâmboviţa County,Dâmboviţa County
Valea lui Sărăcilă River,Prahova County,Prahova County,Prahova County
Valea lui Sănui River,Alba County,Alba County,Alba County
Valea lui Sânpătru River,Hunedoara County,Hunedoara,Hunedoara
Valea lui Stinghie River,Argeș County,Argeș County,Argeș County
Valea lui Stere River,Braşov County,Braşov County,Braşov County
Valea lui Stanciu River,Argeș County,Argeș County,Argeș County
Valea lui Stan River,Bistriţa-Năsăud County,Bistriţa-Năsăud County,Bistriţa-Năsăud County
Valea lui Stan River,Vâlcea County,Vâlcea County,Vâlcea County
Valea lui Stan River,Argeș County,Argeș County,Argeș County
Valea lui Saleu River,Maramureş County,Maramureş County,Maramureş County
Valea lui Sărăcilă River,Prahova County,Prahova County,Prahova County
Valea lui Sănui River,Alba County,Alba County,Alba County
Valea lui Sânpătru River,Hunedoara,Hunedoara,Hunedoara
Valea lui Roman River,Sibiu County,Sibiu County,Sibiu County
Valea lui Roman River,Argeș County,Argeș County,Argeș County
Valea lui Petru River,Prahova County,Prahova County,Prahova County
Valea lui Peti River,Maramureş County,Maramureş County,Maramureş County
Valea lui Odobescu River,Galați County,Galați County,Galați County
Valea lui Nan River,Braşov County,Braşov County,Braşov County
Valea lui Nailat River,Bistriţa-Năsăud County,Bistriţa-Năsăud County,Bistriţa-Năsăud County
Valea lui Moiș River,Satu Mare County,Satu Mare County,Satu Mare County
Valea lui Moise River,Dâmboviţa County,Dâmboviţa County,Dâmboviţa County
Valea lui Moiș River,Satu Mare County,Satu Mare County,Satu Mare County
Valea lui Mihai River,Alba County,Alba County,Alba County
Valea lui Mihai River,Vâlcea County,Vâlcea County,Vâlcea County
Valea lui Mihai River,Maramureş County,Maramureş County,Maramureş County
Valea lui Mihai River,Bistriţa-Năsăud County,Bistriţa-Năsăud County,Bistriţa-Năsăud County
Valea lui Mareș River,Gorj County,Gorj County,Gorj County
Valea lui Marco River,Dâmboviţa County,Dâmboviţa County,Dâmboviţa County
Valea lui Manole River,Prahova County,Prahova County,Prahova County
Valea lui Liman River,Timiş County,Timiş County,Timiş County
Valea lui Lambă River,Braşov County,Braşov County,Braşov County
Valea lui Ivan River,Sibiu County,Sibiu County,Sibiu County
Valea lui Ivan River,Argeș County,Argeș County,Argeș County
Valea lui Iovan River,Gorj County,Gorj County,Gorj County
Valea lui Ionel River,Sibiu County,Sibiu County,Sibiu County
Valea lui Ion River,Argeș County,"Ungheni, Argeș",Argeș County
Valea lui Ion River,Hunedoara,Hunedoara,Hunedoara
Valea lui Ion River,Bacău County,Bacău County,Bacău County
Valea lui Ilie River,Vrancea County,Vrancea County,Vrancea County
Valea lui Iacob River,Sibiu County,Sibiu County,Sibiu County
Valea lui Hurjui River,Botoşani County,Botoşani County,Botoşani County
Valea lui Gheorghiță River,Braşov County,Braşov County,Braşov County
Valea lui Geantă River,Argeș County,Argeș County,Argeș County
Valea lui Fătu River,Sibiu County,Sibiu County,Sibiu County
Valea lui Francisc River,Covasna,Covasna,Covasna
Valea lui Foale River,Cluj County,Cluj County,Cluj County
Valea lui Fătu River,Sibiu County,Sibiu County,Sibiu County
Valea lui Dăniș River,Argeș County,Argeș County,Argeș County
Valea lui Dobre River,Braşov County,Braşov County,Braşov County
Valea lui Dan River,Dolj County,Dolj County,Dolj County
Valea lui Dan River,Bistrița-Năsăud County,Bistrița-Năsăud County,Bistrița-Năsăud County
Valea lui Dan River,Dolj County,Dolj County,Dolj County
Valea lui Dăniș River,Argeș County,Argeș County,Argeș County
Valea lui Câine River,Gorj County,Gorj County,Gorj County
Valea lui Băl River,Cluj County,Cluj County,Cluj County
Valea lui Băj River,Argeș County,Argeș County,Argeș County
Valea lui Bădescu River,Dâmboviţa County,Dâmboviţa County,Dâmboviţa County
Valea lui Brusture River,Argeș County,Argeș County,Argeș County
Valea lui Bran River,Tulcea County,Tulcea County,Tulcea County
Valea lui Brad River,Hunedoara,Hunedoara,Hunedoara
Valea lui Bogdan River,Prahova County,Prahova County,Prahova County
Valea lui Bibaț River,Alba County,Alba County,Alba County
Valea lui Băl River,Cluj County,Cluj County,Cluj County
Valea lui Băj River,Argeș County,Argeș County,Argeș County
Valea lui Bădescu River,Dâmboviţa County,Dâmboviţa County,Dâmboviţa County
Valea lui Aron River,Argeș County,Argeș County,Argeș County
Valea lui Aron River,Argeş County,Argeş County,Argeş County
Valea lui Anton River,Braşov County,Braşov County,Braşov County
Valea lui Anti River,Cluj County,Cluj County,Cluj County
Valea lui Andraș River,Bihor County,Bihor County,Bihor County
