col0,col1,col2,col3
I Just Fall in Love Again,S. Dorff,All You Get from Love Is a Love Song,245
I Feel for You,Prince,Still Waiting,204
I've Got You Under My Skin,C. Porter,Our Love Is Here to Stay,220
"Help Me, Rhonda",B. Wilson,When I Grow Up,184
Halloween,D. M. Band,Stay,300
Guinnevere,D. Crosby,Marrakesh Express,279
Gaston,A. Menken,Belle,220
Gangsta?,K. D. III,Take the World,155
Freddie Freeloader,M. Davis,So What,586
Flamenco Sketches,B. Evans,All Blues,566
Famous,K. D. III,Take the World,241
Don't Talk 2 Strangers,Prince,How Come U Don't Call Me Anymore?,191
"Both Sides, Now",J. Mitchell,The Fiddle and the Drum,272
Blue in Green,B. Evans,Freddie Freeloader,337
Big Generator,C. Squire,Rhythm of Love,272
Behind My Camel,A. Summers,"De Do Do Do, De Da Da Da",174
Bartender,D. Matthews,Big Eyed Fish,511
Assassin,M. Bellamy,Invincible,211
Anthem,J. Schaffer,Dystopia,294
All Blues,M. Davis,Blue in Green,693
Absolutely Free,F. Zappa,What's the Ugliest Part of Your Body?,205
4 the Tears in Your Eyes,Prince,Tears Are Not Enough,165
