col0,col1,col2,col3
What Is Love,Hide and Seek,H. Jones,Howard Jones
What Is Love,Life,T. Hendrik,Haddaway
What Is Life,Bangla Desh,G. Harrison,George Harrison
What Is It,Teardrops,KRS-One,Baby Bash
What If Jesus Comes Back Like That,On the Verge,D. Johnson,Collin Raye
What If It's You,What If,R. E. Orrall,Reba McEntire
What If I Was Nothing,No Knock,P. Labonte,All That Remains
What If I Do,You'll Never Know,D. Malloy,Mindy McCready
What If,If You See Him/If You See Her,D. Warren,Reba McEntire
What If,The Sky's the Limit,J. Rotem,Jason Derulo
What If,With Arms Wide Open,S. Stapp,Creed
What I Want,Over You,C. Daughtry,Daughtry
