col0,col1,col2,col3,col4,col5,col6
Roman Catholic Archdiocese of Edmonton,Alberta,Alberta,Alberta,Alberta,81151000000,81151000000
Roman Catholic Archdiocese of Dubuque,List of the Roman Catholic dioceses of the United States,List of the Roman Catholic dioceses of the United States,List of the Roman Catholic dioceses of the United States,List of the Roman Catholic dioceses of the United States,45065793119,45065793119
Roman Catholic Archdiocese of Dijon,Dijon,Dijon,Dijon,Dijon,8760000000,8760000000
Roman Catholic Archdiocese of Diamantina,"Diamantina, Minas Gerais","Diamantina, Minas Gerais","Diamantina, Minas Gerais","Diamantina, Minas Gerais",45171000000,45171000000
Roman Catholic Archdiocese of Dhaka,Dhaka,Dhaka,Dhaka,Dhaka,14193000000,14193000000
Roman Catholic Archdiocese of Detroit,Detroit,Detroit,Detroit,Detroit,3901000000,3901000000
Roman Catholic Archdiocese of Delhi,Delhi,Delhi,Delhi,Delhi,15420000000,15420000000
Roman Catholic Archdiocese of Curitiba,Curitiba,Curitiba,Curitiba,Curitiba,5528000000,5528000000
Roman Catholic Archdiocese of Cuiabá,Cuiabá,Cuiabá,Cuiabá,Cuiabá,24542000000,24542000000
Roman Catholic Archdiocese of Crotone-Santa Severina,Roman Catholic Archdiocese of Catanzaro-Squillace,Roman Catholic Archdiocese of Catanzaro-Squillace,Roman Catholic Archdiocese of Catanzaro-Squillace,Roman Catholic Archdiocese of Catanzaro-Squillace,1885000000,1885000000
