col0,col1,col2,col3,col4
620 Drakonia,11,1906-10-26,413638112485,315097995055
61 Danaë,7,1860-09-09,520969000000,371280000000
619 Triberga,9,1906-10-22,405170873003,349191349787
618 Elfriede,8,1906-10-17,511968792896,442076667705
6189 Völk,13,1989-03-02,391437788473,297879280137
6181 Bobweber,13,1986-09-06,450364389742,276726141220
617 Patroclus,8,1906-10-17,888611516515,672408410240
6170 Levasseur,13,1981-04-05,464136638995,239659678406
616 Elly,10,1906-10-17,404587441308,359423844143
615 Roswitha,10,1906-10-11,436631305212,350807006791
614 Pia,11,1906-10-11,447746427005,358167222029
6144 Kondojiro,11,1994-03-14,968414336082,453613655493
6141 Durda,14,1992-12-26,310862909255,233018206137
613 Ginevra,9,1906-10-11,462721173862,411139828044
612 Veronika,10,1906-10-08,594337380504,350283414244
611 Valeria,9,1906-09-24,499612008776,392589692078
610 Valeska,12,1906-09-26,580858612353,343132636024
6102 Visby,13,1993-03-21,452713076312,324776977289
60 Echo,8,1860-09-14,423339000000,292951000000
609 Fulvia,10,1906-09-24,480642998772,442256185150
608 Adolfine,10,1906-09-18,508423323361,395761166936
6084 Bascom,12,1985-02-12,427386156802,264638633268
607 Jenny,10,1906-09-18,458203318167,395461971195
606 Brangäne,10,1906-09-18,472325357161,302352256471
6063 Jason,15,1984-05-27,584703277630,77307691641
605 Juvisia,10,1906-08-27,511086165459,386097144489
60558 Echeclus,9,2000-03-03,2325349302160,870180894287
604 Tekmessa,9,1906-02-16,564612283595,377240950544
603 Timandra,11,1906-02-16,445936292769,313362659755
602 Marianna,8,1906-02-16,576475394742,346274191309
6025 Naotosato,11,1992-12-30,483634956186,420370016667
601 Nerthus,9,1906-06-21,517204718371,420579453685
600 Musa,10,1906-06-14,420070820925,375700092475
5 Astraea,6,1845-12-08,458630457786,311442237481
59 Elpis,7,1860-09-12,453624000000,358808000000
599 Luisa,8,1906-04-25,536443004543,294348770389
598 Octavia,9,1906-04-13,516307131146,310984053611
597 Bandusia,9,1906-04-16,457530127748,341756335614
596 Scheila,8,1906-02-21,510233457596,366290386408
595 Polyxena,7,1906-03-27,509904342280,450035274426
5951 Alicemonet,13,1986-10-07,400503419438,256784745056
594 Mireille,12,1906-03-27,531895229273,254136862745
