col0,col1,col2,col3,col4
A. Šterjov,KK Kozuv,Republic of Macedonia,1986-05-15,1986-05-15
A. Petroulas,Panelefsiniakos BC,Greek language,1978-06-02,1978-06-02
A. d. Carvalho,Progresso Associação do Sambizanga,Angola,1956-08-18,1956-08-18
A. Miguel,Club Ourense Baloncesto,Spain,1977-05-29,1977-05-29
A. Clydesdale,Dandenong Rangers,Australian,1993-09-21,1993-09-21
A. Nerips,TTT Riga,Latvia,1967-09-07,1967-09-07
A. Bibrzycka,Fenerbahçe Women's Basketball,Poland,1982-10-21,1982-10-21
A. Tudor,BCM U Pitesti,Romania,1985-03-13,1985-03-13
A. Wehrung,Canberra Capitals,Australian,1995-12-28,1995-12-28
A. AlSaeid,Kuwait SC,Kuwait,1988-11-27,1988-11-27
A. Hijazi,Sporting Al Riyadi Beirut,Lebanon,1982-1-1,1982-1-1
Ž. M. Šiško,KK Cibona,Slovenia,1997-06-29,1997-06-29
Ł. Seweryn,Czarni Słupsk,Poland,1982-10-26,1982-10-26
Ö. Kavurmacıoğlu,Fenerbahçe Women's Basketball,Turkey,1993-03-07,1993-03-07
Ö. Gürbulak,Besiktas,Turkey,1981-04-30,1981-04-30
Ó. García,CE Lleida Bàsquet,Spain,1979-03-04,1979-03-04
Á. Abrines,Oklahoma City Thunder,Liga ACB,1993-08-01,1993-08-01
Á. Hanga,Saski Baskonia,Hungarian people,1989-04-12,1989-04-12
