col0,col1,col2,col3,col4
W. Kaidel,Schweinfurt,1978-4-2,1912-4-20,1912-4-20
W. Bartholomae,Krefeld,2000-1-1,1885-1-31,1885-1-31
W. Menne,Würzburg,1945-3-27,1910-8-11,1910-8-11
W. Dehn,Schöneberg,1960-1-1,1889-9-17,1889-9-17
W. Volle,Mannheim,2002-10-27,1913-9-18,1913-9-18
W. Meyer,Tangermünde,1949-12-5,1904-9-14,1904-9-14
W. Katzenstein,Lisbon,1929-9-9,1878-10-8,1878-10-8
W. Flinsch,New York City,1943-2-3,1903-2-7,1903-2-7
R. Reichelt,Berlin,2000-1-1,1890-3-24,1890-3-24
R. Fickeisen,Trippstadt,1943-8-21,1885-5-15,1885-5-15
R. Kubail,Berlin,1981-8-15,1952-4-30,1952-4-30
P. Söllner,Davos,1991-4-8,1911-6-5,1911-6-5
O. Liebing,Berlin,1967-11-7,1891-3-31,1891-3-31
O. Fickeisen,Ludwigshafen,1963-12-15,1879-12-24,1879-12-24
O. Goßler,Hamburg,1953-2-15,1875-6-26,1875-6-26
M. Bröske,Königsberg,2000-1-1,1882-7-25,1882-7-25
M. Winter,Zerbst,1988-2-21,1955-11-5,1955-11-5
M. Karl,Würzburg,1942-3-1,1911-6-3,1911-6-3
M. Rulffs,Kiel,2007-1-15,1935-3-6,1935-3-6
K. Runge,Brandenburg an der Havel,1959-11-6,1887-9-13,1887-9-13
K. Ludwig,Sulechów,2016-5-18,1943-1-2,1943-1-2
K. Renneberg,Gelsenkirchen,1999-10-21,1927-1-29,1927-1-29
K. Aletter,Mannheim,1991-3-29,1906-7-8,1906-7-8
K. Adam,Hagen,1976-6-18,1912-5-2,1912-5-2
K. Hopp,Olsztyn,2007-2-11,1936-11-20,1936-11-20
J. Spremberg,Berlin,1975-1-1,1908-11-3,1908-11-3
J. Böhmer,Berlin,1999-12-28,1940-10-01,1940-10-01
H. Strauß,Mannheim,1941-11-1,1907-6-25,1907-6-25
H. Hoeck,Berlin,1969-4-12,1904-5-19,1904-5-19
H. Arndt,Königsberg,2014-10-19,1934-9-19,1934-9-19
H. Buhtz,Magdeburg,2006-6-7,1911-4-12,1911-4-12
H. Adamski,Berlin,1941-8-11,1910-4-30,1910-4-30
H. Heinhold,Bremen,2008-11-7,1927-7-1,1927-7-1
