col0,col1,col2,col3,col4
Techno,Hi-NRG,Alternative dance,Ghettotech,Hardcore techno
Swing music,Jazz,New jack swing,Electro swing,Swing revival
Soul music,Gospel music,Funk,Soul jazz,Smooth soul
Rock music of West Bengal,Rock and roll,Rock music,Rockabilly,Alternative rock
Rock music,Blues,New-age music,Baroque pop,Soft rock
Rock and roll,Boogie-woogie,Rock music,Death 'n' Roll,Surf rock
Rhythm and blues,Jazz,Disco,Rock music,Contemporary R&B
Reggae,Jazz,Hip hop music,Reggae fusion,Roots reggae
Punk rock,Hard rock,Alternative rock,Ska punk,Christian punk
Progressive rock,Classical music,New-age music,Progressive metal,Rock in Opposition
Post-punk,Progressive music,Synthpop,Post-hardcore,Dance-punk
Post-hardcore,Hardcore punk,Blackgaze,Electronicore,Emo
Outline of jazz,Blues,Reggae,Humppa,Bebop
Kroncong,Portuguese music,Langgam Jawa,Pop music,Koes Plus
Jazz,Ragtime,Ska,Afrobeat,Swing music
Italo disco,Disco,Eurobeat,Eurodance,Spacesynth
Indie rock,Synthpop,Neo-psychedelia,Indie folk,Chamber pop
House music,Disco,Dance-pop,Alternative dance,Acid house
Hip hop music,Deejay,Drum and bass,Reggaeton,Chicano rap
Heavy metal music,Blues rock,Grunge,Rap metal,Black metal
Hardcore punk,New wave of British heavy metal,Grunge,Grindcore,D-beat
Happy hardcore,Trance music,4-beat,Eurobeat,UK hardcore
Grime music,Soca music,Dubstep,Grindie,Dubstep
Gospel music,Hymn,Country music,Christian country music,Southern gospel
Gangsta rap,Hip hop music,Dirty rap,G-funk,Drill
Funk,Jazz,Nu metal,UK funky,P-Funk
Extreme metal,Heavy metal music,Power metal,Drone metal,Thrash metal
Electronics in rock music,Rock music,Electronic dance music,Alternative hip hop,New wave music
Electronica,Synthpop,Alternative dance,Funktronica,Indietronica
Electro,Boogie,House music,Electropop,Skweee
Dub music,Reggae,Electronic dance music,Dubtronica,Dub poetry
Drum and bass,Electronica,Grime music,Breakcore,Darkstep
Doom metal,Heavy metal music,Gothic metal,Doom metal,Doom metal
Disco,Psychedelic soul,New wave music,Dance-punk,Space disco
Death metal,Hardcore punk,Groove metal,Blackened death metal,Melodic death metal
Dancehall,Reggae,Grime music,Oldschool jungle,Ragga
Country music,Blues,Roots rock,Música sertaneja,Bluegrass music
Contemporary folk music,Folk music,Skiffle,Folk metal,Bluegrass music
Contemporary Christian music,Pop music,Contemporary worship music,CEDM,Christian rock
Breakbeat,Post-disco,Dubstep,Breakstep,Nu-funk
Brazilian rock,Blues,Tropicália,Samba rock,Brazilian thrash metal
Boogie,Synthpop,Funktronica,House music,Electro
Blues,Work song,Jazz,Rhythm and blues,Boogie-woogie
Ambient music,Drone music,Trance music,Dark ambient,Dark ambient
Alternative rock,Hardcore punk,Alternative country,Nu metal,Grunge
2-step garage,Contemporary R&B,Grime music,Hardstep,Dubstep
