col0,col1,col2,col3
W. Inman,Right,1987-2-6,Right
W. Saupold,Right,1990-1-16,Right
W. Wei,Right,1978-12-25,Right
W. Ibarra,Both,1987-11-1,Right
W. Gaynor,Right,1988-4-18,Right
V. Sánchez,Right,1995-1-30,Right
V. Moreno,Right,1979-6-10,Right
V. Gutiérrez,Right,1995-0-0,Right
V. Conde,Right,1993-10-13,Right
V. Mateo,Right,1989-7-29,Right
V. Walker,Left,1929-3-7,Right
V. Himsl,Right,1917-4-2,Right
V. Spanos,Right,1981-2-25,Right
V. Sánchez,Right,1995-1-30,Right
V. Moreno,Right,1979-6-10,Right
T. Lin,Left,1994-2-15,Right
T. Webb,left,1990-7-20,Left
T. Naquin,Left,1991-4-24,Right
T. LaTorre,Left,1983-4-22,Right
T. Herron,Right,1986-8-5,Right
T. Heineman,Switch,1991-6-19,Right
T. Glasnow,Left,1993-8-23,Right
T. Anderson,Left,1989-12-30,Left
T. Hensley,Switch,1993-7-30,Right
T. Griffin,Switch,1967-9-5,Right
T. Haley,Right,1990-6-21,Right
T. Ball,Left,1994-6-27,Left
T. Story,Right,1992-11-15,Right
T. Reckling,Left,1989-5-22,Left
T. Jewett,Right,1964-3-3,Right
T. Ott,Left,1995-6-29,Left
T. Ai,Right,1935-6-6,Right
Toronto Blue Jays minor league players,Right,1988-02-02,Right
T. Renda,Right,1991-1-24,Right
T. Granadillo,right,1984-8-10,right
T. Beasley,Right,1966-12-5,Right
T. Mendonca,Left,1988-4-12,Right
T. Joseph,Right,1991-7-16,Right
T. Stuifbergen,Right,1988-9-26,Right
T. Kotchman,Right,1954-8-14,Right
T. Eshelman,Right,1994-6-20,Right
T. Nash,Switch,1982-2-16,Right
T. Smeets,Right,1980-6-3,Right
T. Wheeler,Right,1988-1-21,Right
T. Smith,Left,1986-6-14,Left
T. Leiper,Left,1966-7-19,Right
T. Lahey,Right,1982-2-7,Right
T. Kennelly,Right,1986-12-5,Right
T. Crabbe,Right,1988-2-20,Right
T. Berry,Left,1991-3-18,Left
T. Anderson,Right,1993-6-23,Right
T. d. Silva,Right,1985-3-28,Right
T. Williams,Switch,1991-7-21,Right
T. Lindsey,Left,1991-12-2,Right
T. Guerrieri,Right,1992-12-1,Right
T. Dugas,Left,1989-12-15,Left
T. Clarke,Right,1993-5-13,Right
Tampa Bay Rays minor league players,Left,1988-02-24,Right
S. Lingfeng,Left,1978-8-14,Left
S. Greer,Right,1920-0-0,Unknown
S. Turner,Right,1991-12-27,Right
S. Trahan,Left,1994-4-25,Right
S. Kent,Left,1989-5-8,Left
S. Soliz,Right,1971-1-27,Right
S. Smith,Right,1952-7-21,Right
S. Engel,Right,1961-12-31,Left
S. Collins,Right,1918-1-1,Unknown
S. Allie,Right,1991-3-13,Right
S. Kohlscheen,Right,1988-9-20,Right
S. Kahn,Left,1983-12-14,Right
S. Head,Left,1984-1-13,Left
S. Desimoni,Left,1988-4-12,Left
S. Welch,Left,1988-8-12,Right
S. Wasiak,Right,1920-4-8,Right
S. Boroski,Right,1963-7-14,Right
St. Louis Cardinals minor league players,Left,1990-04-05,Left
S. Stromsmoe,Switch,1984-3-30,Right
S. Robinson,Right,1921-9-8,Right
S. Bowman,Right,1984-12-9,Right
S. Blair,Right,1989-3-3,Right
S. Pérez,Right,1984-12-5,Right
S. Contreras,Right,1980-4-30,Right
S. Boucher,Left,1981-10-19,Right
Seattle Mariners minor league players,Left,1983-3-25,Left
S. Wingo,Left,1989-3-25,Right
S. McGregor,Right,1986-12-19,Right
S. Emerson,Both,1971-1-1,Left
S. Bryant,Right,1967-10-31,Right
S. Beerer,Right,1982-7-4,Right
S. Manzanillo,Right,1988-12-20,Right
