col0,col1,col2,col3
Crown,S. Wada,Y. Higuri,6
Crest of the Stars,H. Morioka,T. Ono,3
Clear,Moonstone,Yukiwo,2
Clannad,Y. Suzumoto,Y. Sumiyoshi,1
Cinnamoroll,Y. Tsukirino,Y. Tsukirino,5
Chihayafuru,Y. Suetsugu,Y. Suetsugu,4
Chibi Vampire,Y. Kagesaki,Y. Kagesaki,9
Candy Candy,K. Mizuki,Y. Igarashi,9
Bokurano: Ours,M. Kitoh,M. Kitoh,5
Blue Spring Ride,I. Sakisaka,I. Sakisaka,5
Blade of the Phantom Master,Y. In-wan,Y. Kyung-il,17
Blade of the Immortal,H. Samura,H. Samura,30
Black Lagoon,G. Urobuchi,R. Hiroe,10
Black God,L. Dall-young,P. Sung-woo,19
Billy Bat,N. Urasawa,N. Urasawa,20
Beet the Vandel Buster,R. Sanjo,K. Inada,12
Banner of the Stars,H. Morioka,T. Ono,5
Bakuman,T. Ohba,T. Obata,20
Baby Birth,S. Tomita,H. Mikimoto,2
B't X,M. Kurumada,M. Kurumada,2
Aura: Koga Maryuin's Last War,R. Tanaka,K. Hoshino,4
Ashita no Joe,I. Kajiwara,T. Chiba,20
Ao no Fūin,C. Shinohara,C. Shinohara,3
Angel Beats!,J. Maeda,GotoP,1
Andromeda Stories,R. Mitsuse,K. Takemiya,3
Allison,K. Sigsawa,K. Kuroboshi,2
All You Need Is Kill,H. Sakurazaka,T. Obata,2
Akaki Chi no Eleven,I. Kajiwara,M. Sonoda,21
Air,Key,Y. Katsura,2
Ah My Buddha,T. Sogabe,T. Sogabe,6
Accel World,R. Kawahara,A. Sasakura,3
A Dark Rabbit Has Seven Lives,T. Kagami,Y. Kamiya,1
A Certain Magical Index,K. Kamachi,K. Haimura,1
8 Man,K. Hirai,J. Kuwata,5
