col0,col1,col2,col3,col4,col5
U. v. Troil,S. Troilius,"Sala Municipality, Sweden",University of Uppsala,1803-07-27,1746-02-24
N. Đ. Thục,N. Đ. Khả,"Carthage, Missouri",Pontifical Gregorian University,1984-12-13,1897-10-06
M. Lefebvre,R. Lefebvre,Martigny,Rome,1991-03-25,1905-11-29
J. B. Oxenstierna,B. J. Oxenstierna,Åland Islands,Leipzig University,1467-12-15,1417-1-1
J. Steuchius,M. Steuchius,Uppsala,Uppsala University,1742-06-21,1676-01-03
J. Benzelius,Erik Benzelius the elder,Stockholm,Uppsala University,1747-06-19,1683-02-25
J. B. Oxenstierna,B. J. Oxenstierna,Åland Islands,Leipzig University,1467-12-15,1417-1-1
H. Percy,"Algernon Percy, 1st Earl of Beverley",Rose Castle,"St John's College, Cambridge",1856-02-05,1784-01-29
H. C. Potter,A. Potter,Manhattan,Virginia Theological Seminary,1908-07-21,1835-05-25
H. Benzelius,Erik Benzelius the elder,Uppsala,Uppsala University,1758-05-20,1689-08-07
G. Murray,L. G. Murray,Chester Square,"Christ Church, Oxford",1860-02-16,1784-01-12
"Frederick Hervey, 4th Earl of Bristol","John Hervey, 2nd Baron Hervey",Albano Laziale,Cambridge University,1803-07-08,1730-08-01
D. Sheppard,E. Sheppard,City of London,"Trinity Hall, Cambridge",1937-10-31,1880-09-02
C. Manners-Sutton,L. G. Manners-Sutton,London,"Emmanuel College, Cambridge",1828-07-21,1755-02-17
B. Hoadly,S. Hoadly,"Chelsea, London","St Catharine's College, Cambridge",1761-04-17,1676-11-14
A. B. Masilamani,Sri,Hyderabad,Hyderabad,1990-04-05,1914-11-30
