col0,col1,col2,col3
I. A. Sayfour,Iraq,Arbil,1955-1-1
G. Galan,Italians,Padua,1956-09-10
G. M. Spacca,Italy,Ancona,1953-02-16
F. Falcucci,Italians,Rome,1926-03-22
E. Montino,Italians,Rome,1948-4-6
C. Previti,Italians,Italy,1934-10-21
C. Marini,Italians,Perugia,1967-09-25
B. Mulroney,Canadians,"Palm Beach, Florida",1939-03-20
A. Bassolino,Italians,Italy,1947-03-20
A. Papa,Italians,Campania,1970-01-02
