col0,col1,col2,col3,col4
Z. Gashi,Kosovo,Prishtina,1957-08-14,Zyrafete Gashi
W. Kan,Nijmegen,Scheveningen,1911-01-15,Willem Cornelis Kan
V. Chistiakov,Kharkiv,Saint Petersburg,1943-06-30,Viktor Ivanovich Chistyakov
T. Leutwiler,Salt Lake City,"St. Louis, Missouri",1948-09-07,Tom Leutwiler
T. Davis,"Hudson, New York","St. Paul, Minnesota",1952-08-13,Thomas James Davis
Tado,Philippines,Philippines,1974-03-24,Arvin Impuesto Jimenez
S. Sales,New York City,"Franklinton, North Carolina",1926-01-08,Milton Supman
S. Stephenson,"Los Angeles, California","Omaha, Nebraska",1940-04-18,Charles Frederick Stephenson
S. James,England,Johannesburg,1913-05-08,Solomon Joel Cohen
Shaolin,Paraíba,Paraíba,1971-05-08,Francisco Jozenilton Veloso
S. Petrillo,"Bronxville, New York","The Bronx, New York",1934-10-24,Sam Patrello
S. Kinison,"Needles, California","Yakima, Washington",1953-12-08,Samuel Burl Kinison
R. Williams,"Paradise Cay, California",Chicago,1951-07-21,Robin McLaurin Williams
R. Harris,Chicago,Chicago,1953-08-30,Robin Hughes Harris
R. Schimmel,"Scottsdale, Arizona",New York City,1950-01-16,Robert George Schimmel
R. Pryor,California,"Peoria, Illinois",1940-12-01,Richard Franklin Lennox Thomas Pryor
R. Jeni,California,Brooklyn,1957-04-14,Richard John Colangelo
R. Foxx,California,Missouri,1922-12-09,John Elroy Sanford
R. Skelton,"Rancho Mirage, California",Vincennes,1913-07-18,Richard Bernard Skelton
P. Fernández,"San Juan, Puerto Rico",Cuba,1927-09-02,Leopoldo Fernández II
P. Silvers,California,Brooklyn,1911-05-11,Philip Silver
P. Lynde,"Beverly Hills, California","Mount Vernon, Ohio",1926-06-13,Paul Edward Lynde
P. O'Neal,United States,New York City,1969-12-07,Patrice Malcolm Oneal
N. Sanlley,Dominican Republic,Dominican Republic,1952-09-18,Nuryn Sanlley Pou
N. Wisdom,Isle of Man,London,1915-02-04,Norman Joseph Wisdom
N. Russell,New York,Atlanta,1918-09-15,Julius Russell
N. Marshall,Buenos Aires,Buenos Aires,1903-06-01,Marina Esther Traveso
M. Nori,Dutch East Indies,Dutch East Indies,1930-08-10,Nuri Sarinuri
M. Mabley,"White Plains, New York","Brevard, North Carolina",1894-03-19,Loretta Mary Aiken
M. Reid,Province of Málaga,London,1940-01-19,Michael Reid
M. Smith,London,London,1952-12-03,Melvin Kenneth Smith
M. Miller,Brighton,Brighton,1894-11-21,Thomas Henry Sargent
M. E. Velasco,Mexico,Mexico,1940-12-17,María Elena Velasco-Fragoso
M. A. Campos,Mexico,Mexico,1919-07-09,Marco Antonio Campos Contreras
M. E. Velasco,Mexico,Mexico,1940-12-17,María Elena Velasco-Fragoso
M. Taylor,England,Cheshire,1978-09-08,Andrew Iain Mackenzie Taylor
L. Raúl,Puerto Rico,Puerto Rico,1962-03-06,Luis Raúl Martínez Rodríguez
L. Weinstock,California,Pennsylvania,1943-0-0,Marlene Weinstock
L. Barr,"Burbank, California",West Virginia,1903-09-27,Leonard Barra
L. Bruce,Hollywood,"Mineola, New York",1925-10-13,Leonard Alfred Schneider
L. Eriksson,Uppsala,Piteå,1949-04-01,Lars Gunnar Eriksson
L. Grayson,Warwickshire,Oxfordshire,1923-08-31,William Sulley White
L. Page,California,Cleveland,1920-10-19,Alberta Peal
K. Everett,London,Lancashire,1944-12-25,Maurice James Christopher Cole
K. Williams,London,London,1926-02-22,Kenneth Charles Williams
K. Goodwin,Rhos-on-Sea,Lancashire,1933-04-07,William Kenneth Unwin
J. Winters,"Montecito, California","Dayton, Ohio",1925-11-11,Jonathan Harshman Winters III
J. Carson,California,"Corning, Iowa",1925-10-23,John William Carson
J. Belushi,Chateau Marmont Hotel,Chicago,1949-01-24,John Adam Belushi
J. Clower,"Jackson, Mississippi","Liberty, Mississippi",1926-09-28,Howard Gerald Clower
J. Paar,"Greenwich, Connecticut","Canton, Ohio",1918-05-01,Jack Harold Paar
I. Ilyinsky,Moscow,Moscow,1901-07-24,Igor Vladimirovich Ilyinsky
H. Morgan,New York City,New York City,1915-03-31,"Henry Lerner Van Ost, Jr."
Henfil,Rio de Janeiro,Minas Gerais,1944-02-05,Henrique de Souza Filho
H. Korman,California,Chicago,1927-02-15,Harvey Herschel Korman
H. Wittels,California,Oklahoma,1984-04-20,Harris Lee Wittels
H. Ritz,California,New Jersey,1907-05-22,Harold Joachim
H. Lloyd,California,United States,1893-04-20,Harold Clayton Lloyd
G. Marx,California,New York,1890-10-02,Julius Henry Marx
G. Giraldo,New Jersey,New York,1965-12-10,Gregory C. Giraldo
G. Nutt,"Vinemont, Alabama","Amarillo, Texas",1934-09-02,Grady Lee Nutt
G. Roper,Cheshire,Lancashire,1934-05-15,George Francis Furnival
G. Henaine,Mexico,Mexico,1926-01-06,Gaspar Henaine Pérez
G. Shandling,California,Chicago,1949-11-29,Garry Emmanuel Shandling
F. Travalena,"Encino, California",New York,1942-10-06,Frederick Albert Travalena III
F. Suero,Dominican Republic,Dominican Republic,1960-06-04,Francisco de la Cruz Suero
F. Potenza,"Los Angeles, California","Brooklyn, New York",1933-11-11,Francis Potenza
F. Carson,Blackpool,"Belfast, Northern Ireland",1926-11-06,Hugh Francis Carson
F. Wilson,"Malibu, California","Jersey City, New Jersey",1933-12-08,"Clerow Wilson, Jr."
F. Holzmann,Chemnitz,Czechoslovakia,1921-07-08,Felix Holzmann
E. Kovacs,California,"Trenton, New Jersey",1919-01-23,Ernest Edward Kovacs
D. Gee,Merseyside,York,1942-06-24,Gerald Harrison
D. Harron,Ontario,Ontario,1924-09-19,Donald Hugh Harron
Dolphy,Philippines,"Tondo, Manila",1928-07-25,"Rodolfo Vera Quizon, Sr."
D. Martin,"Santa Monica, California",United States,1922-01-30,Thomas Richard Martin
D. Frye,"Las Vegas, Nevada","Brooklyn, New York",1933-11-21,David Shapiro
D. Brenner,New York City,Philadelphia,1936-02-04,David Norris Brenner
D. Morris,Blackpool,Middlesbrough,1896-07-05,David Morris
D. Gans,"Henderson, Nevada",California,1956-10-25,Daniel Davies Gans
D. Rowan,"Siesta Key, Florida","Beggs, Oklahoma",1922-07-22,Daniel Hale Rowan
Chicháy,Manila,Insular Government of the Philippine Islands,1918-01-21,Ampario Robles Custodio
C. Callas,Las Vegas,Brooklyn,1924-12-20,Charles Callias
B. Anduk,Dutch East Indies,Dutch East Indies,1968-02-08,Budi Prihatin
Bombolo,Rome,Rome,1931-05-22,Franco Lechner
B. Knoxall,"Sunderland, Tyne and Wear","Sunderland, Tyne and Wear",1933-12-24,Robert McKenna
B. Hicks,"Little Rock, Arkansas","Valdosta, Georgia",1961-12-16,William Melvin Hicks
