col0,col1,col2,col3
Worlds Remixed,Porter Robinson,Worlds,3111
Worlds I Create,Pantheon I,The Wanderer And His Shadow,2850
Worlds Collide,Apocalyptica,Amplified // A Decade of Reinventing the Cello,2901
Worlds Away,Pablo Cruise,A Place in the Sun,2395
Worlds Away,John Norum,Another Destination,3050
Worlds Apart,Vince Gill,High Lonesome Sound,238
Worlds Apart,Subhumans,From the Cradle to the Grave,2563
Worlds Apart,Saga,Silent Knight,2618
Worlds Apart,Jars of Clay,Like a Child,318
Worlds Apart,Horizon,The Sky's the Limit,3501
Worlds Apart,Betty Who,Slow Dancing,0
Worlds Apart,...And You Will Know Us by the Trail of Dead,The Secret of Elena's Tomb,2697
Worlds,Porter Robinson,Spitfire,3469
Worldillia,Porno Graffitti,Kumo o mo Tsukamu Tami,3743
Worldes Blysse,Mediæval Bæbes,Salva Nos,2375
Worldchanger,Jørn Lande,Starfire,2545
Worldbroken,Saccharine Trust,"Surviving You, Always",2505
World on a String,"Henry ""Red"" Allen","Red Allen, Kid Ory & Jack Teagarden at Newport",3658
World on Fire,Slash,Apocalyptic Love,4644
World on Fire,Firewind,Mercenary Man,278
World of Wonders,Bruce Cockburn,Stealing Fire,2610
World of Sleepers,Carbon Based Lifeforms,Hydroponic Garden,4770
World of Sand,Servant,Rockin' Revival,2601
World of Our Own,Westlife,Queen of My Heart,210
World of Our Own,Westlife,Coast to Coast,4595
World of Noise,Everclear,Nervous & Weird,2012
World of Morrissey,Morrissey,Bona Drag,3294
World of Lies,The Berzerker,Dissimulate,3533
World of Joy,Howler,America Give Up,1650
World of Glass,Tristania,Beyond the Veil,3340
World of Fantasy,Capsule,Player,900
World in Your Hands,Culture Beat,Anything,333
World in Perfect Harmony,Kim Wilde,I Can't Say Goodbye,7
World in Our Hands,Taio Cruz,There She Goes,199
World in My Eyes,Depeche Mode,Policy of Truth,266
World in Motion 1,Crack the Sky,Photoflamingo,2414
World in Motion,Jackson Browne,Lives in the Balance,2812
World in Motion,New Order,Run 2,270
World at Your Feet,Embrace,Nature's Law,219
World World World,Asian Kung-Fu Generation,Feedback File,2649
World Won't Miss You,Reverend,Reverend,2680
World Without Tears,Lucinda Williams,Essence,3593
World Without Rules,Paul Haslinger,Future Primitive,3579
World Wild,Jonny Jakobsen,Fiesta,2630
World Wide Suicide,Pearl Jam,Man of the Hour,209
World Wide Rebel Songs,The Nightwatchman,Union Town,2994
World Wide Live,Scorpions,Tokyo Tapes,3600
World Where You Live,Crowded House,Mean to Me,185
World We View,Nine Lashes,Escape,2320
World Warped III Live,SideOneDummy Records,A Compilation of Warped Music II,4433
World War Live: Battle of the Baltic Sea,Sabaton,Coat of Arms,60
World War III,Madina Lake,Attics to Eden,2626
World War III,Mac,Shell Shocked,3237
World Waits,Jeremy Enigk,Return of the Frog Queen,2190
World Turning,Fleetwood Mac,Landslide,265
World Tour E.P.,Echo & the Bunnymen,Don't Let It Get You Down,1042
World Tour & Other Destinations,Tsunami,The Heart's Tremolo,4200
World Statesman,Dizzy Gillespie,Modern Jazz Sextet,2409
World So Cold,Three Days Grace,The Good Life,243
World So Cold,Mudvayne,Not Falling,341
World Sinfonía III – The Grande Passion,Al Di Meola,Winter Nights,3579
World Sinfonia,Al Di Meola,Tirami Su,3778
World Sinfonía III – The Grande Passion,Al Di Meola,Winter Nights,3579
World Shut Your Mouth,Julian Cope,Sunspots,185
World Service,Delirious?,Access:d,3440
World Scum,Soulfly,Rise of the Fallen,320
World Saxophone Quartet: Plays Duke Ellington,World Saxophone Quartet,Live at Brooklyn Academy of Music,4156
World Record,Van der Graaf Generator,Still Life,3181
World Record,Lower Than Atlantis,Far Q,2228
World Radio,Leo Sayer,Living in a Fantasy,2486
World Quest/Pokopon Pekōrya,News,Chankapāna,212
World Peace Is None of Your Business,Morrissey,Satellite of Love,261
World Peace Is None of Your Business,Morrissey,Years of Refusal,3274
World Peace Hope et al.,The Dead C,The Operation of the Sonne,3832
World Party,Goodie Mob,Still Standing,3299
World Painted Blood,Slayer,Christ Illusion,2391
World Mix,Deep Forest,Deep Forest,4593
World Misanthropy,Dimmu Borgir,Alive in Torment,2031
World Love,Lisa Lougheed,Evergreen Nights,2933
World Long Gone,Scars on Broadway,They Say,196
World Jazz,Lara & Reyes,Navidad,2948
World History,Mad at the World,The Dreamland Café,3036
World Gone Wrong,Bob Dylan,The 30th Anniversary Concert Celebration,2631
World Gone Mad,Suicidal Tendencies,コレクション,3380
World Gone Crazy,The Screaming Jets,The Screaming Jets,2936
World Gone Crazy,The Doobie Brothers,The Very Best Of,3321
World Goes Round,Ross Mintzer,Victory,314
World Go Round,Busta Rhymes,Respect My Conglomerate,230
World Funeral,Marduk,Blackcrowned,2894
World Filled with Love,Craig David,Spanish,224
World Famous Classics,The Beatnuts,A Musical Massacre,3129
World Falling Down,Peter Cetera,One More Story,2698
World Expansion,Steve Coleman,On the Edge of Tomorrow,3081
World End no Niwa,Yui Horie,Himitsu,3139
World Domination,Naildown,Eyes Wide Open,2672
World Dirtnap,Orcustus,Demo 2002,596
World Diary,Forrest Fang,The Wolf at the Ruins,4216
World Demise,Obituary,The End Complete,3057
World Container,The Tragically Hip,Yer Favourites,2547
World Coming Down,Type O Negative,October Rust,4438
World Class Listening Problem,Don Caballero,American Don,2695
World Changed Forever,Dreamtale,Epsilon,3502
World,D Ream,D-Ream On Volume 1,2933
World,New Order,Ruined in a Day,218
World,James Brown,Lowdown Popcorn,178
World,Five for Fighting,The Riddle,232
World,Bee Gees,Massachusetts,200
"World, Hold On",Bob Sinclar,Love Generation,198
World's on Fire,The Prodigy,Invaders Must Die,3933
World's Greatest Lover,The Bellamy Brothers,Forget About Me,263
World's Fair,Julian Lage,Room,2276
"World's End, Girl's Rondo",Kanon Wakeshima,Killy Killy Joker,268
Workshop of the Telescopes,Blue Öyster Cult,Bad Channels,8936
Works of Carnage,Krisiun,Ageless Venomous,2126
Works in Progress,Tim Buckley,Once I Was,3985
Works in Progress,Kansas,Sail On: The 30th Anniversary Collection,4095
Works Volume 2,"Emerson, Lake & Palmer",Works Volume 1,2634
Works Volume 1,"Emerson, Lake & Palmer",Welcome Back My Friends to the Show That Never Ends... Ladies and Gentlemen,5243
Works,Pink Floyd,The Final Cut,2530
Workout Holiday LP,White Denim,Workout Holiday,2248
Workout Holiday,White Denim,Let's Talk About It EP,1304
Workout,Hank Mobley,Roll Call,3060
Workout,RuPaul,"Looking Good, Feeling Gorgeous",236
Workingman's Dead,Grateful Dead,Live/Dead,2160
Working with Fire and Steel – Possible Pop Songs Volume Two,China Crisis,"Difficult Shapes & Passive Rhythms, Some People Think It's Fun to Entertain",2423
Working on a Dream,Bruce Springsteen,Girls in Their Summer Clothes,211
Working on a Dream,Bruce Springsteen,Greatest Hits,3080
Working in the Backroom,Howard Jones,The Best of Howard Jones,3052
Working in Tennessee,Merle Haggard,I Am What I Am,2106
Working Woman,Rob Crosby,Still Burnin' for You,184
Working On My Farewell,John Craigie,The Apocalypse is Over,2722
Working Men,Rush,Snakes & Arrows Live,3838
Working Man,John Conlee,Years After You,233
Working Man's Dick,Supreme Dicks,The Unexamined Life,4026
Working Girl,Little Boots,Nocturnes,2777
Working Girl,Carly Simon,Greatest Hits Live,2229
Working Day and Night,Michael Jackson,Rock with You,314
Working Classical,Paul McCartney,Run Devil Run,3695
Working Class Hero: The Definitive Lennon,John Lennon,"Peace, Love & Truth",9094
Working Class Hero,John Lennon,U2,228
Workin,Sean Combs,Finna Get Loose,184
Workin' with the Miles Davis Quintet,Miles Davis,Miles Davis and the Modern Jazz Giants,2519
Workin' on a Groovy Thing,Bola Sete,Bola Sete at the Monterey Jazz Festival,1798
Workin' on It,Adam Gregory,The Way I'm Made,3131
