col0,col1,col2,col3
"Z Square Mall, Kanpur",H. Contractor,139354,"The Mall, Kanpur"
Worcester Center Galleria,Welton Becket and Associates,92903,100 Front Street
Willow Grove Park Mall,RTKL,111801,2500Moreland Road
Westfield Century City,W. Becket,81583,"10250 Santa Monica Blvd., Los Angeles, CA 90067"
Trinity Leeds,C. Taylor,92903,LS1 5ER
Town Center at Boca Raton,R. A. Inc.,139354,6000Glades Road
The Shops at Prudential Center,T. H. Company,46536,800 Boylston Street
The Shops at Crystals,D. Libeskind,46451,3720 S.Las Vegas Boulevard
The Grove at Farmers Market,E. Manfredi,55741,"189 The Grove Drive  Los Angeles, CA 90036"
Tel-Twelve Mall,C. N. Agree,48626,Telegraph Road
Sun Plaza,C. Taylor,81000,"Calea Văcărești no. 391, Sector 4, Bucharest 040069"
Southdale Center,V. Gruen,120773,6901 France Avenue South
South Coast Plaza,V. Gruen,260128,"3333 Bristol Street, Costa Mesa, CA 92626"
Rocca al Mare Shopping Centre,M. Truu,70000,Paldiski mnt 102
Rego Center,Ehrenkrantz Eckstut & Kuhn Architects,25083,"96-05Queens Boulevard, Queens, NY 11374"
"Raghuleela Mall, Vashi",R. Kabul,34838,"Vashi,Navi Mumbai,Maharashtra"
Queens Place Mall,"Skidmore, Owings & Merrill",40877,88-01 Queens Boulevard
Phoenix Market City,Benoy,92903,"142, Velachery main road,Velachery"
North East Mall,R. Associates,162487,"1101 Melbourne Rd, Hurst, Texas 76053"
