col0,col1,col2,col3
Worthy Hotel,1895,1983-02-24,83000779
Worthington Valley Historic District,1795,1976-12-12,76000977
Worthington Presbyterian Church,1830,1980-04-17,80003023
Worthington Hall,1904,1978-04-14,78002433
Worthen Bank Building,1928,1986-11-13,86003125
Wortham Gymnasium,1935,1990-04-19,90000667
Worth County Courthouse,1893,1981-07-02,81000705
Worth's Chapel,1902,2005-09-28,5001097
Wortendyke Barn,1770,1973-05-07,73001081
Wortendyke-Demund House,1797,1983-01-10,83001590
Wort Hotel,1941,1999-12-09,99001507
Worsley-Burnette House,1830,1990-05-24,90000791
Worsham High School,1927,2010-06-24,10000384
Worrell-Ettlinger House,1912,2004-10-12,4001152
Worrall Covered Bridge,1870,1973-07-16,73000209
Wormsloe Historic Site,1739,1973-04-26,73000615
Wormeley Cottage,1750,1980-05-23,80004201
World War Memorial Library,1897,1995-03-31,95000361
World War Memorial Building,1935,1995-05-26,95000637
World War Memorial,1928,1993-04-09,93000227
World War I Memorial,1921,1984-02-17,84001106
World War I Memorial,1927,2001-10-19,1000466
World War I Memorial,1922,1981-08-28,81000388
World War II Facilities at Midway,1941,1987-05-28,87001302
World's Largest Round Barn,1916,1997-03-21,97000269
Worland Ranch,1900,1992-03-05,92000123
Worland House,1917,1986-02-27,86000310
Works Progress Administration works at Arrow Rock State Historic Site,1937,1985-03-04,85000516
Workman and Temple Family Homestead Museum,1842,1974-11-20,74000519
Working Boys Home,1896,1986-09-04,86001898
Working Benevolent Temple and Professional Building,1922,1982-07-01,82003865
Worker's House at Lower Laurel Iron Works,1870,1985-09-16,85002381
Worcester Market Building,1914,1980-03-05,80000612
Worcester House,1802,1983-12-22,83004091
Worcester Five Cents Savings Bank,1891,1978-09-13,78000472
Worcester Corset Company Factory,1895,1984-10-04,84000097
Worcester City Hall and Common,1669,1978-03-29,78001405
Wooton Presbyterian Center,1919,1979-05-24,79001019
Woonsocket Rubber Company Mill,1857,1989-05-01,89000334
Woonsocket District Courthouse,1894,1982-11-24,82000014
Woonsocket Civil War Monument,1868,1982-11-24,82000013
Woonsocket City Hall,1856,1974-05-01,74000007
Woolworth Estate,1916,1979-05-17,79001593
Woolwich Town House,1837,1978-02-17,78000199
Woolslair Elementary School,1897,1986-09-30,86002718
Woolsey Ranchhouse Ruins,1863,1977-11-07,77000240
Woolsey Bridge,1925,2000-06-09,637
Woolery Stone Company,1948,2002-12-20,2001563
Woolen Mills Chapel,1887,1982-10-21,82001815
Wooldridge Park,1909,1979-08-01,79003018
Wooldridge Monuments,1892,1980-08-11,80001533
Woolaroc,1925,2008-12-05,8001151
Wool Warehouse,1929,1981-07-23,81000400
Woodworth House,1823,1996-04-09,96000317
Woodwardville Historic District,1872,2003-11-08,3001115
Woodward Road Stone Arch Bridge,1887,2009-03-09,9000134
Woodward Inn,1814,1978-12-18,78002367
Woodward Houses,1745,1979-04-20,79000639
Woodward House,1782,1974-06-19,74002243
"Woodward Heights, Lexington",1818,1977-12-16,77000615
Woodward Hall,1931,2014-05-12,14000206
Woodward Federal Courthouse and Post Office,1921,2007-09-06,7000915
Woodward Avenue Presbyterian Church,1911,1982-08-03,82002916
Woodward & Lothrop Service Warehouse,39,2005-02-15,5000046
Woodville School,1923,2004-02-11,4000042
Woodville Historic District,1816,1982-09-30,"82003122, 93001200, 99000594, 01001127"
Woodville Historic District,1801,1998-08-28,98001112
Woodville,1814,1979-05-10,79000714
Woodville,1819,1979-06-22,79000695
Woodville,1785,1974-02-05,74001733
Woodview,1744,1990-10-25,90001574
Woodvale Historic District,1890,1992-07-24,92000942
Woodsville Opera Building,1890,1980-05-15,80000288
Woodstock Warren Through Truss Bridge,1925,1992-08-18,92000987
Woodstock Opera House,1889,1974-07-17,74002184
Woodstock Hall Tavern,1757,1987-01-29,86003735
Woodstock Academy Classroom Building,1873,1984-02-16,84001176
Woodstock,1743,1973-09-07,73000551
Woodstock,1850,1987-09-21,87001573
Woodstock,1783,1980-11-25,80002844
Woodstock,1851,1989-06-29,89000782
Woodson Farmstead,1895,1998-04-30,98000422
Woodson County Courthouse,1899,1985-10-10,85002951
Woodson's Mill,1825,1992-12-17,92001703
Woodside Methodist Episcopal Church,1889,1996-02-16,96000107
Woodside Cotton Mill Village Historic District,1902,1987-04-30,87000678
Woodside,1858,1973-07-24,73002021
Woodside,1860,1985-09-13,85002119
Woodside,1838,1986-03-06,86000420
Woodside,1798,1973-03-07,73001357
Woodside,1800,2009-08-12,9000616
Woodside,1860,1993-11-16,93000040
Woodside,1861,1982-02-19,82002048
Woodside,1823,1979-11-01,79001134
Woodsboro and Frederick Turnpike Company Tollhouse,1850,1979-09-24,79003276
Woods Mill Farm,1770,2007-08-15,7000812
Woods Landing Dance Hall,1932,1985-12-13,85003210
Woods Hole School,1870,1982-10-21,82000473
Woods Hill,1951,2014-02-05,13001161
Woods End Road Historic District,1938,1988-07-08,88000956
Woods-Meade House,1830,1982-07-08,82004557
Woods-Gerry House,1860,1971-02-12,71000003
Woodrums' Building,1916,1996-04-18,96000439
Woodruff Stake House,1900,2000-12-28,1586
Woodruff House,1780,1989-01-19,88003097
Woodruff House,1850,1978-12-11,78001800
Woodruff County Courthouse,1901,1982-12-22,82000959
Woodruff Cabin Site,1871,1970-02-26,70000671
Woodrow Wilson School,1917,2012-10-24,12000881
Woodrow Wilson Presidential Library,1846,1966-10-15,66000926
Woodrow Wilson Junior High School,1927,1996-03-25,96000285
Woodrow Wilson Junior High School,1927,1986-12-04,86003347
Woodrow Wilson Junior High School,1924,1990-10-25,90001602
Woodrow Wilson House,1915,1966-10-15,66000873
Woodrow Wilson Bridge,1925,1988-11-16,88002485
Woodrow Wilson Boyhood Home,1840,1979-02-28,79000746
Woodrow Store,1927,2001-01-04,1592
Woodrow Methodist Church,1842,1982-10-29,82001265
Woodrow Memorial Presbyterian Church,1885,1979-03-02,79003366
Woodridge,1831,2005-07-06,5000658
Woodmont Terrace Apartments,1938,2003-04-21,3000280
Woodmont,1891,1998-08-05,98001192
Woodmen of the World Lodge-Phoenix Camp No. 32,1915,1996-01-19,95001551
Woodmen of the World Building,1923,1992-02-14,92000012
Woodmen of Union Building,1923,1997-06-27,97000616
Woodman Road Historic District,1830,1983-04-11,83001152
Woodman Institute Museum,1675,1980-07-24,80000317
Woodman Building,1867,1972-02-23,72000075
"Woodley Park, Washington, D.C.",1905,1990-06-15,90000856
Woodledge,1935,1988-07-28,88001161
Woodlawn School Building,1921,1993-02-25,93000086
Woodlawn School,1911,1991-11-29,91001745
Woodlawn Quaker Meetinghouse,1853,2009-05-21,9000335
Woodlawn National Cemetery,1864,2004-10-06,4001117
Woodlawn Museum,1824,1969-12-23,69000026
Woodlawn Historic District,1885,1995-11-07,95001250
Woodlawn Historic District,1880,1979-03-26,79000907
Woodlawn Garden of Memories Cemetery,1931,2004-10-22,4001174
Woodlawn Farm,1790,2008-04-11,8000277
Woodlawn Farm,1840,2007-06-06,7000146
Woodlawn Cemetery,1876,1998-11-19,98001396
Woodlawn Cemetery,1875,2004-04-14,4000305
Woodlawn Cemetery,1864,2004-10-06,4001117
Woodlawn Cemetery,1852,2013-07-23,13000535
Woodlawn Baptist Church and Cemetery,1927,1996-12-02,96001358
Woodlawn Avenue Row,1898,1986-03-19,86000690
Woodlawn,1800,1970-02-26,"70000792, 11000836 (Boundary Increase)"
Woodlawn,1815,2005-05-26,5000478
Woodlawn,1853,1982-10-19,82001863
Woodlawn,1822,1978-11-21,78002584
Woodlawn,1816,1980-07-16,80004187
Woodlawn,1820,2000-03-24,254
