col0,col1,col2,col3
William Sidney Mount House,1725,1966-10-15,66000575
William Shoemaker Junior High School,1925,1986-12-04,86003328
William Shirts House,1825,2004-04-16,4000286
William Sherman Jennings House,1886,1998-10-22,98001252
William Shepherd House,1873,1983-09-30,83001805
William Shelly School and Annex,1897,2001-05-02,1000464
William Shaver House,1947,1998-12-17,98001511
William Sewall House,1865,1982-04-12,82000740
William Seel Building,1912,1980-12-03,80003482
William Seabrook House,1810,1971-05-06,71000758
William Scott Farmstead,1775,1991-01-25,90002194
William Scarbrough House,1818,1970-06-22,70000201
William Sayers Homestead,1796,2015-02-17,15000017
William Sauntry House and Recreation Hall,1881,1982-04-20,82003080
William Saunders House,1843,1983-06-30,83000825
William S. Weir Jr. House,1894,1992-08-18,92001004
William S. Warfield House,1886,1979-03-21,79000814
William S. Townsend House,1811,1984-04-05,84002618
William S. Smith House,1890,1991-07-09,91000891
William S. Simmons Plantation,1840,1980-06-19,80001061
William S. Peirce School,1928,1988-11-18,88002307
William S. Gilliland Log Cabin and Cemetery,1847,1984-10-26,84000407
William S. Gerity House,1880,2010-02-22,10000025
William S. Edsall House,1839,1976-10-08,76000032
William S. Clark House,1888,1988-01-14,87002394
William S. Campbell House,1840,1975-10-29,75001798
William S. Bailey House,1887,2012-08-28,12000553
William Russell House,1803,1977-04-18,77000395
William Russell Allen House,1886,1980-05-07,80000427
William Rowen School,1937,1988-11-18,88002318
William Rossiter House,1813,1979-05-25,79000215
William Rogers House,1845,1986-01-09,86000047
William Robertson House,1844,1982-08-19,82003836
William Ritzman House,1847,2000-10-27,949
William Riley Abbott House,1850,1978-08-11,78001936
William Richardson House,1840,2005-03-15,5000160
William Resor House,1843,1973-03-07,73001466
William Rea Store,1790,1970-09-15,70000457
William Rankin and Elizabeth Wharton Smith House,1846,2007-02-27,7000091
William Rand Tavern,1752,2004-05-27,4000548
William Rainey Harper Log House,1825,1978-04-06,78002154
William R. and Martha Foster Shriver House,1865,1993-03-18,87001689
William R. Wing Farm Complex,1836,1984-10-11,84003281
William R. Kirby Sr. House,1845,1982-07-20,82002836
William R. Jones House,1865,1983-06-30,83000813
William R. Griffith House,1840,1976-10-21,76001631
William R. Gant Farm,1864,2000-09-22,1134
William R. Davie House,1785,1973-06-19,73001348
William R. Cotter Federal Building,1931,1981-10-19,81000623
William R. Belknap School,1916,1982-08-12,82002706
William R. Bateman House,1890,1989-09-20,89001359
William Proctor House,1832,2013-06-25,13000419
William Proctor House,1870,1985-04-18,85001041
William Potter House,1855,1983-01-06,83000104
William Post Mansion,1891,1993-07-13,93000619
William Poole House,1848,1994-07-07,94000687
William Pitt Eastman House,1912,1995-07-07,95000824
William Pinto House,1810,1985-09-12,85002316
William Pinckney Reinhardt House,1845,1990-07-19,90001111
William Phaup House,1817,2002-03-13,2000182
William Peters House,1749,1971-05-27,71000696
William Peter Webb House,1840,1982-04-02,82002032
William Perrin Nicolson House,1891,1977-03-25,77000432
William Perrin House,1850,1982-06-10,82004799
William Perkins House,1850,1982-04-02,82002026
William Pepperrell House,1683,1973-08-14,73000159
William Penn Snyder House,1911,1976-05-03,76001599
William Penn Landing Site,1882,1971-03-11,71000703
William Penn High School for Girls,1908,1986-12-01,86003316
William Penn High School,1910,1978-11-16,78001959
William Peabody House,1740,1979-11-30,79000200
William Payne House,1905,2012-06-20,12000343
William Parker Straw House,1923,1987-12-08,87002068
William Parker House,1796,1984-07-19,84002791
William Parker Caldwell House,1860,1979-03-09,79002485
William Park House,1913,2007-03-07,7000106
William Palmer Residence,1952,1999-03-29,99000340
William Painter Farm,1808,1971-07-27,71000701
William P. and Rosa Lee Martin Farm,1922,2011-06-15,11000356
William P. Warnock House,1910,1984-11-15,84000486
William P. Stroman House,1926,1996-08-01,96000836
William P. Smith House,1914,2004-05-19,4000471
William P. Mason House,1860,1990-08-08,90000121
William P. Heryford House,1911,1980-05-22,80003331
William P. Hepburn House,1867,1973-06-04,73000736
William Orr House,1875,1984-03-22,84001063
William Ogilvie House,1800,1988-04-14,88000323
William Ogburn House,1865,1987-09-29,87001660
William Oakland Round Barn,1910,1986-06-30,86001434
William O. Munsell House,1902,1989-03-08,89000080
William O. Douglas Federal Building,1912,1979-11-27,79002568
William Norcross House,1785,1984-03-29,84002450
William Nichols Cobblestone Farmhouse,1844,1992-05-11,92000437
William Nicholas Straub House,1900,1985-04-18,85000834
William Nelson Camp Jr. House,1926,1998-12-17,98001530
William N. Violett House,1854,1984-09-20,84001026
William N. Thompson House,1920,1982-06-01,82000070
William Murray House,1688,1990-03-09,90000257
William Murphy House,1886,1985-10-17,85003303
William Mowry House,1802,1983-02-10,83000001
William Morgan Farm,1809,1986-11-13,86003099
William Montgomery House,1803,2000-05-18,519
William Monroe Trotter House,1890,1976-05-11,76002003
William Moats Farm,1844,1987-02-12,86003724
William Mitchell House,1832,1972-12-04,72000965
William Minott House,1805,1979-07-10,79000142
William Miller Chapel and Ascension Rock,1848,1975-07-17,75001233
William Miles Tiernan House,1901,1993-03-25,93000223
William Merritt Chase Homestead,1892,1983-06-16,83001808
William McKinstry Jr. House,1815,1989-06-22,89000528
William McKinstry Farmhouse,1780,1989-06-22,89000571
William McKenney House,1890,1990-12-06,90001830
William McFarland House,1743,1980-03-05,80000517
William McEchron House,1891,1984-09-29,84003371
William McDiarmid House,1907,1983-07-07,83001863
William McCallum House,1885,2007-01-25,6001293
William Martin House,1850,1988-04-13,88000334
William Martin Armistead House,1941,2009-03-30,9000165
William Marston House,1780,1987-03-13,87000234
William Marshall Anderson House,1865,1979-11-29,79001925
William Mann School,1923,1988-11-18,88002297
William Manatt House,1869,1997-10-30,97001288
