col0,col1,col2,col3,col4
J. Staley,San Francisco 49ers,San Francisco 49ers,1984-08-30,28
J. Schobert,Cleveland Browns,Cleveland Browns,1993-11-06,99
J. Looney,Dallas Cowboys,Dallas Cowboys,1990-08-31,117
J. Haeg,Indianapolis Colts,Indianapolis Colts,1993-03-11,155
J. Dahl,Detroit Lions,Detroit Lions,1993-04-09,151
J. Cardona,New England Patriots,New England Patriots,1992-04-16,166
J. Berger,Carolina Panthers,Minnesota Vikings,1982-05-25,207
J. Barksdale,Oakland Raiders,San Diego Chargers,1989-01-04,92
J. Williams,Atlanta Falcons,Free agent,1984-03-08,37
J. Staten,Chicago Bears,Chicago Bears,1991-05-04,172
J. Smith,Baltimore Ravens,Baltimore Ravens,1988-7-26,27
J. Landes,Detroit Lions,Detroit Lions,1992-08-13,210
J. Graham,New Orleans Saints,Seattle Seahawks,1986-11-24,95
J. Ward,San Francisco 49ers,San Francisco 49ers,1991-07-18,30
J. Ward,Oakland Raiders,Oakland Raiders,1994-05-11,44
J. James,Pittsburgh Steelers,Pittsburgh Steelers,1994-06-04,160
J. McMillian,Green Bay Packers,Free agent,1989-04-02,133
J. Pendleton,Indianapolis Colts,Free agent,1983-11-07,228
J. McKinnon,Minnesota Vikings,Minnesota Vikings,1992-05-03,96
J. Zuttah,Baltimore Ravens,Baltimore Ravens,1986-06-01,83
J. Lane,Seattle Seahawks,Seattle Seahawks,1990-7-14,172
J. Hill,Cincinnati Bengals,Cincinnati Bengals,1992-10-20,55
J. Poutasi,Jacksonville Jaguars,Jacksonville Jaguars,1994-08-07,66
J. George,Dallas Cowboys,Dallas Cowboys,1992-1-24,154
J. Attaochu,San Diego Chargers,San Diego Chargers,1993-01-17,50
J. Adams,New York Giants,New York Giants,1992-12-31,184
J. Worthy,Buffalo Bills,Buffalo Bills,1990-04-26,51
J. Hawkins,Pittsburgh Steelers,Pittsburgh Steelers,1993-10-16,123
J. Jenkins,Miami Dolphins,Miami Dolphins,1992-03-13,104
J. Ulbrich,San Francisco 49ers,Atlanta Falcons,1977-02-17,86
J. Locke,Minnesota Vikings,Minnesota Vikings,1989-09-27,155
J. Janis,Green Bay Packers,Green Bay Packers,1991-6-9,236
J. Heuerman,Denver Broncos,Denver Broncos,1992-11-24,92
J. Allen,Houston Texans,Houston Texans,1990-01-08,44
J. Smith,Dallas Cowboys,Dallas Cowboys,1994-6-14,34
J. Watkins,Buffalo Bills,Philadelphia Eagles,1992-11-27,101
J. Howard,Kansas City Chiefs,Kansas City Chiefs,1988-12-20,114
J. Prosch,Houston Texans,Houston Texans,1992-08-21,211
J. Alford,New York Giants,Free agent,1983-05-28,81
J. Ajayi,Miami Dolphins,Miami Dolphins,1993-06-15,149
J. Allen,Baltimore Ravens,Baltimore Ravens,1991-08-27,125
J. Hargrave,Pittsburgh Steelers,Pittsburgh Steelers,1993-02-07,89
J. Brown,San Diego Chargers,San Diego Chargers,1994-02-18,175
J. Witten,Dallas Cowboys,Dallas Cowboys,1982-05-06,69
J. Williams,Carolina Panthers,Free agent,1986-04-23,69
J. Verrett,San Diego Chargers,San Diego Chargers,1991-06-18,25
J. Spriggs,Green Bay Packers,Green Bay Packers,1994-05-17,48
J. Shirley,Carolina Panthers,Free agent,1985-09-30,145
J. Landry,Miami Dolphins,Miami Dolphins,1992-11-28,63
J. Jones,Pittsburgh Steelers,Pittsburgh Steelers,1989-10-13,17
J. Reed,Seattle Seahawks,Seattle Seahawks,1992-12-16,49
J. Wright,Minnesota Vikings,Minnesota Vikings,1989-11-25,118
J. Veldheer,Arizona Cardinals,Arizona Cardinals,1987-06-14,69
J. Smith,Atlanta Falcons,Dallas Cowboys,1990-3-20,241
J. Crick,Denver Broncos,Denver Broncos,1989-08-21,126
J. Cook,Green Bay Packers,Green Bay Packers,1987-04-07,89
J. Abbrederis,Green Bay Packers,Green Bay Packers,1990-12-17,176
J. Tartt,San Francisco 49ers,San Francisco 49ers,1992-02-18,46
J. Jenkins,New York Giants,New York Giants,1988-10-29,39
J. Brown,Los Angeles Rams,Los Angeles Rams,1993-03-15,72
J. Crowder,Washington Redskins,Washington Redskins,1993-06-17,105
J. Douglas,Miami Dolphins,New England Patriots,1992-02-28,114
J. Wright,Cincinnati Bengals,Cincinnati Bengals,1991-12-31,239
J. White,New England Patriots,New England Patriots,1992-02-03,130
J. Starks,Green Bay Packers,Green Bay Packers,1986-02-25,193
J. Sample,Jacksonville Jaguars,Jacksonville Jaguars,1992-06-23,104
J. O'Shaughnessy,Kansas City Chiefs,Kansas City Chiefs,1992-01-14,173
J. Jones,Green Bay Packers,Free agent,1984-03-31,78
J. Hanna,Dallas Cowboys,Dallas Cowboys,1989-07-14,186
J. Winston,Tampa Bay Buccaneers,Tampa Bay Buccaneers,1994-12-30,1
J. Taylor,Cleveland Browns,Cleveland Browns,1990-09-29,54
J. Fowler,Tennessee Titans,Tennessee Titans,1990-07-26,108
J. Ramsey,Jacksonville Jaguars,Jacksonville Jaguars,1994-10-24,5
J. Mills,Philadelphia Eagles,Philadelphia Eagles,1994-04-06,233
J. Collins,Atlanta Falcons,Atlanta Falcons,1993-03-20,42
J. Grant,Miami Dolphins,Miami Dolphins,1992-10-30,186
J. Ryan,Green Bay Packers,Green Bay Packers,1992-02-27,219
J. Matthews,Atlanta Falcons,Atlanta Falcons,1992-02-11,6
J. Fisher,Cincinnati Bengals,Cincinnati Bengals,1993-04-27,53
J. Thomas,Indianapolis Colts,Free agent,1986-08-22,236
J. Strong,Houston Texans,Houston Texans,1994-01-25,70
J. Clowney,Houston Texans,Houston Texans,1993-02-14,1
J. Tamme,Atlanta Falcons,Atlanta Falcons,1985-03-15,127
J. Bender,Carolina Panthers,York Capitals,1985-04-25,177
