col0,col1,col2,col3,col4,col5,col6
W. Foulke,Sheffield,Chelsea F.C.,United Kingdom of Great Britain and Ireland,1874-04-12,1916-05-01,1874-04-12
T. Revill,England,Stoke City F.C.,England,1892-5-9,1979-3-29,1892-5-9
S. McMillan,"Ashbourne, Derbyshire",Bradford City A.F.C.,Leicester,1896-09-17,1963-09-27,1896-09-17
N. Cantwell,Peterborough,Cork Athletic F.C.,Republic of Ireland,1932-02-28,2005-09-08,1932-02-28
K. Hough,Australia,Australia national football team,Australia,1928-10-24,2009-09-20,1928-10-24
G. Brann,England national football team,England national football team,Eastbourne,1865-04-23,1954-06-14,1865-04-23
F. Gardner,Coventry,Birmingham City F.C.,Coventry,1922-06-04,1979-01-12,1922-06-04
F. Guttridge,Nottingham,Nottingham Forest F.C.,Nottingham,1866-04-12,1918-06-13,1866-04-12
E. Burgin,Sheffield,Sheffield United F.C.,Pitsmoor,1924-01-04,2012-11-16,1924-01-04
A. Holt,Southampton,Southampton F.C.,Southampton,1911-04-08,1994-07-28,1911-04-08
