col0,col1,col2,col3
Letterer–Siwe disease,C96.0,9722/3,D006646
Lentigo maligna,"C44, D03 (ILDSD03.L10)",8742/2,D018327
Leiomyoma,"D21,D25(ILDSD21.M40)",-8894,D007889
Large-cell lung carcinoma with rhabdoid phenotype,C33-C34,8014/3,D018287
Langerhans cell histiocytosis,C96.5C96.6,",",D006646
Krukenberg tumor,C56,8490/6,D007725
Juvenile myelomonocytic leukemia,C93.1,9946,D054429
Invasive carcinoma of no special type,"C50,D05",-,D018270
Hypereosinophilic syndrome,D72.1(ILDSD72.12),9964/3,D017681
Hurthle cell,C73.9,8290/0,D018249
Hodgkin's lymphoma,C81,9650/3-9667/3,D006689
Hidrocystoma,D23.1,8404/0,D018251
Halo nevus,"I78.1, D22 (ILDSD22.L34)",8723/0,D009508
Haemophilia,D66-D68,117,D025861
Granulosa cell tumour,C56,8620,D006106
Glomus tumor,D18 (ILDSD18.011),8711/0,D005918
Glioma,C71,-9460/3,D005910
Giant-cell tumor of bone,"C40,C41",9250/1,D018212
Germ cell tumor,"C56,C62,D27,D29.2",9060-9100,D009373
Fibroadenoma,D24,"-M9012, M9020, M9030",D018226
Familial adenomatous polyposis,"C18,D12",8220/0,D011125
Extramammary Paget's disease,C44 (ILDSC44.L75),M8542/3,D010145
Erythema,L51-L54,l,D004890
Ependymoma,C71,-9394/1,D004806
Dermatofibrosarcoma protuberans,C49(ILDSC49.M24),8833/3,D018223
Cystic hygroma,"D18.1, Q87.8 (ILDSD18.140",M9173/0,D018191
Cutaneous T cell lymphoma,"C84.0,C84.1",",",D016410
Craniopharyngioma,D44.4,9350/1,D003397
Combined small-cell lung carcinoma,C33-C34,8045/3,D018288
Choriocarcinoma,C58,-9101,D002822
Chondroma,"D16,D21",9220/0,D002812
Chondroblastoma,C40-C41,9230,D002804
Cementoblastoma,D16.4-D16.5,9273/0,D002485
Carcinoid syndrome,E34.0,-8245,D008303
Capillary hemangioma,"D18.0,(ILDSD18.015)",9131/0,D018324
