col0,col1,col2,col3,col4
J. Saros,Milwaukee Admirals,Nashville Predators,HPK,1995-04-19
J. Peters,Tucson Roadrunners,Carolina Hurricanes,Carolina Hurricanes,1986-08-30
J. Bergman,San Jose Barracuda,San Jose Sharks,Frölunda HC,1995-11-02
J. Lammikko,Springfield Thunderbirds,Florida Panthers,Ässät,1996-01-29
J. Schroeder,Iowa Wild,Vancouver Canucks,Vancouver Canucks,1990-09-29
J. Caron,Chicago Wolves,Boston Bruins,Boston Bruins,1990-11-02
J. Racine,St. John's IceCaps,Florida Panthers,Florida Panthers,1993-05-28
J. Carlsson,Indy Fuel,Chicago Blackhawks,Brynäs IF,1988-08-05
J. Ramage,Cleveland Monsters,Calgary Flames,Calgary Flames,1991-02-07
J. E. Ek,Iowa Wild,Minnesota Wild,Färjestad BK,1997-01-29
J. Cannata,Hershey Bears,Vancouver Canucks,Vancouver Canucks,1990-01-02
J. O'Brien,San Antonio Rampage,Ottawa Senators,New Jersey Devils,1989-01-29
J. Pettersson,Lehigh Valley Phantoms,Philadelphia Flyers,Linköpings HC,1994-07-16
J. Sallinen,Bakersfield Condors,Minnesota Wild,Jokerit,1990-10-26
J. Schultz,San Diego Gulls,Washington Capitals,Los Angeles Kings,1986-02-25
J. Janus,Norfolk Admirals,Tampa Bay Lightning,Florida Everblades,1989-09-21
J. Košťálek,Manitoba Moose,Winnipeg Jets,HC Sparta Praha,1995-02-17
J. Vrána,Hershey Bears,Washington Capitals,Linköpings HC,1996-02-28
J. DeBrusk,Providence Bruins,Boston Bruins,Swift Current Broncos,1996-10-17
J. Campbell,Ontario Reign,Dallas Stars,Dallas Stars,1992-01-09
H. Shinkaruk,Stockton Heat,Vancouver Canucks,Vancouver Canucks,1994-10-13
H. Samuelsson,Tucson Roadrunners,Phoenix Coyotes,Modo Hockey,1994-02-07
H. Kiviaho,Idaho Steelheads,Dallas Stars,KalPa,1994-02-26
H. Ikonen,Syracuse Crunch,Tampa Bay Lightning,KalPa,1994-04-17
H. Virta,Hockey Club Lugano,Buffalo Sabres,National Hockey League,1963-03-22
G. Reinhart,Bakersfield Condors,New York Islanders,New York Islanders,1994-01-24
G. Stewart,Oklahoma City Barons,Montreal Canadiens,Montreal Canadiens,1986-05-21
G. Mulvey,Calgary Centennials,Chicago Blackhawks,Chicago Blackhawks,1956-09-17
G. Wilson,Wilkes-Barre/Scranton Penguins,Florida Panthers,Florida Panthers,1991-03-16
F. Claesson,Binghamton Senators,Ottawa Senators,Djurgårdens IF Hockey,1992-11-24
F. Beaubien,Worcester Sharks,Los Angeles Kings,Ligue Magnus,1975-04-01
F. Ahl,Regina Pats,Ottawa Senators,HV71,1997-06-12
E. Svechnikov,Grand Rapids Griffins,Detroit Red Wings,Ak Bars Kazan,1996-10-31
E. Karlsson,Charlotte Checkers,Carolina Hurricanes,Frölunda HC,1994-07-28
E. Gustafsson,Rockford IceHogs,Edmonton Oilers,Frölunda HC,1992-03-14
E. Tangradi,Grand Rapids Griffins,Anaheim Ducks,Pittsburgh Penguins,1989-02-10
D. Tokarski,San Diego Gulls,Tampa Bay Lightning,Montreal Canadiens,1989-09-16
D. Simon,Wilkes-Barre/Scranton Penguins,Pittsburgh Penguins,HC Sparta Praha,1994-08-08
D. Timashov,Toronto Marlies,Toronto Maple Leafs,Modo Hockey,1996-10-01
D. Guryanov,Texas Stars,Dallas Stars,HC Lada Togliatti,1997-06-07
D. Warsofsky,Wilkes-Barre/Scranton Penguins,St. Louis Blues,Boston Bruins,1990-05-30
D. Zaar,Cleveland Monsters,Columbus Blue Jackets,Luleå HF,1994-04-24
D. Přibyl,Stockton Heat,Montreal Canadiens,HC Sparta Praha,1992-12-18
C. Cunningham,Tucson Roadrunners,Boston Bruins,Boston Bruins,1990-09-13
C. Tropp,San Diego Gulls,Buffalo Sabres,Buffalo Sabres,1989-07-25
C. Brickley,Charlotte Checkers,Florida Panthers,Florida Panthers,1992-02-25
C. Greening,Toronto Marlies,Ottawa Senators,Ottawa Senators,1986-03-09
C. Bertschy,Iowa Wild,Minnesota Wild,SC Bern,1994-04-05
C. Djoos,Hershey Bears,Washington Capitals,Brynäs IF,1994-08-06
C. Butler,Chicago Wolves,Buffalo Sabres,Buffalo Sabres,1986-10-27
C. Brown,Hartford Wolf Pack,Phoenix Coyotes,Washington Capitals,1991-02-03
C. Bourque,Hershey Bears,Washington Capitals,Boston Bruins,1986-01-29
C. Dahlström,Rockford IceHogs,Chicago Blackhawks,Linköpings HC,1995-01-28
C. Gaunce,Wilkes-Barre/Scranton Penguins,Colorado Avalanche,Colorado Avalanche,1990-03-19
C. Andersson,Hartford Wolf Pack,New York Rangers,EV Zug,1994-05-16
B. Laich,Toronto Marlies,Ottawa Senators,Ottawa Senators,1983-06-23
B. Sutter,Springfield Thunderbirds,Carolina Hurricanes,Carolina Hurricanes,1991-09-26
B. Strait,Manitoba Moose,Pittsburgh Penguins,Pittsburgh Penguins,1988-01-04
B. Gormley,Albany Devils,Phoenix Coyotes,Arizona Coyotes,1992-02-18
B. Ryan,Milwaukee Admirals,Nashville Predators,ECHL,1988-10-16
A. Lindholm,San Antonio Rampage,Colorado Avalanche,Skellefteå AIK,1994-11-29
A. Forsberg,Cleveland Monsters,Columbus Blue Jackets,Modo Hockey,1992-11-27
A. Blidh,Providence Bruins,Boston Bruins,Frölunda HC,1995-03-14
A. MacWilliam,Albany Devils,Toronto Maple Leafs,Toronto Maple Leafs,1990-03-25
A. Campbell,Toronto Marlies,Los Angeles Kings,Arizona Coyotes,1988-02-04
A. Bodnarchuk,Texas Stars,Boston Bruins,Boston Bruins,1988-07-11
A. Johnsson,Toronto Marlies,Toronto Maple Leafs,Frölunda HC,1987-12-11
A. Grenier,Utica Comets,Vancouver Canucks,EC Red Bull Salzburg,1991-09-05
A. Stalock,Iowa Wild,San Jose Sharks,San Jose Sharks,1987-07-28
A. Friesen,Chicago Wolves,Vancouver Canucks,Vancouver Canucks,1991-01-30
A. Kempe,Ontario Reign,Los Angeles Kings,Modo Hockey,1996-09-13
