col0,col1,col2,col3
The Carlyle Group,"Washington, D.C.",1650,3022000000
The Briad Group,"Livingston, New Jersey",6489,400000000
The Blackstone Group,Manhattan,2190,7484000000
The Bank of Tokyo-Mitsubishi UFJ,"Chiyoda, Tokyo",33827,2391000000000
The Bank of New York Mellon,Manhattan,51200,15194000000
The Andersons,"Maumee, Ohio",1833,5270000000
Thales Group,La Défense,63730,13030000000
Teva Pharmaceutical Industries,Petah Tikva,43000,20300000000
Tetra Tech,"Pasadena, California",16000,2300000000
Tessera Technologies,"San Jose, California",264,273300000
Tesoro,"San Antonio, Texas",6000,37600000000
Tescra,California,750,30000000
Tesco Bank,Edinburgh,2818,1075000000
Terremark,Miami,260,292
TerraLink,Moscow,150,19000000
Termoelectrica,Bucharest,1683,346000000
Teollisuuden Voima,Eurajoki,791,273000000
Tenon Limited,Auckland,1300,740000000
TenneT,Arnhem,1985,1525
Tenga,Tokyo,28,2200000000
Tenaris,Luxembourg,25420,10800000000
Tempur Sealy International,"Lexington, Kentucky",7100,2989000000
Temenos Group,"Geneva, Switzerland",4000,999800000
Telkom Kenya,Nairobi,6500,40000000000
Telkom Indonesia,Bandung,19780,7838000000
Teligent Telecom,Nynäshamn Municipality,100,102500000
Teleste,Kaarina,1325,193
Telenor Serbia,Belgrade,1153,391540000
Telekom Srbija,Belgrade,12703,1038000000
Telefônica Vivo,São Paulo,84000,16600000000
Telefónica Germany,Munich,5288,3745000000
Telefónica Europe,Berkshire,29366,13533000000
Telefónica,Madrid,120497,50377000000
Telefônica Vivo,São Paulo,84000,16600000000
Telefónica Germany,Munich,5288,3745000000
Telefónica Europe,Berkshire,29366,13533000000
Telefónica,Madrid,120497,50377000000
Teledyne Technologies,California,9600,1644000000
Tegut…,Fulda,6353,1160000000
Tecumseh Products,"Ann Arbor, Michigan",5800,824700000
Teck Resources,British Columbia,13500,11514000000
Technology Services Group,Newcastle upon Tyne,560,42000000
Technology Service Corporation,"Silver Spring, Maryland",400,37200000
Technogym,Cesena,2200,413000000
TechnoAlpin,Bolzano,250,100000000
Technicolor SA,France,14639,3449000000
TechniSat,"Daun, Germany",2500,440300000
Tech Data,Florida,9100,27670630000
TeamHealth,"Knoxville, Tennessee",40000,7350000000
Tea Collection,"San Francisco, California",90,40
Taurus,Porto Alegre,3150,342100000
Tatua Dairy Company,Morrinsville,15600,204000000
Tatneft,Almetyevsk,80560,14500000000
Tata Elxsi,Bangalore,3850,852
Tartu Mill,Tartu,53,56700000
Tarmac,Birmingham,6600,1800000000
Tarkett d.o.o.,Bačka Palanka,2755,562290000
Target Australia,"North Geelong, Victoria",24000,3500000000
Tarek Nour Communications,Giza,201,50
Tapad,New York,82,23000000
Tanzania Telecommunications Company Limited,Dar Es Salaam,1600,93
Tanjug,Belgrade,216,2660000
Tangs,Singapore,686,196790000
Tangerine Confectionery,Pontefract,1500,150000000
Tamedia,Switzerland,3400,1064000000
Tallink,Tallinn,6835,945200000
Talen Energy,"Allentown, PA",3500,4300000000
Taiyo Nippon Sanso Corporation,Tokyo,13142,5800000000
Taiwan Power Company,Taipei City,27261,547164
Taisei Corporation,Tokyo,7945,17558416000
Taikisha,Tokyo,5000,1700000000
TT Hellenic Postbank,Athens,2510,319000000
TTI Telecom,Rosh Ha'ayin,361,46100000
TSMC,Hsinchu Science and Industrial Park,37149,20000000000
TSB Bank,Edinburgh,8500,900200000
TRW Automotive,"Livonia, Michigan",66100,16400000000
TP-Link,Guangdong,21849,1900000000
TOA Technologies,"Beachwood, Ohio",550,41000000
TNK-BP,Moscow,50000,60200000000
TMX Finance,"Savannah, Georgia",3300,389400000
TMEIC,Tokyo,1832,188600000000
TJX Companies,Massachusetts,216000,30900000000
TDC A/S,Copenhagen,8594,23344000000
TCL Corporation,Guangdong,73537,16440000000
TARGIT Business Intelligence,North Denmark Region,75,21000000
T-Systems,Frankfurt,45990,8600000000
T-Mobile US,Washington,50000,32000000000
T-Hrvatski Telekom,Zagreb,4728,7040000000
TÜV SÜD,Germany,22000,2200000000
TÜV NORD,Germany,9840,1089
Synnex,"Fremont, California",50000,10400000000
Synchrony Financial,Connecticut,12000,13620000000
Symmetricom,"San Jose, California",584,208100000
Symantec,California,11000,3600000000
Swisslion Group,Novi Sad,3203,134650000
Swisscom,Ittigen,22,11678000000
Swiss Life,Zurich,7492,19102
Swiss Federal Railways,Bern,30977,8319000000
Swisher Hygiene,"Charlotte, North Carolina",1375,217700000
Swedish Match,Stockholm,4488,14486000000
Swagelok,"Solon, Ohio",4800,1800000000
Surgutneftegas,Surgut,92935,27400000000
SureFire,California,500,75000000
Superfish,"Palo Alto, California",90,40000000
Super-Pharm,Herzliya,7000,1200000000
Sunshine Suites,New York City,20,4000000
Sunseeker,Poole,2230,320000000
Sunrise Communications AG,Switzerland,1,2066
Sundog,"Fargo, North Dakota",100,8700000
SunPower,"San Jose, California",6320,1576470000
