col0,col1,col2,col3,col4
P. W. Schramm,"Ashland, Ohio",1946-12-03,1946-12-03,2015
P. Lipton,Cambridge,1954-10-09,1954-10-09,2007
P. Kropotkin,Russian SFSR,1842-12-09,1842-12-09,1921
P. Geach,Cambridge,1916-03-29,1916-03-29,2013
P. Coffey,Maynooth,1876-04-09,1876-04-09,1943
P. Blau,New York City,1918-02-07,1918-02-07,2002
P. Abelard,Chalon-sur-Saône,1079-1-1,1079-1-1,1142
P. I. Petrović-Njegoš,Cetinje,1813-11-13,1813-11-13,1851
P. d. Man,"New Haven, Connecticut",1919-12-06,1919-12-06,1983
P. Weiss,"Washington, D.C.",1901-05-19,1901-05-19,2002
P. Watzlawick,"Palo Alto, California",1921-07-25,1921-07-25,1925
P. Thieme,London,1905-03-18,1905-03-18,2001
P. Souriau,"Nancy, France",1852-10-21,1852-10-21,1926
P. Ricœur,Châtenay-Malabry,1913-02-27,1913-02-27,2005
P. L. Landsberg,Sachsenhausen concentration camp,1901-12-03,1901-12-03,1944
