col0,col1,col2,col3
White-breasted whistler,Pachycephalidae,IUCN3.1,LC
White-breasted waterhen,Rallidae,IUCN3.1,LC
White-breasted thrasher,Mimidae,IUCN3.1,EN
White-breasted tapaculo,Rhinocryptidae,IUCN3.1,NT
White-breasted robin,Petroicidae,IUCN3.1,LC
White-breasted parrotbill,Sylviidae,IUCN3.1,LC
White-breasted parakeet,True parrots,IUCN3.1,VU
White-breasted nuthatch,Nuthatch,IUCN3.1,LC
White-breasted nigrita,Estrildidae,IUCN3.1,LC
White-breasted mesite,Mesitornithidae,IUCN3.1,VU
