col0,col1,col2,col3,col4
J. Bérubé,Los Angeles Kings,"Repentigny, Quebec",New York Islanders,1991-07-13
J. Sawyer,Minnesota Wild,Canada,Chicago Blackhawks,1986-08-12
J. Hawryluk,Florida Panthers,Canada,Florida Panthers,1996-01-01
J. Rosehill,Tampa Bay Lightning,Alberta,Braehead Clan,1985-07-16
J. McClement,St. Louis Blues,Canada,Carolina Hurricanes,1983-03-02
J. Bouwmeester,Florida Panthers,Edmonton,St. Louis Blues,1983-09-27
J. Zucker,Minnesota Wild,California,Minnesota Wild,1992-01-16
J. Wilson,New York Rangers,Canada,Atlanta Gladiators,1990-04-15
J. Spezza,Ottawa Senators,Mississauga,Dallas Stars,1983-06-13
J. Pominville,Buffalo Sabres,Canada,Minnesota Wild,1982-11-30
J. Morgan,Los Angeles Kings,Canada,Arizona Sundogs,1976-10-09
J. Kasdorf,Winnipeg Jets,"Winnipeg, Manitoba",Buffalo Sabres,1992-05-18
J. Jaspers,Phoenix Coyotes,Canada,Iserlohn Roosters,1981-04-08
J. Holland,New York Islanders,Alberta,DEG Metro Stars,1976-04-30
J. Firth,Detroit Red Wings,Canada,Port Huron Beacons,1971-03-29
J. Dickinson,Dallas Stars,Canada,Dallas Stars,1995-07-04
J. Demers,San Jose Sharks,Canada,Florida Panthers,1988-06-09
J. Chimera,Edmonton Oilers,Edmonton,New York Islanders,1979-05-02
J. Beckett,Philadelphia Flyers,Alberta,Nottingham Panthers,1980-07-23
J. Bacashihua,Dallas Stars,Michigan,HC 05 Banská Bystrica,1982-09-20
J. Tinordi,Montreal Canadiens,"Burnsville, Minnesota",Arizona Coyotes,1992-02-20
J. Svoboda,Carolina Hurricanes,Czechoslovakia,HC Kometa Brno,1980-06-01
J. Obšut,Winnipeg Jets,Prešov,HC Prešov 07,1976-03-09
J. Mrázek,New York Islanders,Czechoslovakia,HC Kladno,1986-01-14
J. Kudrna,San Jose Sharks,Czechoslovakia,Metallurg Magnitogorsk,1975-12-05
J. Kristek,Buffalo Sabres,Czechoslovakia,HC Energie Karlovy Vary,1980-03-16
J. Kracík,Columbus Blue Jackets,Plzeň,HC Litvínov,1983-01-18
J. Janus,Tampa Bay Lightning,Czechoslovakia,HC Sparta Praha,1989-09-21
J. Halák,Montreal Canadiens,Bratislava,New York Islanders,1985-05-13
J. Bednář,Los Angeles Kings,Czechoslovakia,HK Hradec Kralove,1976-11-09
J. Balaštík,Columbus Blue Jackets,Uherské Hradiště,HC Zlín,1979-11-28
J. Jágr,Pittsburgh Penguins,Czechoslovakia,Florida Panthers,1972-02-15
J. Iginla,Dallas Stars,Edmonton,Colorado Avalanche,1977-07-01
J. Jágr,Pittsburgh Penguins,Czechoslovakia,Florida Panthers,1972-02-15
J. Kultanen,Boston Bruins,Luumäki,Espoo Blues,1973-01-08
J. Immonen,Dallas Stars,Finland,Lahti Pelicans,1984-01-18
J. Immonen,Toronto Maple Leafs,Finland,EV Zug,1982-04-19
J. Viuhkola,Chicago Blackhawks,Finland,Kärpät,1980-02-27
J. Tolsa,Detroit Red Wings,Gothenburg,Varberg Vipers,1981-04-20
J. Staal,Phoenix Coyotes,Canada,Edinburgh Capitals,1990-08-21
J. Spurgeon,New York Islanders,Alberta,Minnesota Wild,1989-11-29
J. McCann,Vancouver Canucks,Canada,Florida Panthers,1996-05-31
J. Boll,Columbus Blue Jackets,"Charlotte, North Carolina",Anaheim Ducks,1986-05-13
J. Aulin,Colorado Avalanche,Alberta,Rapperswil-Jona Lakers,1982-03-15
J. Harkins,Winnipeg Jets,Cleveland,Winnipeg Jets,1997-05-23
J. Hansen,Vancouver Canucks,Denmark,Vancouver Canucks,1986-03-15
J. Pesonen,Mighty Ducks of Anaheim,Finland,HC Ambrì-Piotta,1982-05-11
J. Ojanen,New Jersey Devils,Finland,Tappara,1968-04-09
J. Niskala,Nashville Predators,Sweden,Lukko,1981-09-22
J. Kuokkanen,Carolina Hurricanes,Finland,Oulun Kärpät,1998-05-25
