col0,col1,col2,col3,col4,col5
Čačanska banka,Čačak,Čačak,31690000,43530000,294970000
Vojvođanska banka,Novi Sad,Novi Sad,92900000,170540000,949570000
Valley National Bank,New Jersey,"Wayne, New Jersey",715000000,1900000000,19400000000
UniCredit banka,Belgrade,Belgrade,384330000,440720000,2198000000
Prudential Financial,New Jersey,"Newark, New Jersey",54161000000,41770000000,766655000000
Poštanska štedionica,Belgrade,Belgrade,120660000,108590000,868440000
Piraeus Bank Beograd,Belgrade,Belgrade,60070000,101740000,512110000000
PROFILE Systems and Software,Athens,Andrea Syngrou Avenue,10060000,15000000,28000000
OTP banka Srbija,Novi Sad,Novi Sad,40800000,87170000,278080000
Komercijalna banka,Belgrade,Belgrade,321080000,584790000,3361000000
Interactive Brokers Group,New York City,"Greenwich, Connecticut",1000000000,5200000000,39000000000
EverBank,United States,"Jacksonville, Florida",883600000,1500000000,18200000000
Crédit Agricole Srbija,Novi Sad,Novi Sad,71260000,73580000,539390000
Barclays,Kingdom of England,England,25454000000,65864000000,1120000000000
Banco Bilbao Vizcaya Argentaria,Spain,Bilbao,23680000000,55430000000,750070000000
Banca Intesa Beograd,Belgrade,Belgrade,444650000,862570000,3727000000
Attica Bank,Greece,Athens,3927000000,680210000,3669000000
Ameris Bancorp,"Moultrie, Georgia",Florida,295000000,514800000,5600000000
American International Group,Shanghai,New York City,64400000000,107300000000,515600000000
American Express,"Buffalo, New York",New York,34440000000,21000000000,161000000000
Čačanska banka,Čačak,Čačak,31690000,43530000,294970000
