col0,col1,col2,col3
R. Brown,Chicago,Kansas Jayhawks men's basketball,Los Angeles Lakers
R. Rhodes,"Jersey City, New Jersey",Kentucky Wildcats men's basketball,Houston Rockets
R. White,Pennsylvania,Charlotte 49ers men's basketball,Detroit Pistons
R. Stuckey,"Seattle, Washington",Eastern Washington Eagles men's basketball,Detroit Pistons
R. Rogers,"Durham, North Carolina",Wake Forest Demon Deacons men's basketball,Denver Nuggets
R. Monroe,Baltimore,NC State Wolfpack men's basketball,Atlanta Hawks
R. McCray,"Mount Vernon, New York",Louisville Cardinals men's basketball,Houston Rockets
R. Hood,"Meridian, Mississippi",Duke Blue Devils men's basketball,Utah Jazz
R. Dent,"Edison, Georgia",Kentucky Wildcats men's basketball,Orlando Magic
R. Carney,"Memphis, Tennessee",Memphis Tigers men's basketball,Chicago Bulls
R. Buford,Milwaukee,Creighton Bluejays men's basketball,Miami Heat
R. McDonald,"Jacksonville, Florida",Whitworth University,Seattle SuperSonics
R. Thorn,"Princeton, West Virginia",West Virginia Mountaineers men's basketball,Baltimore Bullets
R. Strickland,New York,DePaul Blue Demons men's basketball,New York Knicks
R. Knowles,"Washington, North Carolina",Davidson Wildcats men's basketball,Phoenix Suns
R. Higgins,"Monroe, Louisiana",Fresno State Bulldogs men's basketball,Chicago Bulls
R. Grizzard,"Birmingham, Alabama",Alabama Crimson Tide men's basketball,Washington Wizards
R. Foster,"Birmingham, Alabama",UCLA Bruins men's basketball,Phoenix Suns
R. Derline,"Elma, Washington",Seattle Redhawks men's basketball,Seattle SuperSonics
R. Lopez,"North Hollywood, Los Angeles",Stanford Cardinal men's basketball,Phoenix Suns
R. Freeman,Cincinnati,Ohio State Buckeyes men's basketball,St. Louis Hawks
R. Bergersen,Seattle,College of Southern Idaho,Atlanta Hawks
R. Javtokas,Soviet Union,Arizona Wildcats men's basketball,San Antonio Spurs
R. Whaley,"Benton Harbor, Michigan",Cincinnati Bearcats men's basketball,Utah Jazz
R. Werdann,Queens,St. John's Red Storm men's basketball,Denver Nuggets
R. Vaden,Indianapolis,UAB Blazers men's basketball,Charlotte Bobcats
R. Traylor,Detroit,Michigan Wolverines men's basketball,Dallas Mavericks
R. Smith,Los Angeles,UNLV Runnin' Rebels basketball,Denver Nuggets
R. Sacre,"Baton Rouge, Louisiana",Gonzaga Bulldogs men's basketball,Los Angeles Lakers
R. Reid,Atlanta,"St. Mary's University, Texas",Houston Rockets
R. Parish,"Shreveport, Louisiana",Centenary Gentlemen basketball,Golden State Warriors
R. Horry,"Harford County, Maryland",Alabama Crimson Tide men's basketball,Houston Rockets
R. Hawkins,Detroit,Illinois State Redbirds men's basketball,Golden State Warriors
R. Dozier,"Lithonia, Georgia",Memphis Tigers men's basketball,Miami Heat
R. Archibald,"Paisley, Renfrewshire",Illinois Fighting Illini men's basketball,Memphis Grizzlies
R. Hummel,"Valparaiso, Indiana",Purdue Boilermakers men's basketball,Minnesota Timberwolves
R. Williams,Houston,Houston Cougars men's basketball,Denver Nuggets
R. Lock,"Reedley, California",Kentucky Wildcats men's basketball,Los Angeles Clippers
R. Williams,"Norwalk, Connecticut",Connecticut Huskies women's basketball,Washington Mystics
R. Williams,"Pahokee, Florida",Miami Hurricanes women's basketball,Tulsa Shock
R. Smits,Eindhoven,Marist Red Foxes men's basketball,Indiana Pacers
R. Hill,"Oceanside, California",Illinois State Redbirds men's basketball,Los Angeles Clippers
R. Wilson,"Hampton, Virginia",George Mason Patriots men's basketball,Chicago Bulls
R. Sobers,The Bronx,College of Southern Idaho,Phoenix Suns
R. Pierce,Dallas,Rice Owls men's basketball,Detroit Pistons
R. Minard,"Mansfield, Ohio",Morehead State Eagles men's basketball,Sacramento Kings
R. Marsh,New York City,Manhattan Jaspers basketball,Golden State Warriors
R. Grace,Dallas,Midland College,Utah Jazz
R. Frazier,"Charleston, Missouri",Missouri Tigers men's basketball,Chicago Bulls
R. Davis,Nevada,Iowa Hawkeyes men's basketball,Charlotte Hornets
R. Blanton,Florida,LSU Tigers basketball,Phoenix Suns
R. Berry,"Lansing, Michigan",San Jose State Spartans,Sacramento Kings
R. Winslow,Houston,Houston Cougars men's basketball,Chicago Bulls
R. Williams,"Buffalo, New York",New Mexico Lobos men's basketball,New Orleans Jazz
R. Paulding,Detroit,Missouri Tigers men's basketball,Detroit Pistons
R. Green,Chicago,Michigan Wolverines men's basketball,Golden State Warriors
R. Brown,"Madison County, Mississippi",Mississippi State Bulldogs men's basketball,Golden State Warriors
R. Wilson,"Louisville, Kentucky",Louisville Cardinals men's basketball,Atlanta Hawks
R. Weitzman,"Brookline, Massachusetts",Northeastern Huskies men's basketball,Boston Celtics
R. Robey,"Coral Gables, Florida",Kentucky Wildcats men's basketball,Indiana Pacers
R. Roberson,"Memphis, Tennessee",Cincinnati Bearcats men's basketball,Los Angeles Lakers
R. Rickert,"Duluth, Minnesota",Minnesota Golden Gophers men's basketball,Minnesota Timberwolves
R. Mount,"Lebanon, Indiana",Purdue Boilermakers men's basketball,Los Angeles Lakers
R. Mahorn,"Hartford, Connecticut",Hampton Pirates men's basketball,Washington Bullets
R. Fox,Toronto,North Carolina Tar Heels men's basketball,Boston Celtics
R. Carlisle,"Ogdensburg, New York",Virginia Cavaliers men's basketball,Boston Celtics
R. Barry,"Elizabeth, New Jersey",Miami Hurricanes men's basketball,San Francisco Warriors
R. Adelman,"Lynwood, California",Loyola Marymount Lions men's basketball,San Diego Rockets
R. Regan,"Newark, New Jersey",Seton Hall Pirates men's basketball,Rochester Royals
R. Guerin,"Bronx, New York",Iona Gaels men's basketball,New York Knicks
R. Holmes,"Lockport, Illinois",Moraine Valley Community College,Philadelphia 76ers
R. Washington,"Portland, Oregon",UCLA Bruins men's basketball,Kansas City Kings
R. Rinaldi,"Poughkeepsie, New York",Saint Peter's Peacocks basketball,Baltimore Bullets
R. Rellford,"Riviera Beach, Florida",Michigan Wolverines men's basketball,Indiana Pacers
R. Petruška,Czechoslovakia,UCLA Bruins men's basketball,Houston Rockets
R. Jefferson,Los Angeles,Arizona Wildcats men's basketball,Houston Rockets
R. Hendrix,"Decatur, Alabama",Alabama Crimson Tide men's basketball,Golden State Warriors
R. Hamilton,"Coatesville, Pennsylvania",Connecticut Huskies men's basketball,Washington Wizards
R. Dumas,"Tulsa, Oklahoma",Oklahoma State Cowboys basketball,Phoenix Suns
R. Atha,"Lafayette, Indiana",Indiana State Sycamores men's basketball,New York Knicks
