col0,col1,col2,col3
Ó. González,1956 Argentine Grand Prix,0,1923-11-10
É. Comas,1991 United States Grand Prix,0,1963-9-28
É. Bernard,1989 French Grand Prix,0,1964-8-24
É. Bayol,1952 Italian Grand Prix,0,1914-2-28
Z. Baumgartner,2003 Hungarian Grand Prix,0,1981-1-1
Y. Giraud-Cabantous,1950 British Grand Prix,0,1904-10-8
Y. Ide,2006 Bahrain Grand Prix,0,1975-1-21
Y. Dalmas,1987 Mexican Grand Prix,0,1961-7-28
X. Perrot,1969 German Grand Prix,0,1932-2-1
W. v. Trips,1956 British Grand Prix,2,1928-5-4
W. Seidel,1953 German Grand Prix,0,1926-7-4
W. F. Júnior,1972 Spanish Grand Prix,0,1943-12-25
W. Mairesse,1960 Belgian Grand Prix,0,1928-10-1
W. Ferguson,1972 South African Grand Prix,0,1940-3-6
W. Cantrell,1950 Indianapolis 500,0,1908-1-31
W. Krakau,1952 German Grand Prix,0,1911-12-4
W. Heeks,1952 German Grand Prix,0,1922-2-13
W. Cantrell,1953 Indianapolis 500,0,1914-12-6
W. Weiler,1960 Indianapolis 500,0,1934-12-9
W. Brown,1976 United States Grand Prix,0,1949-12-24
W. Hansgen,1961 United States Grand Prix,0,1919-10-28
W. Faulkner,1950 Indianapolis 500,0,1918-2-16
W. Brown,1950 Indianapolis 500,0,1911-12-30
W. Ader,1950 Indianapolis 500,0,1913-12-15
V. Weidler,1989 Brazilian Grand Prix,0,1962-3-18
V. Brambilla,1974 South African Grand Prix,1,1937-11-11
V. Liuzzi,2005 San Marino Grand Prix,0,1980-8-6
V. Sospiri,1997 Australian Grand Prix,0,1966-10-7
V. Wilson,1960 Italian Grand Prix,0,1931-4-14
V. Elford,1968 French Grand Prix,0,1935-6-10
V. Schuppan,1972 Belgian Grand Prix,0,1943-3-19
U. Maglioli,1953 Italian Grand Prix,0,1928-6-5
U. Katayama,1992 South African Grand Prix,0,1963-5-29
T. Taylor,1959 British Grand Prix,0,1936-12-26
T. Blokdyk,1963 South African Grand Prix,0,1935-11-30
T. Webb,1950 Indianapolis 500,0,1910-10-8
T. d. Graffenried,1950 British Grand Prix,0,1914-5-18
T. Suzuki,1993 Japanese Grand Prix,0,1955-3-10
T. Palm,1975 Monaco Grand Prix,0,1947-7-23
T. Takagi,1998 Australian Grand Prix,0,1974-2-12
T. Trimmer,1975 German Grand Prix,0,1943-1-24
T. Shelly,1962 British Grand Prix,0,1937-2-2
T. Settember,1962 British Grand Prix,0,1926-7-10
T. Marsh,1957 German Grand Prix,0,1931-7-20
T. Maggs,1961 British Grand Prix,0,1937-2-9
T. Lanfranchi,1968 Race of Champions,0,1935-6-25
T. Crook,1952 British Grand Prix,0,1920-2-16
T. Brooks,1956 Monaco Grand Prix,6,1932-2-25
T. Brise,1975 Spanish Grand Prix,0,1952-3-28
T. Bettenhausen,1950 Indianapolis 500,0,1916-9-12
T. Branca,1950 Swiss Grand Prix,0,1916-9-15
T. Enge,2001 Italian Grand Prix,0,1976-9-11
T. Byrne,1982 German Grand Prix,0,1958-5-6
T. Pryce,1974 Belgian Grand Prix,0,1949-6-11
T. Jones,1967 Canadian Grand Prix,0,1943-4-26
T. Bridger,1958 Moroccan Grand Prix,0,1934-6-24
T. Belsø,1973 Swedish Grand Prix,0,1942-8-27
T. Enge,2001 Italian Grand Prix,0,1976-9-11
T. Mayer,1962 United States Grand Prix,0,1938-2-22
T. Schenken,1970 Austrian Grand Prix,0,1943-9-26
T. Parnell,1959 British Grand Prix,0,1932-6-25
T. Needell,1980 Belgian Grand Prix,0,1951-10-29
T. Boutsen,1983 Belgian Grand Prix,3,1957-7-13
T. Helfrich,1952 German Grand Prix,0,1913-5-13
T. Fitzau,1953 German Grand Prix,0,1923-2-10
T. Pilette,1974 Belgian Grand Prix,0,1942-7-26
T. Whiteaway,1955 Monaco Grand Prix,0,1928-11-1
T. Marques,1996 Brazilian Grand Prix,0,1976-1-19
T. Inoue,1994 Japanese Grand Prix,0,1963-9-5
S. Bourdais,2008 Australian Grand Prix,0,1979-2-28
Syd van der Vyver,1962 South African Grand Prix,0,1920-1-1
S. Lewis-Evans,1957 Monaco Grand Prix,0,1930-4-20
S. Moss,1951 Swiss Grand Prix,16,1929-9-17
S. South,1980 United States Grand Prix West,0,1952-2-19
S. Modena,1987 Australian Grand Prix,0,1963-5-12
S. Johansson,1980 Argentine Grand Prix,0,1956-9-8
S. Bellof,1984 Brazilian Grand Prix,0,1957-11-20
S. Borgudd,1981 San Marino Grand Prix,0,1946-11-25
S. Barber,1971 Monaco Grand Prix,0,1936-11-16
S. Moser,1966 German Grand Prix,0,1941-4-24
S. Stohr,1981 United States Grand Prix West,0,1952-10-10
S. Templeman,1955 Indianapolis 500,0,1919-8-12
S. Nakano,1997 Australian Grand Prix,0,1971-4-1
S. Summers,1961 Lombank Trophy,0,1936-6-23
S. Mantovani,1953 Italian Grand Prix,0,1929-5-22
S. Nakajima,1987 Brazilian Grand Prix,0,1953-2-23
S. Tingle,1963 South African Grand Prix,0,1921-8-24
S. Hanks,1950 Indianapolis 500,1,1914-7-13
S. Yamamoto,2006 German Grand Prix,0,1982-7-9
S. Bourdais,2008 Australian Grand Prix,0,1979-2-28
R. Keegan,1977 Spanish Grand Prix,0,1955-2-28
R. Schoeller,1952 German Grand Prix,0,1902-4-27
R. Krause,1952 German Grand Prix,0,1907-3-30
R. Fischer,1951 Swiss Grand Prix,0,1912-4-19
R. Salvadori,1952 British Grand Prix,0,1922-5-12
R. Peterson,1970 Monaco Grand Prix,10,1944-2-14
R. Bucknum,1964 German Grand Prix,0,1936-4-5
R. Flockhart,1954 British Grand Prix,0,1923-6-16
R. Stommelen,1970 South African Grand Prix,0,1943-7-11
R. Ratzenberger,1994 Brazilian Grand Prix,0,1960-7-4
R. Williamson,1973 British Grand Prix,0,1948-2-2
R. Penske,1961 United States Grand Prix,0,1937-2-20
R. Loyer,1954 Argentine Grand Prix,0,1907-8-5
R. Laurent,1952 Belgian Grand Prix,0,1913-2-21
R. Wunderink,1975 Spanish Grand Prix,0,1948-12-12
R. Nuckey,1953 German Grand Prix,0,1929-6-26
R. Ward,1951 Indianapolis 500,1,1921-1-10
