col0,col1,col2,col3
Primoris Services Corporation,"Dallas, Texas",6757,2086000000
Prime Vision BV,Delft,50,5000000
Pride International,"Houston, Texas",7000,2300000000
Prada,Milan,11500,3910000000
Poštanska štedionica,Belgrade,1904,120660000
Pošta Srbije,Belgrade,15148,199830000
Powertel,"West Point, Georgia",2600,464200000
Power Vehicle Innovation,Gretz-Armainvilliers,140,30
Power Home Remodeling,"Chester, Pennsylvania",1650,375000000
Power Finance Corporation,New Delhi,330,2
Powell's Books,Oregon,500,45000000
Potbelly Sandwich Works,"Chicago, Illinois",7000,372800000
PostNord Sverige,Solna Municipality,30000,2051000000
PostNL,The Hague,77155,4293000000
Positivo Informática,"Curitiba, Paraná",6400,1000000000
Posco Energy,Seoul,630,1917600000000
Popeyes Louisiana Kitchen Inc.,"Atlanta, Georgia",1600,148000000
PopCap Games,Seattle,400,100
Poliya,Constantinople,160,94000000
Politika a.d.,Belgrade,329,9170000
Polaris Industries,Minnesota,3000,4719000000
Podravka,Koprivnica,5533,2561
Poštanska štedionica,Belgrade,1904,120660000
Pošta Srbije,Belgrade,15148,199830000
Plastic Omnium,Levallois-Perret,22000,5300000000
Plasser & Theurer,Linz,3000,217500000
Planmeca,Finland,2700,850000000
Pitsos,Athens,1400,408470000
Pitney Bowes,"Stamford, Connecticut",16100,3600000000
PitchBook Data,Seattle,600,31000000
Pisiffik,Sisimiut,623,925000000
Piraeus Bank Beograd,Belgrade,547,60070000
Piraeus Bank,Athens,19,2393000000
Piquadro,Gaggio Montano,542,66
Pinnacle Entertainment,Nevada,15000,1490000000
Pinnacle Airlines Corp.,"Memphis, Tennessee",7700,845000000
Pink International Company,Belgrade,854,59750000
Ping An Insurance,Guangdong,190000,64500000000
Pilgrim's Pride,"Greeley, Colorado",35700,9000000000
Piedmont Access to Health Services,"Danville, VA",100,8
Piaggio,Pontedera,7510,1295
PhysAssist Scribes,"Fort Worth, Texas",172,29000000
Phonic Corporation,Taipei,598,740400000
Phoenix Solar,Sulzemoos,310,635700000
Phoenix Pharmahandel,Mannheim,28922,22600000000
Phocas Software,Coventry,103,20000000
Petronas,Kuala Lumpur,51,100744000000
Petrom,Bucharest,17799,21500000000
Petrol Group,Ljubljana,4,3800000000
Petitcollin,"Étain, Meuse",9,636693
Petit Bateau,Troyes,4000,280000000
Pescanova,Redondela,7700,1490000000
Perot Systems,"Plano, Texas",23100,2800000000
Pernod Ricard,Paris,18230,7643000000
Performance Technologies,"Rochester, New York",115,25
People Telecom,"North Sydney, New South Wales",70,90000000
Penn National Gaming,"Wyomissing, Pennsylvania",16740,2742
Pelwatte Sugar Industries PLC,Buttala,4200,20000000
Pegatron,Taipei,104608,18400000000
Pegasystems,"Cambridge, Massachusetts",3500,683000000
Peerless-Premier Appliance Company,"Belleville, IL",100,32500000
Pearson's Candy Company,"Saint Paul, Minnesota",170,40000000
Peanut Corporation of America,"Lynchburg, Virginia",90,25000000
Paylocity Corporation,Illinois,1600,108687000
Paule Ka,Paris,200,45
Patheon,"Durham, North Carolina",8000,1700000000
Parker Hannifin,"Mayfield Heights, Ohio",57447,13200000000
Park Electrochemical Corp,"Melville, New York",535,73
Park City Group,"Salt Lake City, Utah",48,11
Paramount Resources,"Calgary, Alberta",215,200000000
Paradox Interactive,Stockholm,200,604000000
Par Pharmaceutical,"Woodcliff Lake, New Jersey",1152,433200000
Pantech,Seoul,12300,2800000000
Panini Group,Modena,1000,751000000
Panera Bread,"Sunset Hills, Missouri",47191,2700000000
Pandora,Copenhagen,15000,11942000000
Panda Restaurant Group,"Rosemead, California",24000,2500000000
Panda Express,California,24995,2000000000
Panda,Jyväskylä,272,51345000
Panavision,"Woodland Hills, Los Angeles",1211,233300000
Pakistan State Oil,Karachi,3000,14000000000
Pacific National,"Melbourne, Victoria",4000,2378000000
Pacific Exploration & Production,Canada,2506,4600000000
Pacific Edge Limited,"Dunedin, New Zealand",50,4
Pacific Brands,Melbourne,3500,789700000
PVH,Manhattan,18200,8020000000
PT Wunderman Pamungkas Indonesia,Jakarta,1300,80000000
PS Business Parks,"Glendale, California",175,376
PSTech,Belgrade,239,9280000
PROFILE Systems and Software,Andrea Syngrou Avenue,81,10060000
PPL Corporation,Pennsylvania,13500,12737000000
PPG Industries,Pennsylvania,42600,15100000000
PNC Financial Services,Pennsylvania,52500,14326000000
PKN Orlen,Płock,24113,83547000000
PJSC VimpelCom,Moscow,38000,7170000000
PG Marine Group,Asker,46,540000000
PFM Group,Vicenza,340,71000000
PECO-InspX,"San Francisco, California",500,500000000
PEB Steel,Ho Chi Minh,1000,100000000
PC Connection,"Merrimack, New Hampshire",2500,2600000000
PCRUSH,California,60,50000000
"PCM, Inc.","El Segundo, California",3700,1660000000
PCH International,Cork,2800,1000000000
Owens-Illinois,Ohio,24000,7400000000
OverstockArt.com,"Wichita, Kansas",24,4100000
Overstock.com,"Cottonwood Heights, Utah",1500,1500000000
Overaa Construction,"Richmond, California",350,235000000
Outfront Media,New York,2370,623000000
Outerwall,Washington,1800,1850000000
Otto Bock,Duderstadt,6300,771000000
Otter Co-op,British Columbia,396,183866549
OtterBox,"Fort Collins, Colorado",550,2000000000
Osisko Mining,"Montreal, Quebec",450,665
Oshkosh Corporation,"Oshkosh, Wisconsin",12000,6810000000
Oshima Shipbuilding,"Saikai, Nagasaki",975,61900000000
Ornua,Dublin,3300,2300000000
Orion Group,Inverness,396,360
Origami Owl,"Chandler, Arizona",373,24000000
Organic Valley,"La Farge, Wisconsin",850,1040000000
Orex Exploration,Montreal,1,0
Oreltekmash,Oryol,500,0
Oregon Iron Works,Oregon,400,70000000
Ordnance Factories Board,Kolkata,164000,2700000000
Orc Software,Stockholm,275,690
Orbotech,Yavne,2300,752500000
Orbicon,Copenhagen,465,416000000
Oras,"Rauma, Finland",920,131100000
Orange Polska,Warsaw,33421,15715000000
Orange Jordan,Amman,2136,360300000
Optiv,Colorado,1500,1500000000
Option N.V.,Leuven,240,57700000
Optimer Pharmaceuticals,"San Diego, California",281,100000000
OpenTable,California,625,190
Opel,Hesse,35428,14884000000
Opal Property Group,Manchester,550,143
Ooredoo,Doha,17000,33207209000
Ontraport,"Santa Barbara, California",100,10
Ontario Co-operative Association,Ontario,8,1134953
Online Stores Inc.,"New Stanton, Pennsylvania",100,31000000
Onkyo,Osaka,2149,492
"OneAmerica Financial Partners, Inc.",Indiana,1900,1500000000
OnDeck Capital,"New York, New York",500,255
OmniVision Technologies,California,2200,1
Omega Engineering,"Stamford, Connecticut",700,168000000
Omantel,"Muscat, Oman",2690,1329
Olivetti,Ivrea,582,227000000
Old Dutch Foods,Minnesota,1000,433000000
Oklahoma Gas & Electric,Oklahoma,3269,2870000000
Okinawa Electric Power Company,"Urasoe, Okinawa",2495,162501
Oil Refineries,Haifa,1800,13520000000
"Oil City Iron Works, Inc.","Corsicana, Texas",255,33600000
Ohzora Publishing,Tokyo,67,35000000000
Officeworks,"Bentleigh East, Victoria",6000,1900000000
Octapharma,"Lachen, Switzerland",6213,1513000000
Obrascón Huarte Lain,Madrid,23795,3684000000
Objet Geometries,Rehovot,345,120000000
O Boticário,São José dos Pinhais,22000,3300000000
OTP banka Srbija,Novi Sad,696,40800000
OTP Bank,Budapest,36366,645465000000
OSF Healthcare,Illinois,16168,6900000000
ORCO,Capellen,474,145900000
OPNET,Maryland,700,173000000
OPAP,Athens,1,5325000000
ONEOK,"Tulsa, Oklahoma",4077,11100000000
OM Group,"Cleveland, Ohio",6800,1640000000
OMNOVA Solutions,"Beachwood, Ohio",1950,838000000
OKD,Ostrava,10099,27400000000
OGK-6,Moscow,6100,1500000000
OGK-3,Moscow,6000,1200000000
OGK-2,Solnechnodolsk,4928,3400000000
OGK-1,Moscow,5800,1700000000
OAO TMK,Moscow,45000,4127000000
O2,Berkshire,21580,2973000000
O2,Sir John Rogerson's Quay,1787,905000000
Nutreco,Amersfoort,9717,5229000000
Nunnauuni,Finland,255,26700000
Numericable,France,2182,1314
Numatic International,"Chard, Somerset",885,124400000
Nucleus Software Exports,India,1488,346
Nuclearelectrica,Bucharest,2500,564000000
Nu Skin Enterprises,"Provo, Utah",5000,2250000000
Novosti a.d.,Belgrade,446,16090000
Nova Measuring Instruments,Rehovot,496,148540000
Northway Bank,"Berlin, New Hampshire",218,7200000
Northpower,Whangarei,1000,217
Northern Rock,Newcastle upon Tyne,6000,5000000000
North American Power,Connecticut,70,250
North-Western Shipping Company,Saint Petersburg,2200,126200000
Nortal,Tallinn,650,34600000
Norsat,"Richmond, British Columbia",175,38400000
Norrmejerier,Umeå,490,1500000000
Norilsk Nickel,Moscow,96193,11870000000
Norfolk Southern Railway,Virginia,30943,11040000000
Nordstrom,Seattle,72500,14437000000
Nordion,Ontario,450,244800000
