col0,col1,col2,col3,col4
Z. Sanders,Buffalo Bills,Calgary Stampeders,1989-12-04,144
Z. Beadles,Denver Broncos,San Francisco 49ers,1986-11-19,45
Z. Martin,Dallas Cowboys,Dallas Cowboys,1990-11-20,16
Z. Strief,New Orleans Saints,New Orleans Saints,1983-09-22,210
Z. Fulton,Kansas City Chiefs,Kansas City Chiefs,1991-09-23,193
Z. Ertz,Philadelphia Eagles,Philadelphia Eagles,1990-11-10,35
Z. Brown,Buffalo Bills,Buffalo Bills,1989-10-23,52
Z. Brooks,Seattle Seahawks,Seattle Seahawks,1993-02-01,247
Z. Smith,Baltimore Ravens,Baltimore Ravens,1992-09-08,122
Y. Ngakoue,Jacksonville Jaguars,Jacksonville Jaguars,1995-0-0,69
X. Su'a-Filo,Houston Texans,Houston Texans,1991-01-01,33
X. Rhodes,Minnesota Vikings,Minnesota Vikings,1990-06-19,25
X. Cooper,Cleveland Browns,Cleveland Browns,1991-11-30,96
X. Howard,Miami Dolphins,Miami Dolphins,1993-07-04,38
W. Guy,Indianapolis Colts,Free agent,1990-4-23,181
W. Young,Chicago Bears,Chicago Bears,1985-09-19,213
W. Henry,Baltimore Ravens,Baltimore Ravens,1994-03-20,132
W. J. III,Cincinnati Bengals,Cincinnati Bengals,1993-03-13,24
W. Gholston,Tampa Bay Buccaneers,Tampa Bay Buccaneers,1991-07-31,126
W. Sutton,Chicago Bears,Chicago Bears,1991-10-03,82
W. Redmond,San Francisco 49ers,San Francisco 49ers,1993-12-28,68
W. Parks,Denver Broncos,Denver Broncos,1994-07-29,219
W. Fuller,Houston Texans,Houston Texans,1994-04-16,21
W. Davis,Baltimore Ravens,Baltimore Ravens,1990-05-08,93
W. Clarke,Cincinnati Bengals,Cincinnati Bengals,1991-5-4,88
W. Blackmon,New York Giants,Washington Redskins,1984-10-27,115
W. Beatty,New York Giants,New York Giants,1985-03-02,60
W. Mercilus,Houston Texans,Houston Texans,1990-7-21,26
W. Richburg,New York Giants,New York Giants,1991-07-09,43
W. Johnson,New York Jets,New York Jets,1991-01-09,173
W. Schweitzer,Atlanta Falcons,Atlanta Falcons,1993-09-11,195
W. Smallwood,Philadelphia Eagles,Philadelphia Eagles,1994-1-20,153
W. Powell,Arizona Cardinals,Buffalo Bills,1991-11-23,196
W. Aikens,Miami Dolphins,Miami Dolphins,1991-06-19,125
V. Bell,New Orleans Saints,New Orleans Saints,1994-12-12,61
V. Painter,Cleveland Browns,Washington Redskins,1989-10-11,173
V. Curry,Philadelphia Eagles,Philadelphia Eagles,1988-06-30,59
V. Sunseri,New England Patriots,New England Patriots,1991-10-25,167
V. Valentine,New England Patriots,New England Patriots,1994-02-23,96
V. Williams,Pittsburgh Steelers,Pittsburgh Steelers,1989-12-27,206
V. Wilfork,Houston Texans,Houston Texans,1981-11-04,21
V. Mayle,Cleveland Browns,Dallas Cowboys,1991-06-12,123
V. Marrow,Buffalo Bills,Kentucky Wildcats football,1968-08-17,307
V. Beasley,Atlanta Falcons,Atlanta Falcons,1992-07-08,8
V. Hargreaves,Tampa Bay Buccaneers,Tampa Bay Buccaneers,1995-06-03,11
V. Butler,Carolina Panthers,Carolina Panthers,1994-06-14,30
V. Walker,Atlanta Falcons,Denver Broncos,1987-4-26,210
V. McDonald,San Francisco 49ers,San Francisco 49ers,1990-06-13,55
V. Alexander,Oakland Raiders,Oakland Raiders,1994-03-23,234
U. John,Arizona Cardinals,Arizona Cardinals,1992-05-20,232
T. Alualu,Jacksonville Jaguars,Jacksonville Jaguars,1987-05-12,10
T. Holmes,Cleveland Browns,Cleveland Browns,1993-09-10,181
T. Crawford,Dallas Cowboys,Dallas Cowboys,1989-11-22,81
T. Smith,Dallas Cowboys,Dallas Cowboys,1990-12-12,9
T. Taylor,Baltimore Ravens,Buffalo Bills,1989-8-3,180
T. Hill,Kansas City Chiefs,Kansas City Chiefs,1994-03-01,165
T. Starr,Atlanta Falcons,Atlanta Falcons,1991-01-25,255
T. Matakevich,Pittsburgh Steelers,Pittsburgh Steelers,1992-12-02,246
T. Kroft,Cincinnati Bengals,Cincinnati Bengals,1992-10-15,85
T. Gaffney,Carolina Panthers,New England Patriots,1991-04-20,204
T. Ervin,Houston Texans,Houston Texans,1993-0-0,119
T. Eifert,Cincinnati Bengals,Cincinnati Bengals,1990-09-08,21
T. Boyd,Cincinnati Bengals,Cincinnati Bengals,1994-11-15,55
T. Smith,Seattle Seahawks,Washington Redskins,1993-05-03,170
T. Sambrailo,Denver Broncos,Denver Broncos,1992-03-10,59
T. Montgomery,Green Bay Packers,Green Bay Packers,1993-01-22,94
T. Johnson,Los Angeles Rams,Los Angeles Rams,1990-01-01,65
T. Niklas,Arizona Cardinals,Arizona Cardinals,1992-09-18,52
T. Flowers,New England Patriots,New England Patriots,1993-08-16,101
T. Caldwell,Cleveland Browns,Cleveland Browns,1993-12-04,173
T. Reilly,New York Jets,Free agent,1988-01-17,233
T. Guyton,Saskatchewan Roughriders,Saskatchewan Roughriders,1990-01-09,219
T. Davis,Green Bay Packers,Green Bay Packers,1993-7-4,163
T. Wade,New Orleans Saints,New York Giants,1989-08-01,245
T. Williams,Washington Redskins,Washington Redskins,1988-07-19,4
T. Murphy,Washington Redskins,Washington Redskins,1990-12-22,47
T. McBride,Tennessee Titans,Tennessee Titans,1992-12-01,245
T. Mason,Los Angeles Rams,Los Angeles Rams,1993-08-06,75
T. Boston,Carolina Panthers,Carolina Panthers,1992-06-25,128
T. Jackson,New England Patriots,New England Patriots,1992-12-14,111
T. Swanson,Detroit Lions,Detroit Lions,1991-01-30,76
T. Kelce,Kansas City Chiefs,Kansas City Chiefs,1989-10-05,63
T. Frederick,Dallas Cowboys,Dallas Cowboys,1991-03-18,31
T. Feeney,Pittsburgh Steelers,Pittsburgh Steelers,1992-11-18,220
T. Benjamin,Cleveland Browns,San Diego Chargers,1989-12-29,100
T. Turner,Carolina Panthers,Carolina Panthers,1993-06-14,92
T. Waynes,Minnesota Vikings,Minnesota Vikings,1992-07-25,11
T. Williams,San Diego Chargers,San Diego Chargers,1991-05-09,179
T. Bergstrom,Houston Texans,Houston Texans,1986-08-08,95
T. Clemons,Carolina Panthers,Free agent,1988-10-11,231
T. Streeter,Tampa Bay Buccaneers,Free agent,1988-10-7,198
T. Compton,Atlanta Falcons,Atlanta Falcons,1989-05-10,193
T. Brady,New England Patriots,New England Patriots,1977-8-3,199
T. Washington,Houston Texans,Baltimore Ravens,1976-07-19,104
T. Jernigan,Baltimore Ravens,Baltimore Ravens,1992-09-24,48
T. Spencer,San Diego Chargers,Tampa Bay Buccaneers,1960-12-10,307
T. Hightower,Arizona Cardinals,New Orleans Saints,1986-05-23,149
T. Riddick,Detroit Lions,Detroit Lions,1991-05-04,199
T. Simon,Seattle Seahawks,Arizona Cardinals,1991-03-06,138
T. Coleman,Atlanta Falcons,Atlanta Falcons,1993-04-16,73
T. Poole,Miami Dolphins,Miami Dolphins,1992-02-27,130
T. Hawthorne,Pittsburgh Steelers,Calgary Stampeders,1990-01-01,150
T. Armstead,New Orleans Saints,New Orleans Saints,1991-07-23,75
T. Frederick,Cleveland Browns,Winnipeg Blue Bombers,1990-02-10,246
T. Fede,Miami Dolphins,Miami Dolphins,1991-11-19,234
T. Brooks,Philadelphia Eagles,Philadelphia Eagles,1991-03-02,79
T. Austin,Detroit Lions,Free agent,1988-08-25,219
T. Suggs,Baltimore Ravens,Baltimore Ravens,1982-10-11,10
T. Williams,Dallas Cowboys,Dallas Cowboys,1989-9-18,74
T. West,Baltimore Ravens,Baltimore Ravens,1991-01-28,94
T. Mitchell,Chicago Bears,Kansas City Chiefs,1992-05-17,254
T. Hemingway,Los Angeles Rams,Los Angeles Rams,1993-07-30,177
T. Smith,Jacksonville Jaguars,Jacksonville Jaguars,1991-04-11,144
T. Martin,Oakland Raiders,USC Trojans football,1978-07-25,163
T. Bridgewater,Minnesota Vikings,Minnesota Vikings,1992-11-10,32
T. Lewan,Tennessee Titans,Tennessee Titans,1991-07-22,11
T. Hart,Philadelphia Eagles,San Francisco 49ers,1991-02-22,141
T. Decker,Detroit Lions,Detroit Lions,1994-08-23,16
T. Young,Baltimore Ravens,Baltimore Ravens,1994-03-14,104
T. Wilson,Detroit Lions,Detroit Lions,1990-03-19,48
T. Austin,Los Angeles Rams,Los Angeles Rams,1991-3-15,8
T. King,Carolina Panthers,New York Giants,1990-07-14,161
T. Nixon,Denver Broncos,Denver Broncos,1991-02-07,251
T. Carder,Buffalo Bills,Cleveland Browns,1989-01-18,147
T. Sharpe,Tennessee Titans,Tennessee Titans,1994-12-23,140
T. Whitehead,Detroit Lions,Detroit Lions,1990-04-02,138
T. J. Yeldon,Jacksonville Jaguars,Jacksonville Jaguars,1993-10-02,36
T. J. Ward,Cleveland Browns,Denver Broncos,1986-12-12,38
T. J. McDonald,Los Angeles Rams,Los Angeles Rams,1991-01-26,71
T. J. Jones,Detroit Lions,Detroit Lions,1992-07-19,189
T. J. Johnson,Cincinnati Bengals,Cincinnati Bengals,1990-07-17,251
T. J. Green,Indianapolis Colts,Indianapolis Colts,1995-03-15,57
T. J. Clemmings,Minnesota Vikings,Minnesota Vikings,1991-11-18,110
T. J. Carrie,Oakland Raiders,Oakland Raiders,1990-07-28,219
S. Williams,Denver Broncos,Denver Broncos,1988-11-21,28
S. Thompson,Denver Broncos,Free agent,1987-02-07,225
S. Cravens,Washington Redskins,Washington Redskins,1995-7-7,53
S. Schweigert,Detroit Lions,Saginaw Sting,1981-06-21,67
S. Nelson,Kansas City Chiefs,Kansas City Chiefs,1993-01-22,98
S. Means,Baltimore Ravens,Philadelphia Eagles,1989-12-5,147
