col0,col1,col2,col3,col4,col5,col6
B. Cowan,Cleveland Browns,"Fort Wayne, Indiana",Indiana Hoosiers football,12,2004-01-20,1923-01-02
B. Farrington,Chicago Bears,"DeWalt, Texas","Rensselaer, Indiana",16,1964-07-27,1936-02-06
B. Lothridge,Dallas Cowboys,"Cleveland, Georgia","Pensacola, Florida",6,1996-02-24,1942-01-01
B. Lund,Cleveland Browns,"Akron, Ohio","Chagrin Falls, Ohio",15,2008-09-27,1924-10-27
B. Flowers,Ottawa Rough Riders,"Erie, Pennsylvania","Lafayette, Indiana",2,2011-04-14,1930-02-14
B. Jackson,Cincinnati Bengals,"Washington, D.C.","Lompoc, California",4,1997-05-26,1950-08-24
B. Dafney,Houston Oilers,"Los Angeles, California","Conyers, Georgia",9,2006-01-11,1968-11-01
B. McRae,Chicago Bears,"Aberdeen, North Carolina","Columbia, Maryland",2,2012-11-22,1939-12-08
B. Fricke,Dallas Cowboys,"Austin, Texas","Plano, Texas",7,2011-02-21,1975-11-13
B. Davidson,Green Bay Packers,California,California,4,2012-07-02,1940-06-14
A. Parker,Philadelphia Eagles,"Winston-Salem, North Carolina","Sacramento, California",12,2004-05-04,1952-01-16
A. Murakowski,Detroit Lions,"East Chicago, Indiana","Hammond, Indiana",3,1985-09-13,1925-03-15
A. Weinmeister,New York Yankees,Canada,Seattle,17,2000-06-29,1923-03-23
A. Sutton,Minnesota Vikings,"New Orleans, Louisiana","Yakima, Washington",2,2015-08-29,1941-11-02
A. Bertelli,Los Angeles Dons,"Springfield, Massachusetts","Clifton, New Jersey",1,1999-06-26,1921-06-18
A. Spiva,Atlanta Falcons,"Chattanooga, Tennessee","Atlanta, Georgia",5,1979-04-03,1954-03-27
A. Robustelli,Los Angeles Rams,"Stamford, Connecticut","Stamford, Connecticut",19,2011-05-31,1925-12-06
A. White,Philadelphia Eagles,"Crosby, Texas","Fort Worth, Texas",13,1996-10-21,1915-03-23
A. Kapter,Cleveland Browns,"Waukegan, Illinois","Thousand Oaks, California",21,2005-07-25,1922-03-26
A. Burk,Baltimore Colts,"Mexia, Texas","Rusk, Texas",1,2003-7-28,1927-12-14
A. Gibron,Buffalo Bills,"Michigan City, Indiana","Belleair, Florida",6,1997-09-23,1925-09-22
