col0,col1,col2,col3
Kŭmgol Line,Muhak Station,Yohaejin Station,83400
Kūkō Line,Fukuokakūkō Station,Meinohama Station,13100
Kwun Tong Line Extension,Whampoa Station,Yau Ma Tei Station,2600
Kurenivsko-Chervonoarmiyska Line,Teremky,Heroiv Dnipra,20950
Kunming–Singapore railway,Singapore,China,3900000
Kuala Lumpur–Singapore High Speed Rail,Jurong East,Bandar Malaysia,15000
Kraichgau Railway,Heilbronn,Karlsruhe,64800
Kragerø Line,Kragerø Station,Neslandsvatn Station,26620
Koya Line,Gokurakubashi Station,Shiomibashi Station,64500
Kotri–Attock Railway Line,Attock City Junction railway station,Kotri Junction railway station,1519000
Kosei Line,Ōmi-Shiotsu Station,Yamashina Station,74100
Koralm Railway,Klagenfurt Central Station,Graz Central Station,127000
Konkan Railway,Karnataka,Maharashtra,736000
Kongsvinger Line,Charlottenberg railway station,Lillestrøm Station,115000
Kolsås Line,Kolsås,Smestad,12200
Kolkata Metro Line 2,"Bidhannagar, Kolkata",Howrah,5770
Kochelsee Railway,Kochel am See,Tutzing station,35500
Kishū Railway Line,Nishi-Gobō Station,Gobō Station,2700
Kishin Line,"Niimi, Okayama","Himeji, Hyōgo",158100
Kishū Railway Line,Nishi-Gobō Station,Gobō Station,2700
Kisei Main Line,Wakayamashi Station,Kameyama Station,384200
Kirnitzschtal tramway,Lichtenhain Waterfall,Bad Schandau,7900
Kirkenes–Bjørnevatn Line,Bjørnevatn Station,Kirkenes Station,8500
Kirkby Branch Line,Kirkby railway station,Wigan Wallgate railway station,19714
Kinzig Valley Railway,Fulda station,Hanau Hauptbahnhof,80600
Kinleith Branch,Kinleith Mill,Waikato,65000
Kington and Eardisley Railway,Eardisley,New Radnor,20921
Kingston Branch,"Kingston, New Zealand",Invercargill,139920
Khyber train safari,Landi Kotal railway station,Peshawar City railway station,58000
Kholodnohirsko–Zavodska Line,Industrialna,Kholodna Hora,17300
Khanewal–Wazirabad railway line,Wazirabad Junction railway station,Khanewal Junction railway station,325000
Kesennuma Line,Kesennuma Station,Maeyachi Station,72800
Kenitra–Tangier high-speed rail line,Casablanca,Tangier,350000
Keiō New Line,Sasazuka Station,Shinjuku Station,3600
Keiō Dōbutsuen Line,Tama-Dōbutsukōen Station,Takahatafudō Station,2000
Keiyō Rinkai Railway Rinkai Main Line,"Sodegaura, Chiba","Chiba, Chiba",19900
Keisei Chihara Line,Chiharadai Station,Chiba-Chūō Station,10900
Keihan Main Line,Sanjō Station,Yodoyabashi Station,49300
Keiō New Line,Sasazuka Station,Shinjuku Station,3600
Keiō Dōbutsuen Line,Tama-Dōbutsukōen Station,Takahatafudō Station,2000
Kaydeross Railroad,"Rock City Falls, New York","Ballston Spa, New York",19312
Katihar–Siliguri line,Siliguri Junction railway station,Katihar railway station,203000
Karlsruhe–Basel high-speed railway,Basel Badischer Bahnhof,Karlsruhe Hauptbahnhof,182000
Karachi–Peshawar Railway Line,Peshawar Cantonment railway station,Karachi City railway station,1687000
Kansai Airport Line,Kansai Airport Station,Hineno Station,11100
Kangwon Line,P'yŏnggang Station,Kowon Station,145800
Kaluzhsko-Rizhskaya Line,Medvedkovo,Novoyasenevskaya,37800
Kalininsko-Solntsevskaya Line,Park Pobedy,Tretyakovskaya,3400
Kakhovskaya Line,Kashirskaya,Kakhovskaya,3300
Kaeng Khoi Line,Saraburi Railway Station,Hua Lamphong Railway Station,125100
Kadina-Brinkworth railway line,"Brinkworth, South Australia",Kadina,95300
Kabe Line,Kabe Station,Yokogawa Station,14000
KL Monorail,Titiwangsa station,Kuala Lumpur Sentral railway station,8600
Kŭmgol Line,Muhak Station,Yohaejin Station,83400
Kūkō Line,Fukuokakūkō Station,Meinohama Station,13100
Jæren Line,Egersund Station,Stavanger Station,74710
Jungang Line,Gyeongju Station,Cheongnyangni Station,373800
Joydevpur-Bangabandhu shetu east Line,Bangabandhu Bridge,Joydebpur railway station,145000
Journal Square–33rd Street,33rd Street,Journal Square Transportation Center,10782
Journal Square–33rd Street,33rd Street,Journal Square Transportation Center,9173
Journal Square–33rd Street,33rd Street,Journal Square Transportation Center,10782
Journal Square–33rd Street,33rd Street,Journal Square Transportation Center,9173
Joondalup railway line,Butler railway station,Elizabeth Quay railway station,40700
Jonica railway,Reggio di Calabria Centrale railway station,Taranto railway station,472000
Johore Wooden Railway,Johor,Johor,28968
Johnsonville Branch,Johnsonville Railway Station,Wellington Railway Station,10490
Jinhua–Wenzhou Railway,Wenzhou,Jinhua,252000
Jeolla Line,Yeosu EXPO Station,Iksan Station,180400
Jelgava–Liepāja Railway,Liepāja Station,Jelgava Station,180000
Jelgava–Krustpils Railway,Krustpils Station,Jelgava Station,138000
Jelgava–Liepāja Railway,Liepāja Station,Jelgava Station,180000
Jelgava–Krustpils Railway,Krustpils Station,Jelgava Station,138000
Jasidih–Dumka–Rampurhat railway line,Rampurhat,Jasidih,135000
Janghang Line,Iksan Station,Cheonan Station,154400
Jane LRT,Pioneer Village,Jane,16500
Jakarta Kota–Manggarai railway,Manggarai Station,Jakarta Kota Station,15000
Jacksonville Skyway,Rosa Parks Transit Station,Convention Center Station,4023
JR Tōzai Line,Amagasaki Station,Kyobashi Station,12500
Jæren Line,Egersund Station,Stavanger Station,74710
Izuhakone Railway Sunzu Line,Shuzenji Station,Mishima Station,19800
Istanbul–Pythio railway,Greece,İstanbul Sirkeci Terminal,281400
Istanbul–Ankara railway,İstanbul,Ankara,576600
Istanbul–Pythio railway,Greece,İstanbul Sirkeci Terminal,281400
Istanbul–Ankara railway,İstanbul,Ankara,576600
Isar Valley Railway,Bichl,Munich South station,51100
Ipswich to Ely Line,Peterborough railway station,Ipswich railway station,38624
Inland Line,Gällivare,Kristinehamn,1288000
Inland Empire–Orange County Line,Oceanside Transit Center,Santa Fe Depot,161095
Ingolstadt–Treuchtlingen railway,Treuchtlingen station,Ingolstadt Hauptbahnhof,55800
Incheon Subway Line 2,Unyeon Station,Geomdan Oryu Station,29100
Incheon Subway Line 1,International Business District Station,Gyeyang Station,29400
Incheon Airport Maglev,Yongyu Station,Incheon International Airport Station,6100
Ihrhove–Nieuweschans railway,Bad Nieuweschans railway station,Westoverledingen,18000
IRT New Lots Line,New Lots Avenue,Sutter Avenue–Rutland Road,7901
IND World's Fair Line,Flushing Meadows–Corona Park,Forest Hills–71st Avenue,2560
IND Eighth Avenue Line,High Street,Inwood – 207th Street,22530
IND Concourse Line,145th Street,Norwood – 205th Street,10460
Hōjō Line,Hōjōmachi Station,Ao Station,13600
Hyŏksin Line,Rakwon Station,Kwangbok Station,15000
Hyderabad–Khokhrapar Branch Line,Zero Point railway station,Kotri Junction railway station,211000
Hyderabad–Badin Branch Line,Badin railway station,Kotri Junction railway station,109000
Hyderabad–Khokhrapar Branch Line,Zero Point railway station,Kotri Junction railway station,211000
Hyderabad–Badin Branch Line,Badin railway station,Kotri Junction railway station,109000
Hyŏksin Line,Rakwon Station,Kwangbok Station,15000
Hwanghae Ch'ŏngnyŏn Line,Haeju Station,Sariwon Chongnyon Station,80000
Hutt Valley Line,Upper Hutt Railway Station,Wellington Railway Station,32400
Hurum Line,Oslo Airport location controversy,Hallenskog Station,14000
Hurontario LRT,Port Credit GO Station,Brampton Gateway Terminal,20000
Huntington Railroad,"Amityville, New York","Halesite, New York",29772
Hunsrückquerbahn,Hermeskeil,Langenlonsheim,110400
Hudson–Bergen Light Rail,8th Street,Tonnelle Avenue,27358
Hualien–Taitung Line,Taitung Station,Hualien Station,150900
Hrubieszów–Sławków Południowy LHS railway,Sławków,Bug River,394650
Howrah–New Jalpaiguri line,New Jalpaiguri railway station,Howrah railway station,588000
Howrah–Nagpur–Mumbai line,Chhatrapati Shivaji Terminus,Howrah Station,1968000
Howrah–Gaya–Delhi line,New Delhi railway station,Howrah railway station,1449000
Howrah–Delhi main line,Delhi Junction Railway Station,Howrah Station,1532000
Howrah–Chennai main line,Chennai Central,Howrah Station,1661000
Howrah–Bardhaman main line,Bardhaman railway station,Howrah railway station,108000
Howrah–Bardhaman chord,Bardhaman railway station,Howrah railway station,95000
Howrah–Allahabad–Mumbai line,Chhatrapati Shivaji Terminus,Howrah Station,2127000
Howrah–New Jalpaiguri line,New Jalpaiguri railway station,Howrah railway station,588000
Howrah–Nagpur–Mumbai line,Chhatrapati Shivaji Terminus,Howrah Station,1968000
Howrah–Gaya–Delhi line,New Delhi railway station,Howrah railway station,1449000
Howrah–Delhi main line,Delhi Junction Railway Station,Howrah Station,1532000
Howrah–Chennai main line,Chennai Central,Howrah Station,1661000
Howrah–Bardhaman main line,Bardhaman railway station,Howrah railway station,108000
Howrah–Bardhaman chord,Bardhaman railway station,Howrah railway station,95000
Howrah–Allahabad–Mumbai line,Chhatrapati Shivaji Terminus,Howrah Station,2127000
Horten Line,Horten Station,Skoppum Station,7000
Hornbæk Line,Gilleleje,Helsingør,24500
Honolulu Rail Transit,Ala Moana Center,Kapolei,32186
Hongŭi Line,Tumangang Station,Hongŭi Station,9500
Honam Line,Mokpo Station,Daejeon,252500
Honam High Speed Railway,Gwangju,Cheongju,230990
Holmfirth Branch Line,Holmfirth,Brockholes,3218
Holmestrand–Vittingfoss Line,Hvittingfoss,Holmestrand Station,29800
Hokuriku Main Line,Kanazawa Station,Maibara Station,176600
Hokuhoku Line,Saigata Station,Muikamachi Station,59500
Hoboken–World Trade Center,Hoboken Terminal,World Trade Center,4828
Hoboken–33rd Street,33rd Street,Hoboken Terminal,5632
Hoboken–World Trade Center,Hoboken Terminal,World Trade Center,4828
Hoboken–33rd Street,33rd Street,Hoboken Terminal,5632
Hisatsu Line,Hayato Station,Yatsushiro Station,124200
Hirtshalsbanen,Hirtshals station,Hjørring station,16000
Highway 427 BRT,Ontario Highway 7,Toronto Pearson International Airport,17000
High Speed 2,West Coast Main Line,London,191511
High Speed 1,Channel Tunnel,London St Pancras,108000
Heuberg Railway,Reichenbach am Heuberg,Spaichingen,17900
Heritage Corridor,Joliet,Union Station,60028
Henley Beach railway line,Henley Beach railway station,Adelaide railway station,15300
Hendon railway line,Hendon railway station,Adelaide railway station,10200
Henbury Loop Line,Avonmouth,Filton,9656
Hefei–Bengbu High-Speed Railway,Bengbu South Railway Station,Hefei Railway Station,130000
Heartland Flyer,"Fort Worth, Texas","Oklahoma City, Oklahoma",331524
Haydarpaşa suburban,Gebze railway station,Haydarpaşa Terminal,44100
Hawthorne-El Segundo,"El Segundo, California",Downtown Los Angeles,30368
Haverhill Line,North Station,Haverhill,53108
Hauerseter–Gardermoen Line,Gardermoen Air Station,Hauerseter Station,6700
Harrogate Line,York railway station,Leeds railway station,62000
Harlingen–Nieuweschans railway,Bad Nieuweschans railway station,Harlingen Haven railway station,127000
Hardanger Line,Granvin Station,Voss Station,27500
Harcourt Street railway line,Bray Daly railway station,Harcourt Street railway station,20116
Harbin–Qiqihar Intercity Railway,Qiqihar South Railway Station,Harbin Railway Station,281500
