col0,col1,col2,col3
The Bewlay Brothers,Queen Bitch,1971-07-30,327
The Best of the Capitol Years,Sinatra: Soundtrack To The CBS Mini-Series,1953-04-30,3531
The Best of Two Worlds,But Beautiful,1975-05-21,2564
"The Best of The Byrds: Greatest Hits, Volume II",Farther Along,1965-11-01,1871
The Best of Rare Cult,Pure Cult: The Singles 1984–1995,1984-08-10,4471
The Best of Lari White,Don't Fence Me In,1996-02-13,2824
The Best Is Yet to Come,Ella Abraça Jobim,0005-02-04,2411
The Best Is Yet to Come,I Wanna Be Around,1964-06-09,190
The Best Day,What Do You Say to That,1999-08-31,204
The Best Damn Tour: Live in Toronto,Bonez Tour 2005: Live at Budokan,2008-04-07,4500
The Best Band You Never Heard in Your Life,"You Can't Do That on Stage Anymore, Vol. 3",1988-06-06,7873
The Beautiful Madness EP,Stabilo Boss,2001-03-28,1238
The Beatles Collection,Love Songs,1962-09-11,32020
The Beatles Box Set,Past Masters,1962-09-04,33766
The Beatles,Sgt. Pepper's Lonely Hearts Club Band,1968-10-14,5615
The Beatles' Second Album,Twist and Shout,1963-10-17,1616
The Beat of My Heart,Tony,1957-10-25,1774
The Beat Goes On,A Mann & A Woman,1967-03-16,1879
The Beat Goes On!,"Up, Up and Away",1968-02-12,2002
"The Beat Club, Bremen",Live at Jacksonville,1972-10-17,2635
The Beach Boys' Christmas Album,Beach Boys Concert,1963-10-20,1657
The Battle of Mexico City,Rage Against the Machine,1999-10-28,4080
The Ballad of John and Yoko,Get Back,1969-04-14,179
The Bad Guys,Song for My Sister,2000-07-08,3729
The Back Seat of My Car,Uncle Albert/Admiral Halsey,1970-10-22,266
The Autumn Offering,Requiem,2010-06-04,2215
The Atomic Mr. Basie,At Newport,1957-10-22,2370
The Association Live,The Association,1970-04-03,4470
The Artistry of Freddie Hubbard,Ready for Freddie,1962-07-02,2560
The Artful Dodger,Dirty Laundry,1995-10-04,3309
The Art of the Improvisers,Crisis,1959-10-09,2718
The Art of The Trio,Cool Struttin',1957-10-13,2285
The Art of Tea,Michael Franks,1975-05-22,2103
The Art in Heaven Concert,Tubular Bells III Live,1999-12-31,4800
The Archive Collection: IQ20,The Seventh House,2002-02-16,7253
The Archaic Course,The Olden Domain,1998-09-05,2266
The Arcanum,Lays from Afar,2000-02-28,2421
The Apartment,The Source,1974-09-08,2893
The Anti Mother,Redeemer,2008-06-15,2677
The Anthology,...And It's Deep Too!,1992-10-17,9389
The Anthology... So Far,I Wanna Be Santa Claus,1989-09-03,12711
The Animals' Christmas,The Art Garfunkel Album,1984-12-23,2487
The Andy Williams Show,Raindrops Keep Fallin' on My Head,1968-03-21,1910
The Ancestors,Songs And Rituals In Real Time,1983-02-19,2679
"The Amazing Bud Powell, Vol. 2",The Genius of Bud Powell,1953-08-14,1440
The Amazing Bud Powell,Jazz Giant,1949-08-08,1620
The Alternate Blues,The Trumpet Summit Meets the Oscar Peterson Big 4,1980-03-10,2401
The All Seeing Eye,Speak No Evil,1965-10-15,2659
The Ahmad Jamal Trio,Ahmad Jamal Plays,1955-10-25,2164
"The Agora, Cleveland 1978",Apollo Theater 3/09/12,1978-08-09,10450
The Afro-Eurasian Eclipse,The Intimate Ellington,1971-02-17,2098
The African Game,Live in an American Time Spiral,1983-06-18,2720
The African Beat,Buhaina's Delight,1962-01-24,2415
"The Africa/Brass Sessions, Volume 2",Live in Japan,1961-06-04,2007
The Adventures of Mimi,Number 1's,2006-10-08,9900
The Adventurer,Inward Fire,1978-02-09,2111
The Abysmal Richness of the Infinite Proximity of the Same,I Could've Been a Drum,1997-04-18,2401
The 59th Street Bridge Song,El Condor Pasa,1966-08-16,116
The 50th Anniversary Collection 1964,The Bootleg Series Vol. 11: The Basement Tapes Complete,1964-11-27,26402
The 50th Anniversary Collection 1963,Bob Dylan: The Complete Album Collection Vol. One,1963-10-26,17290
The 50th Anniversary Collection,Tempest,1962-12-06,16521
The 4 Corners Live,Song Companion,2008-10-25,4789
The 30th Anniversary Concert Celebration,Good as I Been to You,1992-10-16,8904
The 30th Anniversary Concert: Live in Tokyo,In the Midst of Beauty,2010-01-13,5994
The 1989 World Tour Live,1989,2015-11-28,7914
That One Night: Live in Buenos Aires,Rude Awakening,2005-10-09,5902
That Old Feeling,The Natural Seven,0011-05-06,2224
That Night in Toronto,Heksenketel,2004-11-26,6960
That Means a Lot,If You've Got Trouble,1965-02-20,146
That I Would Be Good,So Pure,1999-09-18,247
That Healin' Feelin',You Gotta Take a Little Love,1970-06-18,2183
That Certain Feeling,Got a Good Thing Goin',1968-03-08,2469
ThatPower,Scream & Shout,2012-12-20,279
That's the Way of the World,Another Time,1974-09-16,2303
That's Why I Love You Like I Do,Only Love Can Break a Heart,1968-11-20,116
That's Where It Is!,Straight Ahead!,0013-10-12,1980
That's Where It's At,Good Times,1963-08-20,155
That's Where It's At,ZT's Blues,1962-01-02,2488
That's What Love Is Made Of,I Like It Like That,1964-08-11,178
That's Me,"Money, Money, Money",1976-03-24,196
That's Life,Sinatra at the Sands,1966-11-18,1536
"That's It, I Quit, I'm Movin' On",Sad Mood,1961-01-30,147
That's It!,Cookin',1961-01-06,2596
That's How a Heartache Begins,A Portrait of Patsy Cline,1959-01-08,1890
That'll Be the Day,Buddy Holly,1956-11-15,1506
That'll Be the Day,Words of Love,1956-07-22,136
Thanks for the Feedback,Kudos to You!,2011-02-20,4292
Thank You Lord,Trono de Gracia con Don Moen,2003-10-03,4475
Thank You Girl,Please Please Me,1963-03-05,121
Thank You...Goodnight!,Recover,2001-12-31,4754
Thank God for Mental Illness,Their Satanic Majesties' Second Request,1996-07-11,3815
Thank God I'm a Country Boy,Sweet Surrender,1974-08-26,180
Tex Book Tenor,The In Between,1968-05-24,2254
Tetragon,The Kicker,1967-09-27,2458
Tete!,Music for Perla,1974-05-28,2763
Tes Esat,Orgasm,1970-03-11,2444
Terry Riley: Cadenza on the Night Plain,Monk Suite: Kronos Quartet Plays Music of Thelonious Monk,1984-10-23,4499
Terroristen: Live at the Roxy,Live Cuts,1998-05-30,2242
Terrapin Station,Dick's Picks Volume 8,1990-03-15,10158
Terrapin Station,Steal Your Face,1976-11-02,2138
Tenor Madness,Sonny Rollins Plus 4,1956-05-24,2124
Tenor Legacy,Universal Language,1993-06-18,3969
Tenor,The Willisau Concert,1977-10-08,2103
Tennessee River,My Home's in Alabama,1980-04-16,184
Tenderness,Divine Gemini,1977-02-09,2116
Tender Moments,The Real McCoy,1967-12-01,2280
Ten Years in One Night,Pinheads on the Move,1985-05-07,5397
Ten Years and Running,The Renaissance EP,2002-03-02,2776
Ten Little Indians,Surfin' Safari,1962-08-08,90
Temptations Live!,Greatest Hits,1966-10-03,2865
Tempranillo,McPhee/Parker/Lazro,1995-11-27,2738
Temporal Analogues of Paradise,Abstract Logic,1995-11-27,3539
Temple IV,Scenes from the South Island,1995-01-22,3291
Tempest in the Colosseum,VSOP: The Quintet,1977-07-23,4130
Telluric Chaos,Skull Ring,2004-03-22,4761
Tell Me Why,Teqkilla,2009-11-10,250
Tell Me All About Yourself,A Mis Amigos,0010-11-04,1720
Tell Mama,Call My Name,1967-12-06,1779
Tell It the Way It Is!,Tenor Stuff,1963-09-04,2166
Tell It Like It Tis,After Hours,1961-08-15,2418
Tell It Like It Is,Goodies,1969-04-29,1947
"Tell Balgeary, Balgury Is Dead",Hearts of Oak,2003-07-16,1828
Telekon – Live,Engineers,2006-12-09,2580
Teenagers,I Don't Love You,2006-07-26,161
Teenage Dream,MTV Unplugged,2009-10-13,2642
Teddy's Ready!,Sunset Eyes,1960-08-17,2415
Ted Curson Plays Fire Down Below,Plenty of Horn,1962-12-10,1844
Technodon Live,Technodon,1993-06-11,4212
Technodon,After Service,1992-02-02,3804
Technodelic,BGM,1981-10-13,2609
Tears in the Morning,Slip on Through,1969-11-18,247
Tears for Dolphy,Ted Curson Plays Fire Down Below,1964-08-01,3684
Tears,Axis,1983-05-19,2266
Tearin' Up My Heart,I Want You Back,1996-12-05,210
Tear Drop City,Porpoise Song,1966-10-26,121
Teach Your Children,Woodstock,1969-10-24,173
Taylor's Tenors,Taylor's Wailers,1959-06-03,2177
Tattoo,Up For Breakfast,2012-01-02,284
Tattoo,Odorono,1967-10-12,162
Taru,The Sixth Sense,1968-02-15,2285
Tarik,Look for the Black Star,1969-10-01,2831
Tapping the Vein,Better Off Dead,1992-07-12,2771
Tao-Njia,Kulture Jazz,1995-12-14,2580
Tango Palace,Tears,1983-05-21,2463
Tangled Up in Blue,All Along the Watchtower,1974-12-30,342
Tangled Up Tour,Style,2008-05-17,6120
Tanganyika Strut,Jazz Way Out,1958-06-24,1749
"Tall, Tall Trees",I Don't Even Know Your Name,1995-05-31,148
Talking Out of Turn,The Voice,1980-02-19,252
Talkin' Loud and Sayin' Nothing,I'm a Greedy Man,1970-10-01,195
Talkin' About!,Solid,1964-09-11,2465
Talk to the People,Invitation to Openness,1972-03-30,2645
Talk to the Hand: Live in Michigan,Barenaked Ladies Are Men,2007-06-15,4046
Talk That Talk,Live at the Lighthouse '66,1966-02-07,2287
Talk That Talk,Loud,2011-11-16,2249
Talk Shows on Mute,Megalomaniac,2004-05-25,232
Talk Is Cheap Vol IV,Nights Behind the Tree Line,2004-04-16,9566
Talk Is Cheap Vol III,Talk Is Cheap Vol II,2003-04-23,8097
Talk Is Cheap Vol II,Talk Is Cheap Vol I,2001-04-24,6966
Talk Is Cheap Vol I,Live at the Westbeth Theater,2001-04-23,8020
Talisman: Live in Nagoya,Execution Ground,1994-11-24,2889
Tales of a Courtesan,"Long Yellow Road, Toshiko Akiyoshi - Lew Tabackin Big Band",1975-12-03,2703
Tales of Captain Black,Revealing,1978-12-05,2012
Tales Out of Time,Journey,2002-06-19,3408
Tale Spinnin',Mysterious Traveller,1975-04-04,2581
Taking Chances,On s'est aimé à cause,2007-03-12,242
Taking Care of Business,Meet Oliver Nelson,1960-03-22,2568
Takes to the Hills,I Love the Life I Live,1959-12-21,2251
Take a Number from 1 to 10,Big City Sounds,1961-04-11,2515
Take a Little Trip,Born Country,1992-01-01,197
Take a Chance on Me,One of Us,1977-08-15,232
Take Your Stand,Everybody Ought to Treat a Stranger Right,1929-12-11,182
Take Twelve,Expoobident,1962-01-24,2845
Take These Chains from My Heart,Kaw-Liga,1952-09-23,155
Take That: The Ultimate Tour,Take That: For the Record,2006-06-17,6720
Take Ten,Two of a Mind,0010-06-05,2245
Take Me with U,I Would Die 4 U,1984-01-24,7
Take Love Easy,Newport Jazz Festival: Live at Carnegie Hall,1973-08-28,2258
Take It on the Run,Keep on Loving You,1980-09-18,239
Take It Off!,Turn Me On,1988-07-09,1207
Take Five Live,Book of Ballads,1961-09-06,2237
Tabligh,Wisdom in Time,2005-11-19,3737
TV Eye Live 1977,Kill City,1977-10-26,2161
T-R-O-U-B-L-E,My Boy,1975-03-11,180
Técheöd,Max Meadows,1997-06-29,3472
Sí,Bueninvento,2002-07-13,2103
System of 5,Betwixt,2008-06-10,3196
Symptoms + Cures,Through the Noise,2010-04-08,2397
Symphony of Life,Live: The Onstage Collection,2012-08-05,5400
Symphony of Destruction,Hangar 18,1992-04-28,247
Symphony for Improvisers,Complete Communion,1966-09-19,2340
