col0,col1,col2,col3
S. Port,"Chicago, Illinois",United States,1911-03-07
L. Witte,"Denver, Colorado",United States,1911-04-02
J. Lambert,"Rosston, Arkansas",United States,1971-05-29
J. Dana,"Lafayette, California",United States,1921-12-17
H. Walker,United States,United States,1914-08-08
E. Voss,"Oakland, California",United States,1922-1-1
C. Carmichael,"Charlotte, North Carolina",United States,1902-12-05
B. Cowden,"San Francisco, California",United States,1920-09-06
