col0,col1,col2,col3
A. Zeilinger,Austria,P. Jianwei,1945-05-20
A. J. Leggett,United States,A. Caldeira,1938-03-26
A. S. Tanenbaum,"Amsterdam, Netherlands",F. Kaashoek,1944-03-16
A. Fabian,United Kingdom,C. Crawford,1948-02-20
A. Geim,Manchester,K. Novoselov,1958-10-21
A. Katok,United States,R. J. Spatzier,1944-08-09
A. Church,United States,A. Turing,1903-06-14
A. Nevins,United States,B. Bellush,1890-05-20
A. Ramakrishnan,British Raj,A. P. Balachandran,1923-08-09
A. W. Maurer,Saarbrücken,University of the Saarland,1945-10-03
A. Kleiner,Switzerland,A. Einstein,1849-04-24
A. Stakhov,Canada,PhD,1939-05-07
A. Ghika,Romania,P. Mocanu,1902-06-22
A. Bressan,Pennsylvania,S. Bianchini,1956-06-15
A. Shiryaev,Russia,D. Kramkov,1934-10-12
A. P. Wills,United States,I. I. Rabi,1873-1-1
A. Brudzewski,Poland,N. Copernicus,1445-1-1
A. B. Wood,United Kingdom,M. M. Qurashi,1890-1-1
A. Turing,Wilmslow,R. Gandy,1912-06-23
