col0,col1,col2,col3
The Invaders,Alan Armer,K. Smith,1968-03-26
The Interns,Charles Larson,B. Crawford,1971-09-10
The Inbetweeners,Christopher Young,J. Thomas,2010-10-18
The Impressionable Jon Culshaw,Richard Hearsey,J. Culshaw,2004-03-31
The IT Crowd,FremantleMedia,M. Berry,2013-09-27
The Human Jungle,Julian Wintle,H. Lom,1965-05-13
The Huggabug Club,Audrey Landers,S. Solomon,2000-07-30
The Honourable Woman,Hugo Blick,J. McTeer,2014-08-21
The Hogan Family,Richard Correll,V. Harper,1991-07-20
The Hitchhiker's Guide to the Galaxy,John Lloyd,D. Learner,1981-02-09
The Heroes,Anthony Buckley,J. Bach,1989-04-03
The Heights,Aaron Spelling,J. Walters,1992-11-26
The Hathaways,Ezra Stone,J. Weston,1962-03-30
The Hanging Gale,Jonathan Cavendish,P. McGann,1995-05-23
The Hanged Man,ITV Yorkshire,M. Williams,1975-04-05
The Guns of Will Sonnett,Aaron Spelling,W. Brennan,1969-09-16
The Guild,Felicia Day,F. Day,2013-01-08
The Growing Pains of Adrian Mole,Peter Sasdy,Lulu,1987-02-09
The Gregory Hines Show,Andrew D. Weyman,B. Cobbs,1998-02-27
The Greed of Man,Wai Ka-fai,D. Lau,1992-11-27
The Gray Ghost,Russell Hayden,P. Chambers,1958-07-09
The Governor,Lynda La Plante,A. Scarborough,1996-04-27
The Good Wife,Corinne Brinkerhoff,A. Panjabi,2016-05-08
The Good Life,David Silverman,D. Carey,1994-04-12
The Good Life,John Howard Davies,F. Kendal,1978-06-10
The Good Life,Claudio Guzmán,H. Baddeley,1972-01-08
The Good Guys,Jack Rose,B. Denver,1970-01-23
The Good Daughter,Wilma Galvante,K. Padilla,2012-06-01
"The Good, the Bad and the Ugly",Lee Tim-sing,C. Yun-fat,1979-12-21
The Gnomes of Dulwich,Sydney Lotterby,J. Clive,1969-06-16
The Glittering Prizes,Mark Shivas,T. Conti,1976-02-25
The Glamorous Imperial Concubine,Ruby Lin,R. Lin,2011-10-20
The Glam Metal Detectives,Nira Park,D. Mackichan,1995-04-06
The Girl in My Life,Bill Carruthers,J. Harlan,1974-12-20
The Ghost Squad,Chris Clough,E. Fielding,2005-12-27
The Ghost & Mrs. Muir,Gene Reynolds,R. Shaw,1970-03-13
The George Wendt Show,Lew Schneider,M. C. Lawrence,1995-04-12
The George Burns Show,Rod Amateau,B. Benaderet,1959-04-14
The Gentle Crackdown II,Lau Kar Ho,Y. Cheng,2008-02-15
The Gentle Crackdown,Lau Kar Ho,M. Yim,2005-06-21
The Gem of Life,Jonathan Chik,B. Wong,2009-02-13
The Gastineau Girls,Toy Newkirk,B. Gastineau,2006-02-07
The Gale Storm Show,Hal Roach,Z. Pitts,1960-09-22
The Four Just Men,Sidney Cole,J. Hawkins,1960-08-17
The Fortunes and Misfortunes of Moll Flanders,Rebecca Eaton,A. Kingston,1996-12-09
The Forsyte Saga,Donald Wilson,S. Hampshire,1967-07-01
The Ford Show,Bud Yorkin,T. E. Ford,1961-06-29
The Flying Fox of Snowy Mountain,Wong Tin-lam,P. Tse,1985-12-06
The Flockton Flyer,Colin Nutley,A. Sharp,1978-02-13
The Flaxton Boys,Jess Yates,P. Firth,1973-06-17
The Flash,Gail Morgan Hickman,A. Pays,1991-05-18
The Firm,Anne Low,P. Pek,2007-08-26
The Final Cut,Ken Riddington,I. Richardson,1995-11-26
The Fantastic Journey,Leonard Katzman,C. Franklin,1977-06-17
The Famous Five,Sidney Hayers,G. Russell,1979-08-08
The Family Man,Martha Williamson,A. Molinaro,1991-07-17
The Fall and Rise of Reginald Perrin,John Howard Davies,G. Palmer,1979-01-24
The Fall Guy,Lee Majors,L. Majors,1986-05-02
The Expert,Gerard Glaister,M. Goring,1976-11-26
The Everglades,Budd Schulberg,R. Hayes,1962-06-26
The Eve Arden Show,Edmund Hartmann,E. Arden,1958-03-25
The Erotic Traveler,Tabitha Stevens,K. Lei,2007-04-28
The Entertainers,Joe Hamilton,C. Burnett,1965-03-27
The Emissary,Lee Tim-shing,A. Lau,1983-01-21
The Ellen Burstyn Show,David Frankel,E. Burstyn,1987-09-05
The Eleventh Hour,Sam Rolfe,W. Corey,1964-04-22
The Elephant Princess,Jonathan M. Shiff,L. Hemsworth,2011-10-06
The Edge of Night,Freddie Bartholomew,D. May,1984-12-28
The Edge,Julie Brown,W. Knight,1993-05-02
The Eddy Arnold Show,Charles Harrison Brown,E. Arnold,1952-08-22
The Eddie Fisher Show,Gil Rodin,D. Reynolds,1959-03-17
The Ed Wynn Show,Harlan Thompson,E. Wynn,1950-06-15
The Dumplings,Bernie West,J. Coco,1976-03-31
The Dresden Files,Jack Bernstein,T. Mann,2007-04-15
The Dovekeepers,Alice Hoffman,S. Neill,2015-04-01
The Doris Day Show,Bob Sweeney,D. Day,1973-03-12
The Donna Reed Show,William Roberts,S. Fabares,1966-03-19
The Dick Van Dyke Show,Carl Reiner,R. Marie,1966-06-01
The Devil's Whore,Company Pictures,M. Fassbender,2008-12-10
The Detectives,Levy-Gardner-Laven,R. Taylor,1962-05-18
The Defenders,Bob Markell,E. G. Marshall,1965-05-13
The Debbie Reynolds Show,Jess Oppenheimer,D. Reynolds,1970-04-14
The Dead Zone,Peter Lhotka,A. M. Hall,2007-09-16
The Day of the Triffids,David Maloney,M. Colbourne,1981-10-15
The Dark Side of the Sun,Vere Lorrimer,P. Mower,1983-10-18
The Dark Side of Fame with Piers Morgan,BBC Scotland,T. Emin,2008-10-27
The Danny Thomas Show,Sheldon Leonard,J. Hagen,1964-04-27
The Dance of Passion,Jonathan Chik,C. K. Fai,2006-06-12
The Cut,Geoffrey Goodwin,M. Kane,2010-12-18
The Cup,Sue Vertue,S. Edge,2008-09-25
The Cult,Rachel Gardner,L. Chappell,2009-12-10
The Cube,Jim Henson,R. Schaal,1971-02-21
The Crow Road,Bradley Adams,B. Paterson,1996-11-25
The Crow: Stairway to Heaven,Bryce Zabel,K. Hardison,1999-05-22
The Criminal Investigator II,Jonathan Chik,F. Wong,1996-12-06
The Criminal Investigator,Jonathan Chik,F. Wong,1995-07-29
The Crew,Joey Murphy,L. Davies,1996-06-30
The Court of Last Resort,Elliott Lewis,L. Bettger,1958-04-11
