col0,col1,col2,col3
Wings of the Hawk,Aaron Rosenberg,V. Heflin,4800
Wings of Hope,Lucki Stipetic,J. Koepcke,2940
Wings of Fame,Dick Maas,P. O'Toole,6960
Wings of Destiny,Rupert Kathner,M. Crosby,4080
Wings of Desire,Wim Wenders,P. Falk,7620
Wings of Danger,Anthony Hinds,K. Kendall,4380
Wings of Courage,Jean-Jacques Annaud,V. Kilmer,2400
Wings in the Dark,"Arthur Hornblow, Jr.",C. Grant,4500
Wings for the Eagle,Robert Lord,D. DeFore,5040
Wings Up,First Motion Picture Unit,C. Gable,1200
Wings,Peter Cregeen,J. Hallam,3000
Wings,Jesse L. Lasky,C. Bow,6660
Winged Devils,Franco Cristaldi,B. Bouchet,6120
Winged Creatures,Robert Salerno,G. Pearce,6000
Wing and a Prayer,Walter Morosco,D. Andrews,5520
Wing Chun,Yuen Woo-ping,W. Lee,5580
Wine of Youth,Louis B. Mayer,W. Haines,4320
Wine,Carl Laemmle,M. Stedman,4200
"Wine, Women and Horses",Bryan Foy,A. Sheridan,3840
Windy Riley Goes Hollywood,Jack White,L. Brooks,1080
Windy City Heat,Daniel Kellison,T. Barbieri,5520
Windtalkers,Terence Chang,C. Slater,8040
Winds of September,Eric Tsang,R. Vaughan,6420
Winds of Chance,First National Pictures,B. Lyon,6000
Windrider,Paul Barron,N. Kidman,5520
Window on Main Street,Robert Young,T. Matheson,1440
Windom's Way,John Bryan,P. Finch,6480
Windmills of the Gods,Michael Viner,I. McKellen,11220
Windfall,Robert S. Baker,G. Jackson,4620
Windbag the Sailor,Michael Balcon,W. Hay,5220
Wind and Cloud,Han Sanping,S. Chiba,2700
Wind Chill,Graham Broadbent,E. Blunt,5400
Wind,Francis Ford Coppola,J. Thompson,7560
Winchester '73,Aaron Rosenberg,J. Stewart,5520
Win a Date with Tad Hamilton!,Douglas Wick,S. Hayes,5700
Win Win,Tom McCarthy,P. Giamatti,6360
Wimbledon,Eric Fellner,K. Dunst,5880
Wilt,Brian Eastman,G. R. Jones,5520
Wilson,Darryl F. Zanuck,C. Coburn,9240
Willy Wonka & the Chocolate Factory,David L. Wolper,G. Wilder,5940
Willy McBean and his Magic Machine,"Arthur Rankin, Jr.",P. Soles,5640
Willy,William Spier,J. Havoc,1440
Willow,Joe Johnston,J. Whalley,7560
Willie Mays and the Say-Hey Kid,Jules Bass,E. Wade,3600
Willie Dynamite,Richard D. Zanuck,D. Sands,6120
William Tell,Giorgio Venturini,P. Muller,5460
William Tell,Ralph Scotoni,C. Veidt,5940
William Shatner's Gonzo Ballet,Michael Manasseri,W. Shatner,3600
William S. Burroughs: A Man Within,Scott Crary,D. Cronenberg,5220
William Kurelek's The Maze,DuArt Film and Video,W. Kurelek,3900
William Eggleston in the Real World,Michael Almereyda,W. Eggleston,5040
William's Wish Wellingtons,John Cary,A. Sachs,300
Willard,Glen Morgan,J. Burroughs,6000
Will to Power,Kiko Ellsworth,K. Woodard,6660
Will Work for Food,Authentic Entertainment,A. Gertler,1800
Will Success Spoil Rock Hunter?,Frank Tashlin,T. Randall,5580
Will Penny,Walter Seltzer,B. Dern,6480
Will: G. Gordon Liddy,John Ashley,J. Mahoney,6000
Wildside,Steve Knapman,T. Martin,3000
Wildflowers,Thomas Garvin,D. Hannah,5580
Wilderness,Douglas Rae,T. Kebbell,6600
Wilde,Peter Samuelson,S. Fry,7080
Wildcats,Anthea Sylbert,G. Hawn,6360
Wildcat Bus,Cliff Reid,F. Wray,3840
Wildcat,William C. Thomas,B. Crabbe,4200
Wild on the Beach,Maury Dexter,S. Jackson,4620
Wild in the Streets,Samuel Z. Arkoff,C. Jones,5820
Wild in the Country,Jerry Wald,E. Presley,6840
Wild at Heart,Monty Montgomery,C. Glover,7440
Wild and Wooly,Earl W. Wallace,D. Doyle,6240
Wild and Woolfy,Fred Quimby,T. Avery,420
Wild and Wonderful,Harold Hecht,T. Curtis,5280
Wild Youth,J. Stuart Blackton,T. Roberts,3000
Wild Women,Harry Carey,H. Carey,3000
Wild Wings,Edgar Anstey,P. Scott,2040
Wild Wild Winter,Bart Patton,V. Avery,4800
Wild West Comedy Show: 30 Days and 30 Nights – Hollywood to the Heartland,Peter Billingsley,S. Fitzgerald,6000
Wild Tigers I Have Known,Cam Archer,K. Dickens,4860
Wild Things,Kevin Bacon,K. Bacon,6480
Wild Texas Wind,Howard Rosenman,W. Nelson,5760
Wild Tales,Agustín Almodóvar,É. Rivas,7320
Wild Style,Charlie Ahearn,G. Flash,4920
Wild Strawberries,Allan Ekelund,B. Andersson,5460
Wild Side,John Langley,J. Chen,5760
Wild Search,Ringo Lam,C. Chung,5880
Wild Rovers,Blake Edwards,R. O'Neal,8160
Wild River,Elia Kazan,M. Clift,6600
Wild Reeds,Alain Sarde,É. Bouchez,6600
Wild Poses,Hal Roach,G. Seabrook,1094
Wild Orchid,Mark Damon,A. Serna,6300
Wild Oranges,Goldwyn Pictures,V. Valli,4200
Wild Money,Stuart Walker,E. E. Horton,4260
Wild Man Blues,Jean Doumanian,W. Allen,6300
Wild Life,Executive producer,L. Goy,810
Wild Life,Jean-Pierre Dardenne,M. Kassovitz,6360
Wild Is the Wind,Hal B. Wallis,A. Quinn,6840
Wild Iris,Gary Lucchesi,G. Rowlands,5580
Wild Horse Rodeo,Sol C. Siegel,R. Corrigan,3300
Wild Horse Mesa,Adolph Zukor,J. Holt,5700
Wild Horse Ambush,Rudy Ralston,R. Barcroft,3240
Wild Honey,Carl Laemmle,N. B. Sr.,4260
Wild Hogs,Brian Robbins,M. Lawrence,6000
Wild Hearts Can't Be Broken,Matt Williams,C. Robertson,5280
Wild Harvest,Robert Fellows,D. Lamour,5520
Wild Guitar,"Arch Hall, Sr.",R. D. Steckler,5520
