col0,col1,col2,col3
Pinus brutia,Pinaceae,IUCN2.3,LR/lc
Pinus bhutanica,Pinaceae,iucn3.1,LC
Pinus balfouriana,Pinaceae,IUCN3.1,NT
Pinus ayacahuite,Pinaceae,IUCN2.3,LR/lc
Pinus armandii,Pinaceae,IUCN2.3,LR/lc
Pinus arizonica,Pinaceae,IUCN2.3,LR/lc
Pinus amamiana,Pinaceae,iucn3.1,EN
Pinus albicaulis,Pinaceae,iucn3.1,EN
Pilgerodendron,Cupressaceae,iucn2.3,VU
Picea wilsonii,Pinaceae,IUCN2.3,LR/lc
Picea spinulosa,Pinaceae,IUCN2.3,LR/lc
Picea smithiana,Pinaceae,IUCN2.3,LR/lc
Picea sitchensis,Pinaceae,IUCN2.3,LC
Picea schrenkiana,Pinaceae,IUCN3.1,LC
Picea retroflexa,Pinaceae,IUCN2.3,VU
Picea purpurea,Pinaceae,IUCN3.1,NT
Picea orientalis,Pinaceae,IUCN2.3,LR/lc
Picea omorika,Pinaceae,iucn3.1,EN
Picea obovata,Pinaceae,IUCN3.1,LC
Picea neoveitchii,Pinaceae,IUCN3.1,CR
Picea morrisonicola,Pinaceae,IUCN2.3,VU
Picea meyeri,Pinaceae,IUCN2.3,LR/lc
Picea maximowiczii,Pinaceae,IUCN3.1,EN
Picea martinezii,Pinaceae,iucn3.1,EN
Picea likiangensis,Pinaceae,IUCN3.1,VU
Picea koyamae,Pinaceae,iucn3.1,CR
Picea koraiensis,Pinaceae,IUCN2.3,LR/lc
Picea jezoensis,Pinaceae,IUCN2.3,LR/lc
Picea glehnii,Pinaceae,IUCN2.3,LR/lc
Picea farreri,Pinaceae,IUCN3.1,VU
Picea engelmannii,Pinaceae,IUCN2.3,LR/lc
Picea crassifolia,Pinaceae,IUCN2.3,LR/lc
Picea chihuahuana,Pinaceae,iucn3.1,EN
Picea breweriana,Pinaceae,IUCN3.1,VU
Picea brachytyla,Pinaceae,IUCN2.3,VU
Picea aurantiaca,Pinaceae,IUCN3.1,EN
Picea asperata,Pinaceae,IUCN2.3,LR/lc
Picea alcoquiana,Pinaceae,IUCN2.3,LR/lc
Phyllocladus trichomanoides,Podocarpaceae,IUCN2.3,LR/lc
Phyllocladus toatoa,Podocarpaceae,IUCN2.3,LR/lc
Phyllocladus hypophyllus,Podocarpaceae,IUCN2.3,LR/lc
Phyllocladus aspleniifolius,Podocarpaceae,IUCN2.3,LR/lc
Pherosphaera fitzgeraldii,Podocarpaceae,IUCN3.1,CR
Parasitaxus,Podocarpaceae,IUCN2.3,LR/nt
Papuacedrus,Cupressaceae,IUCN2.3,LR/lc
Nothotsuga,Pinaceae,iucn3.1,NT
Neocallitropsis,Cupressaceae,IUCN3.1,EN
Nageia wallichiana,Podocarpaceae,IUCN2.3,LR/lc
Nageia nagi,Podocarpaceae,iucn3.1,NT
Nageia motleyi,Podocarpaceae,IUCN2.3,LR/lc
Nageia maxima,Podocarpaceae,IUCN3.1,EN
Nageia formosensis,Podocarpaceae,IUCN2.3,DD
Nageia fleuryi,Podocarpaceae,IUCN3.1,NT
Microstrobos niphophilus,Podocarpaceae,IUCN2.3,LR/lc
Microbiota decussata,Cupressaceae,IUCN3.1,LC
Metasequoia glyptostroboides,Cupressaceae,iucn3.1,EN
Manoao,Podocarpaceae,IUCN2.3,LR/lc
Libocedrus yateensis,Cupressaceae,IUCN2.3,VU
Libocedrus plumosa,Cupressaceae,IUCN2.3,LR/nt
Libocedrus chevalieri,Cupressaceae,IUCN3.1,CR
Libocedrus bidwillii,Cupressaceae,IUCN2.3,LR/lc
Libocedrus austrocaledonica,Cupressaceae,IUCN3.1,NT
Lepidothamnus laxifolius,Podocarpaceae,IUCN2.3,LR/lc
Lepidothamnus intermedius,Podocarpaceae,IUCN2.3,LR/lc
Lepidothamnus fonkii,Podocarpaceae,IUCN2.3,VU
Larix × czekanowskii,Pinaceae,IUCN2.3,LR/lc
Larix sibirica,Pinaceae,IUCN2.3,LR/lc
Larix potaninii,Pinaceae,IUCN2.3,LR/lc
Larix olgensis,Pinaceae,IUCN2.3,VU
Larix occidentalis,Pinaceae,IUCN2.3,LR/lc
Larix mastersiana,Pinaceae,IUCN3.1,EN
Larix lyallii,Pinaceae,IUCN2.3,LR/lc
Larix laricina,Pinaceae,iucn2.3,LR/lc
Larix kaempferi,Pinaceae,IUCN2.3,LR/lc
Larix griffithii,Pinaceae,IUCN2.3,LR/lc
Larix gmelinii,Pinaceae,IUCN2.3,LR/lc
Larix decidua,Pinaceae,IUCN2.3,LR/lc
Larix × czekanowskii,Pinaceae,IUCN2.3,LR/lc
Lagarostrobos,Podocarpaceae,IUCN2.3,LR/cd
Knobcone pine,Pinaceae,IUCN2.3,LC
Keteleeria fortunei,Pinaceae,IUCN3.1,nt
Keteleeria evelyniana,Pinaceae,IUCN3.1,VU
Keteleeria davidiana,Pinaceae,IUCN2.3,LR/lc
Juniperus tibetica,Cupressaceae,IUCN2.3,LR/nt
Juniperus thurifera,Cupressaceae,IUCN2.3,LR/lc
Juniperus taxifolia,Cupressaceae,IUCN3.1,DD
Juniperus standleyi,Cupressaceae,IUCN3.1,EN
Juniperus squamata,Cupressaceae,IUCN2.3,LR/lc
Juniperus semiglobosa,Cupressaceae,IUCN2.3,LR/lc
Juniperus scopulorum,Cupressaceae,IUCN2.3,LR/lc
Juniperus saxicola,Cupressaceae,IUCN2.3,VU
Juniperus saltuaria,Cupressaceae,IUCN2.3,LR/lc
Juniperus saltillensis,Cupressaceae,IUCN2.3,LR/lc
Juniperus sabina,Cupressaceae,IUCN2.3,LR/lc
Juniperus rigida,Cupressaceae,IUCN2.3,LR/lc
Juniperus recurva,Cupressaceae,IUCN2.3,LR/lc
Juniperus pseudosabina,Cupressaceae,IUCN2.3,LR/lc
Juniperus przewalskii,Cupressaceae,IUCN2.3,LR/nt
Juniperus procumbens,Cupressaceae,IUCN2.3,LR/lc
Juniperus procera,Cupressaceae,IUCN2.3,LR/nt
Juniperus pingii,Cupressaceae,IUCN2.3,LR/nt
Juniperus pinchotii,Cupressaceae,IUCN2.3,LR/lc
Juniperus phoenicea,Cupressaceae,IUCN2.3,LR/lc
Juniperus oxycedrus,Cupressaceae,IUCN2.3,LR/lc
Juniperus osteosperma,Cupressaceae,IUCN2.3,LR/lc
Juniperus occidentalis,Cupressaceae,IUCN2.3,LR/lc
Juniperus monticola,Cupressaceae,IUCN2.3,LR/lc
Juniperus monosperma,Cupressaceae,IUCN2.3,LR/lc
Juniperus maritima,Cupressaceae,TNC,G3
Juniperus komarovii,Cupressaceae,IUCN2.3,LR/nt
Juniperus jaliscana,Cupressaceae,IUCN3.1,EN
Juniperus indica,Cupressaceae,IUCN2.3,LR/lc
Juniperus horizontalis,Cupressaceae,IUCN2.3,LR/lc
Juniperus gracilior,Cupressaceae,IUCN3.1,EN
Juniperus gamboana,Cupressaceae,IUCN2.3,VU
Juniperus formosana,Cupressaceae,IUCN2.3,LR/lc
Juniperus foetidissima,Cupressaceae,IUCN2.3,LR/lc
Juniperus flaccida,Cupressaceae,IUCN2.3,LR/lc
Juniperus excelsa,Cupressaceae,IUCN2.3,LR/lc
Juniperus durangensis,Cupressaceae,IUCN2.3,VU
Juniperus drupacea,Cupressaceae,IUCN2.3,LR/lc
Juniperus deppeana,Cupressaceae,IUCN2.3,LR/lc
Juniperus convallium,Cupressaceae,IUCN2.3,DD
Juniperus communis,Cupressaceae,IUCN2.3,LR/lc
Juniperus comitana,Cupressaceae,IUCN3.1,EN
Juniperus coahuilensis,Cupressaceae,IUCN3.1,LC
Juniperus chinensis,Cupressaceae,IUCN2.3,LR/lc
Juniperus cedrus,Cupressaceae,iucn3.1,EN
Juniperus californica,Cupressaceae,iucn2.3,LR/lc
Juniperus brevifolia,Cupressaceae,IUCN3.1,VU
Juniperus blancoi,Cupressaceae,IUCN2.3,VU
Juniperus bermudiana,Cupressaceae,iucn2.3,CR
Juniperus barbadensis,Cupressaceae,IUCN2.3,VU
Juniperus ashei,Cupressaceae,IUCN2.3,LR/lc
Juniperus angosturana,Cupressaceae,IUCN2.3,LR/lc
Jeffrey pine,Pinaceae,IUCN2.3,LR/lc
Halocarpus kirkii,Podocarpaceae,IUCN2.3,VU
Halocarpus biformis,Podocarpaceae,IUCN2.3,LR/lc
Halocarpus bidwillii,Podocarpaceae,IUCN2.3,LR/lc
Glyptostrobus pensilis,Cupressaceae,IUCN3.1,CR
Fraser fir,Pinaceae,iucn3.1,EN
Fokienia,Cupressaceae,IUCN2.3,LR/nt
Fitzroya,Cupressaceae,iucn3.1,EN
Falcatifolium taxoides,Podocarpaceae,IUCN2.3,LR/lc
Falcatifolium sleumeri,Podocarpaceae,IUCN3.1,NT
Falcatifolium papuanum,Podocarpaceae,IUCN2.3,LR/lc
Falcatifolium falciforme,Podocarpaceae,IUCN2.3,LR/lc
Falcatifolium angustum,Podocarpaceae,IUCN2.3,VU
Douglas fir,Pinaceae,IUCN2.3,LR/lc
Diselma,Cupressaceae,IUCN2.3,LR/lc
Dacrydium xanthandrum,Podocarpaceae,IUCN2.3,LR/lc
Dacrydium spathoides,Podocarpaceae,IUCN3.1,NT
Dacrydium pectinatum,Podocarpaceae,IUCN2.3,LR/lc
Dacrydium novo-guineense,Podocarpaceae,IUCN2.3,LR/lc
Dacrydium nidulum,Podocarpaceae,IUCN2.3,LR/lc
Dacrydium nausoriense,Podocarpaceae,IUCN3.1,EN
Dacrydium medium,Podocarpaceae,IUCN2.3,LR/lc
Dacrydium magnum,Podocarpaceae,IUCN2.3,LR/nt
Dacrydium lycopodioides,Podocarpaceae,IUCN2.3,LR/cd
Dacrydium leptophyllum,Podocarpaceae,IUCN3.1,VU
Dacrydium guillauminii,Podocarpaceae,IUCN2.3,CR
Dacrydium gracile,Podocarpaceae,IUCN2.3,VU
Dacrydium gibbsiae,Podocarpaceae,IUCN3.1,LC
Dacrydium ericioides,Podocarpaceae,IUCN2.3,VU
Dacrydium elatum,Podocarpaceae,IUCN2.3,LR/lc
Dacrydium cupressinum,Podocarpaceae,IUCN2.3,LR/lc
Dacrydium cornwalliana,Podocarpaceae,IUCN3.1,LC
Dacrydium comosum,Podocarpaceae,IUCN3.1,EN
Dacrydium beccarii,Podocarpaceae,IUCN2.3,LR/lc
Dacrydium balansae,Podocarpaceae,IUCN2.3,LR/lc
Dacrydium araucarioides,Podocarpaceae,IUCN2.3,LR/lc
Dacrycarpus vieillardii,Podocarpaceae,IUCN2.3,LR/lc
Dacrycarpus steupii,Podocarpaceae,IUCN2.3,LR/nt
Dacrycarpus kinabaluensis,Podocarpaceae,IUCN3.1,LC
Dacrycarpus imbricatus,Podocarpaceae,IUCN2.3,LR/lc
Dacrycarpus expansus,Podocarpaceae,IUCN2.3,LR/lc
Dacrycarpus dacrydioides,Podocarpaceae,IUCN2.3,LR/lc
Dacrycarpus cumingii,Podocarpaceae,IUCN2.3,LR/lc
Dacrycarpus compactus,Podocarpaceae,IUCN2.3,LR/lc
Dacrycarpus cinctus,Podocarpaceae,IUCN2.3,LR/lc
Cupressus torulosa,Cupressaceae,IUCN2.3,LR/nt
Cupressus stephensonii,Cupressaceae,IUCN3.1,CR
Cupressus sempervirens,Cupressaceae,IUCN3.1,LC
Cupressus sargentii,Cupressaceae,IUCN3.1,VU
Cupressus nootkatensis,Cupressaceae,iucn2.3,lc
Cupressus nevadensis,Cupressaceae,iucn3.1,EN
Cupressus macrocarpa,Cupressaceae,iucn3.1,VU
Cupressus macnabiana,Cupressaceae,IUCN3.1,LC
Cupressus lusitanica,Cupressaceae,IUCN3.1,LC
Cupressus guadalupensis,Cupressaceae,iucn3.1,EN
Cupressus goveniana,Cupressaceae,IUCN3.1,EN
