col0,col1,col2,col3
Água de Pena,Machico,0,(+351) 291 XXX XXX
Água de Pau,São Miguel Island,0,(+351) 292 XX XX XX
Zambujeira do Mar,Beja District,0,(+351) 283 XX XX XX
"Woodridge, New York","Sullivan County, New York",323,845
Welsberg-Taisten,South Tyrol,1042,474
"Watervliet, New York","Albany County, New York",0,518
Vrútky,Martin District,370,&#43;421-43
Vila do Porto,Santa Maria Island,0,(+351) 292 XXX-XXXX
Vila do Porto,Santa Maria Island,0,(+351) 292 XX XX XX
Vila do Corvo,Corvo Island,0,(+351) 292 XX XX XX
Vila do Bispo,Faro District,0,(+351) 282 XX XX XX
Vila Nova,Terceira Island,0,(+351) 292 XXX XXX
Vila Franca do Campo,São Miguel Island,0,(+351) 296 XX XX XX
Veľký Šariš,Prešov District,255,421-51
Velas,São Jorge Island,0,(+351) 292 XXX-XXXX
Veľký Šariš,Prešov District,255,421-51
Urzelina,São Jorge Island,0,(+351) 292 XX XX XX
Tunes,Faro,0,(+351) 282 XX XX XX
"Troy, New York","Rensselaer County, New York",0,518
Tredozio,Province of Forlì-Cesena,360,546
Topo,São Jorge Island,0,(+351) 292 XXX-XXXX
"Tivoli, New York","Dutchess County, New York",0,845Exchange: 757
Terra Chã,Terceira Island,93,(+351) 292 XXX-XXXX
Sé,Funchal,0,(+351) 291 XXX XXX
São Roque do Pico,Pico Island,0,(+351) 292 XX XX XX
São Roque do Pico,Pico Island,0,(+351) 292 XX XX XX
São Roque,Funchal,140,(+351) 291 XXX XXX
São Pedro,Santa Maria Island,0,(+351) 292 XXX-XXXX
São Mateus,Pico Island,0,(+351) 292 XX XX XX
São João,Pico Island,0,(+351) 292 XX XX XX
São Caetano,Pico Island,0,(+351) 292 XX XX XX
São Brás,Terceira Island,67,(+351) 292 XXX XXX
Sete Cidades,São Miguel Island,261,(+351) 292 XXX-XXXX
Serreta,Terceira Island,0,(+351) 292 XX XX XX
