col0,col1,col2,col3
S. Sebo,1917-1-1,1989-12-1,33–42–2 (college football)
S. Musseau,1923-07-15,1997-12-28,13&ndash;17
S. Hokuf,1910-09-26,2000-07-01,25–27
S. Harrick,1897-0-0,1988-12-07,155&ndash;99&ndash;4 (wrestling)
S. Coutchie,1899-08-06,1983-1-0,2–7–2 (college)
S. Belko,1916-02-14,2000-05-12,288&ndash;262 ()
S. Belichick,1919-01-07,2005-11-19,24–29 (basketball)
S. Grenda,1910-05-23,1971-09-21,4–12
S. Stone,1882-04-18,1926-08-25,1–6 (football)
S. Sutton,1895-08-09,1967-10-0,4–6
S. Marshall,1927-01-08,1980-1-1,16–6–2 (college football)
S. L. Robinson,1890-11-17,1967-07-02,11–7 (baseball)
S. Borleske,1888-08-20,1967-01-03,36–36–7 (football)
S. Watts,1911-08-30,2000-04-06,371–254 ()
S. Sheriff,1932-04-24,1993-01-16,129–101–4
S. Keck,1897-09-11,1951-01-20,17–15–3
S. Galloway,1915-07-01,2000-10-14,84-42-4
S. Cassell,1909-02-08,1966-04-16,4–13–1
S. Nelson,1906-04-02,1998-10-20,5–13
S. Ford,1866-11-21,1927-10-08,2–1–1
S. Keene,1894-07-01,1977-08-24,159–100 (basketball)
S. Walseth,1926-04-06,2004-01-28,291–264 (men's)
S. Grandelius,1929-04-16,2008-04-25,20–11
S. Metzger,1880-12-29,1932-01-18,69–41–8 (football)
S. Madigan,1896-11-18,1966-10-10,119–58–13 (football)
S. Gill,1901-05-01,1966-04-05,599–393  ()
S. Wymard,1890-12-30,1970-6-1,6–3–1
S. Stahley,1908-09-22,1992-06-27,56–85–3
S. Prosser,1950-11-03,2007-07-26,291–146 (.666)
S. F. Pauxtis,1885-07-20,1961-03-13,90–80–10
S. Watson,1932-05-04,2004-04-25,326–210–11
S. Varney,1927-12-22,2011-11-25,24&ndash;36&ndash;2 ()
S. Smith,1912-08-03,2006-02-14,62&ndash;82&ndash;1 ()
S. Majors,1913-05-07,1981-04-05,108–24–2 (high school)
S. Metcalf,1930-12-23,2007-02-08,438–306
S. Walsh,1955-06-21,2001-09-26,399-215-44 ()
S. Scheuerman,1934-05-16,2010-08-30,72–69
S. Shealy,1874-06-01,1929-10-24,3–3–1
S. Jones,1897-02-21,1981-03-06,4–0–1
S. R. Dyche,1893-02-11,1982-10-1,110–93 (basketball)
S. Sezak,1906-05-30,1989-03-21,0–1 (football)
S. M. Hammond,1870-10-24,1934-11-20,7–9–1
S. L. Moyer,1879-04-19,1951-09-09,3–5–1 ()
S. H. Thompson,1875-11-01,1966-02-17,24–18–3
S. Harding,1873-01-19,1919-05-19,6–0
S. Guarnaccia,1908-10-01,2001-07-27,0–8
S. C. Jr.,1868-12-12,1902-07-16,5–2
S. B. Newton,1868-12-04,1932-04-30,76–50–2 (excluding Williams)
S. Williams,1924-06-29,2012-10-22,244–164 (0.598)
S. Thorne,1873-09-19,1930-06-03,13–1
S. T. Timer,1926-12-22,2010-02-10,60–52–3 ()
S. Honaker,1887-03-14,1966-03-21,0–6–2
S. H. Hill,1898-11-20,1978-03-14,19–24–5 (football)
S. Costen,1882-05-18,1955-01-21,7–7–2
S. Boyle,1876-11-28,1923-10-30,29–17–1
S. Boyd,1914-08-12,2001-06-08,15–15–1
S. Barry,1892-12-17,1950-09-23,17–18–5 (football)
S. Miles,1879-06-21,1966-05-02,14–3–2 (football)
S. Goodale,1871-09-16,1931-08-22,6–2–1 ()
S. W. Sponaugle,1915-09-24,1967-04-30,59&ndash;58&ndash;6 ()
S. W. Harrington,1889-04-20,1975-0-0,6-11-0
S. S. Cooke,1879-08-07,1944-05-28,1&ndash;4
S. M. Johnson,1900-01-16,1982-8-0,1-7-1
S. L. Mains,1865-03-31,1934-02-09,4&ndash;5
S. D. Crawford,1881-10-06,1964-02-11,3–5–1
R. Milner,1909-09-24,1999-06-16,67–60 (basketball)
R. Lewis,1895-03-26,1966-10-19,2–5
R. Ellington,1938-02-04,2007-09-01,482-47 (high school)
R. Carrick,1889-08-06,1955-09-13,5–31–2
R. Beichly,1902-10-27,1996-04-20,286–146
R. Rebholz,1908-09-11,2002-08-01,123-105
R. Cohen,1893-02-13,1981-04-07,31–25–4
R. Gilbert,1885-0-0,1962-0-0,"20–39–2 (football, excluding Bradley)"
R. B. Nalley,1870-12-27,1902-11-28,0–6–1
R. Lavik,1892-04-30,1979-09-29,157–163 (basketball)
R. Greene,1905-05-02,1979-02-04,232–216 ()
R. R. Campbell,1886-08-31,1951-12-31,218–120 (basketball)
R. Wynne,1894-03-23,1977-0-0,3–14
R. W. Johnson,1892-09-06,1989-09-20,165–146 (basketball)
R. S. Sr.,1901-09-27,1994-08-20,253–130–1
R. Rubin,1925-12-09,2013-08-05,Long Island: 174–94 ()
R. Randall,1904-04-26,1974-05-18,106–262–3 (baseball)
R. McNeal,1891-06-23,1976-05-25,13–9–5 ()
R. K. Thomas,1887-06-16,1977-05-23,15-8-2
R. Chipman,1957-5-28,1997-08-10,326–160
R. Beechler,1880-10-17,1946-11-14,2–6
R. G. Higginbotham,1898-08-15,1943-05-25,105–116–3
R. MacKechnie,1895-12-24,1967-08-15,7–12–1
R. Fiscus,1870-04-02,1950-11-06,6–9–2
R. Schipper,1928-08-07,2006-03-27,287–67–3 (college)
R. Rogerson,1943-06-27,1987-08-08,26–36–1
R. Mason,1940-01-14,2016-06-13,924&ndash;380&ndash;83 (.696)
R. Fraser,1933-06-25,2013-01-20,"1,271-438-9"
R. Erhardt,1931-02-27,2012-03-21,21–28 (NFL)
R. Chismar,1934-10-23,1998-12-26,8–25 (college)
R. Hamilton,1922-07-29,2005-12-15,0–8–1
R. Greeno,1926-07-08,2010-03-31,154&ndash;83&ndash;2 (football)
R. Reiling,1910-08-24,2000-08-10,1&ndash;6 ()
R. K. Bernard,1916-03-14,1953-06-24,14–21–4
R. Theder,1939-09-22,2016-10-01,18–27 (includes forfeit by Oregon in 1979)
R. Sherman,1872-01-04,1957-01-20,4–4–1
R. Franz,1925-02-08,1999-11-27,0–1
R. Zuppke,1879-07-02,1957-12-22,131–81–12 (college)
R. Winslow,1916-09-18,1994-01-11,12–18–1
R. Whittaker,1904-01-31,1990-06-05,66–50–7
R. White,1912-09-28,1969-08-16,52–49–4
R. V. Whitlow,1918-11-07,1997-07-11,4&ndash;4
R. Park,1880-05-12,1961-11-22,4-6-0 (0.400)
R. Neyland,1892-02-17,1962-03-28,173–31–12
R. Mistele,1920-06-08,2011-09-22,3&ndash;14&ndash;1 ()
R. McNeish,1912-07-15,1999-02-27,1–25–3 (college)
R. L. Mathews,1887-1-1,1947-09-01,15–3 (college baseball)
R. Jackson,1921-10-26,2010-04-14,17–42–4
R. Harris,1886-12-06,1964-7-0,5&ndash;9
R. H. Scott,1930-0-0,2016-9-15,158–55–1
R. Gillis,1926-06-21,2009-04-19,9–15
R. Gailey,1869-11-26,1950-01-21,2–0
R. Fudge,1901-02-03,1955-09-27,1&ndash;4&ndash;1 ()
R. E. Vaughan,1888-12-29,1969-02-18,115–85–24 (football)
R. E. Brannan,1891-11-12,1958-08-06,37–12 (basketball)
R. Duffy,1903-05-13,1974-12-09,6-9-1
R. Duax,1919-10-26,1997-1-1,164–175 (men's college basketball)
R. Cire,1924-03-05,2009-04-10,2–22–1
R. Burch,1886-08-11,1967-11-15,16–8–2
R. Boyers,1876-12-25,1949-08-04,11–6–1
R. Bingham,1888-02-14,1929-03-08,6–3
R. B. Redman,1908-09-06,1960-06-09,38–4 (college)
R. Engle,1906-03-26,1983-03-07,132–68–8 (college football)
R. Marquette,1924-10-03,2008-11-15,101–76 ()
R. Tolley,1940-0-0,1970-11-14,6&ndash;13
R. E. Carter,1943-07-01,1986-02-02,137–58–7 (football)
R. Wackar,1928-02-24,2016-08-15,100–53 (basketball)
R. S. Lyon,1924-10-23,1976-09-23,53–38
R. Peters,1920-04-07,1973-05-26,129-42-3 (0.741)
R. F. Gallagher,1909-10-28,1995-03-29,8–18–2
R. Enright,1901-03-19,1960-04-06,64–69–7 (football)
