col0,col1,col2,col3,col4,col5
G. K. Chesterton,C. Chesterton,St Paul's School,1874-05-29,Gilbert Keith Chesterton,1874-05-29
F. Pascal,M. Stewart,New York University,1938-05-13,Francine Rubin,1938-05-13
F. Blogg,M. M. Heaton,Notting Hill High School,1869-06-28,Frances Alice Blogg,1869-06-28
F. Mowat,O. Mowat,University of Toronto,1921-05-12,Farley McGill Mowat,1921-05-12
E. Merriam,J. Salt,Cornell University,1916-07-19,Eva Moskovitz,1916-07-19
E. Lederer,P. Phillips,Morningside College,1918-07-04,Esther Pauline Friedman,1918-07-04
E. Post,B. Price,Finishing school,1872-10-27,Emily Price,1872-10-27
E. Beskow,E. Beskow,Anna Whitlock,1874-02-11,Elsa Maartman,1874-02-11
D. Syed,G. M. Syed,University of Edinburgh,1940-03-21,Durr-e-Shahwar,1940-03-21
D. Preston,R. Preston,Pomona College,1956-05-20,Douglas Jerome Preston,1956-05-20
D. Merezhkovsky,K. Mereschkowski,Saint Petersburg State University,1865-8-2,Dmitry Sergeyevich Merezhkovsky,1865-8-2
D. Filosofov,A. Filosofova,Saint Petersburg State University,1872-4-7,Dmitry Vladimirovich Filosofov,1872-4-7
D. Boucicault,D. Lardner,University of London,1820-12-26,Dionysius Lardner Boursiquot,1820-12-26
C. Smith,S. Yat-sen,Political science,1913-07-11,Paul Myron Anthony Linebarger,1913-07-11
C. B. Landon,M. Landon,Loyola Marymount University,1975-02-27,Christopher Beau Landon,1975-02-27
C. Matheson,R. C. Matheson,"University of California, Los Angeles",1960-12-11,Christopher David Matheson,1960-12-11
C. Moorehead,A. Moorehead,University of London,1944-10-28,Caroline Mary Moorehead,1944-10-28
A. Klosi,E. Hoxha,University of Tirana,1957-07-09,Ardian Klosi,1957-07-09
A. L. Presser,F. Leiber,Northwestern University School of Law,1960-07-23,Arlynn Merrill Leiber,1960-07-23
A. Beevor,J. J. Norwich,Hampshire,1946-12-14,Antony James Beevor,1946-12-14
A. W. Armstrong,A. A. Lutz,University of Chicago,1872-09-20,Anne Audubon Wetzell,1872-09-20
A. Rice,A. Borchardt,San Francisco State University,1941-10-04,Howard Allen Frances O'Brien,1941-10-04
A. Olsson,O. Olsson,Augustana College,1866-08-19,Anna Olsson,1866-08-19
A. Oakley,R. Titmuss,Bedford College,1944-01-17,Ann Rosamund Titmuss,1944-01-17
A. M. Mowat,F. Mowat,Queen's University,1892-11-19,Angus McGill Mowat,1892-11-19
A. Arlen,Joseph Medill Patterson Albright,Radcliffe College,1940-11-06,Alice Reeve,1940-11-06
"Alfredo d'Escragnolle Taunay, Viscount of Taunay","Félix Taunay, Baron of Taunay",Colégio Pedro II,1843-02-22,Alfredo Maria Adriano d'Escragnolle Taunay,1843-02-22
È. Curie,M. Curie,Collège Sévigné,1904-12-06,Ève Denise Curie,1904-12-06
