col0,col1,col2,col3
Daedalus,Herod,Sweetbriar,"Richard Grosvenor, 1st Earl Grosvenor"
Dactylographer,Bold Ruler,Ribot,S. Niarchos
Cyllene,Bend Or,Isonomy,C. D. Rose
Cum Laude Laurie,Turn-to,Swaps,J. W. Galbreath
Crusader,Fair Play,Star Shoot,S. D. Riddle
Crowned Prince,Native Dancer,Royal Charger,L. C. II
Crepello,Blenheim II,Mieuxce,V. Sassoon
Creole Maid,Phalaris,Man o' War,"Walter M. Jeffords, Sr."
Cravat,Phalaris,Man o' War,C. V. Whitney
Crafty Admiral,Sir Gallahad III,War Admiral,H. F. Guggenheim
Court Martial,Fairway,Hurry On,"Waldorf Astor, 2nd Viscount Astor"
Counterpoint,Reigh Count,Sickle,C. V. Whitney
Cotherstone,Camel,Whisker,J. Bowes
Corrida,Hurry On,Sardanapale,M. Boussac
Coronation,Tourbillon,Tourbillon,M. Boussac
