col0,col1,col2,col3
M. Minić,University of Belgrade,Serb,1914-08-28
M. Bandić,University of Zagreb,Croats,1955-11-22
M. Charasse,Sciences Po,France,1941-07-08
M. Zaleski,University of Warsaw,Poland,1952-07-14
M. Zucchet,Duke University,United States,1969-12-24
M. Zaleski,University of Warsaw,Poland,1952-07-14
M. Rambin,Louisiana State University,United States,1941-10-07
M. O'Connor,San Diego State University,United States,1946-07-14
M. Occhiuto,University of Florence,Italy,1964-01-06
M. Formentini,Vrije Universiteit Brussel,Italians,1930-04-14
M. Daubresse,Institut industriel du Nord,France,1953-08-01
L. Botka,University of Szeged,Hungarian people,1973-02-21
L. Warren,John Jay College of Criminal Justice,United States,1977-07-01
L. Tobback,Vrije Universiteit Brussel,Belgium,1938-05-03
L. Negoiță,University of Bucharest,Romania,1962-03-22
L. Orlando,University of Palermo,Italy,1947-08-01
L. Deslatte,Pineville High School,United States,1946-11-0
L. E. Thomas,Samford University,United States,1866-09-23
L. Hénart,Sciences Po,France,1968-10-15
L. Botka,University of Szeged,Hungarian people,1973-02-21
K. Sheehan,Bowling Green State University,United States,1963-12-05
J. Bruneau,Sciences Po,France,1963-09-07
J. D. Laguna,University of Puerto Rico,Puerto Rican people,1912-07-28
J. E. Sinnott,Case Western Reserve University School of Law,United States,1966-0-0
J. D. Laguna,University of Puerto Rico,Puerto Rican people,1912-07-28
J. V. González,Pontifical Catholic University of Chile,Chilean people,1967-02-08
J. T. Hammons,University of Oklahoma,United States,1988-09-04
J. E. Coon,Louisiana State University,United States,1907-08-10
