col0,col1,col2,col3
USS Tillman,1940-11-26,1918-07-29,1919-07-07
USS Tilefish,1960-05-04,1943-03-10,1943-10-25
USS Tidewater,1971-02-20,1944-11-27,1945-06-30
USS Thurston,1942-09-13,1941-12-09,1942-04-04
USS Thunderbolt,1995-08-05,1994-06-09,1994-12-02
USS Threadfin,1972-08-18,1944-03-18,1944-06-26
USS Thornhill,1951-01-10,1943-10-07,1943-12-30
USS Thornback,1971-07-01,1944-04-05,1944-07-07
USS Thorn,1980-01-21,1977-08-29,1979-02-03
USS Thomas Stone,1942-01-14,1940-08-12,1941-05-01
USS Thomas S. Gates,1987-06-22,1984-08-31,1985-12-14
USS Thomas Jefferson,1942-05-01,1940-02-05,1940-11-20
USS Thomas C. Hart,1973-06-08,1971-10-08,1972-08-12
USS Thomas,1948-12-14,1943-01-16,1943-07-31
USS Thomas,1944-07-16,1918-03-23,1918-07-04
USS Thatcher,1940-09-24,1918-06-08,1918-08-31
USS Teton,1944-10-18,1943-11-09,1944-02-05
USS Terry,1924-06-07,1909-02-08,1909-08-21
USS Terrell County,1977-03-17,1952-03-03,1952-12-06
USS Terrebonne Parish,1971-10-29,1952-01-02,1952-08-09
USS Taylor,1969-07-02,1941-08-28,1942-06-07
USS Taussig,1974-05-06,1943-08-30,1944-01-25
USS Tarawa,1976-05-14,1971-11-15,1973-12-01
USS Tappahannock,1942-05-29,1941-12-24,1942-04-18
USS Tangier,1940-07-08,1939-03-18,1940-09-15
USS Tang,1980-02-08,1949-04-18,1951-06-19
USS Tanager,1964-07-16,1944-03-29,1944-12-09
USS Tamalpais,1948-03-10,1944-09-18,1944-10-29
USS Tallulah,1942-07-30,1941-12-01,1942-06-25
USS Talita,1943-11-05,1943-04-23,1943-05-12
USS Talbot,1967-04-14,1964-05-04,1966-01-06
USS Taconic,1945-03-06,1944-12-19,1945-02-10
USS Tacoma,1945-08-16,1943-03-10,1943-07-07
USS Syrma,1944-03-20,1944-01-10,1944-02-19
USS Symbol,1972-09-19,1941-11-18,1942-07-02
USS Swearer,1950-09-16,1943-08-12,1943-10-31
USS Sway,1973-02-16,1941-11-18,1942-09-29
USS Swasey,1940-11-26,1918-08-27,1919-05-07
USS Swallow,1955-04-16,1943-06-08,1944-01-08
USS Suwannee,1941-06-26,1938-06-03,1939-03-04
USS Sutton,1956-02-02,1943-08-23,1944-08-06
USS Sustain,1959-10-01,1941-11-17,1942-06-23
USS Sussex,1947-02-27,1944-10-03,1945-02-03
USS Sumter,1970-08-01,1967-11-14,1969-12-13
USS Sumter,1943-04-30,1942-04-03,1942-10-04
USS Summit County,1977-02-14,1945-02-10,1945-05-11
USS Suamico,1942-06-27,1941-09-27,1942-05-30
USS Stump,1978-07-24,1975-08-25,1977-01-01
USS Strong,1973-10-31,1943-07-25,1944-04-23
USS Strive,1959-10-01,1941-11-17,1942-05-16
USS Stormes,1972-02-16,1944-02-15,1944-11-04
USS Stockton,1940-10-23,1916-10-16,1917-07-17
USS Stockdale,2008-09-30,2006-08-10,2008-02-24
USS Stickell,1972-07-01,1945-01-05,1945-06-16
USS Sterope,1943-03-27,1941-12-09,1942-02-22
USS Stern,1951-03-01,1943-08-12,1943-10-31
USS Sterett,1967-06-16,1962-09-25,1964-06-30
USS Stembel,1961-08-07,1942-12-21,1943-05-08
USS Stein,1971-12-30,1970-06-01,1970-12-19
USS Steady,1967-08-15,1941-11-17,1942-06-06
USS Starling,1973-02-16,1941-07-01,1942-04-11
USS St. Louis,1951-01-22,1936-12-10,1938-04-15
USS St. Joseph's River,1960-09-15,1945-05-19,1945-06-16
USS St. George,1968-12-11,1943-08-04,1944-02-14
USS Squall,1994-05-09,1993-02-17,1993-08-28
USS Spruance,1975-08-12,1972-11-27,1973-11-10
USS Spot,1962-04-23,1943-08-24,1944-05-19
USS Spoonbill,1959-07-01,1953-11-02,1954-08-03
USS Spica,1921-11-16,1918-06-15,1918-08-08
USS Speed,1967-11-17,1941-11-17,1942-04-18
USS Specter,1973-04-11,1943-09-05,1944-02-15
USS Spear,1972-09-19,1942-10-28,1943-02-25
USS South Carolina,1974-11-15,1970-12-01,1972-07-01
USS Somers,1959-04-01,1957-03-04,1958-05-30
USS Somali,1944-04-09,1943-10-23,1944-02-12
USS Slater,1951-03-01,1943-03-09,1944-02-20
USS Skywatcher,1954-09-20,1944-11-30,1945-01-16
USS Skirmish,1965-01-14,1943-04-08,1943-08-16
USS Skagit,1944-11-28,1944-09-21,1944-11-18
USS Situla,1943-12-02,1943-01-09,1943-02-07
USS Sirocco,1994-03-11,1992-06-20,1993-05-29
USS Sirius,1956-05-18,1942-01-05,1942-04-11
USS Sioux,1973-08-15,1942-02-14,1942-05-27
USS Simpson,1985-09-13,1984-02-27,1984-08-31
USS Signet,1965-01-13,1943-04-08,1943-08-16
USS Sibley,1944-10-02,1944-05-17,1944-07-19
USS Shubrick,1940-11-26,1918-06-03,1918-12-31
USS Shrike,1999-01-11,1995-09-12,1997-05-24
USS Shoveler,1974-05-01,1944-04-01,1944-12-10
USS Shiloh,1992-04-24,1989-08-01,1990-09-08
USS Shields,1972-07-01,1943-08-10,1944-09-25
USS Sheridan,1943-07-31,1942-08-05,1942-11-11
USS Sherburne,1969-10-22,1944-05-18,1944-07-10
USS Shelton,1973-04-18,1945-05-31,1946-03-08
USS Shelter,1964-01-24,1943-08-16,1943-11-14
USS Sheepscot,1944-06-13,1943-12-15,1944-04-09
USS Sheboygan,1947-03-19,1943-04-17,1943-07-31
USS Shawmut,1864-10-16,1863-02-02,1863-04-17
USS Shaula,1943-12-04,1943-10-04,1943-11-23
USS Shasta,1941-04-16,1940-08-12,1941-07-09
