col0,col1,col2,col3
Yester Love,If You Can Want,1967-12-18,136
"Yessir, That's My Baby",Night Rider,1978-02-21,2617
Yesshows,Drama,1976-08-17,4734
Yes We Can,Here I Come,2008-01-31,245
Yes It Is,I Feel Fine,1965-02-16,161
Yes Indeed!,Ray Charles at Newport,1952-09-11,2162
"Yes, I Have No 4 Beat Today",Night and Dream,0003-08-02,3121
Yellow Submarine,Paperback Writer,1966-06-01,158
Yellow Flicker Beat,Glory and Gore,2014-08-29,232
Yellow & Green,Anything Goes,0018-05-17,2204
Yardbird Suite,Mann Alone,1957-05-14,2053
Xu Feng,Live in Sevilla 2000,2000-05-28,4474
X Japan Returns 1993.12.31,X Japan Returns 1993.12.30,1993-12-31,10800
X Japan Returns 1993.12.30,Aoi Yoru Shiroi Yoru Complete Edition,1993-12-30,12000
XM,In Absentia,2002-11-12,3127
XMII,Deadwing,2003-07-21,3044
X-Kid,Stray Heart,2012-06-26,221
X-Cerpts: Live at Willisau,Transparency,1987-01-31,4047
Występ,Las Maquinas de la Muerte,2001-12-16,4260
Wrecking Everything,Bloodletting,2002-03-23,4252
Wrapped Tight,Sonny Meets Hawk!,1965-03-01,2588
Wowee Zowee,"Crooked Rain, Crooked Rain",1994-03-03,3351
Wow/Grape Jam,Moby Grape,1967-08-30,2251
Woven Cord,Heaven's Bright Sun,1999-05-29,4688
