col0,col1,col2,col3,col4
XK,p,BAE48708,314850,P51811
Sucrase-isomaltase,q,3LPO,609845,P14410
Sterol regulatory element-binding protein,p,1am9,184756,P36956
Sialoadhesin,p,2BVE,600751,Q9BZZ2
Relaxin family peptide hormones,p,6RLX,179730,P04090
Relaxin,p,6RLX,179730,P04090
RAR-related orphan receptor,q,1N83,600825,P35398
Protein Z,q,1LP1,176895,P22891
Prolactin receptor,p,1RW5,176761,P16471
P300-CBP coactivator family,p,3biy,600140,Q09472
Neuropilin,p,3I97,602069,O14786
N-acyl phosphatidylethanolamine-specific phospholipase D,q,4QN9,612334,Q6IQ20
Motilin,p,1lbj,158270,P12872
Mitochondrial calcium uniporter,22,Q8NE86,614197,Q8NE86
Macrophage inflammatory protein,q,1B50,182283,P10147
Laforin,q,4RKK,607566,O95278
Ku,q,1JEY,152690,P12956
Interleukin 23,q,1F42,161561,P29460
