col0,col1,col2,col3
Chalone AVA,Central Coast AVA,Pinot noir,1214056
Chalk Hill AVA,Sonoma Coast AVA,Sauvignon gris,4046856
Central Coast AVA,California wine,Cabernet Franc,404685642
Catoctin AVA,Maryland wine,Cabernet Sauvignon,687965591
Carmel Valley AVA,Central Coast AVA,Cabernet Franc,1214056
Capay Valley AVA,California wine,Cabernet Franc,101171
California Shenandoah Valley AVA,Sierra Foothills AVA,Grenache,8093712
Côtes du Rhône AOC,Rhône wine,Grenache,838000000
Côte-Rôtie AOC,Rhône wine,Syrah,2240000
Borden Ranch AVA,California wine,Cabernet Sauvignon,48562277
Bennett Valley AVA,Sonoma Mountain AVA,Chardonnay,2630456
Ben Lomond Mountain AVA,California wine,Cabernet Sauvignon,36421707
Bell Mountain AVA,Texas Hill Country AVA,Cabernet Sauvignon,12949940
Beaujolais,Burgundy wine,Gamay,105000000
Augusta AVA,Missouri wine,Chardonnay,38849821
Arroyo Seco AVA,Central Coast AVA,Grenache,173529203
Arroyo Grande Valley AVA,Central Coast AVA,Pinot blanc,173529203
Applegate Valley AVA,Rogue Valley AVA,Merlot,109265
Ancient Lakes of the Columbia Valley AVA,Columbia Valley AVA,Merlot,7284341
Altus AVA,Arkansas wine,Cabernet Sauvignon,841746135
Alta Mesa AVA,California wine,Cabernet Franc,21448339
Alexander Valley AVA,California wine,Cabernet Franc,60702846
