col0,col1,col2,col3,col4
Death metal,Melodic death metal,Hardcore punk,Groove metal,Blackened death metal
Dancehall,Ragga,Rhythm and blues,Grime music,Oldschool jungle
Country music,Bluegrass music,Blues,Rockabilly,Música sertaneja
Contemporary folk music,Bluegrass music,Folk music,Skiffle,Folk punk
Contemporary Christian music,Christian rock,Pop music,Contemporary worship music,CEDM
Breakbeat,Broken beat,Post-disco,Oldschool jungle,Trip hop
Brazilian rock,Brazilian thrash metal,Blues,Tropicália,Samba rock
Boogie,Electro,Jazz,Funktronica,House music
Blues,Jump blues,Work song,Jazz,Rhythm and blues
Ambient music,Drone music,Electronic music,Trance music,Dark ambient
Alternative rock,Grunge,Hardcore punk,Trip hop,Nu metal
2-step garage,Dubstep,Drum and bass,Grime music,Hardstep
