col0,col1,col2,col3,col4,col5
Č. Kottnauer,Prague,London,1910-02-24,1996-02-14,1910-02-24
É. Karakas,Budapest,Budapest,1922-02-15,1995-05-07,1922-02-15
Z. Doda,Poznań,Poland,1931-02-22,2013-02-08,1931-02-22
Z. Nilsson,Stockholm,Stockholm,1913-07-02,1973-07-01,1913-07-02
Y. Shabanov,Khabarovsk,Moscow,1937-11-11,2010-03-30,1937-11-11
Y. Razuvaev,Moscow,Moscow,1945-10-10,2012-03-21,1945-10-10
Y. Radulski,People's Republic of Bulgaria,Bulgaria,1972-05-24,2013-02-16,1972-05-24
Y. Porat,Breslau,Israel,1909-06-07,1996-05-18,1909-06-07
Y. Byung-in,Republic of China,Joseon Dynasty,1920-05-18,1983-04-03,1920-05-18
Y. Estrin,Moscow,Moscow,1923-04-21,1987-02-02,1923-04-21
W. Unzicker,Pirmasens,Albufeira,1925-06-26,2006-04-20,1925-06-26
W. Heidenfeld,Berlin,Baden-Württemberg,1911-05-29,1981-08-03,1911-05-29
W. Balcerowski,Poland,Poland,1935-08-10,2001-11-09,1935-08-10
W. Winter,Hampstead,England,1898-09-11,1955-12-18,1898-09-11
W. Martz,Detroit,Wisconsin,1945-03-21,1983-01-17,1945-03-21
William H. K. Pollock,Cheltenham,"Clifton, Bristol",1859-02-21,1896-10-05,1859-02-21
W. Steinitz,Kingdom of Bohemia,New York,1836-05-17,1900-08-12,1836-05-17
W. Balcarek,Poland,Poland,1915-12-29,1998-08-30,1915-12-29
W. W. Adams,Massachusetts,New Jersey,1901-04-28,1963-01-06,1901-04-28
W. Browne,Sydney,Las Vegas,1949-01-10,2015-06-24,1949-01-10
V. Osnos,"Luga, Leningrad Oblast",Saint Petersburg,1935-07-24,2009-08-27,1935-07-24
V. Gashimov,Azerbaijan SSR,Germany,1986-07-24,2014-01-11,1986-07-24
V. Petrovs,Latvia,Russian Soviet Federative Socialist Republic,1907-09-27,1943-08-26,1907-09-27
V. Zagorovsky,Voronezh,Voronezh,1925-06-29,1994-11-06,1925-06-29
V. Simagin,Moscow,Kislovodsk,1919-6-21,1968-9-25,1919-6-21
V. Makogonov,Nakhchivan,Baku,1904-08-27,1993-01-02,1904-08-27
V. Bagirov,Azerbaijan SSR,Central Finland,1936-08-16,2000-07-21,1936-08-16
V. Antoshin,Moscow,Moscow,1929-5-14,1994-5-13,1929-5-14
V. Alatortsev,Russian Empire,Moscow,1909-05-14,1987-01-13,1909-05-14
V. Mikėnas,Tallinn,Lithuania,1910-04-17,1992-11-03,1910-04-17
V. Tseshkovsky,USSR,Russia,1944-09-25,2011-12-24,1944-09-25
V. Chekhover,Russia,Leningrad,1908-12-22,1965-02-11,1908-12-22
V. Korchnoi,Soviet Union,Switzerland,1931-03-23,2016-06-06,1931-03-23
V. Gavrikov,Soviet Union,Bulgaria,1957-07-29,2016-04-27,1957-07-29
V. Soultanbeieff,Russian Empire,Liège,1895-11-11,1972-02-09,1895-11-11
V. Ciocâltea,Bucharest,Barcelona,1932-01-16,1983-09-10,1932-01-16
V. Buerger,Ukraine,UK,1904-01-29,1996-0-0,1904-01-29
V. Ragozin,Imperial Russia,Moscow,1908-10-08,1962-03-11,1908-10-08
