col0,col1,col2,col3
J. M. Fernández,Left,1988-4-27,Right
J. J. Ruiz,Left,1984-6-9,Left
J. Félix,Both,1988-6-28,Right
J. Cruz,Both,1984-9-4,Right
J. Cobos,Right,1980-10-11,Right
J. Castro,Right,1958-5-5,Right
J. Roberts,Left,1986-7-17,Right
J. Sullivan,Right,1984-7-5,Right
J. Sale,Left,1991-7-5,Right
J. Romanski,Left,1986-10-18,Left
J. Naylor,Left,1997-6-22,Left
J. Hader,Left,1994-4-7,Left
J. Davies,Right,1985-9-12,Right
J. Bell,Switch,1992-8-14,Right
J. M. Fernández,Left,1988-4-27,Right
J. J. Ruiz,Left,1984-6-9,Left
J. Félix,Both,1988-6-28,Right
J. Cruz,Both,1984-9-4,Right
J. Cobos,Right,1980-10-11,Right
J. Castro,Right,1958-5-5,Right
J. Bert,Left,1987-5-16,Left
J. Vázquez,Right,1982-3-15,Right
J. Reyes,Switch,1987-12-7,Right
J. Montgomery,Left,1992-12-27,Left
J. Lennerton,Left,1986-2-16,Left
J. Rodriguez,Left,1989-8-21,Right
J. Malo,Right,1983-9-29,Right
J. Lockwood,Right,1981-12-12,Right
J. Isenia,Right,1993-3-31,Right
J. Weber,Left,1978-1-20,Left
J. Debus,Right,1958-8-31,Right
J. Balentina,Right,1971-8-8,Right
J. Suomi,Left,1980-10-5,Right
J. Shoemaker,Left,1956-8-18,Right
J. Mariotti,Left,1984-8-19,Right
J. Hudgins,Right,1981-8-31,Right
J. Fitzpatrick,Right,1904-3-19,Right
J. Fiscalini,Right,1925-2-25,Unknown
"J. "". Miles",Right,1922-8-11,Right
J. Newby,Right,1982-3-8,Right
J. Eijpe,Left,1988-1-17,Left
Joel De La Cruz,Switch,1989-6-9,Right
J. Vavra,Left,1959-11-16,Right
J. Fitzgerald,Right,1897-3-17,Right
J. Espada,Right,1975-8-30,Right
J. Camacho,Right,1928-5-29,Right
J. Williams,Right,1926-5-25,Right
J. V. Ostrand,Right,1984-8-7,Right
J. Rantz,Right,1938-2-24,Right
J. Negrych,Left,1985-3-2,Right
J. Lett,Right,1951-1-3,Right
J. Kavourias,Right,1979-10-4,Right
J. Dobson,Right,1939-1-1,Right
J. Bragan,Right,1929-3-12,Right
J. Delong,Right,1985-7-4,Right
J. Merchán,Right,1981-3-26,Right
J. Golindano,Right,1984-1-13,Right
J. Castillo,Right,1984-5-31,Right
J. Biddle,Left,1991-10-22,Left
J. Merchán,Right,1981-3-26,Right
J. Golindano,Right,1984-1-13,Right
J. Castillo,Right,1984-5-31,Right
J. Weinstein,Right,1943-11-9,Right
J. Thomas,Right,1935-1-1,Right
J. Bleich,Left,1987-6-18,Left
J. Tseng,Left,1994-10-3,Right
J. Pentland,Left,1946-9-18,Left
J. Livesey,Right,1966-5-24,Right
J. Hoffman,Right,1993-1-8,Right
J. Bradley,Left,1990-6-12,Left
J. Tingler,Left,1980-11-28,Left
J. Johnson,Right,1989-12-21,Left
J. Rakkar,Right,1991-4-27,Right
J. Krizan,Left,1989-6-28,Right
J. Knapp,Right,1990-8-31,Right
J. Martin,Left,1989-8-14,Left
J. Long,Right,1991-8-28,Right
J. García,Left,1993-1-18,Left
J. Mitchell,Left,1988-10-13,Left
J. Gallagher,Left,1985-9-3,Left
J. Avery,Right,1984-6-10,Right
J. Smith,Right,1983-6-5,Right
J. Reed,Right,1992-9-29,Right
J. Lowery,Left,1990-7-21,Right
J. Lemmerman,Right,1989-5-4,Right
J. Esch,Right,1990-3-27,Right
J. Bauers,Left,1995-10-6,Left
J. Schultz,Right,1991-6-20,Right
J. Ha,Right,1990-10-29,Right
J. Nix,Right,1996-1-9,Right
J. Hannemann,Left,1991-4-29,Left
J. Santora,Switch,1976-10-6,Right
J. Murphy,Switch,1988-4-6,Right
J. Maloof,Left,1948-10-12,Left
J. Fry,Left,1993-7-9,Left
J. Jones,Right,1992-5-10,Right
J. T. Wise,Right,1986-6-2,Right
J. T. Chargois,Right,1990-12-3,Right
J. P. Crawford,Left,1995-1-11,Right
J. C. Sulbaran,Right,1989-11-9,Right
J. B. Cox,Left,1984-5-13,Right
I. Granados,Left,1985-9-30,Left
I. Clarkin,Left,1995-2-14,Left
I. Januario,Left,1993-1-20,Right
H. Renfroe,Right,1992-1-28,Right
H. Harvey,Right,1994-9-2,Right
H. Kanabushi,Left,1989-5-22,Left
Houston Astros minor league players,Left,1990-11-17,Left
H. Ogawa,Right,1940-1-25,Right
H. Gilroy,Unknown,1852-0-0,Unknown
H. Parker,Right,1947-9-14,Right
H. Dunlop,Left,1933-9-6,Right
H. Bader,Right,1994-6-3,Right
H. Lee,Left,1990-11-4,Right
H. Statia,Switch,1986-1-19,Right
G. Ritchie,Left,1964-1-25,Left
G. Nappo,Left,1988-8-25,Left
G. Holmes,Right,1996-3-22,Right
G. Holt,Right,1902-3-22,Right
G. Davis,Right,1991-12-7,Right
G. Gregson,Right,1950-2-10,Right
G. Chiaramonte,Right,1976-2-19,Right
G. Stanton,Right,1989-11-8,Right
G. Alvarado,Right,1978-1-24,Right
G. Cecchini,Right,1993-12-22,Right
G. LaRocque,Left,1953-1-1,Right
G. Denbo,Right,1960-12-9,Right
G. Stubbs,Left,1993-5-26,Right
G. Asakura,Right,1988-11-12,Right
G. Suárez,Right,1984-12-14,Right
F. Hanvi,Right,1989-5-2,Right
F. Ehlen,Unknown,1851-9-12,Unknown
F. Koenig,Right,1931-4-27,Right
F. Barreto,Right,1996-2-27,Right
F. V. III,Right,1984-6-19,Right
F. Oceak,Right,1912-9-8,Right
F. Genovese,Left,1914-11-23,Right
F. Batista,Right,1989-4-26,Right
F. Hanvi,Right,1989-5-2,Right
F. Burin,Left,1992-2-10,Right
F. Castañeda,Right,1984-11-24,Right
E. Rojas,Right,1967-8-25,Right
E. González,Right,1991-8-31,Right
E. Sánchez,Right,1975-4-12,Right
E. Stamets,Right,1991-9-25,Right
E. Jagielo,Left,1992-5-17,Right
E. González,Right,1986-9-5,Right
E. Frostad,Left,1983-1-13,Right
E. Salem,Left,1985-2-11,Left
E. Navarro,Left,1987-10-26,Left
E. Ai,Right,1964-9-29,Right
E. Nieves,Left,1989-11-15,Left
E. Arredondo,Left,1984-10-15,Left
E. Reynoso,Right,1975-11-10,Right
E. Rodríguez,Right,1959-3-11,Right
E. Sedar,right,1961-8-8,right
D. Covey,Right,1991-8-14,Right
D. Peterson,Right,1994-9-10,Right
D. Molleken,Left,1984-8-21,Right
D. Majewski,Left,1981-8-16,Left
