col0,col1,col2,col3
X-Cerpts: Live at Willisau,Herb Robertson,Transparency,4047
X&Y,Coldplay,Coldplay Live 2003,3750
X∞Multiplies,Yellow Magic Orchestra,Public Pressure,1816
Würst,KMFDM Records,"Extra, Vol. 3",4366
Wünsch DIR was,Die Toten Hosen,Sascha ...ein aufrechter Deutscher,255
Wytches and Vampyres,Inkubus Sukkubus,The Beast with Two Backs,4332
Występ,Kazik Na Żywo,Las Maquinas de la Muerte,4260
Wyspa dzieci,2 Plus 1,Nowy wspaniały świat,2225
Wyrd,Elvenking,Heathenreel,3458
Wynton Kelly!,Wynton Kelly,Kelly at Midnight,2067
Wynonna & the Big Noise,Wynonna Judd,Love Heals,3060
Wynona's Big Brown Beaver,Primus,Mr. Krinkle,263
Www.tism.wanker.com,TISM,Machiavelli and the Four Seasons,3415
Www.pitchshifter.com,Pitchshifter,Infotainment,3110
Www.memory,Alan Jackson,It Must Be Love,156
Wussy,Wussy,Left for Dead,2534
Wusappaning?!,Home Grown,That's Business,842
Wurd Becomes Flesh,Otep,House of Secrets,2062
Wunschkind,Oomph!,Defekt,3356
Wundwasser,Eisregen,Farbenfinsternis,2690
Wunder gescheh'n,Nena,Eisbrecher,2280
Wu-Tang Forever,Wu-Tang Clan,Enter the Wu-Tang,2640
