col0,col1,col2,col3,col4
Wood Lake,British Columbia,British Columbia,21,34
Tatla Lake,British Columbia,British Columbia,10,38
Taseko Lakes,British Columbia,British Columbia,43,110
Skaha Lake,British Columbia,British Columbia,26,56
Quesnel Lake,British Columbia,British Columbia,157,610
Nimpo Lake,British Columbia,British Columbia,30,27
Ness Lake,British Columbia,British Columbia,6,18
Gander Lake,Newfoundland and Labrador,Newfoundland and Labrador,105,288
Eagle Lake,British Columbia,British Columbia,17,48
Charlotte Lake,British Columbia,British Columbia,40,100
Canim Lake,British Columbia,British Columbia,84,208
