col0,col1,col2,col3,col4
H. Bezdek,Austria-Hungary,"Atlantic City, New Jersey",1884-04-01,2–1
H. Jones,"Excello, Ohio","Toluca Lake, Los Angeles",1885-08-23,5–0
H. Elliott,"Miami County, Kansas","Lubbock, Texas",1931-12-24,0–1
G. Sauer,"Stratton, Nebraska","Waco, Texas",1910-12-11,0–3
F. Lauterbur,Cincinnati,"Toledo, Ohio",1925-08-08,2–0
E. Doherty,"Andover, Massachusetts","Tucson, Arizona",1918-07-25,0–2
D. DeGroot,Chicago,"El Cajon, California",1899-11-10,1–0
D. James,"Massillon, Ohio","Kirkland, Washington",1932-12-31,10–5
D. Devine,"Augusta, Wisconsin","Tempe, Arizona",1924-12-22,7–3
D. Boisture,"Detroit, Michigan","Wyandotte, Michigan",1925-02-22,0-1
