col0,col1,col2,col3,col4
Final Fantasy VIII,Shinji Hashimoto,K. Nojima,Y. Naora,N. Uematsu
Final Fantasy VII,Hironobu Sakaguchi,K. Nojima,Y. Naora,N. Uematsu
Final Fantasy Tactics Advance,Yasumi Matsuno,J. Akiyama,A. Yoshida,N. Uematsu
Final Fantasy Tactics,Hironobu Sakaguchi,Y. Matsuno,A. Yoshida,H. Sakimoto
Final Fantasy III,Masashi Miyamoto,K. Terada,Y. Amano,N. Uematsu
Final Fantasy II,Masashi Miyamoto,K. Terada,Y. Amano,N. Uematsu
Fallout 3,Todd Howard,E. Pagliarulo,A. Adamowicz,I. Zur
Fallout 2,Brian Fargo,T. Cain,J. Anderson,M. Morgan
Day of the Tentacle,Dave Grossman,D. Grossman,L. Ahern,C. Bajakian
Crash Bandicoot 2: Cortex Strikes Back,Mark Cerny,J. Rubin,C. Zembillas,J. Mancell
Crash Bandicoot: Warped,Roppyaku Tsurumi,J. Rubin,C. Zembillas,J. Mancell
Code Age Commanders: Tsugu Mono Tsuga Reru Mono,Yusuke Naora,Y. Naora,Y. Naora,K. Tanioka
Code Age Brawls,Yusuke Naora,Y. Naora,Y. Naora,K. Tanioka
Chrono Trigger,Kazuhiko Aoki,Y. Horii,A. Toriyama,N. Uematsu
Chrono Cross,Hiromichi Tanaka,M. Kato,N. Yūki,Y. Mitsuda
Castlevania: Lament of Innocence,Koji Igarashi,K. Igarashi,A. Kojima,M. Yamane
Castlevania: Harmony of Dissonance,Koji Igarashi,K. Igarashi,A. Kojima,M. Yamane
Castlevania: Curse of Darkness,Koji Igarashi,K. Igarashi,A. Kojima,M. Yamane
Castlevania: Aria of Sorrow,Koji Igarashi,K. Igarashi,A. Kojima,M. Yamane
