col0,col1,col2,col3
SAS Spioenkop,Simonstown,2002-02-28,2003-08-02
SAS Spear,Simon's Town,1968-03-14,1969-03-18
SAS President Steyn,Simonstown,1960-04-20,1961-11-23
SAS President Pretorius,Simonstown,1961-11-21,1962-09-28
SAS Assegaai,Simon's Town,1969-04-24,1970-07-21
Río Segura,Cádiz,2010-04-18,2011-02-26
Russian submarine Verkhoturye,Gadzhievo,1981-02-23,1984-03-07
Russian submarine Vepr,Gadzhievo,1990-06-16,1994-12-10
Russian submarine Tula,Gadzhiyevo,1984-02-22,1987-01-22
Russian submarine Novomoskovsk,Olenya Bay,1988-03-04,1990-02-28
Russian submarine Bryansk,Sayda Bay,1985-04-20,1988-02-08
Russian destroyer Admiral Levchenko,Russian Northern Fleet,1982-01-27,1985-02-21
RV Sonne,Wilhelmshaven,2013-04-12,2014-04-05
ROCS Yueh Fei,Tsoying,1992-09-05,1994-08-26
RMS Amazon,Port of Southampton,1850-09-01,1851-06-28
RMAS Salmoor,HMNB Clyde,1985-01-10,1985-05-25
Río Segura,Cádiz,2010-04-18,2011-02-26
PNS Behr Paima,Karachi,1982-02-16,1982-07-07
ORP Sokół,Gdynia,1966-04-01,1966-09-02
Natick,"Norfolk, Virginia",1960-09-01,1961-02-28
NRP Bérrio,Lisbon Naval Base,1968-12-30,1969-11-11
NOAAS Thomas Jefferson,Virginia,1989-10-25,1991-02-14
NOAAS Reuben Lasker,California,2011-06-21,2012-06-16
NOAAS Oceanographer,"Seattle, Washington",1963-07-22,1964-04-18
NOAAS McArthur,Virginia,1965-07-15,1965-11-15
NOAAS Henry B. Bigelow,"Newport, Rhode Island",2004-05-21,2005-07-08
NOAAS Fairweather,Alaska,1963-08-12,1967-03-15
NOAAS Discoverer,"Miami, Florida",1963-09-10,1964-10-29
NOAAS Bell M. Shimada,Oregon,2007-06-15,2008-09-26
NNS Thunder,Naval Base San Diego,1966-10-26,1967-05-20
MY Sam Simon,"Maizuru, Kyoto",1992-04-06,1992-08-11
MV Tulpar,Kazakhstan,2002-01-31,2002-04-13
MV Pentowna,Kelowna,1926-05-13,1926-06-20
MV Coastal Renaissance,"Departure Bay, British Columbia",2007-01-02,2007-04-19
MV Coastal Inspiration,"Duke Point, British Columbia",2007-04-23,2007-08-31
MV Coastal Celebration,"Swartz Bay, British Columbia",2007-09-01,2007-12-14
MS UND Adriyatik,Constantinople,2001-04-02,2001-06-29
MS Merchant Brilliant,Jamaica,1978-05-01,1979-04-01
MS Allure of the Seas,Port Everglades,2008-12-02,2009-11-20
LÉ Eithne,Haulbowline,1982-12-15,1983-12-19
Keokuk,Portsmouth Naval Shipyard,1963-12-05,1964-05-21
Japanese support ship Suo,"Yokosuka, Kanagawa",2002-09-19,2003-04-25
Japanese support ship Genkai,"Kure, Hiroshima",2006-11-07,2007-05-24
Japanese support ship Enshu,"Yokosuka, Kanagawa",2006-12-19,2007-08-09
Japanese submarine I-51,Kure Naval District,1921-04-06,1921-11-29
Japanese submarine I-152,Kure Naval District,1922-02-14,1923-06-12
Japanese minesweeper No. 8,"Sasebo, Nagasaki",1937-12-11,1938-05-28
Japanese minesweeper No. 7,"Sasebo, Nagasaki",1937-10-27,1938-06-16
Japanese minesweeper No. 10,"Sasebo, Nagasaki",1937-12-21,1938-09-22
Japanese icebreaker Shirase,Yokosuka,2007-03-15,2008-04-16
Japanese icebreaker Shirase,Yokosuka,1981-03-05,1981-12-11
Japanese destroyer Uranami,"Yokosuka, Kanagawa",1957-02-01,1957-08-29
Japanese destroyer Fuyutsuki,Yokosuka Naval District,1943-05-08,1944-01-20
JS Ōnami,"Yokosuka, Kanagawa",2000-05-17,2001-09-20
JS Takanami,"Yokosuka, Kanagawa",2000-04-25,2001-07-26
JS Suzunami,Aomori Prefecture,2003-09-24,2004-08-26
JS Sazanami,"Kure, Hiroshima",2002-04-04,2003-08-29
JS Murasame,"Yokosuka, Kanagawa",1993-08-18,1994-08-23
JS Makinami,Aomori Prefecture,2001-07-17,2002-08-08
JS Hiuchi,"Kure, Hiroshima",2001-01-18,2001-09-04
JS Amakusa,"Sasebo, Nagasaki",2002-12-03,2003-08-06
JS Ōnami,"Yokosuka, Kanagawa",2000-05-17,2001-09-20
JDS Ōsumi,"Kure, Hiroshima",1995-12-06,1996-11-18
JDS Yamayuki,"Kure, Hiroshima",1983-02-25,1984-07-10
JDS Shirane,"Sasebo, Nagasaki",1977-02-25,1978-09-18
JDS Shimokita,"Kure, Hiroshima",1999-11-30,2000-11-29
JDS Kunisaki,"Kure, Hiroshima",2000-09-07,2001-12-13
JDS Kashima,Kure,1993-04-20,1994-02-23
JDS Ise,"Yokosuka, Kanagawa",2008-05-30,2009-08-21
JDS Hyūga,"Maizuru, Kyoto",2006-05-11,2007-08-23
JDS Amatsukaze,"Yokosuka, Kanagawa",1962-11-29,1963-10-05
JDS Ōsumi,"Kure, Hiroshima",1995-12-06,1996-11-18
Italian submarine Brin,Taranto,1936-12-03,1938-04-03
Italian destroyer Caio Duilio,La Spezia,2003-09-19,2007-10-23
Italian cruiser Vittorio Veneto,Taranto,1965-06-10,1967-02-05
Italian cruiser Giuseppe Garibaldi,Taranto,1933-12-28,1936-04-21
Italian aircraft carrier Giuseppe Garibaldi,Taranto,1981-03-26,1983-06-11
Italian aircraft carrier Cavour,La Spezia,2001-07-17,2004-07-20
Iranian frigate Alvand,Bandar-Abbas,1968-03-03,1968-07-25
Iranian frigate Alborz,Bandar-Abbas,1968-03-03,1969-03-04
INS Viraat,HMNB Portsmouth,1944-06-21,1953-02-16
INS Vikramaditya,Karwar,1978-02-17,1982-04-01
INS Sarayu,Trincomalee,1988-06-25,1989-10-16
INS Kamorta,Visakhapatnam,2006-11-20,2010-04-19
INS Jalashwa,Visakhapatnam,1966-08-08,1968-08-03
HTMS Chakri Naruebet,Sattahip,1994-07-12,1996-01-20
HSwMS Uppland,Sweden,1994-10-21,1996-09-27
HSwMS Halland,Sweden,1994-01-14,1996-02-19
HSwMS Gotland,Sweden,1992-10-10,1995-02-02
HSC Adriana,"Rijeka, Croatia",1991-07-01,1992-04-01
HNLMS Karel Doorman,Puerto Belgrano,1942-12-03,1943-12-30
HNLMS Johan de Witt,Den Helder,2003-06-18,2006-05-13
HNLMS Buffel,Den Helder,1867-06-10,1868-03-10
HMS Yarmouth,Scotland,1957-11-29,1959-03-23
HMS Wolverine,Sydney,1859-04-14,1863-08-29
HMS Westminster,Portsmouth,1991-01-18,1992-02-04
HMS Vigilant,HMNB Clyde,1991-02-16,1995-10-14
HMS Victory,England,1759-07-23,1765-05-07
HMS Victorious,HMNB Clyde,1987-12-03,1993-09-29
HMS Vengeance,HMNB Clyde,1993-02-01,1998-09-19
HMS Venerable,Puerto Belgrano,1942-12-03,1943-12-30
HMS Vanguard,Argyll,1986-09-03,1992-03-04
HMS Turbulent,Plymouth,1980-05-08,1982-12-01
HMS Triumph,Plymouth,1987-02-02,1991-02-16
HMS Trenchant,Plymouth,1985-10-28,1986-11-03
HMS Trafalgar,Plymouth,1979-04-15,1981-07-01
HMS Torbay,Plymouth,1982-12-03,1985-03-08
HMS Tireless,Plymouth,1981-06-06,1984-03-17
HMS Talent,Plymouth,1986-05-13,1988-04-15
HMS Sutherland,Plymouth,1993-10-14,1996-03-09
HMS St Albans,Portsmouth,1999-04-18,2000-05-06
HMS Southampton,HMNB Portsmouth,1976-10-21,1979-01-29
HMS Somerset,Plymouth,1992-10-12,1994-06-25
HMS Sceptre,Faslane,1974-02-19,1976-11-20
HMS Queen Elizabeth,HMNB Portsmouth,2009-07-07,2014-07-17
HMS Protector,Bergen,2000-09-30,2001-07-21
HMS Portland,Plymouth,1998-01-14,1999-05-15
HMS Pickle,Trincomalee,1943-01-11,1943-08-03
HMS P38,Malta,1940-09-02,1941-07-09
HMS Onslow,Karachi,1940-07-01,1941-03-31
HMS Ocean,Plymouth,1994-05-30,1995-10-11
HMS Nottingham,HMNB Portsmouth,1978-02-06,1980-02-18
HMS Northumberland,Plymouth,1991-04-04,1992-04-04
HMS Norfolk,HMNB Devonport,1985-12-14,1987-07-10
HMS Niger,Dover,1935-04-01,1936-01-29
HMS Montrose,Plymouth,1989-11-01,1992-07-31
HMS Monmouth,Plymouth,1989-06-01,1991-11-23
HMS Loch Achray,Auckland,1943-12-13,1944-07-07
