col0,col1,col2,col3
C. Blakeney,Brisbane,W. Newcome,1876-01-12
C. B. Peatross,Louisiana,"George W. Hardy, Jr.",2015-01-28
C. A. FitzRoy,England,R. FitzRoy,1858-02-16
C. A. Sulzer,Territory of Alaska,W. Sulzer,1919-04-28
C. A. Eaton,"Washington, D.C.",C. S. Eaton,1953-01-23
C. A. Wickliffe,"Ilchester, Maryland",D. L. Yulee,1869-10-31
C. A. Stevens,New York,I. Stevens,1892-04-07
C. R. Jr,Montreal,C. Rodier,1890-01-26
C. Gill,Montreal,L. Senécal,1901-09-16
C. Pouliot,Rivière-du-Loup,J. Pouliot,1897-06-24
C. Weizmann,Israel,M. Weizmann,1952-1-19
C. Rhodes,South Africa,Reverend,1902-03-26
C. Morgan,Louisiana,R. Howell,1999-06-15
C. Fitzroy,Havelock North,W. Beetham,1917-1-1
C. Bramwell-Booth,Berkshire,Generals of The Salvation Army,1987-10-03
C. Wason,London,P. C. Wason,1921-04-19
C. Brugha,Dublin,R. Brugha,1922-07-07
C. Gzowski,Ontario,P. Gzowski,1898-08-24
C. H. Mallarino,Bogotá,M. M. Mallarino,1894-10-19
C. W. Bauer,Louisiana,R. N. Bauer,2013-06-11
C. Pouliot,Quebec,J. Pouliot,1967-04-22
C. Wilson,Ontario,R. Mackay,1962-03-03
C. Breckinridge,"Frankfort, Kentucky",J. Breckinridge,1823-09-01
"C. H. ""Sammy"" Downs","Alexandria, Louisiana",U. T. Downs,1985-05-14
C. Bergevin,Salaberry-de-Valleyfield,A. Bergevin,1910-07-17
B. Aquino,Manila,C. Aquino,2015-08-17
B. L. Snr,Ireland,B. L. Jnr,1995-11-01
B. L. Jnr,Dublin,B. L. Snr,2011-06-10
B. Hansen,Australia,M. Hansen,1999-12-19
B. Laskin,Ontario,S. Laskin,1984-03-26
B. Stenehjem,"Homer, Alaska",W. Stenehjem,2011-07-18
B. Yibo,Beijing,B. Guagua,2007-01-15
B. Ballard,"Louisville, Kentucky",B. Ballard,1879-07-29
B. w. Mutharika,Malawi,P. Mutharika,2012-04-05
B. Glasson,Queensland,B. Glasson,2012-03-20
B. Cleveland,Louisiana,P. Dean,1974-12-16
B. Chaffey,Australia,F. Chaffey,1987-03-04
B. Anderton,Auckland,R. Douglas,1966-01-20
B. Thapa,Kathmandu,J. B. Rana,1839-08-05
B. P. Martínez,Bogotá,A. P. Osorio,2007-08-09
B. Lazzarini,"Fairfield, New South Wales",C. Lazzarini,1952-10-01
B. James,"Booragul, New South Wales",R. James,2006-09-30
B. Cremean,"Fitzroy, Victoria",J. Cremean,1945-05-24
B. Devlin,Denver,C. R. Devlin,1880-02-08
B. Corser,Australia,E. Corser,1967-12-15
B. Bissonnette,Montreal,P. Bissonnette,1964-11-11
"Berkeley Moreton, 4th Earl of Ducie",Tortworth,"Henry Reynolds-Moreton, 3rd Earl of Ducie",1924-08-07
B. McMillin,"Nashville, Tennessee",J. C. Brown,1933-01-08
B. Tillman,"Washington, D.C.",G. D. Tillman,1918-07-03
B. Swan,"Woodstock, Vermont",J. Webster,1839-08-11
B. S. Ewell,Virginia,R. S. Ewell,1894-06-20
B. Rogers,"Alberton, Prince Edward Island",D. Rogers,1923-05-16
B. Hardin,"Bardstown, Kentucky",J. L. Helm,1852-09-24
B. D. Wilson,"San Gabriel, California",G. S. Patton,1878-03-11
B. Cribb,"Ipswich, Queensland",T. B. Cribb,1874-03-11
B. B. II,Little Missenden,B. family,1820-05-12
B. Mussolini,Giulino di Mezzegra,C. Petacci,1945-04-28
B. A. Sr.,Manila,A. family,1947-12-20
B. A. Jr.,Philippines,A. family,1983-08-21
B. Bhutto,"Punjab, Pakistan",B. family,2007-12-27
B. B. Rao,Pune,R. Rao,1761-06-23
B. D. Ryland,"Alexandria, Louisiana",M. Hebert,2005-06-28
A. Humo,Opatija,H. Humo,1983-01-24
A. E. Ford,Manhattan,Maryknoll,1896-09-17
A. Chapman,Sydney,A. Chapman,1926-01-12
A. San,British Burma,S. Win,1947-7-19
A. Porter,New York,L. Woodbury,1849-06-10
A. E. Willson,"Louisville, Kentucky",F. Willson,1931-08-24
A. Clifford,Palace of Westminster,"William Cavendish, 5th Duke of Devonshire",1877-02-08
A. C. Gregory,Brisbane,F. T. Gregory,1905-06-25
A. C. Macdonald,"Charlottetown, Prince Edward Island",A. A. Macdonald,1919-07-16
A. Tessier,Quebec,U. Tessier,1938-02-10
A. Davezac,New York City,E. Livingston,1851-02-15
A. Košutić,Socialist Federal Republic of Yugoslavia,S. Radić,1964-11-12
A. Abbott,"Darlinghurst, New South Wales",J. Abbott,1975-04-30
A. Arsenault,Charlottetown,J. Arsenault,1968-04-29
A. Townley,East Melbourne,R. Townley,1963-12-24
A. Yoshimitsu,Kyoto,A. Yoshiakira,1408-05-31
A. Takauji,Japan,A. Tadayoshi,1358-06-07
A. B. Foster,Montreal,S. Foster,1877-11-01
A. P. al-Azm,Mediterranean sea,A. family,1757-1-1
A. Seymour,"Picton, New Zealand",R. Richardson,1923-04-03
A. Roebuck,"Cobourg, Ontario",J. Roebuck,1971-11-17
A. R. Atkinson,"Wadestown, New Zealand",H. Atkinson,1935-03-26
A. P. Gorman,"Washington, D.C.",P. Gorman,1906-06-04
A. Peters,Charlottetown,F. Peters,1908-01-29
A. Morgan,Australia,A. Morgan,1916-12-20
A. Livermore,"Campton, New Hampshire",S. Livermore,1853-07-01
A. H. Palmer,Brisbane,H. Mosman,1898-03-20
A. Hodgson,Warwickshire,E. Hodgson,1902-12-24
A. Havelock,Somerset,H. Havelock,1908-06-25
"Arthur Hamilton-Gordon, 1st Baron Stanmore",London,"George Hamilton-Gordon, 4th Earl of Aberdeen",1912-01-30
A. Godbout,Quebec,J. Godbout,1932-03-12
A. C. Hardy,Ontario,G. T. Fulford,1962-03-16
A. Boyer,Montreal,L. Boyer,1922-01-24
A. Roane,"Knox County, Tennessee",S. Roane,1819-01-18
A. McLelan,"Halifax, Nova Scotia",G. W. McLelan,1890-06-26
A. H. Macdonell,"Rothesay, New Brunswick",A. C. Macdonell,1939-11-12
A. Dixon,"Henderson, Kentucky",C. Powell,1876-04-23
A. Campbell,London,G. Carter-Campbell,1791-03-31
A. Archer,Larvik,A. brothers,1902-02-06
A. Mathews,West Virginia,Mathews,1796-0-0
A. J. Pothier,"Woonsocket, Rhode Island",Z. Cloutier,1928-02-04
A. Walsh,Manitoba,F. L. Walsh,1885-03-06
Aníbal José Chávez Frías,Caracas,H. Chávez,2016-07-17
A. I. Barrera,Santo Domingo,J. M. Imbert,2016-05-31
A. Nikšić,Argentina,V. Ambrosio,1962-01-28
A. Arundell,Kingdom of England,"Benedict Calvert, 4th Baron Baltimore",1649-07-23
A. Moonesinghe,Colombo,D. C. Hewavitharana,2002-12-08
A. Pico,Los Angeles,P. Pico,1876-02-14
A. d. Graeff,Amsterdam,C. d. Witt,1678-11-30
A. Bicker,Amsterdam,J. d. Witt,1652-6-24
A. Mellon,United States,R. B. Mellon,1937-08-26
A. L. Sevier,Louisiana,H. C. Sevier,1962-03-26
A. J. Sevier,Louisiana,H. C. Sevier,1941-08-25
A. J. Donelson,"Memphis, Tennessee",D. S. Donelson,1871-06-26
A. Pico,California,P. Pico,1876-02-14
Aníbal José Chávez Frías,Caracas,H. Chávez,2016-07-17
A. Gaboury,Quebec,T. Gaboury,1912-06-11
A. E. Botsford,"Sackville, New Brunswick",W. Botsford,1894-03-22
A. Learned,Connecticut,J. Law,1825-05-04
A. Gaboury,Quebec,T. Gaboury,1912-06-11
A. Hawkins,"Huntingdon, Tennessee",I. R. Hawkins,1905-04-27
A. F. Wood,"Madoc, Ontario",S. Wood,1910-01-22
A. Sykes,Kenya,K. Sykes,2013-05-19
A. Mahama,Ghana,I. Egala,2012-11-16
A. Fraser,Ontario,D. C. Fraser,1997-09-01
A. Fraser,"New Glasgow, Nova Scotia",D. C. Fraser,1964-01-24
A. H. al-Majid,Baghdad,S. Hussein,2010-01-25
"Algernon Percy, 4th Duke of Northumberland",Coventry,"Hugh Percy, 2nd Duke of Northumberland",1865-2-12
A. Évanturel,Alfred and Plantagenet,F. Évanturel,1908-11-15
A. W. Griswold,Connecticut,E. Whitney,1963-04-19
A. Hindmarsh,Wellington,J. Hindmarsh,1918-11-13
A. Cox,Christchurch,W. Cox,1911-05-23
A. Broughton,Surrey,E. Broughton,1895-03-10
A. B. Irion,Louisiana,A. Lafargue,1903-05-21
A. Brandon,Wellington,A. Brandon,1886-09-22
A. A. Taylor,"Johnson City, Tennessee",L. C. Haynes,1931-11-25
A. Évanturel,Ontario,F. Évanturel,1908-11-15
A. L. Michelsen,Bogotá,A. L. Pumarejo,2007-07-11
A. Muller,Australia,S. Muller,1970-08-01
A. L. Desaulniers,Montreal,H. Caron,1918-07-09
A. Lacoste,Montreal,L. Lacoste,1923-08-17
A. Chauveau,New York City,P. Chauveau,1916-03-07
Alexandre-René Chaussegros de Léry,Quebec,Charles-Étienne Chaussegros de Léry,1880-12-19
A. White,Virginia,R. White,1804-09-19
A. T. Galt,Canada,J. Galt,1893-09-19
A. Shepherd,Auckland,F. Whitaker,1859-07-20
A. Raff,Brisbane,G. Raff,1914-01-26
A. Morris,Ontario,W. Morris,1889-10-28
A. H. Everett,China,E. Everett,1847-06-29
A. Grantham,England,Warren de la Rue,1978-10-04
A. Grant,Michigan,Laird,1813-05-08
A. F. Mathews,"Lewisburg, West Virginia",Mathews,1906-12-17
A. Provosty,Louisiana,J. Scott,1932-04-09
A. McPhillips,"Ottawa, Ontario",A. E. McPhillips,1971-03-11
A. Lind,"Bairnsdale, Victoria",A. Lind,1964-06-26
A. Horner,Saskatchewan,J. Horner,2009-01-02
A. C. Greene,"Providence, Rhode Island",R. W. Greene,1863-01-08
A. Gentili,England,S. Gentili,1608-01-14
A. W. Barkley,"Lexington, Virginia",D. M. II,1956-04-30
A. Fletcher,Queensland,M. McIntyre,1991-10-07
A. M. Ibrahim,Malaysia,C. Bellini,1999-04-17
A. Koroh,Malaysia,S. G. Kina,1978-06-25
A. Irving,Toronto,J. Æ. Irving,1913-11-27
A. Lafargue,Louisiana,M. Lafargue,1917-01-24
