col0,col1,col2,col3
F. Barnes,Queensland,L. Barnes,1952-05-12
F. I. Madero,Mexico City,E. Madero,1913-02-22
F. F. Ordóñez,Madrid,Miguel Ángel Fernández Ordóñez,1992-08-07
F. X. Ransdell,Baltimore,U. Senator,1939-02-11
F. White,Cacapon River,A. White,1826-10-06
F. T. Gregory,Australia,J. Gregory,1888-10-23
F. S. Barnard,Canada,F. J. Barnard,1936-04-11
F. J. Garrick,Christchurch,J. F. Garrick,1890-6-7
F. Ivory,Brisbane,"James Ivory, Lord Ivory",1896-01-21
"Francis H. Rankin, Jr.","Flint, Michigan","Francis H. Rankin, Sr.",1925-12-07
F. E. Campbell,New Zealand,J. Campbell,1911-09-27
F. C. Draper,Toronto,W. H. Draper,1894-07-25
F. Bell,Wellington,D. Bell,1936-03-13
F. A. Anglin,Ottawa,M. Anglin,1933-03-02
F. Langelier,Quebec,C. Langelier,1915-02-08
F. Gosselin,Quebec,J. Gosselin,1909-04-09
F. Méthot,Quebec,F. Méthot,1908-10-19
F. Houde,Quebec,M. Houde,1884-11-15
Floyd D. Culbertson Jr.,Oklahoma,J. S. Killen,1989-04-28
F. Dupont,Quebec,P. Gendron,1898-03-12
F. N. III,Iran,A. M. Farmanfarma,1937-4-1
F. Gandhi,Delhi,N. family,1960-09-08
F. Choquette,Quebec,P. Choquette,1975-01-17
F. O. Pavy,"Opelousas, Louisiana",C. Weiss,1962-05-13
F. Boozman,Arkansas,J. Boozman,2005-03-01
F. Jinnah,Karachi,J. family,1967-07-09
E. J. Price,Quebec City,W. E. Price,1899-08-30
E. Burrows,Melbourne,Melbourne,2015-03-20
E. Lafontaine,Montreal,L. Moll,1935-04-21
E. Fiset,Rivière-du-Loup,J. R. Fiset,1951-06-08
E. Lafontaine,Montreal,L. Moll,1935-04-21
E. Fiset,Rivière-du-Loup,J. R. Fiset,1951-06-08
E. Tirikatene,Kaiapoi,R. Tirikatene,1967-01-11
E. Willis,Winnipeg,R. Willis,1967-01-09
E. H. Lindemann,Düsseldorf,E. Lindemann,1900-5-8
E. Madero,Mexico City,E. Madero,1958-02-02
E. Wedderburn,Edinburgh,J. Wedderburn,1958-06-03
E. Riordan,Brisbane,B. Riordan,1953-12-09
E. L. Guest,Harare,I. F. Guest,1972-09-20
E. Hunter,Australia,F. Wise,1944-08-14
E. Cimon,Quebec City,H. Langevin,1917-07-17
E. Choquette,"Mont-Saint-Hilaire, Quebec",P. Choquette,1941-03-29
E. Atherton,Queensland,J. Atherton,1954-06-29
E. v. Falkenhayn,Potsdam,F. v. Bock,1922-04-08
E. Spooner,Sydney,B. Spooner,1952-06-03
E. Hamber,Vancouver,J. Hendry,1960-01-10
E. Champion,Connecticut,H. Champion,1834-12-22
E. Mosconi,Argentina,J. Canaveris,1940-6-4
E. Creel,Mexico City,L. Terrazas,1931-08-18
E. Horniman,Chelsea Embankment,F. J. Horniman,1932-7-11
E. B. Devlin,Montreal,B. Devlin,1921-08-30
E. Jinnah,Karachi,J. family,1893-0-0
E. Solomon,Adelaide,J. M. Solomon,1873-10-03
E. A. Hibbard,New Hampshire,H. Hibbard,1903-07-24
E. Goodrich,Connecticut,C. Goodrich,1849-11-01
E. Payne,New Hampshire,E. P. Jewett,1807-07-20
E. Root,New York City,O. R. II,1937-02-07
E. Venizelos,France,C. Mitsotakis,1936-03-18
E. B. Alexander-Roosevelt,New York,T. Roosevelt,1960-1-1
E. W. Atwood,"Genesee County, Michigan",W. A. Atwood,1958-01-31
E. P. Morrow,"Frankfort, Kentucky",W. O. Bradley,1935-06-15
E. Maxwell,West Virginia,H. Maxwell,1903-02-05
E. H. Lothrop,"Three Rivers, Michigan",George V. N. Lothrop,1874-02-17
E. Corning,"Bar Harbor, Maine",E. Corning,1934-08-07
E. A. Hall,"Montrose, Pennsylvania",J. A. Collier,2004-10-18
E. Barham,Louisiana,R. J. Barham,2014-10-17
