col0,col1,col2,col3,col4
Operation Dawn-4,Iraqi Kurdistan,Iran-Iraq War,Iranian victory,"108 infantry battalions, 7 armored battalions, 1 mechanized battalion, 25 commando battalions, 8Republican Guardbattalions, 7 artillery battalions"
Operation Danny,Tel Aviv,1948 Arab–Israeli War,Failed to captureLatrun,"6,000"
Operation Crusader,Egypt,Western Desert Campaign,Allied victory,"118,000 men"
Operation Crossbow,Belgium,Campaigns of World War II,"""limited effect""",1112px(Ludendorff Bridge)
Operation Crimson,Netherlands East Indies,Pacific War,* Airfields not seriously damaged,10 destroyers
Operation Crimp,South Vietnam,Vietnam War,Minor US–Australian tactical victory,"~1,000 to 5,000 men"
Operation Corridor 92,Herzegovina,Bosnian War,Army of Republika Srpskavictory,"40,800–54,660 soldiers"
Operation Coronado XI,South Vietnam,Vietnam War,Anti-communist victory; capture of communist supplies,"Two US battalions, one South Vietnamese battalion"
Operation Coronado V,South Vietnam,Vietnam War,Anti-communist victory,"Two US battalions, one South Vietnamese battalion"
Operation Coronado IX,South Vietnam,Operation Coronado,"Capture of communist supplies, anti-communist victory","Three US battalions, two South Vietnamese battalions"
Operation Coronado II,South Vietnam,Vietnam War,Anti-communist victory,"Three US battalions, two South Vietnamese battalion"
Operation Corkscrew,Pantelleria,Allied invasion of Sicily,*Allied Occupation of the islands,"12,000"
Operation Conservation,County Armagh,Operation Banner,British Army operation thwarted,1ASU
Operation Concordia,South Vietnam,Vietnam War,U.S. victory,"2nd Battalion, 60th Infantry"
Operation Compass,Italian Libya,Western Desert Campaign,British victory,"1,600 guns"
Operation Commando Fury,Afghanistan,War in Afghanistan,Coalition victory,"5 helicopters,"
Operation Commando Eagle,Iraq,Iraq War,Disruption of insurgent supply lines,Unknown
Operation Colossus,Italy,World War II,All targets destroyed,38
Operation Colorado,Quảng Nam Province,Vietnam War,U.S./ARVN victory,1st Battalion 5th Marines
Operation Collar,Neufchâtel-Hardelot,North West Europe Campaign,Britishvictory,115 officers andother ranks
Operation Cockpit,"Sabang, Indonesia",Pacific War,* Heavy damage inflicted upon Japanese shore installations and harbour facilities,1 battlecruiser
Operation Cockade,Western Front,Western Front,Allied failure,"Bomber Command, ~13 Divisions"
Operation Cobra's Anger,Afghanistan,War in Afghanistan,Coalition Victory,"1,000 (USMC),"
Operation Cobra,Normandy,Operation Overlord,Allied victory,1 Panzergrenadier division
Operation Claymore,Norway,North West Europe Campaign,Britishvictory,1 armed trawler
Operation Chronicle,Territory of Papua,Pacific War,Alliedoccupation,nil
Operation Chopper,South Vietnam,Vietnam War,Several US/South Vietnamese victories.,50
Operation Chestnut,Sicily,World War II,Britishfailure,20
Operation Chenla II,Cambodia,Cambodian Civil War,Decisive North Vietnamese victory,"20,000+"
Operation Chenla I,Cambodia,Vietnam War,Stalemate,"3,000+"
Operation Chavín de Huántar,Lima,Internal conflict in Peru,Peruvian victory; hostages rescued.,14 MRTA rebels
Operation Chastise,Nazi Germany,World War II,British victory,(Defending three dams)
Operation Charnwood,Normandy,Battle for Caen,Allied victory,1 armoured division
Operation Change of Direction 11,Southern Lebanon,2006 Lebanon War,End of the war and Israeli withdrawal underUN Security Council Resolution 1701,"1,000 in area (south of the Litani river)"
Operation Chahar,Chahar,Second Sino-Japanese War,Japanese and Mongolian Victory,?
Operation Ceinture,Hanoi,First Indochina War,Frenchtactical victory,18 battalions
Operation Cedar Falls,Republic of Vietnam,Vietnam War,NLF victory,"30,000"
Operation Catechism,Norway,Battle of the Atlantic,British victory,()
Operation Castor,Vietnam,First Indochina War,French Union victory;,"4,195 (as of 22 November)"
Operation Cartoon,North Sea,World War II,Alliedvictory,63commandos
Operation Carthage,Copenhagen,World War II,British victory,"20 bombers, 30 fighters"
Operation Caravan,Cyrenaica,North African Campaign,Allied Victory,47
Operation Camargue,French Indochina,First Indochina War,"Viet Minh withdrawal, failure of the French to capture expected numbers of prisoners and arms.",One weak infantry regiment
Operation Caesar,North Sea,World War II,British victory,''
Operation Bürkl,Warsaw,Occupation of Poland,Execution of 20 prisoners,5
Operation Bøllebank,Bosnia and Herzegovina,Bosnian War,UN forces repulse Serb ambush,(1st & 2nd platoon plus squ leader)
Operation Bulmus 6,Gulf of Suez,War of Attrition,Israeli victory,40+Sayeret MatkalandShayetet 13
Operation Bull Run,Iraq,"Post-invasion Iraq, 2003–present",Disruption of insurgent supply lines,"3000 (2000 Coalition, 1000 Iraqi)"
Operation Bulbasket,Poitiers,Western Front,Partial British success,"40 men from 'B' Squadron, 1stSpecial Air Service"
Operation Buffalo,South Vietnam,Vietnam War,United States victory,4 Marine Battalions
Operation Brochet,French Indochina,First Indochina War,Viet Minh victory,"~10,000"
Operation Bringing Home the Goods,Jericho,Israeli-Palestinian conflict,Israeli victory,"1,000 soldiers"
Operation Bribie,Phuoc Tuy Province,Vietnam War,Inconclusive,11 APCs
Operation Bretagne,Red River,First Indochina War,French Union victory,2 Amphibian Sub-Group
Operation Bolo,Vietnam,Vietnam War,American victory,(28 participated)
Operation Bold Mariner,South Vietnam,Vietnam War,U.S. victory,38th VC Main Force Regiment
Operation Bluecoat,France,Operation Overlord,Allied victory,+700 tanks
Operation Blaze,Korea,Korean War,*The Australians made gains but were forced to withdraw due to lack of ammunition and failure to complete all objectives,One company
Operation Blackcock,Limburg,Western Front,Allied victory,1 Armoured division
Operation Black Thunderstorm,Buner,War in North-West Pakistan,*Districts returned to government control,"30,000 - 45,000 Regular and Airborne Forces"
Operation Biting,France,World War II,Britishvictory,"120 commandos, 1 SqnRAFtransports,RNsupport craft"
Operation Beowulf,Hiiumaa,World War II,German victory,"23,000"
Operation Bellicose,Germany,Combined Bomber Offensive,La Spezia naval base: damage,4Avro LancasterPathfinders(No. 8 Group RAF)
Operation Beleaguer,China,Chinese Civil War,*American and other foreign nationals evacuated,"50,000"
Operation Beit ol-Moqaddas,Khuzestan,Iran–Iraq War,Decisive Iranian victory,1 pontoon bridge battalion
Operation Before the Dawn,Al-Amarah,Iran–Iraq War,*Successful Iraqi defense,2 armored divisions
Operation Beaver Cage,South Vietnam,Vietnam War,U.S. victory,1st Battalion 3rd Marines
Operation Beach Boys,Southern Lebanon,2006 Lebanon War,Israeli victory,Sayeret Maglan
Operation Bayonet Lightning,Iraq,Iraq War,Capture of suspected anti-coalition forces and weapons caches.,"1,200 soldiers"
Operation Battleaxe,Cyrenaica,Western Desert Campaign,Axis victory,105 bombers
Operation Basalt,Sark,World War II,Britishvictory,12
Operation Barras,Sierra Leone,Sierra Leone Civil War,British victory,Approximately 100–200
Operation Barisal,Bay of Bengal,Bangladesh Liberation War,Pakistan naval success,1 destroyer
Operation Barbarossa,Eastern Europe,Eastern Front,See [[#Aftermath,* 3.8 million personnel
Operation Baranja,Belišće,Croatian War of Independence,"Operation aborted, no changes on the battlefield","1,800"
Operation Banquet,Netherlands East Indies,Pacific War,Allied operational success,1 battleship
Operation Bamberg,Belarus,World War II,German victory,"707th infantry division,Slovakian infantry regiment,German police battalion315"
Operation Balavegaya,Sri Lanka,Sri Lankan Civil War,Sri Lankan Military successful victory,"10,000"
Operation Bagration,Baltic states,Eastern Front,*Army Group Centre ceases to exist as a fighting force,(excluding reinforcements)
Operation Badr,Al-Qurnah,Iran–Iraq War,Decisive Iraqi victory,"100,000"
Operation Badr,Egypt,Yom Kippur War,Decisive Egyptian victory,"1:00am, October 7: 200 tanks"
Operation Bürkl,Warsaw,Occupation of Poland,Execution of 20 prisoners,5
Operation Bøllebank,Bosnia and Herzegovina,Bosnian War,UN forces repulse Serb ambush,(1st & 2nd platoon plus squ leader)
Operation Augurs of Prosperity,Iraq,Diyala province campaign,US-Iraqi Victory,"3,000 U.S. soldiers"
Operation Auburn,South Vietnam,Vietnam War,U.S. victory,22px:R-20 Battalion
Operation Atlantic,Caen,Battle for Caen,See the 'Aftermath' section,1 Armoured Brigade
Operation Atlante,French Indochina,First Indochina War,Aborted,"~25,000"
Operation Astonia,Normandy,World War II,Allied Victory,"45,000 troops including specialisedAVREvehicles"
Operation Arsenal,Warsaw,World War II,"Liberation of ""Rudy"", successful escape",28 men
Operation Arrow,Afghanistan,Soviet war in Afghanistan,Mujahideen victory,"2,600"
Operation Arctic Fox,Verman River,Operation Silver Fox,Stalemate,*104th Rifle Division
Operation Archway,Germany,World War II,Allied victory,300 men
