col0,col1,col2,col3
Swimming at the 2000 Summer Olympics – Men's 400 metre individual medley,Swimming at the 2004 Summer Olympics – Men's 400 metre individual medley,C. Myden,Swimming at the 1996 Summer Olympics – Men's 400 metre individual medley
Swimming at the 2000 Summer Olympics – Men's 400 metre freestyle,Swimming at the 2004 Summer Olympics – Men's 400 metre freestyle,K. Keller,Swimming at the 1996 Summer Olympics – Men's 400 metre freestyle
Swimming at the 2000 Summer Olympics – Men's 200 metre individual medley,Swimming at the 2004 Summer Olympics – Men's 200 metre individual medley,T. Wilkens,Swimming at the 1996 Summer Olympics – Men's 200 metre individual medley
Swimming at the 2000 Summer Olympics – Men's 200 metre freestyle,Swimming at the 2004 Summer Olympics – Men's 200 metre freestyle,M. Rosolino,Swimming at the 1996 Summer Olympics – Men's 200 metre freestyle
Swimming at the 2000 Summer Olympics – Men's 200 metre butterfly,Swimming at the 2004 Summer Olympics – Men's 200 metre butterfly,J. Norris,Swimming at the 1996 Summer Olympics – Men's 200 metre butterfly
Swimming at the 2000 Summer Olympics – Men's 200 metre breaststroke,Swimming at the 2004 Summer Olympics – Men's 200 metre breaststroke,D. Rummolo,Swimming at the 1996 Summer Olympics – Men's 200 metre breaststroke
Swimming at the 2000 Summer Olympics – Men's 200 metre backstroke,Swimming at the 2004 Summer Olympics – Men's 200 metre backstroke,M. Welsh,Swimming at the 1996 Summer Olympics – Men's 200 metre backstroke
Swimming at the 2000 Summer Olympics – Men's 1500 metre freestyle,Swimming at the 2004 Summer Olympics – Men's 1500 metre freestyle,C. Thompson,Swimming at the 1996 Summer Olympics – Men's 1500 metre freestyle
Swimming at the 2000 Summer Olympics – Men's 100 metre freestyle,Swimming at the 2004 Summer Olympics – Men's 100 metre freestyle,G. H. Jr.,Swimming at the 1996 Summer Olympics – Men's 100 metre freestyle
Swimming at the 2000 Summer Olympics – Men's 100 metre butterfly,Swimming at the 2004 Summer Olympics – Men's 100 metre butterfly,G. Huegill,Swimming at the 1996 Summer Olympics – Men's 100 metre butterfly
Swimming at the 2000 Summer Olympics – Men's 100 metre breaststroke,Swimming at the 2004 Summer Olympics – Men's 100 metre breaststroke,R. Sloudnov,Swimming at the 1996 Summer Olympics – Men's 100 metre breaststroke
Swimming at the 2000 Summer Olympics – Men's 100 metre backstroke,Swimming at the 2004 Summer Olympics – Men's 100 metre backstroke,S. Theloke,Swimming at the 1996 Summer Olympics – Men's 100 metre backstroke
Swimming at the 1996 Summer Olympics – Women's 800 metre freestyle,Swimming at the 2000 Summer Olympics – Women's 800 metre freestyle,K. Vlieghuis,Swimming at the 1992 Summer Olympics - Women's 800 metre freestyle
Swimming at the 1996 Summer Olympics – Women's 50 metre freestyle,Swimming at the 2000 Summer Olympics – Women's 50 metre freestyle,S. Völker,Swimming at the 1992 Summer Olympics - Women's 50 metre freestyle
