col0,col1,col2,col3
Sweet Sixteen,Crossings,CPB Box no. 1949 vol. 17,0-7434-2732-7
Swallowing Darkness,A Lick of Frost,PS3558.A443357 S93 2005,978-0-345-49593-8
Survivor,Patternist series,PZ4.B98674 Su PS3552.U827,0-385-13385-5
Superfudge,Otherwise Known as Sheila the Great,PZ7.B6265 Su 1980,0-525-40522-4
Sunstorm,Time's Eye,PR6005.L36 S86 2005,0-345-45250-X
Sunset,Twilight,PZ7.H916625 Sun 2007,978-0-06-082769-4
Summon the Thunder,Harbinger,CPB Box no. 2703 vol. 17,1-4165-2400-2
Summer Knight,Grave Peril,CPB Box no. 2028 vol. 14,0-451-45892-3
Street Magic,Magic Steps,PZ7.P61464 St 2001,0-590-39628-5
Straken,Tanequil,PS3552.R6596 S77 2005,0-345-45112-0
Storming Heaven,Good King Harry,PS3557.I136 S76 1987,0-393-02440-7
Storm from the Shadows,The Shadow of Saganami,PS3573.E217 S76 2009,978-1-4165-9147-4
Stone of Tears,Wizard's First Rule,PS3557.O5826 S76 1995,0-312-85706-3
Still Life with Crows,The Cabinet of Curiosities,PS3566.R3982 S7 2003,0-446-53142-1
Still I Rise: A Graphic History of African Americans,Still I Rise: A Cartoon History of African Americans,E185 .L35 2009,978-1-4027-6226-0
State of Denial,Plan of Attack,E903.3 .W67 2006,0-7432-7223-4
Startide Rising,Sundiver,CPB Box no. 2914 vol. 13,0-553-23495-1
Starry Nights,Socialite Evenings,PR9499.3.D4 S56 1991,0-14-015456-6
Stanley Yelnats' Survival Guide to Camp Green Lake,Holes,MLCS 2006/42289 (P),0-440-41947-6
Stalin's Ghost,Wolves Eat Dogs,PS3569.M5377 S73 2007,0-7432-7672-8
Squire,Page,PZ7.P61464 Sq 2001,0-679-88916-7
Splendor: A Luxe Novel,Envy: A Luxe Novel,PZ7.G53887 Sp 2009,978-0-06-162631-9
Spirit Bound,Blood Promise,PZ7.M478897 Sp 2010,978-1-59514-250-4
Spindle's End,Rose Daughter,PZ8.M1793 Sp 2000,0-399-23466-7
Special Assignments,The Death of Achilles,PG3478.K78 O8413 2007b,0-297-84822-4
Space Apprentice,The Way to Amalthea,PG3476.S78835 S6,0-02-615220-7
South of Broad,My Losing Season,PS3553.O5198 S68 2009,978-0-385-41305-3
Sound the Retreat,Fielding Gray,PR6068.A9,978-0-2185-1140-6
Soul of the Fire,Temple of the Winds,PS3557.O5826 S68 1999,0-312-89054-0
Soul Trade,Close to the Ground,CPB Box no. 1892 vol. 6,0-7434-0699-0
Soul Harvest,Nicolae,PS3562.A315 S68 1998,0-8423-2915-3
Soul Circus,Hell to Pay,PS3566.E354 S68 2003,0-316-60843-2
Sorcerer's Apprentice,Beyond the Devil's Teeth,GV1545.S29 A3 2001,1-55970-580-9
Sons of the Oak,The Lair of Bones,PS3556.A71558 S66 2006,0-7653-0177-6
Songs of the Doomed,Generation of Swine,E839.5 .T47 1991,0-330-32179-X
Something Rotten,The Well of Lost Plots,PR6106.F67 T484 2004,0-670-03359-6
Some Like It Hot,Back in Black,PZ7.D3473 Som 2006,0-316-01093-6
Some Lie and Some Die,Murder Being Once Done,PZ4.R4132 So3 PR6068.E63,0-09-115050-7
Soldiers and Slaves,Hearts Grown Brutal,D805.5.B46 C63 2005,978-0-375-41410-7
Smuggler's Moon,The Color of Death,PS3553.O55314 S68 2001,0-399-14774-8
Small World: An Academic Romance,Changing Places,PR6062.O36 S64x 1984,0-436-25663-0
Sly Mongoose,Ragamuffin,PS3602.U2635 S58 2008,0-7653-1920-9
Slow Learner,Gravity's Rainbow,PS3566.Y55 S5 1984,0-316-72442-4
