col0,col1,col2,col3
Viva la Mexico,G. Santaolalla,R. Robbins,Tony Gayton
Tuvix,J. Chattaway,T. Wright,Brannon Braga
Traitor in Zebra,L. Johnson,W. Gaunt,Leonard White
Timshel,M. &. Sons,W. Studi,Tony Gayton
Time,P. Brewis,L. Cornes,Paul Jackson
"Think Fast, Father Ted",T. D. Comedy,B. Keaton,Lissa Evans
The Winged Avenger,L. Johnson,C. Jeavons,Albert Fennell
The White Spirit,G. Santaolalla,K. Kropinski,Tony Gayton
The White Iris,Star Trek: The Original Series,C. Baker,Vic Mignogna
The Town of No Return,L. Johnson,A. MacNaughtan,Brian Clemens
The Sign of Three,D. Arnold,J. Hartley,Sue Vertue
The Sell Out,L. Johnson,A. Hewlett,Leonard White
The See-Through Man,L. Johnson,W. Mitchell,Albert Fennell
The Removal Men,L. Johnson,E. Richfield,Leonard White
The Railroad Job,G. Santaolalla,R. Robbins,Tony Gayton
The Plague,T. D. Comedy,A. Mathews,Lissa Evans
The Mauritius Penny,L. Johnson,D. Langton,Leonard White
The Living Dead,L. Johnson,J. Glover,Albert Fennell
The LSD Story,L. Murray,O. Soule,Jack Webb
The Hour That Never Was,L. Johnson,R. Booth,Brian Clemens
The Hidden Tiger,L. Johnson,R. Barker,Albert Fennell
The Great Game,D. Arnold,J. Sessions,Sue Vertue
The Gravediggers,L. Johnson,C. Blakiston,Brian Clemens
The Ghosts of Buxley Hall,F. D. Vol,V. French,Jerome Courtland
The Frighteners,L. Johnson,D. Hare,Leonard White
The Fear Merchants,L. Johnson,P. Cargill,Albert Fennell
The Empty Hearse,D. Arnold,D. Brown,Sue Vertue
The Decapod,L. Johnson,P. Madoc,Leonard White
The Cybernauts,L. Johnson,M. Gough,Brian Clemens
The Cutie Map,K. Sheridan,S. Vincent,Jayson Thiessen
The Correct Way to Kill,L. Johnson,M. Gough,Albert Fennell
The Cat and the Claw,D. Elfman,K. Mulgrew,Bruce Timm
The Bluegrass Special,B. Baker,C. Holm,James Algar
The Bird Who Knew Too Much,L. Johnson,R. Moody,Albert Fennell
The Big Thinker,L. Johnson,A. Booth,Leonard White
The 37's,D. McCarthy,D. Graf,Brannon Braga
The 200th Episode Celebration of All in the Family,R. Kellaway,C. O'Connor,Walter C. Miller
Tentacles of Doom,T. D. Comedy,T. Guilfoyle,Lissa Evans
Sultan and the Rock Star,A. Butler,B. Glover,Jerome Courtland
Sisters at Heart,W. Barker,P. Baer,William Asher
Sick,P. Brewis,B. Elton,Paul Jackson
Self Made Man,B. McCreary,B. Lush,Zack Stentz
Say My Name,D. Porter,J. Plemons,Bryan Cranston
Rock a Hula Ted,T. D. Comedy,C. Grogan,Lissa Evans
Purged Away with Blood,G. Santaolalla,G. Hines,Tony Gayton
Propellant 23,L. Johnson,G. Palmer,Leonard White
"Pride, Pomp and Circumstance",D. Tick,W. Studi,Tony Gayton
