col0,col1,col2,col3,col4,col5,col6
Roman Catholic Archdiocese of Bombay,Mumbai,Mumbai,Mumbai,Mumbai,10103000000,10103000000
Roman Catholic Archdiocese of Bogotá,Bogotá,Bogotá,Bogotá,Bogotá,4019000000,4019000000
Roman Catholic Archdiocese of Birmingham,Province of Birmingham,Province of Birmingham,Province of Birmingham,Province of Birmingham,8735000000,8735000000
Roman Catholic Archdiocese of Bhopal,Bhopal,Bhopal,Bhopal,Bhopal,20387000000,20387000000
Roman Catholic Archdiocese of Benevento,Benevento,Benevento,Benevento,Benevento,1691000000,1691000000
Roman Catholic Archdiocese of Belo Horizonte,Belo Horizonte,Belo Horizonte,Belo Horizonte,Belo Horizonte,7240000000,7240000000
Roman Catholic Archdiocese of Beijing,Beijing,Beijing,Beijing,Beijing,30000000000,30000000000
Roman Catholic Archdiocese of Barranquilla,Barranquilla,Barranquilla,Barranquilla,Barranquilla,3319000000,3319000000
Roman Catholic Archdiocese of Barcelona,Barcelona,Barcelona,Barcelona,Barcelona,339000000,339000000
Roman Catholic Archdiocese of Bangalore,Bangalore,Bangalore,Bangalore,Bangalore,29950000000,29950000000
Roman Catholic Archdiocese of Bamberg,Bamberg,Bamberg,Bamberg,Bamberg,10290000000,10290000000
Roman Catholic Archdiocese of Baltimore,Archdiocese of Baltimore,Archdiocese of Baltimore,Archdiocese of Baltimore,Archdiocese of Baltimore,4801000000,4801000000
Roman Catholic Archdiocese of Bahía Blanca,Bahía Blanca,Bahía Blanca,Bahía Blanca,Bahía Blanca,214021077509,214021077509
Roman Catholic Archdiocese of Avignon,Roman Catholic Archdiocese of Marseille,Roman Catholic Archdiocese of Marseille,Roman Catholic Archdiocese of Marseille,Roman Catholic Archdiocese of Marseille,3578000000,3578000000
Roman Catholic Archdiocese of Auch,Roman Catholic Archdiocese of Toulouse,Roman Catholic Archdiocese of Toulouse,Roman Catholic Archdiocese of Toulouse,Roman Catholic Archdiocese of Toulouse,6171000000,6171000000
Roman Catholic Archdiocese of Atlanta,Ecclesiastical Province of Atlanta,Ecclesiastical Province of Atlanta,Ecclesiastical Province of Atlanta,Ecclesiastical Province of Atlanta,55521000000,55521000000
Roman Catholic Archdiocese of Armagh,County Armagh,County Armagh,County Armagh,County Armagh,3472000000,3472000000
Roman Catholic Archdiocese of Aracaju,Aracaju,Aracaju,Aracaju,Aracaju,7019000000,7019000000
Roman Catholic Archdiocese of Aparecida,Aparecida,Aparecida,Aparecida,Aparecida,1300000000,1300000000
Roman Catholic Archdiocese of Antofagasta,Antofagasta,Antofagasta,Antofagasta,Antofagasta,84506000000,84506000000
Roman Catholic Archdiocese of Anchorage,Archdiocese of Anchorage,Archdiocese of Anchorage,Archdiocese of Anchorage,Archdiocese of Anchorage,359969497515,359969497515
Roman Catholic Archdiocese of Amalfi-Cava de' Tirreni,Roman Catholic Archdiocese of Salerno-Campagna-Acerno,Roman Catholic Archdiocese of Salerno-Campagna-Acerno,Roman Catholic Archdiocese of Salerno-Campagna-Acerno,Roman Catholic Archdiocese of Salerno-Campagna-Acerno,150000000,150000000
Roman Catholic Archdiocese of Algiers,Algiers,Algiers,Algiers,Algiers,54701000000,54701000000
Roman Catholic Archdiocese of Albi,Roman Catholic Archdiocese of Toulouse,Roman Catholic Archdiocese of Toulouse,Roman Catholic Archdiocese of Toulouse,Roman Catholic Archdiocese of Toulouse,5780000000,5780000000
Roman Catholic Archdiocese of Aix,Roman Catholic Archdiocese of Marseille,Roman Catholic Archdiocese of Marseille,Roman Catholic Archdiocese of Marseille,Roman Catholic Archdiocese of Marseille,4580000000,4580000000
Roman Catholic Archdiocese of Agra,Agra,Agra,Agra,Agra,69162000000,69162000000
Roman Catholic Archdiocese of Agaña,List of the Catholic dioceses of the United States,List of the Catholic dioceses of the United States,List of the Catholic dioceses of the United States,List of the Catholic dioceses of the United States,556847443,556847443
Roman Catholic Archdiocese of Acerenza,Roman Catholic Archdiocese of Potenza-Muro Lucano-Marsico Nuovo,Roman Catholic Archdiocese of Potenza-Muro Lucano-Marsico Nuovo,Roman Catholic Archdiocese of Potenza-Muro Lucano-Marsico Nuovo,Roman Catholic Archdiocese of Potenza-Muro Lucano-Marsico Nuovo,1250000000,1250000000
Roman Catholic Archdiocese of Abuja,Abuja,Abuja,Abuja,Abuja,8000000000,8000000000
Roman Catholic Apostolic Prefecture of the Marshall Islands,Roman Catholic Archdiocese of Agaña,Roman Catholic Archdiocese of Agaña,Roman Catholic Archdiocese of Agaña,Roman Catholic Archdiocese of Agaña,178709179,178709179
La Trinità della Cava,Roman Catholic Archdiocese of Salerno-Campagna-Acerno,Roman Catholic Archdiocese of Salerno-Campagna-Acerno,Roman Catholic Archdiocese of Salerno-Campagna-Acerno,Roman Catholic Archdiocese of Salerno-Campagna-Acerno,10000000,10000000
Hungarian Catholic Archeparchy of Hajdúdorog,Hungarian Greek Catholic Church,Hungarian Greek Catholic Church,Hungarian Greek Catholic Church,Hungarian Greek Catholic Church,73341000000,73341000000
Ethiopian Catholic Eparchy of Emdeber,Ethiopian Catholic Archeparchy of Addis Abeba,Ethiopian Catholic Archeparchy of Addis Abeba,Ethiopian Catholic Archeparchy of Addis Abeba,Ethiopian Catholic Archeparchy of Addis Abeba,9176000000,9176000000
Ethiopian Catholic Eparchy of Adigrat,Ethiopian Catholic Archeparchy of Addis Abeba,Ethiopian Catholic Archeparchy of Addis Abeba,Ethiopian Catholic Archeparchy of Addis Abeba,Ethiopian Catholic Archeparchy of Addis Abeba,80000000000,80000000000
Eritrean Catholic Eparchy of Segheneity,Eritrean Catholic Archeparchy of Asmara,Eritrean Catholic Archeparchy of Asmara,Eritrean Catholic Archeparchy of Asmara,Eritrean Catholic Archeparchy of Asmara,29499000000,29499000000
Eritrean Catholic Eparchy of Keren,Eritrean Catholic Archeparchy of Asmara,Eritrean Catholic Archeparchy of Asmara,Eritrean Catholic Archeparchy of Asmara,Eritrean Catholic Archeparchy of Asmara,25949000000,25949000000
Eritrean Catholic Eparchy of Barentu,Eritrean Catholic Archeparchy of Asmara,Eritrean Catholic Archeparchy of Asmara,Eritrean Catholic Archeparchy of Asmara,Eritrean Catholic Archeparchy of Asmara,44986000000,44986000000
Eritrean Catholic Archeparchy of Asmara,Asmara,Asmara,Asmara,Asmara,53183000000,53183000000
Diocese of Rome,List of the Roman Catholic dioceses in Italy,List of the Roman Catholic dioceses in Italy,List of the Roman Catholic dioceses in Italy,List of the Roman Catholic dioceses in Italy,881000000,881000000
Diocese of Iran,Episcopal Church in Jerusalem and the Middle East,Episcopal Church in Jerusalem and the Middle East,Episcopal Church in Jerusalem and the Middle East,Episcopal Church in Jerusalem and the Middle East,1648195000000,1648195000000
Diocese of Guiratinga,Roman Catholic Archdiocese of Cuiabá,Roman Catholic Archdiocese of Cuiabá,Roman Catholic Archdiocese of Cuiabá,Roman Catholic Archdiocese of Cuiabá,38666000000,38666000000
Diocese of Colombo,Colombo,Colombo,Colombo,Colombo,3838000000,3838000000
Diocese of Capaccio,Roman Catholic Archdiocese of Salerno-Campagna-Acerno,Roman Catholic Archdiocese of Salerno-Campagna-Acerno,Roman Catholic Archdiocese of Salerno-Campagna-Acerno,Roman Catholic Archdiocese of Salerno-Campagna-Acerno,1562000000,1562000000
Archdiocese of Râmnic,Metropolis of Oltenia,Metropolis of Oltenia,Metropolis of Oltenia,Metropolis of Oltenia,5765000000,5765000000
Apostolic Vicariate of Northern Germany,Exemption,Exemption,Exemption,Exemption,18947000000,18947000000
Apostolic Vicariate of Darién,Roman Catholic Archdiocese of Panamá,Roman Catholic Archdiocese of Panamá,Roman Catholic Archdiocese of Panamá,Roman Catholic Archdiocese of Panamá,16671000000,16671000000
Apostolic Vicariate of Bluefields,Roman Catholic Archdiocese of Managua,Roman Catholic Archdiocese of Managua,Roman Catholic Archdiocese of Managua,Roman Catholic Archdiocese of Managua,59673000000,59673000000
Apostolic Prefecture of the Falkland Islands,Holy See,Holy See,Holy See,Holy See,12173000000,12173000000
Apostolic Administration of Prizren,Holy See,Holy See,Holy See,Holy See,10887000000,10887000000
Anglican Diocese of Leeds,Province of York,Province of York,Province of York,Province of York,6280721167,6280721167
Albanian Catholic Apostolic Administration of Southern Albania,Roman Catholic Archdiocese of Tiranë–Durrës,Roman Catholic Archdiocese of Tiranë–Durrës,Roman Catholic Archdiocese of Tiranë–Durrës,Roman Catholic Archdiocese of Tiranë–Durrës,16172000000,16172000000
