col0,col1,col2,col3
Chateau de Mores,State Historical Society of North Dakota,1883,519211
Charles Sumner School,District of Columbia Public Schools,1872,1214
Charles Ives House,Danbury Museum and Historical Society,1780,28327
Charles A. Lindbergh State Park,Minnesota Department of Natural Resources,1906,36421
Central Library,"Multnomah County, Oregon",1913,4046
Central Embarcadero Piers Historic District,Port of San Francisco,1918,26709
Cedar Guard Station No. 1019,United States Forest Service,1933,40468
Cathedral of the Madeleine,Catholic Church,1900,4856
Cathedral of San Carlos Borromeo,Roman Catholic Church,1794,2023
Castle Rock,New York State Department of Environmental Conservation,1881,623215
Castle Clinton,National Park Service,1808,4046
Cascade Locks Work Center,United States Forest Service,1936,7689
Casa Navarro State Historic Site,Texas Historical Commission,1855,4046
Carolina Inn,University of North Carolina at Chapel Hill,1923,18210
Carlisle Indian Industrial School,United States Army,1880,99147
Carl Sandburg Home National Historic Site,National Park Service,1945,995526
Cape Canaveral Air Force Station,United States Department of Defense,1950,5362084
Canonsburg Armory,Pennsylvania Department of Military and Veterans Affairs,1938,2063
Camp Pendleton,Virginia National Guard,1911,1327368
Camp Mabry,State of Texas,1892,1517571
Camp Butler National Cemetery,U.S. Department of Veterans Affairs,1865,158636
Camas Meadows Battle Sites,Bureau of Land Management,1877,323748
Calhoun Beach Club,AIMCO,1928,8611
Caguana Ceremonial Ball Courts Site,Institute of Puerto Rican Culture,1270,28327
Cabrillo National Monument,National Park Service,1542,582342
Bykenhulle,Bed and breakfast,1841,23067
Butte Falls Ranger Station,United States Forest Service,1935,24685
Bulow Plantation Ruins Historic State Park,Florida Department of Environmental Protection,1836,441107
Bull-Jackson House,"Orange County, New York",1769,764855
Buffalo River State Park,National Park Service,1939,141639
Buffalo Bill Ranch,Nebraska Game and Parks Commission,1886,101171
Brumbaugh Homestead,Federal architecture,1804,4046
Bradford Old City Hall,"Bradford, Pennsylvania",1897,975
Booker T. Washington National Monument,National Park Service,1856,804515
Bohemian National Cemetery,Grand Lodge Č.S.P.S. of Baltimore,1884,50221488
Bocock-Isbell House,National Park Service,1850,7284341
Birch Bayh Federal Building and United States Courthouse,General Services Administration,1905,15378
Big Springs Ranger Station,U.S. Forest Service,1934,8093
Beverly National Cemetery,United States Department of Veterans Affairs,1864,260617
Berger Park,Chicago Park District,1906,13516
Bent's Old Fort National Historic Site,National Park Service,1833,3233438
Belvidere Historic District,Federal architecture,1833,1311181
Belle Ainsworth Jenkins Estate,Tualatin Hills Park & Recreation District,1880,57453
Bear Mountain Bridge Road,New York State Department of Transportation,1923,72843
Battleground National Cemetery,National Park Service,1864,4046
Battery Weed,National Park Service,1845,4046
Basilica of the National Shrine of the Little Flower,Roman Catholic Church,1931,9712
Basilica of St. Fidelis,Roman Catholic Diocese of Salina,1908,12140
Basilica of Saint Mary,Roman Catholic Archdiocese of Saint Paul and Minneapolis,1907,10117
Balsam Lake Mountain Fire Observation Station,New York State Department of Environmental Conservation,1930,44110
Balmville Tree,New York State Department of Environmental Conservation,1750,8093
Atwood-Higgins Historic District,National Park Service,1730,97124
Astor Home for Children,Catholic Charities,1914,74462
"Ashcroft, Colorado",United States Forest Service,1879,20234
Ascension Episcopal Church,Episcopal Diocese of Eastern Oregon,1874,8093
Arnold–Park Log Home,Oregon Parks and Recreation Department,1907,445
Arnold Arboretum,Harvard University,1872,1137166
Arnold–Park Log Home,Oregon Parks and Recreation Department,1907,445
"Arlington House, The Robert E. Lee Memorial",National Park Service,1803,113635
Arden,Open Space Institute,1886,1821085
Archer County Courthouse and Jail,"Archer County, Texas",1891,16187
Appomattox Court House National Historical Park,National Park Service,1865,7179123
Apple River Fort,Illinois Historic Preservation Agency,1832,2023
Andrew Johnson Building,"Knox County, Tennessee",1926,1416
Andrew Carnegie Mansion,Smithsonian Institution,1899,4856
Andersonville National Historic Site,National Park Service,1864,2080084
American Gothic House,State Historical Society of Iowa,1881,46
American Club,Destination Kohler,1924,16187
Alvarado Park,East Bay Regional Park District,1909,171991
Allenwood River Bridge,Pennsylvania Department of Transportation,1895,3642
Allen Centennial Gardens,University of Wisconsin–Madison College of Agricultural and Life Sciences,1896,7689
Allegheny River Lock and Dam No. 2,U.S. Army Corps of Engineers,1932,35612
Allegheny Portage Railroad,National Park Service,1831,5244725
All Saints Episcopal Church,Episcopal Diocese of Western Louisiana,1885,1214
Alexandria National Cemetery,U.S. Department of Veterans Affairs,1862,22257
Alderson Historic District,Federal architecture,1789,562513
Adams National Historical Park,National Park Service,1788,34398
Abraham Hall,Maryland-National Capital Park and Planning Commission,1889,15782
Abert Lake Petroglyphs,Bureau of Land Management,10,4046
23rd Regiment Armory,New York State,1891,9307
1841 Goshen Courthouse,"Orange County, New York",1841,4046
"14th Regiment Armory, Brooklyn",New York City,1891,12140
ʻIolani Palace,Hawaii,1879,42896
