col0,col1,col2,col3
R. Dockery,1942-02-07,1983-12-12,23&ndash;40&ndash;3 (college)
R. Darling,1914-10-02,1996-10-14,4-2-2
R. F. Booth,1878-06-17,1953-03-15,1–6
R. Brown,1876-03-13,1961-01-31,11–19–3
R. Rowe,1887-08-18,1966-05-27,5–9–1 (football)
R. Weaver,1897-07-19,1968-11-23,College coaching record: 5&ndash;20&ndash;1
R. Roberts,1900-08-23,1945-06-27,3–4–1
R. Reese,1899-03-02,1974-04-18,468–302 (college basketball)
R. Parker,1931-10-26,2016-01-04,137–127–8 (college)
R. Fleming,1889-10-27,1933-12-18,6–2
R. Dawson,1906-12-20,1983-06-10,19–25–4 (AAFC)
R. Blair,1900-02-21,1947-11-30,82–50–12 (football)
R. Baughman,1878-03-14,1958-12-19,1–3–3
R. Wolf,1904-07-15,1979-10-06,17–21–1 (baseball)
R. L. Quigley,1885-05-20,1958-03-09,10–4 (basketball)
R. George,1918-01-07,1995-01-12,12–14–4 (college)
R. Didier,1920-01-07,1978-03-09,29&ndash;27&ndash;2 (football)
R. Burnett,1914-01-29,1996-07-19,30-24-3
R. A. Curfman,1915-06-16,1993-04-05,15–30–1
R. Yagiello,1923-09-21,1999-06-09,8–14–1
R. Willsey,1928-09-30,2013-11-04,40–42–1 (California)
R. Neal,1897-11-01,1977-11-25,79–34–7
R. Nagel,1927-05-18,2015-01-15,58–71–3
R. Morrison,1885-02-28,1982-11-19,Baseball: 3–3 ()
R. Meyer,1913-12-18,2006-03-17,724–324 ()
R. Louthen,1925-10-04,2004-12-03,12–3–1 (high school football)
R. Keeler,1891-04-24,1945-11-08,45–24–15
R. Hanson,1895-10-05,1982-01-04,55-59-12
R. H. Watson,1923-07-23,2004-05-18,16&ndash;8&ndash;2 ()
R. Graves,1918-12-31,2015-04-10,70–31–4
R. G. Dauber,1902-0-0,1965-02-07,5–6 (track)
R. Eliot,1905-06-03,1980-02-24,102–82–13 (football)
R. Eddy,1911-04-13,1986-09-20,176–164 (.518)
R. Dorr,1941-11-02,2001-03-01,17&ndash;27
