col0,col1,col2,col3
What Planet Are You From?,Garry Shandling,B. Kingsley,6300
What Now,Ash Avildsen,J. Star,6000
"What Now, Catherine Curtis?",Gary Morton,L. Ball,3120
What Money Can't Buy,Jesse L. Lasky,L. Huff,3000
What Men Want,Carl Laemmle,B. Kent,3900
What Madness!,Benito Perojo,P. Iglesias,5100
What Lies Beneath,Robert Zemeckis,D. Scarwid,7800
What Just Happened,Mark Cuban,B. Willis,6240
What It's Like Being Alone,Susan Ma,A. Sabiston,1320
What Is It?,Crispin Glover,C. Glover,4320
What Happens in Vegas,Shawn Levy,C. Diaz,5940
What Happens Next?,Brent Hodge,D. Mangan,2640
What Happens Next,Jay Arnold,W. Malick,6000
What Happened to Jones,Carl Laemmle,O. Harlan,4200
What Happened to Harkness?,Irving Asher,J. Finlayson,3180
What Happened Then?,Walter C. Mycroft,R. Bird,3720
What Goes Up,Jonathan Glatzer,H. Duff,6420
What Every Woman Wants,The Danzigers,J. Fox,4140
What Every Woman Learns,Thomas H. Ince,E. Bennett,3000
What Every Woman Knows,Gregory La Cava,H. Hayes,-5520
What Ever Happened to Baby Toto?,Luciano Ercoli,Totò,6060
What Ever Happened to Baby Jane?,Robert Aldrich,B. Davis,7980
What Ever Happened to Aunt Alice?,Robert Aldrich,R. Gordon,6060
What Do Kids Know?,Shine Limited,S. Cox,1800
"What Did You Do in the War, Daddy?",Blake Edwards,C. O'Connor,6960
What Becomes of the Broken Hearted?,Bill Gavin,R. Owen,5880
What Became of Jack and Jill?,Milton Subotsky,P. Nicholas,5580
What Am I Doing in the Middle of a Revolution?,Mario Cecchi Gori,P. Villaggio,6180
What About Bob?,Laura Ziskin,R. Dreyfuss,5880
What's the Worst That Could Happen?,Lawrence Turman,M. Lawrence,5640
What's the Time in Your World?,Ali Mosaffa,L. Hatami,6000
What's the Matter with Helen?,Edward S. Feldman,A. Moorehead,6060
What's the Matador?,Jules White,C. Howard,976
What's in a Name?,Irving Asher,R. Purdell,2880
What's Your Raashee?,Ashutosh Gowarikar,P. Chopra,12660
What's Your Husband Doing?,Thomas H. Ince,D. MacLean,3000
What's Wrong with the Women?,Daniel Carson Goodman,C. Bennett,4200
What's Worth While?,Lois Weber,C. Windsor,3600
What's Up Nurse!,Graham Stark,K. Williams,4620
"What's Up, Tiger Lily?",Woody Allen,W. Allen,4800
"What's Up, Doc?",Peter Bogdanovich,B. Streisand,5640
What's So Bad About Feeling Good?,George Seaton,D. DeLuise,5640
What's New Pussycat?,Charles K. Feldman,P. O'Toole,6480
What's My Line?,Mark Goodson,B. Cerf,-1740
What's Happening Now!!,Kim Weiskopf,M. Lawrence,1320
What's Good for the Goose,Tony Tenser,T. Alexander,5880
What's Alan Watching?,Eddie Murphy,E. Murphy,3600
What?,Carlo Ponti,D. Hallervorden,6600
What! No Beer?,Lawrence Weingarten,B. Keaton,3960
Wham Bam Slam,Jules White,L. Fine,954
Whale Rider,Frank Hübner,W. Rider,6060
Whale Music,Raymond Massey,P. Gross,6420
Wetherby,Simon Relph,I. Holm,6120
Wet Paint,Adolph Zukor,B. Washburn,3600
Westward the Women,Dore Schary,R. Taylor,7080
Westward Passage,Harry Joe Brown,A. Harding,4380
Westward Ho the Wagons!,Walt Disney,F. Parker,5400
Westside,John Laing,A. Prebble,-2700
Western Union,Darryl F. Zanuck,D. Jagger,5400
Western Gold,Sol Lesser,B. Alexander,3420
Westbound,Henry Blanke,R. Scott,4320
West of the Pecos,Herman Schlom,R. Mitchum,3960
West of the Pecos,Cliff Reid,R. Dix,4200
West of Zanzibar,Tod Browning,L. Barrymore,3900
West of Suez,Richard Gordon,K. Brasselle,4440
West of Shanghai,Hal B. Wallis,R. Cortez,3840
West of Nevada,Arthur Alexander,A. S. John,3420
West of Memphis,Peter Jackson,W. M. Three,8820
West of Hot Dog,Joe Rock,S. Laurel,1800
West and Soda,Bruno Bozzetto,C. Romano,5160
West Side Story,Robert Wise,N. Wood,9120
West Point Widow,Sol C. Siegel,R. Carlson,3780
West Point,Edward Sedgwick,J. Crawford,5700
West Is West,Leslee Udwin,O. Puri,6180
West Bank Story,Ari Sandel,N. DeWulf,1260
West 32nd,Teddy Zee,J. Cho,5160
West 11,Daniel M. Angel,D. Dors,5580
West,Anne Robinson,K. Chittenden,5940
