col0,col1,col2,col3
Archers Bay,Deputy Minister,Val de l'Orne,W. Farm
Archduke,Highflyer,Eclipse,S. Baronets
Arcangues,Luthier,Irish River,D. Wildenstein
Arazi,Red God,Northern Dancer,R. Wilson
Aquarelliste,Danzig,Manila,D. Wildenstein
Aqaarid,Blushing Groom,Lomond,S. Farm
American Post,Arctic Tern,Sadler's Wells,J. Farms
Americain,Roberto,Arazi,W. e. Frère
Ambiorix,Ksar,Pharos,H. d. Fresnay-le-Buffard
Alywow,Alydar,Coastal,K. Farms
Alydar,Native Dancer,On-and-On,C. Farm
Alycidon,Blenheim,Hyperion,"Edward Stanley, 17th Earl of Derby"
Alphabatim,Speak John,Grey Dawn,E. Farm
Almutawakel,Mr. Prospector,Green Desert,S. Racing
Almahmoud,Blenheim II,Peace Chance,C. V. Whitney
Alluvial,Tom Fool,Hill Prince,C. Farm
All Along,Round Table,Vieux Manoir,D. Wildenstein
Alibhai,Gainsborough,Tracery,A. K. III
Alhaarth,Northern Dancer,Irish River,S. Racing
Alborada,Lyphard,Darshaan,K. Rausing
Alamshar,Chief's Crown,Shahrastani,A. K. IV
Al Bahathri,Red God,Nodouble,T. P. Whitney
Air Force Blue,Danzig,Maria's Mon,S. Farm
Agnes World,Northern Dancer,Seattle Slew,C. Farm
African Story,Polar Falcon,Gone West,D. Stud
African Rose,Distant View,Quest for Fame,J. Farms
Affirmed,Raise a Native,Crafty Admiral,H. V. Farm
Ad Valorem,Northern Dancer,Relaunch,C. Farm
A Gleam,Blandford,Bull Lea,C. Farm
A.P. Indy,Bold Reasoning,Secretariat,William Stamps Farish III
