col0,col1,col2,col3,col4,col5
Castle of Santa Maria da Feira,Aveiro,Aveiro,Aveiro,Aveiro,174
Castle of Pombal,Leiria,Leiria,Leiria,Leiria,115
Castle of Montalvão,Portalegre,Portalegre,Portalegre,Portalegre,330
Castle of Faria,Braga,Braga,Braga,Braga,225
Castle of Evoramonte,Évora,Évora,Évora,Évora,469
Castle of D. Chica,Braga,Braga,Braga,Braga,106
Castle of Castro Marim,Faro,Faro,Faro,Faro,41
Castle of Carrazeda de Ansiães,Bragança,Bragança,Bragança,Bragança,795
Castle of Belver,Portalegre,Portalegre,Portalegre,Portalegre,148
Castle of Amieira do Tejo,Portalegre,Portalegre,Portalegre,Portalegre,214
Castle of Alvor,Faro,Faro,Faro,Faro,19
Castle of Almourol,Lisbon,Lisbon,Lisbon,Lisbon,18
Castle of Aljezur,Faro,Faro,Faro,Faro,49
Castle of Algoso,Bragança,Bragança,Bragança,Bragança,658
Castle of Alcoutim,Faro,Faro,Faro,Faro,66
Castle of Alcoutim,Faro,Faro,Faro,Faro,24
Blatnica Castle,Martin District,Martin District,Martin District,Martin District,600
