col0,col1,col2,col3
Trevinca,Galician Massif,Galicia,2127
Tretzevents,Pyrenees,Catalonia,2731
Trettachspitze,Allgäu Alps,Bavaria,2595
Tres Picachos,"Cordillera Central, Puerto Rico",Puerto Rico,1205
Tremuzo,Galician Massif,Spain,531
Treffauer,Kaisergebirge,Tyrol,2304
Trebević,Dinaric Alps,Bosnia and Herzegovina,1627
Treasure Mountain,Elk Mountains,Colorado,4125
Treadmill Ridge,Victoria Cross Ranges,Alberta,2944
Tre Cime di Lavaredo,Alps,Italy,2999
Tray Mountain,Blue Ridge Mountains,Georgia,1350
Traverse Peak,Teton Range,Wyoming,3368
Traunstein,Upper Austrian Prealps,Austria,1691
Trask Mountain,Northern Oregon Coast Range,Oregon,1044
Trapper Peak,Bitterroot Mountains,United States,3095
Trapper Peak,Waputik Mountains,Alberta,2988
Trango Towers,Karakoram,Pakistan,6286
Tralcán,Andes,Chile,1024
Trakta,Lofoten,Nordland,980
Trafoier Eiswand,Ortler Alps,South Tyrol,3565
Trabuco Peak,Santa Ana Mountains,California,1404
Trębna,Krzeszowskie Wzgórza,Poland,590
Trélod,Bauges,France,2181
Tower Mountain,Taconic Mountains,"Berkshire County, Massachusetts",668
Tower Mountain,San Juan Mountains,Colorado,4132
Toussidé,Tibesti Mountains,Chad,3315
Tournelon Blanc,Pennine Alps,Switzerland,3700
Tour de Mayen,Swiss Prealps,Switzerland,2326
Tour de Famelon,Swiss Prealps,Switzerland,2138
Tour de Don,Chablais Alps,France,1998
Tour de Boussine,Pennine Alps,Switzerland,3833
Tour d'Aï,Bernese Alps,Switzerland,2331
Tour Sallière,Chablais Alps,Switzerland,3220
Tour Noir,Mont Blanc Massif,France,3836
Toubkal,Atlas Mountains,Morocco,4167
Totoket Mountain,Metacomet Ridge,"Guilford, Connecticut",219
Totnansberg,Rhön,Bavaria,839
Toter Mann,Black Forest,Baden-Württemberg,1320
Totenkopf,Kaiserstuhl,Baden-Württemberg,557
Totenkopf,Diemel,Hochsauerlandkreis,502
Totenkirchl,Kaisergebirge,Austria,2190
Totenberg,Weser Uplands,Germany,408
Tossal dels Tres Reis,Ports de Tortosa-Beseit,Baix Ebre,1350
Tossal de la Baltasana,Prades Mountains,Catalonia,1203
Tossal d'en Cervera,Ports de Tortosa-Beseit,Catalonia,1347
Tossal d'Orenga,Sistema Ibérico,Valencian Community,1144
Tossal Gros de Vallbona,Serra del Tallat,Catalonia,802
Tossal Gros,Catalan Pre-Coastal Range,Catalonia,867
Tossa Plana de Lles,Pyrenees,Catalonia,2903
Tosc,Julian Alps,Slovenia,2275
Torsäule,Berchtesgaden Alps,Austria,2588
Torrone di Nav,Lepontine Alps,Switzerland,2832
Torreys Peak,Front Range,Colorado,4350
Torrey Peak,Wind River Range,"Fremont County, Wyoming",3712
Torrenthorn,Bernese Alps,Switzerland,2998
Torreneules,Pyrenees,Ripollès,2713
Torre di Lavina,Graian Alps,Aosta Valley,3308
Torre del Gran San Pietro,Graian Alps,Aosta Valley,3692
Torre de Cerredo,Cantabrian Mountains,Asturias,2650
Torre Egger,Andes,Argentina,2685
Torre,Serra da Estrela,Portugal,1993
Toro Peak,Santa Rosa Mountains,California,2656
Torngarsoak Mountain,Selamiut Range,Canada,1595
Tornado Mountain,High Rock Range,Alberta,3099
Torna Fort,Sahyadri,India,1403
Torkofel,Gailtal Alps,Austria,2276
Torhelm,Kitzbühel Alps,Austria,2494
Torfinnstindene,Jotunheimen,Norway,2120
Torent Alto,Lepontine Alps,Switzerland,2952
Tordsnose,Tafjordfjella,Norway,1975
Tordoki Yani,Sikhote-Alin,Khabarovsk Krai,2090
Torc Mountain,Mountains of East Kerry,Ireland,535
Topog Peak,West Humboldt Range,Nevada,1686
Topaz Mountain,Thomas Range,United States,2149
Top o'Selside,Lake District,Cumbria,335
Toozaza Peak,Stikine Ranges,British Columbia,2182
Tooth of Time,Sangre de Cristo Mountains,New Mexico,2744
Toolbrunup,Stirling Range,Great Southern region of Western Australia,1052
Tonoloway Ridge,Ridge-and-valley Appalachians,Maryland,393
Tongshanjiabu,Himalayas,Bhutan,7207
Tonelagee,Wicklow Mountains,Ireland,817
