col0,col1,col2,col3
É. Brouiller,R. Haguenauer,R. Haguenauer,1987-7-23
Á. Lukács,N. Hoffmann,A. Elek,1996-6-25
Z. Kelemen,P. Camerlengo,C. Gheorghe,1986-7-31
Z. Kexin,D. Wilson,L. Chengjiang,1995-10-17
Z. Dan,M. Zueva,Y. Bin,1985-10-4
Z. Bush,O. Kazakova,A. Urmanov,1993-4-1
Z. Donohue,I. Shpilband,M. Zueva,1991-1-8
Y. Takeuchi,N. Morozov,T. Mura,1979-8-15
Y. Shevchuk,A. Dmitriev,O. Kazakova,1990-8-27
Y. Larionov,M. Zueva,V. Kudriavtsev,1986-8-19
Y. Matsuda,K. Miyamoto,H. Nagakubo,1998-7-22
Y. Lipnitskaya,I. Averbukh,E. Tutberidze,1998-6-5
Y. Kavaguti,I. Bobrin,N. Velikov,1981-11-20
Y. Ota,T. Dickson,M. Hamada,1986-11-26
Y. Nakano,K. Miyamoto,M. Yamada,1985-8-25
Y. Xiaoyu,M. Zueva,L. Bo,1996-1-2
Y. Deslot,A. Dumont,A. Dumont,1984-5-15
Y. Paniot,K. Kwan,V. Zagorodniuk,1997-12-26
Y. Chao,Y. Liu,Z. Xu,1989-7-26
Y. Takeuchi,N. Morozov,T. Mura,1979-8-15
W. Jialiang,S. Bourne,X. Zhaoxiao,1985-6-23
V. Morozov,M. Trankov,S. Morozov,1992-11-1
V. Baranov,M. Humphreys,N. Dubova,1975-1-18
V. Novikov,T. Tarasova,T. Tarasova,1979-1-13
V. Zhou,Y. Sato,T. Zakrajsek,2000-10-25
V. Borzenkova,O. Kazakova,O. Kazakova,1981-12-25
V. Romanenkov,G. Chiper,O. Romanenkova,1993-9-29
V. Pfeifer,D. Petukhov,U. Keszler,1987-5-16
V. Sinitsina,E. Kustarova,E. Kustarova,1995-4-29
V. Morávková,N. Linichuk,G. Karponosov,1983-1-22
V. Bazarova,M. Zueva,V. Kudriavtsev,1993-1-28
V. Chipeur,K. Browning,S. Davis,1984-12-21
V. Marchei,N. Morozov,N. Morozov,1986-5-23
T. Živanović,N. Dubova,G. Visconti,1975-4-17
T. Mager,G. Sretenski,G. Sretenski,1990-9-9
T. Verner,L. Nichol,M. Huth,1986-6-3
T. Gilles,C. Dean,A. Krylova,1986-4-14
T. McKernan,I. Shpilband,I. Shpilband,1989-7-29
T. Leemann,I. Steuer,I. Steuer,1991-4-22
T. Goebel,L. Nichol,F. Carroll,1980-9-10
T. Giesen,J. Deutschland,R. Lohse,1988-7-26
T. Zahorski,R. Haguenauer,O. Schoenfelder,1994-8-16
T. Vise,D. Ladret,I. Vorobieva,1986-2-2
T. Stiegler,I. Shpilband,I. Shpilband,1984-1-14
T. Hyden,A. Krylova,A. Krylova,1980-9-4
T. Virtue,M. Zueva,M. Zueva,1989-5-17
T. Findlay,R. Haguenauer,R. Haguenauer,1990-5-3
T. Machida,K. Miyamoto,A. Liu,1990-3-9
T. Volosozhar,A. Zhulin,I. Steuer,1986-5-22
T. Malinina,R. Sinicyn,R. Skorniakov,1973-1-28
T. Lipinski,S. Bezic,R. Callaghan,1982-6-10
T. Kolbe,J. Deutschland,A. Krylova,1990-9-7
T. B. White,I. Shpilband,M. Zueva,1984-7-11
T. Katz,N. Morozov,A. Liu,1988-9-26
T. Mura,T. Dickson,H. Nagakubo,1991-2-11
T. Kozuka,M. Zueva,J. Dungjen,1989-2-27
S. Wolfe,D. Wilson,J. Zimmerman,1990-2-1
S. Nowak,E. Tchaikovskaya,M. Olszewska-Lelonkiewicz,1976-4-28
S. Siyin,R. Roca,Y. Sun,1984-6-6
S. Wenjing,M. Zueva,L. Bo,1995-7-18
S. Lambiel,A. Najarro,V. Petrenko,1985-4-2
S. Bernadis,T. Tarasova,S. Leonovich,1974-2-23
S. Carriere,M. Mitchell,P. Johansson,1989-6-15
S. Kalesavich,Z. Szwed,J. Johns,1984-5-31
S. Morozov,N. Morozov,I. Steuer,1979-2-1
S. Pensgen,O. Volozhinskaya,R. Callaghan,1982-5-25
S. Kemp,R. Cousins,J. Barrett,1988-7-25
S. Lambiel,A. Najarro,V. Petrenko,1985-4-2
S. Bernadis,T. Tarasova,S. Leonovich,1974-2-23
S. Lafuente,R. Haguenauer,B. Orser,1991-12-7
S. Nan,J. Buttle,S. Yi,1990-8-9
S. Kerr,P. Tchernyshev,E. Platov,1978-8-30
S. Smalun,R. Sinicyn,M. Huth,1979-11-2
S. Ronka,E. Burka,P. Burka,1988-4-23
S. Willner,H. Schamberger,P. Sczypa,1993-1-22
S. Sawyer,B. Orser,G. Forbes,1985-1-14
S. Rogers,I. Romanova,P. Gregory,1985-7-22
S. Voronov,I. Zhuk,A. Urmanov,1987-10-3
S. Verbillo,N. Morozov,E. Grushina,1984-7-21
S. Novitski,I. Zhuk,I. Zhuk,1981-5-16
S. Magerovski,I. Shpilband,M. Zueva,1980-9-17
S. Kulbach,S. Todorov,S. Todorov,1992-11-24
S. Davydov,V. Kotin,V. Kotin,1979-3-2
S. Sakhanovich,E. Tutberidze,E. Tutberidze,2000-2-9
S. Kolasiński,E. Tchaikovskaya,M. Olszewska-Lelonkiewicz,1975-2-16
S. Carlow,D. Wilson,B. Orser,1985-3-13
S. Smith,L. Nichol,P. Johansson,1981-10-19
S. Moir,M. Zueva,M. Zueva,1987-9-2
S. Cohen,M. Zueva,R. Wagner,1984-10-26
S. Abitbol,T. Tarasova,S. Leonovich,1975-6-8
S. Hurtado,M. Dubreuil,M. Dubreuil,1992-11-3
S. Contesti,P. Camerlengo,P. Grütter,1983-3-4
S. Wolfe,M. Zueva,J. Zimmerman,1990-2-1
R. V. Natten,K. Johnson,O. Fediukov,1987-11-11
R. Swiegers,B. Ford,L. Johnston,1987-8-31
R. Blommaert,J. Buttle,K. Fajfr,1992-3-5
R. Luca,P. Camerlengo,M. Negrea,1982-12-23
R. Zaretsky,G. Chait,G. Chait,1983-12-4
R. Skorniakov,A. Zhulin,T. Malinina,1976-2-17
R. Serov,L. Nichol,V. Kudriavtsev,1976-12-16
R. Ponsart,P. Camerlengo,B. Joubert,1992-4-27
R. L. Gac,O. Schoenfelder,O. Schoenfelder,1995-5-31
R. Brubaker,S. Kawahara,J. Meno,1986-6-21
R. Szolkowy,I. Steuer,I. Steuer,1979-7-14
R. Thieleke,P. Camerlengo,H. Schamberger,1987-11-13
R. Rex,I. Steuer,I. Steuer,1976-10-5
R. Schultz,K. Johnson,J. Larivière,1990-4-25
R. Kirkland,D. Wilson,B. Orser,1992-9-29
P. Vanagas,C. Dean,I. Shpilband,1970-7-23
P. Shelepen,N. Morozov,E. Tutberidze,1995-7-28
P. Edmunds,M. Klimova,F. Carroll,1998-5-18
P. Gilles,C. Dean,C. Dean,1992-1-16
P. Joncas,J. Boyer,V. Saurette,1985-8-14
P. Tischendorf,R. Lohse,M. Huth,1988-6-7
P. Askew,M. Humphreys,B. Callaway,1973-10-4
P. Bidař,G. Hrázská,O. Dlabola,1991-3-18
P. Liebers,R. Lohse,R. Österreich,1988-4-16
P. Gerber,K. Johnson,P. Porac,1992-3-16
P. Carron,M. Dubreuil,R. Haguenauer,1986-8-20
P. Chan,C. Dean,D. Laws,1990-12-31
P. Lauzon,D. Wilson,M. Zazoui,1975-11-26
P. Pennington,N. Morosov,C. Conte,1984-9-13
O. Beständigová,D. Ladret,T. Vise,1979-5-2
O. Jääskeläinen,R. McCall,D. Leigh,1969-3-8
O. Japaridze,N. Morozov,G. Chait,1987-12-23
O. Hotárek,A. Krylova,J. Dungjen,1984-1-25
O. Schoenfelder,M. Dubreuil,T. Tarasova,1977-11-30
O. Smart,P. Askew,E. Platov,1997-4-1
O. N. Martins,J. Razgulajevs,J. Razgulajevs,1991-11-26
O. Prokuronova,R. Kovaříková,R. Novotný,1989-7-3
O. Bychenko,D. Dmytrenko,V. Murvanidze,1988-2-5
O. Nazarova,M. Kozlova,A. Zhulin,1996-11-30
O. Voyko,N. Morozov,R. Farkhutdinov,1980-3-25
O. Fediukov,U. Keszler,U. Keszler,1972-10-20
O. Kazakova,T. Moskvina,T. Moskvina,1975-4-8
O. Domnina,N. Linichuk,N. Linichuk,1984-8-17
O. Baiul,S. Kawahara,G. Zmievskaya,1977-11-16
O. Beständigová,D. Ladret,T. Vise,1979-5-2
N. Hoffmann,N. Morozov,E. Garanina,1985-4-8
N. Watanabe,N. Linichuk,G. Karponossov,1971-2-18
N. Jeschke,K. Winkler,K. Schubert,1979-3-2
N. Kanzaki,M. Hamada,M. Hamada,1982-12-12
N. Oda,L. Nichol,N. Morozov,1987-3-25
N. Višňová,H. Schamberger,H. Schamberger,1992-5-25
N. Gosviani,T. Tarasova,A. Urmanov,1996-9-9
N. Katsalapov,A. Zhulin,A. Zhulin,1991-7-10
N. Orford,A. Lowe,M. Wing,1992-10-10
N. Nönnig,I. Steuer,I. Steuer,1982-8-9
N. Osseland,L. Haddad,S. Privé,1978-8-22
N. Young,D. Wilson,S. Britten,1982-3-3
N. Zhiganshina,E. Kustarova,A. Zhulin,1987-3-31
N. Simaová,R. Sinicyn,A. Vasilevsky,1988-7-21
N. Miller,D. Sappenfield,D. Sappenfield,1988-7-18
N. Chen,N. Morozov,E. Chernyshova,1999-5-5
N. Weinzierl,S. Lambiel,G. Zöller,1994-4-8
N. Péchalat,A. Zhulin,A. Zhulin,1983-12-22
N. Zabijako,S. Todorov,S. Todorov,1994-8-15
N. Mishkutionok,T. Moskvina,T. Moskvina,1970-7-14
N. Kaliszek,V. Saurette,M. Siudek,1996-5-17
N. Gudina,N. Linichuk,G. Karponosov,1977-11-11
N. Takahashi,M. Zueva,J. Dungjen,1992-1-15
N. N. Nam,P. Oppegard,P. Oppegard,1985-7-6
N. Nguyen,L. Nichol,B. Orser,1998-5-20
N. Hoffmann,N. Morozov,E. Garanina,1985-4-8
M. Chataigner,S. Abitbol,S. Bernadis,1988-3-28
M. Kasalo,M. Kozlova,O. Akimova,1989-11-24
M. Matthews,E. Garanina,E. Garanina,1987-5-21
M. Islam,J. Buttle,A. Krylova,1990-1-24
M. Ziegler,S. Jeanette,R. Rex,1994-3-19
M. Nagasu,A. Rippon,F. Carroll,1993-4-16
M. Leung,L. Nichol,J. McLeod,1989-3-28
M. Ando,M. Zueva,N. Morozov,1987-12-18
M. Kwan,C. Dean,F. Carroll,1980-7-7
M. Zych,N. Morozov,M. Olszewska-Lelonkiewicz,1982-5-28
M. Kaliszek,V. Saurette,M. Siudek,1990-11-17
M. Češka,J. Razgulajevs,R. Sinicyn,1992-9-2
M. Březina,P. Camerlengo,V. Petrenko,1990-3-30
M. Češka,R. Sinicyn,R. Sinicyn,1992-9-2
M. Coreno,P. Camerlengo,M. U. Kraatz,1984-8-31
M. Chack,L. Nichol,F. Carroll,1971-8-1
M. Zych,N. Morozov,M. Olszewska-Lelonkiewicz,1982-5-28
M. Kaliszek,V. Saurette,M. Siudek,1990-11-17
M. Davis,I. Shpilband,I. Shpilband,1987-1-1
M. Williams-Stewart,I. Romanova,P. Gregory,1987-6-27
M. Bouzzine,S. Abitbol,S. Bernadis,1984-2-9
M. Wende,A. Krylova,K. Fajfr,1988-9-22
M. Coia,L. Haddad,S. Bernadis,1983-12-5
M. Zavozin,N. Morozov,E. Garanina,1985-3-2
