col0,col1,col2,col3
Fire Emblem: Shadow Dragon,Y. Tsujiyoko,S. Kaga,Nintendo
Fire Emblem: Mystery of the Emblem,Y. Tsujiyoko,S. Kaga,Nintendo
Fire Emblem: Genealogy of the Holy War,Y. Tsujiyoko,S. Kaga,Nintendo
Final Fantasy XV,Y. Shimomura,K. Nojima,Square Enix
Final Fantasy XIII-2,M. Hamauzu,D. Watanabe,Square Enix
Final Fantasy XIII,M. Hamauzu,D. Watanabe,Square Enix
Final Fantasy XII: Revenant Wings,H. Sakimoto,M. Toriyama,Square Enix
Final Fantasy XII,H. Matsuo,D. Watanabe,Square Enix
Final Fantasy XI,K. Tanioka,M. Kato,Sony Computer Entertainment
Final Fantasy X/X-2 HD Remaster,N. Uematsu,K. Nojima,Square Enix
Final Fantasy VII,N. Uematsu,K. Nojima,Eidos Interactive
Final Fantasy Mystic Quest,R. Sasai,T. Woolsey,Square
Final Fantasy IX,N. Uematsu,H. Sakaguchi,Square
Final Fantasy IV: The Complete Collection,N. Uematsu,T. Tokita,Square Enix
Final Fantasy II,N. Uematsu,K. Terada,Square
Final Fantasy Crystal Chronicles: The Crystal Bearers,K. Tanioka,A. Kawazu,Square Enix
Final Fantasy Crystal Chronicles: My Life as a King,K. Tanioka,M. Toriyama,Square Enix
Final Fantasy Crystal Chronicles: My Life as a Darklord,K. Tanioka,M. Toriyama,Square Enix
Final Fantasy Adventure,K. Ito,Y. Kitase,Square
Final Fantasy,N. Uematsu,K. Terada,Nintendo
Final Fantasy: The 4 Heroes of Light,N. Mizuta,T. Tokita,Square Enix
Fatal Frame: Mask of the Lunar Eclipse,M. Takada,G. Suda,Nintendo
Far Cry 4,C. Martinez,L. Soulban,Ubisoft
Far Cry 3: Blood Dragon,P. Glove,L. Soulban,Ubisoft
Far Cry 3,B. Tyler,L. Soulban,Ubisoft
Fantasy Life,N. Uematsu,A. Hino,Nintendo
Fantastic Four: Rise of the Silver Surfer,R. Fish,F. Dille,2K Games
Family Guy Video Game!,W. Murphy,S. Callaghan,2K Games
Famicom Tantei Club Part II: Ushiro ni Tatsu Shōjo,K. Yamamoto,Y. Sakamoto,Nintendo
Fallout 4,I. Zur,E. Pagliarulo,Bethesda Softworks
Fallout 3,I. Zur,E. Pagliarulo,Bethesda Softworks
Fallout 2,M. Morgan,T. Cain,Interplay Entertainment
Fahrenheit,N. Corbeil,D. Cage,"Atari, Inc."
F.E.A.R. 3,J. Graves,J. Carpenter,Warner Bros. Interactive Entertainment
Eternal Sonata,M. Sakuraba,H. Hatsushiba,Namco Bandai Games
Eternal Darkness,S. Henifin,D. Dyack,Nintendo
Escape from Monkey Island,C. Bajakian,M. Stemmle,LucasArts
Epic Saga: Extreme Fighter,K. Honeychurch,R. Mavlian,Double Fine Productions
Epic Mickey 2: The Power of Two,J. Dooley,M. Wolfman,Disney Interactive Studios
Enslaved: Odyssey to the West,N. Sawhney,A. Garland,Namco Bandai Games
Eat Lead: The Return of Matt Hazard,R. Abernethy,D. Ellis,D3 Publisher
EarthBound,H. Tanaka,S. Itoi,Nintendo
Dungeon Siege III,J. Graves,G. Ziets,Square Enix
Duke Nukem II,R. Prince,T. Hall,GT Interactive Software
