col0,col1,col2,col3
Take On the World,R. Halford,Evening Star,CBS
Take My Scars,R. Flynn,From This Day,San Francisco
Take Me with U,Prince,Raspberry Beret,Los Angeles
Take Me to the Pilot,E. John,Your Song,London
Take Me to Your Heart,S. A. Waterman,Hold Me in Your Arms,1988 in music
Take Me Home,R. Daltrey,Days of Light,London
Take Me Home,P. Collins,Separate Lives,Nineteen Eighty-Four
Take Me Bak 'Ome,N. Holder,Mama Weer All Crazee Now,1972 in music
Take It Off,C. Kelly,We R Who We R,California
Take It Easy,D. McClinton,Too Many Lovers,"Nashville, Tennessee"
Take It Easy,G. Frey,Witchy Woman,London
Take Control,J. Oates,Gotta Work,New Jersey
Take Back the City,G. Lightbody,Crack the Shutters,Germany
Tabloid Magazine,C. Cheney,What's on Your Radio,"Burbank, California"
Tabloid Junkie,M. Jackson,2 Bad,1994 in music
Ta Da,M. Jordan,Whatever,"Hollywood, California"
TVC 15,D. Bowie,Stay,California
T.N.T. for the Brain,M. Cretu,Gravity of Love,Ibiza
T'en va pas,R. Wargnier,Quelque chose dans mon cœur,Rome
Synchronicity II,Sting,King of Pain,Associated Independent Recording
Synchronicity I,Sting,Don't Stand So Close to Me '86,Associated Independent Recording
Swimming with the Kids,T. Rasmus,F-F-F-Falling,Finland
Sweetheart,B. Gibb,When There's No You,IBC Studios
Sweet Thing,D. Bowie,Rebel Rebel,Olympic Studios
Sweet Talkin' Woman,J. Lynne,Wild West Hero,Munich
Sweet Sir Galahad,J. Baez,The Night They Drove Old Dixie Down,Nashville
Sweet Little Sixteen,C. Berry,Johnny B. Goode,"Chicago, Illinois"
Sweet Leaf,O. Osbourne,After Forever,"Los Angeles, California"
Sweet Jane,L. Reed,I'm Waiting for the Man,London
Sweet Emotion,S. Tyler,Walk This Way,New York
Sweet Dreams My LA Ex,B. &. Avant,Funky Dory,Stockholm
"Swallow, Smile",F. Ferdinand,Lucid Dreams,Melbourne
Swagger Jagger,T. Runners,With Ur Love,Florida
Swagga Like Us,J. Strummer,Ready for Whatever,Record Plant
Suspicious Minds,M. James,Ain't That Lonely Yet,"Memphis, Tennessee"
Susie Q,D. Hawkins,I Put a Spell on You,KWKH
Survivor,S. Vaughn,Don't Hold Back On Love,Sweden
Surrender,J. Lynne,Latitude 88 North,Germany
Surfin' Safari,B. Wilson,Ten Little Indians,United Western Recorders
Surfer Girl,B. Wilson,Be True to Your School,United Western Recorders
Surf City,B. Wilson,Honolulu Lulu,United Western Recorders
Surf's Up,B. Wilson,You Need a Mess of Help to Stand Alone,United Western Recorders
Sure Shot,D. Hurricane,Root Down,New York City
Sure Know Something,P. Stanley,Shandi,New York City
Sur un air latino,Lorie,Week End,SNEP
Supremacy,M. Bellamy,Panic Station,Capitol Studios
Supranatural,Tataee,Bag Pula-n Lume Şi V-o Fac Cadou,"Bucharest, Romania"
Superwoman,L. Perry,Another Way to Die,California
Superstition,S. Wonder,You Are the Sunshine of My Life,New York City
Superstar,Madonna,I Don't Give A,New York City
Superstar,T. Rice,I Don't Know How to Love Him,Olympic Studios
Superstar,J. MacRae,In The Basement,2005 in music
Superstar,Cutfather,Thank You,Copenhagen
Supersonic,N. Gallagher,Shakermaker,Liverpool
Superman Tonight,R. Sambora,When We Were Beautiful,California
Superhuman,J. Fauntleroy,Freeze,"Los Angeles, California"
Superhero,K. Lundin,Hang On in There Baby,Cheiron Studios
Supercute,Prince,"The Work, pt. 1",Minnesota
Superbeast,C. Clouser,Feel So Numb,California
Super Bad,J. Brown,Santa Claus Is Definitely Here to Stay,1970 in music
Super,K. Dinger,Isi,Cologne
Sunshine of Your Love,J. Bruce,Anyone for Tennis,Atlantic Studios
Sunshine Superman,Donovan,Mellow Yellow,Abbey Road Studios
Sunshine,S. Tyler,Just Push Play,2001 in music
Sunny Sundae Smile,K. Shields,Strawberry Wine,London
Sundown Syndrome,K. Parker,Solitude Is Bliss,London
Sunday Morning,J. Cale,Here She Comes Now,Manhattan
Sunday Girl,C. Stein,One Way or Another,New York City
Sunday Bloody Sunday,U2,Pride,"Dublin, Ireland"
Sunday,Hurts,Illuminated,Gothenburg
Sunburn,M. Bellamy,Unintended,Cornwall
Sun Is Up,P. &. Win,Club Rocker,Constanța
Sun Hits the Sky,R. Coombes,Late in the Day,Sawmills Studio
Sun Goes Down,D. Jordan,Move On,Bahamas
Summon the Heroes,J. Williams,Call of the Champions,New York
Summertime Blues,E. Cochran,C'mon Everybody,Gold Star Studios
Summertime,D. Wahlberg,Single,2008 in music
Summertime,R. Sambora,Whole Lot of Leavin',2006 in music
Summer Holiday,B. Welch,Lucky Lips,London
Summer Cannibals,P. Smith,E-Bow the Letter,Electric Lady Studios
Summer,D. Aitchison,"New Paths to Helicon, Pt. 1",Scotland
Summer '68,R. Wright,Free Four,Abbey Road Studios
Sulfur,J. Jordison,Snuff,"Jamaica, Iowa"
"Sukoshi Zutsu, Taisetsu ni",Misia,Aitakute Ima,Onkio Haus
Suit & Tie,Jay-Z,Mirrors,"North Hollywood, Los Angeles"
Suffragette City,D. Bowie,Sound and Vision,Trident Studios
Suffocate,M. Nelson,Bionic,Sawmills Studios
Suffer Well,C. Eigner,John the Revelator / Lilian,"Santa Barbara, California"
Suffer Never,N. Finn,Angels Heap,Auckland
Suddenly,R. Marx,The Time of Our Lives,Atlanta
Suburban Knights,R. Archer,Can't Get Along,Staines
Substitute,P. Townshend,A Legal Matter,Olympic Studios
Subhuman,Garbage,Only Happy When It Rains,"Madison, Wisconsin"
Stuttering,F. Dobson,Can't Breathe,New York City
Stupid Kid,M. Skiba,Private Eye,"Cannon Falls, Minnesota"
Stupid Girl,T. Clash,Milk,Smart Studios
Stuck on You,A. Schroeder,It's Now or Never,"Nashville, Tennessee"
Stubborn Kind of Fellow,M. Gaye,Hitch Hike,"Detroit, Michigan"
Strutter,G. Simmons,Hotter than Hell,New York City
Stroke You Up,R. Kelly,Foolin' Around,Chicago Recording Company
Stripsearch,B. Gould,I Started A Joke,San Francisco
Strip Me,R. Tedder,Jet Lag,Santa Monica
Strictly Physical,P. Kirtley,What You Don't Know,Bavaria
Strict Machine,A. Goldfrapp,Twist,"Bath, Somerset"
Stricken,D. Donegan,Just Stop,"Chicago, Illinois"
Street Life,B. Ferry,All I Want Is You,London
Stray Heart,G. Day,X-Kid,"Oakland, California"
Strawberry Fields Forever,Lennon–McCartney,All You Need Is Love,Abbey Road Studios
Strangers When We Meet,P. DiNizio,Only a Memory,New York City
Stranger,J. Lynne,Calling America,Wisseloord Studios
Strangelove,M. Gore,Never Let Me Down Again,Konk
Strange World,Ké,Into The Night,2012 in music
Strange Relationship,Prince,Glass Cutter,Minneapolis
Strange Overtones,L. Abrahams,One Fine Day,London
Strange Magic,J. Lynne,Nightrider,Munich
Strange Love,"W. "". Stevenson",The One Who Really Loves You,Hitsville USA
Strange Kind of Woman,I. Gillan,Fireball,London
Strange Brew,E. Clapton,Spoonful,Atlantic Studios
Straight to You,N. Cave,"I Had a Dream, Joe",Sound City Studios
Stous 31 Dromous,D. Kontopoulos,+ Se Thelo,Athens
Stormy Weather,W. Sergeant,In the Margins,Liverpool
Stormtrooper in Drag,G. Numan,Venus in Furs,Shepperton
Stop the Sun,B. Guitar,I Believe in Love,"Hollywood, California"
Stop Stop Stop,A. Clarke,On a Carousel,London
"Stop, I Don't Love You Anymore",S. Spiteri,It Was You,London
Stop! In the Name of Love,Holland–Dozier–Holland,Back in My Arms Again,Hitsville U.S.A.
Stoned to the Bone,J. Brown,The Payback,"Augusta, GA"
Stoned in Love,T. Jones,Come Tomorrow,"Malibu, California"
Stoned Love,F. Wilson,River Deep – Mountain High,Detroit
Stone Cold,Laleh,Without a Fight,MXM Studios
Stole,S. Kipner,Can't Nobody,"Hollywood, California"
Still on It,Ashanti,Pac's Life,Los Angeles
Still in the Groove,T. Yabuki,Panorama,Japan
Still in Love with You,F. Boström,Let's Go to Bed,Germany
Still Want You,B. Flowers,Lonely Town,"Winchester, Nevada"
Still Waiting,Prince,Uptown,"Burbank, California"
Still Standing,M. Pressure,The Light You Burned,"Adelaide, South Australia"
Still Into You,H. Williams,Daydreaming,California
Steve McQueen,J. Frost,Interstate,Cardiff
Stepping Stone,J. Hendrix,Freedom,Record Plant Studios
Steer,M. Higgins,Where I Stood,"Los Angeles, California"
Stealin',K. Hensley,Something or Nothing,Château d'Hérouville
Stayin' Alive,B. Gibb,Night Fever,Château d'Hérouville
Stay the Night,B. Marley,So Far Gone,California
Stay,M. Ekko,Pour It Up,Westlake Recording Studios
Stay,Maurice Williams and the Zodiacs,Time After Time,"Columbia, Maryland"
Stay,Hurts,All I Want for Christmas Is New Year's Day,England
Stay,Bono,"Hold Me, Thrill Me, Kiss Me, Kill Me",Dublin
Statues,B. Mould,In A Free Land,"Minneapolis, Minnesota"
Station to Station,D. Bowie,TVC 15,California
State of the World,Jimmy Jam and Terry Lewis,The Best Things in Life Are Free,Minnesota
State of Love and Trust,M. McCready,Mudhoney,Seattle
State of Confusion,R. Davies,Good Day,Hornsey
Start of Something Good,B. James,Waiting for Superman,California
Starman,D. Bowie,Arnold Corns,Trident Studios
Stargazer,T. T. Party,Oceans,Toronto
Starfighter Pilot,G. Lightbody,Ask Me How I Am,Edinburgh
Starcamp EP,N. Mizuki,Trickster,Japan
Standing on the Shore,L. Steele,Without You,Australia
Standing in the Shadows of Love,Holland–Dozier–Holland,Bernadette,"Detroit, Michigan"
Stand by Your Side,M. Taylor,Tout l'or des hommes,England
Stand Up for Love,D. Foster,The Girl Is Mine,The Record Plant
Stand Up,D. McComb,Spanish Blue,"Perth, Western Australia"
Stand Back,S. Nicks,Crash Into Me,"Los Angeles, California"
Stand Above Me,A. McCluskey,Dream of Me,Liverpool
Stand,L. Mendez,2 Become 1,California
Stairs and Flowers,N. Ogre,Addiction,Mushroom Studios
Squirt,J. Fugler,Absurd The Remixes,1997 in music
Square One,T. Petty,Flirting with Time,"Los Angeles, California"
Sports & Wine,B. Folds,Uncle Walter,"Chapel Hill, North Carolina"
Spoonman,C. Cornell,The Day I Tried to Live,Seattle
Spoon,D. Matthews,The Last Stop,California
Spoiled,J. Stone,Don't Cha Wanna Ride,Right Track Recording
Splish Splash,B. Darin,Early in the Morning,"New York, NY"
Spitting Games,G. Lightbody,Run,Britannia Row
Spitfire,L. Howlett,Voodoo People/Out of Space,Essex
Spit It Out,P. Gray,Left Behind,"Malibu, California"
Spirit in the Night,B. Springsteen,Born to Run,"Blauvelt, New York"
Spirit Indestructible,N. Furtado,Parking Lot,California
Spiralling,T. Rice-Oxley,The Lovers Are Losing,Berlin
Spinning Wheel,D. Clayton-Thomas,Is That All There Is?,"Augusta, GA"
Spin the Black Circle,E. Vedder,Not for You,Seattle
Speed King,I. Gillan,Strange Kind of Woman,IBC Studios
Speed,H. Imai,M・A・D,Tokyo
Speechless,L. Gaga,Dance in the Dark,"Los Angeles, California"
Spectrum,M. Koma,Clarity,Seoul
Special Ones,K. Noonan,Run,Sydney
Special K,B. Molko,Black-Eyed,London
Special,Garbage,When I Grow Up,"Madison, Wisconsin"
Sparks,T. Lo,Little Lies,Sweden
Spanish Guitar,D. Warren,Maybe,California
Spanish Blue,D. McComb,Beautiful Waste,"Sydney, New South Wales"
Space Oddity,D. Bowie,"Ragazzo solo, ragazza sola",Trident Studios
Space Age Love Song,P. Reynolds,Wishing,London
Space,Prince,Purple Medley,Paisley Park Studios
Spaccacuore,L. Dalla,Non me lo so spiegare,California
Souviens-toi du jour,L. Boutonnat,Optimistique-moi,France
