col0,col1,col2,col3,col4
5176 Yoichi,12,1989-01-04,526980550266,277466785318
5175 Ables,13,1988-11-04,305643409627,282874613706
5171 Augustesen,13,1988-09-08,410661114858,315172793990
516 Amherstia,8,1903-09-20,510173618448,291956700436
5160 Camoes,13,1979-12-23,384705884292,334007165911
515 Athalia,11,1903-09-20,548440753773,387832479789
514 Armida,9,1903-08-24,474554365434,436780903082
5148 Giordano,14,1960-10-17,534033072604,398509967971
5145 Pholus,7,1992-01-09,4791918994262,1301710912108
5144 Achates,9,1991-12-02,989709592977,567574321435
5143 Heracles,13,1991-11-07,486180766374,62445098308
513 Centesima,9,1903-08-24,488407128261,414071946310
5130 Ilioneus,9,1989-09-30,787917025189,772568283656
5120 Bitias,9,1988-10-13,876703361450,702810796548
511 Davida,6,1903-05-30,561926799560,384951037802
510 Mabella,9,1903-05-20,465189538728,316354617169
5101 Akhmerov,12,1985-10-22,501855976837,397391783727
50 Virginia,9,1857-10-04,509817000000,283389000000
509 Iolanda,8,1903-04-28,501661499605,414655378006
508 Princetonia,8,1903-04-20,476753454133,469034204005
5088 Tancredi,12,1979-08-22,537475229850,391213391667
5080 Oja,12,1976-03-02,376947544240,293821781970
507 Laodica,9,1903-02-19,518775496013,424872912575
506 Marion,8,1903-02-17,521917051298,387293927455
505 Cava,8,1902-08-21,500135601324,302621532639
504 Cora,9,1902-06-30,495572866267,318404107997
5040 Rabinowitz,12,1972-09-15,443542726838,279927535653
503 Evelyn,9,1903-01-19,479176939639,335368506535
502 Sigune,10,1903-01-19,420384976454,292403998070
5028 Halaesus,10,1988-01-23,889493979395,685218086954
5027 Androgeos,9,1988-01-21,844958693287,742424312709
