col0,col1,col2,col3
H. Runge,German Empire,1913-01-23,1986-03-11
H. L. Hardwick,"Mayagüez, Puerto Rico",1914-05-02,1966-12-27
H. Średnicki,Siemianowice Śląskie,1955-01-17,2016-04-10
H. W. Armstrong,"Somerville, Massachusetts",1879-07-22,1951-02-22
H. Tiller,Trondheim,1914-6-14,1999-1-1
H. Thomas,Birmingham,1888-7-1,1963-1-13
H. Cooper,London,1934-05-03,2011-05-01
H. Armstrong,"Columbus, Mississippi",1912-12-12,1988-10-22
H. Piet,Paris,1888-01-01,1915-05-04
H. Quentemeijer,Rheine,1920-1-1,1974-4-22
H. d. Best,Amsterdam,1905-5-1,1978-7-6
H. Lazek,Austria,1911-10-17,1986-07-26
H. t. Hoff,Netherlands,1919-11-19,2003-06-13
H. Singh,India,1937-12-16,2000-08-14
H. Thomsén,Gothenburg,1942-2-27,2004-4-26
H. Pakandam,Iran,1934-05-19,2013-07-16
H. Wolff,Nyköping,1905-07-02,1987-04-29
H. Wills,New Orleans,1889-05-15,1958-12-21
H. Spanjer,"Grand Rapids, Michigan",1873-1-9,1958-7-16
H. Siljander,Helsinki,1922-12-10,2010-05-05
H. Scott,Liverpool,1937-10-27,2015-12-16
H. Mitchell,"Tiverton, Devon",1898-1-5,1983-2-8
H. Mason,Bethnal Green,1903-03-27,1977-08-27
H. Mallin,London,1892-06-01,1969-11-8
H. Lewis,New York City,1886-09-16,1956-02-22
H. Lake,"Devonport, Devon",1902-10-17,1970-0-0
H. Johnson,London,1887-8-10,1947-12-16
H. Jeffra,Baltimore,1914-11-30,1988-9-0
H. Isaacs,Johannesburg,1908-1-26,1961-9-13
H. Harris,Chicago,1880-11-18,1959-06-05
H. Haft,Bełchatów,1925-07-28,2007-11-03
H. Greb,Pittsburgh,1894-06-06,1926-10-22
H. Forbes,"Rockford, Illinois",1879-05-12,1946-12-19
H. Campbell,Detroit,1938-01-07,1961-05-16
H. Johnson,Philadelphia,1928-08-09,2015-02-19
H. Devine,"New Haven, Connecticut",1909-5-18,1998-4-29
H. Dade,Chicago,1923-3-24,1962-7-17
H. T. Murphy,"New York, New York",1885-04-13,1958-11-26
H. Pieterse,South Africa,1942-05-28,2013-05-26
H. Ziglarski,Białystok,1905-10-16,1975-2-12
H. J. Nielsen,Næstved,1899-9-2,1967-2-6
H. Herring,"St. Petersburg, Florida",1922-6-19,1999-5-18
H. Galhia,Kairouan,1941-05-14,2011-12-25
H. Méndez,Argentina,1897-8-1,1977-12-13
H. López,Mexico,1967-02-01,2011-10-24
H. Camacho,"Bayamón, Puerto Rico",1962-05-24,2012-11-24
G. Heidemann,Berlin,1932-10-21,2010-3-15
G. Török,Hungary,1938-01-24,2014-01-12
G. Roth,Antwerp,1909-3-12,1982-9-14
G. Scholz,Berlin,1930-04-12,2000-08-21
G. Bergman,Stockholm,1898-02-08,1971-06-06
G. Platts,Sheffield,1891-10-24,1942-12-04
G. Lesnevich,Pittsburgh,1915-02-22,1964-02-28
G. Moir,Lambeth,1879-04-17,1939-06-12
G. Nilsson,Sweden,1923-03-23,2005-05-13
G. Hansen,Oslo,1916-07-18,2004-5-31
G. Bärlund,Helsinki,1910-04-14,1982-08-02
G. Berggren,Stockholm,1908-01-26,1983-09-02
G. Bärlund,Helsinki,1910-04-14,1982-08-02
G. Smith,Philadelphia,1887-02-17,1974-08-06
G. Lovell,Buenos Aires,1918-01-14,1967-10-25
G. Mazzinghi,Pontedera,1932-05-14,1996-0-0
G. Peralta,"San Juan, Argentina",1935-05-08,2001-10-03
G. Page,Kentucky,1958-10-25,2009-04-27
G. Johansen,Copenhagen,1895-5-4,1978-2-2
G. Jones,"Memphis, Tennessee",1906-05-12,1982-01-04
G. Mitu,Romania,1914-07-14,1936-06-22
G. Moody,Wales,1909-1-1,1989-1-1
G. Saraudi,Civitavecchia,1938-07-03,2005-04-20
G. Rinaldi,Anzio,1935-02-13,2011-07-18
G. Salandy,Siparia,1987-01-25,2009-01-04
G. Daniels,Wales,1903-02-09,1967-6-1
G. Zuddas,Cagliari,1928-3-1,1996-10-21
G. Parisi,Vibo Valentia,1967-12-2,2009-3-25
G. Bambini,La Spezia,1945-02-24,2015-11-13
G. Rossi,Piacenza,1908-5-29,1987-1-1
G. Jones,Wales,1905-1-1,1986-1-1
G. Román,Baja California,1961-11-29,1990-06-27
G. Carrillo,Cuba,1951-08-16,1996-1-1
G. Lavoine,Laon,1921-2-3,1965-1-22
G. Chapron,Blois,1933-10-7,2016-9-5
G. Bozzano,Sestri Levante,1933-4-12,2008-11-21
G. Negrea,Sibiu,1934-4-21,2001-1-1
G. Fiat,Reșița,1929-01-14,2010-08-22
G. Hecht,Berlin,1923-3-16,2005-2-21
G. Dreyer,Pretoria,1929-09-22,1985-9-5
G. Abrams,"Roanoke, Virginia",1918-11-11,1994-06-30
G. Carpentier,Pas-de-Calais,1894-01-12,1975-10-28
G. Sutton,Cardiff,1922-1-1,1995-12-1
G. Nichols,"Sandusky, Ohio",1907-7-10,1986-1-1
G. McKenzie,Edinburgh,1901-9-22,1941-4-5
G. Marsden,Nottingham,1911-11-29,1980-6-1
G. Johnson,Oklahoma City,1950-3-13,2016-04-09
G. Hunter,Brakpan,1927-07-22,2004-12-12
G. Godfrey,"Mobile, Alabama",1897-01-25,1947-08-13
G. Godfrey,Prince Edward Island,1853-03-20,1901-10-17
G. Gardiner,County Clare,1877-03-17,1954-07-08
G. Finnegan,California,1881-9-0,1913-2-28
G. Dixon,Canada,1870-07-29,1908-01-06
G. Chip,Pennsylvania,1888-08-25,1960-11-08
G. Chaney,"Baltimore, Maryland",1892-04-16,1958-12-20
G. Byers,Prince Edward Island,1872-06-25,1937-04-10
G. Benton,Philadelphia,1933-5-15,2011-9-19
G. Barnes,"Temora, New South Wales",1927-02-20,2000-08-23
G. Garbuzov,Moscow,1930-09-11,2009-10-21
G. Shatkov,Saint Petersburg,1932-5-27,2009-1-14
G. Tunney,New York,1897-05-25,1978-11-07
G. Fullmer,United States,1931-07-21,2015-04-27
G. Hernández,California,1966-05-10,2011-06-07
G. Matta,Sassari,1910-6-9,1954-1-20
