col0,col1,col2,col3
Speed skating at the 1964 Winter Olympics – Men's 1500 metres,Speed skating at the 1968 Winter Olympics – Men's 1500 metres,V. Haugen,Speed skating at the 1960 Winter Olympics – Men's 1500 metres
"Speed skating at the 1964 Winter Olympics – Men's 10,000 metres","Speed skating at the 1968 Winter Olympics – Men's 10,000 metres",K. Johannesen,"Speed skating at the 1960 Winter Olympics – Men's 10,000 metres"
Speed skating at the 1960 Winter Olympics – Men's 500 metres,Speed skating at the 1964 Winter Olympics – Men's 500 metres,R. Grach,Speed skating at the 1956 Winter Olympics – Men's 500 metres
Speed skating at the 1960 Winter Olympics – Men's 5000 metres,Speed skating at the 1964 Winter Olympics – Men's 5000 metres,J. Pesman,Speed skating at the 1956 Winter Olympics – Men's 5000 metres
Speed skating at the 1960 Winter Olympics – Men's 1500 metres,Speed skating at the 1964 Winter Olympics – Men's 1500 metres,B. Stenin,Speed skating at the 1956 Winter Olympics – Men's 1500 metres
"Speed skating at the 1960 Winter Olympics – Men's 10,000 metres","Speed skating at the 1964 Winter Olympics – Men's 10,000 metres",K. Bäckman,"Speed skating at the 1956 Winter Olympics – Men's 10,000 metres"
Speed skating at the 1960 Winter Olympics – Men's 500 metres,Speed skating at the 1964 Winter Olympics – Men's 500 metres,R. Grach,Speed skating at the 1956 Winter Olympics – Men's 500 metres
Speed skating at the 1960 Winter Olympics – Men's 5000 metres,Speed skating at the 1964 Winter Olympics – Men's 5000 metres,J. Pesman,Speed skating at the 1956 Winter Olympics – Men's 5000 metres
Speed skating at the 1960 Winter Olympics – Men's 1500 metres,Speed skating at the 1964 Winter Olympics – Men's 1500 metres,B. Stenin,Speed skating at the 1956 Winter Olympics – Men's 1500 metres
"Speed skating at the 1960 Winter Olympics – Men's 10,000 metres","Speed skating at the 1964 Winter Olympics – Men's 10,000 metres",K. Bäckman,"Speed skating at the 1956 Winter Olympics – Men's 10,000 metres"
Speed skating at the 1956 Winter Olympics – Men's 500 metres,Speed skating at the 1960 Winter Olympics – Men's 500 metres,A. Gjestvang,Speed skating at the 1952 Winter Olympics – Men's 500 metres
Speed skating at the 1956 Winter Olympics – Men's 5000 metres,Speed skating at the 1960 Winter Olympics – Men's 5000 metres,O. Goncharenko,Speed skating at the 1952 Winter Olympics – Men's 5000 metres
Speed skating at the 1956 Winter Olympics – Men's 1500 metres,Speed skating at the 1960 Winter Olympics – Men's 1500 metres,T. Salonen,Speed skating at the 1952 Winter Olympics – Men's 1500 metres
"Speed skating at the 1956 Winter Olympics – Men's 10,000 metres","Speed skating at the 1960 Winter Olympics – Men's 10,000 metres",O. Goncharenko,"Speed skating at the 1952 Winter Olympics – Men's 10,000 metres"
Speed skating at the 1956 Winter Olympics – Men's 500 metres,Speed skating at the 1960 Winter Olympics – Men's 500 metres,A. Gjestvang,Speed skating at the 1952 Winter Olympics – Men's 500 metres
Speed skating at the 1956 Winter Olympics – Men's 5000 metres,Speed skating at the 1960 Winter Olympics – Men's 5000 metres,O. Goncharenko,Speed skating at the 1952 Winter Olympics – Men's 5000 metres
Speed skating at the 1956 Winter Olympics – Men's 1500 metres,Speed skating at the 1960 Winter Olympics – Men's 1500 metres,T. Salonen,Speed skating at the 1952 Winter Olympics – Men's 1500 metres
"Speed skating at the 1956 Winter Olympics – Men's 10,000 metres","Speed skating at the 1960 Winter Olympics – Men's 10,000 metres",O. Goncharenko,"Speed skating at the 1952 Winter Olympics – Men's 10,000 metres"
Speed skating at the 1952 Winter Olympics – Men's 500 metres,Speed skating at the 1956 Winter Olympics – Men's 500 metres,G. Audley,Speed skating at the 1948 Winter Olympics – Men's 500 metres
Speed skating at the 1952 Winter Olympics – Men's 5000 metres,Speed skating at the 1956 Winter Olympics – Men's 5000 metres,S. I. Haugli,Speed skating at the 1948 Winter Olympics – Men's 5000 metres
Speed skating at the 1952 Winter Olympics – Men's 1500 metres,Speed skating at the 1956 Winter Olympics – Men's 1500 metres,R. Aas,Speed skating at the 1948 Winter Olympics – Men's 1500 metres
"Speed skating at the 1952 Winter Olympics – Men's 10,000 metres","Speed skating at the 1956 Winter Olympics – Men's 10,000 metres",C. Asplund,"Speed skating at the 1948 Winter Olympics – Men's 10,000 metres"
Speed skating at the 1952 Winter Olympics – Men's 500 metres,Speed skating at the 1956 Winter Olympics – Men's 500 metres,G. Audley,Speed skating at the 1948 Winter Olympics – Men's 500 metres
Speed skating at the 1952 Winter Olympics – Men's 5000 metres,Speed skating at the 1956 Winter Olympics – Men's 5000 metres,S. I. Haugli,Speed skating at the 1948 Winter Olympics – Men's 5000 metres
Speed skating at the 1952 Winter Olympics – Men's 1500 metres,Speed skating at the 1956 Winter Olympics – Men's 1500 metres,R. Aas,Speed skating at the 1948 Winter Olympics – Men's 1500 metres
"Speed skating at the 1952 Winter Olympics – Men's 10,000 metres","Speed skating at the 1956 Winter Olympics – Men's 10,000 metres",C. Asplund,"Speed skating at the 1948 Winter Olympics – Men's 10,000 metres"
Speed skating at the 1948 Winter Olympics – Men's 5000 metres,Speed skating at the 1952 Winter Olympics – Men's 5000 metres,G. Hedlund,Speed skating at the 1936 Winter Olympics – Men's 5000 metres
Speed skating at the 1948 Winter Olympics – Men's 1500 metres,Speed skating at the 1952 Winter Olympics – Men's 1500 metres,O. Lundberg,Speed skating at the 1936 Winter Olympics – Men's 1500 metres
"Speed skating at the 1948 Winter Olympics – Men's 10,000 metres","Speed skating at the 1952 Winter Olympics – Men's 10,000 metres",P. Lammio,"Speed skating at the 1936 Winter Olympics – Men's 10,000 metres"
Speed skating at the 1948 Winter Olympics – Men's 5000 metres,Speed skating at the 1952 Winter Olympics – Men's 5000 metres,G. Hedlund,Speed skating at the 1936 Winter Olympics – Men's 5000 metres
Speed skating at the 1948 Winter Olympics – Men's 1500 metres,Speed skating at the 1952 Winter Olympics – Men's 1500 metres,O. Lundberg,Speed skating at the 1936 Winter Olympics – Men's 1500 metres
"Speed skating at the 1948 Winter Olympics – Men's 10,000 metres","Speed skating at the 1952 Winter Olympics – Men's 10,000 metres",P. Lammio,"Speed skating at the 1936 Winter Olympics – Men's 10,000 metres"
Speed skating at the 1936 Winter Olympics – Men's 500 metres,Speed skating at the 1948 Winter Olympics – Men's 500 metres,L. Freisinger,Speed skating at the 1932 Winter Olympics – Men's 500 metres
Speed skating at the 1936 Winter Olympics – Men's 5000 metres,Speed skating at the 1948 Winter Olympics – Men's 5000 metres,A. Ojala,Speed skating at the 1932 Winter Olympics – Men's 5000 metres
Speed skating at the 1936 Winter Olympics – Men's 1500 metres,Speed skating at the 1948 Winter Olympics – Men's 1500 metres,B. Wasenius,Speed skating at the 1932 Winter Olympics – Men's 1500 metres
"Speed skating at the 1936 Winter Olympics – Men's 10,000 metres","Speed skating at the 1948 Winter Olympics – Men's 10,000 metres",M. Stiepl,"Speed skating at the 1932 Winter Olympics – Men's 10,000 metres"
Speed skating at the 1936 Winter Olympics – Men's 500 metres,Speed skating at the 1948 Winter Olympics – Men's 500 metres,L. Freisinger,Speed skating at the 1932 Winter Olympics – Men's 500 metres
Speed skating at the 1936 Winter Olympics – Men's 5000 metres,Speed skating at the 1948 Winter Olympics – Men's 5000 metres,A. Ojala,Speed skating at the 1932 Winter Olympics – Men's 5000 metres
Speed skating at the 1936 Winter Olympics – Men's 1500 metres,Speed skating at the 1948 Winter Olympics – Men's 1500 metres,B. Wasenius,Speed skating at the 1932 Winter Olympics – Men's 1500 metres
"Speed skating at the 1936 Winter Olympics – Men's 10,000 metres","Speed skating at the 1948 Winter Olympics – Men's 10,000 metres",M. Stiepl,"Speed skating at the 1932 Winter Olympics – Men's 10,000 metres"
Speed skating at the 1932 Winter Olympics – Men's 500 metres,Speed skating at the 1936 Winter Olympics – Men's 500 metres,A. Hurd,Speed skating at the 1928 Winter Olympics – Men's 500 metres
Speed skating at the 1932 Winter Olympics – Men's 5000 metres,Speed skating at the 1936 Winter Olympics – Men's 5000 metres,W. Logan,Speed skating at the 1928 Winter Olympics – Men's 5000 metres
Speed skating at the 1932 Winter Olympics – Men's 1500 metres,Speed skating at the 1936 Winter Olympics – Men's 1500 metres,W. Logan,Speed skating at the 1928 Winter Olympics – Men's 1500 metres
Speed skating at the 1932 Winter Olympics – Men's 500 metres,Speed skating at the 1936 Winter Olympics – Men's 500 metres,A. Hurd,Speed skating at the 1928 Winter Olympics – Men's 500 metres
Speed skating at the 1932 Winter Olympics – Men's 5000 metres,Speed skating at the 1936 Winter Olympics – Men's 5000 metres,W. Logan,Speed skating at the 1928 Winter Olympics – Men's 5000 metres
Speed skating at the 1932 Winter Olympics – Men's 1500 metres,Speed skating at the 1936 Winter Olympics – Men's 1500 metres,W. Logan,Speed skating at the 1928 Winter Olympics – Men's 1500 metres
Speed skating at the 1928 Winter Olympics – Men's 500 metres,Speed skating at the 1932 Winter Olympics – Men's 500 metres,J. Farrell,Speed skating at the 1924 Winter Olympics – Men's 500 metres
Speed skating at the 1928 Winter Olympics – Men's 5000 metres,Speed skating at the 1932 Winter Olympics – Men's 5000 metres,B. Evensen,Speed skating at the 1924 Winter Olympics – Men's 5000 metres
Speed skating at the 1928 Winter Olympics – Men's 1500 metres,Speed skating at the 1932 Winter Olympics – Men's 1500 metres,I. Ballangrud,Speed skating at the 1924 Winter Olympics – Men's 1500 metres
Speed skating at the 1928 Winter Olympics – Men's 500 metres,Speed skating at the 1932 Winter Olympics – Men's 500 metres,J. Farrell,Speed skating at the 1924 Winter Olympics – Men's 500 metres
Speed skating at the 1928 Winter Olympics – Men's 5000 metres,Speed skating at the 1932 Winter Olympics – Men's 5000 metres,B. Evensen,Speed skating at the 1924 Winter Olympics – Men's 5000 metres
Speed skating at the 1928 Winter Olympics – Men's 1500 metres,Speed skating at the 1932 Winter Olympics – Men's 1500 metres,I. Ballangrud,Speed skating at the 1924 Winter Olympics – Men's 1500 metres
Snowboarding at the 2010 Winter Olympics – Women's snowboard cross,Snowboarding at the 2014 Winter Olympics – Women's snowboard cross,O. Nobs,Snowboarding at the 2006 Winter Olympics – Women's snowboard cross
Snowboarding at the 2010 Winter Olympics – Women's parallel giant slalom,Snowboarding at the 2014 Winter Olympics – Women's parallel giant slalom,M. Kreiner,Snowboarding at the 2006 Winter Olympics – Women's parallel giant slalom
Snowboarding at the 2010 Winter Olympics – Women's halfpipe,Snowboarding at the 2014 Winter Olympics – Women's halfpipe,K. Clark,Snowboarding at the 2006 Winter Olympics – Women's halfpipe
Snowboarding at the 2010 Winter Olympics – Men's snowboard cross,Snowboarding at the 2014 Winter Olympics – Men's snowboard cross,T. Ramoin,Snowboarding at the 2006 Winter Olympics – Men's snowboard cross
Snowboarding at the 2010 Winter Olympics – Men's parallel giant slalom,Snowboarding at the 2014 Winter Olympics – Men's parallel giant slalom,M. Bozzetto,Snowboarding at the 2006 Winter Olympics – Men's parallel giant slalom
Snowboarding at the 2010 Winter Olympics – Men's halfpipe,Snowboarding at the 2014 Winter Olympics – Men's halfpipe,S. Lago,Snowboarding at the 2006 Winter Olympics – Men's halfpipe
Snowboarding at the 2010 Winter Olympics – Women's snowboard cross,Snowboarding at the 2014 Winter Olympics – Women's snowboard cross,O. Nobs,Snowboarding at the 2006 Winter Olympics – Women's snowboard cross
Snowboarding at the 2010 Winter Olympics – Women's parallel giant slalom,Snowboarding at the 2014 Winter Olympics – Women's parallel giant slalom,M. Kreiner,Snowboarding at the 2006 Winter Olympics – Women's parallel giant slalom
Snowboarding at the 2010 Winter Olympics – Women's halfpipe,Snowboarding at the 2014 Winter Olympics – Women's halfpipe,K. Clark,Snowboarding at the 2006 Winter Olympics – Women's halfpipe
Snowboarding at the 2010 Winter Olympics – Men's snowboard cross,Snowboarding at the 2014 Winter Olympics – Men's snowboard cross,T. Ramoin,Snowboarding at the 2006 Winter Olympics – Men's snowboard cross
Snowboarding at the 2010 Winter Olympics – Men's parallel giant slalom,Snowboarding at the 2014 Winter Olympics – Men's parallel giant slalom,M. Bozzetto,Snowboarding at the 2006 Winter Olympics – Men's parallel giant slalom
Snowboarding at the 2010 Winter Olympics – Men's halfpipe,Snowboarding at the 2014 Winter Olympics – Men's halfpipe,S. Lago,Snowboarding at the 2006 Winter Olympics – Men's halfpipe
Snowboarding at the 2006 Winter Olympics – Women's parallel giant slalom,Snowboarding at the 2010 Winter Olympics – Women's parallel giant slalom,R. Fletcher,Snowboarding at the 2002 Winter Olympics – Women's parallel giant slalom
Snowboarding at the 2006 Winter Olympics – Women's halfpipe,Snowboarding at the 2010 Winter Olympics – Women's halfpipe,K. Buaas,Snowboarding at the 2002 Winter Olympics – Women's halfpipe
Snowboarding at the 2006 Winter Olympics – Men's parallel giant slalom,Snowboarding at the 2010 Winter Olympics – Men's parallel giant slalom,S. Grabner,Snowboarding at the 2002 Winter Olympics – Men's parallel giant slalom
Snowboarding at the 2006 Winter Olympics – Men's halfpipe,Snowboarding at the 2010 Winter Olympics – Men's halfpipe,M. Koski,Snowboarding at the 2002 Winter Olympics – Men's halfpipe
Snowboarding at the 2006 Winter Olympics – Women's parallel giant slalom,Snowboarding at the 2010 Winter Olympics – Women's parallel giant slalom,R. Fletcher,Snowboarding at the 2002 Winter Olympics – Women's parallel giant slalom
Snowboarding at the 2006 Winter Olympics – Women's halfpipe,Snowboarding at the 2010 Winter Olympics – Women's halfpipe,K. Buaas,Snowboarding at the 2002 Winter Olympics – Women's halfpipe
Snowboarding at the 2006 Winter Olympics – Men's parallel giant slalom,Snowboarding at the 2010 Winter Olympics – Men's parallel giant slalom,S. Grabner,Snowboarding at the 2002 Winter Olympics – Men's parallel giant slalom
Snowboarding at the 2006 Winter Olympics – Men's halfpipe,Snowboarding at the 2010 Winter Olympics – Men's halfpipe,M. Koski,Snowboarding at the 2002 Winter Olympics – Men's halfpipe
Snowboarding at the 2002 Winter Olympics – Men's halfpipe,Snowboarding at the 2006 Winter Olympics – Men's halfpipe,J. Thomas,Snowboarding at the 1998 Winter Olympics – Men's halfpipe
Ski jumping at the 2010 Winter Olympics – Large hill team,Ski jumping at the 2014 Winter Olympics – Men's large hill team,A. Jacobsen,Ski jumping at the 2006 Winter Olympics – Large hill team
Ski jumping at the 2010 Winter Olympics – Large hill individual,Ski jumping at the 2014 Winter Olympics – Men's large hill individual,G. Schlierenzauer,Ski jumping at the 2006 Winter Olympics – Large hill individual
Ski jumping at the 2010 Winter Olympics – Large hill team,Ski jumping at the 2014 Winter Olympics – Men's large hill team,A. Jacobsen,Ski jumping at the 2006 Winter Olympics – Large hill team
Ski jumping at the 2010 Winter Olympics – Large hill individual,Ski jumping at the 2014 Winter Olympics – Men's large hill individual,G. Schlierenzauer,Ski jumping at the 2006 Winter Olympics – Large hill individual
Ski jumping at the 2006 Winter Olympics – Normal hill individual,Ski jumping at the 2010 Winter Olympics – Normal hill individual,R. Ljøkelsøy,Ski jumping at the 2002 Winter Olympics – Normal hill individual
Ski jumping at the 2006 Winter Olympics – Large hill team,Ski jumping at the 2010 Winter Olympics – Large hill team,B. E. Romøren,Ski jumping at the 2002 Winter Olympics – Large hill team
Ski jumping at the 2006 Winter Olympics – Large hill individual,Ski jumping at the 2010 Winter Olympics – Large hill individual,L. Bystøl,Ski jumping at the 2002 Winter Olympics – Large hill individual
Ski jumping at the 2006 Winter Olympics – Normal hill individual,Ski jumping at the 2010 Winter Olympics – Normal hill individual,R. Ljøkelsøy,Ski jumping at the 2002 Winter Olympics – Normal hill individual
Ski jumping at the 2006 Winter Olympics – Large hill team,Ski jumping at the 2010 Winter Olympics – Large hill team,B. E. Romøren,Ski jumping at the 2002 Winter Olympics – Large hill team
Ski jumping at the 2006 Winter Olympics – Large hill individual,Ski jumping at the 2010 Winter Olympics – Large hill individual,L. Bystøl,Ski jumping at the 2002 Winter Olympics – Large hill individual
Ski jumping at the 2002 Winter Olympics – Normal hill individual,Ski jumping at the 2006 Winter Olympics – Normal hill individual,A. Małysz,Ski jumping at the 1998 Winter Olympics – Normal hill individual
Ski jumping at the 2002 Winter Olympics – Large hill team,Ski jumping at the 2006 Winter Olympics – Large hill team,P. Peterka,Ski jumping at the 1998 Winter Olympics – Large hill team
Ski jumping at the 2002 Winter Olympics – Large hill individual,Ski jumping at the 2006 Winter Olympics – Large hill individual,M. Hautamäki,Ski jumping at the 1998 Winter Olympics – Large hill individual
Ski jumping at the 2002 Winter Olympics – Normal hill individual,Ski jumping at the 2006 Winter Olympics – Normal hill individual,A. Małysz,Ski jumping at the 1998 Winter Olympics – Normal hill individual
Ski jumping at the 2002 Winter Olympics – Large hill team,Ski jumping at the 2006 Winter Olympics – Large hill team,P. Peterka,Ski jumping at the 1998 Winter Olympics – Large hill team
Ski jumping at the 2002 Winter Olympics – Large hill individual,Ski jumping at the 2006 Winter Olympics – Large hill individual,M. Hautamäki,Ski jumping at the 1998 Winter Olympics – Large hill individual
Ski jumping at the 1998 Winter Olympics – Normal hill individual,Ski jumping at the 2002 Winter Olympics – Normal hill individual,A. Widhölzl,Ski jumping at the 1994 Winter Olympics – Normal hill individual
Ski jumping at the 1998 Winter Olympics – Large hill team,Ski jumping at the 2002 Winter Olympics – Large hill team,A. Widhölzl,Ski jumping at the 1994 Winter Olympics – Large hill team
Ski jumping at the 1998 Winter Olympics – Large hill individual,Ski jumping at the 2002 Winter Olympics – Large hill individual,M. Harada,Ski jumping at the 1994 Winter Olympics – Large hill individual
Ski jumping at the 1998 Winter Olympics – Normal hill individual,Ski jumping at the 2002 Winter Olympics – Normal hill individual,A. Widhölzl,Ski jumping at the 1994 Winter Olympics – Normal hill individual
Ski jumping at the 1998 Winter Olympics – Large hill team,Ski jumping at the 2002 Winter Olympics – Large hill team,A. Widhölzl,Ski jumping at the 1994 Winter Olympics – Large hill team
Ski jumping at the 1998 Winter Olympics – Large hill individual,Ski jumping at the 2002 Winter Olympics – Large hill individual,M. Harada,Ski jumping at the 1994 Winter Olympics – Large hill individual
Ski jumping at the 1994 Winter Olympics – Normal hill individual,Ski jumping at the 1998 Winter Olympics – Normal hill individual,D. Thoma,Ski jumping at the 1992 Winter Olympics – Normal hill individual
Ski jumping at the 1994 Winter Olympics – Large hill team,Ski jumping at the 1998 Winter Olympics – Large hill team,S. Horngacher,Ski jumping at the 1992 Winter Olympics – Large hill team
Ski jumping at the 1994 Winter Olympics – Large hill individual,Ski jumping at the 1998 Winter Olympics – Large hill individual,A. Goldberger,Ski jumping at the 1992 Winter Olympics – Large hill individual
Ski jumping at the 1994 Winter Olympics – Normal hill individual,Ski jumping at the 1998 Winter Olympics – Normal hill individual,D. Thoma,Ski jumping at the 1992 Winter Olympics – Normal hill individual
Ski jumping at the 1994 Winter Olympics – Large hill team,Ski jumping at the 1998 Winter Olympics – Large hill team,A. Goldberger,Ski jumping at the 1992 Winter Olympics – Large hill team
Ski jumping at the 1994 Winter Olympics – Large hill individual,Ski jumping at the 1998 Winter Olympics – Large hill individual,A. Goldberger,Ski jumping at the 1992 Winter Olympics – Large hill individual
Ski jumping at the 1992 Winter Olympics – Normal hill individual,Ski jumping at the 1994 Winter Olympics – Normal hill individual,T. Nieminen,Ski jumping at the 1988 Winter Olympics – Normal hill individual
Ski jumping at the 1992 Winter Olympics – Large hill team,Ski jumping at the 1994 Winter Olympics – Large hill team,J. Sakala,Ski jumping at the 1988 Winter Olympics – Large hill team
Ski jumping at the 1992 Winter Olympics – Large hill individual,Ski jumping at the 1994 Winter Olympics – Large hill individual,H. Kuttin,Ski jumping at the 1988 Winter Olympics – Large hill individual
Ski jumping at the 1992 Winter Olympics – Normal hill individual,Ski jumping at the 1994 Winter Olympics – Normal hill individual,T. Nieminen,Ski jumping at the 1988 Winter Olympics – Normal hill individual
Ski jumping at the 1992 Winter Olympics – Large hill team,Ski jumping at the 1994 Winter Olympics – Large hill team,J. Sakala,Ski jumping at the 1988 Winter Olympics – Large hill team
Ski jumping at the 1992 Winter Olympics – Large hill individual,Ski jumping at the 1994 Winter Olympics – Large hill individual,H. Kuttin,Ski jumping at the 1988 Winter Olympics – Large hill individual
Ski jumping at the 1988 Winter Olympics – Normal hill individual,Ski jumping at the 1992 Winter Olympics – Normal hill individual,J. Malec,Ski jumping at the 1984 Winter Olympics – Normal hill individual
Ski jumping at the 1988 Winter Olympics – Large hill individual,Ski jumping at the 1992 Winter Olympics – Large hill individual,M. Debelak,Ski jumping at the 1984 Winter Olympics – Large hill individual
Ski jumping at the 1988 Winter Olympics – Normal hill individual,Ski jumping at the 1992 Winter Olympics – Normal hill individual,J. Malec,Ski jumping at the 1984 Winter Olympics – Normal hill individual
Ski jumping at the 1988 Winter Olympics – Large hill individual,Ski jumping at the 1992 Winter Olympics – Large hill individual,M. Debelak,Ski jumping at the 1984 Winter Olympics – Large hill individual
