col0,col1,col2,col3
"Bladensburg, Maryland",-4,25899,2615887
"Blackman Charter Township, Michigan",-4,0,82361621
"Blackfoot, Idaho",-6,620000,15720000
"Black Rock, New Mexico",-6,200000,4402979
"Black Rock, Arkansas",-5,400000,8900000
"Black Mountain, North Carolina",-4,40000,17400000
"Black Creek Township, Luzerne County, Pennsylvania",-4,258998,63713707
"Bismarck, North Dakota",-5,980000,80885328
"Binghamton, New York",-4,1683492,28852467
"Biggs Junction, Oregon",-7,0,2071990
"Bigfork, Montana",-6,15700000,96600000
"Big Piney, Wyoming",-6,0,1165494
"Big Delta, Alaska",-8,15280929,158248273
"Bethlehem Township, Stark County, Ohio",-4,200000,86505602
"Bethlehem, New York",-4,2000000,128400000
"Bethel, Alaska",-8,14300000,126100000
"Berne, New York",-4,1553992,167700000
"Berlin, New York",-4,700000,155140287
"Berkeley Heights, New Jersey",-4,142000,16228865
"Berkeley, California",−7,18715254,45832429
"Bergland Township, Michigan",-4,25381883,280236713
"Benton Township, Columbia County, Pennsylvania",-4,700000,51600000
"Benton Township, Cheboygan County, Michigan",-4,9700000,161600000
"Benton Harbor, Michigan",-4,647497,12120000
"Benkelman, Nebraska",-6,0,2070000
"Bend, Oregon",-7,670000,86168904
"Bellevue, Washington",−7,11650000,94456866
"Belle, West Virginia",-4,230000,2020000
"Belfield, North Dakota",-6,25899,2820000
"Belden, California",-7,300000,1878000
"Beecher Falls, Vermont",-4,124319,3392884
"Bedford, Massachusetts",-4,258998,35900000
"Beckwourth, California",-7,12949,30263000
"Beaver Township, Columbia County, Pennsylvania",-4,1000000,92700000
"Beaver, Alaska",-8,2800000,55900000
"Bear River City, Utah",-6,0,4100000
"Basalt, Colorado",-6,0,4920977
"Barrington Township, Cook County, Illinois",-5,3000000,93300000
"Barnesville, Ohio",-4,25899,5050000
"Banks, Idaho",-6,103599,5824883
"Bandon, Oregon",-7,980000,8158462
Baltimore,-4,28748868,238537904
"Bakerstown, Pennsylvania",-4,0,5600000
