col0,col1,col2,col3,col4
São José dos Campos Airport,SJK,2675,15/33,Asphalt
São José do Rio Preto Airport,SJP,1699,07/25,Asphalt
São Jorge Airport,SJZ,1412,13/31,Asphalt
São João del-Rei Airport,JDR,1399,07/25,Asphalt
São Gabriel da Cachoeira Airport,SJL,2599,05/23,Asphalt
São Filipe Airport,SFL,1500,14/32,Asphalt
São Félix do Xingu Airport,SXX,1599,13/31,Asphalt
São Félix do Araguaia Airport,SXO,1100,12/30,Soil
São Carlos Airport,QSC,1720,02/20,Asphalt
Rügen Airport,GTI,899,08/26,Tarmac
Røst Airport,RET,879,03/21,Asphalt
"Rørvik Airport, Ryum",RVK,829,04/22,Asphalt
Røros Airport,RRS,1719,14/32,Asphalt
Río Mayo Airport,ROY,1828,01/19,GRASS
Río Dulce Airport,LCF,1000,12/30,Asphalt
Río Amazonas Airport,PTZ,1539,12/30,Asphalt
Régina Airport,REI,800,06/24,Asphalt
Rzhevka Airport,RVH,1799,06/24,Asphalt
Rzeszów–Jasionka Airport,RZE,3200,09/27,Concrete
"Moss Airport, Rygge",RYG,2442,12/30,Asphalt
Rutland – Southern Vermont Regional Airport,RUT,966,1/19,Asphalt
Ruston Regional Airport,RSN,1524,18/36,Asphalt
Rustaq Airport,MNH,4000,08/26,Asphalt
Russian Mission Airport,RSH,914,17/35,Gravel
Ruse Airport,ROU,2499,07/25,Concrete
Rurutu Airport,RUR,1450,09/27,Asphalt
Rurrenabaque Airport,RBQ,1400,14/32,Asphalt
Rupsi Airport,RUP,1828,05L/23R,Paved
Rundu Airport,NDU,3055,08/26,Asphalt
Ruhengeri Airport,RHG,1480,15/33,Asphalt
Ruby Airport,RBY,1219,3/21,Gravel
Ruben Cantu Airport,SYP,1200,17/35,Asphalt
Ruben Berta International Airport,URG,800,04/22 (Closed),Asphalt
Rubelsanto Airport,RUV,1430,08/26,Asphalt
Royan – Médis Aerodrome,RYN,1000,10/28,Grass
Royalton Airport,9G5,771,7/25,Asphalt
Roxas Airport,RXS,1890,14/32,Concrete
Rowan County Airport,SRW,1676,2/20,Asphalt
Rovaniemi Airport,RVN,3001,03/21,Asphalt
Rouyn-Noranda Airport,YUY,2286,08/26,Asphalt
Rouses Point Seaplane Base,RSX,2407,ALL/WAY,Water
Rourkela Airport,RRK,1822,09/27,Asphalt
Roundup Airport,RPX,749,15/33,Asphalt
Round Lake,ZRJ,1101,03/21,Gravel
Rouen Airport,URO,1699,04/22,Asphalt
Rottnest Island Airport,RTS,1293,09/27,Asphalt
Rotterdam The Hague Airport,RTM,2200,06/24,Asphalt
Rotorua Regional Airport,ROT,772,18L/36R,Asphalt
Rota International Airport,ROP,1828,9/27,Asphalt
Roswell International Air Center,ROW,3047,17/35,Asphalt
Rostov-on-Don Airport,ROV,2499,04/22,Concrete
Rostock–Laage Airport,RLG,2499,10/28,Paved
Ross River Airport,XRR,1558,08/26,Gravel
Roskilde Airport,RKE,1499,03/21,Asphalt
Rosita Airport,RFS,1975,05/23,Gravel
Roshchino International Airport,TJM,2703,03/21,Asphalt
Rosh Pina Airport,RPN,972,05/23,Asphalt
Rosecrans Memorial Airport,STJ,1462,13/31,Concrete
Roseburg Regional Airport,RBG,1402,16/34,Asphalt
Roscommon County–Blodgett Memorial Airport,HTL,670,18/36,Asphalt
Roscoe Turner Airport,CRX,1981,18/36,Asphalt
Rosario – Islas Malvinas International Airport,ROS,3000,02/20,Concrete
Rosario Seaplane Base,RSJ,762,16/34,Water
Rosario – Islas Malvinas International Airport,ROS,3000,02/20,Concrete
Roosevelt Roads Naval Station,NRR,100,18/36 CLOSED indef.,Concrete
Ronneby Airport,RNB,2331,01/19,Asphalt
Rongelap Airport,RNP,1203,10/28,Asphalt
Rondonópolis Airport,ROO,1850,02/20,Asphalt
Ronald Reagan Washington National Airport,DCA,1496,1/19,Asphalt
Rome Viterbo Airport,(VTR Proposed),590,22C/04C,Asphalt
Rome State Airport,REO,1828,3/21,Gravel
Roman Tmetuchl International Airport,ROR,2194,09/27,Asphalt/Concrete
Roma Airport,RMA,801,09/27,Asphalt
Rolla National Airport,VIH,1676,13/31,Asphalt
Roland Garros Airport,RUN,2670,12/30,Asphalt
Roland-Désourdy Airport,ZBM,1525,05/23,Asphalt
Rokot Airport,RKI,899,17/35,Asphalt
Roi Et Airport,ROI,2100,18/36,Asphalt
Rogue Valley International–Medford Airport,MFR,2682,14/32,Asphalt
Rogers Municipal Airport,ROG,1832,2/20,Asphalt
Rodríguez Ballón International Airport,AQP,2960,09/27,Asphalt
Rodez–Marcillac Airport,RDZ,800,13/31,Asphalt
Rodelillo Airfield,VPA,990,18/36,Asphalt
Rocky Mount–Wilson Regional Airport,RWI,2164,4/22,Asphalt
Rocky Mountain Metropolitan Airport,BJC,1097,12L/30R,Asphalt
Rocky Mountain House Airport,YRM,1680,13/31,Asphalt
Rocky Mount–Wilson Regional Airport,RWI,2164,4/22,Asphalt
Rockwood Municipal Airport,RKW,1524,4/22,Asphalt
Rockhampton Airport,ROK,1645,04/22,Paved
Rock Springs–Sweetwater County Airport,RKS,1593,3/21,Asphalt
Rock Sound International Airport,RSD,2199,09/27,Asphalt
Rock Hill/York County Airport,RKH,1676,2/20,Asphalt
Rochester International Airport,RST,2225,13/31,Concrete
Rochester Airport,RCS,684,02L/20R,Grass
Roche Harbor Seaplane Base,RCE,762,NE/SW,Water
Roche Harbor Airport,RCE,1095,7/25,Asphalt
Roboré Airport,RBO,1213,17/35,Grass
Robinvale Airport,RBC,1140,01/19,Grass/Asphalt
Robin Hood Airport Doncaster Sheffield,DSA,2893,02/20,Asphalt
Roberval Airport,YRJ,1524,16/34,Asphalt
Robertson Airfield,ROD,719,10 / 128,Asphalt
Roberts International Airport,ROB,3352,04/22,Asphalt
Roberts Field,RDM,2135,10/28,Asphalt
Robert S. Kerr Airport,RKR,1221,18/36,Asphalt
Robert L. Bradshaw International Airport,SKB,2439,07/25,Asphalt
Robert J. Miller Air Park,MJX,1813,6/24,Asphalt
Robert Gray Army Airfield,GRK,3048,15/33,PEM
Robert F. Swinnie Airport,ADR,914,18/36,Asphalt
Robert,ORV,1219,6/24,Gravel
Roben–Hood Airport,WBR,822,14/32,Asphalt
Robe Airport,GOB,2369,15/33,Unpaved
Roanoke–Blacksburg Regional Airport,ROA,1770,16/34,Asphalt
RoAF 93rd Air Base,TSR,3489,11/29,Asphalt
RoAF 90th Airlift Base,OTP,3500,08L/26R,Asphalt
RoAF 57th Air Base,CND,3489,18/36,Asphalt
Riyan Airport,RIY,3001,06/24,Asphalt
Rivolto Air Base,RIV,2900,06/24,asphalt concrete
Rivne International Airport,RWN,655,05/23 CLOSED,Asphalt
Rivière-du-Loup Airport,YRI,1823,05/23,Asphalt
Riverton Regional Airport,RIW,1463,1/19,Asphalt
Riverside Municipal Airport,RAL,868,16/34,Asphalt
Rivera International Airport,RVY,1830,05/23,Asphalt
Rishiri Airport,RIS,1800,07/25,Asphalt concrete
Rio de Janeiro–Galeão International Airport,GIG,3179,10/28,Asphalt
Rio Verde Airport,RVD,1499,03/21,Asphalt
Rio Turbio Airport,RYO,1535,14/32,Asphalt
Rio Grande Airport,RIG,1499,06/24,Asphalt
Rio Branco International Airport,RBR,2157,06/24,Asphalt
Rincón de los Sauces Airport,RDS,1612,10/28,Asphalt
Rimouski Airport,YXK,1402,07/25,Asphalt
Rijeka Airport,RJK,2499,14/32,Concrete/Asphalt
Rigolet Airport,YRG,760,11/29,Gravel
Riga International Airport,RIX,3200,18/36,Concrete/Asphalt
Rif Airport,OLI,840,06/24,Asphalt
Rickenbacker International Airport,LCK,3638,5L/23R,Asphalt
Rick Husband Amarillo International Airport,AMA,2408,13/31,Concrete
Richmond Municipal Airport,RID,1524,15/33,Asphalt
Richmond International Airport,RIC,1623,16/34,Asphalt
Richmond Airport,RCM,1524,09/27,Asphalt
Richland Airport,RLD,1217,1/19,Asphalt
Richards Bay Airport,RCB,1299,05/23,Asphalt
Richard Pearse Airport,TIU,1113,02L/20R,Asphalt
Richard Lloyd Jones Jr. Airport,RVS,804,13/31,Asphalt
Richard I. Bong Airport,SUW,1219,14/32,Asphalt
Richard B. Russell Airport,RMG,1370,1/19,Asphalt
Rice Lake Regional Airport,RIE,1066,1/19,Asphalt
Ricardo García Posada Airport,ESR,2300,09/27,Asphalt
Riberalta Airport,RIB,1833,14/32,Asphalt
Rhodes International Airport,RHO,3305,07/25,Asphalt
Rhinelander–Oneida County Airport,RHI,1585,15/33,Asphalt
Rhamu Airport,HKOB,1000,04/22,Asphalt
Reykjavík Airport,RKV,960,01/19,Asphalt
Reyes Airport,REY,1383,01/19,Grass
Rexburg–Madison County Airport,RXE,1281,17/35,Asphalt
Revelstoke Airport,YRV,1571,12/30,Asphalt
Reus Airport,REU,2459,07/25,Asphalt
Retalhuleu Airport,RER,1525,04/22,Asphalt
Resolute Bay Airport,YRB,1982,17/35,Gravel
Resistencia International Airport,RES,2848,03/21,Asphalt
Resende Airport,REZ,1299,08/26,Asphalt
Republic Airport,FRG,1681,1/19,Asphalt
Renton Municipal Airport,RNT,1640,16/34,Asphalt/Concrete
Reno–Tahoe International Airport,RNO,1859,16L/34R,Concrete
Rennes–Saint-Jacques Airport,RNS,649,10/28,Paved
Renmark Airport,RMK,1024,07/25,Asphalt
Rene Mouawad Air Base,KYE,3000,06/24,Concrete
Rendani Airport,MKW,2000,17/35,Asphalt
Reims – Prunay Aerodrome,RPK,1150,07/25,Asphalt
Reims – Champagne Air Base,RHE,2481,07/25,Asphalt
Reims – Prunay Aerodrome,RPK,1150,07/25,Asphalt
Reims – Champagne Air Base,RHE,2481,07/25,Asphalt
Reid–Hillview Airport,RHV,944,13L/31R,Asphalt
Reichelsheim Airport,QRE,249,09/27,Asphalt
Region of Waterloo International Airport,YKF,1249,08/26,Asphalt
Regina International Airport,YQR,1889,08/26,Asphalt
Reggio Calabria Airport,REG,1669,11/29,Asphalt
Redstone Army Airfield,HUA,2224,17/35,Asphalt
Redhill Aerodrome,KRH,500,07/25 (unlicensed),Asphalt taxiway
Redenção Airport,RDC,960,05/23,Asphalt
Redding Municipal Airport,RDD,1544,12/30,Asphalt
Redang Airport,RDN,940,02/20,Tarmac
Red Sucker Lake Airport,YRS,1083,09/27,Crushed rock
Red Lake Airport,YRL,1524,08/26,Asphalt
Red Dog Airport,RDB,1923,2/20,Asphalt
Red Devil Airport,RDV,1463,10/28,Gravel
Red Deer Regional Airport,YQF,1052,11/29,Asphalt
Red Bluff Municipal Airport,RBL,1655,15/33,Asphalt
Reconquista Airport,RCQ,1249,01/19,Concrete
Recife/Guararapes–Gilberto Freyre International Airport,REC,3300,18/36,Asphalt
Rechlin–Lärz Airfield,REB,1880,08/26,Concrete
Rebun Airport,RBJ,1000,14/32,Asphalt concrete
Reao Airport,REA,916,11/29,Paved
Reales Tamarindos Airport,PVO,2271,12/30,Asphalt
Reading Regional Airport,RDG,1570,13/31,Asphalt
Razer Airport,KUR,868,08/26,DIRT
Rawlins Municipal Airport,RWL,1255,10/28,Asphalt
