col0,col1,col2,col3
ʻIolani Palace,1879,1966-10-15,66000293
"Zwemer Hall, Northwestern College",1894,1975-05-28,75000698
Zweig Building,1912,2000-01-28,18
Zurbrugg Mansion,1910,2009-08-28,9000651
Zumbrota Covered Bridge,1869,1975-02-20,75000984
Zula Linklater House,1923,1984-08-01,84003108
Zuidema-Idsardi House,1876,1999-11-30,99001416
Zubly Cemetery,1790,2002-01-28,1001548
Zora Neale Hurston House,1957,1991-12-04,91002047
Zopher Delong House,1870,1984-09-29,84003261
Zook House,1750,2000-07-27,844
Zona Gale House,1906,1980-10-24,80000113
Zollinger-Harned Company Building,1925,1979-12-17,79002288
Zollicoffer's Law Office,1887,1978-06-13,78001975
Zoller Bros-Independent Malting Co.,1895,1983-07-07,83002527
Zoller-Frasier Round Barn,1895,1984-09-29,84002401
Zoe Theatre,1950,2013-01-02,12001116
Zoar Moravian Church,1863,1980-01-04,80001985
Zoar,1890,2007-06-22,6000065
Zirkle Mill,1760,1983-02-10,83003316
Zions Hill,1934,1989-10-16,89001705
Zion – Mount Carmel Highway,1930,1987-07-07,86003709
Zion Stone Church,1814,1984-11-01,84000267
Zion Reformed Church,1811,1979-12-17,79002228
Zion Presbyterian Church,1887,1988-01-07,87002071
Zion Poplars Baptist Church,1894,1999-08-05,99000970
Zion Nature Center-Zion Inn,1934,1987-02-14,86003719
Zion Methodist Church,1896,2007-04-04,7000274
Zion Meetinghouse and School,1837,1976-05-13,76000843
Zion Lutheran Church and Graveyard,1815,1979-03-29,79002220
Zion Lutheran Church,1915,1980-04-16,80004527
Zion Lutheran Church,1925,1987-12-24,87002127
Zion Lutheran Church,1883,1999-10-21,99001269
Zion Lutheran Church,1898,1982-10-20,82001456
Zion Lutheran Church,1794,1972-01-20,72000991
Zion Lutheran Church,1950,1996-03-08,96000169
Zion Lutheran Church,1906,2000-11-15,1374
Zion Lutheran Church,1851,1972-11-09,72000094
Zion Lutheran Church,1902,1984-11-01,84000261 (church); 84000264 (school)
Zion Lutheran Church,1807,2011-12-30,11000960
Zion Lutheran Church,1853,1980-11-28,80002620
Zion Lutheran Church,1902,1986-06-13,86001309
Zion Lodge Historic District,2010,1982-08-24,82001718
Zion Evangelical Lutheran Church and Parsonage,1878,2009-07-08,9000509
Zion Evangelical Lutheran Church Cemetery,1835,1979-02-01,79003099
Zion Evangelical Lutheran Church,1892,1986-09-10,86002086
Zion Evangelical Lutheran Church,1910,1986-12-08,86003423
Zion Evangelical Church,1855,1982-07-01,82000129
Zion Episcopal Church and Rectory,1883,2003-06-06,3000029
Zion Episcopal Church Complex and Harmony Cemetery,1800,1997-11-24,97001456
Zion Episcopal Church,1856,2000-08-16,988
Zion Episcopal Church,1872,1996-11-29,96001388
Zion Episcopal Church,1861,1974-05-03,74001533
Zion Congregational Church,1858,2006-02-01,5001579
Zion Church,1850,1997-08-21,97000950
Zion Church,1854,1978-11-21,78002601
Zion Brick Missionary Church,1870,1988-12-13,88002716
Zion Baptist Church,1910,2002-12-12,2001497
Zion – Mount Carmel Highway,1930,1987-07-07,86003709
Zion-St. Mark's Evangelical Lutheran Church,1888,1995-03-23,95000335
Zion's German Lutheran Church,1890,2006-10-25,6000950
Ziock Building,1913,2011-05-04,11000246
Zinc Swinging Bridge,1927,2007-01-24,6001286
Zimmerman–Rudeen House,1913,1991-06-19,91000811
Zimmerman School,1848,1979-03-02,79003356
Zimmerman House,1848,1979-03-02,79003355
Zimmerman–Rudeen House,1913,1991-06-19,91000811
Ziller House,1877,1998-05-08,98000449
Zilker Park,1917,1997-05-23,97000479
Ziegler House,1915,1997-02-14,97000082
Ziegler House,1922,1985-05-30,85001161
Ziegler Estate,1904,2002-06-27,2000679
Ziebach County Courthouse,1931,1993-02-10,92001864
Zevely House,1815,1973-04-24,73001341
Zeta Psi Fraternity House,1909,2001-05-21,1000506
Zero Gravity Research Facility,1966,1985-10-03,85002801
Zephyrhills Downtown Historic District,1910,2001-09-27,1001058
Zephnia Comstock Farmhouse,1830,1987-11-02,87001866
Zeno Hicks House,1887,1989-02-09,89000002
Zehmer Farm,1905,2009-09-30,9000793
Zehe Building,1911,1994-12-01,94001402
Zebulon Smith House,1832,1974-01-21,74000189
Zebulon H. Baird House,1865,2009-04-30,9000261
Zeba Indian United Methodist Church,1888,1980-04-10,80001847
Zeb Ward Building,1881,1978-04-19,78000626
Zeb Kendall House,1906,1982-05-20,82003233
Zeb Edmiston House,1872,1982-11-17,82000948
Zealandia,1908,1977-03-14,77000995
Zante Plantation,1815,1976-06-29,76001695
Zanesville YWCA,1926,1978-07-17,78002168
Zane Grey Museum,1905,1983-05-06,83002283
Zane Grey Estate,1907,2002-10-24,2001187
Zalud House,1891,1987-03-31,86003681
Zalmon Richards House,1882,1966-10-15,66000866
Zadock Taft House,1845,1983-10-07,83004148
Zadock Pratt House,1828,1986-08-14,86001654
Zadoc Long Free Library,1901,1994-06-24,94000636
Zachary Taylor National Cemetery,1926,1983-11-03,83003733
Zachary Taylor House,1790,1966-10-15,66000359
Zachariah Spaulding Farm,1798,1993-11-04,93001175
Zachariah School,1920,2005-05-04,5000377
Zachariah Richardson House,1794,1989-07-05,89000618
Zachariah Ford House,1856,1985-09-17,85002206
Zachariah Ferris House,1718,1970-10-19,70000173
Zachariah Cantey House,1795,1983-05-19,83002199
Zachariah Barley Stone House,1770,1995-08-10,95000951
Zachariah Allen House,1789,1994-09-15,94001152
Zaccheus Gould House,1670,1990-03-09,90000261
Zaccheus Dunn House,1743,1977-08-10,77000905
Zabriskie House,1796,1983-01-10,83001598
Zabriskie-Kipp-Cadmus House,1751,1978-12-13,78001741
ZCBJ Lodge No. 46,1917,1984-03-08,84003138
ZCBJ Hall,1910,1985-04-11,85000768
Z. Ritchie House,1856,1982-11-12,82001111
Z. E. Cliff House,1900,1989-09-18,89001280
Z. D. Ramsdell House,1857,1983-08-18,83003254
Z.T. Dunham Pioneer Stock Farm,1870,1993-08-02,93000652
