col0,col1,col2,col3
Kakaako Pumping Station,O. G. Traphagen,4451,1978-10-04
Kahikolu Church,J. D. Paris,10521,1982-11-15
Justin Smith Morrill Homestead,J. S. Morrill,12140,1966-10-15
Juniper Hill Cemetery,C. A. Hall,89030,1998-06-03
Julius W. Hegeler I House,P. &. Pond,7284,2009-02-18
"Julius Lansburgh Furniture Co., Inc.",A. Cluss,809,1974-05-08
Journal Record Building,L. &. Forsyth,4046,1980-03-26
Joseph and Lucy Foster Sexton House,P. J. Barber,6070,1992-02-05
Joseph Jacobberger Country House,J. Jacobberger,2185,2011-01-24
Joseph J. Cole Jr. House and 1925 Cole Brouette No. 70611,Cole Motor Car Company,5260,1997-06-25
Joseph Holt Ingraham House,A. Parris,4046,1973-07-16
Joseph Dessert Library,A. C. Eschweiler,809,1980-05-01
Josef Jacobberger House,J. Jacobberger,809,1990-03-09
Jose Castro House,J. Castro,4046,1970-04-15
Jordanville Public Library,T. &. Livingston,4046,1984-05-24
Jones Memorial Library,F. &. Chesterman,7284,1980-10-30
Jonathan Sturges House,J. C. Wells,5665,1984-11-23
John and Syd Dobkins House,F. L. Wright,20234,2009-01-08
John Wesley Methodist Church,J. W. Dunn,2023,1974-06-05
John W. Ferguson House,W. L. Stoddart,4451,1980-05-23
John W. Cook Hall,G. H. Miller,4046,1986-02-20
John Sutton Hall,J. W. Drum,13238,1975-09-17
John S. Williams House and Farm,P. &. Coffin,1023854,1996-12-16
John S. Baker House,J. K. Wilson,7284,1979-06-06
John N. A. Griswold House,R. M. Hunt,9752,1971-11-05
John Muir National Historic Site,M. California,1396165,1966-10-15
John Minor Wisdom United States Court of Appeals Building,D. C. French,6070,1974-02-15
John M. and Elizabeth Bates House No. 1,W. H. Pipes,485,1990-06-12
John Janecek House,H. Voss,428966,1982-07-15
John Hafen House,A. O. Treganza,4451,1982-07-23
John H. Addams Homestead,J. H. Addams,22257,1979-04-17
John Deere House and Shop,J. Deere,16187,1966-10-15
"John Day Compound, Supervisor's Warehouse",United States Forest Service,35490,1986-04-11
John D. Haynes House,F. L. Wright,4046,2004-06-22
John Church Company Building,S. Hannaford,4046,1994-06-17
John Christian and Bertha Landrock Reichert House,S. B. Reed,12140,1991-12-19
John Calvin Stevens House,J. C. Stevens,4046,1973-07-16
John C. Proctor Recreation Center,H. &. Emerson,20234,1979-09-06
John B. Cary School,C. M. Robinson,8498,1992-08-24
John A. Green Estate,J. A. Green,809371,1978-08-31
Joel W. Solomon Federal Building and United States Courthouse,"Shreve, Lamb and Harmon",6879,1980-02-29
Joel McCrea Ranch,J. Byers,890308,1997-04-18
Jesse R. Zeigler House,F. L. Wright,4046,1976-05-03
Jefferson Memorial,J. R. Pope,74299,1966-10-15
Jefferson County Jail,L. a. Farley,40063,1973-07-16
Jefferson County Courthouse,H. a. Root,9307,1982-12-27
Jeff Davis County Courthouse,D. Texas,6070,2002-07-11
Jeanne Manor Apartment Building,B. &. Herzog,809,1998-03-05
Jayne Estate Building,J. M. Jr.,1214,1987-04-30
Jasper County Courthouse,E. T. Heiner,12140,1984-09-06
James T. Foley United States Courthouse,E. D. Litchfield,267092,1980-01-31
James L. Fleming House,B. &. Klutz,1214,1983-07-21
James L. Coke House,C. Dickey,2428,1986-08-20
James A. Redden Federal Courthouse,O. Wenderoth,1625,1979-04-30
James A. Garfield Memorial,C. Buberl,2023,1973-04-11
James A. Farley Post Office Building,"McKim, Mead, and White",32374,1973-01-29
Jacob Kamm House,J. F. Krumbein,1214,1974-11-05
Jackson Uptown Commercial Historic District,P. Weathers,12140,2006-02-01
Jackson County Courthouse,S. &. Carrier,22257,1979-05-10
Jack Lamberson House,F. L. Wright,8093,1988-09-11
J. R. Allen House,Richard Karl August Kletting,16187,1980-08-28
J. Nelson Kelly House,G. F. Barber,4046,1994-02-18
J. Marvin Jones Federal Building and United States Courthouse,W. C. Hedrick,4046,2000-09-29
J. G. Edwards House,A. E. Doyle,4451,1991-02-22
J. Clarence Kind House,R. Mills,343,2005-10-05
Islesford Historical Museum and Blue Duck Ships Store,E. B. Gilchrist,5260,1980-09-30
Isaac Farrar Mansion,R. Upjohn,0,1972-10-26
Isaac Bell House,"McKim, Mead and White",4046,1972-01-13
Irwin Consolidated School,W. F. Gernandt,4046,2002-10-24
Ironwood Memorial/Municipal Building,B. &. Kinports,2023,1980-11-10
Ira F. Powers Warehouse and Factory,C. a. Claussen,4775,2011-08-31
Iowa State Capitol,A. H. Piquenard,68796,1976-10-21
Iowa Soldiers' Orphans' Home,J. W. Ross,133546,1982-04-26
Inyo County Courthouse,W. H. Weeks,6070,1998-01-23
Insco Apartments Building,C. I. Williams,4046,1994-02-18
Indianapolis Public Library,P. Cret,4046,1975-08-28
Indianapolis Park and Boulevard System,G. E. Kessler,14058779,2003-03-28
Indianapolis City Market,"Bohlen, Meyer, Gibson and Associates",2023,1974-03-27
Indiana Theatre,R. a. Hunter,4046,1979-01-29
Indiana Armory,J. F. Kuntz,1214,1991-11-14
Indera Mills,N. &. O'Brien,8093,1999-07-15
Independence Mines,N. Lester Troast & Associates,303514,1974-10-09
Independence Building,F. P. Milburn,809,1978-09-18
Imnaha Guard Station,Architects of the United States Forest Service,4046,1986-04-11
Immaculate Conception Church and School,J. M. Nachtigall,4046,1998-05-06
Immaculate Conception Catholic Church,DeCurtins,12140,1979-07-26
Illinois State Police Office,Illinois,10359,2007-03-07
Illinois State Capitol,J. F. Rague,10117,1966-10-15
Illinois Central Railroad Yard-Cherokee,I. C. Railroad,76890,1990-09-06
Hutzler Brothers Palace Building,B. &. Pennington,809,1984-06-07
Hutton Settlement District,W. &. Price,60702,1976-01-01
Hurricane Mountain Fire Observation Station,A. Company,78104,2007-01-29
Hurd & Fitzgerald Building,F. H. Gouge,809,1993-06-25
Huntridge Theater,S. C. Lee,8093,1993-07-22
Huntingdon Armory,J. F. Kuntz,29946,1989-12-22
Hunter Museum of American Art,A. Garfield,5665,1980-11-25
Humble Oil Building,C. a. Russell,10117,1999-01-27
Hull House,P. a. Pond,4046,1966-10-15
Hulihee Palace,J. A. Kuakini,4046,1973-05-25
Huerfano County High School,I. H. Rapp,6070,2005-11-02
Hudspeth County Courthouse,E. P. Texas,4046,1975-05-21
Hudson River State Hospital,F. L. Olmsted,1197869,1989-06-29
Howard Park Historic District,A. &. Shambleau,111693,1999-02-18
Howard County Courthouse,G. A. Berlinghof,8093,1990-01-10
Housatonic River Railroad Bridge,A. B. Company,4046,1987-06-12
Hotel Norfolk,H. S. Co.,4046,1988-12-01
Hotel Lafayette,J. A. Johnson,3480,2010-08-19
Hotel Benton,H. &. Dougan,4046,1982-05-20
Hotel Argonne,DeCurtins,4046,1982-10-07
Horace Walker House,F. W. Smith,209,1998-01-30
Horace Jayne House,"Furness, Evans & Co.",404,1982-07-22
Hopewell Baptist Church,B. Goff,4046,2002-09-14
Hope Webbing Company Mill,F. J. Sawtelle,28327,2006-04-19
Hope Village Historic District,M. &. Meikle,461341,1995-08-08
Hope Historic District,E. E. Dunlap,461341,1991-12-19
Hoosac Stores 1 & 2-Hoosac Stores 3,F. Railroad,8093,1985-08-14
Hooper Building,S. Hannaford,4046,1980-03-03
Hood River County Library and Georgiana Smith Park,S. a. Whitney,2832,1998-05-29
Honey Hollow Watershed,S. C. Service,2630456,1969-08-04
Home for Aged Couples,J. A. Fox,11735,2005-08-11
Holy Trinity Church,F. Wills,4046,1972-04-14
"Holy Hill National Shrine of Mary, Help of Christians",H. J. Gaul,84983,1992-03-12
Hog Island Cranes,M. Company,4046,1980-06-17
Hockley Row,F. &. Evans,809,1983-04-21
Hocking Valley Scenic Railway,H. V. Railway,657209,1988-05-05
Hinchliffe Stadium,O. Brothers,23067,2004-03-22
Hilton Village,H. V. Hubbard,404685,1969-06-23
Hilo Masonic Lodge Hall-Bishop Trust Building,H. F. Starbuck,3642,1994-04-21
Hillsdale Downtown Historic District,C. Allen,178061,1995-02-17
Hillsdale County Courthouse,C. Allen,8903,1982-08-11
Hillsboro State Bank Building,F. Kennard,809,1984-08-01
Hillhouse Avenue,H. Austin,72843,1985-09-13
Hill-Stead Museum,"McKim, Mead and White",607028,1991-07-17
Highland School,F. Sterner,3237,1978-12-18
Highland Park Public School,C. M. Robinson,10521,1991-10-22
Highland Park Historic Business District at Euclid and Sixth Avenues,H. &. Rawson,24281,1998-07-15
Highland Falls Railroad Depot,W. S. Railroad,4856,1982-11-23
Highfields,C. H. Aldrich,1537805,1994-09-23
"High, Church and Gould Streets Historic District",F. W. Angell,80937,1999-11-12
Hickory Hill,T. E. Watson,283279,1976-05-11
Heublein Tower,S. a. Bassette,18210,1983-07-30
Heppner Hotel,J. V. Bennes,4046,1982-10-29
Henry W. Grady House,R. Taylor,14163,1976-05-11
Henry T. Oxnard Historic District,"Albert C. Martin, Sr.",283279,1999-02-05
Henry Street Settlement,B. &. Fox,4046,1974-09-13
Henry Probasco House,W. Tinsley,80937,1972-11-09
Henry Powell House,S. Hannaford,0,1980-03-03
Henry Klumb House,H. Klumb,26304,1997-11-14
Henry D. Barber House,J. L. Silsbee,2832,1974-03-28
Henry County Courthouse,I. Hodgson,5260,1981-04-02
Henry Blood House,W. Allen,4046,1980-04-29
Henry B. Plant Museum,J. A. Wood,18210,1972-12-05
Henry B. Dickson House,E. F. Lawrence,404,1997-08-01
Henry A. Ware House,G. &. Greene,2023,2004-06-15
Hendler Creamery,J. C. Gott,6070,2007-12-20
Henderson County Courthouse,R. S. Smith,5260,1979-05-10
Helena Civic Center,C. S. Haire,3642,1988-04-14
Hearst Memorial Mining Building,J. G. Howard,5665,1982-03-25
Hearst Castle,J. Morgan,8361,1972-06-22
Head House Square,J. Haviland,40063,1972-06-19
Haystack Mountain Tower,R. &. Muller,4046,1993-12-02
Hayes Barton Historic District,E. S. Draper,708199,2002-05-16
Hawkins Hall,W. E. Haugaard,8093,1982-11-12
Haverhill Board of Trade Building,C. W. Damon,5260,2007-09-28
Hathaway,W. A. Delano,835675,2008-02-12
Harvard Square Subway Kiosk,B. E. Railway,46,1978-01-30
Harvard Avenue Historic District,"Shepley, Rutan and Coolidge",93077,2000-04-28
Hartford Club,"Andrews, Jacques & Rantoul",404,1984-12-23
Harry Packer Mansion,A. Hutton,20234,1974-11-20
Harry Goddard House,G. Clemence,4046,1980-03-05
Harrisburg State Hospital,J. A. Dempwolf,740574,1986-01-08
Harriet F. Rees House,C. a. Frost,404,2007-05-22
Harper County Courthouse,G. P. Washburn,8093,1978-11-22
Harmony Historic District,G. Rapp,68796,1973-03-21
Harlan Courthouse Square Commercial District,C. E. Bell,27518,1994-09-23
Harding Tomb,H. Hornbostel,8093,1976-06-16
Hardin County Courthouse,"Richards, McCarty & Bulford",8093,1979-03-21
Hanover Historic District,D. J. A.,3581467,1997-01-02
Hammondsport Union Free School,A. J. Warner,5665,2008-05-15
Hammond Street Congregational Church,T. &. Foster,1214,1982-07-08
Hammond Pond Parkway,O. Brothers,56655,2004-03-18
Hamilton Place Historic District,"Barnett, Haynes & Barnett",174014,2005-10-15
Hamilton County Memorial Building,C. Barnhorn,4046,1978-12-04
Hamilton Building,W. &. Lewis,404,1977-03-17
Hamburg Historic District,F. G. Clausen,428966,1983-11-18
Hall–Chaney House,E. F. Lawrence,8093,1988-09-08
Hallowell Historic District,J. C. Stevens,1052182,1970-10-28
