col0,col1,col2,col3
RBD: La familia,Pedro Damián,C. Chávez,2007-06-13
R.C.M.P.,Harry Horner,D. Francks,1960-07-12
Quizmania,FremantleMedia Australia,N. Osborne,2007-06-24
Quiller,Peter Graham Scott,M. Jayston,1975-11-28
Quererte así,Gerardo Zurita,B. Paz,2012-08-03
Queer as Folk,Russell T Davies,A. Gillen,2000-02-22
Qubool Hai,Gul Khan,Q. Hai,2016-01-23
Quatermass II,Rudolph Cartier,H. Griffith,1955-11-26
Quatermass,Ted Childs,B. Mason,1979-11-14
Quarterlife,Edward Zwick,S. M. Foster,2008-03-09
Quantum Leap,Donald P. Bellisario,D. Stockwell,1993-05-05
Pyarey Afzal,Six Sigma Entertainment,H. A. Abbasi,2014-08-12
Pyaar Mein Twist,Asit Kumarr Modi,R. Chopra,2011-06-05
Pyaar Ko Ho Jaane Do,Ekta Kapoor,M. Singh,2016-01-29
Pyaar Kii Ye Ek Kahaani,Ekta Kapoor,Pyaar Kii Ye Ek Kahaani,2011-12-15
Pyaar Ka Dard Hai Meetha Meetha Pyaara Pyaara,Kavita K. Barjatya,Pyaar Ka Dard Hai Meetha Meetha Pyaara Pyaara,2014-11-01
Pyaar Ka Bandhan,Shobha Kapoor,P. K. Bandhan,2010-04-28
Puso ng Pasko: Artista Challenge,GMA Network,V. Morales,2010-12-31
Puppets Who Kill,Shawn Alex Thompson,D. Redican,2006-06-22
Pukaar,Vipul Amrutlal Shah,R. Singh,2015-02-10
Psych,Dulé Hill,M. Lawson,2014-03-26
Project Runway Australia,FremantleMedia Australia,P. Morrissey,2012-12-17
Privileged,Michael Reisz,A. Archer,2009-02-24
Private Benjamin,James R. Stein,W. J. Sperber,1983-01-10
Pritam Pyare Aur Woh,Sanjeev Sharma,S. Sagar,2014-08-01
Prisoners of Gravity,Jamie Mandelkau,R. Green,1994-04-28
Primeval,Cameron McAllister,H. Spearritt,2011-06-28
Prime Suspect,WGBH-TV,H. Mirren,2006-10-22
Pride and Prejudice,Sue Birtwistle,C. Firth,1995-10-29
Pride and Prejudice,Jonathan Powell,D. Rintoul,1980-02-10
Presidio Med,Nell Scovell,J. Nicholson,2003-01-24
Preciosa,Nicandro Díaz González,F. Gattorno,1998-08-28
Pradhanmantri,ABP News,S. Kapur,2014-01-04
Power Rangers in Space,Jonathan Tzachor,J. Narvy,1998-11-21
Power Rangers Zeo,Jonathan Tzachor,J. Narvy,1996-11-27
Power Rangers Wild Force,Jonathan Tzachor,J. Rey,2002-11-16
Power Rangers Turbo,Jonathan Tzachor,J. Narvy,1997-11-24
Power Rangers Time Force,Jonathan Tzachor,E. Albert,2001-11-17
Power Rangers S.P.D.,Charles Knight,B. J. McLaren,2005-11-14
Power Rangers RPM,Jackie Marchand,A. Boyland,2009-12-26
Power Rangers Operation Overdrive,Charles Knight,R. Montemayor,2007-11-12
Power Rangers Ninja Storm,Koichi Sakamoto,G. McMillan,2003-11-15
Power Rangers Mystic Force,Charles Knight,R. Brancatisano,2006-11-13
Power Rangers Lost Galaxy,Jonathan Tzachor,A. Kao,1999-12-18
Power Rangers Lightspeed Rescue,Jonathan Tzachor,K. Robinson,2000-11-18
Power Rangers Jungle Fury,Jackie Marchand,J. Smith,2008-11-03
Power Rangers Dino Thunder,Koichi Sakamoto,J. D. Frank,2004-11-20
Powder,Yash Chopra,P. Tripathi,2010-06-24
Posh Nosh,Gareth Edwards,R. E. Grant,2003-04-22
Porterhouse Blue,Brian Eastman,I. Richardson,1987-06-24
Porridge,Sydney Lotterby,F. Mackay,1977-03-25
Porkpie,Humphrey Barclay,R. J. Holder,1996-09-26
Poncho Balón,Carlos Cuarón,H. Vélez,2006-07-05
Pompidou,Charlie Hanson,M. Lucas,2015-04-05
Police Surgeon,Leonard White,I. Hendry,1960-12-03
Police Rescue,John Edwards,G. Sweet,1996-11-22
Point of No Return,Lee Tim-shing,D. Lau,2003-12-12
Plus One,Kudos,D. James,2009-02-06
"Play It Again, Dick",Ryan Hansen,E. Colantoni,2014-11-04
Planet of the Apes,Stan Hough,M. Lenard,1974-12-20
Piya Basanti Re,Rashmi Sharma,A. Khan,2014-12-12
PitchMen,Thom Beers,B. Mays,2011-03-08
Pirate Islands,Jonathan M. Shiff,E. Taylor,2003-06-30
Pipkins,Associated TeleVision,C. McKeown,1981-12-29
Pink Lady,Sid and Marty Krofft,J. Varney,1980-04-04
Pillai Nila,Sa Re Ga Ma,S. Ganesh,2014-09-13
Phyllis,Stan Daniels,C. Leachman,1977-03-13
Phoenix Nights,Mark Herbert,D. Kitson,2002-09-12
Phenom,Richard Sakai,J. Lien,1994-05-10
Petrocelli,Leonard Katzman,D. Huddleston,1976-03-31
Peter the Great,Lawrence Schiller,H. Griem,1986-02-02
Persons Unknown,Lorenzo O'Brien,A. Ruck,2010-08-28
Personal Affairs,BBC Scotland,R. Negga,2009-07-14
Perry Mason,Arthur Marks,R. Burr,1966-05-22
Perception,Eric McCormack,E. McCormack,2015-03-17
Peep Show,Phil Clarke,D. Mitchell,2015-12-16
Pavitra Rishta,Ekta Kapoor,P. Rishta,2014-10-24
Paul Temple,Derrick Sherwin,F. Matthews,1971-09-01
Parvarrish - Season 2,Tony Singh,A. P. Sharma,2016-07-07
Party Tricks,John Edwards,A. Sampson,2014-11-10
Parsa,Momina Duraid,I. Zaidi,2011-03-27
Parrivaar,Niret Alva,Parrivaar,2008-12-05
Paroa: Ang Kuwento ni Mariposa,GMA Network,D. Monasterio,2013-03-01
Parker Lewis Can't Lose,Bryan Spicer,B. Jayne,1993-06-13
Paris,Talkback,A. Sayle,1994-11-18
Parichay,Ekta Kapoor,Parichay,2013-03-15
Parents of the Band,Charlie Hanson,J. Nail,2009-01-09
Parenthood,Sascha Schneider,W. Windom,1991-08-11
Pare & Pare,GMA Network,O. Alcasid,2012-08-12
Parallel 9,Anna Home,R. Maude-Roxby,1994-09-17
Paradise Café,Rachel Davis,H. Bodimeade,2011-02-07
Paradise,David Jacobs,S. Thornton,1991-05-10
Para toda la vida,Nicandro Díaz González,O. Medina,1996-08-02
Pani Jaisa Piyar,Momina Duraid,S. Qamar,2011-05-19
"Palmerstown, U.S.A.",Alex Haley,M. J. Fox,1981-06-09
Pahiram ng Sandali,GMA Network,D. Dantes,2013-03-15
Padre Coraje,Pol-ka,F. Arana,2004-12-23
Paartha Gnabagam Illayo,Kushboo,Kushboo,2014-07-31
Paalkhi,Prem Krishen,Paalkhi,2006-04-12
P.S. I Luv U,Gail Morgan Hickman,E. Holliman,1992-01-04
P.O.W.,Gary Tuck,J. D'Arcy,2003-11-14
Ozzie's Girls,David Nelson,H. Nelson,1974-09-01
Oz,Irene Burns,T. Kinney,2003-02-23
Overland Trail,Samuel A. Peeples,W. Bendix,1960-07-02
Overhaulin',Chad Marshall Producer,C. Foose,2015-11-18
Over the Top,Amy Sherman-Palladino,S. Carell,1997-11-04
Over the Rainbow,Lee Tim-shing,P. Tse,1979-05-25
Outnumbered,Andy Hamilton,H. Dennis,2014-03-05
Out of This World,George Yanok,J. Alaskey,1991-05-25
Out All Night,Matthew Diamond,V. A. Fox,1993-07-09
Our Private World,Allen M. Potter,N. Coster,1965-09-10
Our House,Ernest Maxin,C. Hawtrey,1962-04-21
Our Friends in the North,Charles Pattinson,C. Eccleston,1996-03-11
Otherworld,Lew Hunter,G. Corbett,1985-03-16
Oswald,HIT Entertainment,F. Savage,2003-09-19
Os Caras de Pau,Marcius Melhem,M. Melhem,2013-02-03
Orson Welles' Sketch Book,Huw Wheldon,O. Welles,1955-05-28
Operation Good Guys,Hugo Blick,R. Burdis,2000-08-31
One of Us,Colin Wratten,O. o. Us,2016-09-13
One Way Ticket,Samina Ahmad,I. Tara,2012-08-25
One Foot in the Grave,Susan Belbin,A. Crosbie,2000-11-20
Once a Hero,Ira Steven Behr,M. O'Shea,1987-10-03
On the Track or Off,Amy Wong,A. Choi,2001-06-01
On the Buses,London Weekend Television,C. Courtneidge,1973-05-06
Omar,Middle East Broadcasting Center,G. Massoud,2012-08-18
Oliver Twist,Terrance Dicks,F. Middlemass,1985-12-29
Olive Kitteridge,Tom Hanks,J. Plemons,2014-11-03
"Oh, Doctor Beeching!",David Croft,S. Lewis,1997-09-28
Oh! Those Bells,Jules White,T. W. Brothers,1962-05-31
Office Gossip,Matthew Francis,P. Quirke,2001-03-09
Off Pedder,Television Broadcasts Limited,E. Jin,2010-02-12
Off Centre,Tim Kelleher,E. K. Thomas,2002-10-31
Ocean Girl,Jonathan M. Shiff,J. Walker,1997-12-22
Nurses,Gil Junger,M. Flanagan,1994-05-07
Nurse Jackie,Jerry Kupfer,A. Ferrara,2015-06-28
Nunca te olvidaré,Carlos Moreno,E. González,1999-05-28
Numbers,Ridley Scott,D. Farr,2010-03-12
Nothing Sacred,Bill Cain,A. Dowd,1998-03-14
Not the Nine O'Clock News,John Lloyd,C. Langham,1982-03-08
Not On Your Nellie,London Weekend Television,J. Douglas,1975-08-29
Northern Lights,Jeff Pope,R. Green,2008-12-21
Nobody's Perfect,Chris Hayward,R. Moody,1980-08-28
Noblesse Oblige,Lee Tim-sing,T. Yeung,2015-01-24
Noah's Ark,Michael Whitehall,A. Rodgers,1998-10-23
Noah's Ark,Jack Webb,P. Burke,1957-02-26
No – That's Me Over Here!,David Frost,R. Corbett,1970-12-05
"No Soap, Radio",Bill Richmond,S. Guttenberg,1982-05-13
No Job for a Lady,John Howard Davies,G. Baker,1992-02-10
No – That's Me Over Here!,David Frost,R. Corbett,1970-12-05
"No, Honestly",Humphrey Barclay,P. Collins,1975-01-05
Nita Negrita,GMA Network,B. Forteza,2011-06-10
Nile,Martha Holmes,M. Gough,2004-03-12
Nikita,David Solomon,L. Fonseca,2013-12-27
Nikhar Gaye Gulab Sare,Momina Duraid,M. Hocane,2012-09-27
Nikah,Wajahat Rauf,J. Khan,2015-06-14
Nightmare Ned,Donovan Cook,V. Jackson,1997-08-09
Nightmare Classics,Shelley Duvall,A. Irving,1989-11-26
Nighthawks,Anne Enright,S. Healy,1992-04-16
Nick Freno: Licensed Teacher,Gene Laufenberg,C. DeLizia,1998-05-03
Nichols,Frank Pierson,A. Ghostley,1972-03-14
New Heavenly Sword and Dragon Sabre,Wong Tin-lam,T. L. Chiu-Wai,1986-12-30
New Attitude,George Jackson,M. Day,1990-09-07
New Amsterdam,Barry Pullman,N. Coster-Waldau,2008-04-14
"Never Mind the Quality, Feel the Width",Leonard White,C. Shaps,1971-09-14
Never Dance Alone,Eric Tsang,G. Yip,2014-06-01
Nearest and Dearest,ITV Granada,H. Baker,1973-02-07
Naya Mahisagar,Hats Off Productions,A. Mehta,2016-08-08
Narito Ang Puso Ko,Wilma Galvante,J. Magdangal,2004-03-05
Napoleon and Josephine: A Love Story,Alfred R. Kelman,P. Cassidy,1987-11-12
Nanny and the Professor,Charles B. Fitzsimons,R. Long,1971-12-27
Nanny 911,Stacey Travis,S. Reid,2009-06-06
Naked City,Herbert B. Leonard,J. Franciscus,1963-05-29
Nadhaswaram,Thirumurugan,P. Mohan,2015-05-09
Na Bole Tum Na Maine Kuch Kaha 2,Sudhir Sharma,Na Bole Tum Na Maine Kuch Kaha,2013-09-12
Na Bole Tum Na Maine Kuch Kaha,Sudhir Sharma,Na Bole Tum Na Maine Kuch Kaha,2012-10-05
NPS: No puede ser,Boomerang,Venevisión,2011-08-30
My World and Welcome to It,Danny Arnold,W. Windom,1970-03-06
My Three Sons,George Tibbles,B. Garland,1972-04-13
