col0,col1,col2,col3,col4
A. Villar,Venezuela,Venezuela women's national volleyball team,Vargas,1984-03-30
A. Fernández,Spain,Spain women's national volleyball team,Mataró,1983-08-11
A. Mauricette,France,France women's national volleyball team,Les Abymes,1985-06-01
A. Vázquez,Puerto Rico,Puerto Rico women's national volleyball team,"Honolulu, Hawaii",1984-03-30
A. Duraković,Serbia,Serbia women's national volleyball team,Pljevlja,1988-06-10
A. Allen,United States,United States men's national volleyball team,Samoa,1967-05-24
Allan van de Loo,Netherlands,Netherlands men's national volleyball team,Eindhoven,1975-01-10
A. Mobasheri,Iran,Iran men's national volleyball team,Isfahan,1988-06-10
A. Jadidi,Iran,Iran men's national volleyball team,Amol,1989-02-11
A. Behboudi,Iran,Iran men's national volleyball team,Iran,1979-03-10
A. Albu,Romania,Romania women's national volleyball team,Baia Mare,1983-09-06
A. Székelyová,Slovakia,Slovakia women's national volleyball team,Prešov,1981-01-05
A. Sajjadi,Iran,Iran men's national volleyball team,Shiraz,1988-08-23
A. Hossein,Iran,Iran men's national volleyball team,Tehran,1982-04-28
A. Holubec,Czech Republic,Czech Republic men's national volleyball team,Opava,1984-03-13
A. González,Argentina women's national volleyball team,Argentina women's national volleyball team,Buenos Aires,1981-07-21
A. Crimes,United States,United States women's national volleyball team,Honolulu,1986-06-12
A. Batle,Cuba,Cuba men's national volleyball team,Cuba,1971-7-28
A. Djilali,France,France women's national volleyball team,Mulhouse,1987-10-27
A. Ferreira,Portugal,Portugal men's national volleyball team,Portugal,1991-11-13
A. Trică,Romania,Romania women's national volleyball team,Brăila,1985-10-21
A. Rochelle,France,France women's national volleyball team,Vannes,1983-12-14
A. Oquendo,Puerto Ricans,Puerto Rico women's national volleyball team,"San Juan, Puerto Rico",1984-02-03
A. Muñoz,Peru,Peru women's national volleyball team,Lima,1992-08-16
A. Jupiter,France,France women's national volleyball team,Charenton-le-Pont,1990-03-11
A. Fomina,Ukraine,Ukraine women's national volleyball team,Luhansk,1975-05-04
A. Dascalu,France,France women's national volleyball team,"Palma, Majorca",1991-04-17
A. Caso,Dominican Republic,Dominican Republic women's national volleyball team,Santo Domingo,1987-04-25
A. Markin,Russia,Russia men's national volleyball team,Moscow,1990-07-28
A. Orro,Italy,Italy women's national volleyball team,Oristano,1998-07-18
A. Gennari,Italy,Italy women's national volleyball team,Italy,1991-11-03
A. Preti,Italy,Italy men's national volleyball team,Villach,1992-08-07
A. Chiappini,Turkey,Turkey women's national volleyball team,Perugia,1969-01-31
A. Zambelli,Italy,Italy women's national volleyball team,Faenza,1967-02-14
A. D. Santiago,Filipinos,Philippines women's national volleyball team,Cavite,1993-09-26
A. Iourieva,Belarus,Belarus women's national volleyball team,Minsk,1984-09-21
A. Šket,Slovenia,Slovenia men's national volleyball team,Slovenia,1988-03-28
A. Wójcik,Poland,Poland women's national volleyball team,Kamienna Góra,1994-01-03
A. Trojan,Poland,Poland women's national volleyball team,Dobczyce,1991-06-06
A. Sikorska,Poland,Poland women's national volleyball team,Warsaw,1993-04-28
A. Pasynkova,Russia,Russia women's national volleyball team,Soviet Union,1987-04-14
A. Krzos,Poland,Poland women's national volleyball team,Wrocław,1989-06-23
A. Kruk,Poland,Poland women's national volleyball team,Elbląg,1984-10-29
A. Jagieło,Poland,Poland women's national volleyball team,Nisko,1980-06-02
A. Crnčević,Serbia,Serbia women's national volleyball team,Sremska Mitrovica,1987-05-30
