col0,col1,col2,col3,col4,col5
Psychotherapy Research,Routledge,1990,1050-3307,PRSECG,21464424
Psychosomatics,Elsevier,1960,0033-3182,PSYCBC,1763070
Psychosomatic Medicine,Lippincott Williams & Wilkins,1939,0033-3174,PSMEAP,1534-7796
Psychophysiology,Wiley-Blackwell,1964,0048-5772,PSPHAF,474792791
Psychoneuroendocrinology,Elsevier,1976,0306-4530,PSYCDE,644285842
Psychology of Women Quarterly,Sage Publications,1976,0361-6843,PWOQDY,643627756
Psychological Reports,SAGE Publications,1955,0033-2941,PYRTAZ,1318827
Psychological Medicine,Cambridge University Press,1969,0033-2917,PSMDCO,1588231
Psychological Bulletin,American Psychological Association,1904,0033-2909,PSBUAI,1681351
Psychologica Belgica,Ubiquity Press,1951,0033-2879,PBELAN,643776398
Psycho-Oncology,Wiley-Blackwell,1992,1057-9249,POJCEE,900953412
Psychiatric Quarterly,Springer Science+Business Media,1915,0033-2720,PSQUAP,1715671
Psyche,Hindawi Publishing Corporation,1874,0033-2615,PSYCHAQ,191673651
Protein Science,Wiley-Blackwell,1992,0961-8368,PRCIEI,25450084
Protein & Cell,Springer Science+Business Media,2010,1674-800X,PCREFB,865290367
Progress of Theoretical and Experimental Physics,Oxford University Press,1946,0033-068X,PTPKAV,2449902
Progress in Physical Geography,SAGE Publications,1977,0309-1333,PPGEEC,243419000
Progress in Neurobiology,Elsevier,1973,0301-0082,PNNEA,39196486
Progress in Neuro-Psychopharmacology & Biological Psychiatry,Elsevier,1977,0278-5846,PNPPD7,848644184
Progress in Cardiovascular Diseases,Elsevier,1958,0033-0620,PCVDAN,1624043
Proceedings of the Royal Society of Queensland,Royal Society of Queensland,1885,0080-469X,PRSQAG,1639402
Proceedings of the National Academy of Sciences of the United States of America,United States National Academy of Sciences,1914,0027-8424,PNASA6,43473694
"Proceedings of the Institution of Mechanical Engineers, Part L: Journal of Materials: Design and Applications",Sage Publications,1999,1464-4207,PIMAFG,782918935
"Proceedings of the Institution of Mechanical Engineers, Part J: Journal of Engineering Tribology",SAGE Publications,1994,1350-6501,PEJTET,60648825
"Proceedings of the Institution of Mechanical Engineers, Part H: Journal of Engineering in Medicine",SAGE Publications,1971,0954-4119,PIHMEQ,19502231
"Proceedings of the Institution of Mechanical Engineers, Part G: Journal of Aerospace Engineering",Sage Publications,1989,0954-4100,PMGEEP,19966973
"Proceedings of the Institution of Mechanical Engineers, Part E: Journal of Process Mechanical Engineering",Sage Publications,1989,0954-4089,PMEEEF,19905122
"Proceedings of the Institution of Mechanical Engineers, Part B: Journal of Engineering Manufacture",Sage Publications,1989,0954-4054,PIBMEU,705259037
"Proceedings of the Institution of Mechanical Engineers, Part A: Journal of Power and Energy",Sage Publications,1990,0957-6509,PMAEET,21531945
Proceedings of the IEEE,Institute of Electrical and Electronics Engineers,1913,0018-9219,IEEPAD,807623131
Proceedings of the American Mathematical Society,American Mathematical Society,1950,0002-9939,PAMYAR,1480367
Proceedings - Mathematical Sciences,Springer Science+Business Media,1934,0253-4142,PIAMDO,462722435
Primates,Springer Science+Business Media,1957,0032-8332,PRMTBU,51531954
Preventive Medicine,Elsevier,1972,0091-7435,PVTMA3,1605081
Pramana,Indian Academy of Sciences,1973,0304-4289,PRAMCI,1797824
Postgraduate Medicine,Informa Healthcare,1916,0032-5481,POMDAS,643598155
Postgraduate Medical Journal,BMJ Group,1925,0032-5473,PGMJAO,1762715
Post-Communist Economies,Taylor & Francis,1989,1463-1377,PCECF8,884568959
Population and Environment,Springer Science+Business Media,1978,1573-7810,PENVDK,5511021
Population Research and Policy Review,Springer Science+Business Media,1982,0167-5923,PRPRE8,525604060
Polymers for Advanced Technologies,John Wiley & Sons,1990,1042-7147,PADTE5,41631635
Polyhedron,Elsevier,1955,0277-5387,PLYHDE,771157632
Political Psychology,Wiley-Blackwell,1980,0162-895X,POPSEO,44544062
Political Communication,International Communication Association,1980,1058-4609,PLCMEM,24298351
Polish Sociological Review,Polish Sociological Association,1961,1231-1413,PSREFL,175680586
Polish Journal of Chemistry,Polish Chemical Society,1921,0137-5083,PJCHDQ,3875870
Polar Record,Cambridge University Press,1931,0032-2474,POLRAV,52079372
Platelets,Taylor & Francis,1990,0953-7104,PLTEEF,796198163
Planta,Springer Science+Business Media,1925,0032-0935,PLANAB,612356975
Plant Systematics and Evolution,Springer Science+Business Media,1851,0378-2697,ESPFBP,47207423
Plant Disease,American Phytopathological Society,1917,0191-2917,PLDIDE,263603135
"Plant, Cell & Environment",Wiley-Blackwell,1978,0140-7791,PLCEDV,782071684
Planetary and Space Science,Elsevier,1959,0032-0633,PLSSAE,1762457
Placenta,Elsevier,1980,0143-4004,PLACDF,5312765
Phytomedicine,Elsevier,1994,0944-7113,PYTOEY,663411222
Phytochemistry,Elsevier,1961,0031-9422,PYTCAS,780563468
Phytochemical Analysis,John Wiley & Sons,1991,0958-0344,PHANEL,23673004
Physiotherapy,Elsevier,1915,0031-9406,PHSIAO,606003759
Physiotherapy: Theory and Practice,Informa,1985,0959-3985,PTHPEA,474752352
Physiology & Behavior,Elsevier,1966,0031-9384,PHBHA4,643803838
Physiological and Biochemical Zoology,University of Chicago Press,1928,1522-2152,PBZOF6,732865910
Physiological Reports,Wiley-Blackwell,2013,2051-817X,PRHEJ2,850253075
Physics of the Earth and Planetary Interiors,Elsevier,1967,0031-9201,PEPIAM,878793
Physics in Perspective,Birkhäuser,1999,1422-6944,PHPEF2,889893508
Physics in Medicine and Biology,IOP Publishing,1956,0031-9155,PHMBA7,1762343
Physics and Chemistry of Liquids,Taylor & Francis,1968,0031-9104,PCLQAC,50516984
Physics and Chemistry of Glasses: European Journal of Glass Science and Technology Part B,Society of Glass Technology,2006,1750-6689,PCGECL,475779556
Physics-Uspekhi,IOP Publishing,1918,1063-7869,PHUSEY,36334507
Physical Therapy,American Physical Therapy Association,1921,0031-9023,PTHEA7,1762333
Physical Review X,American Physical Society,2011,2160-3308,PRXHAE,706478714
Physical Review Letters,American Physical Society,1958,0031-9007,PRLTAO,1715834
Physical Review E,American Physical Society,1993,1539-3755,PRESCM,45808357
Physical Review A,American Physical Society,1970,1050-2947,PLRAAN,21266025
Physical Chemistry Chemical Physics,Royal Society of Chemistry,1999,1463-9076,PPCPFQ,807667458
Physical & Occupational Therapy in Geriatrics,Informa,1981,0270-3181,POTGD7,6389623
PhysChemComm,Royal Society of Chemistry,1998,1460-2733,PHCCFX,40310988
Photosynthetica,Springer Science+Business Media,1967,0300-3604,PHSYB5,807153966
Photochemistry and Photobiology,Wiley-Blackwell,1962,0031-8655,PHCBAP,1762302
Photochemical and Photobiological Sciences,Royal Society of Chemistry,2002,1474-905X,PPSHCB,49233320
Phlebology,Sage Publications,1986,0268-3555,PHLEEF,22304962
Philosophy of Science,University of Chicago Press,1934,0031-8248,PHSCA6,1606760
Philosophical Transactions of the Royal Society B,Royal Society,1887,0962-8436,PTRBAE,1403239
Philosophical Transactions of the Royal Society A,Royal Society,1665,1364-503X,PTMSFB,34435526
Philosophical Studies,Springer Science+Business Media,1950,0031-8116,PLSDA3,1490601
Philosophical Magazine,Taylor & Francis,1798,1478-6435,PMHABF,476300855
Pharmacotherapy,Wiley-Blackwell,1981,0277-0008,PHPYDQ,7491625
Pharmacology & Therapeutics,Elsevier,1976,0163-7258,PHTHDT,4981366
"Pharmacology, Biochemistry and Behavior",Elsevier,1973,0091-3057,PBBHAU,848182005
Pharmacological Reviews,American Society for Pharmacology and Experimental Therapeutics,1949,0031-6997,PAREAQ,824083
PharmacoEconomics,Springer Science + Business Media,1992,1170-7690,PARMEK,715234833
Pharmaceutical Development and Technology,Informa,1984,1083-7450,PDTEFS,32876033
Pharmaceutical Biology,Informa,1961,1388-0209,PHBIFC,637673973
Personality and Individual Differences,Elsevier,1980,0191-8869,PEIDD9,4965018
Personal Relationships,John Wiley & Sons,1994,1350-4126,PRRLEY,173431276
Permafrost and Periglacial Processes,John Wiley & Sons,1990,1045-6740,PEPPED,20213362
Peptides,Elsevier,1980,0196-9781,PPTDD5,5926089
Pediatric Research,Nature Publishing Group,1967,0031-3998,PEREBL,1761994
Pediatric Radiology,Springer Science+Business Media,1973,0301-0449,PDRYA5,1696630
Pediatric Clinics of North America,Saunders,1954,0031-3955,PCNAA8,1643666
Pattern Recognition Letters,Elsevier,1982,0167-8655,PRLEDG,310948140
Pathophysiology,Elsevier,1994,0928-4680,PTHOE7,643069281
Party Politics,SAGE Publications,1995,1354-0688,PAPOFH,31946567
Parasitology,Cambridge University Press,1908,0031-1820,PARAAE,1714177
Parasite,EDP Sciences,1923,1252-607X,PASIED,187451846
Pan American Journal of Public Health,Pan American Health Organization,1997,1020-4989,RPSPFQ,36421075
Paleoceanography,American Geophysical Union,1986,0883-8305,POCGEP,12224892
"Palaeogeography, Palaeoclimatology, Palaeoecology",Elsevier,1965,0031-0182,PPPYAB,1761774
Pain Medicine,Wiley-Blackwell,2000,1526-2375,PMAEAP,884090837
Pain,Lippincott Williams & Wilkins,1975,0304-3959,PAINDB,2962157
Pacing and Clinical Electrophysiology,Wiley-Blackwell,1978,0147-8389,PPCEDP,3578626
Pacific Philosophical Quarterly,Wiley-Blackwell,1920,0279-0750,PPHQEJ,6272734
Pacific Insects,Bishop Museum,1959,0030-8714,PFISAO,1761674
PALAIOS,Society for Sedimentary Geology,1986,0883-1351,PALAEM,48388903
Oxford Journal of Archaeology,John Wiley & Sons,1982,0262-5253,OJARE2,37447158
Otolaryngology-Head and Neck Surgery,Sage Publications,1995,0194-5998,OHNSDL,638742774
Osteoporosis International,Springer Science+Business Media,1990,0937-941X,OSINEP,45478450
Oryx,Cambridge University Press,1903,0030-6053,ORYXAM,476155896
Organization Science,INFORMS,1990,1047-7039,ORSCEZ,461593471
Organization & Environment,Sage Publications,1987,1086-0266,ORENFX,300182389
Organic and Biomolecular Chemistry,Royal Society of Chemistry,2003,1477-0520,OBCRAK,884652802
Organic Syntheses,John Wiley & Sons,1921,0078-6209,ORSYAT,611353626
Organic Geochemistry,Elsevier,1977,0146-6380,ORGEDE,3637170
Optics Letters,Optical Society of America,1977,0146-9592,OPLEDP,3058079
Optics Communications,Elsevier,1969,0030-4018,OPCOB8,1761347
Optical Review,Springer Science+Business Media,1994,1340-6000,OPREFN,53863964
Optical Materials,Elsevier,1992,0925-3467,OMATET,39097987
Optical Engineering,SPIE,1962,0091-3286,OPEGAR,231848631
Ophthalmology,Elsevier,1978,0161-6420,OPHTDG,3661682
Operations Research,INFORMS,1952,0030-364X,OPREAI,2394608
Open Life Sciences,Walter de Gruyter,2006,2391-5412,OLSPBT,907772243
Open Biology,Royal Society,2011,2046-2441,OBPICQ,758836335
Oncology Reports,Spandidos Publications,1994,1021-335X,OCRPEW,29502443
Oncogene,Nature Publishing Group,1987,0950-9232,ONCNES,15797680
Oikos,Wiley-Blackwell,1949,0030-1299,OIKSAA,1643453
Occupational and Environmental Medicine,BMJ Group,1944,1351-0711,OEMEEM,41236398
Occupational Therapy in Health Care,Informa,1984,0738-0577,OTHCES,9500767
Obstetrics & Gynecology,Lippincott Williams & Wilkins,1953,0029-7844,OBGNAS,1643950
Obstetrical & Gynecological Survey,Wolters Kluwer,1946,0029-7828,OGSUA8,1760994
Obesity Reviews,Wiley-Blackwell,2000,1467-7881,ORBEBL,299336066
Nutrition in Clinical Practice,SAGE Publications,1986,0884-5336,NCPREH,750672680
Nutrition and Cancer,Routledge,1978,0163-5581,NUCADQ,4415504
Nutrients,MDPI,2009,2072-6643,NUTRHU,608471106
Numerische Mathematik,Springer Science+Business Media,1959,0029-599X,NUMMA7,1760917
Nucleic Acids Research,Oxford University Press,1974,0305-1048,NARHAD,1791693
Notes and Records,The Royal Society,1938,0035-9149,NOREAY,614866752
Norwegian Journal of Geography,Routledge,1926,0029-1951,NGGTA2,709965404
Nonprofit and Voluntary Sector Quarterly,SAGE Publications,1972,0899-7640,NVSQEQ,709956672
Nonlinearity,London Mathematical Society,1988,0951-7715,NONLE5,629195260
Nonlinear Dynamics,Springer Science+Business Media,1990,0924-090X,NODYES,634426729
Nitric Oxide,Elsevier,1997,1089-8603,NIOXF5,35147437
Nicotine & Tobacco Research,Oxford University Press,1999,1462-2203,NTREF6,710017950
New Phytologist,Wiley-Blackwell,1902,0028-646X,NEPHAV,1759937
New Journal of Chemistry,Royal Society of Chemistry,1977,1144-0546,NJCHE5,39927704
Neurotoxicology and Teratology,Elsevier,1979,0892-0362,NETEEC,39098352
Neurotoxicity Research,Springer Science+Business Media,1999,1029-8428,NURRFI,50166444
Neurosurgery,Lippincott Williams & Wilkins,1977,0148-396X,NRSRDY,3301698
Neuroscience,Elsevier,1976,0306-4522,NRSCDN,39098294
Neuroscience & Biobehavioral Reviews,Elsevier,1977,0149-7634,NBREDE,3552135
Neuropsychopharmacology,Nature Publishing Group,1987,0893-133X,NEROEW,815994337
Neuropsychology Review,Springer Science+Business Media,1990,1040-7308,NERVEJ,44514076
Neuropsychologia,Elsevier,1963,0028-3932,NUPSA6,1759703
Neuropsychobiology,Karger Publishers,1975,0302-282X,NPBYAL,1809731
Neuropharmacology,Elsevier,1962,0028-3908,NEPHBW,1796748
Neuron,Cell Press,1988,0896-6273,NERNET,17223779
Neuromuscular Disorders,Elsevier,1991,0960-8966,NEDIEC,24318845
Neuromolecular Medicine,Springer Science+Business Media,2002,1535-1084,NMEEAN,605176440
Neurology India,Medknow Publications,1953,0028-3886,NURYAY,6401325
Neurogenetics,Springer Science+Business Media,1997,1364-6745,NEROFX,37360267
Neurogastroenterology & Motility,Wiley-Blackwell,1989,1350-1925,NMOTEK,859674634
Neuroepidemiology,Karger Publishers,1982,0251-5350,NEEPD3,859674707
Neurochemical Research,Springer Science+Business Media,1976,0364-3190,NEREDZ,300184004
Neurobiology of Disease,Elsevier,1994,0969-9961,NUDIEM,848190540
Neurobiology of Aging,Elsevier,1980,0197-4580,NEAGDO,6035686
NeuroToxicology,Elsevier,1979,0161-813X,NRTXDN,47153737
NeuroReport,Lippincott Williams & Wilkins,1990,0959-4965,NERPEZ,22982547
NeuroRehabilitation,IOS Press,1991,1053-8135,NRORFG,803541857
NeuroImage,Elsevier,1993,1053-8119,NEIMEF,36950362
Neuro-Oncology,Oxford University Press,1999,1522-8517,NEURJR,40529271
Neural Plasticity,Hindawi Publishing Corporation,1989,1687-5443,NEPLFE,70708345
Neural Networks,Elsevier,1988,0893-6080,NNETEB,798872932
Neues Jahrbuch für Geologie und Paläontologie,E. Schweizerbart,1807,0077-7749,NJGMA2,1759691
Nephrology Dialysis Transplantation,Oxford University Press,1986,0931-0509,NDTREA,15991387
Neonatal Network,Springer Publishing,1981,0730-0832,NEONEE,7938261
Nematology,Brill Publishers,1999,1388-5545,NMATFJ,456621842
Naturwissenschaften,Springer Science+Business Media,1913,0028-1042,NATWAY,1759509
Nature Structural & Molecular Biology,Nature Research,1994,1545-9985,NSMBCU,52847740
Nature Reviews Urology,Nature Publishing Group,2004,1759-4812,NRNADQ,318124628
Nature Reviews Molecular Cell Biology,Nature Publishing Group,2000,1471-0072,NRMCBP,807916556
Nature Reviews Gastroenterology & Hepatology,Nature Publishing Group,2004,1759-5045,NRGHA9,730022551
Nature Reviews Drug Discovery,Nature Publishing Group,2002,1474-1776,NRDDAG,427380493
Nature Physics,Nature Publishing Group,2005,1745-2473,NPAHAX,61856917
Nature Neuroscience,Nature Publishing Group,1998,1097-6256,NANEFN,38213290
Nature Nanotechnology,Nature Publishing Group,2006,1748-3387,NNAABX,76826475
Nature Methods,Nature Publishing Group,2004,1548-7091,NMAEA3,56476033
Nature Medicine,Nature Publishing Group,1995,1078-8956,NAMEFI,471508019
