col0,col1,col2,col3
Craspedoma lyonnetianum,Cyclophoroidea,LR/cd,IUCN2.3
Craspedoma hespericum,Cyclophoroidea,LR/cd,IUCN2.3
Craspedoma costata,Cyclophoroidea,LR/lc,IUCN2.3
Cralopa kaputarensis,Charopidae,DD,IUCN2.3
Cralopa colliveri,Charopidae,VU,IUCN2.3
Cracking pearlymussel,Unionidae,CR,iucn2.3
Corseria corsica,Truncatelloidea,VU,IUCN2.3
Corpulent hornsnail,Cerithioidea,VU,IUCN2.3
Corded purg,Hydrobiidae,EX,IUCN2.3
Coosa rocksnail,Cerithioidea,EX,IUCN2.3
Coosa pigtoe,Unionidae,EX,IUCN2.3
Coosa pebblesnail,Hydrobiidae,CR,IUCN2.3
Coosa moccasinshell,Unionidae,CR,IUCN2.3
Coosa elktoe,Unionidae,EX,IUCN3.1
Cooperconcha centralis,Camaenidae,LR/nt,IUCN2.3
Cookeconcha contorta,Punctoidea,CR,IUCN2.3
Conturbatia crenata,Streptaxoidea,CR,IUCN3.1
Constricted elimia,Cerithioidea,EX,IUCN2.3
Concentrated snail,Helicoidea,VU,IUCN2.3
Conacmella vagans,Rissooidea,DD,IUCN2.3
Columbia pebblesnail,Lithoglyphidae,DD,IUCN2.3
Colparion madgei,Gastrodontoidea,EX,IUCN2.3
Colossal squid,Taoniinae,LC,IUCN3.1
Coldwater elimia,Cerithioidea,LC,IUCN3.1
Coenocharopa yessabahensis,Charopidae,DD,IUCN2.3
Coelatura ratidota,Unionidae,DD,IUCN3.1
Coelatura horei,Unionidae,LC,IUCN3.1
Coelatura cridlandi,Unionidae,DD,IUCN3.1
Coelatura alluaudi,Unionidae,DD,IUCN3.1
Codringtonia parnassia,Helicidae,VU,IUCN3.1
Codringtonia neocrassa,Helicidae,VU,IUCN3.1
Codringtonia intusplicata,Helicidae,VU,IUCN3.1
Codringtonia helenae,Helicidae,VU,IUCN3.1
Codringtonia gittenbergeri,Helicidae,VU,IUCN3.1
Codringtonia eucineta,Helicidae,VU,IUCN3.1
Codringtonia elisabethae,Helicidae,VU,IUCN3.1
Cochlostoma septemspirale,Cochlostomatidae,LC,iucn3.1
Cochlostoma parnonis,Cochlostomatidae,NT,iucn3.1
Cochlostoma pageti,Cochlostomatidae,NT,iucn3.1
Cochlostoma hellenicum,Cochlostomatidae,LC,iucn3.1
Cochlostoma euboicum,Cochlostomatidae,NT,iucn3.1
Cochlostoma canestrinii,Cochlostomatidae,VU,iucn3.1
Cochlostoma achaicum,Cochlostomatidae,LC,iucn3.1
Cochliopina compacta,Hydrobiidae,DD,IUCN2.3
Cochlicopa nitens,Cochlicopoidea,LR/lc,IUCN2.3
Cobble elimia,Cerithioidea,EX,IUCN2.3
Coahuilix de hubbs snail,Hydrobiidae,CR,IUCN2.3
Club naiad,Unionidae,CR,IUCN2.3
Closed elimia,Cerithioidea,EX,IUCN2.3
Clithon spinosum,Neritidae,NE,iucn3.1
Clithon oualaniense,Neritidae,LC,iucn3.1
Clithon faba,Neritidae,LC,IUCN3.1
Cleopatra guillemei,Cerithioidea,DD,IUCN3.1
Cleopatra grandidieri,Cerithioidea,LR/nt,IUCN2.3
Cleopatra ferruginea,Cerithioidea,LC,IUCN3.1
Cleopatra exarata,Cerithioidea,VU,IUCN3.1
Cleopatra cridlandi,Cerithioidea,VU,IUCN3.1
Cleopatra broecki,Cerithioidea,DD,IUCN3.1
Cleopatra africana,Cerithioidea,LC,IUCN3.1
Clea wykoffi,Buccinidae,NE,iucn3.1
Clea spinosa,Buccinidae,DD,iucn3.1
Clea scalarina,Buccinidae,NE,iucn3.1
Clea paviei,Buccinidae,NE,iucn3.1
Clea nigricans,Buccinidae,NE,iucn3.1
Clea jullieni,Buccinidae,DD,iucn3.1
Clea hidalgoi,Buccinidae,NE,iucn3.1
Clea helena,Buccinidae,NE,iucn3.1
Clea fusca,Buccinidae,NE,iucn3.1
Clea cambojiensis,Buccinidae,NE,iucn3.1
Clea broti,Buccinidae,DD,iucn3.1
Clea bockii,Buccinidae,NE,iucn3.1
Clea bangueyensis,Buccinidae,NE,iucn3.1
Clavator moreleti,Acavoidea,VU,IUCN2.3
Clappia umbilicata,Lithoglyphidae,EX,IUCN2.3
Cipangopaludina cathayensis,Viviparidae,LC,IUCN3.1
Cipangocharax placeonovitas,Cyclophoroidea,DD,IUCN2.3
Cipangocharax okamurai,Cyclophoroidea,DD,IUCN2.3
Cipangocharax kiuchii,Cyclophoroidea,DD,IUCN2.3
Cipangocharax biexcisus,Cyclophoroidea,DD,IUCN2.3
Ciliellopsis oglasae,Helicoidea,VU,IUCN2.3
Chytra kirki,Cerithioidea,LC,IUCN3.1
Chupadera springsnail,Hydrobiidae,DD,IUCN2.3
Christianoconcha quintalia,Punctoidea,VU,IUCN2.3
Chondropoma callipeplum,Littorinoidea,DD,IUCN2.3
Chondrina oligodonta,Pupilloidea,VU,IUCN3.1
Choctaw bean,Unionidae,EN,iucn3.1
Choanomphalus maacki,Planorbidae,LC,IUCN3.1
Choanomphalus aorus,Planorbidae,NE,IUCN3.1
Choanomphalus amauronius,Planorbidae,NE,IUCN3.1
Chittenango ovate amber snail,Succineidae,DD,IUCN2.3
Chipola slabshell,Unionidae,EN,IUCN2.3
Chinese mystery snail,Viviparidae,LC,IUCN3.1
