col0,col1,col2,col3,col4
"Rich Man, Poor Man Book II",I. Shaw,G. Henry,"Rich Man, Poor Man",1977-03-08
Ressha Sentai ToQger,S. Aikawa,K. Ohkuchi,Zyuden Sentai Kyoryuger,2015-02-15
Quatermass,N. Kneale,R. Arliss,Quatermass and the Pit,1979-11-14
Phyllis,L. Marks,C. Leachman,The Mary Tyler Moore Show,1977-03-13
Party Girl,Daisy von Scherler Mayer,C. Taylor,Party Girl,1996-09-30
Old Time Buddy - To Catch a Thief,S. Kam-Yuen,G. Lo,Old Time Buddy,1998-09-04
Mirai Sentai Timeranger,R. Yamaguchi,M. Katsumura,Kyuukyuu Sentai GoGoFive,2001-02-11
Metti Oli,Thirumurugan,D. Kumar,Magal,2005-06-17
María Isabel,R. Muñoz,P. R. Spíndola,La jaula de oro,1998-01-23
Mariana de la Noche,L. Abud,A. Barros,Amor real,2004-04-23
María Isabel,R. Muñoz,L. Herrera,La jaula de oro,1998-01-23
Late Night with Jimmy Fallon,A. D. Miles,T. Roots,Late Night with Conan O'Brien,2014-02-07
Lagaao,W. Ahmad,B. Khan,Aik Thi Misaal,2016-05-16
La Madrastra,L. Abud,E. Capetillo,Mujer de madera,2005-07-29
Kyōryū Sentai Zyuranger,T. Inoue,M. Soga,Chōjin Sentai Jetman,1993-02-12
Kyuukyuu Sentai GoGoFive,R. Yamaguchi,Y. Miyamura,Seijuu Sentai Gingaman,2000-02-06
Kyōryū Sentai Zyuranger,T. Inoue,M. Soga,Chōjin Sentai Jetman,1993-02-12
Knight Rider,G. A. Larson,J. Bruening,Knight Rider,2009-03-04
Khoya Khoya Chand,F. Iftikhar,M. Ali,Dil-e-Muztar,2013-12-26
Kamen Rider Wizard,S. Aikawa,S. Shiraishi,Kamen Rider Fourze,2013-09-29
Kamen Rider W,R. Sanjo,M. Kinomoto,Kamen Rider Decade,2010-08-29
Kamen Rider Ryuki,T. Inoue,T. Suga,Kamen Rider Agito,2003-01-19
Kamen Rider OOO,Y. Kobayashi,H. Iwanaga,Kamen Rider W,2011-08-28
Kamen Rider Kiva,T. Inoue,K. Kato,Kamen Rider Den-O,2009-01-18
Kamen Rider Kabuto,T. Inoue,K. Kato,Kamen Rider Hibiki,2007-01-21
Kamen Rider Hibiki,S. Yonemura,M. Gamō,Kamen Rider Blade,2006-01-22
Kamen Rider Ghost,K. Hasegawa,R. Yamamoto,Kamen Rider Drive,2016-09-25
Kamen Rider Gaim,G. Urobuchi,Y. Kobayashi,Kamen Rider Wizard,2014-09-28
Kamen Rider Fourze,R. Sanjo,F. Shimizu,Kamen Rider OOO,2012-08-26
Kamen Rider Drive,R. Sanjo,R. Uchida,Kamen Rider Gaim,2015-09-27
Kamen Rider Den-O,Y. Kobayashi,Y. Shiratori,Kamen Rider Kabuto,2008-01-20
Kamen Rider Decade,T. Inoue,K. Totani,Kamen Rider Kiva,2009-08-30
Kamen Rider Blade,T. Inoue,K. Amano,Kamen Rider 555,2005-01-23
Kamen Rider Agito,T. Inoue,R. Akiyama,Kamen Rider Kuuga,2002-01-27
Kamen Rider 555,T. Inoue,Y. Haga,Kamen Rider Ryuki,2004-01-18
Jonah from Tonga,C. Lilley,C. Lilley,Ja'mie: Private School Girl,2014-05-04
Ja'mie: Private School Girl,C. Lilley,C. Lilley,Angry Boys,2013-11-27
Håll huvudet kallt,V. Lärn,G. Ragnerstam,Tomtemaskinen,1994-12-24
Gul-e-Rana,S. Bukhari,F. Khan,Mol,2016-04-02
Guest from the Future,K. Bulychov,N. Murashkevich,The Mystery of the Third Planet,1985-03-30
Grass,A. Collins,P. Jackson,The Fast Show,2003-10-27
Going My Way,R. L. Bare,G. Kelly,Going My Way,1963-04-24
GoGo Sentai Boukenger,S. Aikawa,J. Morita,Mahou Sentai Magiranger,2007-02-11
Glenroe,W. Burrowes,A. Stanford,Bracken,2001-05-06
Garo: Makai Senki,T. Inoue,R. Fujita,Garo Special: Byakuya no Maju,2012-03-22
Gabriel y Gabriela,Y. V. Dulché,Jorge Martínez de Hoyos,El derecho de nacer,1983-02-21
En nombre del amor,M. Carrillo,L. Calderón,Querida Enemiga,2009-06-12
El Privilegio de Amar,L. Abud,A. Noriega,La usurpadora,1999-02-26
Dos hogares,E. Larrosa,Anahí,Triunfo del amor,2012-01-20
Delta House,J. Hughes,P. Kastner,National Lampoon's Animal House,1979-04-21
Dancing on the Edge,S. Poliakoff,J. Goodman,Glorious 39,2013-03-10
Daktari,R. Lees,M. Thompson,"Clarence, the Cross-Eyed Lion",1969-01-15
Cuando me enamoro,M. Carrillo,R. Banquells,Mar de amor,2011-03-13
