col0,col1,col2,col3
Tiny Dancer,E. John,Rocket Man,London
Tin Soldier,R. Lane,Lazy Sunday,England
Tin Omen,N. Ogre,Worlock,1989 in music
Times Like These,C. Shiflett,Low,BBC
Timeless Melody,L. Mavers,There She Goes,London
Time to Waste,M. Skiba,Mercy Me,Los Angeles
Time for Miracles,N. Shneider,For Your Entertainment,California
Time After Time,C. Lauper,She Bop,New York
Time,D. Gilmour,Have a Cigar,Abbey Road Studios
Time,D. Bowie,Let's Spend the Night Together,Trident Studios
Tim McGraw,L. Rose,Teardrops on My Guitar,Quad Studios Nashville
Til I Hear It from You,M. Crenshaw,Follow You Down,Ardent Studios
Tik Tok,B. Blanco,Blah Blah Blah,California
Tiempo,C. Morena,Será de Dios,2003 in music
Tied Up too Tight,R. Archer,Hard to Beat,Staines
Tie a Yellow Ribbon Round the Ole Oak Tree,L. R. Brown,"Say, Has Anybody Seen My Sweet Gypsy Rose",1973 in country music
Ticket to the Moon,J. Lynne,Rain Is Falling,Germany
Ticket to Ride,Lennon–McCartney,Help!,Abbey Road Studios
Ti Voglio Qui,T. Arena,If I Didn't Love You,1997 in music
Ti Sento,R. J. Jordan,The Sound Above My Hair,2009 in music
Thunder Kiss '65,R. Zombie,Black Sunshine,New York City
Thunder,Prince,Sexy MF,Paisley Park Studios
Thumbing My Way,E. Vedder,You Are,Seattle
Throwing It All Away,P. Collins,Land of Confusion,Surrey
Throw Your Arms Around Me,M. Seymour,Everything's on Fire,"St Kilda, Victoria"
Through the Wire,K. West,Slow Jamz,California
Thrills in the Night,P. Stanley,Tears Are Falling,New York City
Three Times a Lady,L. Richie,Somebody's Needin' Somebody,"Nashville, Tennessee"
Three Steps to Heaven,E. Cochran,Lonely,"Hollywood, California"
Three Pistols,T. T. Hip,Twist My Arm,New Orleans
Thoia Thoing,R. Kelly,Clubbin',2003 in music
This Whole World,B. Wilson,Tears in the Morning,Brian Wilson's home studio
This Used to Be My Playground,Madonna,Erotica,"Los Angeles, California"
This Town,L. Hazlewood,What'd I Say,1967 in television
This Too Shall Pass,D. Kulash,End Love,Tarbox Road Studios
This Perfect Day,C. Bailey,Know Your Product,London
This Old Heart of Mine,Holland–Dozier–Holland,Megamix '93,Hitsville U.S.A.
This Means War,C. Kroeger,Lullaby,Canada
This Is the Last Time,T. Rice-Oxley,Somewhere Only We Know,"Rye, East Sussex"
This Is a Call,D. Grohl,I'll Stick Around,New York City
This Is Who I Am,V. Amorosi,Hazardous,Gothenburg
This Is War,J. Leto,Closer to the Edge,California
This Is My Now,S. Krippayne,Tattoo,American Idol
This Is Me,D. Frank,Crazy,California
This Is Love,G. Harrison,Cheer Down,Friar Park
This Corrosion,A. Eldritch,Dominion,Avatar Studios
This Charming Man,Morrissey,What Difference Does It Make?,Stockport
This Ain't Love,D. Sneddon,Chains,London
Thinking of You,K. Perry,Waking Up in Vegas,Los Feliz
Thinking About You,N. Jones,Not Too Late,"New York, New York"
Thinkin' of a Rendezvous,B. Braddock,It Couldn't Have Been Any Better,1976 in country music
Think Twice,P. Sinfield,Only One Road,The Hit Factory
Things We Said Today,Lennon–McCartney,I Feel Fine,Abbey Road Studios
Thieves in the Temple,Prince,New Power Generation,Paisley Park Studios
They Will Kill Us All,M. Caughthran,False Alarm,Gilby Clarke
They Don't Know,K. MacColl,"Move Over, Darling",1979 in music
They're Red Hot,R. Johnson,Sweet Home Chicago,"San Antonio, Texas"
They'll Never Take Her Love from Me,L. Payne,Moanin' the Blues,"Nashville, Tennessee"
These Living Arms,T. T. Party,Gone,Morin Heights
These Days,P. Thornalley,ASAP,Sydney
These Boots Are Made for Walkin',L. Hazlewood,A Public Affair,United States
These Are the Days of Our Lives,Queen,The Show Must Go On,London
There You Go,Pink,Most Girls,"Atlanta, Georgia"
There She Goes,L. Mavers,Timeless Melody,Wokingham
There Must Be an Angel,A. Lennox,Atlantis,Berlin
There It Is,J. Brown,Honky Tonk,"Macon, GA"
There He Is,B. G. Jr.,Wild One,"Detroit, Michigan"
There Goes My Baby,R. Love,DJ Got Us Fallin' in Love,"Miami, Florida"
There Goes My Baby,B. E. King,Supernatural Love,1959 in music
There's a Kind of Hush,L. Reed,I Need to Be in Love,De Lane Lea Studios
There's No Such Thing as a Jaggy Snake,S. Neil,Glitter and Trauma,"Monmouth, Wales"
There'll Be Sad Songs,B. Ocean,Love Zone,1986 in music
There'll Be No Teardrops Tonight,H. Williams,You're Gonna Change,Cincinnati
Theme from Harry's Game,P. Brennan,I See Red,Dublin
Them Bones,J. Cantrell,Angry Chair,"Los Angeles, California"
The Young Ones,R. C. Bennett,I'm Looking Out the Window,London
The Young Go First,L. Muhl,Arrivederci,Copenhagen
The Writing's on the Wall,O. Go,I Won't Let You Down,Tarbox Road Studios
The World Tonight,P. McCartney,Beautiful Night,England
The World Is Stone,M. Berger,Who Let In The Rain,1992 in music
The World Is Rated X,R. Gordy,My Last Chance,"Hollywood, California"
The World Is Not Enough,D. Arnold,Androgyny,Metropolis Group
"The Work, pt. 1",Prince,Days of Wild,Paisley Park Studios
The Words That Maketh Murder,P. Harvey,The Glorious Land,Dorset
The Wolf,W. Marshall,Ditmas,AIR Studios
The Wind Cries Mary,J. Hendrix,Burning of the Midnight Lamp,De Lane Lea Studios
The Width of a Circle,D. Bowie,All the Madmen,Trident Studios
The Weight,R. Robertson,Up on Cripple Creek,New York City
The Wedge,T. Anastasio,Down with Disease,"Nashville, Tennessee"
The Way You Move,B. Boi,Roses,"Atlanta, GA"
The Way You Do the Things You Do,S. Robinson,I'll Be in Trouble,Hitsville USA
The Way Life's Meant to Be,J. Lynne,Rock 'n' Roll Is King,Stockholm
The War,Prince,Come On,Paisley Park Studios
The Walls Fell Down,"Barry, Robin & Maurice Gibb",I Can't See Nobody,IBC Studios
The Walk,T. Time,Gigolos Get Lonely Too,Sunset Sound
The Voice,M. Ure,Reap the Wild Wind,Cologne
The Unknown Soldier,J. Morrison,"Hello, I Love You",Sunset Sound Recorders
The Unified Field / Quiet the Mind,C. Corner,I Come With Knives,2011 in music
The Unforgiven,J. Hetfield,Nothing Else Matters,California
The Twist,H. Ballard,The Hucklebuck,1960 in music
The Twilight Zone,A. Lifeson,2112,Toronto
The Truth,Prince,Extraordinary,Minnesota
The Trick Is to Keep Breathing,Garbage,You Look So Fine,"Madison, Wisconsin"
The Tracks of My Tears,S. Robinson,That'll Be the Day,Hitsville USA
The Times They Are a-Changin',B. Dylan,Subterranean Homesick Blues,New York City
The Time of My Life,R. Hamm,Light On,American Idol
The Thrill of It All,B. Ferry,Love Is the Drug,"London, England"
The Things We Did Last Summer,J. Styne,White Christmas,1946 in music
The Things That I Used to Do,G. Slim,Out of Sight,New Orleans
The Thin Wall,M. Ure,The Voice,Cologne
The Taste of Ink,B. Steineckert,Buried Myself Alive,Olympic Studios
The Sweet Escape,Akon,4 in the Morning,Henson Recording Studios
The Sun Ain't Gonna Shine,B. Gaudio,Bend and Break,"Rye, East Sussex"
The Stone,D. Matthews,Crush,California
The Statue Got Me High,They Might Be Giants,The Guitar,NYC
The Spirit of Radio,A. Lifeson,Entre Nous,Canada
The Spaces Between,J. Goodmanson,Missing,Seattle
The Sound of White,M. Higgins,Steer,"Los Angeles, California"
The Siren,T. Holopainen,Sleeping Sun,Finland
The Ship Song,N. Cave,The Weeping Song,"Sao Paulo, Brazil"
The Seeker,P. Townshend,Summertime Blues,IBC Studios
The Scarecrow,S. Barrett,Apples and Oranges,Abbey Road Studios
The Saints Are Coming,R. Jobson,Into the Valley,Abbey Road Studios
The Sad Bag of Shaky Jake,S. Marriott,Big Black Dog,London
The Rose,A. McBroom,We Had It All,London
The River of Dreams,B. Joel,All About Soul,New York City
The River,T. T. Party,Save Me,"Burlington, Vermont"
The River,B. Springsteen,Cadillac Ranch,New York City
The Rising,B. Springsteen,Lonesome Day,"Atlanta, Georgia"
The Ripper,G. Tipton,Diamonds & Rust,Wales
The Right Time,T. Corrs,Love to Love You,California
The Right Thing to Do,C. Simon,Mockingbird,Trident Studios
The Right Life,Seal,A Change Is Gonna Come,2008 in music
The Riddle,N. Kershaw,Wide Boy,1984 in music
The Revolution Will Not Be Televised,G. Scott-Heron,The Bottle,New York City
The Rest of My Life,Prince,It's About That Walk,Australia
The Recluse,B. Drew,Love Goes Down,London
The Real Thing,J. Young,Part Three into Paper Walls,Melbourne
The Real Thing,L. Perry,Serious,"Hollywood, California"
The Question Is What Is the Question?,H. v. Hemert,And No Matches,2007 in music
The Pusher,H. Axton,Magic Carpet Ride,California
The Puppet,P. d. Freitas,Shine So Hard,Monmouth
The Promise of a New Day,P. Abdul,Blowing Kisses in the Wind,California
The Prince,L. Thompson,One Step Beyond,Highbury
The Prettiest Star,D. Bowie,Memory of a Free Festival,Trident Studios
The Pressure,J. Aiko,Post to Be,"Culver City, California"
The Prayer,C. B. Sager,Bridge over Troubled Water,Criteria Studios
The Power of One,M. Warren,You're So Beautiful,2000 in music
The Pleasure Principle,M. Moir,Making Love in the Rain,Minnesota
The Planets Bend Between Us,G. Lightbody,Just Say Yes,Germany
The Pictures on My Wall,W. Sergeant,Rescue,Liverpool
The Payback,F. Wesley,My Thang,1973 in music
The Passenger,I. Pop,Tonight,"Berlin, Germany"
The Party's Over,W. Nelson,Blackjack County Chain,RCA Studio B
The Part Where I Cry,W. Nelson,Willingly,Quonset Hut
