col0,col1,col2,col3
P. Sanz,Ascó,P. L. XIII,1747
P. J. Eymard,Grenoble,P. P. XI,1868
P. González,Frómista,P. I. IV,1246
P. Friedhofen,Kingdom of Bavaria,Pope John Paul II,1860
P. Fourier,Holy Roman Empire,P. B. XIII,1640
P. Faber,Holy Roman Empire,P. P. IX,1546
P. Claver,Catalonia,P. P. IX,1654
P. Chanel,Montrevel-en-Bresse,P. L. XIII,1841
P. Canisius,Nijmegen,P. P. IX,1597
P. M. Fontcuberta,Barcelona,Pope John Paul II,1886
Pere Tarrés i Claret,Barcelona,Pope John Paul II,1950
P. Vásquez,Spain,P. P. IX,1624
P. P. Castroverde,"Linares, Jaén",Pope John Paul II,1936
P. Calungsod,Captaincy General of the Philippines,Pope John Paul II,1672
P. A. Mendía,Biscay,A. Amato,1936
P. Armengol,Crown of Aragon,P. I. XI,1304
P. P. Gojdič,Austria-Hungary,Pope John Paul II,1960
P. Miki,Japan,P. U. VIII,1597
Pauline of the Agonizing Heart of Jesus,Vigolo Vattaro,Pope John Paul II,1942
P. M. Fornés,Barcelona,Pope John Paul II,1889
P. Frassinetti,Genoa,P. P. XI,1882
Paul of the Cross,Piedmont,P. P. IX,1775
P. J. Nardini,Kingdom of Bavaria,P. B. XVI,1862
P. Baylon,Torrehermosa,P. P. V,1592
P. G. Costa,Brescia,P. G. XVI,1515
P. E. Cerioli,Cremona,P. P. XII,1865
P. Pio,Benevento,Pope John Paul II,1968
Pacificus of San Severino,Papal States,P. P. VI,1721
P. o. Ceredano,Duchy of Milan,P. B. XIV,1482
O. o. Mantua,Duchy of Mantua,P. I. XII,1505
O. o. Cattaro,Kotor,P. P. XI,1565
O. Plunkett,Ireland,P. B. XV,1681
O. o. Pordenone,Holy Roman Empire,P. B. XIV,1331
O. Focherini,Kingdom of Italy,A. Amato,1944
N. Sulprizio,Kingdom of the Two Sicilies,P. P. VI,1836
N. Á. Pereira,Cernache de Bonjardim,P. B. XV,1431
N. Kassab,Lebanon,Pope John Paul II,1858
N. Rusca,Switzerland,A. Amato,1618
N. Factor,Habsburg Spain,P. P. VI,1583
N. Roland,Kingdom of France,Pope John Paul II,1678
N. d. Gesturi,Kingdom of Italy,Pope John Paul II,1958
Nicola da Forca Palena,Papal States,P. C. XIV,1449
N. Saggio,Calabria,P. P. VI,1709
N. Paglia,Bari,P. L. XII,1256
N. Rusca,Switzerland,A. Amato,1618
N. Factor,Habsburg Spain,P. P. VI,1583
N. Tavelic,Croatia in the union with Hungary,P. L. XIII,1391
N. Pieck,Netherlands,P. C. X,1572
N. Garlick,Derbyshire,J. P. II,1588
N. Barré,Kingdom of France,Pope John Paul II,1686
N. Chica,São João del Rei,Cardinal,1895
N. Falzon,Malta,Pope John Paul II,1865
N. d. Jesús,Nobol,J. P. II,1869
M. Wiaux,Les Bons Villers,P. P. VI,1917
M. Teresa,Kosovo Vilayet,Pope John Paul II,1997
M. Bulešić,Svetvinčenat,Cardinal,1947
M. d. Carvalho,Portugal,P. P. IX,1624
M. Pro,Mexico,Pope John Paul II,1927
M. F. Cordero,Ecuador,P. P. VI,1910
M. o. Pesaro,Italy,P. C. XII,1356
M. Rua,Kingdom of Sardinia,P. P. VI,1910
M. Garicoïts,Pyrénées-Atlantiques,P. P. XI,1863
M. Sopoćko,"Nowosady, Hajnówka County",A. Amato,1975
M. Kozal,Poland,Pope John Paul II,1943
M. d. Sanctis,Catalonia,P. P. VI,1625
Michael Hồ Đình Hy,Vietnam,P. L. XIII,1857
M. Sopoćko,"Nowosady, Hajnówka County",A. Amato,1975
M. Kozal,Poland,Pope John Paul II,1943
Mercè Prat i Prat,Barcelona,Pope John Paul II,1926
Mercedes de Jesús Molina,Los Ríos Province,J. P. II,1883
Mercè Prat i Prat,Barcelona,Pope John Paul II,1926
M. Grodziecki,Cieszyn,P. P. X,1619
M. Szewczyk,Ukraine,A. Amato,1905
M. Kolbe,Russian Empire,P. P. VI,1941
M. Tornay,Switzerland,Pope John Paul II,1949
M. d. Nazarei,Papal States,P. C. XIII,1319
M. Ciccarelli,Abruzzo,P. G. XVI,1543
M. Carrieri,Italy,P. S. IV,1470
