col0,col1,col2,col3
Paulding County Courthouse,E.O. Fallis & Co.,6070,6070
Paul F. Murphy House,R. Sundeleaf,809,809
Parkway Village,L. Schultze,141639,141639
"Parkridge, Knoxville, Tennessee",G. F. Barber,772949,772949
Parker House,G. A. Clough,23471,23471
Park Towne Place,E. Bacon,40468,40468
Park Addition School,F. H. Porter,6474,6474
"Palace of Fine and Decorative Arts, Treasure Island",G. W. Kelham,8093,8093
Palace of Fine Arts,B. Maybeck,68796,68796
Palace Theatre,R. a. Rapp,2023,2023
Palace Theatre,J. Eberson,4046,4046
Paintsville Public Library Building,W. P. Administration,1214,1214
Paintsville Country Club,W. P. Administration,2347,2347
Paintsville City Hall,W. P. Administration,890,890
Paine Art Center and Gardens,B. Fleming,59488,59488
Padua Hills Theatre,"Marston, Van Pelt & Maybury",26709,26709
Packer Memorial Chapel,A. Hutton,4046,4046
Packard Proving Grounds,A. Kahn,58679,58679
PS 11,C. B. J. Snyder,6070,6070
Oxon Hill Manor,Jules Henri de Sibour,222577,222577
Oxford House,J. B. DeRemer,4046,4046
Oxford Historic District,E. L. Thomas,590841,590841
Owen Estate,M. H. Hoyt,19829,19829
Overton Park,G. Kessler,1384024,1384024
Overseas Railroad,Florida East Coast Railway,122215,122215
Our Lady of Lourdes Church Complex,A. J. Murphy,8093,8093
Our Lady Help of Christians Historic District,J. Murphy,26709,26709
Ouaquaga Lenticular Truss Bridge,Berlin Iron Bridge Co.,4046,4046
Ottumwa Cemetery,G. M. Kerns,40468,40468
Osgood Gamekeeper's Lodge,T. Boal,24281,24281
Oscar Foss Memorial Library,William M. Butterfield Company,809,809
Osborne House,A. &. Warner,5260,5260
Orpheum Theater,G. A. Lansburgh,1214,1214
Ormonde,F. Furness,9712,9712
Orleans County Courthouse Historic District,A. J. Warner,60702,60702
Oriental Mills,C. R. Makepeace & Company,13516,13516
Oregon State Forester's Office Building,L. A. Forrest,9307,9307
Oquirrh School,R. K. Kletting,6474,6474
Opus 40,H. Fite,57060,57060
Opa-locka Seaboard Air Line Railway Station,B. E. Muller,6070,6070
Olympus Guard Station,Architects of the U.S. Forest Service,8093,8093
Oliver Wolcott House,O. Wolcott,48562,48562
"Olds, Wortman & King",D. &. Patterson,3723,3723
Oldfields,O. Brothers,129499,129499
Old Wilson Historic District,S. B. Moore,663684,663684
Old Westbury Gardens,G. A. Crawley,404685,404685
Old Westbrook High School,F. A. Tompson,2023,2023
Old Watertown High School,C. Brigham,5099,5099
Old Scripps Building,I. Gill,364,364
Old Scottish Rite Hospital,N. Reid,19424,19424
Old Post Office,J. K. Taylor,1618,1618
Old Petaluma Opera House,B. Jones,404,404
"Old North Knoxville, Knoxville, Tennessee",C. I. Barber,1311181,1311181
Old New England Building,"Bradlee, Winslow & Wetherell",40063,40063
Old Nazareth Academy,J. Leffland,8498,8498
Old Nassau County Courthouse,W. Tubby,20234,20234
Old Mission State Park,A. Ravalli,92673,92673
Old Marine Hospital,R. Mills,3035,3035
Old Main,H. R. Warne,12140,12140
Old Main,J. K. Wilson,4046,4046
"Old Main, University of Arizona",J. M. Creighton,2832,2832
Old Louisiana State Capitol,J. H. Dakin,18615,18615
Old Indiana County Courthouse,J. W. Drum,4046,4046
Old Heidelberg Apartments,"Frederick G. Scheibler, Jr.",4046,4046
Old Harbor Reservation Parkways,F. L. Olmsted,225814,225814
Old Hamilton Library,Theodore Wells Pietsch I,926,926
Old Fellwock Auto Company,S. &. Co.,1214,1214
Old Federal Reserve Bank Building,G. W. Kelham,3237,3237
Old Effingham County Courthouse,H. C. Whitcover,4046,4046
Old Economy Village,H. Society,20234,20234
Old Customshouse,A. B. Young,1740,1740
Old Customhouse,T. O. Larkin,8093,8093
Old Courthouse,J. Graves,2023,2023
Old College Historic District,F. &. Evans,40468,40468
"Old City, Knoxville, Tennessee",F. P. Milburn,133546,133546
"Old Campus District, University of South Carolina",R. Mills,190202,190202
Old Bank of America Building,W. H. Weeks,404,404
Old Armory,R. Stacy-Judd,1618,1618
Old Albany Academy Building,P. Hooker,4046,4046
Olana State Historic Site,C. Vaux,1012523,1012523
Oklahoma County Courthouse,L. &. Forsyth,5260,5260
Ohio State Reformatory,L. Scofield,161874,161874
Ohio National Guard Armory,Samuel Hannaford & Sons,4046,4046
Oheka Castle,O. Brothers,93887,93887
Office Building and U.S. Light-House Depot Complex,A. B. Mullett,6070,6070
Odd Fellows Hall,G. Feick,4046,4046
Odd Fellows Hall,H. a. Richardson,4046,4046
Odd Fellows Block,W. H. Stevens,1214,1214
Odd Fellows' Home,B. &. Nourse,28327,28327
Observatory Historic District,S. Hannaford,42087,42087
Oakwood Historic District,W. &. Stearn,222577,222577
Oakwood-Chimborazo Historic District,D. W. Anderson,1756335,1756335
Oakley Farm,T.J. Collins & Sons,242811,242811
Oakley,W. Strickland,7284,7284
Oaklands,R. Upjohn,20234,20234
Oak Lodge,C. C. Corps,50585,50585
Oak Hill Cemetery,S. &. Company,445154,445154
O'Donnell House,F. P. Milburn,9712,9712
O'Blenis House,E. Pettersen,16187,16187
Nut Grove,A. J. Davis,32374,32374
Nuits,D. Lienau,18210,18210
Noyes House,E. Noyes,24281,24281
Notleymere,R. W. Gibson,12545,12545
Norwich State Hospital,C. &. Woodworth,283279,283279
Northwest Davenport Turner Society Hall,F. G. Clausen,4046,4046
Northumberland Apartments,H. Wardman,1618,1618
Northside United Methodist Church,S. Hannaford,4046,4046
Northside Presbyterian Church,R. H. Hunt,8903,8903
Northfield Union Church,"Dow, Wheeler & Bodwell",9307,9307
Northern Pacific Railway Depot,C. Gilbert,4046,4046
Northern Pacific Railway Depot,R. &. Stem,4046,4046
North Side Fargo High Style Residential Historic District,Walter & George Hancock,47348,47348
North Shore Sanitary District Tower,S. A. Greeley,1214,1214
"North Rim Road, Black Canyon of the Gunnison National Park",N. Branch,934823,934823
North Liberty Park,W. P. Administration,28327,28327
North Jefferson Street Historic District,E. Dunlap,1294994,1294994
North Inlet Trail,N. P. Service,140425,140425
North Casper Clubhouse,G. a. Krusmark,8093,8093
North Carolina Executive Mansion,S. Sloan,36421,36421
Norlin Quadrangle Historic District,C. Klauder,135569,135569
Nightingale–Brown House,C. Ormsbee,4046,4046
Niels Petersen House,J. M. Creighton,11735,11735
Nicollet County Courthouse and Jail,E. P. Bassford,8903,8903
Nicholson File Company Mill Complex,W. &. Gould,28327,28327
Newark Symphony Hall,G. Associates,4275,4275
Newark City Hall,John H. & Wilson C. Ely,8093,8093
New York Life Building,C. Gilbert,10117,10117
New Scotland Avenue,L. Pilcher,12140,12140
New Milford,H. Railroad,4046,4046
New London Customhouse,R. Mills,8093,8093
New Jersey Historical Society,G. a. Betelle,809,809
New Jersey Bell Headquarters Building,R. T. Walker,4046,4046
New Imperial Hotel,W. &. Lewis,809,809
New Haven County Courthouse,W. H. Allen,4856,4856
New Haven City Hall and County Courthouse,H. Austin,8093,8093
New Hampshire Apartments,J. B. DeRemer,4046,4046
New Castle and Frenchtown Railroad Right-of-Way,J. R. Jr.,0,0
New Bedford Whaling National Historical Park,R. Upjohn,137593,137593
New Bedford Historic District,R. Mills,79318,79318
Nevada Governor's Mansion,G. A. Ferris,7284,7284
Nester House,H. T. Lindeberg,10117,10117
Naval Reserve Armory,B. M. Priteca,5746,5746
Naulakha,H. R. Marshall,44515,44515
National Park Seminary,E. E. Holman,93077,93077
National Museum of Women in the Arts,W. B. Wood,1214,1214
"National Bank of Washington, Washington Branch",J. G. Hill,809,809
Nathaniel Bacon School,C. M. Robinson,12545,12545
Nathan Clifford School,J. C. Stevens,1214,1214
Natchaug Forest Lumber Shed,C. C. Corps,2832,2832
Nashville Children's Museum,A. Heiman,16187,16187
Nashua Manufacturing Company Historic District,A. Benjamin,246858,246858
Naples Memorial Town Hall,A. J. Warner & Company,8903,8903
Napa County Courthouse Plaza,W. H. Corlett,5260,5260
Nampa Historic District,T. &. Hummel,12140,12140
Mystic Valley Parkway,O. Brothers,89030,89030
My Old Kentucky Home State Park,J. Rowan,951011,951011
Muskingum County Courthouse,T. Townsend,4046,4046
Murry Guggenheim House,C. a. Hastings,28327,28327
Murdock School,H. M. Francis,8093,8093
Munson Valley Historic District,N. P. Service,24281,24281
Munroe Building,S. &. Stearns,4856,4856
Municipal Group Historic District,H. a. Richardson,33386,33386
Municipal Building,G. &. Sheffey,2023,2023
Muhlenberg County Courthouse,W. J. Dodd,1618,1618
Mt. Zion Presbyterian Church,W. &. Sompayrac,20234,20234
Mrs. Isaac D. Adler House,D. Adler,12140,12140
