col0,col1,col2,col3
‘Ōma’o,Turdidae,IUCN3.1,VU
‘Akeke‘e,Fringillidae,IUCN3.1,CR
ʻŌʻū,Finch,IUCN3.1,PE
ʻĀmaui,Turdidae,IUCN3.1,EX
ʻUla-ʻai-hawane,Fringillidae,IUCN3.1,EX
ʻIʻiwi,Finch,IUCN3.1,VU
ʻApapane,Finch,IUCN3.1,LC
ʻAnianiau,Finch,IUCN3.1,VU
ʻAkohekohe,Finch,IUCN3.1,CR
ʻAkikiki,Carduelinae,IUCN3.1,CR
ʻAkiapolaʻau,Hemignathini,IUCN3.1,EN
ʻAkepa,Fringillidae,IUCN3.1,EN
İznik shemaya,Cyprinidae,IUCN3.1,EX
İskenderun shah kuli,Cyprinidae,IUCN3.1,LC
Zyzzyxdonta alata,Punctoidea,IUCN3.1,VU
Zyxomma petiolatum,Libellulidae,IUCN3.1,LC
Zyxomma atlanticum,Libellulidae,iucn3.1,LC
Zygonyx torridus,Libellulidae,iucn3.1,LC
Zygonyx regisalberti,Libellulidae,iucn3.1,LC
Zygonyx natalensis,Libellulidae,iucn3.1,LC
Zygonyx iris,Libellulidae,IUCN3.1,LC
Zygonyx flavicosta,Libellulidae,iucn3.1,LC
Zygonychidium gracile,Libellulidae,IUCN3.1,CR
Zygonoides fuelleborni,Libellulidae,IUCN3.1,LC
Zygonoides fraseri,Libellulidae,IUCN3.1,LC
Zygodontomys brunneus,Cricetidae,IUCN2.3,LR/lc
Zygodontomys brevicauda,Cricetidae,IUCN3.1,LC
Zweifel’s big-eyed tree frog,Hylidae,IUCN3.1,DD
Zvonimir's blenny,Blenniidae,IUCN3.1,DD
Zungaropsis multimaculatus,Pimelodidae,iucn3.1,NE
Zululand dwarf chameleon,Chamaeleonidae,IUCN2.3,LR/nt
Zulu serotine,Vespertilionidae,IUCN3.1,LC
Zulu golden mole,Chrysochloridae,iucn2.3,LC
Zulia toad-headed sideneck,Chelidae,IUCN2.3,VU
Zubovskia banatica,Acrididae,IUCN2.3,VU
Zosteraeschna minuscula,Aeshnidae,IUCN3.1,LC
Zospeum biscaiense,Ellobiidae,IUCN2.3,VU
Zoogoneticus tequila,Goodeidae,IUCN3.1,CR
Zonosaurus boettgeri,Gerrhosauridae,IUCN3.1,VU
Zonocypretta,Cyprididae,IUCN2.3,VU
Zonitoides jaccetanicus,Gastrodontoidea,IUCN2.3,EN
Zonites anaphiensis,Zonitoidea,IUCN2.3,LR/nt
Zonetail butterfly ray,Gymnuridae,IUCN3.1,VU
Zone-tailed hawk,Accipitridae,IUCN3.1,LC
Zona,Bedotiidae,IUCN3.1,VU
Zoe's imperial pigeon,Columbidae,IUCN3.1,LC
Zitting cisticola,Cisticolidae,IUCN3.1,LC
Zipper sandskate,Rajidae,IUCN3.1,LC
Zino's petrel,Procellariidae,IUCN3.1,EN
Zinken's tiger,Nymphalidae,IUCN2.3,LR/nt
Zingis radiolata,Helicarionidae,IUCN3.1,CR
Zingel balcanicus,Percidae,IUCN3.1,DD
Zingel asper,Percidae,IUCN3.1,CR
Zimmer's woodcreeper,Furnariidae,IUCN3.1,NT
Zimmer's tody-tyrant,Tyrannidae,IUCN3.1,LC
Zimmer's tapaculo,Rhinocryptidae,IUCN3.1,LC
Zimmer's screeching frog,Arthroleptidae,IUCN3.1,DD
Zilchogyra paulistana,Punctoidea,IUCN2.3,CR
Zigzag heron,Ardeidae,IUCN3.1,NT
Ziegler's water rat,Muridae,iucn3.1,DD
Ziama horseshoe bat,Rhinolophidae,IUCN3.1,EN
Zhou's box turtle,Geoemydidae,IUCN2.3,CR
Zhenhai brown frog,True frog,IUCN3.1,LC
Zhang's horned toad,Megophryidae,IUCN3.1,DD
Zephyrichthys barryi,Bythitidae,iucn3.1,NE
Zenker's turaco,Musophagidae,IUCN3.1,LC
Zenker's honeyguide,Indicatoridae,IUCN3.1,LC
Zenker's fruit bat,Pteropodidae,IUCN3.1,LC
Zenarchopterus dispar,Zenarchopteridae,IUCN3.1,LC
Zenaida dove,Dove,IUCN3.1,LC
Zena's brush-furred rat,Muridae,iucn3.1,DD
Zempoaltépec vole,Cricetidae,IUCN3.1,EN
Zempoaltepec deer mouse,Cricetidae,IUCN3.1,CR
Zempoaltepec,Cricetidae,IUCN3.1,EN
Zempoaltépec vole,Cricetidae,IUCN3.1,EN
Zemelanopsis trifasciata,Melanopsidae,IUCN3.1,LC
Zeledon's antbird,Thamnophilidae,IUCN3.1,NR
Zebrasoma xanthurum,Acanthuridae,IUCN3.1,LC
Zebrasoma scopas,Acanthuridae,IUCN3.1,LC
Zebrasoma gemmatum,Acanthuridae,IUCN3.1,DD
Zebrafish,Cyprinidae,IUCN3.1,LC
Zebra spinyeel,Mastacembelidae,IUCN3.1,LC
Zebra seahorse,Syngnathidae,IUCN3.1,DD
Zebra pleco,Loricariidae,iucn3.1,NE
Zebra oto,Loricariidae,iucn3.1,NE
Zebra mbuna,Cichlidae,IUCN3.1,LC
Zebra loach,Botiidae,IUCN3.1,EN
Zebra goby,Gobiidae,iucn3.1,LC
Zebra finch,Estrildidae,IUCN3.1,LC
Zebra dove,Columbidae,IUCN3.1,LC
Zebra bullhead shark,Bullhead shark,IUCN3.1,LC
Zebra acara,Cichlidae,iucn3.1,NE
Zayante band-winged grasshopper,Acrididae,IUCN2.3,EN
Zarudny's rock shrew,Soricidae,IUCN2.3,LR/lc
Zarudny's jird,Muridae,IUCN2.3,EN
Zarigani,Cambaridae,iucn3.1,DD
Zarciadero web-footed salamander,Plethodontidae,IUCN3.1,CR
Zaprochilus ninae,Tettigoniidae,IUCN2.3,VU
Zappey's flycatcher,Muscicapidae,IUCN3.1,NR
