col0,col1,col2,col3
Cummins School,S. Hannaford,4046,4046
Culpeper National Cemetery,M. C. Meigs,69605,69605
Cuero Commercial Historic District,J. Leffland,84983,84983
Crown King Ranger Station,C. C. Corps,6070,6070
Crown Hill Cemetery,D. Bohlen,1513524,1513524
Crotona Park,A. E. II,37716,37716
Croton North Railroad Station,New York Central Railroad,8093,8093
Crocker Art Museum,C. Gwathmey,10117,10117
Crescent Warehouse Historic District,C. &. Kruse,42491,42491
Cragsmoor Historic District,F. Dellenbaugh,1464962,1464962
Craftsman Farms,G. Stickley,135974,135974
Covington County Courthouse and Jail,F. Lockwood,8093,8093
County and City Hall,A. J. Warner & Company,12140,12140
County Road 557–West Branch Escanaba River Bridge,Michigan State Highway Department,4046,4046
Couchwood,D. Rodriguez,68796,68796
Cottrill Opera House,H. &. Lafferty,1214,1214
Cottonwood County Courthouse,O. a. Thori,4046,4046
Cottage Home Historic District,V. &. Bohn,8093,8093
Cos Cob Power Station,W. Electric,24281,24281
Corning Armory,W. Haugaard,25495,25495
Coraopolis Railroad Station,"Shepley, Rutan and Coolidge",1618,1618
Cora F. Cressey,Percy and Small Shipyard,404,404
Cora Bryant Wheeler House,A. E. Doyle,3318,3318
Copper Creek Guard Station,C. C. Corps,16187,16187
Cooper Avenue Row Historic District,Louis Berger & Co.,2023,2023
Cook County Courthouse,W. J. Chase,8093,8093
Conyers Residential Historic District,N. Reid,343982,343982
Converse Memorial Library,H. Richardson,4046,4046
Conover Building,F. M. Andrews,4046,4046
Connellsville Armory,W. W. Co.,1214,1214
Congressional Cemetery,B. Latrobe,121405,121405
Congregational Church,B. G. Goodhue,4046,4046
Congregation Adath Israel Brith Sholom,M. Brothers,4046,4046
Concrete-Central Elevator,M. E. Co.,12140,12140
Concord Building,W. &. Lewis,404,404
Compo–Owenoke Historic District,E. G. Southey,623215,623215
Community Memorial Hospital,H. &. Mason,7486,7486
Commercial Historic District,C. F. White,4046,4046
Commercial Building,Pretzinger,404,404
Columbus City Hall,T. Allen,404,404
Columbia Hotel,F. C. Clark,3642,3642
Colorado Springs City Auditorium,T. MacLaren,4451,4451
Colorado County Courthouse,E. T. Heiner,4046,4046
Colorado Building,W. N. Bowman,4046,4046
Colony's Block,E. Boyden & Son,809,809
Colonial Theater,B. &. Benton,3237,3237
College Hills Historic District,P. a. Elmslie,271139,271139
College Hill West Historic District,J. V. Bennes,287326,287326
College Hill Town Hall,S. Hannaford,10117,10117
College Creek Ranger Station,Architects of the U.S. Forest Service,4856,4856
Cold Harbor National Cemetery,M. C. Meigs,5665,5665
Col. Oliver Hazard Payne Estate,C. a. Hastings,242811,242811
Clouds Hill,W. R. Walker,110883,110883
Clifton Springs Sanitarium,P. &. Bickford,8498,8498
Clewiston Inn,L. P. Clarke,8093,8093
Cleveland School,C. C. Hook,8093,8093
Cleveland Masonic Temple,H. &. Benes,11331,11331
Cleveland County Courthouse,H. L. Lewman,7284,7284
Clemson University Historic District I,B. &. Morgan,165516,165516
Clay County Courthouse,W. F. Gernandt,8093,8093
Clatsop County Courthouse,E. M. Lazarus,4046,4046
"Clark Hall, University of Virginia",U. o. Virginia,6070,6070
Clarissa McKeyes Inman House,D. L. Williams,2428,2428
Clarendon School,C. M. Robinson,8093,8093
Claremont City Hall,L. &. Rich,2023,2023
"City Park, Denver",S. DeBoer,1335462,1335462
City Market,E. B. White,1335,1335
City Hall,H. &. Lafferty,4046,4046
Circleville School,Ernest C. S. Holmboe,26304,26304
Cincinnati Zoo Historic Structures,J. W. McLaughlin,4046,4046
Cincinnati Enquirer Building,Lockwood Greene & Co.,1214,1214
Cincinnati East Manufacturing and Warehouse District,H. Hake,607028,607028
Cima Park Fire Guard Station,Architects of the United States Forest Service,8093,8093
Churchville Presbyterian Church,N. &. Neilson,18210,18210
Churchill Public School,W. Dubois,6474,6474
Church of the Redeemer,"H. Louis Duhring, Jr.",2428,2428
Church of the Presidents,W. A. Potter,404,404
Church of the New Jerusalem,C. H. Kimball,2023,2023
Church of the Holy Trinity,E. Jones,2023,2023
Church of the Holy Innocents,H. Vaughan,3237,3237
Church of the Holy Communion,J. C. Cady,6879,6879
Church of the Good Shepherd and Parish House,E. T. Potter,36421,36421
Church of the Good Shepherd,C. W. Bulger,4046,4046
Church of the Ascension and Saint Agnes,C. L. Carson,1214,1214
Church of St. Thomas the Apostle,J. J. Egan,1618,1618
Church of St. Joseph of Arimathea,H. Upjohn,14568,14568
Church of St. Ignatius Loyola,S. &. Ditmars,14163,14163
Church Park Historic District,R. Upjohn,4127793,4127793
Church Hill North Historic District,S. Sloan,149733,149733
Church Hill Grammar School,William R. Walker & Son,1618,1618
Christopher Rhodes Greene House,A. E. Stone,6070,6070
Christ Church,R. M. Upjohn,4856,4856
"Christ Church, Hyde Park",R. A. Cram,2023,2023
Children's Museum of Evansville,W. a. Weeks,4046,4046
Child of the Sun,F. L. Wright,404685,404685
"Chicago, Milwaukee, St. Paul and Pacific Railroad Station",J. U. Nettenstrom,4451,4451
"Chicago, Milwaukee, St. Paul and Pacific Railroad: South Cle Elum Yard","Chicago, Milwaukee, St. Paul and Pacific Railroad",97124,97124
Chesterwood,D. C. French,522044,522044
Chester County Courthouse,T. U. Walter,12140,12140
Cheekwood Botanical Garden and Museum of Art,B. Fleming,28327,28327
Chaves County Courthouse,I. H. Rapp,16187,16187
Chautauqua Institution,L. Miller,8376992,8376992
Chatter Creek Guard Station,C. C. Corps,8093,8093
Chatham Village,C. Stein,186155,186155
Chateau Crillon Apartment House,H. Trumbauer,1214,1214
Chateau-sur-Mer,R. M. Hunt,68796,68796
Charnwood Residential Historic District,B. &. Klutz,240787,240787
Charlestown Heights,F. L. Olmsted,15378,15378
Charles W. Stribley House,Van Ryn & DeGelleke,8093,8093
Charles Sumner School,A. Cluss,1214,1214
Charles River Reservation Parkways,O. Brothers,263045,263045
Charles O. Boynton House,G. O. Garnsey,400638,400638
Charles Morschauser House,W. J. Beardsley,9793,9793
Charles M. Pratt House,Charles and Henry Greene,21853,21853
Charles J. Martin House,W. C. Whitney,8093,8093
Charles H. Stickney House,W. H. Wood,1618,1618
Charles H. Murphy Sr. House,C. L. Thompson,24281,24281
Charles D. McIver School,Starrett & Van Vleck,26304,26304
Charles B. Russell House,S. Hannaford,4046,4046
Charles A. Miller House,S. Hannaford,4046,4046
Charles A. Lindbergh State Park,N. P. Service,36421,36421
Chapel Hill,G. Howe,1930350,1930350
Chanticleer Garden,"Zantzinger, Borie and Medary",109265,109265
Chalmers Knitting Mills,C. R. Makepeace & Company,10117,10117
Central Square Historic District,H. a. Richardson,25657,25657
Central Presbyterian Church,W. H. Hayes,4046,4046
Central Library,A. E. Doyle,4046,4046
Central Library,R. F. Almirall,11331,11331
Cedarmere-Clayton Estates,O. C. Jr.,696059,696059
Cedar Hill Cemetery,J. Pollia,101171,101171
Cecil and Hermione Alexander House,C. Alexander,14892,14892
Cazenovia Park–South Park System,F. L. Olmsted,1481554,1481554
Cathedral of the Nativity of the Blessed Virgin Mary,T. Brune,404,404
Cathedral of the Madeleine,C. M. Neuhausen,4856,4856
Cathedral of the Immaculate Conception,J. O'Rourke,7284,7284
Catedral de Nuestra Señora de Guadalupe,F. P. Doria,2960,2960
Castle Clinton,J. Williams,4046,4046
Castillo Serrallés,Pedro Adolfo de Castro,10117,10117
Casselton Commercial Historic District,C. N. Daniels,37635,37635
"Cass County Court House, Jail, and Sheriff's House",C. E. Bell,4046,4046
Case Memorial-Seymour Library,C. &. Hastings,2832,2832
Cascade Locks Work Center,Architects of the United States Forest Service,7689,7689
Cascade Building,A. E. Doyle,809,809
Casa Vives,J. B. Calderoni,1174,1174
Casa Salazar-Candal,Blas C. Silva Boucher,4046,4046
Casa Rio,G. d. Gelleke,9307,9307
Casa Paoli,M. V. Domenech,4046,4046
Casa Oppenheimer,A. W. Pieretti,4046,4046
Casa Font-Ubides,Blas C. Silva Boucher,4046,4046
Casa Fernando Luis Toro,F. P. Doria,2023,2023
Cary Historic District,W. P. Administration,72843,72843
Carter Hall,H. T. Lindeberg,364217,364217
Carroll County Courthouse,E. E. Dunlap,6070,6070
Carroll Building,S. C. Earle,404,404
Caroline W. and M. Louise Flanders House,J. K. Parker,2023,2023
Carolina Inn,A. C. Nash,18210,18210
Carnegie Free Library of Braddock,"Longfellow, Alden & Harlow",8093,8093
Carnegie Free Library of Beaver Falls,F. J. Osterling,4046,4046
Carnegie Free Library of Allegheny,P. J. Pelz,4046,4046
Carlton D. Wall House,F. L. Wright,20234,20234
Carlisle Armory,T. H. Atherton,145686,145686
Carlinville Chapter House,"Helfensteller, Hirsch and Watson",404,404
Carl Mackley Houses,O. Stonorov,18210,18210
Carl Herget Mansion,H. &. Emerson,4046,4046
Carl E. Nelson House,J. Parker,809,809
Caramoor Center for Music and the Arts,M. B. Schmidt,327795,327795
Capt. Rodney J. Baxter House,O. S. Fowler,4856,4856
Capital Club Building,F. B. Simpson,404,404
Capers C.M.E. Church,M. &. McKissack,404,404
Canyon Falls Bridge,Michigan State Highway Department,4046,4046
Canton Township MPS,Charles G. Curtiss Sr. House,9307,9307
Canton Main Street Historic District,B. &. Benton,56655,56655
Canelo Ranger Station,Architects of the United States Forest Service,12140,12140
Candoro Marble Works,C. I. Barber,21853,21853
Campbell-Whittlesey House,M. Lafever,809,809
Camp Paxson Boy Scout Camp,C. C. Corps,27113,27113
Camp Clover Ranger Station,Architects of the United States Forest Service,12140,12140
Camp Caesar,W. P. Administration,4046,4046
Camp-Woods,Howard Van Doren Shaw,16996,16996
