col0,col1,col2,col3
Westfield Group,California,2000,833000000
Westfield Corporation,Sydney,1700,635500000
Westfalen AG,Münster,1670,1650000000
Western Wireless Corporation,Washington,2495,1917721
Western Refining,Texas,5700,15200000000
Western Digital,"Irvine, California",76449,14570000000
Westamerica Bank,"Fairfield, California",1200,213700000
West 49,Ontario,1000,195300000
Wendy's International,"Dublin, Ohio",58000,3740000000
Welspun Group,Maharashtra,24000,3500000000
Weir Group,Glasgow,14838,1917
Wegmans,"Rochester, New York",58000,7000000000
Wedge Community Co-op,"Minneapolis, Minnesota",270,36000000
Webster's Brewery,"Halifax, West Yorkshire",1,100000000
Web.com,"Jacksonville, Florida",2200,106500000
We Buy Any Car,Surrey,386,557
Wawa Inc.,Pennsylvania,22500,9680000000
Wavecom,Issy-les-Moulineaux,500,129900000
Watson Wyatt Worldwide,"Arlington County, Virginia",7700,1680000000
Watsco,Florida,5000,4100000000
Waste Management,Houston,43000,14000000000
Warner Music Group,New York,3550,2870000000
Warnaco Group,New York,7136,2510000000
Wargaming,Nicosia,4000,217
Walter de Gruyter,Berlin,350,57
Walgreens Boots Alliance,"Deerfield, Illinois",370000,103400000000
Wakefern Food Corporation,New Jersey,70000,15700000000
Waitrose,Bracknell,91000,5400
Wabtec Corporation,"Wilmerding, Pennsylvania",13000,3307
WNS Global Services,Mumbai,32448,503000000
WMF Group,Geislingen an der Steige,5685,1061
WEX Inc.,"South Portland, Maine",700,393
WEC Energy Group,United States,8440,5920000000
WABCO Vehicle Control Systems,Brussels,11000,2720000000
"WABCO Holdings, Inc.","Piscataway, NJ",11000,2720000000
W.B. Mason,"Brockton, Massachusetts",3435,1455000000
Voxeljet,Germany,250,24060000
Vossloh Kiepe,Düsseldorf,450,140000000
