col0,col1,col2,col3
Preludes,C. Caldwell,308,813
Player's Handbook,D. A. Trampier,128,794 19
Phantom,K. Parkinson,672,813/.54 22
Pet Peeve,D. K. Sweet,332,813/.54 22
Peril's Gate,J. Wurts,721,823/.914 21
Perfidia,C. Kidd,720,813'/.54—dc23
Passage to Pluto,L. Wood,148,823/.9/14
Pafko at the Wall,J. Fulbrook,96,813/.54 21
Ordinary People,J. Zar,245,813/.5/4
Operation Columbus,L. Wood,191,823
One for the Morning Glory,C. Vess,319,813/.54 20
Ombria in Shadow,K. Y. Craft,304,813/.54 21
Off Armageddon Reef,S. Youll,608,813/.54 22
Od Magic,K. Y. Craft,320,813/.54 22
Nor Crystal Tears,M. Whelan,231,813/.54 19
Noah's Ark,P. Spier,46,222/.1109505
New Spring,D. K. Sweet,304,813/.54 22
New Horizons,S. E. Fabian,299,813/.0876208 21
Neveryóna,R. Morrill,385,813/.54 19
Never Call Retreat: Lee and Grant: The Final Victory,W. Tinasky,496,813/.6 22
Nemesis,D. Dixon,386,813/.54 20
Native Tongue,J. Bauman,320,813/.54 21
National Geographic Dinosaurs,R. Martín,192,567.9 21
Naked Empire,K. Parkinson,608,813/.54 21
Naked,C. Kidd,291,818/.5402 B 21
My Name Is Legion,T. B. Hildebrandt,213,813/.5/4
Mr. Penumbra's 24-Hour Bookstore,R. Corral,304,813/.6
Mountain of Black Glass,M. Whelan,720,813/.54 21
Mortalis,A. Pollock,576,813/.54 21
Moreta: Dragonlady of Pern,M. Whelan,286,813/.54 19
Monkey Hunting,C. Kidd,272,813/.54 21
Mockingjay,T. O'Brien,390,[Fic]22
Mockingbird,F. Marcellino,247,813/.5/4
Mistress of the Empire,D. Maitz,613,813/.54 20
Mister B. Gone,C. Barker,256,823/.914 22
Mistborn: The Well of Ascension,J. Foster,590,813/.6 22
Mistborn: The Final Empire,J. Foster,541,813/.6 22
Mistborn: The Alloy of Law,C. McGrath,336,813
Mistborn: Shadows of Self,C. McGrath,383,813
Miss Viola Swamp,J. Marshall,32,[E]
Miscellaneous Writings,J. Turner,568,813/.52 20
Mind Fields,J. Yerka,71,759.13 20
Milking The Rhino,K. Rechin,112,818/.602
Midnight Tides,S. Stone,959,823
Merrick,H. Rousseau,307,813/.54 21
Merlin's Ring,G. Gallardo,366,813/.5/4
Memories of the Space Age,M. Ernst,216,823/.914 19
Memories of the Irish-Israeli War,B. Doyle,263,823/.914 21
Memories of the Ford Administration,C. Kidd,369,813/.54 20
Memnoch the Devil,C. Kidd,354,813/.54 20
Meeting in Infinity,E. Munch,309,813/.54 20
Mean Deviation,M. Langevin,364,781
Me Talk Pretty One Day,C. Kidd,288,814/.54 21
Math Curse,L. Smith,32,[E]20
Masters of the Maze,J. Schoenherr,156,813
Mars trilogy,D. Dixon,352,813/.54 20
Marathon Man,P. Bacon,309,813/.5/4
Man of Two Worlds,J. Schoenherr,429,813/.54 19
Man Descending,N. Bantock,230,813/.54 19
Madwand,R. Morrill,254,813/.54 19
Macrolife,R. Sternbach,284,813/.5/4
Lyra's Oxford,J. Lawrence,64,[Fic]22
Lunar Park,C. Kidd,320,813/.54 22
Lucky and Squash,J. Dyer,32,E BIR
Lovecraft's Legacy,D. Eagleson,334,813/.0873808 20
Love and War,L. Elmore,368,813/.0876/08354 19
Lost Laysen,L. Fili,127,813/.52 20
Lord of Chaos,D. K. Sweet,720,813/.54 20
Little T Learns to Share,T. Harris,24,[E]22
Legacy,J. Bell,377,813/.54 22
Legacies,C. Moore,278,813/.54 21
Lady of Quality,E. Mortelmans,336,823/.912 22
Kushiel's Scion,J. J. Palencar,768,813/.6 22
Kushiel's Dart,J. J. Palencar,701,813/.6 21
Kushiel's Chosen,J. J. Palencar,700,813/.6 21
Knife of Dreams,D. K. Sweet,784,813/.54 22
Kecksies and Other Twilight Tales,S. E. Fabian,207,823/.9/12
Jurassic Park,C. Kidd,448,813/.54 20
Juggler of Worlds,S. Martinière,352,813/.54 22
"John, Paul, George, and Ben",L. Smith,40,[E]22
Joe Steele,P. Youll,438,813'.54--dc23
Jhegaala,S. Hickman,304,813/.54 22
Iorich,S. Hickman,319,813/.54 22
Invisible Cities,R. Magritte,165,853/.9/14
Insurrection,G. Brom,365,813/.6 22
Infernal Devices,W. Barlowe,282,813/.54 19
Inca Gold,P. Bacon,539,813/.54 20
In the Mist and Other Uncanny Encounters,S. E. Fabian,202,823/.9/14
In the King's Service,M. Stawicki,359,813/.54 22
In the Forests of Serre,K. Y. Craft,304,813/.54 21
In Mayan Splendor,S. E. Fabian,66,811/.5/2
In Cold Blood,S. N. Fujita,343,364.1/523/0978144 20
