col0,col1,col2,col3,col4,col5
E. Ostrom,United States,Los Angeles,"University of California, Los Angeles",2012-06-12,1933-08-07
E. Chamberlin,United States,Washington,Harvard University,1967-07-16,1899-05-18
E. Malinvaud,France,France,Ecole Polytechnique,2015-03-07,1923-04-25
E. P. Howrey,United States,"Geneva, Illinois",University of North Carolina at Chapel Hill,2011-06-17,1937-12-01
D. Black,United Kingdom,Motherwell,University of Glasgow,1991-01-14,1908-05-23
D. Cochrane,Australia,"Malvern East, Victoria","Clare College, Cambridge",1983-03-31,1917-05-27
D. Patinkin,Israel,Chicago,University of Chicago,1995-08-07,1922-01-08
D. Sargan,United Kingdom,Yorkshire,University of Cambridge,1996-04-13,1924-08-23
D. Landes,United States,New York City,Harvard University,2013-08-17,1924-04-29
D. Gordon,United States,"Washington, D.C.",Harvard University,1996-03-16,1944-05-04
C. Hildreth,United States,"McPherson, Kansas",Iowa State University,1995-08-15,1917-12-08
C. D. Aliprantis,Greeks,Greece,California Institute of Technology,2009-02-27,1946-05-12
C. M. Cipolla,Italy,Pavia,University of Pavia,2000-09-05,1922-08-15
C. Menger,Austria,Austrian Empire,Charles University in Prague,1921-02-26,1840-02-23
C. H. Douglas,British people,England,"Pembroke College, Cambridge",1952-09-29,1879-01-20
