col0,col1,col2,col3,col4
S. Daniels,Washington Redskins,Washington Redskins,1992-12-12,232
S. Williams,Los Angeles Rams,San Diego Chargers,1991-03-07,145
S. S. Sr.,Baltimore Ravens,Baltimore Ravens,1979-05-12,74
S. Brown,Houston Oilers,Tennessee Titans,1960-03-20,83
S. Shepard,New York Giants,New York Giants,1993-02-10,40
S. Anthony,New Orleans Saints,New Orleans Saints,1992-07-28,31
S. Tuitt,Pittsburgh Steelers,Pittsburgh Steelers,1993-05-23,46
S. Gilmore,Buffalo Bills,Buffalo Bills,1990-09-19,10
S. Tulloch,Detroit Lions,Philadelphia Eagles,1985-01-01,116
S. Taylor,Arizona Cardinals,Arizona Cardinals,1991-06-09,140
S. Diggs,Minnesota Vikings,Minnesota Vikings,1993-11-29,146
S. Wisniewski,Jacksonville Jaguars,Philadelphia Eagles,1989-3-22,48
S. Bailey,Los Angeles Rams,Los Angeles Rams,1990-11-11,92
S. Lotulelei,Carolina Panthers,Carolina Panthers,1989-12-20,14
S. Maponga,New York Giants,New York Giants,1991-03-05,153
S. Jean-Baptiste,Detroit Lions,Seattle Seahawks,1990-04-12,58
S. Ware,Kansas City Chiefs,Kansas City Chiefs,1991-11-23,194
S. Long,Washington Redskins,Washington Redskins,1990-11-08,78
S. Drango,Cleveland Browns,Cleveland Browns,1992-10-15,168
S. Moore,Indianapolis Colts,Kansas City Chiefs,1990-05-02,66
S. Coleman,Cleveland Browns,Cleveland Browns,1991-11-25,76
S. Keo,Cincinnati Bengals,Denver Broncos,1987-12-17,144
S. Calhoun,Oakland Raiders,Oakland Raiders,1992-03-20,75
S. Richardson,New York Jets,New York Jets,1990-11-29,13
S. Rankins,New Orleans Saints,New Orleans Saints,1994-04-02,12
S. Day,Jacksonville Jaguars,Jacksonville Jaguars,1994-07-01,103
S. McClellin,Chicago Bears,New England Patriots,1989-08-01,19
S. Williams,Cincinnati Bengals,Cincinnati Bengals,1991-05-13,84
S. Floyd,Minnesota Vikings,Minnesota Vikings,1991-05-28,23
S. Wright,Baltimore Ravens,Baltimore Ravens,1987-04-08,89
S. Evans,Jacksonville Jaguars,New England Patriots,1991-03-07,115
S. Thompson,Carolina Panthers,Carolina Panthers,1994-04-21,25
S. Mason,New England Patriots,New England Patriots,1993-08-28,131
S. Lawson,Buffalo Bills,Buffalo Bills,1994-06-17,19
S. Vereen,New England Patriots,New York Giants,1989-03-02,56
S. Ray,Denver Broncos,Denver Broncos,1993-05-18,23
S. Thomas,Pittsburgh Steelers,Pittsburgh Steelers,1991-02-23,111
S. Stephen,Minnesota Vikings,Minnesota Vikings,1991-02-25,220
S. DeValve,Cleveland Browns,Cleveland Browns,1993-01-29,138
S. Golson,Pittsburgh Steelers,Pittsburgh Steelers,1993-07-07,56
S. Kelemete,Arizona Cardinals,New Orleans Saints,1990-5-10,151
S. Vollmer,New England Patriots,New England Patriots,1984-07-10,58
S. Tretola,Tennessee Titans,Tennessee Titans,1992-05-01,193
S. Henderson,Buffalo Bills,Buffalo Bills,1992-01-21,237
S. Weatherspoon,Arizona Cardinals,Atlanta Falcons,1987-12-29,19
S. Spence,Pittsburgh Steelers,Tennessee Titans,1990-06-07,86
S. Smith,Kansas City Chiefs,Oakland Raiders,1987-7-14,61
S. Porter,Cincinnati Bengals,Jacksonville Jaguars,1991-01-12,118
S. Mannion,Los Angeles Rams,Los Angeles Rams,1992-04-25,89
S. Davis,Pittsburgh Steelers,Pittsburgh Steelers,1993-10-23,58
S. Crichton,Minnesota Vikings,Minnesota Vikings,1991-10-30,72
S. W. III,Cleveland Browns,Cleveland Browns,1994-08-28,250
S. Watkins,Buffalo Bills,Buffalo Bills,1993-6-14,4
S. Coates,Pittsburgh Steelers,Pittsburgh Steelers,1993-03-31,87
S. Montgomery,Cincinnati Bengals,Free agent,1990-05-25,95
S. Barrington,Green Bay Packers,Kansas City Chiefs,1990-10-05,232
S. Acho,Arizona Cardinals,Chicago Bears,1988-09-06,103
R. Williams,Arizona Cardinals,Free agent,1990-04-09,38
R. Taylor,Baltimore Ravens,Free agent,1987-11-16,218
R. Succop,Kansas City Chiefs,Tennessee Titans,1986-09-19,256
R. Smith,Tampa Bay Buccaneers,Tampa Bay Buccaneers,1993-09-07,108
R. Shazier,Pittsburgh Steelers,Pittsburgh Steelers,1992-9-6,15
R. Russell,Tampa Bay Buccaneers,Tampa Bay Buccaneers,1992-01-17,163
R. Nassib,New York Giants,New York Giants,1990-03-10,110
R. Kelly,Indianapolis Colts,Indianapolis Colts,1993-0-0,18
R. Jensen,Baltimore Ravens,Baltimore Ravens,1991-05-27,203
R. Griffin,Houston Texans,Houston Texans,1990-01-11,201
R. Grant,Washington Redskins,Washington Redskins,1990-12-19,142
R. Broyles,Detroit Lions,Free agent,1988-04-09,54
R. Wilson,Seattle Seahawks,Seattle Seahawks,1988-11-29,75
R. Bodine,Cincinnati Bengals,Cincinnati Bengals,1992-06-30,111
R. Cockrell,Buffalo Bills,Pittsburgh Steelers,1991-08-06,109
R. Anderson,Chicago Bears,Chicago Bears,1992-10-02,254
R. Stanley,Baltimore Ravens,Baltimore Ravens,1994-03-18,6
R. Lewis,Detroit Lions,Free agent,1990-09-17,125
R. Powell,New Orleans Saints,Chicago Bears,1991-05-14,169
R. Darby,Buffalo Bills,Buffalo Bills,1994-01-02,50
R. Curry,Detroit Lions,New Orleans Saints,1979-05-28,235
R. Blair,San Francisco 49ers,San Francisco 49ers,1993-01-23,142
R. Brooks,Buffalo Bills,Philadelphia Eagles,1988-10-16,124
R. Gunter,Arizona Cardinals,Arizona Cardinals,1992-01-19,116
R. Saffold,Los Angeles Rams,Los Angeles Rams,1988-06-06,33
R. Woodson,Baltimore Ravens,Oakland Raiders,1965-3-10,10
R. Perry,Cleveland Browns,Oregon State Beavers,1953-09-11,98
R. Aguayo,Tampa Bay Buccaneers,Tampa Bay Buccaneers,1994-05-17,59
R. Woods,Buffalo Bills,Buffalo Bills,1992-04-10,41
R. Turbin,Cleveland Browns,Indianapolis Colts,1989-12-02,106
R. Nkemdiche,Arizona Cardinals,Arizona Cardinals,1994-09-19,29
R. Myers,Baltimore Ravens,Seattle Seahawks,1991-12-26,176
R. Herron,Miami Dolphins,Free agent,1992-06-02,185
R. Blanton,Buffalo Bills,Buffalo Bills,1989-09-07,139
R. Ayers,Denver Broncos,Tampa Bay Buccaneers,1985-09-06,18
R. Alford,Atlanta Falcons,Atlanta Falcons,1988-11-01,60
R. Housler,Arizona Cardinals,Free agent,1988-3-17,69
R. Havenstein,Los Angeles Rams,Los Angeles Rams,1992-05-13,57
R. Blanchflower,Pittsburgh Steelers,Free agent,1990-06-08,230
R. Matthews,Tennessee Titans,Tennessee Titans,1989-10-12,227
R. Reiff,Detroit Lions,Detroit Lions,1988-12-01,23
R. Dixon,Denver Broncos,Denver Broncos,1993-08-24,228
R. Gathers,Dallas Cowboys,Dallas Cowboys,1994-01-07,217
R. Wagner,Baltimore Ravens,Baltimore Ravens,1989-10-21,168
R. Sherman,Seattle Seahawks,Seattle Seahawks,1988-03-30,154
R. Rodgers,Green Bay Packers,Green Bay Packers,1992-01-22,98
R. Louis,Cleveland Browns,Cleveland Browns,1994-03-23,116
R. Colclough,Carolina Panthers,Free agent,1982-4-18,38
R. Allen,Atlanta Falcons,Atlanta Falcons,1991-12-18,147
R. Ragland,Buffalo Bills,Buffalo Bills,1993-09-23,41
R. Bush,Buffalo Bills,Buffalo Bills,1985-03-02,2
R. Odhiambo,Seattle Seahawks,Seattle Seahawks,1992-09-23,97
R. Higgins,Cleveland Browns,Cleveland Browns,1994-10-07,172
R. Washington,New York Jets,Texas Revolution,1980-03-15,236
R. Starks,Cleveland Browns,Free agent,1983-12-14,71
R. Gregory,Dallas Cowboys,Dallas Cowboys,1992-11-23,60
R. Telfer,Cleveland Browns,Cleveland Browns,1992-05-16,198
R. Cobb,Green Bay Packers,Green Bay Packers,1990-08-22,64
R. Wilson,Kansas City Chiefs,Kansas City Chiefs,1992-08-19,118
R. Nunez-Roches,Kansas City Chiefs,Kansas City Chiefs,1993-07-03,217
R. Hageman,Atlanta Falcons,Atlanta Falcons,1990-08-08,37
Q. Patton,San Francisco 49ers,San Francisco 49ers,1990-08-09,128
Q. Jefferson,Seattle Seahawks,Seattle Seahawks,1993-03-31,147
