col0,col1,col2,col3,col4
J. Gruszczyński,Poland,Poland men's national under-19 volleyball team,Poland,1997-11-13
J. Sabo,Slovakia,Slovakia men's national volleyball team,Detva,1983-01-21
J. Rivero,Spain,Spain women's national volleyball team,Camagüey,1995-03-15
I. Kowalińska,Poland,Poland women's national volleyball team,Świdnik,1985-02-23
I. Márquez,Venezuela,Venezuela men's national volleyball team,Caracas,1981-10-04
I. Contreras,Mexico,Mexico men's national volleyball team,Mexico,1974-01-29
I. Svobodníková,Czech Republic,Czech Republic women's national volleyball team,Brno,1991-04-01
I. Marra,Brazil,Brazil women's national volleyball team,"Coromandel, Minas Gerais",1990-01-25
I. Halbichová,Czech Republic,Czech Republic women's national volleyball team,Prague,1989-12-19
I. Gavrilov,Bulgaria,Bulgaria men's national volleyball team,Sofia,1970-12-30
I. Bugajenkovs,Russia,Soviet Union,Russia,1938-02-18
I. Đerisilo,Serbia,Serbia women's national volleyball team,Belgrade,1983-08-08
I. Plchotová,Czech Republic,Czech Republic women's national volleyball team,Hustopeče,1982-10-28
I. Luković,Serbia,Serbia women's national volleyball team,Belgrade,1992-07-18
I. Cebáková,Czech Republic,Czech Republic women's national volleyball team,Brno,1986-08-07
I. Bramborová,Slovakia,Slovakia women's national volleyball team,Žiar nad Hronom,1985-04-11
I. Đerisilo,Serbia,Serbia women's national volleyball team,Belgrade,1983-08-08
I. Márquez,Venezuela,Venezuela men's national volleyball team,Caracas,1981-10-04
I. Contreras,Mexico,Mexico men's national volleyball team,Mexico,1974-01-29
I. Morozova,Russia,Russia,Russian Soviet Federative Socialist Republic,1985-01-08
I. Moalla,Tunisia women's national volleyball team,Tunisia women's national volleyball team,Sfax,1990-01-30
I. Sager-Weider,France,France women's national volleyball team,Colmar,1988-07-05
I. Santos,Brazil,Brazil men's national volleyball team,"São Gonçalo, Rio de Janeiro",1990-12-13
I. Zilio,Italy,Italy women's national volleyball team,Padua,1983-03-05
I. Bricio,Mexico,Mexico men's national volleyball team,"Guadalajara, Jalisco",1980-09-03
I. Voronkova,Russia,Russia women's national volleyball team,Constantinople,1995-10-20
I. Malkova,Russia,Russia women's national volleyball team,Moscow,1989-03-23
I. Ilchenko,Russia,Russia,Russia,1968-03-08
I. Filishtinskaya,Russia,Russia women's national volleyball team,"Salavat, Russia",1990-6-14
I. Fetisova,Russia,Russia women's national volleyball team,Spain,1994-09-07
I. Donets,Netherlands,Netherlands women's national volleyball team,Amsterdam,1976-08-20
I. Doriadis,Greece,Greece men's national volleyball team,Constantinople,1954-05-15
I. Fakas,Greece,Greece men's national volleyball team,Ioannina,1964-03-16
I. Nemțanu,Romania,Romania women's national volleyball team,Ploiești,1989-01-01
I. Šišković,Croatia,Croatia women's national volleyball team,Pula,1980-06-06
I. Visser,Netherlands,Netherlands women's national volleyball team,"Gouda, South Holland",1977-06-04
I. Šišković,Croatia,Croatia women's national volleyball team,Pula,1980-06-06
I. Molendijk,Netherlands,Netherlands women's national volleyball team,Dinkelland,1992-12-09
I. Pianka,Germany,Germany women's national volleyball team,Bergen auf Rügen,1969-03-15
I. Sorokaite,Italy,Italy women's national volleyball team,Kaunas,1988-07-02
I. Mäser,Germany,Germany women's national volleyball team,Zittau,1977-01-12
I. Sirressi,Italy,Italy women's national volleyball team,Santeramo in Colle,1990-05-19
I. Wedekind,Germany,Germany women's national volleyball team,Reinbek,1984-06-23
I. Savelev,Russia,Russia men's national volleyball team,Moscow,1971-6-10
I. Petkova,Bulgaria,Bulgaria women's national volleyball team,Sofia,1977-10-11
I. Žilin,Russia,Russia men's national volleyball team,"Kirov, Kirov Oblast",1985-05-10
I. Vlasov,Russia,Russia men's national volleyball team,Kumertau,1995-08-03
I. Žilin,Russia,Russia men's national volleyball team,"Kirov, Kirov Oblast",1985-05-10
I. Spirito,Italy,Italy women's national volleyball team,Albisola Superiore,1994-02-20
I. Garzaro,Italy,Italy women's national volleyball team,Noventa Vicentina,1986-09-29
I. Nishibori,Japan,Japan women's national volleyball team,"Nakano, Nagano",1981-08-20
I. Hernández,Cuba,Cuba men's national volleyball team,Cuba,1972-08-06
I. Chojnacka,Poland,Poland women's national volleyball team,Warsaw,1994-04-21
I. Konstantinova,Russia,Russia women's national volleyball team,Tver,1981-08-25
I. Botto,Italy,Italy men's national volleyball team,La Spezia,1987-09-22
H. Schleck,France,France women's national volleyball team,"Nancy, France",1986-05-13
H. Soto,Puerto Rico,Puerto Rico men's national volleyball team,New York,1978-06-20
H. Youn-joo,Korea,South Korea women's national volleyball team,Korea,1986-08-13
H. Gaspar,Portugal,Portugal men's national volleyball team,Portugal,1982-09-02
H. Zlatanov,Bulgaria,Italy men's national volleyball team,Sofia,1976-04-21
H. Maadani,Iran,Iran,Iran,1971-05-07
H. d'Almeida,France,France men's national volleyball team,Lomé,1988-06-11
H. Mitsunaga,Japan,Japan women's national volleyball team,Nagasaki,1976-06-03
H. Aizawa,Japan,Japan men's national volleyball team,"Shizuoka, Shizuoka",1986-03-08
H. Kai,Japan,Japan men's national volleyball team,"Miyazaki, Miyazaki",1978-07-17
H. Hanano,Japan,Japan men's national volleyball team,Osaka Prefecture,1974-07-24
H. Kageyama,Japan,Japan men's national volleyball team,Chiba Prefecture,1967-08-28
H. Suzuki,Japan,Japan women's national volleyball team,"Kumagaya, Saitama",1978-11-14
H. Okano,Japan,Japan women's national volleyball team,"Takatsuki, Osaka",1976-05-25
H. Hakuta,Japan,Japan women's national volleyball team,"Nagano, Nagano",1983-09-20
H. Kawaura,Japan,Japan men's national volleyball team,"Takasaki, Gunma",1975-11-13
H. Asano,Japan,Japan men's national volleyball team,Azumino,1990-10-06
H. Caldeira,Brazil,Brazil women's national volleyball team,"Diamantina, Minas Gerais",1972-01-05
H. Palma,Peru,Peru women's national volleyball team,Peru,1997-01-05
H. Fukatsu,Japan,Japan men's national volleyball team,"Toyota, Aichi",1990-06-01
H. Boswinkel,Netherlands,Netherlands men's national volleyball team,Ootmarsum,1995-03-30
H. Kaabi,Tunisia women's national volleyball team,Tunisia women's national volleyball team,Tunis,1986-09-13
H. Guemmadi,Algeria,Algeria men's national volleyball team,"Constantine, Algeria",1976-04-16
H. Bakhsheshi,Iran,Iran men's national volleyball team,Tehran,1984-03-21
H. Mazzon,France,France men's national volleyball team,Paris,1959-08-12
H. Horka,Czech Republic,Czech Republic women's national volleyball team,Brno,1981-06-15
H. Wiesenthal,Germany,Germany men's national sitting volleyball team,Mayen,1975-02-12
H. Mouselhy,Egypt,Egypt women's national volleyball team,Egypt,1968-06-24
H. v. Leusden,Netherlands,Netherlands women's national volleyball team,Oudewater,1972-01-28
H. Kalinouskaya-Güngör,Belarus,Belarus women's national volleyball team,Minsk,1985-05-17
H. Čutura,Croatia,Croatia women's national volleyball team,Zagreb,1988-03-10
H. Xu,China,China women's national volleyball team,Beijing,1987-10-28
H. Song-yi,Korea,South Korea women's national volleyball team,Osan,1984-09-05
H. Nagga,Tunisia,Tunisia men's national volleyball team,Tunis,1990-05-29
H. Zouari,Tunisia women's national volleyball team,Tunisia women's national volleyball team,Sfax,1988-03-28
H. Jun-im,Korea,South Korea women's national volleyball team,"Gumi, North Gyeongsang",1989-12-26
H. Schleck,France,France women's national volleyball team,"Nancy, France",1986-05-13
H. Soto,Puerto Rico,Puerto Rico men's national volleyball team,New York,1978-06-20
G. Hardy-Dessources,France,France men's national volleyball team,Fort-de-France,1983-02-09
G. Bodó,Hungary,Hungary men's national volleyball team,Balatonfüred,1941-08-05
G. Horemans,Belgium,Belgium women's national volleyball team,Herentals,1987-09-16
G. Celitāns,Latvia,Latvia men's national volleyball team,Soviet Union,1985-06-14
G. Hernán,Spain,Spain men's national volleyball team,Spain,1982-07-25
G. García,Argentina,Argentina men's national volleyball team,Villa María,1983-09-21
G. Buffon,Italy,Italy women's national volleyball team,Carrara,1973-05-14
G. Naumann,Germany,Germany women's national volleyball team,Dresden,1966-07-13
G. Berríos,Puerto Rico,Puerto Rico men's national volleyball team,"San Juan, Puerto Rico",1979-01-24
G. Vigrass,Canada,Canada men's national volleyball team,Alberta,1989-6-17
G. Márquez,Venezuela,Venezuela women's national volleyball team,Maracay,1978-03-23
G. Quiroga,Argentina,Argentina men's national volleyball team,"San Juan, Argentina",1993-02-25
G. Ortega,Puerto rico,Puerto Rico women's national volleyball team,"Bayamón, Puerto Rico",1983-11-21
G. Pisani,Italy,Italy women's national volleyball team,Pisa,1992-06-04
G. Pincerato,Italy,Italy women's national volleyball team,Dolo,1987-03-16
G. Leonardi,Italy,Italy women's national volleyball team,Cesena,1987-12-01
G. D. Togni,Italy,Italy men's national volleyball team,Ferrara,1985-07-07
G. Mattera,Italy,Italy men's national volleyball team,Civitavecchia,1983-08-29
G. Brousseau,Canada,Canada men's national volleyball team,Quebec,1966-09-04
G. Mambrú,Dominican Republic,Dominican Republic women's national volleyball team,Santo Domingo,1986-01-21
G. Bernardo,Brazil,Brazil men's national volleyball team,Contagem,1968-2-20
G. Lombardo,Italy,Italy women's national volleyball team,Catania,1989-07-02
G. Jorna,Netherlands,Netherlands men's national volleyball team,Enkhuizen,1989-05-30
G. Laios,Greece,Greece men's national volleyball team,Athens,1951-03-17
G. Sintini,Italy,Italy men's national volleyball team,"Lugo, Emilia-Romagna",1979-01-16
