col0,col1,col2,col3
Tennis at the 2012 Summer Olympics,A. Murray,S. Williams,M. Bryan
Tennis at the 2011 Southeast Asian Games,A. Damayanti,A. Damayanti,C. Rungkat
2016 Western & Southern Open,M. Čilić,K. Plíšková,I. Dodig
2016 Tennis Championships of Maui,W. Di,C. McHale,D. Novikov
2016 Tampere Open,P. Suomalainen,P. Suomalainen,M. Schnur
2016 TEAN International,C. Ewijk,C. Ewijk,J. Struff
2016 Swedish Open,L. Siegemund,L. Siegemund,M. Granollers
2016 Rogers Cup,N. Djokovic,S. Halep,I. Dodig
2016 President's Cup,E. Donskoy,A. Sotnikova,A. Vasilevski
2016 Mutua Madrid Open,N. Djokovic,S. Halep,J. Rojer
2016 Morelos Open,M. Bouzková,M. Bouzková,P. Polansky
2016 Miami Open,N. Djokovic,V. Azarenka,N. Mahut
2016 Launceston Tennis International,H. Xinyun,H. Xinyun,J. Thompson
2016 Kunming Open,J. Thompson,Z. Kailin,B. Yan
2016 Kentucky Bank Tennis Championships,M. Krajicek,M. Krajicek,J. Thompson
2016 French Open,N. Djokovic,G. Muguruza,F. López
2016 Fergana Challenger,R. Albot,P. Monova,Y. Jankovits
2016 Delhi Open,S. Sharipova,S. Sharipova,M. Bhupathi
2016 Citi Open,G. Monfils,Y. Wickmayer,É. Roger-Vasselin
2016 Challenger Banque Nationale de Granby,F. Tiafoe,J. Brady,A. González
2016 Challenger Banque Nationale de Gatineau,B. Andreescu,B. Andreescu,F. Škugor
2016 BNP Paribas Open,N. Djokovic,V. Azarenka,N. Mahut
2016 Australian Open,A. Kerber,A. Kerber,B. Soares
2016 Apia International Sydney,S. Kuznetsova,S. Kuznetsova,B. Soares
2016 Aegon Surbiton Trophy,M. Melnikova,M. Melnikova,P. Raja
2016 Aegon Ilkley Trophy,E. Rodina,E. Rodina,M. Middelkoop
2016 Advantage Cars Prague Open,A. Lottner,A. Lottner,J. Knowle
2016 Abierto de Puebla,I. Khromacheva,I. Khromacheva,M. Daniell
2016 ASB Classic,R. B. Agut,S. Stephens,M. Pavić
2015 Western & Southern Open,R. Federer,S. Williams,É. Roger-Vasselin
2015 US Open,N. Djokovic,F. Pennetta,N. Mahut
2015 Tampere Open,L. Barzó,L. Barzó,A. Ghem
2015 TEAN International,D. Džumhur,M. Benoît,J. Struff
2015 Swedish Open,J. Larsson,J. Larsson,Ł. Kubot
2015 Slovak Open,J. Malečková,J. Malečková,I. Bozoljac
2015 Seguros Bolívar Open Medellín,P. Lorenzi,T. Pereira,N. Barrientos
2015 Rogers Cup,A. Murray,B. Bencic,B. Bryan
2015 President's Cup,M. Kukushkin,N. Dzalamidze,K. Kravchuk
2015 Odlum Brown Vancouver Open,D. Sela,J. Konta,F. Nielsen
2015 Mutua Madrid Open,A. Murray,P. Kvitová,R. Bopanna
2015 Miami Open,N. Djokovic,S. Williams,B. Bryan
2015 McDonald's Burnie International,D. Gavrilova,D. Gavrilova,C. Ball
2015 Lecoq Seoul Open,G. Soeda,R. Sawayanagi,P. Hsien-yin
2015 Launceston Tennis International,D. Gavrilova,D. Gavrilova,R. Albot
2015 Kentucky Bank Tennis Championships,N. Hibino,N. Hibino,C. Ball
2015 Hua Hin Championships,Y. Shvedova,Y. Shvedova,L. Yen-hsun
2015 French Open,S. Wawrinka,S. Williams,I. Dodig
2015 Fergana Challenger,T. Gabashvili,A. Komardina,M. Elgin
2015 Dunlop World Challenge,Y. Nishioka,J. Fett,M. Reid
2015 Delhi Open,S. Devvarman,M. Linette,A. Kudryavtsev
2015 Citi Open,K. Nishikori,S. Stephens,B. Bryan
2015 China International Challenger,Z. Saisai,Z. Saisai,W. Di
2015 Challenger Banque Nationale de Granby,J. Konta,J. Konta,P. Polansky
2015 BNP Paribas Open,S. Halep,S. Halep,V. Pospisil
2015 Australian Open,N. Djokovic,S. Williams,S. Bolelli
2015 Apia International Sydney,P. Kvitová,P. Kvitová,R. Bopanna
2015 Aegon Surbiton Trophy,M. Ebden,V. Diatchenko,K. Skupski
2015 Aegon Ilkley Trophy,D. Kudla,A. Friedsam,M. Daniell
2015 Advantage Cars Prague Open,María Teresa Torró Flor,María Teresa Torró Flor,M. Middelkoop
2014 Western & Southern Open,R. Federer,S. Williams,B. Bryan
2014 US Open,M. Čilić,S. Williams,B. Bryan
2014 Tampere Open,D. Goffin,M. Sakkari,S. Thornley
2014 TEAN International,J. H. Galung,D. Allertová,Antal van der Duim
2014 Swedish Open,M. Barthel,M. Barthel,J. Brunström
2014 Sony Open Tennis,N. Djokovic,S. Williams,B. Bryan
2014 Seguros Bolívar Open Medellín,V. C. Royg,V. C. Royg,C. Ramírez
2014 Rogers Cup,A. Radwańska,A. Radwańska,B. Soares
2014 President's Cup,R. Berankis,V. Diatchenko,M. Chiudinelli
2014 Odlum Brown Vancouver Open,M. Baghdatis,J. Gajdošová,J. Smith
2014 ONGC–GAIL Delhi Open,S. Devvarman,W. Qiang,S. Myneni
2014 Mutua Madrid Open,M. Sharapova,M. Sharapova,N. Zimonjić
2014 McDonald's Burnie International,M. Eguchi,M. Eguchi,M. Reid
2014 Kentucky Bank Tennis Championships,M. Brengle,M. Brengle,A. Shamasdin
2014 IPP Open and the Orto-Lääkärit Open,J. Zopp,A. Bowtell,J. Nieminen
2014 French Open,M. Sharapova,M. Sharapova,France
2014 Fergana Challenger,B. Kavčič,N. Abduraimova,A. Bury
2014 Dunlop World Challenge,G. Soeda,A. Mestach,Y. Uchiyama
2014 Citi Open,M. Raonic,S. Kuznetsova,J. Rojer
2014 China International Challenger,Z. Saisai,Z. Saisai,A. Bolt
2014 Challenger Banque Nationale de Granby,H. Moriya,M. Imanishi,M. Daniell
2014 BNP Paribas Open,N. Djokovic,F. Pennetta,B. Bryan
2014 Australian Open,S. Wawrinka,L. Na,Ł. Kubot
2014 Apia International Sydney,Juan Martín del Potro,T. Pironkova,D. Nestor
2014 Aegon Trophy,M. Baghdatis,K. Plíšková,C. Guccione
2014 Aegon Nottingham Challenge,N. Kyrgios,J. Gajdošová,R. Junaid
2013 Wimbledon Championships,A. Murray,M. Bartoli,B. Bryan
2013 Western & Southern Open,R. Nadal,V. Azarenka,B. Bryan
2013 US Open,R. Nadal,S. Williams,L. Paes
2013 U.S. National Indoor Tennis Championships,K. Nishikori,M. Erakovic,B. Bryan
2013 Tampere Open,J. H. Galung,K. Barbat,H. Kontinen
2013 TEAN International,A. Rus,A. Rus,Antal van der Duim
2013 São Paulo Challenger de Tênis,B. Botto,B. Botto,F. Romboli
2013 Swedish Open,S. Williams,S. Williams,N. Monroe
2013 Soweto Open,V. Pospisil,T. Babos,P. Amritraj
2013 Samsung Securities Cup,D. Lajović,H. Na-lae,M. Draganja
2013 São Paulo Challenger de Tênis,B. Botto,B. Botto,E. Schwank
2013 Rogers Cup,R. Nadal,S. Williams,B. Soares
2013 President's Cup,D. Sela,N. Kichenok,C. Grassi
2013 Odlum Brown Vancouver Open,V. Pospisil,J. Konta,A. Ram
2013 Nature's Way Sydney Tennis International,W. Yafan,W. Yafan,B. Klein
2013 Mutua Madrid Open,R. Nadal,S. Williams,B. Bryan
2013 McDonald's Burnie International,O. Rogowska,O. Rogowska,J. Smith
2013 Kazan Summer Cup,S. Stakhovsky,L. Kichenok,V. Baluda
2013 IPP Open and the Orto-Lääkärit Open,J. Nieminen,J. Ostapenko,J. Nieminen
2013 French Open,R. Nadal,S. Williams,B. Bryan
2013 Fifth Third Bank Tennis Championships,S. Rogers,S. Rogers,F. Dancevic
2013 Fergana Challenger,N. Abduraimova,N. Abduraimova,F. Dustov
2013 Dunlop World Challenge,M. Ebden,L. Kumkhum,C. Buchanan
2013 Citi Open,M. Rybáriková,M. Rybáriková,N. Zimonjić
2013 Challenger Banque Nationale de Granby,F. Dancevic,R. Ozaki,P. Polansky
2013 Beijing International Challenger,L. Yen-Hsun,Z. Shuai,D. Udomchoke
2013 BNP Paribas Open,M. Sharapova,M. Sharapova,B. Bryan
2013 Australian Open,N. Djokovic,V. Azarenka,B. Bryan
2013 Aegon Trophy,P. Martić,P. Martić,J. Peers
2013 Aegon Nottingham Challenge,E. Baltacha,E. Baltacha,S. Ratiwatana
2012 Western & Southern Open,R. Federer,L. Na,R. Lindstedt
2012 Swedish Open,D. Ferrer,P. Hercog,R. Lindstedt
2012 Samsung Securities Cup,L. Yen-hsun,E. Sema,L. Hsin-han
2012 Rogers Cup,N. Djokovic,P. Kvitová,B. Bryan
2012 Regions Morgan Keegan Championships and Memphis International,J. Melzer,S. Arvidsson,M. Mirnyi
2012 Odlum Brown Vancouver Open,M. Burdette,M. Burdette,M. Authom
2012 Ningbo Challenger,H. Su-wei,H. Su-wei,S. Ratiwatana
2012 Mutua Madrid Open,R. Federer,S. Williams,M. Matkowski
2012 Dunlop World Challenge,S. Vögele,S. Vögele,M. Pavić
2012 Citi Open,M. Rybáriková,M. Rybáriková,D. Inglot
2012 Challenger Banque Nationale de Granby,E. Bouchard,E. Bouchard,V. Pospisil
2012 BNP Paribas Open,R. Federer,V. Azarenka,R. Nadal
2012 Australian Open,V. Azarenka,V. Azarenka,L. Paes
2012 Aegon Pro-Series Loughborough,E. Donskoy,R. Voráčová,A. Shamasdin
2012 Aegon GB Pro–Series Bath,D. Brown,K. Bertens,M. Fischer
2011 Swedish Open,R. Söderling,P. Hercog,R. Lindstedt
2011 Soweto Open,V. Savinykh,V. Savinykh,M. Kohlmann
2011 Regions Morgan Keegan Championships and the Cellular South Cup,M. Rybáriková,M. Rybáriková,M. Mirnyi
2011 Odlum Brown Vancouver Open,A. Wozniak,A. Wozniak,T. C. Huey
2011 Challenger Banque Nationale de Granby,S. Dubois,S. Dubois,K. Beck
2011 BNP Paribas Open,C. Wozniacki,C. Wozniacki,X. Malisse
2011 Aegon GB Pro-Series Bath,D. Tursunov,S. Vögele,J. Delgado
2010 Western & Southern Financial Group Masters and Women's Open,K. Clijsters,K. Clijsters,B. Bryan
2010 Regions Morgan Keegan Championships and the Cellular South Cup,M. Sharapova,M. Sharapova,J. Isner
2010 Odlum Brown Vancouver Open,D. Sela,J. Dokić,D. Inglot
2010 BNP Paribas Open,J. Janković,J. Janković,R. Nadal
2009 Western & Southern Financial Group Masters and Women's Open,R. Federer,J. Janković,D. Nestor
2009 Rogers Cup,A. Murray,E. Dementieva,M. Bhupathi
2009 Regions Morgan Keegan Championships and the Cellular South Cup,V. Azarenka,V. Azarenka,M. Fish
2009 Odlum Brown Vancouver Open,M. Baghdatis,S. Dubois,K. Anderson
2009 Fifth Third Bank Tennis Championships,S. Mirza,S. Mirza,K. Anderson
2009 BNP Paribas Open,R. Nadal,V. Zvonareva,A. Roddick
2008 Western & Southern Financial Group Masters and Women's Open,A. Murray,N. Petrova,B. Bryan
2008 Rogers Cup,R. Nadal,D. Safina,D. Nestor
2008 Regions Morgan Keegan Championships and the Cellular South Cup,L. Davenport,L. Davenport,M. Bhupathi
2008 Pacific Life Open,N. Djokovic,A. Ivanovic,A. Ram
2008 Odlum Brown Vancouver Open,D. Sela,U. Radwanska,E. Butorac
2008 French Open,A. Ivanovic,A. Ivanovic,P. Cuevas
2008 Fifth Third Bank Tennis Championships,S. Devvarman,M. Oudin,A. Stoppini
2008 Australian Open,M. Sharapova,M. Sharapova,A. Ram
2007 Western & Southern Financial Group Masters and Women's Open,R. Federer,A. Chakvetadze,A. Ram
2007 US Open,R. Federer,J. Henin,J. Knowle
2007 Rogers Cup,N. Djokovic,J. Henin,M. Bhupathi
2007 Regions Morgan Keegan Championships and the Cellular South Cup,T. Haas,V. Williams,E. Butorac
2007 Pacific Life Open,R. Nadal,D. Hantuchová,L. Paes
2006 Western & Southern Financial Group Masters,A. Roddick,V. Zvonareva,J. Björkman
2006 Rogers Cup,R. Federer,A. Ivanovic,B. Bryan
2006 Regions Morgan Keegan Championships and the Cellular South Cup,T. Haas,S. Arvidsson,I. Karlović
2005 Western & Southern Financial Group Masters,P. Schnyder,P. Schnyder,J. Björkman
2005 Rogers Cup,K. Clijsters,K. Clijsters,W. Black
2005 Regions Morgan Keegan Championships and the Cellular South Cup,V. Zvonareva,V. Zvonareva,S. Aspelin
2005 Australian Open,M. Safin,S. Williams,W. Black
2004 Western & Southern Financial Group Masters,A. Agassi,L. Davenport,D. Nestor
2004 Kroger St. Jude International and the Cellular South Cup,V. Zvonareva,V. Zvonareva,B. Bryan
2004 Canada Masters and the Rogers AT&T Cup,A. Mauresmo,A. Mauresmo,L. Paes
2003 Dubai Tennis Championships and Duty Free Women's Open,R. Federer,J. Henin,L. Paes
2003 Canada Masters and the Rogers AT&T Cup,A. Roddick,J. Henin,M. Mirnyi
2002 US Open,P. Sampras,S. Williams,M. Mirnyi
2002 Dubai Tennis Championships and Duty Free Women's Open,A. Mauresmo,A. Mauresmo,D. Nestor
2002 Canada Masters and the Rogers AT&T Cup,A. Mauresmo,A. Mauresmo,B. Bryan
2001 Dubai Tennis Championships and Duty Free Women's Open,J. C. Ferrero,M. Hingis,J. Eagle
2001 Canada Masters and the Rogers AT&T Cup,A. Pavel,S. Williams,J. Novák
1999 Newsweek Champions Cup and the Evert Cup,M. Philippoussis,S. Williams,S. Stolle
1999 Australian Open,M. Hingis,M. Hingis,J. Björkman
1998 Newsweek Champions Cup and the State Farm Evert Cup,M. Ríos,M. Hingis,J. Björkman
1997 Newsweek Champions Cup and the State Farm Evert Cup,L. Davenport,L. Davenport,D. Nestor
1996 Salem Open Beijing and the Nokia Open,G. Rusedski,W. Shi-ting,M. Damm
1996 Newsweek Champions Cup and the State Farm Evert Cup,M. Chang,S. Graf,T. Woodbridge
1996 Continental Championships and the Wilkinson Lady Championships,R. Reneberg,A. Huber,P. Vízner
1995 Newsweek Champions Cup and the State Farm Evert Cup,M. J. Fernández,M. J. Fernández,B. Steven
1994 Newsweek Champions Cup and the Evert Cup,P. Sampras,S. Graf,G. Connell
1994 Canadian Open,A. Agassi,A. S. Vicario,B. Black
1993 Newsweek Champions Cup and the Matrix Essentials Evert Cup,J. Courier,M. J. Fernández,G. Forget
1992 Newsweek Champions Cup and the Matrix Essentials Evert Cup,M. Chang,M. Seles,D. Macpherson
1991 Newsweek Champions Cup and the Virginia Slims of Palm Springs,J. Courier,M. Navratilova,J. Courier
1991 French Open,J. Courier,M. Seles,A. Järryd
1990 Newsweek Champions Cup and the Virginia Slims of Indian Wells,M. Navratilova,M. Navratilova,B. Becker
1990 Holden NSW Open,N. Zvereva,N. Zvereva,P. Cash
1989 Newsweek Champions Cup and the Virginia Slims of Indian Wells,M. Mečíř,M. Maleeva,B. Becker
1989 Hall of Fame Tennis Championships and the Virginia Slims of Newport,J. Pugh,Z. Garrison,P. Galbraith
1988 Hall of Fame Tennis Championships and the Virginia Slims of Newport,W. Masur,L. McNeil,P. Lundgren
1980 Stockholm Open,H. Mandlíková,H. Mandlíková,P. McNamee
1978 German Open,G. Vilas,M. Jaušovec,T. Okker
1977 German Open,L. duPont,L. duPont,K. Meiler
1976 German Open,S. Barker,S. Barker,S. Stewart
1975 Grand Prix German Open,M. Orantes,R. Tomanová,M. Orantes
1974 German Open,H. Masthoff,H. Masthoff,H. Pohmann
1972 Grand Prix German Open,M. Orantes,H. Masthoff,I. Năstase
1971 Grand Prix German Open,B. J. King,B. J. King,J. Alexander
1969 German Open Championships,T. Roche,J. Tegart,T. Okker
1968 German Open Championships,J. Newcombe,A. V. Zyl,T. Okker
