col0,col1,col2,col3
The Wind,C. A. Nervig,V. Sjöström,F. Marion
The Willi Busch Report,N. Schilling,N. Schilling,N. Schilling
The Wilding,A. Cox,G. Scicluna,G. Scicluna
The Wildcats of St Trinian's,A. Gibbs,F. Launder,R. Searle
The Wild and the Willing,A. Roome,R. Thomas,M. Richler
The Wild World of Batwoman,J. Warren,J. Warren,J. Warren
The Wild Westerners,J. Thoms,O. Rudolph,G. D. Adams
The Wild Party,O. Lovering,D. Arzner,S. H. Adams
The Wild Ones of San Gil Bridge,J. A. Rojo,A. Ribas,A. Ribas
The Wild North,J. Dunning,A. Marton,F. Fenton
The Wild Goose Chase,C. B. DeMille,C. B. DeMille,W. C. deMille
The Wild Geese,J. Glen,A. V. McLaglen,R. Rose
The Wild Frontier,L. Orlebeck,P. Ford,A. DeMond
The Wild Bunch,L. Lombardo,S. Peckinpah,S. Peckinpah
The Wild Blue Yonder,Richard L. Van Enger,A. Dwan,R. Tregaskis
The Wild Blue Yonder,J. Bini,W. Herzog,W. Herzog
The Wife of General Ling,D. Lean,L. Vajda,P. Cheyney
The Wife Takes a Flyer,G. Havlick,R. Wallace,J. Dratler
The Widow from Monte Carlo,T. Pratt,A. G. Collins,I. Hay
The Widow,G. Simonelli,G. Alessandrini,R. Simoni
The Wide Blue Road,E. D. Roma,G. Pontecorvo,G. Pontecorvo
The Wicked Lady,M. Winner,M. Winner,M. Winner
The Wicked Lady,T. Fisher,L. Arliss,L. Arliss
The Wicked,F. Fraticelli,C. Lizzani,F. Archibugi
The Whoopee Boys,E. Jenkins,J. Byrum,D. Obst
The Wholly Family,M. Audsley,T. Gilliam,T. Gilliam
The Whole Truth,G. Hambling,J. Guillermin,J. Latimer
The Whole Town's Talking,V. Lawrence,J. Ford,R. Riskin
The Whole City Sings,R. Freda,R. Freda,F. Fellini
The White Viking,H. Gunnlaugsson,H. Gunnlaugsson,H. Gunnlaugsson
The White Tower,S. E. Beetley,T. Tetzlaff,P. Jarrico
The White Ship,E. D. Roma,R. Rossellini,R. Rossellini
The White Sheik,R. Benedetti,F. Fellini,F. Fellini
The White Rose,J. Bustos,E. Fernández,E. Fernández
The White Reindeer,E. Blomberg,E. Blomberg,M. Kuosmanen
The White Monk,J. Bustos,J. Bracho,X. Villaurrutia
The White Meadows,J. Panahi,M. Rasoulof,M. Rasoulof
The White Line,E. D. Roma,L. Zampa,P. Tellini
The White Horse Inn,A. Heyne,W. Jacobs,E. Charell
The White Dragon,C. Ka-fai,W. Yip,W. Yip
The White Dawn,D. Stewart,P. Kaufman,J. A. Houston
The White Cockatoo,C. Kolster,A. Crosland,M. G. Eberhart
The White Cliffs of Dover,R. Kern,C. Brown,C. West
The White Balloon,J. Panahi,J. Panahi,A. Kiarostami
The White Angel,M. Serandrei,R. Matarazzo,R. Matarazzo
The White Angel,W. Low,W. Dieterle,H. W. Longfellow
The Whistleblower,J. Clarke,L. Kondracki,L. Kondracki
The Whispering Chorus,C. B. DeMille,C. B. DeMille,J. MacPherson
The Whisperers,A. Harvey,B. Forbes,B. Forbes
