col0,col1,col2,col3
Warthin's tumor,D11,8561/0,D000235
Vascular tissue neoplasm,"C46,C49,D18,D48.1",9120–9179,D009383
Tumors of the hematopoietic and lymphoid tissues,C81-C96,9590-9999,D019337
Thymoma,"C37,D15.0",8580,D013945
Teratoma,C62.9 (ILDSC62.930),9080,D013724
Syringoma,D23.9,M8407/0,D018252
Synovial sarcoma,C49.9,-9043/3,D013584
Spitz nevus,D22(ILDSD22.L32),M8770/0,D018332
Skin cancer,C43-C44,8010-8720,D012878
Sex cord–gonadal stromal tumour,"C56.9, C62","8590/1, 8600, 8620, 8631",D018312
Serous cystadenocarcinoma,C56.9,8441/3,D018284
Rhabdomyosarcoma,C49.M50,-,D012208
Rhabdomyoma,D21(ILDSD21.M50),8900/0,D012207
Pseudomyxoma peritonei,C78.6,M8480,D011553
Pleomorphic adenoma,D11,8940/0,D008949
Plasmacytoma,C90.2,",",D010954
Plasma cell dyscrasia,C90,9730-9739,D054219
Pinealoma,"D44.5, C75.3",M9360/1-9362/3,D010871
Pinealoblastoma,C75.3,9362/3,D010871
