col0,col1,col2,col3
M. Natsume,Tokyo,http://dbpedia.org/resource/Leukemia,1957-12-17
M. Pêra,Rio de Janeiro,http://dbpedia.org/resource/Lung_cancer,1943-01-22
M. Pickford,Toronto,http://dbpedia.org/resource/Cerebral_hemorrhage,1892-04-08
M. Nolan,"Louisville, Kentucky",http://dbpedia.org/resource/Barbiturate_overdose,1902-12-18
M. Murphy,"Washington, D.C.",http://dbpedia.org/resource/Cardiovascular_disease,1931-01-26
M. Millar,West Riding of Yorkshire,http://dbpedia.org/resource/Ovarian_cancer,1936-07-26
M. M. Minter,"Shreveport, Louisiana",http://dbpedia.org/resource/Stroke,1902-04-25
M. Martin,Texas,http://dbpedia.org/resource/Colorectal_cancer,1913-12-01
M. Livingstone,Seattle,http://dbpedia.org/resource/Cardiovascular_disease,1905-06-25
M. Kornman,"Idaho Falls, Idaho",http://dbpedia.org/resource/Cancer,1915-12-27
M. G. Canfield,"Rochester, New York",http://dbpedia.org/resource/Lung_cancer,1924-09-03
M. Frann,"St. Louis, Missouri",http://dbpedia.org/resource/Myocardial_infarction,1943-02-27
M. Fickett,"Buffalo, New York",http://dbpedia.org/resource/Alzheimer's_disease,1928-05-23
M. E. Trainor,California,http://dbpedia.org/resource/Pancreatic_cancer,1952-07-08
M. Eaton,Norfolk,http://dbpedia.org/resource/Cirrhosis_of_the_liver,1901-01-29
M. D. Glynne,Wales,http://dbpedia.org/resource/Bronchopneumonia,1895-02-19
M. Castle,"Pampa, Texas",http://dbpedia.org/resource/Lung_cancer,1931-01-22
M. Astor,"Quincy, Illinois",http://dbpedia.org/resource/Respiratory_failure,1906-05-03
M. A. Mobley,Mississippi,http://dbpedia.org/resource/Breast_cancer,1937-02-17
M. A. Jackson,Los Angeles,http://dbpedia.org/resource/Myocardial_infarction,1923-01-14
M. Anderson,"Birmingham, Alabama",http://dbpedia.org/resource/Natural_causes,1918-04-03
M. Miller,"St. Louis, Missouri",http://dbpedia.org/resource/Heart_attack,1913-07-18
M. Ingels,Brooklyn,http://dbpedia.org/resource/Stroke,1936-03-09
M. Ritt,New York City,http://dbpedia.org/resource/Heart_disease,1914-03-02
M. Milner,Detroit,http://dbpedia.org/resource/Heart_failure,1931-12-28
M. Balsam,New York,http://dbpedia.org/resource/Stroke,1914-11-4
M. Vickers,"Ann Arbor, Michigan",http://dbpedia.org/resource/Esophageal_cancer,1925-05-28
M. Sleeper,"Lake Bluff, Illinois",http://dbpedia.org/resource/Heart_attack,1910-06-24
M. Raye,"Butte, Montana",http://dbpedia.org/resource/Cardiovascular_disease,1916-08-27
M. Mansfield,New York,http://dbpedia.org/resource/Bacteremia,1899-07-14
M. Thompson,"Peoria, Illinois",http://dbpedia.org/resource/Congestive_heart_failure,1925-11-27
M. Brando,Nebraska,http://dbpedia.org/resource/Respiratory_failure,1924-04-03
M. Venturini,Illinois,http://dbpedia.org/resource/Leukemia,1961-01-10
M. Speight,Seisdon,http://dbpedia.org/resource/Suicide_by_hanging,1965-08-06
M. McManus,Scotland,http://dbpedia.org/resource/Pneumonia,1935-02-21
M. Lenard,Chicago,http://dbpedia.org/resource/Multiple_myeloma,1924-10-15
M. Corbett,London,http://dbpedia.org/resource/Gastric_ulcer,1912-05-12
M. Goring,England,http://dbpedia.org/resource/Cancer,1912-05-23
M. Mack,"Mammoth, Utah",http://dbpedia.org/resource/Heart_failure,1902-04-08
M. Hutton,"Battle Creek, Michigan",http://dbpedia.org/resource/Cancer,1919-03-10
M. Davies,Brooklyn,http://dbpedia.org/resource/Stomach_cancer,1897-01-03
M. Montenegro,Insular Government of the Philippine Islands,http://dbpedia.org/resource/Heart_failure,1928-07-25
M. Monroe,Los Angeles,http://dbpedia.org/resource/Barbiturate_overdose,1926-06-01
M. Maxwell,"Clarinda, Iowa",http://dbpedia.org/resource/Heart_attack,1921-08-03
M. Prevost,Canada,http://dbpedia.org/resource/Alcoholism,1896-11-08
M. Eline,Milwaukee,http://dbpedia.org/resource/Myocardial_infarction,1902-02-27
M. Curie,Russian Empire,http://dbpedia.org/resource/Aplastic_anemia,1867-11-07
M. Pascal,Cambrai,http://dbpedia.org/resource/Suicide,1946-10-02
M. Montez,Dominican Republic,http://dbpedia.org/resource/Drowning,1912-06-06
Maria Assumpció Català i Poch,Barcelona,http://dbpedia.org/resource/Natural_Causes,1925-07-14
M. Clark,Ohio,http://dbpedia.org/resource/Pneumonia,1883-02-22
M. Wright,New York City,http://dbpedia.org/resource/Heart_Failure,1917-01-11
M. Sullavan,"Norfolk, Virginia",http://dbpedia.org/resource/Barbiturate_overdose,1909-05-16
M. Lindsay,"Dubuque, Iowa",http://dbpedia.org/resource/Emphysema,1910-09-19
M. Leighton,England,http://dbpedia.org/resource/Multiple_sclerosis,1922-02-26
M. Hayes,Baltimore,http://dbpedia.org/resource/Hepatitis,1916-12-05
M. Hamilton,Cleveland,http://dbpedia.org/resource/Myocardial_infarction,1902-12-09
M. Gibson,"Colorado Springs, Colorado",http://dbpedia.org/resource/Heart_attack,1894-09-14
M. Field,Houston,http://dbpedia.org/resource/Cancer,1922-05-10
M. Wallace,"Creston, Iowa",http://dbpedia.org/resource/Breast_cancer,1942-11-01
M. Strassman,New York City,http://dbpedia.org/resource/Breast_cancer,1948-04-28
M. M. Jones,Los Angeles,http://dbpedia.org/resource/Pneumonia,1924-08-01
M. Bozzuffi,French Third Republic,http://dbpedia.org/resource/Stroke,1928-10-28
M. Aryan,France,http://dbpedia.org/resource/Cardiac_arrest,1926-09-14
M. Pêra,Rio de Janeiro,http://dbpedia.org/resource/Lung_cancer,1943-01-22
M. Summers,Huelva,http://dbpedia.org/resource/Colorectal_cancer,1935-03-26
Manorama,British India,http://dbpedia.org/resource/Multiple_organ_failure,1937-0-0
M. Escobar,Spain,http://dbpedia.org/resource/Colon_Cancer,1931-10-19
M. d. Oliveira,Kingdom of Portugal,http://dbpedia.org/resource/Congestive_heart_failure,1908-12-11
Mandoza,South Africa,http://dbpedia.org/resource/Head_and_neck_cancer,1978-01-17
M. Throne,New York City,http://dbpedia.org/resource/Lung_cancer,1928-12-01
M. Powers,San Francisco,http://dbpedia.org/resource/Leukemia,1931-12-20
M. Fujita,Japan,http://dbpedia.org/resource/Aortic_aneurysm,1933-04-13
M. Iwamatsu,Kobe,http://dbpedia.org/resource/Esophageal_cancer,1933-12-10
M. Barrett,Cleveland,http://dbpedia.org/resource/Leukemia,1932-02-23
M. Norman,Georgia,http://dbpedia.org/resource/Lung_cancer,1912-10-16
M. McNamara,New York,http://dbpedia.org/resource/Suicide,1928-06-18
M. Questel,New York City,http://dbpedia.org/resource/Alzheimer's_Disease,1908-09-13
M. Busch,Melbourne,http://dbpedia.org/resource/Colon_cancer,1891-06-18
M. Maurin,France,http://dbpedia.org/resource/Death_by_natural_causes,1915-09-24
M. Rhue,"Washington, D.C.",http://dbpedia.org/resource/Pneumonia,1935-10-03
M. Sinclair,"Kingston, Jamaica",http://dbpedia.org/resource/Leukemia,1938-04-28
M. Blake,Kansas,http://dbpedia.org/resource/Myocardial_infarction,1899-05-31
M. Bellamy,"Hillsboro, Texas",http://dbpedia.org/resource/Heart_failure,1899-06-30
M. Kahn,Boston,http://dbpedia.org/resource/Ovarian_cancer,1942-09-29
M. Blaustein,Long Island,http://dbpedia.org/resource/Acute_(medicine),1960-10-09
M. Mohan,Baghdad,http://dbpedia.org/resource/Cirrhosis,1924-06-25
M. V. Buren,Chicago,http://dbpedia.org/resource/Pneumonia,1878-07-17
M. Normand,Staten Island,http://dbpedia.org/resource/Tuberculosis,1892-11-09
M. S. Viswanathan,British India,http://dbpedia.org/resource/Kidney_cancer,1928-06-24
M. Kenter,Constantinople,http://dbpedia.org/resource/Lung_cancer,1932-09-09
L. Orlova,Russia,http://dbpedia.org/resource/Pancreatic_Cancer,1902-01-29
L. Thigpen,United States,http://dbpedia.org/resource/Cerebral_hemorrhage,1948-12-22
L. Carver,"Birmingham, Alabama",http://dbpedia.org/resource/Cancer,1916-09-13
L. Redgrave,Marylebone,http://dbpedia.org/resource/Breast_cancer,1943-03-08
L. Bari,"Roanoke, Virginia",http://dbpedia.org/resource/Heart_attack,1913-12-18
L. Bellingham,Montreal,http://dbpedia.org/resource/Colorectal_cancer,1948-05-31
L. Talbot,Pittsburgh,http://dbpedia.org/resource/Congestive_heart_failure,1902-02-08
L. Tuttle,Indiana,http://dbpedia.org/resource/Cancer,1907-08-29
L. Vélez,Mexico,http://dbpedia.org/resource/Suicide_methods,1908-07-18
L. Ontiveros,"El Paso, Texas",http://dbpedia.org/resource/Liver_cancer,1942-09-17
L. Askew,"Macon, Georgia",http://dbpedia.org/resource/Lung_cancer,1932-03-26
L. Rainer,Düsseldorf,http://dbpedia.org/resource/Pneumonia,1910-01-12
L. Donath,Vienna,http://dbpedia.org/resource/Leukemia,1900-03-06
L. Gordon,Oxford,http://dbpedia.org/resource/Suicide_by_hanging,1980-05-22
L. Ricksen,Chicago,http://dbpedia.org/resource/Tuberculosis,1910-08-22
L. L. Verne,"Nashville, Tennessee",http://dbpedia.org/resource/Cancer,1872-11-07
L. Bliss,New York City,http://dbpedia.org/resource/Natural_causes,1916-03-31
L. Benson,Alabama,http://dbpedia.org/resource/Cancer,1914-07-17
L. Ball,"Jamestown, New York",http://dbpedia.org/resource/Dissecting_aortic_aneurysm,1911-08-06
L. Salce,Kingdom of Italy,http://dbpedia.org/resource/Heart_attack,1922-09-25
L. Patten,"Long Beach, California",http://dbpedia.org/resource/Respiratory_failure,1938-07-06
L. Anders,New York,http://dbpedia.org/resource/Breast_cancer,1938-05-12
L. Sherman,California,http://dbpedia.org/resource/Pneumonia,1885-10-11
L. Brooks,"Cherryvale, Kansas",http://dbpedia.org/resource/Myocardial_infarction,1906-11-14
L. Beavers,Cincinnati,http://dbpedia.org/resource/Heart_attack,1902-03-08
L. J. Heydt,New Jersey,http://dbpedia.org/resource/Myocardial_infarction,1903-04-17
L. Edmonds,"Baton Rouge, Louisiana",http://dbpedia.org/resource/Respiratory_failure,1923-09-24
L. Armstrong,Louisiana,http://dbpedia.org/resource/Heart_attack,1901-08-04
L. Beltran,Manila,http://dbpedia.org/resource/Heart_attack,1936-04-04
L. Tellegen,Netherlands,http://dbpedia.org/resource/Suicide,1881-11-26
L. Gish,London,http://dbpedia.org/resource/Cancer,1967-05-27
L. Costello,"Paterson, New Jersey",http://dbpedia.org/resource/Myocardial_infarction,1906-03-06
L. Pickford,Ontario,http://dbpedia.org/resource/Myocardial_infarction,1893-06-09
L. Geller,Oregon,http://dbpedia.org/resource/Heart_failure,1928-09-11
L. Greene,Ontario,http://dbpedia.org/resource/Pneumonia,1915-02-12
L. Music,Brooklyn,http://dbpedia.org/resource/Osteosarcoma,1937-05-02
L. McCallister,Los Angeles,http://dbpedia.org/resource/Congestive_heart_failure,1923-04-17
L. C. Jr.,Oklahoma City,http://dbpedia.org/resource/Heart_failure,1906-02-10
L. Chaney,"Colorado Springs, Colorado",http://dbpedia.org/resource/Hemorrhaging,1883-04-01
L. Wilson,Pittsburgh,http://dbpedia.org/resource/Pneumonia,1894-06-28
L. Nettleton,"Oak Park, Illinois",http://dbpedia.org/resource/Lung_cancer,1927-08-16
L. Maxwell,Ontario,http://dbpedia.org/resource/Bowel_cancer,1927-02-14
L. January,"McAllen, Texas",http://dbpedia.org/resource/Alzheimer's_disease,1913-10-05
L. Nolan,San Francisco,http://dbpedia.org/resource/Lung_cancer,1902-08-11
L. M. Kozloff,"Chicago, Illinois",http://dbpedia.org/resource/Heart_failure,1923-0-0
L. Bochner,Canada,http://dbpedia.org/resource/Cancer,1924-07-29
L. Bacon,"San Jose, California",http://dbpedia.org/resource/Cerebral_hemorrhage,1889-12-04
L. Scott,"Scranton, Pennsylvania",http://dbpedia.org/resource/Congestive_heart_failure,1922-09-29
L. Grey,California,http://dbpedia.org/resource/Cancer,1908-04-15
L. Blount,"Fayetteville, Arkansas",http://dbpedia.org/resource/Idiopathic_thrombocytopenic_purpura,1957-07-01
L. G. Wilson,New York,http://dbpedia.org/resource/Pneumonia,1924-03-22
L. Griffiths,Canada,http://dbpedia.org/resource/Breast_cancer,1953-10-07
L. Gary,California,http://dbpedia.org/resource/Brain_Cancer,1944-11-04
L. Christian,Mexico,http://dbpedia.org/resource/Colon_cancer,1923-11-13
L. Basquette,"San Mateo, California",http://dbpedia.org/resource/Lymphoma,1907-04-19
L. Pons,Draguignan,http://dbpedia.org/resource/Pancreatic_cancer,1898-04-12
L. Randolph,"Knoxville, Tennessee",http://dbpedia.org/resource/Cancer,1898-12-14
L. Gish,"Springfield, Ohio",http://dbpedia.org/resource/Heart_failure,1893-10-14
L. Palmer,Poznań,http://dbpedia.org/resource/Cancer,1914-05-24
L. Lamarque,Argentina,http://dbpedia.org/resource/Heart_attack,1908-11-24
L. Goudsmit,Belgium,http://dbpedia.org/resource/Cardiovascular,1913-03-15
L. Barker,New York,http://dbpedia.org/resource/Heart_attack,1919-05-08
L. Thomas,"Flushing, Queens",http://dbpedia.org/resource/Waldenstrom's_disease,1913-11-25
L. Collins,Cheshire,http://dbpedia.org/resource/Cancer,1946-05-27
L. Cody,"Berlin, New Hampshire",http://dbpedia.org/resource/Myocardial_infarction,1884-02-22
L. Nielsen,"Regina, Saskatchewan",http://dbpedia.org/resource/Pneumonia,1926-02-11
L. Crowther,England,http://dbpedia.org/resource/Heart_failure,1933-02-06
L. Carlson,"Mitchell, South Dakota",http://dbpedia.org/resource/Cancer,1933-02-24
L. Gore,Brooklyn,http://dbpedia.org/resource/Lung_cancer,1946-05-02
L. Stokowski,England,http://dbpedia.org/resource/Heart_attack,1882-04-18
L. Cimino,New York City,http://dbpedia.org/resource/Chronic_obstructive_pulmonary_disease,1917-11-04
L. Stone,"Salem, Oregon",http://dbpedia.org/resource/Cancer,1923-11-03
L. Nimoy,Boston,http://dbpedia.org/resource/Chronic_obstructive_pulmonary_disease,1931-03-26
L. Kibrick,Minneapolis,http://dbpedia.org/resource/Cancer,1924-09-06
L. Jackson,"Jacksonville, Florida",http://dbpedia.org/resource/Alzheimer's_disease,1928-02-07
L. Penn,Massachusetts,http://dbpedia.org/resource/Lung_cancer,1921-08-27
L. McKern,Australia,http://dbpedia.org/resource/Diabetes_mellitus,1920-03-16
L. Gorcey,New York City,http://dbpedia.org/resource/Liver_failure,1917-06-03
L. G. Carroll,England,http://dbpedia.org/resource/Cancer,1886-10-25
L. Weinrib,New York,http://dbpedia.org/resource/Stroke,1935-04-29
L. Horne,New York,http://dbpedia.org/resource/Congestive_Heart_Failure,1917-06-30
L. Lesser,York City F.C.,http://dbpedia.org/resource/Cancer,1922-12-03
L. Carlson,Alberta,http://dbpedia.org/resource/Myocardial_infarction,1937-09-02
L. V. Cleef,"Somerville, New Jersey",http://dbpedia.org/resource/Myocardial_infarction,1925-01-09
L. Strasberg,Austrian Poland,http://dbpedia.org/resource/Myocardial_infarction,1901-11-17
L. Remick,"Quincy, Massachusetts",http://dbpedia.org/resource/Hepatocellular_carcinoma,1935-12-14
L. Philips,New York City,http://dbpedia.org/resource/Progressive_supranuclear_palsy,1927-01-10
L. Patterson,British Columbia,http://dbpedia.org/resource/Congestive_heart_failure,1929-03-31
L. Marvin,New York,http://dbpedia.org/resource/Myocardial_infarction,1924-02-19
L. J. Cobb,New York City,http://dbpedia.org/resource/Heart_attack,1911-12-08
L. H. Oswald,Louisiana,http://dbpedia.org/resource/Gunshot_wound,1939-10-18
L. Bowman,Cincinnati,http://dbpedia.org/resource/Myocardial_infarction,1914-12-28
L. Joy,Louisiana,http://dbpedia.org/resource/Anemia,1893-11-07
L. Mason,"Larimore, North Dakota",http://dbpedia.org/resource/Myocardial_infarction,1903-07-02
L. Welk,North Dakota,http://dbpedia.org/resource/Bronchopneumonia,1903-03-11
L. Dobkin,New York,http://dbpedia.org/resource/Cardiovascular_disease,1919-09-16
L. Bartram,"St. Louis, Missouri",http://dbpedia.org/resource/Pancreatic_cancer,1958-05-16
L. Harvey,Lithuania,http://dbpedia.org/resource/Stomach_cancer,1928-10-01
L. Bacall,New York,http://dbpedia.org/resource/Stroke,1924-09-16
L. Parks,"Olathe, Kansas",http://dbpedia.org/resource/Myocardial_infarction,1914-12-13
L. Linville,"Ojai, California",http://dbpedia.org/resource/Pneumonia,1939-09-29
L. Keating,"St. Paul, Minnesota",http://dbpedia.org/resource/Leukemia,1899-06-13
L. Hovis,United States,http://dbpedia.org/resource/Esophageal_cancer,1936-02-20
L. Hagman,"Fort Worth, Texas",http://dbpedia.org/resource/Leukemia,1931-09-21
L. Fine,Pennsylvania,http://dbpedia.org/resource/Stroke,1902-10-05
L. Drake,"Tulsa, Oklahoma",http://dbpedia.org/resource/Polycythemia_vera,1949-02-21
L. Turner,Idaho,http://dbpedia.org/resource/Esophageal_cancer,1921-02-08
L. Morris,England,http://dbpedia.org/resource/Heart_attack,1930-03-11
