col0,col1,col2,col3
Chilgok-Unam Station,2,"Guam-dong,Buk District,Daegu",316
Children's Hall Station,2,"Hwanggeum-dong,Suseong District,Daegu",336
Centum City Station,2,"U-dong,Haeundae District,Busan",206
Buwon Station,2,"Buwon-dong,Gimhae",15
Busanjin Station,3,"Sujeong-dong,Dong District,Busan",115
Busan Station,2,"Choryang-dong,Dong District,Busan",113
Busan National University of Education Station,2,"Geoje-dong,Yeonje District,Busan",124
Busan Museum of Art Station,2,"U-dong,Haeundae District,Busan",205
Busan International Finance Center–Busan Bank Station,2,"Munhyeon-dong,Nam District,Busan",217
Buram Station,2,"Buram-dong,Gimhae",10
Buk-gu Office Station,2,"Wondae-dong,Seo District,Daegu",326
Bujeon Station,2,"Bujeon-dong,Busanjin District,Busan",120
Buam Station,2,"Beomcheon-dong,Busanjin District,Busan",220
Bonghwang Station,2,"Jeonha-dong,Gimhae",16
Beomnaegol Station,2,"Beomcheon-dong,Busanjin District,Busan",118
Beomil Station,2,"Beomil-dong,Dong District,Busan",117
Beomeosa Station,2,"Cheongnyong-dong,Geumjeong District,Busan",133
Beomeo Station,2,"Beomeo-dong,Suseong District,Daegu",233
Banyeo Agricultural Market Station,2,"Seokdae-dong,Haeundae District,Busan",409
Banseok Station,3,"Banseok-dong,Yuseong District,Daejeon",122
Bangogae Station,2,"Duryu-dong,Dalseo District,Daegu",228
Bakkai Station,2,"Wakkanai,Hokkaidō",W78
Baesan Station,2,"Yeonsan-dong,Yeonje District,Busan",303
Ansim Station,2,536-1 Goejeon-dong,146
Anpyeong Station,2,"Cheolma-myeon,Gijang County,Busan",414
Airport Station,2,"Sinchon-dong,Gwangsan District,Gwangju",115
