col0,col1,col2,col3,col4,col5,col6
Ukrainian Catholic Eparchy of Sambir–Drohobych,Ukrainian Catholic Archeparchy of Lviv,Ukrainian Catholic Archeparchy of Lviv,Ukrainian Catholic Archeparchy of Lviv,Ukrainian Catholic Archeparchy of Lviv,6900000000,6900000000
Ukrainian Catholic Eparchy of Kolomyia – Chernivtsi,Ukrainian Catholic Archeparchy of Ivano-Frankivsk,Ukrainian Catholic Archeparchy of Ivano-Frankivsk,Ukrainian Catholic Archeparchy of Ivano-Frankivsk,Ukrainian Catholic Archeparchy of Ivano-Frankivsk,14095000000,14095000000
Ukrainian Catholic Eparchy of Kamyanets-Podilskyi,Ukrainian Catholic Archeparchy of Ternopil–Zboriv,Ukrainian Catholic Archeparchy of Ternopil–Zboriv,Ukrainian Catholic Archeparchy of Ternopil–Zboriv,Ukrainian Catholic Archeparchy of Ternopil–Zboriv,20645000000,20645000000
Territorial Prelature of São Félix do Araguaia,Roman Catholic Archdiocese of Cuiabá,Roman Catholic Archdiocese of Cuiabá,Roman Catholic Archdiocese of Cuiabá,Roman Catholic Archdiocese of Cuiabá,150000000000,150000000000
Territorial Prelature of Jesús María del Nayar,Roman Catholic Archdiocese of Guadalajara,Roman Catholic Archdiocese of Guadalajara,Roman Catholic Archdiocese of Guadalajara,Roman Catholic Archdiocese of Guadalajara,25008925193,25008925193
Territorial Prelature of Cancún-Chetumal,Roman Catholic Archdiocese of Yucatán,Roman Catholic Archdiocese of Yucatán,Roman Catholic Archdiocese of Yucatán,Roman Catholic Archdiocese of Yucatán,50862186510,50862186510
Territorial Abbey of Montevergine,Roman Catholic Archdiocese of Benevento,Roman Catholic Archdiocese of Benevento,Roman Catholic Archdiocese of Benevento,Roman Catholic Archdiocese of Benevento,48000000,48000000
Syro-Malankara Catholic Eparchy of Puthur,Syro-Malankara Archdiocese of Tiruvalla,Syro-Malankara Archdiocese of Tiruvalla,Syro-Malankara Archdiocese of Tiruvalla,Syro-Malankara Archdiocese of Tiruvalla,51950000000,51950000000
Syro-Malankara Catholic Eparchy of Pathanamthitta,Pathanamthitta,Pathanamthitta,Pathanamthitta,Pathanamthitta,2100000000,2100000000
Syro-Malankara Catholic Eparchy of Marthandom,Syro-Malankara Catholic Major Archeparchy of Trivandrum,Syro-Malankara Catholic Major Archeparchy of Trivandrum,Syro-Malankara Catholic Major Archeparchy of Trivandrum,Syro-Malankara Catholic Major Archeparchy of Trivandrum,1664000000,1664000000
Syro-Malabar Eparchy of Palai,Syro-Malabar Catholic Archeparchy of Changanassery,Syro-Malabar Catholic Archeparchy of Changanassery,Syro-Malabar Catholic Archeparchy of Changanassery,Syro-Malabar Catholic Archeparchy of Changanassery,2017000000,2017000000
Syro-Malabar Catholic Eparchy of Ujjain,Roman Catholic Archdiocese of Bhopal,Roman Catholic Archdiocese of Bhopal,Roman Catholic Archdiocese of Bhopal,Roman Catholic Archdiocese of Bhopal,18225000000,18225000000
Syro-Malabar Catholic Eparchy of Thuckalay,Syro-Malabar Catholic Archeparchy of Changanassery,Syro-Malabar Catholic Archeparchy of Changanassery,Syro-Malabar Catholic Archeparchy of Changanassery,Syro-Malabar Catholic Archeparchy of Changanassery,1794000000,1794000000
Syro-Malabar Catholic Eparchy of Satna,Roman Catholic Archdiocese of Bhopal,Roman Catholic Archdiocese of Bhopal,Roman Catholic Archdiocese of Bhopal,Roman Catholic Archdiocese of Bhopal,45188000000,45188000000
Syro-Malabar Catholic Eparchy of Sagar,Roman Catholic Archdiocese of Bhopal,Roman Catholic Archdiocese of Bhopal,Roman Catholic Archdiocese of Bhopal,Roman Catholic Archdiocese of Bhopal,39020000000,39020000000
Syro-Malabar Catholic Eparchy of Rajkot,Roman Catholic Archdiocese of Gandhinagar,Roman Catholic Archdiocese of Gandhinagar,Roman Catholic Archdiocese of Gandhinagar,Roman Catholic Archdiocese of Gandhinagar,109950000000,109950000000
Syro-Malabar Catholic Eparchy of Kothamangalam,Syro-Malabar Catholic Archdiocese of Ernakulam-Angamaly,Syro-Malabar Catholic Archdiocese of Ernakulam-Angamaly,Syro-Malabar Catholic Archdiocese of Ernakulam-Angamaly,Syro-Malabar Catholic Archdiocese of Ernakulam-Angamaly,4840000000,4840000000
Syro-Malabar Catholic Eparchy of Kanjirappally,Syro-Malabar Catholic Archeparchy of Changanassery,Syro-Malabar Catholic Archeparchy of Changanassery,Syro-Malabar Catholic Archeparchy of Changanassery,Syro-Malabar Catholic Archeparchy of Changanassery,2017000000,2017000000
Syro-Malabar Catholic Eparchy of Jagdalpur,Roman Catholic Archdiocese of Raipur,Roman Catholic Archdiocese of Raipur,Roman Catholic Archdiocese of Raipur,Roman Catholic Archdiocese of Raipur,39176000000,39176000000
Syro-Malabar Catholic Eparchy of Idukki,Syro-Malabar Catholic Archdiocese of Ernakulam-Angamaly,Syro-Malabar Catholic Archdiocese of Ernakulam-Angamaly,Syro-Malabar Catholic Archdiocese of Ernakulam-Angamaly,Syro-Malabar Catholic Archdiocese of Ernakulam-Angamaly,3000000000,3000000000
Syro-Malabar Catholic Eparchy of Gorakhpur,Roman Catholic Archdiocese of Agra,Roman Catholic Archdiocese of Agra,Roman Catholic Archdiocese of Agra,Roman Catholic Archdiocese of Agra,19070000000,19070000000
Syro-Malabar Catholic Eparchy of Chanda,Roman Catholic Archdiocese of Nagpur,Roman Catholic Archdiocese of Nagpur,Roman Catholic Archdiocese of Nagpur,Roman Catholic Archdiocese of Nagpur,32233000000,32233000000
Syro-Malabar Catholic Eparchy of Bijnor,Roman Catholic Archdiocese of Agra,Roman Catholic Archdiocese of Agra,Roman Catholic Archdiocese of Agra,Roman Catholic Archdiocese of Agra,30664000000,30664000000
Syro-Malabar Catholic Eparchy of Bhadravathi,Syro-Malabar Catholic Archeparchy of Tellicherry,Syro-Malabar Catholic Archeparchy of Tellicherry,Syro-Malabar Catholic Archeparchy of Tellicherry,Syro-Malabar Catholic Archeparchy of Tellicherry,8465000000,8465000000
Syro-Malabar Catholic Eparchy of Belthangady,Syro-Malabar Catholic Archeparchy of Tellicherry,Syro-Malabar Catholic Archeparchy of Tellicherry,Syro-Malabar Catholic Archeparchy of Tellicherry,Syro-Malabar Catholic Archeparchy of Tellicherry,12543000000,12543000000
Syro-Malabar Catholic Eparchy of Adilabad,Roman Catholic Archdiocese of Hyderabad,Roman Catholic Archdiocese of Hyderabad,Roman Catholic Archdiocese of Hyderabad,Roman Catholic Archdiocese of Hyderabad,16210000000,16210000000
Syro-Malabar Catholic Archeparchy of Changanassery,Changanassery,Changanassery,Changanassery,Changanassery,24595000000,24595000000
Suburbicarian Diocese of Porto e Santa Rufina,Diocese of Rome,Diocese of Rome,Diocese of Rome,Diocese of Rome,2000000000,2000000000
Romanian Catholic Eparchy of Lugoj,Greek Catholic Archdiocese of Făgăraş and Alba Iulia,Greek Catholic Archdiocese of Făgăraş and Alba Iulia,Greek Catholic Archdiocese of Făgăraş and Alba Iulia,Greek Catholic Archdiocese of Făgăraş and Alba Iulia,32710000000,32710000000
Roman Catholicism in Saint Helena,Holy See,Holy See,Holy See,Holy See,308000000,308000000
Roman Catholic Territorial Prelature of Yauyos,Roman Catholic Archdiocese of Lima,Roman Catholic Archdiocese of Lima,Roman Catholic Archdiocese of Lima,Roman Catholic Archdiocese of Lima,15516000000,15516000000
Roman Catholic Territorial Prelature of Xingu,Roman Catholic Archdiocese of Belém do Pará,Roman Catholic Archdiocese of Belém do Pará,Roman Catholic Archdiocese of Belém do Pará,Roman Catholic Archdiocese of Belém do Pará,368092000000,368092000000
Roman Catholic Territorial Prelature of Tefé,Roman Catholic Archdiocese of Manaus,Roman Catholic Archdiocese of Manaus,Roman Catholic Archdiocese of Manaus,Roman Catholic Archdiocese of Manaus,263835000000,263835000000
Roman Catholic Territorial Prelature of Schneidemühl,Eastern German Ecclesiastical Province,Eastern German Ecclesiastical Province,Eastern German Ecclesiastical Province,Eastern German Ecclesiastical Province,9601000000,9601000000
Roman Catholic Territorial Prelature of Marawi,Roman Catholic Archdiocese of Ozamiz,Roman Catholic Archdiocese of Ozamiz,Roman Catholic Archdiocese of Ozamiz,Roman Catholic Archdiocese of Ozamiz,4587000000,4587000000
Roman Catholic Territorial Prelature of Marajó,Roman Catholic Archdiocese of Belém do Pará,Roman Catholic Archdiocese of Belém do Pará,Roman Catholic Archdiocese of Belém do Pará,Roman Catholic Archdiocese of Belém do Pará,105000000000,105000000000
Roman Catholic Territorial Prelature of Lábrea,Roman Catholic Archdiocese of Porto Velho,Roman Catholic Archdiocese of Porto Velho,Roman Catholic Archdiocese of Porto Velho,Roman Catholic Archdiocese of Porto Velho,230240000000,230240000000
Roman Catholic Territorial Prelature of Loreto,Roman Catholic Archdiocese of Ancona-Osimo,Roman Catholic Archdiocese of Ancona-Osimo,Roman Catholic Archdiocese of Ancona-Osimo,Roman Catholic Archdiocese of Ancona-Osimo,17000000,17000000
Roman Catholic Territorial Prelature of Lábrea,Roman Catholic Archdiocese of Porto Velho,Roman Catholic Archdiocese of Porto Velho,Roman Catholic Archdiocese of Porto Velho,Roman Catholic Archdiocese of Porto Velho,230240000000,230240000000
Roman Catholic Territorial Prelature of Itaituba,Roman Catholic Archdiocese of Belém do Pará,Roman Catholic Archdiocese of Belém do Pará,Roman Catholic Archdiocese of Belém do Pará,Roman Catholic Archdiocese of Belém do Pará,175000000000,175000000000
Roman Catholic Territorial Prelature of Itacoatiara,Roman Catholic Archdiocese of Manaus,Roman Catholic Archdiocese of Manaus,Roman Catholic Archdiocese of Manaus,Roman Catholic Archdiocese of Manaus,83012000000,83012000000
Roman Catholic Territorial Prelature of Infanta,Roman Catholic Archdiocese of Lipa,Roman Catholic Archdiocese of Lipa,Roman Catholic Archdiocese of Lipa,Roman Catholic Archdiocese of Lipa,7189000000,7189000000
Roman Catholic Territorial Prelature of Illapel,Roman Catholic Archdiocese of La Serena,Roman Catholic Archdiocese of La Serena,Roman Catholic Archdiocese of La Serena,Roman Catholic Archdiocese of La Serena,10350000000,10350000000
Roman Catholic Territorial Prelature of Humahuaca,Roman Catholic Archdiocese of Salta,Roman Catholic Archdiocese of Salta,Roman Catholic Archdiocese of Salta,Roman Catholic Archdiocese of Salta,34000000000,34000000000
Roman Catholic Territorial Prelature of Esquel,Roman Catholic Archdiocese of Bahía Blanca,Roman Catholic Archdiocese of Bahía Blanca,Roman Catholic Archdiocese of Bahía Blanca,Roman Catholic Archdiocese of Bahía Blanca,78074000000,78074000000
Roman Catholic Territorial Prelature of El Salto,Roman Catholic Archdiocese of Durango,Roman Catholic Archdiocese of Durango,Roman Catholic Archdiocese of Durango,Roman Catholic Archdiocese of Durango,36013784674,36013784674
Roman Catholic Territorial Prelature of Deán Funes,Roman Catholic Archdiocese of Córdoba,Roman Catholic Archdiocese of Córdoba,Roman Catholic Archdiocese of Córdoba,Roman Catholic Archdiocese of Córdoba,28700000000,28700000000
Roman Catholic Territorial Prelature of Cristalândia,Roman Catholic Archdiocese of Palmas,Roman Catholic Archdiocese of Palmas,Roman Catholic Archdiocese of Palmas,Roman Catholic Archdiocese of Palmas,66365000000,66365000000
Roman Catholic Territorial Prelature of Corocoro,Roman Catholic Archdiocese of La Paz,Roman Catholic Archdiocese of La Paz,Roman Catholic Archdiocese of La Paz,Roman Catholic Archdiocese of La Paz,28823000000,28823000000
Roman Catholic Territorial Prelature of Caravelí,Roman Catholic Archdiocese of Ayacucho,Roman Catholic Archdiocese of Ayacucho,Roman Catholic Archdiocese of Ayacucho,Roman Catholic Archdiocese of Ayacucho,29229000000,29229000000
Roman Catholic Territorial Prelature of Cafayate,Roman Catholic Archdiocese of Salta,Roman Catholic Archdiocese of Salta,Roman Catholic Archdiocese of Salta,Roman Catholic Archdiocese of Salta,40000000000,40000000000
Roman Catholic Territorial Prelature of Borba,Roman Catholic Archdiocese of Manaus,Roman Catholic Archdiocese of Manaus,Roman Catholic Archdiocese of Manaus,Roman Catholic Archdiocese of Manaus,170000000000,170000000000
Roman Catholic Territorial Prelature of Bocas del Toro,Roman Catholic Archdiocese of Panamá,Roman Catholic Archdiocese of Panamá,Roman Catholic Archdiocese of Panamá,Roman Catholic Archdiocese of Panamá,16671000000,16671000000
Roman Catholic Territorial Prelature of Batanes,Roman Catholic Archdiocese of Tuguegarao,Roman Catholic Archdiocese of Tuguegarao,Roman Catholic Archdiocese of Tuguegarao,Roman Catholic Archdiocese of Tuguegarao,784000000,784000000
Roman Catholic Territorial Prelature of Ayaviri,Roman Catholic Diocese of Puno,Roman Catholic Diocese of Puno,Roman Catholic Diocese of Puno,Roman Catholic Diocese of Puno,32083000000,32083000000
Roman Catholic Territorial Prelature of Aiquile,Roman Catholic Archdiocese of Cochabamba,Roman Catholic Archdiocese of Cochabamba,Roman Catholic Archdiocese of Cochabamba,Roman Catholic Archdiocese of Cochabamba,23325000000,23325000000
Roman Catholic Suburbicarian Diocese of Sabina-Poggio Mirteto,Diocese of Rome,Diocese of Rome,Diocese of Rome,Diocese of Rome,918000000,918000000
Roman Catholic Suburbicarian Diocese of Palestrina,Diocese of Rome,Diocese of Rome,Diocese of Rome,Diocese of Rome,380000000,380000000
Roman Catholic Suburbicarian Diocese of Frascati,Diocese of Rome,Diocese of Rome,Diocese of Rome,Diocese of Rome,168000000,168000000
Roman Catholic Suburbicarian Diocese of Albano,Diocese of Rome,Diocese of Rome,Diocese of Rome,Diocese of Rome,661000000,661000000
Roman Catholic Diocese of Šibenik,Roman Catholic Archdiocese of Split-Makarska,Roman Catholic Archdiocese of Split-Makarska,Roman Catholic Archdiocese of Split-Makarska,Roman Catholic Archdiocese of Split-Makarska,3246000000,3246000000
Roman Catholic Diocese of Šiauliai,Roman Catholic Archdiocese of Kaunas,Roman Catholic Archdiocese of Kaunas,Roman Catholic Archdiocese of Kaunas,Roman Catholic Archdiocese of Kaunas,7696000000,7696000000
Roman Catholic Diocese of Świdnica,Roman Catholic Archdiocese of Wrocław,Roman Catholic Archdiocese of Wrocław,Roman Catholic Archdiocese of Wrocław,Roman Catholic Archdiocese of Wrocław,4500000000,4500000000
Roman Catholic Diocese of Łowicz,Roman Catholic Archdiocese of Łódź,Roman Catholic Archdiocese of Łódź,Roman Catholic Archdiocese of Łódź,Roman Catholic Archdiocese of Łódź,5806000000,5806000000
Roman Catholic Diocese of Đà Nẵng,Roman Catholic Archdiocese of Huế,Roman Catholic Archdiocese of Huế,Roman Catholic Archdiocese of Huế,Roman Catholic Archdiocese of Huế,11690000000,11690000000
Roman Catholic Diocese of Đà Lạt,Roman Catholic Archdiocese of Ho Chi Minh city,Roman Catholic Archdiocese of Ho Chi Minh city,Roman Catholic Archdiocese of Ho Chi Minh city,Roman Catholic Archdiocese of Ho Chi Minh city,9764000000,9764000000
Roman Catholic Diocese of České Budějovice,Roman Catholic Archdiocese of Prague,Roman Catholic Archdiocese of Prague,Roman Catholic Archdiocese of Prague,Roman Catholic Archdiocese of Prague,12500000000,12500000000
Roman Catholic Diocese of Óbidos,Roman Catholic Archdiocese of Belém do Pará,Roman Catholic Archdiocese of Belém do Pará,Roman Catholic Archdiocese of Belém do Pará,Roman Catholic Archdiocese of Belém do Pará,182960000000,182960000000
Roman Catholic Diocese of Évry-Corbeil-Essonnes,Roman Catholic Archdiocese of Paris,Roman Catholic Archdiocese of Paris,Roman Catholic Archdiocese of Paris,Roman Catholic Archdiocese of Paris,1819000000,1819000000
Roman Catholic Diocese of Évreux,Roman Catholic Archdiocese of Rouen,Roman Catholic Archdiocese of Rouen,Roman Catholic Archdiocese of Rouen,Roman Catholic Archdiocese of Rouen,6040000000,6040000000
Roman Catholic Diocese of Ávila,Roman Catholic Archdiocese of Valladolid,Roman Catholic Archdiocese of Valladolid,Roman Catholic Archdiocese of Valladolid,Roman Catholic Archdiocese of Valladolid,8048000000,8048000000
Roman Catholic Diocese of Zé Doca,Roman Catholic Archdiocese of São Luís do Maranhão,Roman Catholic Archdiocese of São Luís do Maranhão,Roman Catholic Archdiocese of São Luís do Maranhão,Roman Catholic Archdiocese of São Luís do Maranhão,40000000000,40000000000
Roman Catholic Diocese of Zárate-Campana,Roman Catholic Archdiocese of La Plata in Argentina,Roman Catholic Archdiocese of La Plata in Argentina,Roman Catholic Archdiocese of La Plata in Argentina,Roman Catholic Archdiocese of La Plata in Argentina,5903000000,5903000000
Roman Catholic Diocese of Zrenjanin,Roman Catholic Archdiocese of Belgrade,Roman Catholic Archdiocese of Belgrade,Roman Catholic Archdiocese of Belgrade,Roman Catholic Archdiocese of Belgrade,9387000000,9387000000
Roman Catholic Diocese of Zipaquirá,Roman Catholic Archdiocese of Bogotá,Roman Catholic Archdiocese of Bogotá,Roman Catholic Archdiocese of Bogotá,Roman Catholic Archdiocese of Bogotá,7163000000,7163000000
Roman Catholic Diocese of Zielona Góra-Gorzów,Roman Catholic Archdiocese of Szczecin-Kamień,Roman Catholic Archdiocese of Szczecin-Kamień,Roman Catholic Archdiocese of Szczecin-Kamień,Roman Catholic Archdiocese of Szczecin-Kamień,10805000000,10805000000
Roman Catholic Diocese of Zhumadian,Roman Catholic Archdiocese of Kaifeng,Roman Catholic Archdiocese of Kaifeng,Roman Catholic Archdiocese of Kaifeng,Roman Catholic Archdiocese of Kaifeng,12700000000,12700000000
Roman Catholic Diocese of Zhoucun,Roman Catholic Archdiocese of Jinan,Roman Catholic Archdiocese of Jinan,Roman Catholic Archdiocese of Jinan,Roman Catholic Archdiocese of Jinan,5000000000,5000000000
Roman Catholic Diocese of Zhengzhou,Roman Catholic Archdiocese of Kaifeng,Roman Catholic Archdiocese of Kaifeng,Roman Catholic Archdiocese of Kaifeng,Roman Catholic Archdiocese of Kaifeng,18000000000,18000000000
Roman Catholic Diocese of Zaria,Roman Catholic Archdiocese of Kaduna,Roman Catholic Archdiocese of Kaduna,Roman Catholic Archdiocese of Kaduna,Roman Catholic Archdiocese of Kaduna,18000000000,18000000000
Roman Catholic Diocese of Zamość-Lubaczów,Roman Catholic Archdiocese of Przemyśl,Roman Catholic Archdiocese of Przemyśl,Roman Catholic Archdiocese of Przemyśl,Roman Catholic Archdiocese of Przemyśl,8144000000,8144000000
Roman Catholic Diocese of Zamora in Mexico,Roman Catholic Archdiocese of Morelia,Roman Catholic Archdiocese of Morelia,Roman Catholic Archdiocese of Morelia,Roman Catholic Archdiocese of Morelia,12004594891,12004594891
Roman Catholic Diocese of Zamość-Lubaczów,Roman Catholic Archdiocese of Przemyśl,Roman Catholic Archdiocese of Przemyśl,Roman Catholic Archdiocese of Przemyśl,Roman Catholic Archdiocese of Przemyśl,8144000000,8144000000
Roman Catholic Diocese of Zacatecoluca,Roman Catholic Archdiocese of San Salvador,Roman Catholic Archdiocese of San Salvador,Roman Catholic Archdiocese of San Salvador,Roman Catholic Archdiocese of San Salvador,1536000000,1536000000
Roman Catholic Diocese of Zacatecas,Roman Catholic Archdiocese of San Luis Potosí,Roman Catholic Archdiocese of San Luis Potosí,Roman Catholic Archdiocese of San Luis Potosí,Roman Catholic Archdiocese of San Luis Potosí,59020649058,59020649058
Roman Catholic Diocese of Zacapa y Santo Cristo de Esquipulas,Roman Catholic Archdiocese of Guatemala,Roman Catholic Archdiocese of Guatemala,Roman Catholic Archdiocese of Guatemala,Roman Catholic Archdiocese of Guatemala,5598000000,5598000000
Roman Catholic Diocese of Zé Doca,Roman Catholic Archdiocese of São Luís do Maranhão,Roman Catholic Archdiocese of São Luís do Maranhão,Roman Catholic Archdiocese of São Luís do Maranhão,Roman Catholic Archdiocese of São Luís do Maranhão,40000000000,40000000000
Roman Catholic Diocese of Zárate-Campana,Roman Catholic Archdiocese of La Plata in Argentina,Roman Catholic Archdiocese of La Plata in Argentina,Roman Catholic Archdiocese of La Plata in Argentina,Roman Catholic Archdiocese of La Plata in Argentina,5903000000,5903000000
Roman Catholic Diocese of Youngstown,Archdiocese of Cincinnati,Archdiocese of Cincinnati,Archdiocese of Cincinnati,Archdiocese of Cincinnati,8816319527,8816319527
Roman Catholic Diocese of Yoro,Roman Catholic Archdiocese of Tegucigalpa,Roman Catholic Archdiocese of Tegucigalpa,Roman Catholic Archdiocese of Tegucigalpa,Roman Catholic Archdiocese of Tegucigalpa,7781000000,7781000000
Roman Catholic Diocese of Yopal,Roman Catholic Archdiocese of Tunja,Roman Catholic Archdiocese of Tunja,Roman Catholic Archdiocese of Tunja,Roman Catholic Archdiocese of Tunja,17725000000,17725000000
Roman Catholic Diocese of Yola,Roman Catholic Archdiocese of Jos,Roman Catholic Archdiocese of Jos,Roman Catholic Archdiocese of Jos,Roman Catholic Archdiocese of Jos,32296000000,32296000000
Roman Catholic Diocese of Yokohama,Roman Catholic Archdiocese of Tokyo,Roman Catholic Archdiocese of Tokyo,Roman Catholic Archdiocese of Tokyo,Roman Catholic Archdiocese of Tokyo,28246000000,28246000000
Roman Catholic Diocese of Yizhou,Roman Catholic Archdiocese of Jinan,Roman Catholic Archdiocese of Jinan,Roman Catholic Archdiocese of Jinan,Roman Catholic Archdiocese of Jinan,18000000000,18000000000
Roman Catholic Diocese of Yichang,Roman Catholic Archdiocese of Hankou,Roman Catholic Archdiocese of Hankou,Roman Catholic Archdiocese of Hankou,Roman Catholic Archdiocese of Hankou,28000000000,28000000000
Roman Catholic Diocese of Yarmouth,Nova Scotia,Nova Scotia,Nova Scotia,Nova Scotia,32150000000,32150000000
Roman Catholic Diocese of Yanzhou,Roman Catholic Archdiocese of Jinan,Roman Catholic Archdiocese of Jinan,Roman Catholic Archdiocese of Jinan,Roman Catholic Archdiocese of Jinan,25000000000,25000000000
Roman Catholic Diocese of Yanggu,Roman Catholic Archdiocese of Jinan,Roman Catholic Archdiocese of Jinan,Roman Catholic Archdiocese of Jinan,Roman Catholic Archdiocese of Jinan,3244000000,3244000000
Roman Catholic Diocese of Xuân Lộc,Roman Catholic Archdiocese of Ho Chi Minh city,Roman Catholic Archdiocese of Ho Chi Minh city,Roman Catholic Archdiocese of Ho Chi Minh city,Roman Catholic Archdiocese of Ho Chi Minh city,5965000000,5965000000
Roman Catholic Diocese of Xiwanzi,Roman Catholic Archdiocese of Suiyuan,Roman Catholic Archdiocese of Suiyuan,Roman Catholic Archdiocese of Suiyuan,Roman Catholic Archdiocese of Suiyuan,250000000000,250000000000
Roman Catholic Diocese of Xinyang,Roman Catholic Archdiocese of Kaifeng,Roman Catholic Archdiocese of Kaifeng,Roman Catholic Archdiocese of Kaifeng,Roman Catholic Archdiocese of Kaifeng,30000000000,30000000000
Roman Catholic Diocese of Xianxian,Roman Catholic Archdiocese of Beijing,Roman Catholic Archdiocese of Beijing,Roman Catholic Archdiocese of Beijing,Roman Catholic Archdiocese of Beijing,8400000000,8400000000
Roman Catholic Diocese of Xiamen,Roman Catholic Archdiocese of Fuzhou,Roman Catholic Archdiocese of Fuzhou,Roman Catholic Archdiocese of Fuzhou,Roman Catholic Archdiocese of Fuzhou,30000000000,30000000000
Roman Catholic Diocese of Würzburg,Roman Catholic Archdiocese of Bamberg,Roman Catholic Archdiocese of Bamberg,Roman Catholic Archdiocese of Bamberg,Roman Catholic Archdiocese of Bamberg,8532000000,8532000000
Roman Catholic Diocese of Wrexham,Roman Catholic Archdiocese of Cardiff,Roman Catholic Archdiocese of Cardiff,Roman Catholic Archdiocese of Cardiff,Roman Catholic Archdiocese of Cardiff,8361000000,8361000000
Roman Catholic Diocese of Wonju,Roman Catholic Archdiocese of Seoul,Roman Catholic Archdiocese of Seoul,Roman Catholic Archdiocese of Seoul,Roman Catholic Archdiocese of Seoul,8036000000,8036000000
Roman Catholic Diocese of Winona,Archdiocese of Saint Paul and Minneapolis,Archdiocese of Saint Paul and Minneapolis,Archdiocese of Saint Paul and Minneapolis,Archdiocese of Saint Paul and Minneapolis,31810233971,31810233971
Roman Catholic Diocese of Wilmington,Archdiocese of Baltimore,Archdiocese of Baltimore,Archdiocese of Baltimore,Archdiocese of Baltimore,5375000000,5375000000
Roman Catholic Diocese of Willemstad,Roman Catholic Archdiocese of Port of Spain,Roman Catholic Archdiocese of Port of Spain,Roman Catholic Archdiocese of Port of Spain,Roman Catholic Archdiocese of Port of Spain,993000000,993000000
Roman Catholic Diocese of Wichita,Archdiocese of Kansas City in Kansas,Archdiocese of Kansas City in Kansas,Archdiocese of Kansas City in Kansas,Archdiocese of Kansas City in Kansas,51854151957,51854151957
Roman Catholic Diocese of Wheeling–Charleston,Archdiocese of Baltimore,Archdiocese of Baltimore,Archdiocese of Baltimore,Archdiocese of Baltimore,62778721806,62778721806
Roman Catholic Diocese of Weetebula,Roman Catholic Archdiocese of Kupang,Roman Catholic Archdiocese of Kupang,Roman Catholic Archdiocese of Kupang,Roman Catholic Archdiocese of Kupang,11052000000,11052000000
Roman Catholic Diocese of Warri,Roman Catholic Archdiocese of Benin City,Roman Catholic Archdiocese of Benin City,Roman Catholic Archdiocese of Benin City,Roman Catholic Archdiocese of Benin City,15000000000,15000000000
Roman Catholic Diocese of Warangal,Roman Catholic Archdiocese of Hyderabad,Roman Catholic Archdiocese of Hyderabad,Roman Catholic Archdiocese of Hyderabad,Roman Catholic Archdiocese of Hyderabad,24702000000,24702000000
Roman Catholic Diocese of Wanxian,Roman Catholic Archdiocese of Chongqing,Roman Catholic Archdiocese of Chongqing,Roman Catholic Archdiocese of Chongqing,Roman Catholic Archdiocese of Chongqing,20000000000,20000000000
Roman Catholic Diocese of Wallis et Futuna,Roman Catholic Archdiocese of Nouméa,Roman Catholic Archdiocese of Nouméa,Roman Catholic Archdiocese of Nouméa,Roman Catholic Archdiocese of Nouméa,256000000,256000000
Roman Catholic Diocese of Würzburg,Roman Catholic Archdiocese of Bamberg,Roman Catholic Archdiocese of Bamberg,Roman Catholic Archdiocese of Bamberg,Roman Catholic Archdiocese of Bamberg,8532000000,8532000000
Roman Catholic Diocese of Vĩnh Long,Roman Catholic Archdiocese of Ho Chi Minh city,Roman Catholic Archdiocese of Ho Chi Minh city,Roman Catholic Archdiocese of Ho Chi Minh city,Roman Catholic Archdiocese of Ho Chi Minh city,6772000000,6772000000
Roman Catholic Diocese of Vélez,Roman Catholic Archdiocese of Bucaramanga,Roman Catholic Archdiocese of Bucaramanga,Roman Catholic Archdiocese of Bucaramanga,Roman Catholic Archdiocese of Bucaramanga,4958000000,4958000000
Roman Catholic Diocese of Vác,Roman Catholic Archdiocese of Eger,Roman Catholic Archdiocese of Eger,Roman Catholic Archdiocese of Eger,Roman Catholic Archdiocese of Eger,8800000000,8800000000
Roman Catholic Diocese of Volterra,Roman Catholic Archdiocese of Pisa,Roman Catholic Archdiocese of Pisa,Roman Catholic Archdiocese of Pisa,Roman Catholic Archdiocese of Pisa,1743000000,1743000000
Roman Catholic Diocese of Viviers,Roman Catholic Archdiocese of Lyon,Roman Catholic Archdiocese of Lyon,Roman Catholic Archdiocese of Lyon,Roman Catholic Archdiocese of Lyon,5556000000,5556000000
Roman Catholic Diocese of Vittorio Veneto,Roman Catholic Archdiocese of Venice,Roman Catholic Archdiocese of Venice,Roman Catholic Archdiocese of Venice,Roman Catholic Archdiocese of Venice,1420000000,1420000000
Roman Catholic Diocese of Vitoria,Roman Catholic Archdiocese of Burgos,Roman Catholic Archdiocese of Burgos,Roman Catholic Archdiocese of Burgos,Roman Catholic Archdiocese of Burgos,3282000000,3282000000
Roman Catholic Diocese of Viterbo,Holy See,Holy See,Holy See,Holy See,2161000000,2161000000
Roman Catholic Diocese of Vitebsk,Roman Catholic Archdiocese of Minsk-Mohilev,Roman Catholic Archdiocese of Minsk-Mohilev,Roman Catholic Archdiocese of Minsk-Mohilev,Roman Catholic Archdiocese of Minsk-Mohilev,40000000000,40000000000
Roman Catholic Diocese of Viseu,Roman Catholic Archdiocese of Braga,Roman Catholic Archdiocese of Braga,Roman Catholic Archdiocese of Braga,Roman Catholic Archdiocese of Braga,3400000000,3400000000
Roman Catholic Diocese of Virac,Roman Catholic Archdiocese of Caceres,Roman Catholic Archdiocese of Caceres,Roman Catholic Archdiocese of Caceres,Roman Catholic Archdiocese of Caceres,1511000000,1511000000
Roman Catholic Diocese of Vinh,Roman Catholic Archdiocese of Hanoi,Roman Catholic Archdiocese of Hanoi,Roman Catholic Archdiocese of Hanoi,Roman Catholic Archdiocese of Hanoi,30594000000,30594000000
Roman Catholic Diocese of Villarrica,Roman Catholic Archdiocese of Concepción,Roman Catholic Archdiocese of Concepción,Roman Catholic Archdiocese of Concepción,Roman Catholic Archdiocese of Concepción,18630000000,18630000000
Roman Catholic Diocese of Villa de la Concepción del Río Cuarto,Roman Catholic Archdiocese of Córdoba,Roman Catholic Archdiocese of Córdoba,Roman Catholic Archdiocese of Córdoba,Roman Catholic Archdiocese of Córdoba,58519000000,58519000000
Roman Catholic Diocese of Villa María,Roman Catholic Archdiocese of Córdoba,Roman Catholic Archdiocese of Córdoba,Roman Catholic Archdiocese of Córdoba,Roman Catholic Archdiocese of Córdoba,28000000000,28000000000
Roman Catholic Diocese of Vila Real,Roman Catholic Archdiocese of Braga,Roman Catholic Archdiocese of Braga,Roman Catholic Archdiocese of Braga,Roman Catholic Archdiocese of Braga,4237000000,4237000000
Roman Catholic Diocese of Vijayawada,Roman Catholic Archdiocese of Visakhapatnam,Roman Catholic Archdiocese of Visakhapatnam,Roman Catholic Archdiocese of Visakhapatnam,Roman Catholic Archdiocese of Visakhapatnam,8734000000,8734000000
Roman Catholic Diocese of Vijayapuram,Latin Catholic Archdiocese of Verapoly,Latin Catholic Archdiocese of Verapoly,Latin Catholic Archdiocese of Verapoly,Latin Catholic Archdiocese of Verapoly,9000000000,9000000000
Roman Catholic Diocese of Vigevano,Roman Catholic Archdiocese of Milan,Roman Catholic Archdiocese of Milan,Roman Catholic Archdiocese of Milan,Roman Catholic Archdiocese of Milan,1509000000,1509000000
Roman Catholic Diocese of Viedma,Roman Catholic Archdiocese of Bahía Blanca,Roman Catholic Archdiocese of Bahía Blanca,Roman Catholic Archdiocese of Bahía Blanca,Roman Catholic Archdiocese of Bahía Blanca,89000000000,89000000000
Roman Catholic Diocese of Victoria in Texas,Archdiocese of Galveston-Houston,Archdiocese of Galveston-Houston,Archdiocese of Galveston-Houston,Archdiocese of Galveston-Houston,24887195752,24887195752
Roman Catholic Diocese of Victoria in Canada,Roman Catholic Archdiocese of Vancouver,Roman Catholic Archdiocese of Vancouver,Roman Catholic Archdiocese of Vancouver,Roman Catholic Archdiocese of Vancouver,95275000000,95275000000
Roman Catholic Diocese of Vicenza,Roman Catholic Archdiocese of Venice,Roman Catholic Archdiocese of Venice,Roman Catholic Archdiocese of Venice,Roman Catholic Archdiocese of Venice,2200000000,2200000000
Roman Catholic Diocese of Vic,Roman Catholic Archdiocese of Tarragona,Roman Catholic Archdiocese of Tarragona,Roman Catholic Archdiocese of Tarragona,Roman Catholic Archdiocese of Tarragona,3964000000,3964000000
Roman Catholic Diocese of Viana do Castelo,Roman Catholic Archdiocese of Braga,Roman Catholic Archdiocese of Braga,Roman Catholic Archdiocese of Braga,Roman Catholic Archdiocese of Braga,2108000000,2108000000
"Roman Catholic Diocese of Viana, Brazil",Roman Catholic Archdiocese of São Luís do Maranhão,Roman Catholic Archdiocese of São Luís do Maranhão,Roman Catholic Archdiocese of São Luís do Maranhão,Roman Catholic Archdiocese of São Luís do Maranhão,23118000000,23118000000
Roman Catholic Diocese of Versailles,Roman Catholic Archdiocese of Paris,Roman Catholic Archdiocese of Paris,Roman Catholic Archdiocese of Paris,Roman Catholic Archdiocese of Paris,2270000000,2270000000
Roman Catholic Diocese of Verona,Roman Catholic Archdiocese of Venice,Roman Catholic Archdiocese of Venice,Roman Catholic Archdiocese of Venice,Roman Catholic Archdiocese of Venice,3050000000,3050000000
Roman Catholic Diocese of Verdun,Roman Catholic Archdiocese of Besançon,Roman Catholic Archdiocese of Besançon,Roman Catholic Archdiocese of Besançon,Roman Catholic Archdiocese of Besançon,6211000000,6211000000
Roman Catholic Diocese of Verapaz,Roman Catholic Archdiocese of Guatemala,Roman Catholic Archdiocese of Guatemala,Roman Catholic Archdiocese of Guatemala,Roman Catholic Archdiocese of Guatemala,11810000000,11810000000
Roman Catholic Diocese of Veracruz,Roman Catholic Archdiocese of Jalapa,Roman Catholic Archdiocese of Jalapa,Roman Catholic Archdiocese of Jalapa,Roman Catholic Archdiocese of Jalapa,9002798671,9002798671
Roman Catholic Diocese of Ventimiglia-San Remo,Roman Catholic Archdiocese of Genoa,Roman Catholic Archdiocese of Genoa,Roman Catholic Archdiocese of Genoa,Roman Catholic Archdiocese of Genoa,715000000,715000000
Roman Catholic Diocese of Venado Tuerto,Roman Catholic Archdiocese of Rosario,Roman Catholic Archdiocese of Rosario,Roman Catholic Archdiocese of Rosario,Roman Catholic Archdiocese of Rosario,14000000000,14000000000
Roman Catholic Diocese of Vellore,Roman Catholic Archdiocese of Madras and Mylapore,Roman Catholic Archdiocese of Madras and Mylapore,Roman Catholic Archdiocese of Madras and Mylapore,Roman Catholic Archdiocese of Madras and Mylapore,12265000000,12265000000
Roman Catholic Diocese of Vasai,Roman Catholic Archdiocese of Bombay,Roman Catholic Archdiocese of Bombay,Roman Catholic Archdiocese of Bombay,Roman Catholic Archdiocese of Bombay,7596000000,7596000000
Roman Catholic Diocese of Varaždin,Roman Catholic Archdiocese of Zagreb,Roman Catholic Archdiocese of Zagreb,Roman Catholic Archdiocese of Zagreb,Roman Catholic Archdiocese of Zagreb,3100000000,3100000000
Roman Catholic Diocese of Varanasi,Roman Catholic Archdiocese of Agra,Roman Catholic Archdiocese of Agra,Roman Catholic Archdiocese of Agra,Roman Catholic Archdiocese of Agra,21395000000,21395000000
Roman Catholic Diocese of Varaždin,Roman Catholic Archdiocese of Zagreb,Roman Catholic Archdiocese of Zagreb,Roman Catholic Archdiocese of Zagreb,Roman Catholic Archdiocese of Zagreb,3100000000,3100000000
Roman Catholic Diocese of Vannes,Roman Catholic Archdiocese of Rennes,Roman Catholic Archdiocese of Rennes,Roman Catholic Archdiocese of Rennes,Roman Catholic Archdiocese of Rennes,7092000000,7092000000
Roman Catholic Diocese of Valparaíso,Roman Catholic Archdiocese of Santiago de Chile,Roman Catholic Archdiocese of Santiago de Chile,Roman Catholic Archdiocese of Santiago de Chile,Roman Catholic Archdiocese of Santiago de Chile,4600000000,4600000000
Roman Catholic Diocese of Vallo della Lucania,Roman Catholic Archdiocese of Salerno-Campagna-Acerno,Roman Catholic Archdiocese of Salerno-Campagna-Acerno,Roman Catholic Archdiocese of Salerno-Campagna-Acerno,Roman Catholic Archdiocese of Salerno-Campagna-Acerno,1562000000,1562000000
Roman Catholic Diocese of Valledupar,Roman Catholic Archdiocese of Barranquilla,Roman Catholic Archdiocese of Barranquilla,Roman Catholic Archdiocese of Barranquilla,Roman Catholic Archdiocese of Barranquilla,28780000000,28780000000
Roman Catholic Diocese of Valle de Chalco,Roman Catholic Archdiocese of Tlalnepantla,Roman Catholic Archdiocese of Tlalnepantla,Roman Catholic Archdiocese of Tlalnepantla,Roman Catholic Archdiocese of Tlalnepantla,1235424328,1235424328
Roman Catholic Diocese of Valença,Roman Catholic Archdiocese of São Sebastião do Rio de Janeiro,Roman Catholic Archdiocese of São Sebastião do Rio de Janeiro,Roman Catholic Archdiocese of São Sebastião do Rio de Janeiro,Roman Catholic Archdiocese of São Sebastião do Rio de Janeiro,3996000000,3996000000
Roman Catholic Diocese of Valence,Roman Catholic Archdiocese of Lyon,Roman Catholic Archdiocese of Lyon,Roman Catholic Archdiocese of Lyon,Roman Catholic Archdiocese of Lyon,6522000000,6522000000
Roman Catholic Diocese of Valença,Roman Catholic Archdiocese of São Sebastião do Rio de Janeiro,Roman Catholic Archdiocese of São Sebastião do Rio de Janeiro,Roman Catholic Archdiocese of São Sebastião do Rio de Janeiro,Roman Catholic Archdiocese of São Sebastião do Rio de Janeiro,3996000000,3996000000
Roman Catholic Diocese of Valdivia,Roman Catholic Archdiocese of Concepción,Roman Catholic Archdiocese of Concepción,Roman Catholic Archdiocese of Concepción,Roman Catholic Archdiocese of Concepción,13679000000,13679000000
Roman Catholic Diocese of Vacaria,Roman Catholic Archdiocese of Passo Fundo,Roman Catholic Archdiocese of Passo Fundo,Roman Catholic Archdiocese of Passo Fundo,Roman Catholic Archdiocese of Passo Fundo,15932000000,15932000000
Roman Catholic Diocese of Vĩnh Long,Roman Catholic Archdiocese of Ho Chi Minh city,Roman Catholic Archdiocese of Ho Chi Minh city,Roman Catholic Archdiocese of Ho Chi Minh city,Roman Catholic Archdiocese of Ho Chi Minh city,6772000000,6772000000
Roman Catholic Diocese of Vélez,Roman Catholic Archdiocese of Bucaramanga,Roman Catholic Archdiocese of Bucaramanga,Roman Catholic Archdiocese of Bucaramanga,Roman Catholic Archdiocese of Bucaramanga,4958000000,4958000000
Roman Catholic Diocese of Vác,Roman Catholic Archdiocese of Eger,Roman Catholic Archdiocese of Eger,Roman Catholic Archdiocese of Eger,Roman Catholic Archdiocese of Eger,8800000000,8800000000
Roman Catholic Diocese of Uyo,Roman Catholic Archdiocese of Calabar,Roman Catholic Archdiocese of Calabar,Roman Catholic Archdiocese of Calabar,Roman Catholic Archdiocese of Calabar,5969000000,5969000000
Roman Catholic Diocese of Uruguaiana,Roman Catholic Archdiocese of Santa Maria,Roman Catholic Archdiocese of Santa Maria,Roman Catholic Archdiocese of Santa Maria,Roman Catholic Archdiocese of Santa Maria,38795000000,38795000000
Roman Catholic Diocese of Uruaçu,Roman Catholic Archdiocese of Brasília,Roman Catholic Archdiocese of Brasília,Roman Catholic Archdiocese of Brasília,Roman Catholic Archdiocese of Brasília,43000000000,43000000000
Roman Catholic Diocese of Uromi,Roman Catholic Archdiocese of Benin City,Roman Catholic Archdiocese of Benin City,Roman Catholic Archdiocese of Benin City,Roman Catholic Archdiocese of Benin City,2800000000,2800000000
Roman Catholic Diocese of Urgell,Roman Catholic Archdiocese of Tarragona,Roman Catholic Archdiocese of Tarragona,Roman Catholic Archdiocese of Tarragona,Roman Catholic Archdiocese of Tarragona,7630000000,7630000000
Roman Catholic Diocese of Urdaneta,Roman Catholic Archdiocese of Lingayen-Dagupan,Roman Catholic Archdiocese of Lingayen-Dagupan,Roman Catholic Archdiocese of Lingayen-Dagupan,Roman Catholic Archdiocese of Lingayen-Dagupan,1616000000,1616000000
Roman Catholic Diocese of União da Vitória,Roman Catholic Archdiocese of Curitiba,Roman Catholic Archdiocese of Curitiba,Roman Catholic Archdiocese of Curitiba,Roman Catholic Archdiocese of Curitiba,10009000000,10009000000
Roman Catholic Diocese of Umuarama,Roman Catholic Archdiocese of Maringá,Roman Catholic Archdiocese of Maringá,Roman Catholic Archdiocese of Maringá,Roman Catholic Archdiocese of Maringá,13200000000,13200000000
Roman Catholic Diocese of Uijeongbu,Roman Catholic Archdiocese of Seoul,Roman Catholic Archdiocese of Seoul,Roman Catholic Archdiocese of Seoul,Roman Catholic Archdiocese of Seoul,2626000000,2626000000
Roman Catholic Diocese of Ugento-Santa Maria di Leuca,Roman Catholic Archdiocese of Lecce,Roman Catholic Archdiocese of Lecce,Roman Catholic Archdiocese of Lecce,Roman Catholic Archdiocese of Lecce,475000000,475000000
Roman Catholic Diocese of Udupi,Roman Catholic Archdiocese of Bangalore,Roman Catholic Archdiocese of Bangalore,Roman Catholic Archdiocese of Bangalore,Roman Catholic Archdiocese of Bangalore,3501000000,3501000000
Roman Catholic Diocese of Udon Thani,Archdiocese of Thare and Nonseng,Archdiocese of Thare and Nonseng,Archdiocese of Thare and Nonseng,Archdiocese of Thare and Nonseng,50046000000,50046000000
Roman Catholic Diocese of Udaipur,Roman Catholic Archdiocese of Agra,Roman Catholic Archdiocese of Agra,Roman Catholic Archdiocese of Agra,Roman Catholic Archdiocese of Agra,47000000000,47000000000
Roman Catholic Diocese of Ubon Ratchathani,Archdiocese of Thare and Nonseng,Archdiocese of Thare and Nonseng,Archdiocese of Thare and Nonseng,Archdiocese of Thare and Nonseng,53917000000,53917000000
Roman Catholic Diocese of Uberlândia,Roman Catholic Archdiocese of Uberaba,Roman Catholic Archdiocese of Uberaba,Roman Catholic Archdiocese of Uberaba,Roman Catholic Archdiocese of Uberaba,13853000000,13853000000
Roman Catholic Diocese of Tuxpan,Roman Catholic Archdiocese of Jalapa,Roman Catholic Archdiocese of Jalapa,Roman Catholic Archdiocese of Jalapa,Roman Catholic Archdiocese of Jalapa,19005332753,19005332753
Roman Catholic Diocese of Tuticorin,Roman Catholic Archdiocese of Madurai,Roman Catholic Archdiocese of Madurai,Roman Catholic Archdiocese of Madurai,Roman Catholic Archdiocese of Madurai,6440000000,6440000000
Roman Catholic Diocese of Tursi-Lagonegro,Roman Catholic Archdiocese of Potenza-Muro Lucano-Marsico Nuovo,Roman Catholic Archdiocese of Potenza-Muro Lucano-Marsico Nuovo,Roman Catholic Archdiocese of Potenza-Muro Lucano-Marsico Nuovo,Roman Catholic Archdiocese of Potenza-Muro Lucano-Marsico Nuovo,2509000000,2509000000
Roman Catholic Diocese of Tura,Roman Catholic Archdiocese of Shillong,Roman Catholic Archdiocese of Shillong,Roman Catholic Archdiocese of Shillong,Roman Catholic Archdiocese of Shillong,8500000000,8500000000
Roman Catholic Diocese of Tumaco,Roman Catholic Archdiocese of Popayán,Roman Catholic Archdiocese of Popayán,Roman Catholic Archdiocese of Popayán,Roman Catholic Archdiocese of Popayán,16400000000,16400000000
Roman Catholic Diocese of Tulsa,Roman Catholic Archdiocese of Oklahoma City,Roman Catholic Archdiocese of Oklahoma City,Roman Catholic Archdiocese of Oklahoma City,Roman Catholic Archdiocese of Oklahoma City,68419715910,68419715910
Roman Catholic Diocese of Tulle,Roman Catholic Archdiocese of Poitiers,Roman Catholic Archdiocese of Poitiers,Roman Catholic Archdiocese of Poitiers,Roman Catholic Archdiocese of Poitiers,5896000000,5896000000
Roman Catholic Diocese of Tulcán,Roman Catholic Archdiocese of Quito,Roman Catholic Archdiocese of Quito,Roman Catholic Archdiocese of Quito,Roman Catholic Archdiocese of Quito,3699000000,3699000000
Roman Catholic Diocese of Tula,Roman Catholic Archdiocese of Tulancingo,Roman Catholic Archdiocese of Tulancingo,Roman Catholic Archdiocese of Tulancingo,Roman Catholic Archdiocese of Tulancingo,8290551941,8290551941
Roman Catholic Diocese of Tui-Vigo,Roman Catholic Archdiocese of Santiago de Compostela,Roman Catholic Archdiocese of Santiago de Compostela,Roman Catholic Archdiocese of Santiago de Compostela,Roman Catholic Archdiocese of Santiago de Compostela,1721000000,1721000000
Roman Catholic Diocese of Tucson,Roman Catholic Archdiocese of Santa Fe,Roman Catholic Archdiocese of Santa Fe,Roman Catholic Archdiocese of Santa Fe,Roman Catholic Archdiocese of Santa Fe,110610622228,110610622228
Roman Catholic Diocese of Tubarão,Roman Catholic Archdiocese of Florianópolis,Roman Catholic Archdiocese of Florianópolis,Roman Catholic Archdiocese of Florianópolis,Roman Catholic Archdiocese of Florianópolis,4531000000,4531000000
Roman Catholic Diocese of Três Lagoas,Roman Catholic Archdiocese of Campo Grande,Roman Catholic Archdiocese of Campo Grande,Roman Catholic Archdiocese of Campo Grande,Roman Catholic Archdiocese of Campo Grande,49000000000,49000000000
