col0,col1,col2,col3,col4
I. Ramon,Tel Aviv University,Texas,1954-06-20,2003-02-01
H. Hartsfield,Auburn University,Houston,1933-11-21,2014-07-17
H. C. Gordon,Purdue University,"Peoria, Arizona",1925-12-23,1996-09-24
G. Grissom,Purdue University,Cape Canaveral Air Force Station,1926-04-03,1967-01-27
G. Jarvis,University at Buffalo,"Cape Canaveral, Florida",1944-08-24,1986-01-28
G. Cooper,University of Maryland,"Ventura, California",1927-03-06,2004-10-04
G. D. Low,Cornell University,"Reston, Virginia",1956-02-19,2008-03-15
E. Onizuka,University of Colorado at Boulder,"Cape Canaveral, Florida",1946-06-24,1986-01-28
E. See,"University of California, Los Angeles","St. Louis, Missouri",1927-07-23,1966-02-28
E. H. White,United States Military Academy,Florida,1930-11-14,1967-01-27
E. Givens,Texas A&M University,Houston,1930-01-05,1967-06-06
E. Mitchell,Carnegie Mellon University,"West Palm Beach, Florida",1930-09-17,2016-02-04
D. Graveline,Johns Hopkins University,"Merritt Island, Florida",1931-03-02,2016-09-05
D. F. Eisele,United States Naval Academy,Tokyo,1930-06-23,1987-12-02
D. Scobee,University of Arizona,"Cape Canaveral, Florida",1939-05-19,1986-01-28
D. Slayton,University of Minnesota,"League City, Texas",1924-03-01,1993-06-13
D. M. Walker,United States Naval Academy,Houston,1944-05-20,2001-04-23
D. Gardner,University of Illinois at Urbana-Champaign,Colorado,1948-11-08,2014-02-19
