col0,col1,col2,col3,col4
Sarah Fuller Flower Adams,Old Harlow,1805-02-22,1848-09-14,1805-02-22
R. Mathias,Talybont-on-Usk,1915-9-4,2007-8-16,1915-9-4
O. Owain,Pwllheli,1929-12-11,1993-12-1,1929-12-11
M. Abdy,London,1797-2-25,1867-7-19,1797-2-25
M. Tait,Kirkwall,1918-11-11,1999-1-1,1918-11-11
K. Gershon,Bielefeld,1923-8-29,1993-3-24,1923-8-29
J. Leftwich,Zutphen,1892-1-1,1983-1-1,1892-1-1
J. Fairfax,Devon,1930-11-09,2009-01-14,1930-11-09
J. Williams,"Chelsea, London",1806-2-1,1885-3-15,1806-2-1
J. L. Robertson,Milnathort,1846-9-18,1922-6-1,1846-9-18
J. G. Fairfax,Australia,1886-07-15,1976-01-27,1886-07-15
