col0,col1,col2,col3
M. Oliver,Minnesota,Boston Bruins,2014-11-23
M. Murdoch,South Carolina,New York Rangers,2001-05-17
M. Henderson,Canada,Boston Bruins,2013-01-04
M. Davison,Colorado,Boston Bruins,2000-01-13
M. Armstrong,Florida,Detroit Red Wings,2010-12-08
M. Bruneteau,Houston,Detroit Red Wings,1982-04-15
M. Bruce,Canada,Ottawa Senators,1959-11-25
M. Johnson,British Columbia,Montreal Hockey Club,1963-03-25
M. Goheen,Minnesota,Buffalo Majors,1979-11-13
M. White,Canada,Montreal Canadiens,2003-02-15
M. M. Sr.,Canada,Quebec Aces,2015-09-18
M. Galand,Canada,Oshawa Generals,2007-07-24
M. Hlinka,Slovakia,Jokerit,2014-09-14
M. Dvořák,České Budějovice,HC České Budějovice,2008-06-12
M. Marcetta,British Columbia,Toronto Maple Leafs,2014-09-18
M. Kajkl,Czech Republic,HC Dukla Jihlava,2014-01-18
M. Balandin,Russia,Kontinental Hockey League,2011-09-07
M. M. Jr.,United States,National Hockey League,2013-04-29
M. Karakas,Minnesota,Chicago Blackhawks,1992-05-02
M. Grant,Canada,Montreal Victorias,1955-08-20
M. Colman,"Kansas City, Missouri",Ferris State University,1994-04-05
M. Byers,United States,Buffalo Sabres,2010-09-16
M. Roach,Canada,Hamilton Tigers,1977-04-01
M. O'Leary,Canada,Toronto Blueshirts,1954-09-12
M. McGuire,Canada,Cleveland Indians,1968-05-23
M. MacKay,British Columbia,Boston Bruins,1940-05-30
M. Turler,Switzerland,EHC Biel,2010-04-08
M. Plasse,Canada,Pittsburgh Penguins,2006-12-30
M. Mongeau,Canada,St. Louis Blues,2010-05-22
M. Larocque,Canada,Philadelphia Flyers,1992-07-29
M. Labadie,Quebec City,New York Rangers,1990-4-17
M. Brière,Canada,Pittsburgh Penguins,1971-04-13
M. Breistroff,United States,Ducs d'Angers,1996-07-17
M. Prystai,Canada,Chicago Blackhawks,2013-10-08
M. Pearson,Canada,Pittsburgh Penguins,1999-01-09
M. Hill,Canada,Boston Bruins,1996-04-11
M. Shuvalov,Russia,Lokomotiv Yaroslavl,2011-09-07
M. Sutherland,Alberta,Boston Bruins,1984-02-11
M. McNab,Las Vegas,Detroit Red Wings,2007-09-02
M. Bentley,Canada,Chicago Blackhawks,1984-01-19
M. Richard,Montreal,Montreal Canadiens,2000-05-27
M. Courteau,Canada,Boston Bruins,1985-11-20
M. Benoit,"Dayton, Ohio",Omaha Knights,2013-12-10
M. Wasama,Finland,SM-liiga,1970-07-10
M. Hagman,Espoo,National Hockey League,2016-10-11
M. Barry,Canada,Boston Bruins,1969-08-20
M. Čech,Czech Republic,Metallurg Magnitogorsk,2007-09-06
M. Zoborosky,Arizona,Chicago Blackhawks,1989-06-01
M. Čech,Czech Republic,HC Sibir Novosibirsk,2007-09-06
M. Darling,Alberta,Edmonton Mercurys,2009-10-27
M. Reeds,Canada,St. Louis Blues,2015-04-14
M. Marquess,United States,Boston Bruins,2015-01-19
M. Green,New York,South Carolina Stingrays,2004-10-05
M. Bavis,New York,Providence Bruins,2001-09-11
M. Pronovost,Canada,Detroit Red Wings,2015-04-26
M. Potvin,Michigan,Boston Bruins,2006-01-13
M. Dufour,Canada,American Hockey League,2015-01-23
M. Kalimulin,Russia,Lokomotiv Yaroslavl,2011-09-07
M. Hughes,Alberta,Lethbridge Maple Leafs,1995-03-18
M. Goodman,Florida,Winnipeg Falcons,1991-07-18
M. Colville,Alberta,New York Rangers,2003-05-27
L. Patrick,Missouri,New York Rangers,1980-01-26
L. Čajka,Czechoslovakia,HC Dukla Jihlava,1990-02-14
L. Check,Canada,Chicago Blackhawks,2009-05-11
L. Čajka,Czechoslovakia,HC Dukla Jihlava,1990-02-14
L. Bourdon,"Lamèque, New Brunswick",Vancouver Canucks,2008-05-29
L. Holmes,Alberta,Chicago Blackhawks,2010-03-11
L. Berlinguette,Quebec,National Hockey League,1959-06-01
L. Jankowski,Florida,Chicago Blackhawks,2010-03-21
L. Fontinato,Guelph,Montreal Canadiens,2016-07-03
L. Bates,England,Wembley Lions,1987-07-30
L. Kremershof,Tönisvorst,Krefeld Pinguine,2003-12-01
L. Davis,Canada,Boston Bruins,2007-12-20
L. Chabot,Canada,Chicago Blackhawks,1946-10-10
L. Carr,Alberta,New York Rangers,2007-06-09
L. Campbell,Pennsylvania,Montreal Hockey Club,1957-05-06
L. Hinchberger,Canada,Nashville Dixie Flyers,2015-10-03
L. Cook,Alberta,Boston Bruins,1964-10-09
L. Andrews,Detroit,Toronto St. Pats,1974-11-17
L. Ailsby,Canada,New York Rangers,2007-05-08
L. Hitchman,New York,Boston Bruins,1969-01-12
L. Heinrich,British Columbia,Boston Bruins,2014-04-21
L. Patrick,British Columbia,New York Rangers,1960-06-01
L. Hunt,Canada,San Diego Gulls,2013-11-06
L. Cunningham,Calgary,New York Americans,1993-04-09
L. Costello,Canada,Toronto Maple Leafs,2002-12-10
L. Colvin,Canada,Boston Bruins,2006-09-07
L. R. Jr.,Canada,Chicago Blackhawks,2015-07-26
L. Lucchini,British Columbia,Edmonton Mercurys,1991-08-04
L. Lamoureux,Indiana,Montreal Canadiens,1961-01-11
L. Lafrance,Minnesota,Chicago Blackhawks,1993-04-07
L. Gravelle,Canada,Detroit Red Wings,2013-10-30
L. Cook,British Columbia,Vancouver Millionaires,1964-12-03
L. Carbol,Missouri,Chicago Blackhawks,1991-11-13
L. Svedberg,Sweden,Mora IK,1972-07-29
L. Ronson,Oregon,New York Rangers,2014-09-29
L. Lunde,Alberta,National Hockey League,2010-11-22
L. F. Sr.,Thunder Bay,Chicago Blackhawks,2000-11-29
L. McCormick,Massachusetts,Pittsburgh Yellow Jackets,1961-12-30
L. Sjöberg,Sweden,Frölunda HC,1987-10-20
L. Zeidel,Pennsylvania,Chicago Blackhawks,2014-06-17
L. Wilson,New York,Chicago Blackhawks,1979-08-16
L. Thibeault,Canada,National Hockey League,1977-04-02
L. Regan,Canada,Boston Bruins,2009-03-09
L. Molyneaux,Canada,New York Rangers,1966-05-24
L. Gilmour,Canada,Montreal Wanderers,1922-04-15
L. Cahan,"Fort William, Ontario",National Hockey League,1992-06-25
L. Aurie,Detroit,Detroit Red Wings,1952-12-11
L. Archambeault,United States,Baltimore Orioles,1981-05-06
L. Neumaier,Austria,Wiener EV,1986-7-0
L. S. Dukowski,British Columbia,Chicago Blackhawks,1976-09-26
K. Skrastiņš,Russia,Colorado Avalanche,2011-09-07
K. Pelšs,Latvia,Oklahoma City Barons,2013-06-11
K. Johannesson,Canada,Winnipeg Falcons,1968-10-25
K. Vajarov,Bulgaria,HC Slavia Sofia,2009-04-18
K. Clancy,Ontario,Toronto Maple Leafs,1986-11-10
K. MacDonald,Florida,New York Rangers,1986-05-11
K. O'Shea,Canada,Buffalo Sabres,2010-01-18
K. Douglas,Canada,Detroit Red Wings,2009-04-12
K. Thompson,Milwaukee,Montreal Wanderers,1933-11-25
K. Stewart,British Columbia,Chicago Blackhawks,2002-04-04
K. Reardon,Canada,Montreal Canadiens,2008-03-15
