col0,col1,col2,col3,col4,col5
M. McIntosh,"Salter Point, Western Australia","Subiaco, Western Australia",1922-11-25,2010-5-3,1922-11-25
M. Brooks,"Moonee Ponds, Victoria",Ariah Park,1919-1-19,2011-8-19,1919-1-19
M. Rioli,"Darwin, Northern Territory",Melville Island,1957-9-1,2010-12-25,1957-9-1
M. McDonnell,Perth,New Zealand,1920-12-28,2005-12-22,1920-12-28
M. Ratz,"St Kilda, Victoria","Collingwood, Victoria",1887-10-14,1943-8-8,1887-10-14
M. Kennedy,Belgium,"Kew, Victoria",1892-10-23,1918-1-2,1892-10-23
M. Williams,Battle of the Somme,"Castlemaine, Victoria",1886-9-9,1917-5-2,1886-9-9
L. Waye,"Frewville, South Australia","Willunga, South Australia",1885-1-14,1951-6-10,1885-1-14
L. Kelly,"Brighton, Victoria","Moonta, South Australia",1892-2-14,1958-1-6,1892-2-14
L. Marks,Bendigo,Bendigo,1892-12-14,1919-8-28,1892-12-14
L. Primrose,Battle of the Somme,Ballarat,1890-5-14,1918-6-4,1890-5-14
L. Millis,"Carlton, Victoria","Fitzroy, Victoria",1881-6-18,1950-4-7,1881-6-18
L. Seward,Perth,Ballarat,1885-11-3,1941-4-1,1885-11-3
L. Little,Melbourne,Bacchus Marsh,1892-2-22,1956-11-19,1892-2-22
L. Gale,"Fitzroy, Victoria","Hawthorn, Victoria",1897-4-18,1948-6-25,1897-4-18
L. Dockett,Melbourne,"Carlton, Victoria",1920-3-5,2008-1-1,1920-3-5
L. Crane,"Sunshine Coast, Queensland","South Melbourne, Victoria",1928-2-7,2006-5-1,1928-2-7
L. Schache,Adelaide,"Hopetoun, Victoria",1967-10-17,2002-10-5,1967-10-17
L. Sleeman,"Hawthorn, Victoria","Tylden, Victoria",1885-3-21,1968-12-20,1885-3-21
K. MacLeod,HMS Glowworm,Warrnambool,1890-8-18,1940-4-8,1890-8-18
K. Kendall,"Hawthorn, Victoria",Bendigo,1884-3-6,1969-3-27,1884-3-6
K. Farmer,Adelaide,Adelaide,1910-7-25,1982-3-5,1910-7-25
K. Millar,Melbourne,"Richmond, Victoria",1906-8-15,1971-7-13,1906-8-15
K. Doig,"Lorne, Victoria","Nathalia, Victoria",1891-12-11,1949-1-3,1891-12-11
J. Robinson,Melbourne,"St Kilda, Victoria",1891-12-28,1966-2-25,1891-12-28
J. McCarthy,Las Vegas,Victoria,1989-11-19,2012-9-9,1989-11-19
J. Leahy,"North Melbourne, Victoria",Geelong,1941-3-7,1980-11-23,1941-3-7
J. Laing,"Malvern, Victoria","Golden Square, Victoria",1884-7-5,1944-10-29,1884-7-5
J. Gray,"Toorak, Victoria",Scotland,1888-7-12,1947-6-28,1888-7-12
J. Coleman,"Dromana, Victoria",Port Fairy,1928-11-23,1973-4-5,1928-11-23
J. Shelley,Melbourne,"Caulfield, Victoria",1892-9-8,1966-6-23,1892-9-8
J. Sellwood,"Belmont, Victoria",New Zealand,1911-1-24,2007-10-18,1911-1-24
J. Pearce,Gallipoli,Bendigo,1885-1-28,1915-4-25,1885-1-28
J. Kinnear,City of Moreland,"Brunswick West, Victoria",1912-2-12,1981-12-14,1912-2-12
J. Fogarty,"Armadale, Victoria","North Melbourne, Victoria",1887-12-24,1954-6-28,1887-12-24
J. Melbourne,"South Melbourne, Victoria","York, Western Australia",1876-1-1,1937-12-13,1876-1-1
J. Stynes,"St Kilda, Victoria",Dublin,1966-4-23,2012-3-20,1966-4-23
J. Piper,"Geelong West, Victoria","Geelong West, Victoria",1884-4-30,1949-5-25,1884-4-30
J. Park,"Wau, Papua New Guinea",Bendigo,1910-2-14,1943-2-9,1910-2-14
J. Nicholas,Battle of the Menin Road Ridge,Moama,1890-11-17,1917-9-20,1890-11-17
J. Houghton,"Yan Yean, Victoria","Harrietville, Victoria",1891-9-20,1973-6-20,1891-9-20
J. Flynn,Wangaratta,Benalla,1871-3-21,1955-8-21,1871-3-21
J. Farnan,France,"South Melbourne, Victoria",1875-7-12,1916-8-9,1875-7-12
J. Everett,"Nedlands, Western Australia","Toodyay, Western Australia",1884-7-20,1968-6-19,1884-7-20
J. Ditchburn,Perth,"Boulder, Western Australia",1908-8-24,1964-3-7,1908-8-24
J. Craig,"Embleton, Western Australia",Kalgoorlie,1910-10-15,1978-11-23,1910-10-15
J. Conway,Perth,"North Fremantle, Western Australia",1925-6-14,2003-12-28,1925-6-14
J. Bonella,France,"Maldon, Victoria",1884-12-17,1918-5-24,1884-12-17
J. Baird,"Sandringham, Victoria","Parkville, Victoria",1920-11-9,2003-11-4,1920-11-9
J. Atkinson,"Beaconsfield, Tasmania","Fitzroy North, Victoria",1896-4-4,1956-6-11,1896-4-4
J. Fehring,"Hay, New South Wales","Leitchville, Victoria",1956-4-21,2008-7-25,1956-4-21
J. Tierney,Melbourne,"Gawler, South Australia",1878-1-1,1959-1-1,1878-1-1
J. Worrall,"Fairfield, Victoria","Maryborough, Victoria",1861-6-21,1937-11-17,1861-6-21
J. West,"South Yarra, Victoria",Mooroopna,1889-2-17,1960-3-30,1889-2-17
J. Wells,"Fitzroy, Victoria","Stawell, Victoria",1883-1-4,1966-12-17,1883-1-4
J. Shelton,Libya,"Avenel, Victoria",1905-1-24,1941-5-1,1905-1-24
J. Sexton,Adelaide,Adelaide,1900-2-27,1935-10-26,1900-2-27
J. Oatey,Adelaide,Adelaide,1920-8-29,1994-2-26,1920-8-29
J. Nicholson,"Midland, Western Australia",Geelong,1892-6-24,1967-9-27,1892-6-24
J. McDiarmid,Perth,Perth,1903-10-3,1974-8-10,1903-10-3
J. Jones,Melbourne,"Lilydale, Victoria",1888-3-5,1960-6-18,1888-3-5
J. Gervasoni,"Kew, Victoria","Daylesford, Victoria",1929-9-29,1992-2-9,1929-9-29
J. Dyer,"Box Hill, Victoria","Oakleigh, Victoria",1913-11-15,2003-8-23,1913-11-15
J. Doubleday,Indian Ocean,"Prahran, Victoria",1890-5-28,1918-8-13,1890-5-28
J. Cooper,Battle of Passchendaele,"Fitzroy North, Victoria",1889-2-21,1917-9-20,1889-2-21
J. Chamberlain,"Leabrook, South Australia","Glanville, South Australia",1884-8-29,1941-4-1,1884-8-29
J. Brake,"Castlemaine, Victoria","Horsham, Victoria",1890-11-11,1970-5-16,1890-11-11
J. Barnes,"Williamstown, Victoria","Williamstown, Victoria",1905-5-20,1999-10-6,1905-5-20
I. Clay,"Essendon, Victoria",Bendigo,1915-5-7,1958-8-12,1915-5-7
H. Gavin,Melbourne,"Stawell, Victoria",1878-10-25,1940-11-13,1878-10-25
H. Boyd,"Sandringham, Victoria",Bendigo,1886-4-24,1960-8-8,1886-4-24
H. Stafford,Myanmar,"Wedderburn, Victoria",1893-3-24,1942-1-7,1893-3-24
H. Screaigh,"Nedlands, Western Australia","York, Western Australia",1911-5-12,2002-7-7,1911-5-12
H. Hurrey,"Chatswood, New South Wales","Herberton, Queensland",1888-2-27,1961-12-16,1888-2-27
H. Bowden,"Heidelberg, Victoria","Collingwood, Victoria",1888-3-31,1978-6-3,1888-3-31
H. Hunter,Gallipoli,Bendigo,1881-11-18,1915-5-8,1881-11-18
H. Edmondson,"South Perth, Western Australia",Hobart,1872-11-25,1946-8-18,1872-11-25
H. Schrader,"Kew, Victoria","Prahran, Victoria",1893-12-5,1980-6-10,1893-12-5
H. B. Sr.,Adelaide,Albury,1911-7-5,1955-9-5,1911-7-5
H. Kelly,"Croydon, Victoria","St Kilda, Victoria",1883-3-24,1944-7-30,1883-3-24
H. Wright,"West Melbourne, Victoria",Ballarat,1870-4-4,1950-3-19,1870-4-4
H. Morgan,"Northam, Western Australia",Western Australia,1889-9-16,1956-12-10,1889-9-16
H. Dowdall,"Collingwood, Victoria","South Melbourne, Victoria",1872-6-29,1912-5-9,1872-6-29
H. Daniel,Amiens,Ballarat,1879-6-19,1918-8-10,1879-6-19
H. Cordner,Hobart,Bendigo,1885-6-17,1943-11-14,1885-6-17
H. Parker,France,"Elsternwick, Victoria",1892-9-26,1917-1-30,1892-9-26
H. Bennett,"Fitzroy, Victoria","Heathcote, Victoria",1891-6-9,1964-7-9,1891-6-9
G. Brehaut,"Carine, Western Australia","Carlisle, Western Australia",1946-8-1,1993-2-19,1946-8-1
G. Morrissey,"Ingham, Queensland","Alphington, Victoria",1894-7-8,1970-3-8,1894-7-8
G. Gurr,"Loxton, South Australia",Adelaide,1881-12-22,1960-8-11,1881-12-22
G. Coventry,"Diamond Creek, Victoria","Diamond Creek, Victoria",1901-9-25,1968-11-7,1901-9-25
G. Barker,Perth,"South Melbourne, Victoria",1882-7-30,1952-9-6,1882-7-30
G. Topping,"Brunswick, Victoria","Fitzroy, Victoria",1881-8-27,1958-11-17,1881-8-27
G. Stuckey,"North Melbourne, Victoria","Walhalla, Victoria",1871-7-6,1932-3-15,1871-7-6
G. Shaw,Melbourne,Sydney,1886-4-1,1971-4-30,1886-4-1
G. P. Anderson,Wagga Wagga,"Windsor, Victoria",1885-6-3,1958-6-10,1885-6-3
G. Owens,"Mount Lawley, Western Australia",Kalgoorlie,1900-8-20,1986-10-7,1900-8-20
G. Moysey,"Canterbury, Victoria","Battery Point, Tasmania",1874-5-14,1932-5-18,1874-5-14
G. Krepp,Mandurah,"Nannine, Western Australia",1912-7-21,1973-8-16,1912-7-21
G. Elliott,Ypres,"Charlton, Victoria",1885-6-1,1917-9-25,1885-6-1
G. Doig,"Bicton, Western Australia",Fremantle,1913-5-25,2006-11-27,1913-5-25
G. Coulthard,Victoria,Victoria,1856-08-01,1883-10-22,1856-08-01
G. Blake,Victoria,"St Kilda, Victoria",1878-9-4,1946-2-6,1878-9-4
G. Anderson,"Kew, Victoria",Melbourne,1886-11-24,1976-6-12,1886-11-24
G. Dhurrkay,Arnhem Land,Northern Territory,1974-3-4,2005-8-21,1974-3-4
F. Scott,"Ferntree Gully, Victoria",Ulster,1874-4-11,1969-7-8,1874-4-11
F. McIntosh,"Polygon Wood, Zonnebeke","Fitzroy, Victoria",1893-7-23,1917-9-28,1893-7-23
F. Elliott,"Mount Gambier, South Australia","Carlton, Victoria",1879-4-7,1960-8-3,1879-4-7
F. Pyke,Perth,Perth,1941-12-1,2011-11-22,1941-12-1
F. Macky,Auckland,Auckland,1891-12-19,1975-12-29,1891-12-19
F. Lugton,Villers-Bretonneux,"Northcote, Victoria",1893-11-4,1916-7-29,1893-11-4
F. Kirby,"Camberwell, Victoria","Fitzroy, Victoria",1885-9-22,1963-3-20,1885-9-22
F. Kerr,"Kew, Victoria","Hawthorn, Victoria",1889-4-5,1977-5-3,1889-4-5
F. Dossetor,"Bromham, Wiltshire",Hobart,1885-12-11,1950-11-8,1885-12-11
F. Crawford,"Richmond, Victoria","St Kilda, Victoria",1887-6-7,1943-7-3,1887-6-7
F. Cameron,Shepparton,Orbost,1892-4-17,1986-2-6,1892-4-17
F. Boynton,"Northam, Western Australia","Prahran, Victoria",1887-1-1,1946-3-3,1887-1-1
F. McDonald,Gallipoli,Nagambie,1891-5-25,1915-4-25,1891-5-25
E. Dornau,Melbourne,Brisbane,1926-3-22,2008-9-23,1926-3-22
E. Atkins,"Hawthorn, Victoria","South Melbourne, Victoria",1890-4-26,1972-9-14,1890-4-26
E. McIntyre,Melbourne,"Albert Park, Victoria",1921-4-19,2003-4-10,1921-4-19
E. Woods,Melbourne,Albury,1892-12-12,1936-8-12,1892-12-12
E. Johnson,Adelaide,"Norwood, South Australia",1902-7-17,1976-1-10,1902-7-17
E. Glass,"Ashwood, Victoria","Northam, Western Australia",1910-2-22,1985-7-29,1910-2-22
E. G. Jr.,"Ararat, Victoria",Warragul,1903-11-1,1963-4-15,1903-11-1
E. Cordner,"Greensborough, Victoria",Bendigo,1887-6-18,1963-7-21,1887-6-18
E. Kneen,"Mont Albert, Victoria","Fitzroy, Victoria",1882-9-9,1962-4-24,1882-9-9
D. Anderson,"Murdoch, Western Australia","Witchcliffe, Western Australia",1924-9-21,2012-12-7,1924-9-21
D. Fraser,"Yarraville, Victoria","Brunswick, Victoria",1886-12-7,1919-2-24,1886-12-7
D. Roach,Sydney,Melbourne,1940-7-31,2011-7-3,1940-7-31
D. M. Sr.,Fremantle,"Boulder, Western Australia",1907-8-27,1967-5-4,1907-8-27
D. Heinrichs,Adelaide,Germany,1883-4-28,1967-6-24,1883-4-28
D. Wearmouth,Terang,Rupanyup,1926-5-12,2012-4-5,1926-5-12
D. Gibbs,Fleurbaix,"Colac, Victoria",1892-2-4,1915-7-19,1892-2-4
D. Healey,Melbourne,Victoria,1927-9-5,2009-3-18,1927-9-5
D. Cumming,Villers-Bretonneux,"Millicent, South Australia",1891-9-29,1918-5-3,1891-9-29
D. Collins,"Hyden, Western Australia","Braybrook, Victoria",1953-5-17,2011-8-31,1953-5-17
D. Browning,"Burwood, New South Wales","Carlton, Victoria",1884-6-21,1942-12-20,1884-6-21
D. Smith,"Hawthorn, Victoria","Richmond, Victoria",1884-9-14,1963-7-29,1884-9-14
D. McNamara,"Caulfield, Victoria","Yarrawonga, Victoria",1887-1-22,1967-8-15,1887-1-22
D. Greenham,"Richmond, Victoria","Dartmoor, Victoria",1889-2-14,1945-1-4,1889-2-14
D. Baldock,"Latrobe, Tasmania","Devonport, Tasmania",1938-9-29,2011-2-2,1938-9-29
C. Steele,Werribee River,"Auburn, Victoria",1891-6-11,1939-1-18,1891-6-11
C. Seelenmeyer,"Fouilloy, Somme",Melbourne,1892-4-29,1918-8-8,1892-4-29
C. Gardner,Melbourne,Melbourne,1879-3-12,1960-8-6,1879-3-12
C. Campbell,Winlaton,"Cressy, Tasmania",1872-8-13,1907-4-3,1872-8-13
C. Lewington,"Subiaco, Western Australia","South Fremantle, Western Australia",1920-2-28,1989-10-23,1920-2-28
C. Tucker,Queensland,"Balwyn, Victoria",1888-3-21,1973-9-3,1888-3-21
C. Thomas,Beaumont-Hamel,"Gisborne, Victoria",1891-4-15,1918-7-5,1891-4-15
C. Crowl,Gallipoli,"Stratford, Victoria",1892-12-26,1915-4-25,1892-12-26
C. Clough,"St Kilda, Victoria","St Kilda, Victoria",1884-10-8,1922-2-22,1884-10-8
C. Bryan,"Longford, Tasmania",Hobart,1892-12-23,1960-3-10,1892-12-23
C. Mainwaring,"Nedlands, Western Australia",Geraldton,1965-12-27,2007-10-1,1965-12-27
C. Fogarty,Gallipoli,"North Melbourne, Victoria",1884-1-28,1915-11-29,1884-1-28
C. Oliver,Melbourne,"Sofala, New South Wales",1874-9-9,1917-12-29,1874-9-9
C. Norris,"Fitzroy North, Victoria","Heathcote, Victoria",1881-7-23,1940-2-16,1881-7-23
C. McSwain,Mildura,"St Arnaud, Victoria",1901-10-12,1976-10-12,1901-10-12
C. H. Pannam,"Abbotsford, Victoria",Greece,1874-10-2,1952-10-29,1874-10-2
C. Fincher,Gallipoli,"Footscray, Victoria",1892-1-23,1915-4-25,1892-1-23
C. Salvana,"Mitcham, Victoria","Camberwell, Victoria",1897-1-20,1974-12-8,1897-1-20
C. D. Sr.,"Bicton, Western Australia","Royal Park, South Australia",1883-4-27,1944-10-31,1883-4-27
C. Willis,"Berrigan, New South Wales","Daylesford, Victoria",1893-3-23,1930-5-12,1893-3-23
B. Sloss,Armentières,"Malvern East, Victoria",1889-1-21,1917-1-4,1889-1-21
B. Schultz,"Modbury, South Australia","Royston Park, South Australia",1913-3-13,1980-1-11,1913-3-13
B. McGregor,South Australia,Broken Hill,1903-1-7,1990-3-21,1903-1-7
B. Lang,New South Wales,"Malvern, Victoria",1889-4-10,1974-7-22,1889-4-10
B. Green,"Gold Coast, Queensland","Southport, Queensland",1976-3-29,2009-11-30,1976-3-29
B. Rose,Melbourne,Victoria,1928-8-7,2003-7-7,1928-8-7
B. Quinn,Adelaide,"Birkenhead, South Australia",1915-4-9,2008-9-12,1915-4-9
B. McLean,Adelaide,"Mile End, South Australia",1914-2-1,1989-11-9,1914-2-1
B. Lee,Adelaide,"Hindmarsh, South Australia",1927-1-31,2001-6-10,1927-1-31
B. Heatley,"Kew, Victoria","Carlton, Victoria",1895-7-6,1973-2-22,1895-7-6
B. Davis,Geelong,"Golden Point, Victoria",1928-6-12,2011-5-16,1928-6-12
B. Thomas,"South Perth, Western Australia","North Fremantle, Western Australia",1902-2-20,1968-4-28,1902-2-20
B. Newing,"Kew, Victoria","Essendon, Victoria",1892-8-1,1970-3-7,1892-8-1
B. Harvey,Belgium,"Canterbury, Victoria",1892-10-25,1917-9-14,1892-10-25
B. McIlroy,"Middle Park, Victoria","Ballarat East, Victoria",1883-11-24,1960-8-18,1883-11-24
B. Lyon,Mildura,"Apsley, Victoria",1886-1-19,1962-1-13,1886-1-19
B. J. Walker,"Caulfield, Victoria","Castlemaine, Victoria",1883-5-25,1971-7-17,1883-5-25
Bill J. V. Walker,"Caulfield, Victoria","Castlemaine, Victoria",1886-8-4,1949-4-20,1886-8-4
B. Hinman,Hobart,"Launceston, Tasmania",1892-7-1,1964-6-1,1892-7-1
B. Fischer,France,"Kilmore, Victoria",1883-10-3,1917-10-15,1883-10-3
B. Denehy,Melbourne,"Brunswick, Victoria",1889-5-29,1960-11-24,1889-5-29
B. Cahill,"Launceston, Tasmania",Hobart,1911-12-3,1966-3-7,1911-12-3
B. Harrold,"Nedlands, Western Australia","East Perth, Western Australia",1898-3-9,1968-4-14,1898-3-9
B. Allen,"Bentleigh, Victoria","Fitzroy, Victoria",1887-5-7,1975-6-4,1887-5-7
A. Tymms,"Armadale, Victoria","Essendon, Victoria",1886-2-21,1949-11-21,1886-2-21
A. Milne,"Caulfield, Victoria","Hawthorn, Victoria",1889-12-10,1946-9-19,1889-12-10
A. Vines,"Canterbury, Victoria","Kew, Victoria",1891-1-16,1977-8-10,1891-1-16
