col0,col1,col2,col3
R. Wells,"Austin, Texas",1976-12-30,2008-8-11
R. Libeer,Roubaix,1934-11-28,2006-11-13
R. Molina,Argentina,1970-11-06,2016-09-18
R. Meen,Warwickshire,1907-11-20,1984-0-0
R. Sangoe,Cardiff,1936-07-06,1964-08-14
R. Macías,Mexico City,1934-07-28,2009-03-23
R. Landini,Buenos Aires,1909-7-14,1988-9-29
R. Smillie,Toronto,1904-1-18,1993-4-21
R. Fee,"Saint Paul, Minnesota",1903-1-12,1983-6-2
R. Rojas,"San Pablo, California",1941-11-05,2012-05-20
R. Butler,Chicago,1984-01-04,2016-08-06
R. Turpin,England,1928-06-07,1966-05-17
R. Carver,"Kansas City, Missouri",1974-12-03,1999-09-14
R. Tapia,Antofagasta,1932-3-17,1984-4-11
R. Lally,United States,1948-02-12,2011-12-18
R. Dupas,Louisiana,1935-10-14,2008-01-25
R. Iglesias,Argentina,1924-05-25,1999-01-01
R. Guzmán,"Guadalajara, Jalisco",1986-04-09,2011-10-18
R. Macías,Mexico City,1934-07-28,2009-03-23
R. Landini,Buenos Aires,1909-7-14,1988-9-29
P. Zayev,Lipetsk,1953-07-29,2014-11-29
P. M. Donovan,Chicago,1847-09-27,1918-03-24
P. Carnera,Sequals,1906-10-26,1967-06-29
P. Kingpetch,Thailand,1935-02-12,1982-03-31
P. Fosi,Australia,1933-0-0,2005-12-19
P. Silverberg,New York City,1904-04-05,1964-01-16
P. Mitchell,Milwaukee,1899-01-01,1976-03-11
P. v. Vuuren,Johannesburg,1931-02-06,2008-0-0
P. Toscani,Milan,1904-7-28,1940-5-23
P. John,Wales,1910-0-0,1985-0-0
P. J. O'Brien,Philadelphia,1878-01-17,1942-11-12
P. Zwick,"Appleton, Wisconsin",1906-09-29,1963-07-08
P. Terranova,New York City,1919-09-04,2000-03-16
P. Scott,London,1900-01-03,1983-12-04
P. Martin,England,1950-04-05,1994-05-27
P. Scalzo,Brooklyn,1917-08-01,1993-06-15
P. Sarron,"Birmingham, Alabama",1906-10-21,1994-07-03
P. Waterman,East End of London,1934-12-08,1986-01-16
P. Sturholdt,Minnesota,1885-12-7,1919-6-27
P. Maher,Ireland,1869-03-16,1940-07-22
P. Kane,"Heywood, Greater Manchester",1918-02-28,1991-07-23
P. Jørgensen,Hillerød,1907-04-02,1992-8-27
P. Jackson,Danish West Indies,1860-9-23,1901-07-13
P. Jørgensen,Hillerød,1907-04-02,1992-8-27
P. Felix,Danish West Indies,1866-07-17,1926-11-10
P. Crawley,London,1799-12-05,1865-03-12
P. Sanstol,"Moi, Norway",1905-03-28,1982-03-13
P. Mead,United States,1924-01-11,2007-07-02
P. Latzo,Pennsylvania,1902-08-01,1968-07-07
P. Herman,New Orleans,1896-02-12,1973-04-13
P. Purhonen,Helsinki,1942-06-14,2011-02-05
P. Vear,West Riding of Yorkshire,1911-07-12,1983-03-16
P. Hämäläinen,Kotka,1929-12-19,1984-12-11
P. Quartucci,Buenos Aires,1905-7-30,1983-4-20
P. Nolasco,"La Romana, Dominican Republic",1962-02-20,1995-09-15
P. Montañez,"Cayey, Puerto Rico",1914-04-24,1996-06-26
P. Carrasco,Spain,1943-07-11,2001-01-27
P. Alcázar,Panama,1975-08-29,2002-06-24
P. Palmer,London,1876-09-25,1949-02-13
P. Poontarat,Bang Saphan District,1957-10-18,2006-8-13
