col0,col1,col2,col3
ʻEua Airport,'Eua,NFTE,99
Žilina Airport,Žilina,(Location of airport in Slovakia),310
Željava Air Base,Bosnia and Herzegovina,LYBI,343
Špiro Mugoša Airport,Montenegro,(Location of airport in Montenegro),60
Şırnak Airport,Sirnak,(Location of airport in Turkey),621
Şanlıurfa GAP Airport,Turkey,(Location of airport in Turkey),822
Şanlıurfa Airport,Turkey,(Location of airport in Turkey),452
Łódź Władysław Reymont Airport,Łódź,EPLL,185
Čačak Airport,Serbia,LYCA,236
Þórshöfn Airport,Iceland,(Location of Airport in Iceland),19
Þingeyri Airport,Þingeyri,BITE,19
Ürümqi Diwopu International Airport,Ürümqi,ZWWW,648
Útila Airport,Útila,MHUT,8
"Ørsta–Volda Airport, Hovden",Ørsta,ENOV,74
Ørland Airport,Norway,ENOL,8
Ólafsfjörður Airport,Ólafsfjörður,BIOF,9
Ñanco Lauquen Airport,Trenque Lauquen,SAET,92
Île d'Yeu Aerodrome,France,LFEY,24
Ísafjörður Airport,Iceland,(Location of Airport in Iceland),2
Évora Airport,Évora,LPEV,248
Épinal – Mirecourt Airport,Épinal,LFSG,330
Çukurova Regional Airport,Adana,?,5
Çanakkale Airport,Çanakkale,(Location of airport in Turkey),7
Åre Östersund Airport,Östersund,ESNZ,375
"Ålesund Airport, Vigra",Norway,ENAL,21
Ángel S. Adami Airport,Montevideo,SUAA,53
Ángel Albino Corzo International Airport,Tuxtla Gutiérrez,MMTG,457
Água Boa Airport,"Água Boa, Mato Grosso",SWHP,459
Zürich Airport,Switzerland,LSZH,431
Zweibrücken Airport,Germany,EDRZ,345
Zwartberg Airfield,Genk,EBZW,84
Zvartnots International Airport,Yerevan,(Location of airport in Armenia),865
Zuwarah Airport,Zuwarah,HLZW,2
Zumbi dos Palmares International Airport,Maceió,SBMO,105
Zuienkerke Airfield,Zuienkerke,EBZU,3
Zouar Airport,Zouar,FTTR,808
Zonguldak Airport,Zonguldak,LTAS,13
Zona da Mata Regional Airport,Juiz de Fora,SBZM,410
Zingem Heliport,Zingem,EBZI,9
Ziguinchor Airport,Senegal,(Location of Airport in Senegal),22
Zielona Góra Airport,Poland,(Location of airport in Poland),59
Zhukovsky International Airport,Moscow,UUBW,123
Zhuhai Jinwan Airport,Guangdong,ZGSD,7
Zhigansk Airport,Russia,UEVV,89
Zhengzhou Xinzheng International Airport,Zhengzhou,(Location in Henan Province),151
Zhanjiang Airport,Guangdong,ZGZJ,38
Zephyrhills Municipal Airport,"Zephyrhills, Florida",KZPH,27
Zenata – Messali El Hadj Airport,Tlemcen,(Location of airport in Algeria),248
Zemio Airport,Central African Republic,FEFZ,608
Zeltweg Air Base,Zeltweg,LOXZ,682
Zell am See Airport,Zell am See,LOWZ,754
Zelienople Municipal Airport,"Zelienople, Pennsylvania",KPJC,273
Zbraslavice Airport,Zbraslavice,LKZB,402
Zaysan Airport,Zaysan,UASZ,579
Zavodske Airfield,Crimea,UKFW,291
Zaria Airport,Nigeria,DNZA,661
Zaranj Airport,Nimruz Province,(Location of airport in Afghanistan),485
Zaqatala International Airport,Azerbaijan,(Location of airport in Azerbaijan),389
Zaporizhia International Airport,Ukraine,UKDE,113
Zapallar Casas Viejas Airport,Zapallar,SCZC,79
Zanesville Municipal Airport,"Zanesville, Ohio",KZZV,274
Zanaga Airport,Republic of the Congo,FCBZ,569
Zamboanga International Airport,Zamboanga City,RPMZ,6
Zambezi Airport,Zambezi,FLZB,1078
Zahedan Airport,Zahedan,(Location of airport in Iran),1391
Zagreb Airport,Croatia,LDZA,107
Zagora Airport,"Zagora, Morocco",GMAZ,736
Zagarzazú International Airport,"Carmelo, Uruguay",SUCM,10
Zaffelare Heliport,Lochristi,EBLZ,3
Zafer Airport,Afyonkarahisar,(Location of airport in Turkey),1012
Zadar Airport,Zadar,(Location of the airport in Croatia),88
Zacapa Airport,Zacapa,MGZA,192
Zabré Airport,Burkina Faso,DFEZ,270
Zabrat Airport,Baku,UBTT,28
Zabré Airport,Burkina Faso,DFEZ,270
Z. M. Jack Stell Field,"Crossett, Arkansas",KCRT,56
Zürich Airport,Zürich,LSZH,431
Yélimané Airport,Yélimané,GAYE,99
Yuzhno-Sakhalinsk Airport,Russia,UHSS,17
Yumbel Trilahue Airport,Yumbel,SCYB,128
Yuba County Airport,"Marysville, California",KMYV,19
Youngstown–Warren Regional Airport,"Warren, Ohio",KYNG,364
Young Airport,Australia,YYNG,386
Yoshkar-Ola Airport,Russia,"(Location of airport in Mari El, Russia)",106
Yoro Airport,Yoro,MHYR,675
York Municipal Airport,"York, Nebraska",KJYR,509
York Airport,"York, Pennsylvania",KTHV,150
Yongphulla Airport,Bhutan,(Location of airport in Bhutan),2743
Yonaguni Airport,Japan,ROYN,14
Yolo County Airport,"Davis, California",KDWA,30
Yola Airport,Nigeria,(Location of Airport in Nigeria),182
Yokangassi Airport,Republic of the Congo,FCBY,164
Yirol Airport,South Sudan,(Location of Yirol Airport in South Sudan),437
Yining Airport,Xinjiang,(Location of airport in Xinjiang),665
Yichun Mingyueshan Airport,China,ZSYC,131
Yichun Lindu Airport,"Yichun, Heilongjiang",ZYLD,241
Yibal Airport,Yibal,OOYB,108
Yermolino Airport,Moscow,UUWE,195
Yeosu Airport,Yeosu,(Location of airport in South Korea),16
Yenişehir Airport,Turkey,(Location of airport in Turkey),232
Yengema Airport,Yengema,GFYE,396
Yendi Airport,Yendi,DGLY,223
Yendegaia Airport,"Cabo de Hornos, Chile",SCNY,49
Yemelyanovo International Airport,Krasnoyarsk,UNKL,287
Yellowstone Regional Airport,"Cody, Wyoming",KCOD,1555
Yellowstone Airport,"West Yellowstone, Montana",KWYS,2026
Yei Airport,South Sudan,(Location of Yei Airport in South Sudan),830
Yeager Airport,"Charleston, West Virginia",KCRW,288
Yawan Airport,Yawan District,OAYW,1720
Yasawa Island Airport,Fiji,NFSW,3
Yapacaní Airport,Yapacaní,SLYI,248
Yaoundé Nsimalen International Airport,Yaoundé,(Location of Airport in Cameroon),694
Yao Airport,Osaka,RJOY,10
Yantai Laishan Airport,Shandong,ZSYT,18
Yanji Chaoyangchuan Airport,Yanji,(Location of airport in Jilin province),190
Yangzhou Taizhou Airport,Yangzhou,ZSYA,2
Yangyang International Airport,Gangneung,(Location of airport in South Korea),73
Yangon International Airport,Yangon,(Location of airport in Burma),33
Yanbu Airport,Yanbu,(Location of airport in Saudi Arabia),7
Yampa Valley Airport,"Hayden, Colorado",KHDN,2013
Yamoussoukro Airport,Yamoussoukro,DIYO,213
Yambio Airport,South Sudan,(Location of Yambio Airport in South Sudan),723
Yamaguchi Ube Airport,"Ube, Yamaguchi",RJDC,4
Yamagata Airport,"Yamagata, Yamagata",RJSC,105
Yalinga Airport,Yalinga,FEFY,601
Yakutsk Airport,Yakutsk,UEEE,99
Yakutat Airport,"Yakutat, Alaska",PAYA,10
Yakushima Airport,Japan,RJFC,37
Yakubu Gowon Airport,Nigeria,(Location of Airport in Nigeria),1289
Yako Airport,Yako,DFCY,299
Yakima Air Terminal,"Yakima, Washington",KYKM,334
Yakataga Airport,Alaska,PACY,3
Yagoua Airport,Yagoua,FKKJ,326
Yacuiba Airport,Yacuíba,(Location of airport in Bolivia),644
Yélimané Airport,Yélimané,GAYE,99
Xuzhou Guanyin Airport,Jiangsu,ZSXZ,32
Xishuangbanna Gasa Airport,Jinghong,(Location of airport in Yunnan province),553
Xining Caojiabao Airport,China,ZLXN,2170
Xichang Qingshan Airport,Xichang,(Location of the airport in Sichuan),1558
Xiamen Gaoqi International Airport,Xiamen,ZSAM,18
Xi'an Xianyang International Airport,Xi'an,ZLXY,479
Xewkija Heliport,Gozo,LMMG,98
Xangongo Airport,Xangongo,FNXA,1107
Wycombe Air Park,High Wycombe,EGTB,158
Wuyishan Airport,Nanping,ZSWY,196
Wujah Al Hajar Air Base,Hamat,Z19O,256
Wuhan Tianhe International Airport,Wuhan,ZHHH,34
Wrangell Airport,"Wrangell, Alaska",PAWG,14
Worland Municipal Airport,"Worland, Wyoming",KWRL,1296
Worcester Regional Airport,"Worcester, Massachusetts",KORH,307
Woodward Field,"Camden, South Carolina",KCDN,92
Woodbourne Airport,"Blenheim, New Zealand",(Location of airport in Marlborough),33
Woodbine Municipal Airport,"Woodbine, New Jersey",KOBI,12
Wood County Airport,"Mineola, Texas",KJDD,132
Wonsan Kalma International Airport,Wonsan,ZKWS,2
Wonopito Airport,Dutch East Indies,WATW,4
Wonju Airport,Wonju,(Location of airport in South Korea),100
Wonck Airport,Bassenge,EBBW,111
Wolverhampton Airport,Wolverhampton,EGBO,86
Wolfsberg Airport,"Wolfsberg, Carinthia",LOKW,445
Woensdrecht Air Base,Netherlands,EHWO,19
Wittman Regional Airport,"Oshkosh, Wisconsin",KOSH,246
Witham Field,"Stuart, Florida",KSUA,5
Winton Airport,Australia,YWTN,194
Winter Haven's Gilbert Airport,"Winter Haven, Florida",KGIF,44
Winslow–Lindbergh Regional Airport,"Winslow, Arizona",KINW,1506
Winnipeg James Armstrong Richardson International Airport,Manitoba,CYWG,238
Winner Regional Airport,"Winner, South Dakota",KICR,619
Winnemucca Municipal Airport,"Winnemucca, Nevada",KWMC,1313
Winkler County Airport,"Wink, Texas",KINK,860
Wings Field,"Philadelphia, Pennsylvania",KLOM,92
Windsor International Airport,"Windsor, Ontario",CYQG,189
Window Rock Airport,"Window Rock, Arizona",KRQE,2054
Windorah Airport,Australia,YWDH,137
Winchester Regional Airport,"Winchester, Virginia",KOKV,221
Winchester Municipal Airport,"Winchester, Tennessee",KBGF,298
Wilson Airport,Nairobi,HKNW,1690
Wilmington International Airport,"Wilmington, North Carolina",KILM,9
Wilmington Airport,"Wilmington, Delaware",KILG,24
Willows-Glenn County Airport,"Willows, California",KWLW,42
Willow Airport,"Willow, Alaska",PAUO,67
Willmar Municipal Airport,"Willmar, Minnesota",KBDH,343
Williston Basin International Airport,North Dakota,?,717
Williamsport Regional Airport,"Williamsport, Pennsylvania",KIPT,160
Williamson–Sodus Airport,New York,KSDC,129
Williamson County Regional Airport,"Marion, Illinois",KMWA,143
Williamson–Sodus Airport,New York,KSDC,129
Williamsburg Regional Airport,"Kingstree, South Carolina",KCKI,20
William T. Piper Memorial Airport,"Lock Haven, Pennsylvania",KLHV,169
William R. Pogue Municipal Airport,"Sand Springs, Oklahoma",KOWP,271
William R. Fairchild International Airport,"Port Angeles, Washington",KCLM,88
William P. Hobby Airport,Greater Houston,KHOU,14
Will Rogers World Airport,Oklahoma City,KOKC,394
Wilkins Runway,Australian Antarctic Territory,YWKS,770
Wilkes County Airport,"North Wilkesboro, North Carolina",KUKF,396
Wilkes-Barre Wyoming Valley Airport,Scranton/Wilkes-Barre metropolitan area,KWBW,165
Wilkes-Barre/Scranton International Airport,"Wilkes-Barre, Pennsylvania",KAVP,293
Wiley Post Airport,"Oklahoma City, Oklahoma",KPWA,395
Wigram Aerodrome,Christchurch,(Location of Wigram Aerodrome),22
Wiener Neustadt West Airport,Wien,LOXN,286
