col0,col1,col2,col3
West End Brook,Tadley,Tadley,Tadley
West Branch Sugar River,"Mount Horeb, Wisconsin","Mount Horeb, Wisconsin","Mount Horeb, Wisconsin"
West Branch Schuylkill River,"Pottsville, Pennsylvania","Cressona, Pennsylvania","Schuylkill Haven, Pennsylvania"
West Branch Delaware River,"Delaware County, New York","Delaware County, New York","Delaware County, New York"
Weser,Hann. Münden,Kassel,Bremerhaven
Wesachewan River,"Division No. 22, Manitoba","Division No. 22, Manitoba","Division No. 22, Manitoba"
Werribee River,"Ballan, Victoria","Ballan, Victoria","Ballan, Victoria"
Wenatchee River,"Chelan County, Washington","Chelan County, Washington","Chelan County, Washington"
Wenaha River,"Wallowa County, Oregon","Wallowa County, Oregon","Wallowa County, Oregon"
Wellow Brook,Radstock,Radstock,Radstock
Weld Valley,"Huonville, Tasmania","Huonville, Tasmania","Huonville, Tasmania"
Weiser River,"Adams County, Idaho","Adams County, Idaho","Adams County, Idaho"
Weir River,"Division No. 23, Manitoba","Division No. 23, Manitoba","Division No. 23, Manitoba"
Weir Lake,"Division No. 23, Manitoba","Division No. 23, Manitoba","Division No. 23, Manitoba"
Webb Canyon,"Teton County, Wyoming","Teton County, Wyoming","Teton County, Wyoming"
Weald Brook,London Borough of Havering,London Borough of Havering,London Borough of Havering
Waterloo Creek,Iowa,Iowa,Iowa
Waterfalls Canyon,"Teton County, Wyoming","Teton County, Wyoming","Teton County, Wyoming"
Watendlath,Allerdale,Allerdale,Allerdale
Washougal River,"Clark County, Washington","Clark County, Washington","Clark County, Washington"
Washoe Creek,"Cotati, California","Cotati, California","Cotati, California"
Washington Creek,"Petaluma, California","Petaluma, California","Petaluma, California"
Warnes River,Northern Tablelands,Northern Tablelands,Northern Tablelands
Warm Springs River,"Wasco County, Oregon","Wasco County, Oregon","Wasco County, Oregon"
Waputik Icefield,British Columbia,British Columbia,British Columbia
Wapsipinicon River,Iowa,Iowa,Iowa
Wang River,Lampang,Lampang,Lampang
Wanapitei River,Sudbury District,Sudbury District,Sudbury District
Wami River,Tanzania,Tanzania,Tanzania
Walnut River,"Arkansas City, Kansas","Winfield, Kansas","Arkansas City, Kansas"
Wallowa River,"Wallowa County, Oregon","Wallowa County, Oregon","Wallowa County, Oregon"
Wallooskee River,"Clatsop County, Oregon","Clatsop County, Oregon","Clatsop County, Oregon"
Wallkill River,"Walden, New York","Walden, New York","Walden, New York"
Wallingat River,Mid North Coast,Mid North Coast,Mid North Coast
Wallamba River,"Nabiac, New South Wales",Mid North Coast,Mid North Coast
Wallagaraugh River,East Gippsland,East Gippsland,East Gippsland
Wallace River,"Snohomish County, Washington","Snohomish County, Washington","Snohomish County, Washington"
Walker River,"Mason, Nevada","Yerington, Nevada","Mason, Nevada"
Walker Creek,West Marin,West Marin,West Marin
Wakool River,Riverina,Riverina,Riverina
Waitaki River,"Duntroon, New Zealand",Kurow,Waitaki District
Wainganga River,Balaghat,Bhandara,Balaghat
Waiau River,Hurunui District,Hurunui District,Hurunui District
Wabigoon River,"Kenora District, Ontario","Kenora District, Ontario","Kenora District, Ontario"
Waatch River,"Clallam County, Washington","Clallam County, Washington","Clallam County, Washington"
Waal,Nijmegen,Zaltbommel,Zaltbommel
Wa River,Bo Kluea District,Bo Kluea District,Bo Kluea District
Vătășnița River,Iaşi County,Iaşi County,Iaşi County
Vătăvoaia River,Iaşi County,Iaşi County,Iaşi County
Vătălețu River,Vâlcea County,Vâlcea County,Vâlcea County
Vătavu River,Suceava County,Suceava County,Suceava County
Vătafu River,Vâlcea County,Vâlcea County,Vâlcea County
Văsălatu River,Argeș County,Argeș County,Argeș County
Văsui River,Vrancea County,Vrancea County,Vrancea County
Vărșag River,Harghita County,Harghita County,Harghita County
Vărzari River,Bihor County,Bihor County,Bihor County
Văruțu River,Caraş-Severin County,Caraş-Severin County,Caraş-Severin County
Vărsăturile River,Prahova County,Prahova County,Prahova County
Vărmaga River,Vărmaga,Hunedoara,Banpotoc
Vărbilău River,Prahova County,Prahova County,Prahova County
Vărbila River,Prahova County,Prahova County,Prahova County
Văraștina River,Satu Mare County,Satu Mare County,Satu Mare County
Văraștina River,Maramureş County,Maramureş County,Maramureş County
Văratica River,Vâlcea County,Vâlcea County,Vâlcea County
Văratecu River,Gorj County,Gorj County,Gorj County
Văratec River,Hunedoara,Hunedoara,Hunedoara
Văratec River,Neamţ County,Neamţ County,Neamţ County
Vămășoaia River,Iaşi County,Iaşi County,Iaşi County
Vălășeasa River,Dolj County,Dolj County,Dolj County
Văluța River,Gorj County,Gorj County,Gorj County
Vălosu River,Bihor County,Bihor County,Bihor County
Vălișorul River,Caraş-Severin County,Caraş-Severin County,Caraş-Severin County
Vălișoara River,Caraş-Severin County,Caraş-Severin County,Caraş-Severin County
Vălișoara River,Hunedoara,Hunedoara,Hunedoara
Văliug River,Caraş-Severin County,Caraş-Severin County,Caraş-Severin County
Vălioara River,Hunedoara,Hunedoara,Hunedoara
Vălereasca River,Hunedoara,Hunedoara,Hunedoara
Vălenilor River,Maramureș County,"Călinești, Maramureș","Călinești, Maramureș"
Văleni River,Mureş County,Mureş County,Mureş County
Văleni River,Mureş County,Mureş County,Mureş County
Văleni River,Neamţ County,Neamţ County,Neamţ County
Văleni River,Moldovenești,Cluj County,Moldovenești
Văleanca River,Prahova County,Vălenii de Munte,Vălenii de Munte
Văița River,Timiş County,Timiş County,Timiş County
Văgăuna Neagră River,Hunedoara,Hunedoara,Hunedoara
Văereni River,Bacău County,Bacău County,Bacău County
Vădureți River,Maramureş County,Maramureş County,Maramureş County
Vădurele River,Neamţ County,Neamţ County,Neamţ County
Vădastra River,Olt County,Olt County,Olt County
Vădana River,Făget,Făget,Făget
Văcăria River,Suceava County,Suceava County,Suceava County
Văcăria River,Hunedoara,Hunedoara,Hunedoara
Văcăria River,Dâmboviţa County,Dâmboviţa County,Dâmboviţa County
Văcarea River,Argeș County,Argeș County,Argeș County
Vâtroape,Sălaj County,Sălaj County,Sălaj County
Vârșioru River,Gorj County,Gorj County,Gorj County
Vârtopu River,Dolj County,Dolj County,Dolj County
Vârtop River,Gorj County,Gorj County,Gorj County
Vârtop River,Dolj County,Dolj County,"Vârtop, Dolj"
Vârtejul River,Argeș County,Argeș County,Argeș County
Vârtej River,Teleorman County,Teleorman County,Teleorman County
Vârnava River,Olt County,Olt County,Olt County
Vârlanu River,Neamţ County,Neamţ County,Neamţ County
Vârgău River,Harghita County,Harghita County,Harghita County
Vârghiș River,Harghita County,Harghita County,Harghita County
Vârghiș River,Covasna,Vârghiș,Harghita County
Vârfurașu River,Bihor County,Bihor County,Bihor County
Vârfuraș River,Cluj County,Cluj County,Cluj County
Vârciorova,Caraș-Severin County,Caraș-Severin County,Caraș-Severin County
Vârciorog River,Bihor County,Bihor County,Bihor County
Vârciorog River,Alba County,Alba County,Arieșeni
Vânătorul Mic River,Vrancea County,Vrancea County,Vrancea County
Vânătorul Mare River,Vrancea County,Vrancea County,Vrancea County
Vânătoru River,Covasna County,Covasna,Covasna County
Vânăta River,Călăraşi County,Călăraşi County,Călăraşi County
Vânturătoarea River,Caraş-Severin County,Caraş-Severin County,Caraş-Severin County
Vâna Șerbenilor River,Timiş County,Timiş County,Timiş County
Vâna Secănească River,Caraş-Severin County,Caraş-Severin County,Caraş-Severin County
Vâna Roșie River,Timiş County,Timiş County,Timiş County
Vâna River,Timiş County,Timiş County,Timiş County
Vâna Mălâei River,Buzău County,Buzău County,Buzău County
Vâna Mică River,Timiş County,Timiş County,Timiş County
Vâna Mare River,Caraş-Severin County,Caraş-Severin County,Caraş-Severin County
Vâna Mare River,Timiş County,Timiş County,Timiş County
Vâna Mare River,Buzău County,Buzău County,Buzău County
Vâltori River,Alba County,Alba County,Alba County
Vâlta River,Suceava County,Suceava County,Suceava County
Vâlsan River,Caraş-Severin County,Caraş-Severin County,Caraş-Severin County
Vâlsan River,Brăduleț,Brăduleț,Argeș County
Vâlcu River,Buzău County,Buzău County,Buzău County
Vâlcoi River,Alba County,Alba County,Alba County
Vâlcioara River,Braşov County,Braşov County,Braşov County
Vâlcelul Înflorit River,Prahova County,Prahova County,Prahova County
Vâlcelul Îndrăcit River,Braşov County,Braşov County,Braşov County
Vâlcelul Vârful cu Dor River,Prahova County,Prahova County,Prahova County
Vâlcelul Sugarilor River,Hunedoara,Hunedoara,Hunedoara
Vâlcelul Secării River,Hunedoara,Hunedoara,Hunedoara
Vâlcelul Poiana Izvoarelor River,Prahova County,Prahova County,Prahova County
Vâlcelul Podului River,Covasna,Covasna,Covasna
Vâlcelul Lucăcilă River,Dâmboviţa County,Dâmboviţa County,Dâmboviţa County
Vâlcelul Dihamului River,Braşov County,Braşov County,Braşov County
Vâlcelul Cocora River,Dâmboviţa County,Dâmboviţa County,Dâmboviţa County
Vâlcelul Clinului River,Prahova County,Prahova County,Prahova County
Vâlcele River,Bacău County,Bacău County,Bacău County
Vâlcele,Covasna,Covasna County,Covasna County
Vâlceaua Vlădișor River,Prahova County,Prahova County,Prahova County
Vâlceaua River,Arad County,Arad County,Arad County
Vâlceaua Pietrei River,Prahova County,Prahova County,Prahova County
Vâlceaua Găinii River,Argeș County,Argeș County,Argeș County
Vâlcea River,Alba County,Alba County,Alba County
Vâja River,Gorj County,Gorj County,Gorj County
Vyg River,Belomorsk,Belomorsk,Belomorsk
Vutcani River,Vaslui County,Vaslui County,Vaslui County
Vurpăr River,Sibiu County,Sibiu County,Sibiu County
Vulturul River,Braşov County,Braşov County,Braşov County
Vulturu River,Vrancea County,Vrancea County,Vrancea County
Vulturu River,Alba County,Alba County,Alba County
Vultur River,Vrancea County,Vrancea County,Vrancea County
Vulpășești River,Neamţ County,Neamţ County,Neamţ County
Vulpoiul River,Iaşi County,Iaşi County,Iaşi County
Vulpea River,Prahova County,Prahova County,Prahova County
Vulpășești River,Neamţ County,Neamţ County,Neamţ County
Vulcănița River,Braşov County,Braşov County,Braşov County
Vulcănița River,Dâmboviţa County,Dâmboviţa County,Dâmboviţa County
Vulcănița River,Brașov County,Brașov County,Brașov County
Vulcănescu River,Maramureş County,Maramureş County,Maramureş County
Vulcez River,Hunedoara County,Hunedoara,Hunedoara
Vulcanu River,Suceava County,Suceava County,Suceava County
Vulcana River,Dâmbovița County,Dâmbovița County,Vulcana-Băi
Vulcănița River,Dâmboviţa County,Dâmboviţa County,Dâmboviţa County
Vulcănița River,Brașov County,Brașov County,Brașov County
Vulcănița River,Braşov County,Braşov County,Braşov County
Vulcănescu River,Maramureş County,Maramureş County,Maramureş County
Vucova River,Timiş County,Timiş County,Timiş County
Vruseasca River,Braşov County,Braşov County,Braşov County
Vrelo Bune,Blagaj,Blagaj,Blagaj
Vranița River,Hunedoara,Hunedoara,Hunedoara
Vranița River,Bihor County,Bihor County,Bihor County
Vranița River,Gorj County,Gorj County,Gorj County
Vraniu River,Caraş-Severin County,Caraş-Severin County,Caraş-Severin County
Vranița River,Hunedoara,Hunedoara,Hunedoara
Vranița River,Bihor County,Bihor County,Bihor County
Vranița River,Gorj County,Gorj County,Gorj County
Voșlăbeni River,Harghita County,Voșlăbeni,Harghita County
