col0,col1,col2,col3
USS Acadia,1976-03-11,1994-12-16,7
USS Abraham Lincoln,1958-07-30,1981-02-28,8
USS APc-25,1942-02-19,1946-05-13,2
USNS Vindicator,1980-09-26,1994-08-19,4
USNS Titan,1986-06-30,2014-06-18,4
USNS Grapple,1982-10-29,2006-07-13,5
USLHT Amaranth,1890-08-30,1945-09-29,3
USCGC Storis,1941-01-26,2007-02-12,4
USCGC Edisto,1943-12-17,1965-10-20,8
USCGC Conifer,1942-02-23,2000-06-23,3
Tarmo,1907-02-15,1969-05-29,5
Spanish submarine C-3,1915-02-17,1941-07-31,5
SS France,1956-07-26,1974-10-25,10
SS El Capitan,1915-12-02,1919-02-01,7
SM UB-10,1914-10-15,1918-09-12,3
SMS Goeben,1909-04-08,1950-12-20,9
Russian monitor Admiral Spiridov,1865-06-04,1907-03-31,6
Russian monitor Admiral Chichagov,1865-06-04,1907-03-31,6
RFA Tarbatness,1964-12-07,2008-01-26,7
ORP Burza,1926-04-02,1960-06-28,3
Italian battleship Vittorio Veneto,1934-06-10,1948-02-01,9
Italian battleship Littorio,1934-06-10,1948-06-01,9
HNoMS King Haakon VII,1940-07-19,1951-02-01,2
Greek torpedo boat Kyzikos,1912-01-16,1941-04-24,1
Greek torpedo boat Kydoniai,1912-01-16,1941-04-26,1
Greek torpedo boat Kios,1912-01-16,1941-04-22,1
German destroyer Z5 Paul Jacobi,1935-01-09,1945-05-07,4
French ironclad Formidable,1878-12-13,1909-02-09,7
French destroyer Ouragan,1923-03-13,1940-07-03,3
French cruiser Chanzy,1899-12-18,1894-12-20,6
Danish ironclad Rolf Krake,1862-08-28,1907-06-29,7
Danish ironclad Danmark,1862-07-01,1900-11-22,5
