col0,col1,col2,col3
"William Nairne, Lord Dunsinane",Perthshire,Perthshire,1811-03-23
"William Grant, Lord Grant","Moray Place, Edinburgh",Dufftown,1972-11-09
V. R. Krishna Iyer,Ernakulam,Madras Presidency,2014-12-04
V. Manicavasagar,Colombo,Colombo,1993-12-27
T. M. Hobbs,Alabama,Alabama,2015-11-04
T. Metcalf,"Boston, Massachusetts",Massachusetts,1875-11-12
S. Selliah,Colombo,Colombo,1997-1-1
R. Robb,"Washington, D.C.","Bellows Falls, Vermont",1985-12-19
"Robert Smith Johnston, Lord Kincraig",Edinburgh,Edinburgh,2004-09-19
R. B. Kester,"Portland, Oregon","Ontario, Oregon",2012-05-31
Petrus Peckius the Elder,Leuven,Zierikzee,1589-07-16
