col0,col1,col2,col3
J. Bramston,"Wimbledon, London",T. W. Bramston,1921-09-13
J. Bertram,Toronto,G. H. Bertram,1904-11-28
J. Balfour,Edinburgh,R. L. Stevenson,1875-0-0
J. B. White,"Rupert, West Virginia",C. S. White,1944-6-2
J. B. White,Confederate States of America,A. White,1862-10-09
J. A. Love,Colorado,R. L. Kourlis,2002-01-21
J. Appleton,"Portland, Maine",J. Appleton,1864-08-22
J. Allen,"Litchfield, Connecticut",E. Goodrich,1812-07-31
J. A. Cocke,"Rutledge, Tennessee",W. Cocke,1854-02-16
J. A. Bell,Australia,J. P. Bell,1901-0-0
J. Adair,"Harrodsburg, Kentucky",T. B. Monroe,1840-05-19
J. d. Witt,County of Holland,C. d. Witt,1672-08-20
J. Adams,"Richland County, South Carolina",J. H. Adams,1830-07-09
J. Waggonner,Louisiana,W. Waggonner,2007-10-07
J. Ghiz,Charlottetown,R. Ghiz,1996-11-09
J. Scott,"Alexandria, Louisiana",A. Provosty,2009-04-25
J. Vile,"Marton, New Zealand",S. Davies,1905-12-6
J. v. Ribbentrop,Nuremberg,R. v. Ribbentrop,1946-10-16
J. D. Long,"Natchitoches, Louisiana",G. Long,2016-08-09
J. Riordan,Brisbane,E. Riordan,1955-09-15
J. Luken,"Cincinnati, Ohio",T. Luken,1979-07-12
J. Fowler,"Baton Rouge, Louisiana",H. M. Fowler,2009-01-26
J. Wakefield,"Ashburton, New Zealand",E. G. Wakefield,1879-03-03
J. Symonds,Onehunga,T. Symonds,1883-01-03
J. Thorpe,England,J. H. Thorpe,2014-12-04
J. B. Snyder,Mississippi,R. H. Snyder,1951-10-18
J. D. Mandel,"Annapolis, Maryland",Regicide,2001-10-06
J. Richardot,Arras,F. Richardot,1609-09-03
J. C. Wadds,Ontario,W. E. Rowe,2011-11-25
J. Rolland,Montreal,J. Rolland,1912-11-16
J. Duvalier,Port-au-Prince,F. Duvalier,2014-10-04
J. d. Casse,Bourbon-l'Archambault,Jean-Baptiste Louis Frédéric de La Rochefoucauld de Roye,1715-06-25
J. Rolland,Montreal,R. Préfontaine,1888-03-22
Jean-Baptiste-René Hertel de Rouville,Lower Canada,Jean-Baptiste-Melchior Hertel de Rouville,1858-1-3
J. Panet,Quebec City,J. Panet,1815-05-17
J. Nehru,New Delhi,N. family,1964-05-27
J. Goodwill,Louisiana,Captain,1974-11-10
J. Sung-taek,Pyongyang,K. Il-sung,2013-12-12
J. Masaryk,Czechoslovakia,T. G. Masaryk,1948-03-10
J. Wilson,"Bulls, New Zealand",J. Wilson,1929-05-03
J. Whitcomb,New York City,C. Matthews,1852-10-04
J. Walker,Australia,T. B. Cribb,1939-11-09
J. W. Ripley,Maine,E. W. Ripley,1835-06-17
J. W. Deaderick,"Jonesborough, Tennessee",J. Anderson,1890-10-08
J. T. Morehead,"Covington, Kentucky",J. M. Morehead,1854-12-28
J. Tolmie,Queensland,H. Yeates,1939-04-06
J. Stodart,Australia,2nd Light Horse Regiment,1922-06-20
J. Sinclair,West Vancouver,A. Trudeau,1984-02-07
J. S. Rollins,"Columbia, Missouri",J. S. Rollins,1972-04-01
J. Roosevelt,"Hyde Park, New York",R. family,1847-02-06
J. R. Eubank,"Alexandria, Louisiana",S. Lee,1952-11-09
J. Morgan,Australia,A. Morgan,1878-11-29
J. K. Flemming,Canada,H. J. Flemming,1927-02-10
J. Johnson,"Washington, D.C.",R. M. Johnson,1826-08-13
J. H. Otey,"Memphis, Tennessee",Mathews,1863-04-23
J. Guthrie,United States,J. L. Smith,1869-03-13
J. Garrard,"Bourbon County, Kentucky",K. Garrard,1822-01-19
J. Gapes,Christchurch,T. Gapes,1899-10-22
J. F. Garrick,England,J. Garrick,1907-01-12
J. FitzGerald,Wellington,G. G. Fitzgerald,1896-08-02
J. F. Robinson,"Scott County, Kentucky",J. M. Robinson,1882-10-31
J. Fairbairn,"Canberra air disaster, 1940",D. Fairbairn,1940-08-13
J. Dunsmuir,Cowichan Bay,R. Dunsmuir,1920-06-06
J. Duane,"Schenectady County, New York",J. C. Duane,1797-02-01
J. D. Chaplin,Ontario,A. D. Chaplin,1937-08-23
J. Davenport,Connecticut,J. Davenport,1797-08-03
J. C. Tory,"Halifax, Nova Scotia",R. K. Tory,1944-10-16
J. Coyne,Winnipeg,D. Coyne,2012-10-12
J. C. Pope,Prince Edward Island,W. H. Pope,1885-05-18
J. C. Cribb,Australia,B. Cribb,1926-0-0
J. Clark,England,A. Clark,1898-01-26
J. Clark,"Frankfort, Kentucky",C. H. Clark,1839-08-27
J. Carr,"Louisville, Kentucky",F. Carr,1818-08-24
J. Campbell,Christchurch,A. Anderson,1858-07-07
J. B. Clay,Montreal,H. Clay,1864-01-26
J. Belich,Wellington,J. Belich,2015-09-13
J. Bayley,Australia,I. Longman,1968-01-14
J. B. Frazier,"Chattanooga, Tennessee",James B. Frazier Jr.,1937-03-28
J. A. Lougheed,Ontario,P. Lougheed,1925-11-02
James Albert Manning Aikins,Manitoba,J. C. Aikins,1929-03-01
J. A. McKenzie,"Oak Grove, Kentucky",J. M. Moss,1904-06-25
J. A. Rahim,Karachi,A. Rahim,1977-1-1
J. Viger,Montreal,L. Papineau,1858-12-12
J. Sadoul,Paris,É. Faure,1956-11-18
J. Miquelon,Quebec,A. Bourbeau,2004-06-16
J. Dupré,"Opelousas, Louisiana",G. L. Dupré,1846-09-14
J. Dumoulin,"Sarasota, Florida",L. Taschereau,1988-02-20
J. V. Cortlandt,"Bergen Township, New Jersey",V. C. family,1739-1-1
J. Nicol,Quebec,M. Auger,1958-09-23
J. Golladay,Kentucky,E. I. Golladay,1887-05-20
J. Burnet,Ohio,D. G. Burnet,1853-05-10
J. Morton,Florida,J. Morton,1874-11-20
J. Taylor,"Mesa, Arizona",R. L. Worsley,1995-03-31
J. Melloy,Australia,V. Darling,2006-01-06
J. Layton,Ontario,R. Layton,2011-08-22
J. Horner,Calgary,H. Horner,2004-11-18
J. Batton,Louisiana,J. D. Batton,1996-04-08
