col0,col1,col2,col3
Tonj Airport,South Sudan,HSTO,431
Tongoy Airport,Tongoy,SCTG,14
Tongoa Airport,Vanuatu,NVST,2
Tongliao Airport,Inner Mongolia,ZBTL,730
Toncontín International Airport,Honduras,MHTG,1005
Tomás de Heres Airport,Venezuela,SVCB,60
Tompkinsville-Monroe County Airport,"Tompkinsville, Kentucky",KTZV,315
Tommanggong Airport,Malaysia,WBKM,7
Tomahawk Regional Airport,"Tomahawk, Wisconsin",KTKV,453
Tom B. David Field,"Calhoun, Georgia",KCZL,198
Tomás de Heres Airport,Venezuela,SVCB,60
Toluca International Airport,Toluca,(Location of airport in Mexico),2580
Tolmachevo Airport,Novosibirsk,(Location of airport in Novosibirsk Oblast),111
Toliara Airport,Toliara,FMST,1
Tolhuin Lago Fagnano Airport,Tolhuin,SAWL,27
Toledo Suburban Airport,"Lambertville, Michigan",KDUH,203
Toledo Express Airport,"Toledo, Ohio",KTOL,208
Toledo Executive Airport,"Toledo, Ohio",KTDZ,189
Toledo Airport,"Toledo, Paraná",SBTD,561
Tokushima Airport,Tokushima Prefecture,RJOS,11
Tokunoshima Airport,Japan,RJKN,2
Toktogul Airport,Toktogul,UAFX,962
Toksook Bay Airport,"Toksook Bay, Alaska",PAOO,17
Tokmok Airport,Tokmok,UAFF,843
Tokat Airport,Tokat,(Location of airport in Turkey),557
Tokachi–Obihiro Airport,Japan,RJCB,149
Tok Junction Airport,"Tok, Alaska",PFTO,499
Tok Airport,"Tok, Alaska",PATJ,509
Togiak Airport,"Togiak Village, Alaska",PATG,6
Tofino/Long Beach Airport,"Tofino, British Columbia",CYAZ,24
Tocumen International Airport,Panama City,MPTO,41
Toccoa Airport,"Toccoa, Georgia",KTOC,303
Tocache Airport,Tocache,SPCH,497
Tnte. Gral. Gerardo Pérez Pinedo Airport,Peru,SPAY,228
Tjilik Riwut Airport,Central Kalimantan,(Location of airport in Kalimantan),24
Tivat Airport,Montenegro,(Location of airport in Montenegro),6
Tirúa Airport,Tirúa,SCQK,67
Tirupati Airport,Tirupati,VOTP,106
Tiruchirappalli International Airport,Tiruchirapalli,VOTR,87
Tiranë Heliport,Tiranë,LAFK,21
Tirana International Airport Nënë Tereza,Albania,LATI,32
Tiranë Heliport,Tiranë,LAFK,21
Tirúa Airport,Tirúa,SCQK,67
Tioman Airport,Malaysia,WMBT,3
Tinson Pen Aerodrome,"Kingston, Jamaica",MKTP,4
Tinogasta Airport,Tinogasta,SANI,1200
Tiniteqilaaq Heliport,Greenland,BGTN,4
Tingwall Airport,Lerwick,EGET,13
Tingo María Airport,Peru,SPGM,654
Tindouf Airport,Tindouf,DAOF,442
Timmins/Victor M. Power Airport,Ontario,CYTS,295
Timimoun Airport,Algeria,DAUT,313
Tillsonburg Airport,"Norfolk County, Ontario",CYTB,272
Tillamook Airport,"Tillamook, Oregon",KTMK,10
Tillabéri Airport,Tillabery,DRRL,210
Tiko Airport,Cameroon,FKKC,46
Tikapur Airport,Nepal,(Location of airport in Nepal),159
Tijuana International Airport,San Diego–Tijuana,(Location of airport in Mexico),149
Tidjikja Airport,Mauritania,GQND,401
Tichitt Airport,Tichit,GQNC,170
Tic Toc Airport,Chaitén,SCHT,3
Tianjin Binhai International Airport,Tianjin,ZBTJ,3
Thunder Bay International Airport,Ontario,CYQT,199
Thompson–Robbins Airport,United States,KHEE,73
Thompson Falls Airport,"Thompson Falls, Montana",KTHM,751
Thompson Airport,"Thompson, Manitoba",CYTH,224
Thompson–Robbins Airport,United States,KHEE,73
Thomasville Regional Airport,"Thomasville, Georgia",KTVI,80
Thomas P. Stafford Airport,"Weatherford, Oklahoma",KOJA,489
Thomas C. Russell Field,"Alexander City, Alabama",KALX,209
Tho Xuan Airport,Thanh Hóa,(Location of airport in Vietnam),22
Thimarafushi Airport,Maldives,VRNT,1
Thief River Falls Regional Airport,"Thief River Falls, Minnesota",KTVF,341
Thessaloniki Airport,Thessaloniki,LGTS,7
The Oaks Airfield,"The Oaks, New South Wales",YOAS,268
The Monument Airport,Australia,YTMO,289
The Eastern Iowa Airport,"Cedar Rapids, Iowa",(Location of the Airport in Iowa),264
Thangool Airport,"Thangool, Queensland",YTNG,196
Thandwe Airport,Myanmar,(Location of airport in Burma),6
Thamkharka Airport,Nepal,(Location of airport in Nepal),579
Thakurgaon Airport,Thakurgaon District,VGSG,53
Thaba Tseka Airport,Thaba-Tseka,FXTA,2286
Texel International Airport,Texel,EHTX,0
Texas Gulf Coast Regional Airport,Texas,KLBX,7
Texarkana Regional Airport,Texarkana metropolitan area,KTXK,118
Teuge Airport,Apeldoorn,EHTE,5
Teterboro Airport,"Teterboro, New Jersey",KTEB,2
Tessalit Airport,Tessalit,GATS,494
Teseney Airport,Teseney,HHTS,615
Terre Haute Regional Airport,"Terre Haute, Indiana",KHUF,179
Terre Haute International Airport,"Terre Haute, Indiana",KHUF,179
Terrance B. Lettsome International Airport,British Virgin Islands,TUPJ,4
Termez Airport,Termez,(Location of air base in Uzbekistan),313
Teresina Airport,Teresina,SBTE,66
Tepoe Airstrip,Pelelu Tepu,SMTP,181
Teply Klyuch Airport,Russia,UEMH,282
Teoponte,Teoponte,SLTE,426
Teoponte,Teoponte,SLTE,426
Tenzing–Hillary Airport,Nepal,VNLK,2845
Teno Airport,Teno,SCUN,289
Tenkodogo Airport,Tenkodogo,DFET,309
Teniente Vidal Airfield,Coyhaique,SCCY,310
Teniente R. Marsh Airport,Base Presidente Eduardo Frei Montalva,SCRM,44
Teniente Julio Gallardo Airport,Puerto Natales,SCNT,66
Teniente General Benjamín Matienzo International Airport,Argentina,(Location of airport in Argentina),455
Teniente Coronel Carmelo Peralta Airport,"Concepción, Paraguay",SGCO,75
Teniente Amin Ayub Gonzalez Airport,"Encarnación, Paraguay",SGEN,199
Tenerife–South Airport,Tenerife,GCTS,63
Tenerife-North Airport,Tenerife,(Location of airport in Canary Islands),633
Tenerife–South Airport,Tenerife,GCTS,63
Temuco Maquehue Airport,Chile,(Location of airport in Chile),92
Temindung Airport,Samarinda,WALS,10
Telêmaco Borba Airport,Telêmaco Borba,SBTL,795
Telluride Regional Airport,"Telluride, Colorado",KTEX,2764
Teller Airport,"Teller, Alaska",PATE,89
Telfair–Wheeler Airport,"McRae, Georgia",KMQW,61
Telêmaco Borba Airport,Telêmaco Borba,SBTL,795
Tejgaon Airport,Dhaka,Location of airport in Bangladesh,7
Teixeira de Freitas Airport,Teixeira de Freitas,SNTF,104
Tehuacán Airport,Mexico,(Location of airport in Mexico),1679
Tehran Imam Khomeini International Airport,Iran,OIIE,1007
Tehini Airport,"Bouna, Côte d'Ivoire",DIBN,380
Tefé Airport,Tefé,SBTF,56
Ted Stevens Anchorage International Airport,"Anchorage, Alaska",PANC,46
Te Anau Airport,Te Anau,NZMO,209
Tchien Airport,Zwedru,GLTN,73
Tbilisi International Airport,Tbilisi,UGTB,494
Ta’if Regional Airport,Ta’if,(Location of airport in Saudi Arabia),1477
Tazadit Airport,Zouérat,GQPZ,344
Taza Airport,Taza,GMFZ,576
Taywara Airport,"Taywara, Afghanistan",OATW,2246
Tawau Airport,Sabah,WBKW,17
Taura Air Base,Taura,SETA,17
Taunton Municipal Airport,"Taunton, Massachusetts",KTAN,13
Tatitlek Airport,"Tatitlek, Alaska",PAKA,18
Tatakoto Airport,Tuamotu,NTGO,3
Tata Airport,Labé,GULB,1035
Tasiusaq Heliport,Greenland,BGTA,55
Tasiusaq Heliport,Greenland,BGTQ,6
Tasiilaq Heliport,Greenland,BGAM,7
Tashkent International Airport,Tashkent,(Location of airport in Uzbekistan),431
Tartu Airport,Estonia,EETU,66
"Tartagal ""General Enrique Mosconi"" Airport",Salta Province,SAST,448
Taroudannt Airport,Taroudannt,GMMO,264
Tarinkot Airport,Afghanistan,OATN,1364
Tardamu Airport,Savu Island,(Location of the Airport in Indonesia),14
Taraz Airport,Kazakhstan,UADD,666
Tarauacá Airport,Tarauacá,SBTK,60
Tarapoa Airport,Ecuador,SETR,248
Taranto-Grottaglie Airport,Italy,(Location of airport in Italy),65
Tapuruquara Airport,Santa Isabel do Rio Negro,SWTP,67
Tappahannock–Essex County Airport,"Tappahannock, Virginia",KXSA,41
Taoyuan International Airport,Northern Taiwan,RCTP,33
Taos Regional Airport,"Taos, New Mexico",KSKX,2162
Tanjung Manis Airport,Sarawak,WBTM,4
Tangier Island Airport,Tangier Island,KTGI,1
