col0,col1,col2,col3
Yuseong Spa Station,2,"Bongmyeong-dong,Yuseong District,Daejeon",116
Yulli Station,2,"Geumgok-dong,Buk District,Busan",236
Youngsan University Station,2,"Bansong-dong,Haeundae District,Busan",411
Yongsan Station,2,"Yongsan-dong,Dalseo District,Daegu",223
Yongmun Station,2,"Yongmun-dong,Jung District,Daejeon",109
Yeungnam University Station,2,"Dae-dong,Gyeongsan,North Gyeongsang Province",244
Yeonsan Station,2,"Yeonsan-dong,Yeonje District,Busan",122
Yeonji Park Station,2,"Gusan-dong,Gimhae",19
Yeonho Station,2,"Yeonho-dong,Suseong District,Daegu",237
Yangjeong Station,2,"Yangjeong-dong,Busanjin District,Busan",121
Yangdong Market Station,2,"Seo-dong,Seo District,Gwangju",107
World Cup Stadium Station,2,"Noeun-dong,Yuseong District,Daejeon",119
Wondae Station,2,"Wondae-dong,Seo District,Daegu",325
Wolpyeong Station,2,"Wolpyeong-dong,Seo District,Daejeon",114
Wolbae Station,2,"Jincheon-dong,Dalseo District,Daegu",119
Uncheon Station,2,"Ssangchon-dong,Seo District,Gwangju",112
Toseong Station,2,"Toseong-dong,Seo District,Busan",109
Tanbang Station,2,"Tanbang-dong,Seo District,Daejeon",110
Taejeon Station,2,"Taejeon-dong,Buk District,Daegu",318
Suyeong Station,2,"U-dong,Suyeong District,Busan",● Line 2: 208
Suseongmot Station,2,"Jisan-dong,Suseong District,Daegu",338
Suseong Market Station,2,"Suseong-dong,Suseong District,Daegu",334
Suseong District Stadium Station,2,"Beomeo-dong,Suseong District,Daegu",335
Suseong-gu Office Station,2,"Beomeo-dong,Suseong District,Daegu",234
Sukdeung Station,2,"Deokcheon-dong,Buk District,Busan",312
Sujeong Station,2,"Hwamyeong-dong,Buk District,Busan",234
Suan Station,2,"Suan-dong,Dongnae District,Busan",403
Ssangchon Station,2,"Ssangchon-dong,Seo District,Gwangju",111
Sports Park Station,2,"Daejeo-dong,Gangseo District,Busan",316
Sports Complex Station,2,"Geoje-dong,Yeonje District,Busan",307
Songjeong Park Station,2,"Songjeong-dong,Gwangsan District,Gwangju",116
Songhyeon Station,2,"Songhyeon-dong,Dalseo District,Daegu",122
Sinpyeong Station,2,"Sinpyeong-dong,Saha District,Busan",101
Sinnam Station,2,"Dongsan-dong,Jung District,Daegu",● Line 2: 229
Sinmae Station,2,"Maeho-dong,Suseong District,Daegu",240
Sinheung Station,2,"Panam-dong,Dong District,Daejeon",102
Seongseo Industrial Complex Station,2,"Igok-dong,Dalseo District,Daegu",221
Seongdangmot Station,2,"Daemyeong-dong,Nam District/Songhyeon-dong,Dalseo District,Daegu",123
Seomun Market Station,2,"Daesin-dong,Jung District,Daegu",328
Seokdae Station,2,"Seokdae-dong,Haeundae District,Busan",410
Seodaesin Station,2,"Seodaesin-dong,Seo District,Busan",107
Seodaejeon Negeori Station,2,"Yongdu-dong,Jung District,Daejeon",107
Seobusan Yutongjigu Station,2,"Daejeo-dong,Gangseo District,Busan",3
Seo-dong Station,2,"Seo-dong,Geumjeong District,Busan",407
Sawol Station,2,"Sinmae-dong,Suseong District,Daegu",241
Sasang Station,2,"Gwaebeop-dong,Sasang District,Busan",1
Sangmu Station,2,"Maneuk-dong,Seo District,Gwangju",113
Sangin Station,2,"Sangin-dong,Dalseo District,Daegu",120
Sajik Station,2,"Sajik-dong,Dongnae District,Busan",308
Royal Tomb of King Suro Station,2,"Oe-dong,Gimhae",17
Pyeonggang Station,2,"Daejeo-dong,Gangseo District,Busan",8
Pyeongdong Station,2,"Woljeon-dong,Gwangsan District,Gwangju",119
Pusan National University Yangsan Campus Station,2,"Mulgeum-eup,Yangsan,South Gyeongsang",241
Pusan National University Station,2,"Jangjeon-dong,Geumjeong District,Busan",128
Presbyterian University Station,2,"Samgye-dong,Gimhae",20
Panam Station,3,"Panam-dong,Dong District,Daejeon",101
Oryong Station,2,"Oryu-dong,Jung District,Daejeon",108
Oncheonjang Station,2,"Oncheon-dong,Dongnae District,Busan",127
Nopo Station,2,"Nopo-dong,Geumjeong District,Busan",134
Nongseong Station,2,"Nongseong-dong,Seo District,Gwangju",109
Noeun Station,2,"Noeun-dong,Yuseong District,Daejeon",120
National Cemetery Station,2,"Guam-dong,Yuseong District,Daejeon",118
Nangmin Station,2,"Nangmin-dong,Dongnae District,Busan",404
Namyangsan Station,2,"Mulgeum-eup,Yangsan,South Gyeongsang",242
Namsanjeong Station,2,"Mandeok-dong,Buk District,Busan",311
Namsan Station,2,"Namsan-dong,Jung District,Daegu",319
Namsan Station,2,"Namsan-dong,Geumjeong District,Busan",132
Nampo Station,2,"Nampo-dong,Jung District,Busan",111
Namcheon Station,2,"Namcheon-dong,Suyeong District,Busan",211
Naengjeong Station,2,"Jurye-dong,Sasang District,Busan",224
Naedang Station,2,"Naedang-dong,Seo District,Daegu",227
Myeongnyun Station,2,"Myeongnyun-dong,Dongnae District,Busan",126
Myeongjang Station,2,"Allak-dong,Dongnae District,Busan",406
Munyang Station,2,"Munyang-ri,Dasa-eup,Dalseong County,Daegu",216
Munhyeon Station,2,"Munhyeon-dong,Nam District,Busan",216
Mulmangol Station,2,"Yeonsan-dong,Yeonje District,Busan",304
Motgol Station,2,"Daeyeon-dong,Nam District,Busan",214
Mora Station,2,"Mora-dong,Sasang District,Busan",230
Modeok Station,2,"Deokpo-dong,Sasang District,Busan",229
Minam Station,2,"Oncheon-dong,Dongnae District,Busan",● Line 3: 309
Millak Station,2,"Suyeong-dong,Suyeong District,Busan",207
Manpyeong Station,2,"Nowon-dong,Buk District,Daegu",323
Mangmi Station,2,"Mangmi-dong,Suyeong District,Busan",302
Mandeok Station,2,"Mandeok-dong,Buk District,Busan",310
Manchon Station,2,"Manchon-dong,Suseong District,Daegu",235
Maecheon Station,2,"Maecheon-dong,Buk District,Daegu",319
Maecheon Market Station,2,"Maecheon-dong,Buk District,Daegu",320
Kyungsung University–Pukyong National University Station,2,"Daeyeon-dong,Nam District,Busan",212
Kyungpook National University Hospital Station,2,"Samdeok-dong,Jung District,Daegu",231
Kim Daejung Convention Center Station,2,"Maneuk-dong,Seo District,Gwangju",114
Keimyung University Station,2,"Sindang-dong,Dalseo District,Daegu",220
Jwacheon Station,2,"Jwacheon-dong,Dong District,Busan",116
Jurye Station,2,"Jurye-dong,Sasang District,Busan",225
Jungangno Station,2,"Eunhang-dong,Jung District,Daejeon",105
Jungangno Station,2,"Seongnae-dong,Jung District,Daegu",131
Jungang Station,2,"Jungang-dong,Jung District,Busan",112
Jung-gu Office Station,2,"Seonhwa-dong,Jung District,Daejeon",106
Jung-dong Station,2,"Jung-dong,Haeundae District,Busan",202
Jukjeon Station,2,"Jukjeon-dong,Dalseo District,Daegu",224
Jinae Station,2,"Jinae-dong,Gimhae",11
Jijok Station,2,"Jijok-dong,Yuseong District,Daejeon",121
Jigegol Station,2,"Munhyeon-dong,Nam District,Busan",215
Jeungsan Station,2,"Mulgeum-eup,Yangsan,South Gyeongsang",240
Jeonpo Station,2,"Jeonpo-dong,Busanjin District,Busan",218
Jeongpyeong Station,2,"Jeongpyeong-dong,Gyeongsan,North Gyeongsang Province",242
Jangsan Station,2,"Jwa-dong,Haeundae District,Busan",201
Jangjeon Station,2,"Jangjeon-dong,Geumjeong District,Busan",129
Jagalchi Station,2,"Nampo-dong,Seo District,Busan",110
Inje University Station,2,"Samjeong-dong,Gimhae",13
Imdang Station,2,"Jungbang-dong,Gyeongsan,North Gyeongsang Province",243
Igok Station,2,"Igok-dong,Dalseo District,Daegu",222
Hyeonchungno Station,2,"Daemyeong-dong,Nam District,Daegu",126
Hwajeong Station,2,"Hwajeong-dong,Seo District,Gwangju",110
Hopo Station,2,"Dong-myeon,Yangsan,South Gyeongsang",239
Haeundae Station,2,"U-dong,Haeundae District,Busan",203
Hadan Station,2,"Hadan-dong,Saha District,Busan",102
Gwangju Songjeong Station,2,"Songjeong-dong,Gwangsan District,Gwangju",117
Gwangan Station,2,"Gwangan-dong,Suyeong District,Busan",209
Gwaebeop Renecite Station,2,"Gwaebeop-dong,Sasang District,Busan",2
Guseo Station,2,"Guseo-dong,Geumjeong District,Busan",130
Gunam Station,2,"Gupo-dong,Buk District,Busan",231
Gumyeong Station,2,"Gupo-dong,Buk District,Busan",232
Guam Station,2,"Guam-dong,Yuseong District,Daejeon",117
Government Complex Daejeon Station,2,"Dunsan-dong,Seo District,Daejeon",112
Gosan Station,2,"Siji-dong,Suseong District,Daegu",239
Gongdan Station,2,"Bisan-dong,Seo District,Daegu",322
Goejeong Station,2,"Goejeong-dong,Saha District,Busan",105
Gochon Station,2,"Cheolma-myeon,Gijang County,Busan",413
Gimhae National Museum Station,2,"Nae-dong,Gimhae",18
Gimhae International Airport Station,2,"Daejeo-dong,Gangseo District,Busan",4
Gimhae College Station,2,"An-dong,Gimhae",12
Gimhae City Hall Station,2,"Buwon-dong,Gimhae",14
Geumsa Station,2,"Geumsa-dong,Geumjeong District,Busan",408
Geumnyeonsan Station,2,"Namcheon-dong,Suyeong District,Busan",210
Geumnamno 5-ga Station,2,"Buk-dong,Buk District,Gwangju",106
Geumnamno 4-ga Station,2,"Chunggeum-dong,Dong District,Gwangju",105
Geumgok Station,2,"Geumgok-dong,Buk District,Busan",238
Geoje Station,2,"Geoje-dong,Yeonje District,Busan",306
Gaya Station,2,"Gaya-dong,Busanjin District,Busan",221
Gapcheon Station,2,"Wolpyeong-dong,Seo District,Daejeon",115
Gangseo-gu Office Station,2,"Daejeo-dong,Gangseo District,Busan",315
Gangchang Station,2,"Hosan-dong,Dalseo District,Daegu",219
Gamsam Station,2,"Gamsam-dong,Dalseo District,Daegu",225
Gamjeon Station,2,"Gamjeon-dong,Sasang District,Busan",226
Galma Station,2,"Galma-dong,Seo District,Daejeon",113
Gaegeum Station,2,"Gaegeum-dong,Busanjin District,Busan",223
Dusil Station,2,"Guseo-dong,Geumjeong District,Busan",131
Duryu Station,2,"Duryu-dong,Dalseo District,Daegu",226
Dosan Station,2,"Dosan-dong,Gwangsan District,Gwangju",118
Dongwon Station,2,"Geumgok-dong,Buk District,Busan",237
Dongnae Station,2,"Oncheon-dong/Myeongnyun-dong,Dongnae District,Busan",125 (Line 1)
Dongdaesin Station,2,"Dongdaesin-dong,Seo District,Busan",108
Dongdaegu Station,2,"294Sinam-dong,Dong District,Daegu",135
Dongcheon Station,2,"Dongcheon-dong,Buk District,Daegu",315
Dongbaek Station,2,"U-dong,Haeundae District,Busan",204
Dong-eui University Station,2,"Gaya-dong,Busanjin District,Busan",222
Dong-Pusan College Station,2,"Bansong-dong,Haeundae District,Busan",412
Dolgogae Station,2,"Wolsan-dong,Seo District,Gwangju",108
Deunggu Station,2,"Daejeo-dong,Gangseo District,Busan",6
Deokpo Station,2,"Deokpo-dong,Sasang District,Busan",228
Deokdu Station,2,"Daejeo-dong,Gangseo District,Busan",5
Dasa Station,2,"Maegok-ri,Dasa-eup,Dalseong,Daegu",217
Dangni Station,2,"Dangni-dong,Saha District,Busan",103
Damti Station,2,"Manchon-dong,Suseong District,Daegu",236
Dalseong Park Station,2,"Soochang-dong,Jung District,Daegu",327
Daeyeon Station,2,"Daeyeon-dong,Nam District,Busan",213
Daeti Station,2,"Goejeong-dong,Saha District,Busan",106
Daesil Station,2,"Jukgok-ri,Dasa-eup,Dalseong County,Daegu",218
Daesa Station,2,"Gangdong-dong,Gangseo District,Busan",9
Daemyeong Station,2,"Daemyeong-dong,Nam District,Daegu",124
Daejeon Station,2,"Jeong-dong,Dong District,Daejeon",104
Daejeo Station,2,"Daejeo-dong,Gangseo District,Busan",317
Daegu Station,2,"Chilseong-dong,Buk District,Daegu",132
Daegu Grand Park Station,2,"Yeonho-dong,Suseong District,Daegu",238
Daegu Bank Station,2,"Suseong-dong,Suseong District,Daegu",232
Daegok Station,2,"Daegok-dong,Dalseo District,Daegu",117
Daebonggyo Station,2,"Daebong-dong,Seo District,Daegu",333
Dae-dong Station,2,"Dae-dong,Dong District,Daejeon",103
Culture Complex Station,2,"Gwangsan-dong,Dong District,Gwangju",104
City Hall Station,2,"Dunsan-dong,Seo District,Daejeon",111
City Hall Station,2,"Yeonsan-dong,Yeonje District,Busan",122
Chungnyeolsa Station,2,"Allak-dong,Dongnae District,Busan",405
Choryang Station,2,"Choryang-dong,Dong District,Busan",114
Chilseong Market Station,2,"Chilseong-dong,Buk District,Daegu",133
Chilgok Kyungpook National University Medical Center Station,2,"Gugu-dong,Buk District,Daegu",312
