col0,col1,col2,col3
Volvo S70,Peter Horbury,Volvo V70,2000
Volkswagen Passat,Robert Lešnik,Audi A3,2010
Volkswagen New Beetle,Peter Schreyer,Audi A3,2011
Tata Safari Storme,Tata Motors,Mahindra Scorpio,2012
Tata Movus,Tata Motors,Toyota Innova,2014
Tata GenX Nano,Tata Motors,Suzuki Alto,2015
Studebaker Sky Hawk,Raymond Loewy,Packard Hawk,1956
Saturn Sky,Franz von Holzhausen,Pontiac Solstice,2010
Renault Alliance,Robert Opron,Renault 9 & 11,1987
Porsche 918 Spyder,Michael Mauer,Porsche Carrera GT,2015
Pontiac Solstice,Wayne Cherry,Opel GT,2010
Pontiac Astre,Bill Mitchell,Chevrolet Vega,1977
Panther Lima,Bob Jankel,Vauxhall Magnum,1982
Micro Trend,Pininfarina,Hafei Lobo,2008
Mercedes-Benz E-Class,Robert Lesnik,Mercedes-Benz S-Class,2017
Mahindra TUV300,Chennai,Ford EcoSport,2015
Lincoln EL-series,Eugene Turenne Gregorie,Mercury Eight,1951
Lamborghini Gallardo,Italdesign Giugiaro,Audi R8,2013
Lamborghini Athon,Gruppo Bertone,Lamborghini Silhouette,1980
Jaguar S-Type,Ian Callum,Lincoln LS,2009
Jaguar R-Coupe,Ian Callum,Jaguar S-Type,2001
IKCO Dena,Iran Khodro,IKCO Samand,2017
Ford Thunderbird,Jack Telnack,Lincoln Continental Mark VII,1988
Ford Taurus SHO,Jack Telnack,Ford Taurus,1999
Ford Taurus,Moray Callum,Lincoln Continental,2007
Ford Five Hundred,J Mays,Volvo S60,2007
Ferrari Pinin,Leonardo Fioravanti,Ferrari 400,1980
Ferrari 348,Pininfarina,Ferrari Mondial,1989
Ferrari 328,Leonardo Fioravanti,Ferrari Mondial,1989
Chrysler Pacifica,Freeman Thomas,Chrysler Voyager,2008
Chrysler PT Cruiser,Bryan Nesbitt,Dodge Neon,2010
Chrysler Crossfire,Eric Stoddard,Mercedes-Benz SLK-Class,2008
Chevrolet Vega,Bill Mitchell,Buick Skyhawk,1977
Chevrolet HHR,Bryan Nesbitt,Chevrolet Cobalt,2011
Chevrolet Adra,General Motors India Private Limited,Ford Escape,2015
Cadillac Series 65,Harley Earl,Buick Roadmaster,1938
Cadillac Series 355,Harley Earl,Cadillac V-16,1935
Cadillac Fleetwood Brougham,Bill Mitchell,Buick Electra,1986
BMW 3 Series,Pinky Lai,BMW M3,1999
Aston Martin DB7,Ian Callum,Jaguar XK8,1998
Apollo,Franco Scaglione,Intermeccanica,1965
Alfa Romeo Spider,Pininfarina,Alfa Romeo Giulia,1994
AMC Hornet,Richard A. Teague,AMC Gremlin,1977
AMC Concord,Richard A. Teague,AMC Gremlin,1983
