col0,col1,col2,col3
Zamia wallisii,Zamiaceae,CR,IUCN3.1
Zamia verschaffeltii,Zamiaceae,NT,IUCN3.1
Zamia vazquezii,Zamiaceae,CR,IUCN3.1
Zamia variegata,Zamiaceae,EN,IUCN3.1
Zamia urep,Zamiaceae,CR,IUCN3.1
Zamia ulei,Zamiaceae,NT,IUCN3.1
Zamia tuerckheimii,Zamiaceae,NT,IUCN3.1
Zamia standleyi,Zamiaceae,VU,IUCN3.1
Zamia spartea,Zamiaceae,CR,IUCN3.1
Zamia soconuscensis,Zamiaceae,VU,IUCN3.1
Zamia skinneri,Zamiaceae,EN,IUCN3.1
Zamia roezlii,Zamiaceae,NT,IUCN3.1
Zamia pygmaea,Zamiaceae,CR,IUCN3.1
Zamia purpurea,Zamiaceae,CR,IUCN3.1
Zamia pumila,Zamiaceae,NT,IUCN3.1
Zamia pseudoparasitica,Zamiaceae,NT,IUCN3.1
Zamia pseudomonticola,Zamiaceae,NT,IUCN3.1
Zamia prasina,Zamiaceae,CR,IUCN3.1
Zamia portoricensis,Zamiaceae,EN,IUCN3.1
Zamia polymorpha,Zamiaceae,NT,IUCN3.1
Zamia poeppigiana,Zamiaceae,NT,IUCN3.1
Zamia picta,Zamiaceae,EN,IUCN3.1
Zamia paucijuga,Zamiaceae,NT,IUCN3.1
Zamia obliqua,Zamiaceae,NT,IUCN3.1
Zamia neurophyllidia,Zamiaceae,NT,IUCN3.1
Zamia muricata,Zamiaceae,NT,IUCN3.1
Zamia monticola,Zamiaceae,CR,IUCN3.1
Zamia montana,Zamiaceae,CR,IUCN3.1
Zamia melanorrhachis,Zamiaceae,EN,IUCN3.1
Zamia manicata,Zamiaceae,NT,IUCN3.1
Zamia macrochiera,Zamiaceae,CR,IUCN3.1
Zamia lucayana,Zamiaceae,EN,IUCN3.1
Zamia loddigesii,Zamiaceae,NT,IUCN3.1
Zamia lecointei,Zamiaceae,NT,IUCN3.1
Zamia lacandona,Zamiaceae,EN,IUCN3.1
Zamia kickxii,Zamiaceae,DD,IUCN3.1
Zamia ipetiensis,Zamiaceae,VU,IUCN3.1
Zamia integrifolia,Zamiaceae,NT,IUCN3.1
Zamia inermis,Zamiaceae,CR,IUCN3.1
Zamia hymenophyllidia,Zamiaceae,CR,IUCN3.1
Zamia herrerae,Zamiaceae,VU,IUCN3.1
Zamia gentryi,Zamiaceae,VU,IUCN3.1
Zamia furfuracea,Zamiaceae,EN,IUCN3.1
Zamia fischeri,Zamiaceae,EN,IUCN3.1
Zamia fairchildiana,Zamiaceae,NT,IUCN3.1
Zamia erosa,Zamiaceae,VU,IUCN3.1
Zamia encephalartoides,Zamiaceae,VU,IUCN3.1
Zamia dressleri,Zamiaceae,EN,IUCN3.1
Zamia disodon,Zamiaceae,CR,IUCN3.1
Zamia cunaria,Zamiaceae,NT,IUCN3.1
Zamia cremnophila,Zamiaceae,EN,IUCN3.1
Zamia chigua,Zamiaceae,NT,IUCN3.1
Zamia boliviana,Zamiaceae,NT,IUCN3.1
Zamia angustifolia,Zamiaceae,DD,IUCN3.1
Zamia amplifolia,Zamiaceae,CR,IUCN3.1
Zamia amazonum,Zamiaceae,NT,IUCN3.1
Zamia acuminata,Zamiaceae,VU,IUCN3.1
Stangeria,Stangeriaceae,NT,IUCN3.1
Microcycas,Zamiaceae,CR,IUCN3.1
Macrozamia viridis,Zamiaceae,VU,IUCN3.1
Macrozamia stenomera,Zamiaceae,LC,IUCN3.1
Macrozamia spiralis,Zamiaceae,EN,IUCN3.1
Macrozamia secunda,Zamiaceae,VU,IUCN3.1
Macrozamia riedlei,Zamiaceae,LC,IUCN3.1
Macrozamia reducta,Zamiaceae,LC,IUCN3.1
Macrozamia polymorpha,Zamiaceae,LC,IUCN3.1
Macrozamia plurinervia,Zamiaceae,EN,IUCN3.1
Macrozamia platyrhachis,Zamiaceae,LC,IUCN3.1
Macrozamia pauli-guilielmi,Zamiaceae,EN,IUCN3.1
Macrozamia parcifolia,Zamiaceae,VU,IUCN3.1
Macrozamia occidua,Zamiaceae,VU,IUCN3.1
Macrozamia mountperriensis,Zamiaceae,LC,IUCN3.1
Macrozamia moorei,Zamiaceae,LC,IUCN3.1
Macrozamia montana,Zamiaceae,LC,IUCN3.1
Macrozamia miquelii,Zamiaceae,LC,IUCN3.1
Macrozamia macdonnellii,Zamiaceae,LC,IUCN3.1
Macrozamia lucida,Zamiaceae,LC,IUCN3.1
Macrozamia longispina,Zamiaceae,LC,IUCN3.1
Macrozamia lomandroides,Zamiaceae,VU,IUCN3.1
Macrozamia johnsonii,Zamiaceae,LC,IUCN3.1
Macrozamia humilis,Zamiaceae,VU,IUCN3.1
Macrozamia heteromera,Zamiaceae,LC,IUCN3.1
Macrozamia glaucophylla,Zamiaceae,LC,IUCN3.1
Macrozamia fraseri,Zamiaceae,LC,IUCN3.1
Macrozamia flexuosa,Zamiaceae,EN,IUCN3.1
Macrozamia fearnsidei,Zamiaceae,LC,IUCN3.1
Macrozamia fawcettii,Zamiaceae,LC,IUCN3.1
Macrozamia elegans,Zamiaceae,EN,IUCN3.1
Macrozamia dyeri,Zamiaceae,LC,IUCN3.1
Macrozamia douglasii,Zamiaceae,LC,IUCN3.1
Macrozamia diplomera,Zamiaceae,LC,IUCN3.1
Macrozamia crassifolia,Zamiaceae,VU,IUCN3.1
Macrozamia cranei,Zamiaceae,EN,IUCN3.1
Macrozamia conferta,Zamiaceae,VU,IUCN3.1
Macrozamia concinna,Zamiaceae,LC,IUCN3.1
Macrozamia communis,Zamiaceae,LC,IUCN3.1
Macrozamia cardiacensis,Zamiaceae,VU,IUCN3.1
Lepidozamia peroffskyana,Zamiaceae,LC,IUCN3.1
Lepidozamia hopei,Zamiaceae,LC,IUCN3.1
Encephalartos woodii,Zamiaceae,EW,IUCN3.1
Encephalartos whitelockii,Zamiaceae,CR,IUCN3.1
Encephalartos villosus,Zamiaceae,LC,IUCN3.1
Encephalartos turneri,Zamiaceae,LC,IUCN3.1
Encephalartos trispinosus,Zamiaceae,VU,IUCN3.1
Encephalartos transvenosus,Zamiaceae,LC,IUCN3.1
Encephalartos senticosus,Zamiaceae,VU,IUCN3.1
Encephalartos sclavoi,Zamiaceae,CR,IUCN3.1
Encephalartos pterogonus,Zamiaceae,CR,IUCN3.1
Encephalartos princeps,Zamiaceae,VU,IUCN3.1
Encephalartos paucidentatus,Zamiaceae,VU,IUCN3.1
Encephalartos natalensis,Zamiaceae,NT,IUCN3.1
Encephalartos middelburgensis,Zamiaceae,CR,IUCN3.1
Encephalartos manikensis,Zamiaceae,VU,IUCN3.1
Encephalartos longifolius,Zamiaceae,NT,IUCN3.1
Encephalartos lehmannii,Zamiaceae,NT,IUCN3.1
Encephalartos lebomboensis,Zamiaceae,EN,IUCN3.1
Encephalartos laurentianus,Zamiaceae,NT,IUCN3.1
Encephalartos latifrons,Zamiaceae,CR,IUCN3.1
Encephalartos laevifolius,Zamiaceae,CR,IUCN3.1
Encephalartos kisambo,Zamiaceae,EN,IUCN3.1
Encephalartos ituriensis,Zamiaceae,NT,IUCN3.1
Encephalartos inopinus,Zamiaceae,CR,IUCN3.1
Encephalartos horridus,Zamiaceae,EN,iucn3.1
Encephalartos hirsutus,Zamiaceae,CR,IUCN3.1
Encephalartos hildebrandtii,Zamiaceae,NT,IUCN3.1
Encephalartos gratus,Zamiaceae,VU,IUCN3.1
Encephalartos friderici-guilielmi,Zamiaceae,NT,IUCN3.1
Encephalartos ferox,Zamiaceae,NT,IUCN3.1
Encephalartos eugene-maraisii,Zamiaceae,EN,IUCN3.1
Encephalartos equatorialis,Zamiaceae,CR,IUCN3.1
Encephalartos dolomiticus,Zamiaceae,CR,IUCN3.1
Encephalartos cycadifolius,Zamiaceae,LC,IUCN3.1
Encephalartos cupidus,Zamiaceae,CR,IUCN3.1
Encephalartos concinnus,Zamiaceae,EN,IUCN3.1
Encephalartos caffer,Zamiaceae,NT,iucn3.1
Encephalartos brevifoliolatus,Zamiaceae,EW,IUCN3.1
Encephalartos barteri,Zamiaceae,VU,IUCN3.1
Encephalartos arenarius,Zamiaceae,EN,IUCN3.1
Encephalartos altensteinii,Zamiaceae,VU,IUCN3.1
Dioon tomasellii,Zamiaceae,VU,iucn3.1
Dioon spinulosum,Zamiaceae,EN,IUCN3.1
Dioon mejiae,Zamiaceae,LC,iucn3.1
Dioon holmgrenii,Zamiaceae,EN,iucn3.1
Dioon edule,Zamiaceae,NT,IUCN3.1
Cycas taiwaniana,Cycas,EN,IUCN3.1
Cycas taitungensis,Cycas,EN,iucn3.1
Cycas sphaerica,Cycas,dd,IUCN3.1
Cycas rumphii,Cycas,NT,IUCN3.1
Cycas revoluta,Cycadaceae,LC,IUCN3.1
Cycas pruinosa,Cycas,LC,IUCN3.1
Cycas platyphylla,Cycas,EN,IUCN3.1
Cycas pectinata,Cycas,VU,IUCN3.1
Cycas orixensis,Cycas,en,IUCN3.1
Cycas nayagarhensis,Cycas,cr,IUCN3.1
Cycas micronesica,Cycas,EN,IUCN3.1
Cycas debaoensis,Cycas,CR,iucn3.1
Cycas circinalis,Cycas,EN,IUCN3.1
Cycas changjiangensis,Cycas,EN,IUCN3.1
Cycas chamaoensis,Cycas,CR,IUCN3.1
Cycas canalis,Cycas,LC,IUCN3.1
Cycas campestris,Cycas,NT,IUCN3.1
Cycas calcicola,Cycas,LC,IUCN3.1
Cycas cairnsiana,Cycas,NT,IUCN3.1
Cycas brunnea,Cycas,NT,IUCN3.1
Cycas brachycantha,Cycas,LR/nt,IUCN2.3
Cycas bougainvilleana,Cycas,NT,IUCN3.1
Cycas beddomei,Cycas,en,IUCN3.1
Cycas basaltica,Cycas,LC,IUCN3.1
