col0,col1,col2,col3
ZMPSTE24,606480,ZMPSTE24,3.4.24.84
Wee1,193525,Mitosis inhibitor protein kinase Wee1,2.7.11.1
VEGF receptor,136352,"FLK1, VEGFR, VEGFR2, CD309",2.7.1.112
USP26,300309,USP26,3.1.2.15
ULK2,608650,ULK2,2.7.11.1
Trehalase,275360,TREH,3.2.1.28
Telokin,600922,MYLK,2.7.11.18
TIE1,600222,"TIE, JTK14",2.7.1.112
TGM5,603805,TGM5,2.3.2.13
Sucrase-isomaltase,609845,SI,3.2.1.10
Spermidine synthase,182891,SRM,2.5.1.16
Sorbitol dehydrogenase,182500,SORD,1.1.1.14
Serine dehydratase,182128,SDS,4.3.1.17
Senescence-associated beta-galactosidase,611458,GLB1,3.2.1.23
Rhodopsin kinase,180381,GRK1,2.7.11.14
Rho-associated protein kinase,601702,ROCK1,2.7.11.1
Receptor tyrosine kinase-like orphan receptor,602336,NTRKR1,2.7.10.1
Rab geranylgeranyltransferase,179080,RABGGTA,2.5.1.60
Pyrophosphomevalonate decarboxylase,603236,MVD,4.1.1.33
Protein phosphatase 2,176915,PPP2CA,3.1.3.16
Protein phosphatase 1,176875,"PP1, PP1a, MGC15877, MGC1674, PP-1A, PP1alpha, PPP1A",3.1.3.16
Procollagen peptidase,164010,PCOLN3,3.4.24.14
Presenilin,104311,AD3,3.4.23.-
Phosphoglycerate mutase,172250,PGAM,5.4.2.11
Phosphogluconate dehydrogenase,172200,6PGD,1.1.1.44
Phosphoenolpyruvate carboxykinase,261650,PCK1,4.1.1.32
Phenylethanolamine N-methyltransferase,171190,PENT,2.1.1.28
Paraoxonase,168820,PON,3.1.8.1
Palmitoyl protein thioesterase,600722,G14,3.1.2.22
PHLPP,609396,PHLPP,3.1.3.16
P38 mitogen-activated protein kinases,600289,"CSPB1, CSBP1, CSBP2",2.7.11.24
P300-CBP coactivator family,600140,"CBP, RSTS",2.3.1.48
N-acyl phosphatidylethanolamine-specific phospholipase D,612334,NAPEPLD,3.1.4.4
N-Acetylglutamate synthase,608300,NAGS,2.3.1.1
Myosin light-chain kinase,600922,MYLK,2.7.11.18
Myophosphorylase,608455,PYGM,2.4.1.1
Monoacylglycerol lipase,609699,MGLL,3.1.1.23
Methylcrotonyl-CoA carboxylase,609010,MCCC1,6.4.1.4
Membrane-bound transcription factor site-2 protease,300294,MBTPS2,3.4.24.85
MTORC2,601231,"FRAP, FRAP2, FRAP1",2.7.11.1
MTORC1,601231,"FRAP, FRAP2, FRAP1",2.7.11.1
Lysyl hydroxylase,153454,"LLH, PLOD",1.14.11.4
Lysosomal lipase,278000,LIPA,3.1.1.13
Leucyl aminopeptidase,170250,LAP,3.4.11.1
Lanosterol 14 alpha-demethylase,601637,"CYP51, P45014DM",1.14.13.70
Isopentenyl-diphosphate delta isomerase,604055,IDI1,5.3.3.2
Iron-responsive element-binding protein,100880,ACO1,4.2.1.3
Inositol oxygenase,606774,ALDRL6,1.13.99.1
Inositol monophosphatase,602064,IMP; IMPA,3.1.3.25
Inorganic pyrophosphatase,179030,PP,3.6.1.1
Iduronidase,252800,IDUA,3.2.1.76
ITCH,606409,ITCH,6.3.2.19
Hydroxymethylglutaryl-CoA synthase,142940,HMGCS,2.3.3.10
Hydrogen potassium ATPase,137216,ATP4A,3.6.3.10
Holocarboxylase synthetase,609018,HLCS,6.3.4.10
Hepatic fructokinase,229800,KHK,2.7.1.3
HHAT,605743,"FLJ10724, MART-2, MART2, GUP2",2.3.1.-
Glyceronephosphate O-acyltransferase,602744,GNPAT,2.3.1.42
Glutathione synthetase,601002,GSH-S_ATP,6.3.2.3
Glutamyl aminopeptidase,138297,ENPEP,3.4.11.7
Gastric lipase,601980,LIPF,3.1.1.3
Gamma-glutamyl transpeptidase,137181,GGT,2.3.2.2
Galactokinase,137028,GALK,2.7.1.6
G protein-coupled receptor kinase 7,606987,GPRK7,2.7.11.14
GSK-3,605004,GSK3A,2.7.11.26
GPD1L,611778,GPD1L,1.1.1.8
GMP reductase,139265,GMPR,1.7.1.7
GDP-fucose protein O-fucosyltransferase 1,607491,POFUT1,2.4.1.221
"Fructose 1,6-bisphosphatase",229700,FBP,3.1.3.11
Formimidoyltransferase cyclodeaminase,606806,FTCD,4.3.1.4
FUT4,104230,"CD15, FCT3A, ELFT, SSEA-1, LeX",2.4.1.152
FANCM,609644,FANCM,3.6.1.-
Enoyl-CoA hydratase,607037,ECHD,4.2.1.17
Electron-transferring-flavoprotein dehydrogenase,231675,ETF-QO,1.5.5.1
EIF4A,601102,DDX48,3.6.1.1
EHHADH,607037,ECHD,4.2.1.17
Doubletime,121695,CSNK1E,2.7.11.1
Dipeptidase 2,609925,DPEP2,3.4.13.19
Dihydropyrimidine dehydrogenase,274270,DPYD,1.3.1.2
Dihydroorotase,114010,CAD,3.5.2.3
Deoxyribonuclease II,126350,DNASE2,3.1.22.1
DNA clamp,176740,DNA_pol3_beta,2.7.7.7
Cyclophilin,123840,PPIA,5.2.1.8
Complement component 1s,120580,C1S,3.4.21.42
Complement component 1R,216950,C1R,3.4.21.41
Collagenase,120353,MMP1,3.4.24.3 Chromosome = 11
Chymase,118938,CMA1,3.4.21.39
Cholinesterase,100740,ACHE,3.1.1.7
Ceramide synthase 5,615335,CerS5,2.3.1.24
Ceramide synthase 4,615334,CerS4,2.3.1.24
Caspase 5,602665,CASP5,3.4.22.58
Caspase 4,602664,CASP4,3.4.22.57
Casein kinase 2,115440,CSNK2A1,2.7.11.1
Carboxypeptidase B,114852,CPB1,3.4.17.2
Carbamoyl phosphate synthetase I,608307,CPS1,6.3.4.16
Calcineurin,114105,"CALN, CALNA",3.1.3.16
CARM1,603934,CARM1,2.1.1.125
CAD,114010,CAD,2.1.3.2
C1GALT1,610555,C1GALT1,2.4.1.122
Branched chain aminotransferase,113530,BCAT,2.6.1.42
Biotinidase,609019,BTD,3.5.1.12
Beta-ketoacyl-ACP synthase,610324,Ketoacyl-synt_C,2.3.1.41
Asparagine synthetase,108370,ASNS,6.3.5.4
Arylsulfatase B,253200,ARSB,3.1.6.12
Angiopoietin receptor,600221,TEK,2.7.1.112
Alpha-N-acetylglucosaminidase,609701,NAGLU,3.2.1.50
Alanine transaminase,138200,GPT,2.6.1.2
Adenosylhomocysteinase,180960,AHCY,3.3.1.1
Acyltransferase like 2,610472,AYTL2,2.3.1.23
ATP citrate lyase,108728,ACLY,2.3.3.8
ATP2A2,108740,ATP2A2,3.6.3.8
6-phosphogluconolactonase,604951,PGLS,3.1.1.31
3-Hydroxyacyl ACP dehydrase,607037,ECHD,4.2.1.17
"2,4 Dienoyl-CoA reductase",222745,DECR,1.3.1.34
