col0,col1,col2,col3,col4
RPGRIP1L,12,16,23322,NM_015272
RAR-related orphan receptor,21,1,6095,NM_002943
RAI1,11,17,10743,NM_030665
RAB27,21,15,5873,NM_004163
Q-type calcium channel,13,19,773,NM_000068
Pyrophosphomevalonate decarboxylase,24,16,4597,NM_002461
Protein phosphatase 2,12,5,5515,NM_001009552
Protein phosphatase 1,13,11,5499,NP_002699.1
Protein kinase B,13,1,10000,NM_001626
Protein Z-related protease inhibitor,32,14,51156,NM_016186
Protein Z,34,13,8858,NM_003891
Protease-activated receptor,12,19,2149,NM_001992
Protamine,13,16,5619,NM_002761
Prolactin receptor,13,5,5618,NM_000949
Prokineticin receptor,12,2,10887,NM_138964
Prokineticin,21,1,60675,NM_021935
Proinsulin,15,11,3630,NM_000207
Procollagen peptidase,24,16,5119,NM_002768
Presenilin,24,1,5663,NM_000021
Potassium-dependent sodium-calcium exchanger,13,12,123041,NM_004727
Polypyrimidine tract-binding protein,13,1,5725,NM_002819
Podocin,25,1,7827,NM_014625
Pleckstrin,13,2,5341,NM_002664
Platelet-derived growth factor receptor,12,4,5156,NM_002609
Phospholipid scramblase,13,17,389158,NM_020353
Phospholipase B,23,2,151056,NM_153021
Phosphoglycerate mutase,13,10,5223,NM_000290
Phosphogluconate dehydrogenase,36,1,5226,NM_002631
Phosphoenolpyruvate carboxykinase,12,14,5105,NM_001018073
Phosphodiesterase 3,12,11,5139,NM_000921
Phenylethanolamine N-methyltransferase,21,17,5409,NM_002686
Persephin,13,19,5623,NM_004158
Peroxisome proliferator-activated receptor,12,22,5465,NM_001001928
Peroxin-7,21,6,5191,NM_000288
Period,12,1,5187,NM_002616
Patched,22,1,5727,NM_000264
Parvalbumin,12,22,5816,NM_002854
Parathyroid hormone receptor,22,2,5745,NM_000316
Paraoxonase,21,7,5444,NM_000305
Pannexin,13,11,116337,NM_015368
Pancreatic polypeptide,11,17,5539,NM_002722
Palmitoyl protein thioesterase,21,1,5538,NM_000310
PXK,21,3,54899,NM_017771
PORCN,11,X,64840,NM_022825
POLR3GL,21,1,84265,NM_032305
PHLPP,21,16,23035,NM_015020
PEN-2,13,19,55851,NM_172341
PELP-1,13,17,27043,NM_014389
P87PIKAP,13,17,146850,NM_005163
P38 mitogen-activated protein kinases,13,22,1432,NM_001315
P300-CBP coactivator family,13,16,1387,NM_001429
P14arf,21,9,1029,NM_058195
P-type calcium channel,13,19,773,NM_000068
Orosomucoid,31,9,5004,NM_000607
Ornithine translocase,14,13,10166,NM_014252
Orexin receptor,11,1,3061,NM_001525
Orexin,21,17,3060,NM_001524
Olfactory marker protein,14,11,4975,NM_006189
Odorant-binding protein,34,9,29989,NM_014581
Obestatin,26,3,51738,NM_016362
OX40L,25,1,7292,NM_003326
OPN1MW2,28,X,728458,NM_001048181
Nucleoporin 37,23,12,79023,NM_024057
Nucleoporin 188,34,9,23511,NM_015354
Nuclear cap-binding protein complex,29,3,22916,NM_002486
Neurturin,13,19,4902,NM_004558
Neurotensin receptor,13,1,23620,NM_002531
Neuropilin,12,10,8828,NM_001024628
Neurophysin II,13,20,551,NM_000490
Neuropeptide Y receptor,11,10,4886,NM_000909
Neuropeptide FF receptor,21,10,10886,NM_004885
Neuropeptide B/W receptor,-q21.13,20,2831,NM_005285
Neuromedin U receptor,33,2,10316,NM_006056
Neuromedin U,12,4,10874,NM_006681
Neuromedin B,11,15,4828,NM_021077
Neuroligin,13,17,22871,NP_001160132
Neurokinin A,21,7,6863,NM_013998
Neurogranin,24,11,4900,NM_006176
Neurogenins,21,10,4762,NM_006161
Neurofilament,12,1,10763,NM_005382
Neurocalcin,22,8,83988,NM_001040628
Neurexin,13,14,9369,NM_001105250
Neonatal Fc receptor,13,19,2217,NM_004107
