col0,col1,col2,col3,col4
M. Parkes,Turin,2,1977-8-28,7
M. Magill,"Haddonfield, New Jersey",0,2006-8-31,4
M. MacDowel,Surrey,0,2016-1-18,1
M. Hawthorn,Guildford,18,1959-1-22,47
M. Beuttler,Los Angeles,0,1988-12-29,29
M. Boffa,Naples,0,1996-9-28,5
M. d. Terra,Zollikon,0,1982-12-29,2
M. Trintignant,Nîmes,10,2005-2-13,84
M. Rose,"Royal Oak, Michigan",1,1981-1-1,2
M. Gregory,Porto Ercole,3,1985-11-8,46
M. Donohue,Graz,1,1975-8-19,16
Maria Teresa de Filippis,Scanzorosciate,0,2016-1-8,5
M. Balsa,Maisons-Alfort,0,1984-8-11,1
M. Ayulo,Indianapolis,1,1955-5-16,6
M. Winkelhock,Toronto,0,1985-8-12,56
M. Hellings,"Kern County, California",0,1951-11-11,2
L. Bueno,Atibaia,0,2011-2-8,1
L. Villoresi,Milan,8,1997-8-24,34
L. Taramazzo,Vallecrosia,0,2004-2-15,1
L. Piotti,Godiasco,0,1971-4-19,8
L. Musso,Reims,7,1958-7-6,25
L. Fagioli,Monte Carlo,6,1952-6-20,7
L. Scarfiotti,Rossfeld,1,1968-6-8,12
L. Bianchi,Le Mans,1,1969-3-30,19
L. Rosier,Neuilly-sur-Seine,2,1956-10-29,38
L. Chiron,Monaco,1,1979-6-22,19
L. Kessel,Montagnola,0,2010-5-15,6
L. Bandini,Monaco,8,1967-5-10,42
L. Casner,Le Mans,0,1965-4-10,3
L. Thorne,Troon,0,1993-7-13,1
L. Leston,Bexhill-on-Sea,0,2012-5-13,3
L. Sutton,"Portland, Oregon",0,2006-12-4,4
L. Lombardi,Milan,0,1992-3-3,17
L. Wallard,"St. Petersburg, Florida",1,1963-11-29,3
L. Crockett,"Langhorne, Pennsylvania",0,1955-3-20,1
L. Reventlow,"Aspen, Colorado",0,1972-07-24,4
L. Macklin,Kent,0,2002-8-29,15
K. Adolff,Kreuth,0,2012-1-24,1
K. Richardson,"Bourne, Lincolnshire",0,1997-6-27,1
K. Downing,Monte Carlo,0,2004-5-3,2
K. Andrews,Indianapolis,0,1957-5-15,3
K. Kling,Gaienhofen,2,2003-3-18,11
J. Bianchi,Nice,0,2015-7-17,34
J. M. Fangio,Buenos Aires,35,1995-7-17,52
J. Jover,Sitges,0,1960-6-28,1
J. F. González,Arrecifes,15,2013-6-15,26
J. Dolhem,Saint-Étienne,0,1988-4-16,3
J. Peters,Düsseldorf,0,2001-4-24,1
J. F. González,Arrecifes,15,2013-6-15,26
J. Dolhem,Saint-Étienne,0,1988-4-16,3
J. Daponte,Buenos Aires,0,1963-3-9,2
J. Williams,Spain,0,2014-8-31,1
J. Chitwood,"Tampa, Florida",0,1988-1-3,1
J. Thomson,"Allentown, Pennsylvania",1,1960-9-24,8
J. Servoz-Gavin,Grenoble,1,2006-5-29,13
J. McDowell,Milwaukee,0,1952-6-8,3
J. Boyd,"Fresno, California",1,2003-10-27,6
J. Tolan,"Redondo Beach, California",0,1986-6-6,7
J. Parsons,Van Nuys,1,1984-9-8,9
J. Taylor,Koblenz,0,1966-9-8,5
J. Riseley-Prichard,Thailand,0,1993-7-8,1
J. Love,Bulawayo,1,2005-4-25,10
J. James,St. Julian's,0,2002-1-27,1
J. Fitch,"Litchfield County, Connecticut",0,2012-10-31,2
J. Kelly,Neston,0,1993-11-28,2
J. James,"San Jose, California",0,1952-11-5,3
J. Fry,Blandford Forum,0,1950-7-29,1
J. Rindt,Monza,13,1970-9-5,62
J. Bonnier,Le Mans,1,1972-6-11,108
J. Siffert,Brands Hatch,6,1971-10-24,100
J. Schlesser,Rouen-Les-Essarts,0,1968-7-7,3
J. Gartner,Le Mans,0,1986-6-1,8
J. Stewart,Helensburgh,0,2008-1-3,1
J. Reece,"Trenton, New Jersey",0,1958-9-28,6
J. Jackson,"Desert Hot Springs, California",0,1984-11-24,3
J. Daywalt,Indianapolis,0,1966-4-4,10
J. Davies,Chicago,1,1966-6-11,8
J. Bryan,Pennsylvania,3,1960-6-19,10
J. Rigsby,"Dayton, Ohio",0,1952-8-31,2
J. Rathmann,"Melbourne, Florida",4,2011-11-23,10
J. McWithey,"Gainesville, Georgia",0,2009-2-1,5
J. Crawford,"Tierra Verde, Florida",0,2002-8-6,2
J. Clark,Hockenheimring,32,1968-4-7,73
J. Iglesias,Pergamino,0,2005-7-11,1
J. U. Jr.,Indianapolis,0,1959-5-17,2
J. Hoyt,Oklahoma City,0,1955-7-10,5
J. Lucienbonnet,Enna,0,1962-8-19,1
J. Lucas,Saint-Martin-de-Ré,0,2003-9-27,1
J. Behra,West Berlin,9,1959-8-1,53
J. Chamberlain,"Tucson, Arizona",0,2001-8-1,3
J. Flinterman,Leiden,0,1992-12-26,1
J. Hunt,"Wimbledon, London",23,1993-6-15,93
J. Pollet,Paris,0,1997-8-16,5
J. Pretorius,Johannesburg,0,2009-3-30,4
J. Holmes,Indianapolis,0,1995-3-1,4
J. Turner,"Renton, Washington",0,2004-9-12,5
J. McGrath,"Phoenix, Arizona",2,1955-11-6,6
J. Fairman,"Rugby, Warwickshire",0,2002-2-7,13
J. Brabham,"Gold Coast, Queensland",31,2014-5-19,128
I. Bueb,Clermont-Ferrand,0,1959-8-1,6
I. Ireland,"Reading, Berkshire",4,1993-10-22,53
I. Giunti,Buenos Aires,0,1971-1-10,4
I. Raby,London Borough of Lambeth,0,1967-11-7,7
I. Burgess,London Borough of Harrow,0,2012-5-19,20
H. Gould,Southmead,0,1968-11-4,18
H. Lang,Stuttgart,0,1987-10-19,2
H. MacKay-Fraser,Reims,0,1957-7-14,1
H. Taylor,Vallauris,0,2013-10-24,11
H. Banks,Indianapolis,0,1994-12-18,5
H. Louveau,Orléans,0,1991-1-7,2
H. Koinigg,Watkins Glen International,0,1974-10-6,3
H. Niedermayr,"Christiansted, U.S. Virgin Islands",0,1985-4-3,1
H. Schiller,Geneva,0,2007-3-26,1
H. Walter,"Aesch, Basel-Landschaft",0,2009-5-12,1
H. Schell,Silverstone,2,1960-5-13,57
H. Merkel,Australia,0,1995-2-11,1
H. Blanchard,Buenos Aires,0,1960-1-31,1
H. Ertl,Giessen,0,1982-4-7,28
H. Sharp,San Martín de los Andes,0,1993-5-7,6
H. Stuck,Grainau,0,1978-2-9,5
H. Klenk,Vellberg,0,2009-3-24,1
G. Bechem,Hagen,0,2011-5-3,2
G. Mairesse,Montlhéry,0,1954-4-24,3
G. Ligier,Nevers,0,2015-8-23,13
G. Nilsson,London,4,1978-10-20,32
G. Whitehead,West Berkshire,0,1981-1-15,1
G. Hill,Arkley,36,1975-11-29,179
G. Cabianca,Modena,0,1961-6-15,4
G. d. Riu,Stresa,0,2008-12-11,1
G. Scarlatti,Rome,0,1990-7-26,15
G. Munaron,Valenza,0,2009-11-22,4
G. Bianco,Rio de Janeiro,0,1984-5-8,4
G. Villeneuve,Leuven,13,1982-5-8,68
G. Baghetti,Milan,1,1995-11-27,21
G. Gerini,Cremona,0,2013-4-17,7
G. Mitter,Nürburgring,0,1969-8-1,7
G. Grignard,Le Port-Marly,0,1977-12-7,1
G. Berger,Nürburgring,0,1967-8-23,2
G. Connor,"Hesperia, California",0,2001-3-28,4
G. Amick,"Daytona Beach, Florida",1,1959-4-4,2
G. Crossley,Headington,0,2002-1-7,2
G. Force,Michigan,0,1983-8-21,5
Geki,Caserta,0,1967-6-18,3
G. Bechem,Hagen,0,2011-5-3,2
F. Riess,Samedan,0,1991-5-15,1
F. Wacker,"Lake Bluff, Illinois",0,1998-6-16,5
F. Agabashian,"Alamo, California",0,1989-10-13,9
F. Picard,Nice,0,1996-4-29,1
F. Migault,Le Mans,0,2012-1-29,16
F. Cevert,Watkins Glen International,13,1973-10-6,47
F. Gardner,"Mermaid Waters, Queensland",0,2009-8-29,9
F. Dochnal,St. Louis,0,2010-7-7,1
F. Armi,"Hanford, California",0,1992-11-28,3
F. Rol,Rapallo,0,1977-6-18,5
F. Comotti,Bergamo,0,1963-5-10,2
F. Picard,Nice,0,1996-4-29,1
F. Migault,Le Mans,0,2012-1-29,16
F. Cevert,Watkins Glen International,13,1973-10-6,47
F. Minoia,Italy,2,1940-6-28,3
E. Martin,Charente-Maritime,0,2006-10-12,2
E. Chaboud,Montfermeil,0,1983-12-28,3
E. Castellotti,Modena,3,1957-3-14,14
E. Martin,Charente-Maritime,0,2006-10-12,2
E. Chaboud,Montfermeil,0,1983-12-28,3
E. Chimeri,Havana,0,1960-2-27,1
E. Bauer,Cologne,0,1958-6-3,1
E. Loof,Bonn,0,1956-3-3,1
E. Klodwig,Hamburg,0,1973-4-15,2
