col0,col1,col2,col3,col4,col5
Geostandards and Geoanalytical Research,Wiley-Blackwell,1977,1639-4488,GGREA3,609937634
Geophysics,Society of Exploration Geophysicists,1936,0016-8033,GPYSA7,1570724
Geophysical Research Letters,American Geophysical Union,1974,0094-8276,GPRLAJ,1795290
Geophysical Journal International,Oxford University Press,1922,0956-540X,GJINEA,20060716
Geographical Review,Wiley-Blackwell,1916,0016-7428,GEORAD,224456890
Geographical Analysis,Wiley-Blackwell,1969,0016-7363,GPHAA4,610394749
Geochimica et Cosmochimica Acta,Elsevier,1950,0016-7037,GCACAK,1570626
Geobiology,Wiley-Blackwell,2003,1472-4669,GEOBCZ,52805553
GeoJournal,Springer Science+Business Media,1977,0343-2521,GEOJDQ,643612472
Genome Research,Cold Spring Harbor Laboratory Press,1991,1088-9051,GEREFS,33123409
Genome Biology and Evolution,Oxford University Press,2009,1759-6653,GBEEA5,710017802
Genetica,Springer Science+Business Media,1919,0016-6707,GENEA3,704024115
Genesis,Wiley-Liss,1979,1526-954X,GNESFY,42463257
Genes & Development,Cold Spring Harbor Laboratory Press,1987,0890-9369,GEDEEP,301163874
"Genes, Brain and Behavior",Wiley-Blackwell,2002,1601-183X,GBBEAO,49420026
Gender & History,Wiley-Blackwell,1989,0953-5233,GEHIEN,905764287
"Gender, Work and Organization",Wiley-Blackwell,1994,0968-6673,GWORF8,37447061
"Gender, Place & Culture: A Journal of Feminist Geography",Taylor & Francis,1994,0966-369X,GPCUE9,37915521
Gazzetta Chimica Italiana,Società Chimica Italiana,1871,0016-5603,GCITA9,472409114
Gastrointestinal Endoscopy,Elsevier,1954,0016-5107,GAENBQ,1570459
Fundamenta Informaticae,IOS Press,1977,0169-2968,FUMAAJ,60628486
Functional Ecology,Wiley-Blackwell,1987,0269-8463,FECOE5,15596280
Fuel Cells,Wiley-VCH,2001,1615-6854,FUCEFK,776194523
Frontiers in Neuroendocrinology,Elsevier,1980,0091-3022,FNEDA7,421849899
Frontiers in Biology,Springer Science+Business Media,2006,1674-7984,FBRIA3,890054722
Fractals,World Scientific,1993,0218-348X,FRACEG,28056668
Forest Pathology,Wiley-Blackwell,1971,1437-4781,FOPAFV,782075371
Foreign Affairs,Council on Foreign Relations,1922,0015-7120,FRNAA3,271215504
Food and Nutrition Bulletin,Sage Publications,1978,0379-5721,FNBPDV,5348644
Food and Chemical Toxicology,Elsevier,1963,0278-6915,FCTOD7,67270973
Food Science and Technology International,SAGE Publications,1995,1082-0132,FSTIFZ,488157588
Food Chemistry,Elsevier,1976,0308-8146,FOCHD,2728297
Fluid Dynamics Research,IOP Publishing,1986,0169-5983,FDRSEH,905462743
Flora Neotropica,New York Botanical Garden,1967,0071-5794,FLNMAV,1776032
Flavour and Fragrance Journal,John Wiley & Sons,1985,0882-5734,FFJOED,11893334
Fishery Bulletin,National Oceanic and Atmospheric Administration,1881,0090-0656,FSYBAY,1783998
Finance & Development,International Monetary Fund,1964,0015-1947,FNDVAM,884610050
Feminist Legal Studies,Springer Science+Business Media,1993,0966-3622,FLSTED,44506960
Feminist Economics,Routledge,1994,1354-5701,FEECFE,32729633
Feminism & Psychology,Sage Publications,1991,0959-3535,FEPSFF,23367452
Faraday Discussions,Royal Society of Chemistry,1947,1359-6640,FDISE6,40343517
Family and Consumer Sciences Research Journal,Wiley-Blackwell,1972,1077-727X,FCSJEM,712800910
FEMS Microbiology Ecology,Wiley-Blackwell,1985,0168-6496,FMECEZ,38872946
FEBS Letters,John Wiley & Sons,1968,0014-5793,FEBLAL,1569056
FEBS Journal,John Wiley & Sons,1906,1742-464X,FJEOAC,57253365
Eye,Nature Publishing Group,1881,0950-222X,EYEEEC,15260106
Expert Review of Medical Devices,Informa,2004,1743-4440,ERMDDX,475164130
Expert Review of Clinical Pharmacology,Informa,2008,1751-2433,ERCPAG,192040039
Expert Review of Anticancer Therapy,Informa,2001,1473-7140,ERATBJ,60638399
Expert Opinion on Therapeutic Patents,Informa,1991,1354-3776,EOTPEG,858598995
Expert Opinion on Pharmacotherapy,Informa,1999,1465-6566,EOPHF7,57378019
Expert Opinion on Investigational Drugs,Informa,1992,1354-3784,EOIDER,30379431
Expert Opinion on Drug Safety,Informa,2002,1474-0338,EODSA9,858598983
Expert Opinion on Drug Metabolism & Toxicology,Taylor and Francis Group,2005,1742-5255,EODMBQ,57377939
Expert Opinion on Drug Delivery,Taylor and Francis Group,2004,1742-5247,EODDAW,60630038
Experimental and Applied Acarology,Springer Science+Business Media,1985,0168-8162,EAACEM,37785917
Experimental Parasitology,Elsevier,1951,0014-4894,EXPAAA,644496773
Experimental Neurology,Elsevier,1959,0014-4886,EXNEAC,848514410
Experimental Mechanics,Springer Science+Business Media,1961,0014-4851,EXMCAZ,605177653
Experimental Lung Research,Informa,1980,0190-2148,EXLRDA,4692740
Experimental Hematology,Elsevier,1972,0301-472X,EXHMA6,43350423
Experimental Cell Research,Elsevier,1950,0014-4827,ECREAL,474767727
Experimental Brain Research,Springer Science+Business Media,1966,0014-4819,EXBRAP,474767723
Experimental Aging Research,Routledge,1975,0361-073X,EAGRDS,1950825
Experimental & Molecular Medicine,Nature Publishing Group,1996,1226-3613,EMMEF3,38557732
Exercise and Sport Sciences Reviews,Lippincott Williams & Wilkins,1973,0091-6331,ESSRB8,1783628
Evolutionary Anthropology,Wiley-Liss,1992,1060-1538,EVANEW,24883421
Evolution and Human Behavior,Elsevier,1980,1090-5138,EHIBEF,35307676
European Urology,Elsevier,1975,0302-2838,EUURAV,1809591
European Spine Journal,Springer Science+Business Media,1992,0940-6719,ESJOEP,27638222
European Psychiatry,Elsevier,1986,0924-9338,EUPSED,24466861
European Physical Journal E,Springer Science+Business Media,2000,1292-8941,EPJSFH,43386567
European Physical Journal C,Springer Science+Business Media,1998,1434-6044,EPCFFB,611815602
European Neuropsychopharmacology,Elsevier,1990,0924-977X,EURNE8,795935172
European Neurology,Karger Publishers,1968,0014-3022,EUNEAP,1568463
European Journal of Women's Studies,SAGE Publications,1994,1350-5068,EJWSE5,644465838
European Journal of Social Psychology,John Wiley & Sons,1971,0046-2772,EJSPA6,889405502
European Journal of Public Health,Oxford University Press,1991,1101-1262,EJPHF6,45043567
European Journal of Political Research,Wiley-Blackwell,1973,0304-4130,EJPRDY,230744489
European Journal of Pharmacology,Elsevier,1967,0014-2999,EJPHAZ,1568459
European Journal of Pharmaceutical Sciences,Elsevier,1993,0928-0987,EPSCED,28704641
European Journal of Pain,Wiley-Blackwell,1997,1090-3801,EJPAFJ,44580241
European Journal of Nuclear Medicine and Molecular Imaging,Springer Science+Business Media,1976,1619-7070,EJNMA6,49348061
European Journal of Neuroscience,Wiley-Blackwell,1989,0953-816X,EJONEI,39503252
European Journal of Neurology,Wiley-Blackwell,1994,1351-5101,EJNEFL,768004591
European Journal of Medicinal Chemistry,Elsevier,1966,0009-4374,EJMCA5,38945632
European Journal of Medical Research,BioMed Central,1995,0949-2321,EJMRFL,231679301
European Journal of Industrial Relations,Sage Publications,1995,0959-6801,EJIRFZ,34059411
European Journal of Human Genetics,Nature Publishing Group,1993,1018-4813,EJHGEU,730022557
European Journal of Communication,SAGE Publications,1986,0267-3231,EJCOET,174447263
European Journal of Clinical Pharmacology,Springer Science+Business Media,1968,0031-6970,EJCPAS,41916239
European Journal of Clinical Nutrition,Nature Publishing Group,1947,0954-3007,EJCNEQ,39737748
European Journal of Clinical Microbiology & Infectious Diseases,Springer Science+Business Media,1982,0934-9723,EJCDEU,17800606
European Journal of Cell Biology,Urban & Fischer Verlag,1969,0171-9335,EJCBDN,5045176
European Journal of Cancer Care,Wiley-Blackwell,1992,0961-5423,EUCAEU,25449441
European Journal of Cancer,Elsevier,1965,0959-8049,EJCAEL,21363349
European Journal of Anaesthesiology,Lippincott Williams & Wilkins,1984,0265-0215,EJANEG,11092625
European History Quarterly,SAGE Publications,1971,0265-6914,EHIQEH,123479187
European Heart Journal,Oxford University Press,1980,0195-668X,EHJODF,5585193
European Biophysics Journal,Springer Science+Business Media,1974,0175-7571,EBJOE8,11035862
European Addiction Research,Karger Publishers,1995,1022-6877,EADREE,44718382
Europe-Asia Studies,Routledge,1949,0966-8136,EASTER,760957849
Ethnicity & Health,Taylor & Francis,1996,1355-7858,ETHEFR,302291665
"Estuarine, Coastal and Shelf Science",Elsevier,1973,0272-7714,ECSSD3,6929198
Epilepsy & Behavior,Elsevier,2000,1525-5050,EBPEA4,41569329
Epilepsia,Wiley-Blackwell,1909,0013-9580,EPILAK,43274235
Epigenetics,Taylor & Francis,2006,1559-2294,EPIGB6,62511425
