col0,col1,col2,col3
Z. J. Corrales,Complutense University of Madrid,Colombian people,Luis Humberto Gómez Gallo
T. Hutchinson,University of Arkansas,United States,D. Hutchinson
P. Douglas,Columbia University,United States,E. T. Douglas
Luis Humberto Gómez Gallo,Catholic University of Colombia,Colombian people,Z. J. Corrales
L. B. Jordan,University of Oregon,United States,G. Jordan
J. W. Fulbright,George Washington University,United States,H. M. Fulbright
H. John Heinz III,Yale University,United States,T. Heinz
F. Church,Stanford University,United States,B. C. Church
A. J. Beveridge,DePauw University,United States,C. E. Beveridge
