col0,col1,col2,col3,col4
M. Dannemann,Düsseldorf,East Sussex,Germany,1996-04-05
G. Hall-Say,Cookham,Brighton,United Kingdom,1940-1-21
E. Muckelt,Manchester,Manchester,United Kingdom,1953-12-13
E. Syers,Brighton,Maidenhead,United Kingdom,1946-2-16
D. Greenhough-Smith,Yarm,Royal Tunbridge Wells,United Kingdom,1965-5-9
C. Gorman,"Saint John, New Brunswick","Saint John, New Brunswick",Canadian,1940-02-11
A. Cumming,Marylebone,Hammersmith,United Kingdom,1914-5-9
A. Næss,Norway,Austria,Norway,1955-07-06
