col0,col1,col2,col3,col4
Irish language,Ireland,gle,ga,gle
Inupiat language,Alaska,ipk,ik,ipk
Inuktitut,Canada,ike,iu,iku
Indonesian language,Dutch East Indies,ind,id,ind
Igbo language,Nigeria,ibo,ig,ibo
Hiri Motu,Papua New Guinea,hmo,ho,hmo
Hindi,India,hin,hi,hin
Herero language,Huíla Province,her,hz,her
Hausa language,Benin,hau,ha,hau
Haitian Creole,Haiti,hat,ht,hat
Gujarati language,India,guj,gu,guj
Greenlandic language,Denmark,kal,kl,kal
Galician language,Castile and León,glg,gl,glg
Fula language,Sahel,ful,ff,ful
French language,France,fra,fr,fri
Finnish language,Finland,fin,fi,fin
Fijian language,Fiji,fij,fj,fij
Faroese language,Denmark,fao,fo,fao
Estonian language,Estonia,est,et,est
English language,Great Britain,eng,en,eng
Eastern Punjabi,Punjab region,pan,pa,pan
Dzongkha,Bhutan,dzo,dz,dzo
Croatian language,Bosnia and Herzegovina,hrv,hr,hrv
Cree language,Canada,cre,cr,cre
Chuvash language,Russia,chv,cv,chv
Church Slavonic language,Eastern Europe,chu,cu (withOld Church Slavonic),chu
Chewa language,Lusaka,none,ny,nya
Chechen language,Chechnya,che,ce,che
Chamorro language,Mariana Islands,cha,ch,cha
Catalan language,Andorra,cat,ca,cat
