col0,col1,col2,col3,col4
W. Stuckart,Hanover,University of Munich,1902-11-16,1902-11-16
S. Lloyd,Oxfordshire,"Magdalene College, Cambridge",1904-07-28,1904-07-28
"Richard Haldane, 1st Viscount Haldane",Auchterarder,University of Edinburgh,1856-07-30,1856-07-30
R. Huang,London,University of Oxford,1920-09-01,1920-09-01
P. Thorneycroft,London,City Law School,1909-07-26,1909-07-26
M. Mayr,Upper Austria,University of Vienna,1864-04-10,1864-04-10
Lutz Graf Schwerin von Krosigk,Essen,"Oriel College, Oxford",1887-08-22,1887-08-22
J. Klaus,Austria,University of Vienna,1910-08-15,1910-08-15
"John Simon, 1st Viscount Simon",London,"Wadham College, Oxford",1873-02-28,1873-02-28
J. Schober,Lower Austria,University of Vienna,1874-11-14,1874-11-14
D. Healey,Alfriston,"Balliol College, Oxford",1917-08-30,1917-08-30
B. v. Bülow,Rome,University of Berlin,1849-05-03,1849-05-03
