col0,col1,col2,col3,col4
A. Toth,"Burbank, California",New York City,2006-5-27,1928-6-25
A. Schomburg,"Hillsboro, Oregon","Aguadilla, Puerto Rico",1998-4-7,1905-5-10
A. Raymond,"Westport, Connecticut","New Rochelle, New York",1956-9-6,1909-10-2
A. Giolitti,Rome,Rome,1993-4-15,1923-11-14
A. Breccia,Buenos Aires,Montevideo,1993-11-10,1919-4-15
A. Chartier,Joliette,Montreal,2004-2-21,1912-6-16
A. Saint-Ogan,Paris,Colombes,1974-6-22,1895-8-7
A. Williamson,New York City,New York City,2010-6-12,1931-3-21
A. Taliaferro,"Glendale, California","Montrose, Colorado",1969-2-3,1905-8-29
A. Smith,Rutland,New York City,1986-11-24,1902-3-2
A. Plastino,"Patchogue, New York",Manhattan,2013-11-25,1921-12-15
A. McWilliams,"Stamford, Connecticut",New York City,1993-3-19,1916-2-2
A. Kilgore,New York City,"Newark, New Jersey",1983-8-15,1927-12-19
A. Hartley,"Fort Myers, Florida","Kearny, New Jersey",2003-5-27,1921-10-25
A. Feldstein,Paradise Valley,Brooklyn,2014-4-29,1925-10-24
A. Roy,"Austin, Texas",Verona,2010-12-14,1953-6-28
