col0,col1,col2,col3,col4
Two Wrongs,W. Jean,Wyclef Jean,229,Africa
Two Worlds,P. Collins,Phil Collins,198,"""You'll Be in My Heart"""
Two Weeks,E. Haynie,FKA twigs,248,"""Pendulum"""
Two Tribes,H. Johnson,Frankie Goes to Hollywood,237,"""One February Friday"", ""War"""
Two Tickets to Paradise,E. Money,Eddie Money,189,"""Don't Worry"""
Two Teardrops,S. Wariner,Steve Wariner,269,"""Cry No More"""
Two Steps Behind,J. Elliott,Def Leppard,251,* SMC
Two Shoes,F. Riebl,The Cat Empire,230,"""Rhyme & Reason"""
Two Piña Coladas,S. Camp,Garth Brooks,214,"""To Make You Feel My Love"" (EU CD single)"
Two People Fell in Love,B. Paisley,Brad Paisley,247,"""Me Neither"""
Two People,G. Lyle,Tina Turner,251,"""Havin' a Party"""
Two Out of Three Ain't Bad,J. Steinman,Meat Loaf,7,"""For Crying Out Loud"""
Two More Bottles of Wine,D. McClinton,Emmylou Harris,188,"""I Ain't Living Long Like This"""
Two Lovers,S. Robinson,Mary Wells,165,"""Operator"""
Two Less Lonely People in the World,H. Greenfield,Air Supply,239,"""What Kind of Girl"""
Two Hearts,J. Mtume,Teddy Pendergrass,240,"""I Just Wanna Say"""
Two Hearts,P. Collins,Phil Collins,203,"""The Robbery"""
Two Faces Have I,L. Christie,Lou Christie,164,"""All That Glitters Isn't Gold"""
Two Dozen Roses,M. McAnally,Shenandoah,222,"""Hard Country"""
Two Divided by Love,B. Potter,The Grass Roots,162,"""Let It Go"""
Two-Timin' Me,J. Griffin,The Remingtons,184,"""That's Easy for Me to Say"""
Two-Bit Manchild,N. Diamond,Neil Diamond,184,"""Broad Old Woman (6 AM Insanity)"""
Twisting by the Pool,M. Knopfler,Dire Straits,208,"""If I Had You"""
Twistin' the Night Away,S. Cooke,Rod Stewart,162,"""A Divine Good Time"""
Twisted,B. McFadden,Brian McFadden,234,"""Patience"""
Twist of Fate,S. Donaghy,Siobhán Donaghy,226,"""Don't Know Why"""
Twist in My Sobriety,T. Tikaram,Tanita Tikaram,233,"""For All These Years"""
Twist and Shout,B. Berns,The Beatles,125,"""Always Late (Why Lead Me On)"""
Twist,A. Goldfrapp,Goldfrapp,212,"""Yes Sir"""
"Twinkle, Twinkle Lucky Star",M. Haggard,Merle Haggard,202,"""I Don't Have Any Love Around"""
Twilight Zone,G. Kooymans,Golden Earring,289,"""King Dark"""
Twilight Time,B. Ram,The Platters,167,"""Out of My Mind"""
Twilight Is Gone,C. Hillman,The Desert Rose Band,195,"""Shades of Blue"""
Twilight,J. Lynne,Electric Light Orchestra,217,"""Julie Don't Live Here"""
Twenty Years Ago,W. Newton,Kenny Rogers,224,"""The Heart of the Matter"""
Twenty Four Hours from Tulsa,B. Bacharach,Gene Pitney,172,"""Lonely Night Dreams (Of Far Away Arms)"""
Twenty Flight Rock,E. Cochran,Eddie Cochran,102,"""Cradle Baby"""
Tusk,L. Buckingham,Fleetwood Mac,209,"""Never Make Me Cry"""
Tush,B. Gibbons,ZZ Top,135,"""Blue Jean Blues"""
Turning Away,T. Krekel,Crystal Gayle,175,"""On Our Way to Love"""
Turn to Stone,J. Lynne,Electric Light Orchestra,227,"""Mister Kingdom"""
Turn the Tide,P. Thornalley,Johnny Hates Jazz,224,Breaking Point
Turn the Page,B. Seger,Metallica,300,"""Bleeding Me""/""Stone Cold Crazy""/""The Wait"""
Turn on,M. White,"Earth, Wind & Fire",255,"""Turn On (The Beat Box)"" (Instrumental)"
Turn of the Century,F. Knobloch,Nitty Gritty Dirt Band,219,"""Blues Berry Hill"""
Turn Your Love Around,S. Lukather,George Benson,230,"""Nature Boy"""
Turn Up the Radio,S. Lynch,Autograph,278,"""Thrill of Love"""
Turn That Radio On,P. Davis,Ronnie Milsap,222,"""Old Habits Are Hard to Break"""
Turn On Your Love Light,D. Robey,Bobby Bland,150,"""You're The One (That I Need)"""
"Turn On, Tune In, Cop Out",N. Cook,Freak Power,260,"Remix, ""Getting Over the Hump"""
Turn My Back on You,S. Matthewman,Sade,365,"""Keep Looking"""
Turn Me Loose,M. Reno,Loverboy,230,"""Dear Santa (Bring Me a Man)"""
Turn It Up,T. Feeling,The Feeling,210,"""Femme Fatale"""
Turn It Up,A. Green,Busta Rhymes,235,"""Rhymes Galore"""
Turn It On Again,P. Collins,Genesis,207,"""Behind the Lines"" (Edit) (UK)"
"Turn It On, Turn It Up, Turn Me Loose",K. Lazarides,Dwight Yoakam,203,"""Since I Started Drinkin' Again"""
Turn It Loose,C. Bickhardt,The Judds,223,"""Cow Cow Boogie"""
Turn It Around,S. Focus,Sub Focus,193,"""Turn It Around"" (TCRemix)"
Turn Back Time,S. Focus,Sub Focus,205,Special RequestRemix
Turn Around,M. Reynolds,Dick and Dee Dee,158,"""Don't Leave Me"""
"Turn Around, Look at Me",J. Capehart,Bee Gees,136,"""(Theme From) The Travels Of Jamie McPheeters"""
Turn-Down Day,J. Keller,The Cyrkle,149,"""Big Little Woman"""
Turn! Turn! Turn!,P. Seeger,The Byrds,229,"""She Don't Care About Time"""
Turbo Lover,R. Halford,Judas Priest,333,"""Hot for Love"""
Tupelo Honey,V. Morrison,Van Morrison,414,"""Starting a New Life"""
Tunnel of Love,M. Knopfler,Dire Straits,488,"""Tunnel of Love, Part 2"""
Tunnel of Love,B. Springsteen,Bruce Springsteen,310,"""Two for the Road"""
Tumbling Down,S. Harley,Cockney Rebel,203,"""Loretta's Tale"""
Tumbling Dice,Jagger/Richards,The Rolling Stones,185,"""I Never Will Marry"""
Tumbleweed,D. Morgan,Sylvia,191,"""Anytime, Anyplace"
Tug of War,P. McCartney,Paul McCartney,240,"""Get It"""
Tuff Enuff,K. Wilson,The Fabulous Thunderbirds,201,"Look At That, Look At That"
Tuesday Afternoon,J. Hayward,The Moody Blues,136,"""Another Morning"""
Tube Snake Boogie,B. Gibbons,ZZ Top,182,"""La Grange"""
Tu t'laisses aller,C. Aznavour,Charles Aznavour,223,"""J'ai perdu la tête"""
Tu ne m'as pas laissé le temps,D. Hallyday,David Hallyday,263,"""Un Petit Peu de toi"""
Tu manques,J. Goldman,Carole Fredericks,553,"""Vivre cent vies"""
Tu es mon autre,L. Fabian,Lara Fabian,222,Instrumental + Live
Tu' mir nicht weh,B. Davis,Connie Francis,159,"""Paradiso"""
Tthhee Ppaarrttyy,Uffie,Justice,243,"""Tthhee Ppaarrttyy"""
Tsutaetai Koto/I Wanna See You,M. Abe,Mao Abe,215,Kirei na Uta
Tsukiyo no Shōzō,R. Sheena,Chiaki Kuriyama,229,"""Seishun no Matataki"""
Tsubasa wa Iranai,Y. Akimoto,AKB48,275,"""Aishū no Trumpeter"""
Träume leben ewig,T. Brötzmann,Christina Stürmer,234,"Scherbenmeer, 4 Jahrezeiten"
Trying to Love Two Women,S. Throckmorton,The Oak Ridge Boys,150,"""Hold On Til Sunday"""
Tryin' to Hide a Fire in the Dark,B. Dean,Billy Dean,217,"""Steam Roller"""
Tryin' to Get the Feeling Again,D. Pomeranz,The Carpenters,231,"""Beautiful Music"""
Tryin' to Get Over You,V. Gill,Vince Gill,223,"""Nothing Like a Woman"""
Tryin' to Beat the Morning Home,T. G. Sheppard,T. G. Sheppard,164,"""I'll Be Satisfied"""
Try a Little Tenderness,H. M. Woods,Otis Redding,200,"""I'm Sick Y'all"""
Try a Little Kindness,B. Austin,Glen Campbell,143,"""Lonely My Lonely Friend"""
Try Try Try,J. Cope,Julian Cope,208,"""Baby, Let's Play Vet""/""W.E.S.S.E.X.Y""/""Don't Jump Me, Mother"""
"Try Some, Buy Some",G. Harrison,Ronnie Spector,248,"""Tandoori Chicken"""
Try Not to Look So Pretty,D. Yoakam,Dwight Yoakam,172,"""Wild Side"""
Try Me,J. Brown,The Famous Flames,148,"""Papa's Got a Brand New Bag"""
"Try Me, I Know We Can Make It",G. Moroder,Donna Summer,1077,Wasted
Try Again,T. Rice-Oxley,Keane,267,"""A Bad Dream"" (Live)"
"Try, Try, Try",B. Corgan,The Smashing Pumpkins,309,"""Here's to the Atom Bomb"""
Truth Is,O. I. Jr.,Fantasia Barrino,235,"""Baby Mama"""
Trust Your Love,K. Koda,Kumi Koda,1602,STILL IN LOVE
Truly Yours,"W. "". Stevenson",The Spinners,187,"""Where Is That Girl"""
Truly Yours,M. Marl,Kool G Rap,307,Cold Cuts
Truly Madly Deeply,D. Jones,Cascada,179,"""I'll Bet He Was Cool"", ""I Want You"", ""Promises"", ""This Side of Me"", ""Love Can Move You"""
Truly,L. Richie,Lionel Richie,200,"""Just Put Some Love in Your Heart"""
"Truly, Truly True",A. Stillman,Brenda Lee,160,"""I Still Miss Someone"""
True to His Word,J. Steele,Boy Howdy,196,"""I'm Already Lovin' You Too Much"""
True Tears of Joy,J. Smith,Hunters & Collectors,260,"""This Morning"""
True Love Ways,N. Petty,Cliff Richard,167,"""Galadriel"""
True Love,V. Gill,Vince Gill,241,"""Livin' the Way I Do"""
True Love,R. Palmer,Robert Palmer,232,"""Big Shot"""
True Love,Pink,Pink,230,"""Slut Like You"""
True Love,C. Porter,George Harrison,137,"""I Will Love You"""
True Heart,D. Schlitz,The Oak Ridge Boys,236,"""Love Without Mercy"""
True Grit,D. Black,Glen Campbell,152,"""Hava Nagila"""
True Faith,B. Sumner,New Order,240,"""1963"""
True Colors,B. Steinberg,Phil Collins,226,"""Heading for the Moon"""
True Blue,L. Sea,Luna Sea,603,"""Fallout"""
True Believer,J. Hiatt,Ronnie Milsap,292,"""These Foolish Things (Remind Me of You)"""
True,G. Kemp,Spandau Ballet,298,"""Gently"""
True,M. Green,George Strait,216,"""Remember the Alamo"""
Truckin',J. Garcia,Grateful Dead,193,Ripple
Truck On,M. Bolan,T. Rex,189,"""Sitting Here"""
Troy,S. O'Connor,Sinéad O'Connor,394,"""Still Listening"""
Trouble in Mind,R. M. Jones,Richard M. Jones,176,"""Fire in the Mountain"""
Trouble Man,M. Gaye,Marvin Gaye,229,"Don't Mess With Mister ""T"""
Trouble Blues,C. Brown,Charles Brown,141,"""Honey Keep Your Mind on Me"""
Trouble,Pink,Pink,192,"""Delirium"", ""Free"""
Trouble,T. Snider,Mark Chesnutt,214,"""Strangers"""
Trouble,L. Buckingham,Lindsey Buckingham,236,"""That's How We Do It in L.A."""
Trouble,G. Gregory,Heaven 17,240,Move Out
Trouble,C. O. Wolbers,Cypress Hill,264,Lowrider
Trouble,J. Buckland,Coldplay,273,"""Brothers and Sisters"""
Trouble-Maker,G. Moroder,Roberta Kelly,239,"""The Family"""
Trojan Horse,H. v. Hemert,Luv',204,Life Is On My Side
Triumph of a Heart,Björk,Björk,244,"* ""Desired Constellation"""
Trippin' on a Hole in a Paper Heart,S. Weiland,Stone Temple Pilots,176,"""Pop's Love Suicide"""
Trippin',T. Braxton,Toni Braxton,245,"""I Hate You"", ""Places"""
Trip at the Brain,M. Clark,Suicidal Tendencies,272,"""Suicyco Mania"" (Instrumental Version)"
Tricks of the Light,M. Oldfield,Mike Oldfield,232,"""Afghan"""
Trick of the Light,J. Entwistle,The Who,217,"""905"""
Trick of the Light,D. McComb,The Triffids,511,"""Love the Fever"""
Tribus,A. Kisser,Sepultura,105,"""The Waste"", ""Common Bonds (Alternate Mix)"""
Triangler,M. Sakamoto,Maaya Sakamoto,1132,Kotomichi
Tren de Amor,J. Stewart,Jermaine Stewart,231,When Sex Becomes a Religion
Treaty,P. Garrett,Yothu Yindi,215,"""Yolngu Boy"""
Treat Me Right,P. Benatar,Pat Benatar,204,"""Never Wanna Leave You"""
Treat Me Like a Stranger,P. McCann,Baillie & the Boys,209,"""I'd Love To"""
Treat Me Like a Lady,D. Pearson,Five Star,250,"""Don't Stop"""
Treat Me Like Your Mother,D. Fertita,The Dead Weather,250,You Just Can't Win(vinyl only)
Treat Her Right,L. LeBlanc,Sawyer Brown,219,"""She's Gettin' There"""
Treasure of Love,G. Jones,George Jones,138,"""If I Don't Love You (Grits Ain't Groceries)"""
Treacle Brown,B. Gees,Lori Balmer,172,"""Four Faces West"""
Travellin' Light,R. C. Bennett,Cliff Richard,120,"""Dynamite"" (Ian Samwell)"
Travellers Tune,O. C. Scene,Ocean Colour Scene,221,"Song For The Front Row, On The Way Home, All God's Children Need Travelling Shoes"
Travelin' Prayer,B. Joel,Billy Joel,183,"""Ain't No Crime"""
Travelin' Man,J. Fuller,Ricky Nelson,144,"""Hello Mary Lou"""
Travelin' Light,J. Cale,JJ Cale,170,"""Hey Baby"""
Travelin' Band,J. Fogerty,Creedence Clearwater Revival,128,"""Who'll Stop the Rain"""
Trashed,B. Ward,Black Sabbath,256,Zero The Hero
Trash,B. Anderson,Suede,246,Europe Is Our Playground
Trash,B. Ferry,Roxy Music,133,"""Trash 2"""
Trampolene,J. Cope,Julian Cope,218,"""Disaster"""
Trampled Under Foot,J. Page,Led Zeppelin,338,"""Black Country Woman"""
Train of Thought,A. O'Day,Cher,153,"""Dixie Girl"""
Train of Thought,P. Waaktaar-Savoy,A-ha,254,"""And You Tell Me"" (Demo Version)"
Train of Memories,J. Hinson,Kathy Mattea,170,"""Evenin'"""
Train in Vain,M. Jones,The Clash,189,"""London Calling"""
Train Kept A-Rollin',T. Bradshaw,The Rock and Roll Trio,137,"""Honey Hush"""
Train,A. Goldfrapp,Goldfrapp,248,"""Big Black Cloud, Little White Lie"""
Train-Train,H. Kōmoto,The Blue Hearts,51,Mugon Denwa no Blues
Tragedy,A. McCoy,Hanoi Rocks,245,"""Café Avenue"", ""Don't Never Leave Me"""
Tragedy,"Barry, Robin & Maurice Gibb",Bee Gees,303,"""Until"""
Traffic,K. Jones,Stereophonics,265,"""Tie Me Up Tie Me Down"""
Tracy,L. Pockriss,The Cuff Links,125,"""Where Do You Go?"""
Track Three,S. Walker,Scott Walker,230,"""Blanket Roll Blues"""
Traces,B. Buie,Classics IV,165,"""Mary, Mary Row Your Boat"""
Tra te e il mare,B. Antonacci,Laura Pausini,229,Looking For An Angel
