col0,col1,col2,col3
The Long and Winding Road,Lennon–McCartney,Got to Get You into My Life,Apple Studio
The Logical Song,R. Davies,Breakfast in America,California
The Loco-Motion,C. King,I Should Be So Lucky,London
The Little Girl I Once Knew,B. Wilson,Barbara Ann,Los Angeles
The Lights and Buzz,A. McMahon,La La Lie,"Santa Monica, California"
The Letter,W. C. Thompson,Neon Rainbow,American Sound Studio
The Legend of Bonnie and Clyde,M. Haggard,Mama Tried,"Hollywood, California"
The Laughing Gnome,D. Bowie,Love You till Tuesday,Decca Studios
The Last Time,Jagger/Richards,(I Can't Get No) Satisfaction,London
The Last Fight,M. Tuck,Bittersweet Memories,"Malibu, California"
The Land of Make Believe,A. Hill,My Camera Never Lies,United Kingdom
The Killing Moon,P. d. Freitas,The Sound of Echo,"Bath, Somerset"
The Kids Are Alright,P. Townshend,I'm a Boy,IBC Studios
The Jump Off,L. Kim,Ten Commandments,"New York City, New York"
The Inner Light,G. Harrison,Hey Jude,Abbey Road Studios
The Ink in the Well,D. Sylvian,Pulling Punches,Berlin
The Ideal Height,S. Neil,Questions and Answers,England
The Hunter Gets Captured by the Game,S. Robinson,When You're Young and in Love,Hitsville U.S.A.
The Hunter,C. Brennan,In a Lifetime,Dublin
The Holy River,Prince,Somebody's Somebody,Paisley Park Studios
The Heinrich Maneuver,Interpol,Mammoth,Electric Lady Studios
The Hardest Thing,S. Kipner,I Do,New York
The Hard Road,L. Russell,What a Great Night,"Adelaide, South Australia"
The Happening,Holland–Dozier–Holland,Reflections,Los Angeles
The Hands You're Holding Now,M. Robbins,Optimistic,"New York, New York"
The Green Manalishi,P. Green,Dragonfly,Hollywood
The Greatest View,D. Johns,Without You,Australia
The Greatest Romance Ever Sold,Prince,One Song,Minnesota
The Greatest Love of All,L. Creed,On Broadway,1977 in music
The Greatest,R. Love,Hello Heartbreak,"Los Angeles, CA"
The Great Rock 'n' Roll Swindle,P. Cook,(I'm Not Your) Steppin' Stone,Ramport Studios
The Grand Tour,N. Wilson,The Door,1974 in country music
The Gold It's in the...,D. Gilmour,Money,Château d'Hérouville
The Glorious Land,P. Harvey,The Wheel,Dorset
The Girl Is Mine,M. Jackson,Billie Jean,Los Angeles
The Girl I Knew Somewhere,M. Nesmith,Pleasant Valley Sunday,"Hollywood, California"
The Girl's Alright with Me,E. Kendricks,Girl,Hitsville USA
The Ghost of You,M. C. Romance,Welcome to the Black Parade,2004 in music
The Ghost of Tom Joad,B. Springsteen,Renegades of Funk,Los Angeles
The Game Is Won,L. Silvas,Don't Look Back,London
The Future,Prince,Thieves in the Temple,Paisley Park Studios
The Food,S. Cooke,The Corner,New York
The Fixer,M. McCready,Just Breathe,Henson Recording Studios
The Feast and the Famine,F. Fighters,Congregation,"Arlington County, Virginia"
The Execution of All Things,J. Lewis,Portions for Foxes,"Lincoln, Nebraska"
The Entertainer,B. Joel,Say Goodbye to Hollywood,California
The Electric Co.,U2,Shadows and Tall Trees,Dublin
The Edge of Glory,L. Gaga,3-Way,Oslo
The Downeaster Alexa,B. Joel,That's Not Her Style,Times Square
The Don,H. D,Daughters,Hollywood
The Dolphin's Cry,E. Kowalczyk,Run to the Water,1999 in music
The Disco Before the Breakdown,L. J. Grace,Cavalier Eternal,"Gainesville, Florida"
The Dignity of Labour,I. C. Marsh,Empire State Human,Sheffield
The Diary of Horace Wimp,J. Lynne,Don't Bring Me Down,Munich
The Day I Tried to Live,C. Cornell,Black Hole Sun,Seattle
The Damned Don't Cry,S. Strange,Night Train,Mayfair Studios
The Crunge,J. Page,Trampled Under Foot,Headley Grange
The Chemicals,Garbage,Empty,California
The Call Up,T. Clash,Hitsville UK,Electric Lady Studios
The Box,J. S. Hall,No Point,1988 in music
The Blues Come Around,H. Williams,I Saw the Light,Nashville
The Block Party,L. Lopes,Let's Just Do It,"New York City, New York"
The Bird,Prince,Jerk Out,First Avenue
The Big Heat,S. Ridgway,"Drive, She Said","Hollywood, CA"
The Best of Me,Jadakiss,Case of the Ex,"New York City, New York"
The Best Things in Life Are Free,M. Bivins,Little Miracles,"Glendale, California"
The Best Thing About Me Is You,A. Carlsson,Más,Miami
The Best Is Yet to Come,D. Wansel,If Only You Knew,Philadelphia
The Bells,J. Fugler,Slid,1991 in music
The Beautiful People,M. Manson,Tourniquet,"New Orleans, Louisiana"
The Beautiful Ones,Prince,Computer Blue,Los Angeles
The Bazaar,T. T. Party,Shadows on the Mountainside,A&M Records
The Barbarian,B. Bartók,Take a Pebble,1970 in music
The Ballad of John and Yoko,Lennon–McCartney,Come Together,Abbey Road Studios
The Back of Love,P. d. Freitas,The Cutter,Liverpool
The Animal,D. Donegan,Warrior,"Chicago, Illinois"
The 6th Sense,Prodigy,The Light,"New York City, New York"
"The ""Priest"" They Called Him",W. S. Burroughs,And I Love Her,"Lawrence, Kansas"
That Same Old Feeling,T. Macaulay,Here Comes That Rainy Day Feeling Again,1970 in music
That Lady,R. Isley,What It Comes Down To,"Burbank, California"
That's the Way Love Is,N. Whitfield,What's Going On,Hitsville U.S.A.
