col0,col1,col2,col3
United Nations Economic Commission for Europe,IOS Press,SJUED4,84642632
Ultrasonics,Elsevier,ULTRA3,sf80000765
Turkish Journal of Biology,TÜBİTAK,TJBIEZ,98648003
Trials,BioMed Central,TRIACW,2006243052
Transplantation,Wolters Kluwer,TRPLAU,64005482
Translational Research,Mosby,JLCMAK,2006212275
Transactions of the Royal Society of Tropical Medicine and Hygiene,Oxford University Press,TRSTAZ,25003514
Transactions of the Kansas Academy of Science,Kansas Academy of Science,TSASAH,12033006
Transactions of the Institute of Measurement and Control,Sage Publications,TICODG,80649352
Traffic,Wiley-Blackwell,TRAFFA,244513
Toxicology and Industrial Health,SAGE Publications,TIHEEC,87643067
Toxicology Mechanisms and Methods,Informa,TMMOCP,2001215311
Toxicological Sciences,Oxford University Press,TOSCF2,98660653
Topology and its Applications,Elsevier,TIAPD9,80649265
Topology,Elsevier,TPLGAF,65002707
Time & Society,Sage Publications,TIMSEB,93643960
Thin Solid Films,Elsevier,THSFAP,81005059
Theory of Probability and Its Applications,Society for Industrial and Applied Mathematics,TPRBAU,61047747
Theory & Society,Springer Science+Business Media,301568766,78647592
Theory & Psychology,SAGE Publications,THPSEJ,91640670
Theoretical and Applied Genetics,Springer Science+Business Media,THAGA6,91643825
Theoretical and Applied Climatology,Springer Science+Business Media,TACLEK,98641633
Theoretical Population Biology,Elsevier,TLPBAQ,73019414
Theoretical Criminology,SAGE Publications,TRCNFA,97643339
The Scientific World Journal,Hindawi Publishing Corporation,THESAS,2001215320
The Review of Economics and Statistics,MIT Press,RECSA9,20022219
The Review of Austrian Economics,Springer Science+Business Media,RAECFG,87654025
The Reading Teacher,Wiley-Blackwell,REDTAH,58026936
The Ramanujan Journal,Springer Science+Business Media,RAJOF9,sn98030205
The Professional Geographer,Routledge,PFGGAC,52048680
The Physics Teacher,AIP Publishing,PHTEAH,66084757
The Physician and Sportsmedicine,Informa Healthcare,PHSPDE,73644162
The Pharmacogenomics Journal,Nature Publishing Group,PJHOAZ,2001243289
The New England Journal of Medicine,Massachusetts Medical Society,NEJMAG,20020456
The Nautilus,Bailey-Matthews Shell Museum,NUTLA5,sf80000648
The Medical Letter on Drugs and Therapeutics,"The Medical Letter, Inc.",MELEAP,211546
The Lancet,Elsevier,LANCAO,sf82002015
The Journal of the Learning Sciences,Routledge,JLSBE3,91641725
The Journal of the American Osteopathic Association,American Osteopathic Association,JAOAAZ,90641783
The Journal of Slavic Military Studies,Routledge,JSMTE8,93641610
The Journal of Sexual Medicine,Wiley-Blackwell,JSMOAN,2004243877
The Journal of Physiology,Wiley-Blackwell,JPHYA7,49034373
The Journal of Pediatrics,Elsevier,JOPDAB,sg35000009
The Journal of Pathology,John Wiley & Sons,JPTLAS,sn80001300
The Journal of Pain,Elsevier,JPOAB5,sn99009246
The Journal of Neuroscience,Society for Neuroscience,JNRSDS,81640907
The Journal of Membrane Biology,Springer Science+Business Media,MBBBO,76023326
The Journal of Law and Economics,University of Chicago Press,JLLEA7,59001643
The Journal of Infectious Diseases,Oxford University Press,JIDIAQ,a40001288
The Journal of Higher Education,Ohio State University Press,JHIEAW,e32000099
The Journal of Finance,Wiley-Blackwell,JLFIAN,49022513
The Journal of Comparative Neurology,Wiley-Liss,JCNEAM,46037484
The Journal of Chemical Thermodynamics,Elsevier,JCTDAF,70005751
The Journal of Allergy and Clinical Immunology,Elsevier,JACIBY,96660636
The Johns Hopkins Medical Journal,Johns Hopkins Press,JHMJAX,74647460
The John Marshall Journal of Information Technology and Privacy Law,John Marshall Law School,JCJIEI,94657486
The International Journal of Psychoanalysis,Wiley-Blackwell,IJPSAA,21019534
The International Journal of Neuropsychopharmacology,Oxford University Press,IJNUFB,243167
The International Journal of Developmental Biology,University of the Basque Country,IJDBE5,96648178
The International Journal of Biochemistry & Cell Biology,Elsevier,IJBBFU,95648313
The Information Society,Taylor and Francis,INSCD8,81645518
The Indian Forester,Indian Council of Forestry Research and Education,IORA8,sa66006360
The Independent Review,The Independent Institute,IREVFP,96652948
The Holocene,SAGE Publications,HOLOE6,91640904
The Economic Journal,Wiley-Blackwell,ECJOAB,7041368
The Cerebellum,Springer Science+Business Media,CERECF,2003213601
The Canadian Entomologist,Cambridge University Press,CAENAF,agr38000066
The British Journal of Criminology,Oxford University Press,BJCDAR,62052872
The Breast,Elsevier,BREAEK,26672025
The Biological Bulletin,Marine Biological Laboratory,BIBUBX,a38000518
The Auk,American Ornithologists' Union,AUKJAF,sf79010123
The Astronomical Journal,IOP Publishing,ANJOAA,sf78000620
The American Journal of Pathology,Elsevier,AJPAA4,27010042
The American Journal of Medicine,Elsevier,AJMEAZ,med47002270
The American Journal of Gastroenterology,Nature Publishing Group,AJGAAR,89640851
The American Journal of Economics and Sociology,Wiley-Blackwell,AJESA3,45042294
The American Journal of Clinical Nutrition,American Society for Nutrition,AJCNAC,56032466
The American Historical Review,Oxford University Press,AMHRA2,5018244
The Aging Male,Taylor and Francis Group,AGMAF7,sn98-39317
The Accounting Review,American Accounting Association,ACRVAS,29008222
The AAPS Journal,Springer Science+Business Media,AJAOB6,2004212722
Textile Research Journal,Sage Publications,TRJOA9,34029794
Tetrahedron,Elsevier,TETRAB,57003385
Tectonophysics,Elsevier,TCTOAM,68004714
Technical Communication Quarterly,Routledge,TCQEAB,92642719
TESOL Journal,John Wiley & Sons,TEJOEO,92642327
Systematic Parasitology,Springer Science+Business Media,SYPAD4,80649426
Systematic Botany,American Society of Plant Taxonomists,SYBODA,76646396
Synthetic Metals,Elsevier,SYMEDZ,80648575
Sydowia,Verlag Ferdinand Berger & Söhne,SYAMAU,58034637
Surface Science Reports,Elsevier,SSREDI,92645771
Surface Science,Elsevier,SUSCAS,64009351
Superconductor Science and Technology,IOP Publishing,SUSTEF,88651712
Studies in American Political Development,Cambridge University Press,SAPDFH,87642058
Studia Leibnitiana,Franz Steiner Verlag,STLBBI,70425291
Structural and Multidisciplinary Optimization,Springer Science+Business Media,SOPTEQ,91643999
Stroke,Lippincott Williams & Wilkins,SJCCA7,70019475
Strength of Materials,Springer Science+Business Media,SMTLB5,sf80001517
Stochastic Models,Taylor & Francis,SMTOBE,212884
Steroids,Elsevier,STEDAM,64007007
Statistical Modelling,SAGE Publications,SMTOCF,2007205323
Statistical Methods in Medical Research,SAGE Publications,SMMRFQ,92640657
Spine,Lippincott Williams & Wilkins,SPINDD,76646361
Spectrochimica Acta Part B: Atomic Spectroscopy,Elsevier,SAASBH,74016632
Spectrochimica Acta Part A: Molecular and Biomolecular Spectroscopy,Elsevier,SAMCAS,sn95026453
Space Science Reviews,Springer Science+Business Media,SPSRA4,65069362
Southwestern Entomologist,Society of Southwestern Entomologists,SENTDD,91641628
Southern Medical Journal,Lippincott Williams & Wilkins,SMJOAV,9010004
Southern Economic Association,Wiley-Blackwell,SECJAR,36005384
South European Society and Politics,Taylor and Francis,SESPFS,97643311
South African Journal of Botany,Elsevier,SAJBDD,86648975
Source Code for Biology and Medicine,Biomed Central,SCBMCJ,2006243962
Somatosensory & Motor Research,Informa,SMOREZ,90640737
Solid State Ionics,Elsevier,SSIOD3,80648376
Solid State Communications,Elsevier,SSCOA4,64007448
Solar Physics,Springer Science+Business Media,SLPHAX,2008233226
Soft Matter,Royal Society of Chemistry,SMOABF,2005252381
Social Science Research,Elsevier,SSREBG,73642620
Social Science Information,SAGE Publications,SSCIBL,86649437
Social Science & Medicine,Elsevier,SSMDEP,82643975
Social Problems,Oxford University Press,SOPRAG,56038132
Social Politics,Oxford University Press,SOPOFC,94644139
Social & Legal Studies,SAGE Publications,SLSTEK,94644509
Small Business Economics,Springer Science+Business Media,SBECEX,89659272
