col0,col1,col2,col3
Yellow-faced flameback,Picidae,IUCN3.1,EN
Yellow-eyed starling,Sturnidae,IUCN3.1,NT
Yellow-eyed pigeon,Columbidae,IUCN3.1,VU
Yellow-eyed penguin,Spheniscidae,IUCN3.1,EN
Yellow-eyed junco,Emberizidae,IUCN3.1,LC
Yellow-eyed black flycatcher,Muscicapidae,IUCN3.1,LC
Yellow-eyed babbler,Sylviidae,IUCN3.1,LC
Yellow-edged lyretail,Serranidae,IUCN3.1,LC
Yellow-eared woodpecker,Picidae,IUCN3.1,LC
Yellow-eared toucanet,Ramphastidae,IUCN3.1,LC
Yellow-eared spiderhunter,Nectariniidae,IUCN3.1,LC
Yellow-eared parrot,True parrots,IUCN3.1,EN
Yellow-eared bulbul,Bulbul,IUCN3.1,NT
Yellow-eared barbet,Megalaimidae,IUCN3.1,LC
Yellow-crowned woodpecker,Picidae,IUCN3.1,LC
Yellow-crowned whitestart,Parulidae,IUCN3.1,LC
Yellow-crowned tyrannulet,Tyrannidae,IUCN3.1,LC
Yellow-crowned parakeet,Platycercinae,IUCN3.1,NT
Yellow-crowned night heron,Ardeidae,IUCN3.1,LC
Yellow-crowned gonolek,Malaconotidae,IUCN3.1,LC
Yellow-crowned euphonia,Fringillidae,IUCN3.1,LC
Yellow-crowned elaenia,Tyrannidae,IUCN3.1,LC
Yellow-crowned canary,Fringillidae,IUCN3.1,LC
Yellow-crowned butterflyfish,Chaetodontidae,IUCN2.3,VU
Yellow-crowned brush-tailed rat,Echimyidae,iucn3.1,LC
Yellow-crowned bishop,Ploceidae,IUCN3.1,LC
Yellow-crowned barbet,Megalaimidae,IUCN3.1,NT
Yellow-crowned amazon,Neotropical parrot,IUCN3.1,LC
Yellow-crested woodpecker,Picidae,IUCN3.1,LC
Yellow-crested tanager,Thraupidae,IUCN3.1,LC
Yellow-crested manakin,Pipridae,IUCN3.1,LC
Yellow-crested helmetshrike,Prionopidae,IUCN3.1,VU
Yellow-crested cockatoo,Cockatoo,IUCN3.1,CR
Yellow-collared lovebird,True parrots,IUCN3.1,LC
