col0,col1,col2,col3,col4
Étienne de La Boétie,Le Taillan-Médoc,1530-11-01,1530-11-01,1563
É. Souriau,Paris,1892-04-26,1892-04-26,1979
É. Gilson,Auxerre,1884-06-13,1884-06-13,1978
Étienne Bonnot de Condillac,Beaugency,1714-09-30,1714-09-30,1780
É. Meyerson,France,1859-02-12,1859-02-12,1933
É. Chartier,Le Vésinet,1868-03-03,1868-03-03,1951
É. Boutroux,Paris,1845-07-28,1845-07-28,1921
É. Halévy,Sucy-en-Brie,1870-09-06,1870-09-06,1937
Z. o. Sidon,Athens,-150-0-0,-150-0-0,-75
Z. o. Elea,"Syracuse, Sicily",-490-0-0,-490-0-0,-430
Z. o. Citium,Athens,-333-1-1,-333-1-1,-262
Z. Vendler,Hungary,1921-1-1,1921-1-1,2004
Z. Chafee,"Boston, Massachusetts",1885-12-07,1885-12-07,1957
Z. al-Arsuzi,Damascus,1900-6-1,1900-6-1,1968
Y. M. André,Caen,1675-05-22,1675-05-22,1764
Yusuf ibn Abd al-Rahman al-Mizzi,Damascus,1256-1-1,1256-1-1,743
Y. N. Öztürk,Constantinople,1945-6-22,1945-6-22,2016
Y. Ansai,Kyoto,1619-01-24,1619-01-24,1682
Y. i. Ma'in,Medina,775-1-1,775-1-1,233
Y. N. Öztürk,Constantinople,1945-6-22,1945-6-22,2016
X. Fuguan,Taipei,1904-01-31,1904-01-31,1982
Xenocrates,Athens,-396-1-1,-396-1-1,314
X. Zubiri,Madrid,1898-12-04,1898-12-04,1983
W. Stegmüller,Germany,1923-06-03,1923-06-03,1991
W. H. Sheldon,Rutland,1875-4-4,1875-4-4,1981
W. o. Ockham,Bavaria,1288-1-1,1288-1-1,1347
W. Wollaston,London,1659-03-26,1659-03-26,1724
W. Thompson,Kingdom of Ireland,1775-06-30,1775-06-30,1833
W. Stringfellow,Rhode Island,1928-04-28,1928-04-28,1985
W. Petty,London,1623-05-26,1623-05-26,1687
W. L. Rowe,"Lafayette, Indiana",1931-07-26,1931-07-26,2015
W. James,"Tamworth, New Hampshire",1842-01-11,1842-01-11,1910
W. H. Chamberlin,"Logan, Utah",1870-02-12,1870-02-12,1921
W. H. Poteat,"Durham, North Carolina",1919-04-19,1919-04-19,2000
W. Frankena,"Ann Arbor, Michigan",1908-06-21,1908-06-21,1994
W. B. Riley,Minnesota,1861-03-22,1861-03-22,1947
W. Alston,"Jamesville, New York",1921-11-29,1921-11-29,2009
W. A. Earle,Illinois,1919-1-1,1919-1-1,1988
Willard Van Orman Quine,Boston,1908-06-25,1908-06-25,2000
W. v. Humboldt,Berlin,1767-06-22,1767-06-22,1835
W. Windelband,German Empire,1848-05-11,1848-05-11,2011
W. Dilthey,Austria-Hungary,1833-11-19,1833-11-19,1911
W. Sellars,Pittsburgh,1912-05-20,1912-05-20,1989
W. T. Smith,"Malibu, California",1885-06-09,1885-06-09,1957
W. Kaufmann,"Princeton, New Jersey",1921-07-01,1921-07-01,1980
W. Benjamin,Catalonia,1892-07-15,1892-07-15,1940
W. i. Munabbih,Sana'a,655-0-0,655-0-0,725
W. D. Ross,Oxford,1877-04-15,1877-04-15,1971
V. Solovyov,Moscow Governorate,1853-01-28,1853-01-28,1900
V. Jankélévitch,Paris,1903-08-31,1903-08-31,1985
V. Benussi,Kingdom of Italy,1878-01-17,1878-01-17,1927
V. L. Welby,"Harrow, London",1837-04-27,1837-04-27,1912
V. P. Considerant,Paris,1808-10-12,1808-10-12,1893
V. Cousin,Cannes,1792-11-28,1792-11-28,1867
V. Rozanov,Union of Soviet Socialist Republics,1856-5-2,1856-5-2,1919
V. Pogor,Iași,1833-08-20,1833-08-20,1906
U. Maharaj,India,1870-05-15,1870-05-15,1941
U. Eco,Milan,1932-01-05,1932-01-05,2016
T. Brăileanu,Kingdom of Romania,1882-09-14,1882-09-14,1947
T. Palamidessi,Italy,1915-02-16,1915-02-16,1983
T. Sprigge,Lewes,1932-01-14,1932-01-14,2007
Théodore Eugène César Ruyssen,France,1868-08-11,1868-08-11,1967
T. T. Shields,Canada,1873-11-01,1873-11-01,1955
T. Reid,Glasgow,1710-04-26,1710-04-26,1796
T. Paine,Greenwich Village,1737-02-09,1737-02-09,1809
T. Kuhn,"Cambridge, Massachusetts",1922-07-18,1922-07-18,1996
T. Hobbes,Derbyshire,1588-04-05,1588-04-05,1679
T. H. Green,Oxford,1836-04-07,1836-04-07,1882
T. Flanginis,Venice,1578-1-1,1578-1-1,1648
Theophrastus,Athens,-371-0-0,-371-0-0,-287
T. Kairis,Syros,1784-10-19,1784-10-19,1853
T. Farmakidis,Athens,1784-01-15,1784-01-15,1860
T. o. Alexandria,Egypt,210,210,270
T. W. Adorno,Valais,1903-09-11,1903-09-11,1969
T. Lipps,Munich,1851-07-28,1851-07-28,1914
Théodore Eugène César Ruyssen,France,1868-08-11,1868-08-11,1967
T. Malaka,Dutch East Indies,1897-06-02,1897-06-02,1949
T. Horowitz,"Shadyside, Pittsburgh",1950-11-07,1950-11-07,2000
T. M. Badruddin,India,1861-01-27,1861-01-27,1925
Tahir Allauddin Al-Qadri Al-Gillani,Germany,1932-06-18,1932-06-18,1991
T. Hussein,Cairo,1889-11-14,1889-11-14,1973
T. Kotarbiński,Warsaw,1886-03-31,1886-03-31,1981
S. Kierkegaard,Copenhagen,1813-05-05,1813-05-05,1855
Syed Zahoor Shah Hashmi,British India,1926-04-21,1926-04-21,1978
Syed Shujaat Ali Qadri,Heart attack,1941-1-1,1941-1-1,1993
S. M. Khundmiri,India,1938-02-14,1938-02-14,2011
S. A. Ali,England,1849-1-1,1849-1-1,1928
S. A. Khan,Aligarh,1817-10-17,1817-10-17,1898
S. Marković,Austria-Hungary,1846-09-21,1846-09-21,1875
S. Briet,France,1894-02-01,1894-02-01,1989
S. Langer,"Old Lyme, Connecticut",1895-12-20,1895-12-20,1985
S. Strange,Aylesbury,1923-06-09,1923-06-09,1998
S. al-Thawri,Basra,716-1-1,716-1-1,161
S. Hampshire,Oxford,1914-10-01,1914-10-01,2004
S. o. Lampsacus,Athens,-335-1-1,-335-1-1,-269
S. Toulmin,Los Angeles,1922-03-25,1922-03-25,2009
S. Rosen,"Philadelphia, Pennsylvania",1929-07-29,1929-07-29,2014
S. Cohen,London,1942-02-23,1942-02-23,2013
Speusippus,Athens,-408-1-1,-408-1-1,339
S. i. Gabirol,Taifa of Valencia,1021-1-1,1021-1-1,1050
Socrates,Athens,-469-0-0,-469-0-0,-399
S. Kraal,Pulwama,1782,1782,1854
"Sir William Hamilton, 9th Baronet",Edinburgh,1788-03-08,1788-03-08,1856
S. d. Beauvoir,Paris,1908-01-09,1908-01-09,1986
S. Weil,Kent,1909-02-03,1909-02-03,1943
S. Hook,"Stanford, California",1902-12-20,1902-12-20,1989
Sibawayh,Shiraz,760-1-1,760-1-1,796
S. Kuki,Kyoto,1888-02-15,1888-02-15,1941
S. Chaeho,Empire of Japan,1880-11-07,1880-11-07,1936
S. Gerashi,Qajar dynasty,1879-12-03,1879-12-03,1920
S. Wolin,"Salem, Oregon",1922-08-04,1922-08-04,2015
S. A. Aziz,Delhi,1746-0-0,1746-0-0,1824
S. Kuki,Kyoto,1888-02-15,1888-02-15,1941
S. Starostin,Russia,1953-03-24,1953-03-24,2005
S. Bulgakov,France,1871-07-28,1871-07-28,1944
S. t. Younger,Rome,-4-1-1,-4-1-1,65
S. Shaumyan,Connecticut,1916-02-27,1916-02-27,2007
Sayed Muhammad Amimul Ehasan Barkati,Bangladesh,1911-01-24,1911-01-24,1974
S. Kofman,Paris,1934-09-14,1934-09-14,1994
S. M. Thompson,"Monmouth, Illinois",1902-03-10,1902-03-10,1983
Samuel Edward Konkin III,California,1947-07-08,1947-07-08,2004
S. Bailey,Sheffield,1791-07-05,1791-07-05,1870
S. Alexander,Lancashire,1859-01-06,1859-01-06,1938
S. Maimon,Habsburg Monarchy,1754-1-1,1754-1-1,1800
S. Shirazi,Shiraz,1181-0-0,1181-0-0,1291
S. i. Jubayr,Kufa,665-1-1,665-1-1,95
S. V. Mir Ahmed Ali,Chennai,1902-07-15,1902-07-15,1976
S. Kierkegaard,Copenhagen,1813-05-05,1813-05-05,1855
R. B. Marcus,"New Haven, Connecticut",1921-08-02,1921-08-02,2012
R. Kirk,"Mecosta, Michigan",1918-10-19,1918-10-19,1994
R. v. Jhering,Göttingen,1818-08-22,1818-08-22,1892
R. Sutermeister,Switzerland,1802-05-04,1802-05-04,1868
R. Steiner,Dornach,1861-2-25,1861-2-25,1925
R. Eisler,Vienna,1873-01-07,1873-01-07,1926
R. C. Eucken,Thuringia,1846-01-05,1846-01-05,1926
R. Carnap,"Santa Monica, California",1891-05-18,1891-05-18,1970
R. Dworkin,England,1931-12-11,1931-12-11,2013
R. Jakobson,Boston,1896-10-11,1896-10-11,1982
R. Ingarden,Kraków,1893-02-05,1893-02-05,1970
R. Barthes,France,1915-11-12,1915-11-12,1980
R. Gibson,"Reston, Virginia",1944-02-21,1944-02-21,2015
R. Garaudy,France,1913-07-17,1913-07-17,2012
R. Chisholm,"Providence, Rhode Island",1916-11-27,1916-11-27,1999
R. Nozick,"Cambridge, Massachusetts",1938-11-16,1938-11-16,2002
R. M. MacIver,New York City,1882-04-17,1882-04-17,1970
R. C. Solomon,Switzerland,1942-09-14,1942-09-14,2007
R. A. Wilson,"Capitola, California",1932-01-18,1932-01-18,2007
R. Feraios,Belgrade,1757-1-1,1757-1-1,1798
R. T. Alexander,"Waynesville, North Carolina",1887-07-03,1887-07-03,1971
R. Rorty,"Palo Alto, California",1931-10-04,1931-10-04,2007
R. Popkin,California,1923-12-27,1923-12-27,2005
R. McKeon,Chicago,1900-04-26,1900-04-26,1985
R. Cantillon,England,1680-1-1,1680-1-1,1734
R. Avenarius,Zurich,1843-11-19,1843-11-19,1896
R. Aaron,Wales,1901-11-06,1901-11-06,1987
R. Guénon,Cairo,1886-11-15,1886-11-15,1951
R. Descartes,Stockholm,1596-03-31,1596-03-31,1650
R. Novatore,Genoa,1890-05-12,1890-05-12,2012
R. Guénon,Cairo,1886-11-15,1886-11-15,1951
R. Descartes,Stockholm,1596-03-31,1596-03-31,1650
R. Williams,Saffron Walden,1921-08-31,1921-08-31,1988
R. Aron,Paris,1905-03-14,1905-03-14,1983
R. Dunayevskaya,United States,1910-05-01,1910-05-01,1987
R. Turabi,Karachi,1908-07-09,1908-07-09,1973
R. d. Maeztu,Madrid,1874-5-4,1874-5-4,1936
R. W. Emerson,"Concord, Massachusetts",1803-05-25,1803-05-25,1882
R. M. Hare,Oxfordshire,1919-03-21,1919-03-21,2002
R. G. Collingwood,"Coniston, Cumbria",1889-02-22,1889-02-22,1943
Q. B. Auliya,Karachi,1898-1-1,1898-1-1,1979
Pythagoras,Metapontum,-570,-570,-495
Pyrrho,Elis,-359-1-1,-359-1-1,-270
P. Lavrov,Paris,1823-06-14,1823-06-14,1900
Protagoras,Ionian Sea,-486-1-1,-486-1-1,-420
Proclus,Athens,0412-02-08,0412-02-08,485
Posidonius,Rhodes,-135-1-1,-135-1-1,-51
Porphyry,Roman Empire,233-1-1,233-1-1,305
Plinio Corrêa de Oliveira,Brazil,1908-1-1,1908-1-1,1995
Plato,Athens,-427-0-0,-427-0-0,348
P. Rauti,Rome,1926-11-19,1926-11-19,2012
P. Hadot,Orsay,1922-02-21,1922-02-21,2010
P. Gassendi,Paris,1592-01-22,1592-01-22,1655
P. Duhem,Cabrespine,1861-06-09,1861-06-09,1916
P. Charron,Paris,1541-1-1,1541-1-1,1603
P. Bourdieu,France,1930-08-01,1930-08-01,2002
P. Bayle,Dutch Republic,1647-11-18,1647-11-18,1706
P. Proudhon,Passy,1809-01-15,1809-01-15,1865
Philodemus,Herculaneum,-110-1-1,-110-1-1,40
P. Lacoue-Labarthe,Paris,1940-03-06,1940-03-06,2007
P. Foot,Oxford,1920-10-03,1920-10-03,2010
P. Mainländer,Grand Duchy of Hesse,1841-1-1,1841-1-1,1876
P. Chelčický,Chelčice,1390-1-1,1390-1-1,1460
P. W. Zapffe,Asker,1899-12-18,1899-12-18,1990
