col0,col1,col2,col3
Öræfajökull,Iceland,Iceland,1727
Zuni-Bandera volcanic field,"Cibola County, New Mexico",New Mexico,-1170
Zubair Group,Red Sea,Red Sea,2013
Zhupanovsky,Kamchatka Peninsula,Kamchatka Peninsula,2014
Zheltovsky,Kamchatka Peninsula,Kamchatka Peninsula,1923
Zavodovski Island,United Kingdom,United Kingdom,2014
Zavaritski Caldera,Kuril Islands,Kuril Islands,1957
Yucca Mountain,United States,United States,80
Yucamane,Peru,Peru,1902
Yelovsky,Kamchatka Peninsula,Kamchatka Peninsula,-7550
Yellowstone Caldera,United States,United States,70
Yanteles,Chile,Chile,-6650
Yantarni Volcano,Alaska,Alaska,-800
Wizard Island,Oregon,Oregon,-4600
Williams Cone,British Columbia,British Columbia,1340
White Horse Bluff,British Columbia,British Columbia,500
Whakaari / White Island,New Zealand,New Zealand,2016
West Mata,Samoan Islands,Samoan Islands,2008
West Crater,Washington,Washington,-5750
Wells Gray-Clearwater volcanic field,British Columbia,British Columbia,1550
Watts Point volcanic centre,British Columbia,British Columbia,90
Waiowa,New Guinea,New Guinea,1943
Waianae Range,Hawaii,Hawaii,2
Vysoky,Kamchatka Peninsula,Kamchatka Peninsula,-550
Vulsini,Italy,Italy,-104
Vulcano,Italy,Italy,1888
Vulcan,Papua New Guinea,Papua New Guinea,1994
Vulcan,US,New Mexico,150
Volcán de Fuego,Guatemala,Guatemala,2002
Volcán de Colima,Colima,Jalisco,2014
Volcán Wolf,Galapagos Islands,Galapagos Islands,2015
Volcán Tacaná,Guatemala,Guatemala,1986
Volcán Ecuador,Galapagos Islands,Galapagos Islands,1150
Volcán Bárcena,Mexico,Mexico,1952
Volcán Barú,Panama,Panama,1550
Volcán Atitlán,Sololá Department,Guatemala,1853
Volcan Rumoka,Nord-Kivu,Democratic Republic of the Congo,1977
Volcán de Fuego,Guatemala,Guatemala,2002
Volcán de Colima,Jalisco,Jalisco,2014
Volcán Wolf,Galapagos Islands,Isabela Island,2015
Volcán Tacaná,Mexico,Mexico,1986
Volcán Ecuador,Isabela Island,Galapagos Islands,1150
Volcán Barú,Panama,Panama,1550
Volcán Bárcena,Mexico,Mexico,1952
Volcán Atitlán,Guatemala,Guatemala,1853
Vilyuchik,Kamchatka Peninsula,Kamchatka Peninsula,-8050
Villarrica,Chile,Chile,2014
Viedma,Argentina,Argentina,1988
Victory,Papua New Guinea,New Guinea,1890
Vatnafjöll,Iceland,Iceland,1200
Valles Caldera,United States of America,United States of America,50
Uzon,Kamchatka Peninsula,Kamchatka Peninsula,200
Uturunku,San Pablo de Lípez Municipality,Potosí Department,271
Ushkovsky,Kamchatka Peninsula,Kamchatka Peninsula,1890
Unnamed volcano,Luzon Strait,Luzon Strait,1854
Unnamed Syrian Volcanic Field,Syria,Syria,1222
Ulawun,Papua New Guinea,Papua New Guinea,2013
Ukinrek Maars,Alaska,Alaska,1977
Uinkaret volcanic field,Arizona,Arizona,1100
Ugashik-Peulik,Alaska,Alaska,1814
Ubinas,Peru,Peru,2015
Tyatya,Kuril Islands,Kuril Islands,1981
Tweed Volcano,New South Wales,New South Wales,23
Tutupaca,Peru,Peru,1802
Turrialba Volcano,Costa Rica,Costa Rica,2016
Turfan volcano,Xinjiang,Xinjiang,1120
Tupungatito,Argentina,Argentina,1987
Tungurahua,Ecuador,Ecuador,2010
Tskhouk-Karckar,Armenia,Armenia,-3000
Tseax Cone,British Columbia,British Columbia,1690
Trölladyngja,Iceland,Iceland,5000
Trout Creek Hill,Washington,Washington,340
Tromen,Argentina,Argentina,1822
Trimble Knob,"Monterey, Virginia","Monterey, Virginia",35
Trident Volcano,Alaska,Alaska,1974
Trölladyngja,Iceland,Iceland,5000
Torfajökull,Iceland,Iceland,1477
Tor Zawar,Pakistan,Pakistan,2010
Tolmachev Dol,Kamchatka Peninsula,Kamchatka Peninsula,300
Tolbachik,Kamchatka Peninsula,Kamchatka Peninsula,2012
Tofua,Tonga,Tonga,2004
Tjörnes,Atlantic Ocean,Atlantic Ocean,1867
Titila,Kamchatka Peninsula,Russia,-550
Tinguiririca Volcano,Chile,Chile,1917
Tinakula,Solomon Islands,Solomon Islands,2008
Ticsani,Moquegua Region,Moquegua Region,1800
Tianshan Volcanic Group,China,China,650
Three Sisters,Oregon,Oregon,-50
The Volcano,British Columbia,British Columbia,1800
The Quill,Caribbean Netherlands,Caribbean Netherlands,250
Tequila Volcano,Jalisco,Jalisco,200
Teneguía,Canary Islands,Canary Islands,1971
Telica,Nicaragua,Nicaragua,2015
Teide,Spain,Spain,1909
Tecuamburro,Guatemala,Guatemala,-960
Tavurvur,Papua New Guinea,Papua New Guinea,2014
Taunshits,Kamchatka Peninsula,Kamchatka Peninsula,-550
Tao-Rusyr Caldera,Kuril Islands,Kuril Islands,1952
Tangkuban Perahu,Dutch East Indies,Dutch East Indies,2015
Tanaga,Alaska,Alaska,1914
Taapaca,Chile,Chile,-320
