col0,col1,col2,col3
The Charlie Horse Music Pizza,S. Lewis,D. DeLuise,1
The Challenge,T. J. Lavin,R. Rules,28
The Burn with Jeff Ross,J. Ross,J. Ross,2
The Brian Conley Show,B. Conley,J. Sachs,7
The Breast Darn Show in Town,J. Morris,H. Gadsby,2
The Biggest Loser,D. McCall,R. Edmond,5
The Biggest Loser,A. Rochester,B. Harper,10
The Biggest Game in Town,B. Davro,T. Robbins,1
The Big Comfy Couch,A. Court,J. Harris,7
The Apprentice: You're Fired!,A. Chiles,R. Ranganathan,12
The Angel,A. Byram,J. Caudwell,1
The American Bible Challenge,J. Foxworthy,K. Franklin,3
The Amazing Race Australia,G. Bowler,List of The Amazing Race Australia contestants,3
The Amazing Race Asia,A. Wu,List of The Amazing Race Asia contestants,5
That's Showbusiness,M. Smith,G. Hunniford,8
Telly Addicts,N. Edmonds,C. Collingwood,13
Techno Games,P. Forrester,L. Bonnin,4
Talking Telephone Numbers,P. Schofield,C. Peters,4
Talkin' 'Bout Your Generation,S. Micallef,C. Pickering,4
Talang 2007,P. Eng,B. Karlsson,1
Take the Money and Run,Z. Gesner,P. Bishop,1
TAC Cup Future Stars,C. Hutchison,A. Pippos,6
Sweat the Small Stuff,N. Grimshaw,R. Humes,4
Swayamvar,H. Tejwani,R. Sawant,4
Survivor,J. Probst,L. o. Survivor,33
Surprise Surprise,C. Black,K. Egan,3
Supersize vs Superskinny,C. Jessen,A. Richardson,7
Sunday Night Football,B. McAvaney,L. Matthews,11
Strip Poker,G. Elwood,J. Cole,2
Stranded,J. Gates,J. Gates,1
Stand Up for the Week,K. Bridges,R. Ranganathan,5
Stan Lee's Superhumans,S. Lee,D. B. Smith,3
Splash,J. Lawrence,G. Louganis,1
Splash!,V. Kay,T. Daley,2
Spicks and Specks,A. Hills,A. Brough,7
Spicks and Specks,J. Earl,E. Hooper,1
Spellbound,P. Coia,D. Greenwood,3
Space Cadets,G. Proops,B. Bailey,1
Space Academy,Filmation,J. Harris,1
So You Want to be Top?,G. Wilmot,K. Copstick,3
SlideShow,G. Denyer,C. Wilson,1
Simply the Best,P. Tufnell,P. Durkin,1
Showtime,M. E. 1,Apink,7
Show Me the Telly,R. Bacon,C. Tarrant,1
Shooting Stars,V. Reeves,U. Jonsson,8
Shinee's Yunhanam,Mnet,Shinee,1
Shaun Micallef's Mad as Hell,S. Micallef,N. Bell,6
Shark Tank,S. Harris,S. Baxter,2
Selling Houses Australia,A. Winter,S. Blaze,9
See It Saw It,M. Speight,P. Fox,3
Scotland Yard,E. Lustgarten,J. L. Mesurier,1
Scavengers,J. Leslie,A. Galvin,1
Scariest Places on Earth,L. Blair,L. Blair,3
Satyamev Jayate,B. Airtel,A. Khan,3
Saturday Night Live Weekend Update Thursday,A. Poehler,A. Samberg,3
Saturday Night Live Korea,S. Dong-yup,Saturday Night Live Korea,8
Safeword,R. Edwards,K. Ryan,2
SPAMasterpiece Theater,J. Hodgman,J. Hodgman,1
SNN News,M. Tornving,D. Hellenius,1
Rove,R. McManus,R. Shelton,11
Ross Kemp: Behind the Story,D. Murnaghan,R. Kemp,1
Rosie and Jim,J. Cunliffe,P. Hutchins,8
Rock Profile,D. O'Leary,D. Walliams,3
Robot Wars,J. Clarkson,J. Reed,2
Rob Brydon's Annually Retentive,R. Brydon,D. Gorman,2
Ripcord,L. Pennell,K. Curtis,2
Riot,R. McManus,J. Denbo,1
Richard Hammond's Crash Course,R. Hammond,R. Hammond,2
Republic of Telly,N. Delamere,T. Rubberbandits,7
Remote Control,A. Coppola,R. Kabler,5
Remington Steele,M. Enterprises,D. Roberts,5
Reality Bites,S. Mulhern,J. Dommett,1
Real World/Road Rules Challenge 2000,Road Rules: Latin America,V. Portillo,3
Real World/Road Rules Challenge: The Ruins,T. Lavin,E. Starkman,18
Real World/Road Rules Challenge: The Inferno II,D. Mirra,J. Chung,10
Real World/Road Rules Challenge: The Inferno 3,T. J. Lavin,T. Cooley,14
Real World/Road Rules Challenge: The Inferno,D. Mirra,V. Portillo,8
Real World/Road Rules Challenge: The Gauntlet III,T. J. Lavin,T. Hall,15
Real World/Road Rules Challenge: The Duel II,T. J. Lavin,E. Starkman,17
Real World/Road Rules Challenge: Battle of the Sexes 2,J. Moseley,E. Nies,9
Real Life,S. Grant,E. Walters,3
Razia Sultan,S. Pictures,R. Sultan,1
RPM,M. White,A. Jones,15
QI,S. Fry,A. Davies,13
Put 'Em Under Pressure,G. Seoige,P. Spillane,1
Public Prosecutor,W. Hull,A. Gwynne,1
Psi Factor: Chronicles of the Paranormal,D. Aykroyd,M. Frewer,4
Protégé,D. Dantes,K. Neri,2
PokerStars Big Game,Pokerstars.net,C. Rose,2
Please Take Care of My Refrigerator,A. Jung-hwan,H. Seok-cheon,1
Play to the Whistle,H. Willoughby,B. Walsh,2
Pineapple Dance Studios,L. Spence,D. Moore,1
Petrolheads,N. Morrissey,C. Barrie,1
Periodismo para todos,J. Lanata,J. Lanata,4
Penn & Teller: Fool Us,J. Ross,P. Jillette,3
"Penelope K, by the way",A. Diamond,A. Bishop,1
Pee-wee's Playhouse,P. Herman,P. Hartman,5
Parlamentet,H. Rosenfeldt,J. Rheborg,23
Paranormal Challenge,Z. Bagans,Z. Bagans,1
Paddy's TV Guide,P. McGuinness,P. McGuinness,1
Overhaulin',A. Celeste,C. Foose,8
Oprah's Big Give,N. Berkus,T. Gonzalez,1
One of a Kind,A. Barris,L. Bochner,2
One Hundred and Eighty,D. McCall,R. Bray,1
Odd One In,B. Walsh,J. Manford,2
Norske Talenter,S. Kloppen,Quick,7
Non-Summit,S. Si-kyung,G. Patry,2
Never Mind the Buzzcocks,R. Gilbert,B. Bailey,28
National Bingo Night,T. Campbell,R. Bargh,1
Nadaniyaan,B. Magic,A. Nath,5
Mythos,S. Sarandon,J. Campbell,3
My Fair Princess,C. Yao,R. Lin,2
MyDOL,Mnet,VIXX,1
Mrs. Pammi Pyarelal,U. Nadkarni,M. P. Pyarelal,1
Mostly True Stories?: Urban Legends Revealed,N. Henstridge,B. Harris,4
Morton & Hayes,R. Reiner,K. Pollack,1
Monster House,B. Curry,R. Wilson,1
Mock the Week,D. Ó. Briain,F. Boyle,15
Miss Naked Beauty,M. Klass,M. Paris,1
Miles from Tomorrowland,D. Junior,D. B. Baker,2
Mera Saaein 2,A & B Entertainment,M. Saaein,2
Mera Saaein,A & B Entertainment,M. Saaein,2
MatPat's Game Lab,MatPat,MatPat,1
Mary Berry Cooks,M. Berry,M. Berry,1
Mary,M. T. Moore,D. Letterman,1
Market Warriors,M. L. Walberg,B. Richter,1
Man Mein Hai Visshwas,N. Bharadwaj,Man Mein Hai Visshwas,2
"Man, Woman, Wild",R. England,R. England,2
Make Me an Egghead,J. Vine,J. Keppel,1
Majors & Minors,J. Harte,D. Byrd,1
Magic Circle Club,L. Harris,C. McEwan,3
Mad Mad World,P. McGuinness,R. Darby,1
Love on a Saturday Night,D. McCall,J. Wilkes,2
Love Your Garden,A. Titchmarsh,D. Domoney,6
Love & Hip Hop: Atlanta,B. Tigger,S. J,5
Louie Spence's Showbusiness,L. Spence,A. Stone,1
Loose Women,R. Langsford,K. Adams,21
List of PowNed television programmes,J. Heemskerk,D. Weesie,1
Laughing Villa,N. Nair,N. Nair,1
Late Show with David Letterman,D. Letterman,C. Orchestra,22
Late Nite News with Loyiso Gola,L. Gola,D. F. Man,11
Late Night with Seth Meyers,S. Meyers,T. 8. Band,3
Late Night with Jimmy Fallon,J. Fallon,T. Roots,5
Late Night with David Letterman,D. Letterman,C. Orchestra,11
Late Night with Conan O'Brien,C. O'Brien,A. Richter,14
Late Motiv,A. Buenafuente,B. Romero,2
La Corte del Pueblo,P. d. Leon,C. Pérez,5
La Corte de Familia,P. d. Leon,C. Pérez,5
LG15: Outbreak,EQAL,G. A. McConnell,1
Kuchenne rewolucje,M. Gessler,M. Gessler,14
Kratts' Creatures,C. Kratt,R. Rubin,1
Koffee with Karan,K. Johar,K. Johar,4
Knowitalls,G. Brandreth,A. Panja,1
Kitchen Burnout,M. P. White,K. Burnout,1
Kathy,K. Griffin,M. Collins,2
Julian Fellowes Investigates: A Most Mysterious Murder,J. Fellowes,D. Calder,1
Judge for Yourself,F. Allen,D. James,1
Jono and Ben,B. Boyce,G. Williams,5
Jokers Wild,B. Cryer,A. Askey,9
Jimmy Durante Presents the Lennon Sisters,J. Durante,T. L. Sisters,1
Jessica & Krystal,OnStyle,J. Jung,1
Jasoos Vijay,O. Puri,A. Hussain,3
Jason of Star Command,Filmation,J. Doohan,2
Jamie's School Dinners,J. Oliver,J. Oliver,1
It's a Knockout,K. Chegwin,T. Ray,2
It's Only TV...but I Like It,J. Ross,J. Dee,4
It's Not Rocket Science,B. Miller,K. Fong,1
"It's Not Me, It's You",E. Holmes,K. Brook,1
It's Academic,S. Roberts,L. Lovette,20
Iron Chef UK,N. Nairn,J. Joo,1
Iron Chef America,A. Brown,B. Flay,11
Intresseklubben,J. Wester,A. Jansson,4
Interceptor,A. Croft,S. O'Kane,1
Inside Supercars,G. Rust,M. Skaife,2
Insert Name Here,S. Perkins,R. Osman,1
Ik hou van Holland,L. d. Mol,I. Moors,12
If I Ruled the World,C. Anderson,G. Garden,2
I Never Knew That About Britain,P. Martin,S. Lipscomb,1
I Love My Country,G. Logan,F. Skinner,1
I Am a Singer,L. Fan,I Am a Singer,4
IShine KNECT,P. Armstrong,J. Grace,5
