col0,col1,col2,col3
USS Thomas C. Hart,1966-08-25,1993-08-30,7
USS Thomas A. Edison,1959-07-01,1983-12-01,8
USS Texas,1971-12-21,1993-07-16,9
USS Texas,1886-08-03,1911-02-11,7
USS Terror,1874-06-23,1906-05-08,4
USS Tennessee,1915-12-28,1947-02-14,9
USS Tempest,1990-08-03,2005-09-30,2
USS Tecumseh,1961-07-20,1993-07-23,9
USS Tautog,1961-11-30,1997-03-31,8
USS Tattnall,1959-07-21,1991-01-18,4
USS Tarawa,1969-05-01,2009-03-31,7
USS Talbot,1896-06-10,1940-06-18,0
USS Talbot,1963-05-24,1988-09-30,4
USS Swordfish,1955-07-18,1989-06-02,6
USS Sunfish,1963-03-26,1997-03-31,8
USS Sumter,1965-12-29,1993-09-30,3
USS Sturgeon,1961-11-30,1994-08-01,8
USS Stringham,1897-03-03,1913-11-21,1
USS Stonewall Jackson,1961-07-21,1995-02-09,9
USS Sterett,1961-09-20,1994-03-24,8
USS Stein,1964-07-22,1992-03-19,7
USS St. Louis,1965-06-11,1992-11-02,7
USS St. Louis,1929-02-13,1946-06-20,5
