col0,col1,col2,col3
KNIN-TV,NINe (channel number/canineas tribute to former dog mascot),DT,9.1Fox
KMVT,Magic ValleyTelevision,DT,11.1CBS
KMEG,MEG Donovan,DT,14.1CBS
KKYK-CD,Derived from radio station (nowKABZ) and former sister television station (nowKMYA-DT),Class A,30.1Soul of the South Network
KJNB-LD,JoNesBoro,LD,39.1Fox
KIFI-TV,"Idaho Falls, Idaho",DT,8.1ABC
KIDK,KID (formercall sign),DT,3.1CBS
KHTV-CD,KHSNTeleVision,Class A,27.1Spanish independent
KGWN-TV,KGWN: Greater Wyoming Network,DT,5.1/10.1 CBS
KGPT-CD,KansasGreat PlainsTelevision,DC,(see article)
KGAN,(former owner),DT,2.1CBS
KFXA,FoX A (refers to former simulcast withKFXB-TV),DT,28.1Fox
