col0,col1,col2,col3
Ibacus ciliatus,Scyllaridae,DD,iucn3.1
Ibacus alticrenatus,Slipper lobster,LC,iucn3.1
Homarus gammarus,Lobster,LC,iucn3.1
Hemiboeckella powellensis,Centropagidae,VU,IUCN2.3
Heliodiaptomus pulcher,Diaptomidae,VU,IUCN2.3
Heliodiaptomus kolleruensis,Diaptomidae,VU,IUCN2.3
Hainanpotamon vietnamicum,Potamidae,DD,iucn3.1
Guinotia dentata,Pseudothelphusidae,LC,IUCN3.1
Globonautes,Potamonautidae,EN,iucn3.1
Gandalfus puia,Bythograeidae,SP,NZTCS
Gammarus pecos,Gammaridae,VU,IUCN2.3
Gammarus hyalelloides,Gammaridae,VU,IUCN2.3
Gammarus desperatus,Gammaridae,CR,IUCN2.3
Gammarus bousfieldi,Gammaridae,VU,IUCN2.3
Gammarus acherondytes,Gammaridae,EN,IUCN3.1
Galearctus avulsus,Slipper lobster,LC,iucn3.1
Fabaeformiscandona aemonae,Candonidae,VU,IUCN2.3
Eunephrops manningi,Lobster,DD,iucn3.1
Eunephrops cadenasi,Lobster,LC,iucn3.1
Eunephrops bairdii,Lobster,DD,iucn3.1
Eudiaptomus chappuisi,Diaptomidae,DD,IUCN2.3
Euastacus sulcatus,Parastacidae,VU,iucn3.1
Euastacus spinifer,Parastacidae,LC,iucn3.1
Euastacus maidae,Parastacidae,CR,iucn3.1
Euastacus jagara,Parastacidae,CR,iucn3.1
Epischura massachusettsensis,Temoridae,DD,IUCN2.3
Epischura baikalensis,Temoridae,VU,IUCN2.3
Epilobocera sinuatifrons,Pseudothelphusidae,LC,iucn3.1
Eodiaptomus shihi,Diaptomidae,VU,IUCN2.3
Eodiaptomus lumholtzi,Diaptomidae,VU,IUCN2.3
