col0,col1,col2,col3
E. W. Humphreys,London,J. Hawdon,1892-4-12
E. Wienholt,Australia,A. Wienholt,1904-01-15
E. Salomon,Frankfurt,C. E. Salomon,1909-04-21
E. Rumsey,"Greenville, Kentucky",J. Rumsey,1868-04-06
E. M. Smith,New Plymouth,S. G. Smith,1907-04-19
E. Lamb,Australia,J. Lamb,1910-10-18
E. J. Bloustein,"Nassau, Bahamas",F. Bloustein,1989-12-09
E. Guye,Australia,D. Guye,1960-07-04
E. Dickinson,Boston,E. Dickinson,1874-06-16
E. Corser,Australia,B. Corser,1928-7-31
E. C. Ericson,"Flandreau, South Dakota",E. W. Ericson,1910-02-08
E. Cargill,Dunedin,F. Petre,1903-08-09
E. Blake,Ontario,H. H. Wrong,1912-03-01
E. Bates,"St. Louis, Missouri",B. family,1869-03-25
E. Archer,Australia,A. brothers,1940-07-01
E. R. Sáenz,Bogotá,José Manuel Restrepo Veléz,1955-10-17
E. Ford,"Grosse Pointe Shores, Michigan",H. Ford,1943-05-26
E. Reggie,"Lafayette, Louisiana",T. Kennedy,2013-11-19
E. Plant,Australia,J. Hodel,1926-04-28
E. Jowett,"Leyburn, Queensland",D. Fairbairn,1936-04-14
E. J. Flynn,Quebec,J. Flynn,1927-06-07
E. H. Lushington,Kent,H. Lushington,1839-03-27
E. Dwyer-Gray,Hobart,C. Chisholm,1945-12-06
E. Proulx,Ontario,M. Proulx,1956-12-26
E. K. Kirkpatrick,"Baton Rouge, Louisiana","P. Elmo Futrell, Jr.",2014-04-15
E. Tekere,Mutare,H. Chitepo,2011-06-07
E. Free,Australia,F. Bulcock,1938-02-12
E. Colvile,Devon,A. Colvile,1893-04-02
E. Ware,"Alexandria, Louisiana","Edwin O. Ware, Sr.",2016-07-10
E. N. Briggs,"Brandon, Vermont",E. J. Ormsbee,1873-01-26
E. Long,"Alexandria, Louisiana",G. S. Long,1960-09-05
E. L. Stewart,Louisiana,T. Spiva,1956-01-11
E. D. Estilette,"Opelousas, Louisiana",G. L. Dupré,1919-11-07
D. Kulenović,Damascus,O. Kulenović,1956-10-03
D. Foster,"Boston, Massachusetts",T. Foster,1884-04-18
D. Foster,"Brookfield, Massachusetts",T. Foster,1823-04-29
D. MacIntyre,Waipukurau,H. MacIntyre,2001-06-08
D. C. Fraser,"Guysborough, Nova Scotia",A. Fraser,1910-09-27
D. McColl,"St. Thomas, Ontario",N. McColl,1915-08-10
D. Cameron,Ontario,J. Cameron,1921-11-27
D. Rollins,"Belleville, Ontario",C. Rollins,2012-11-19
D. Jennings,Australia,J. Jennings,1987-04-09
D. Caffery,Louisiana,P. T. Caffery,1906-12-30
D. McLean,"Napier, New Zealand",D. Maclean,1877-01-05
D. A. Macdonald,Montreal,J. S. Macdonald,1896-06-10
D. A. Cavicchia,"Newark, New Jersey",P. A. Cavicchia,1982-08-18
D. Weifen,Taipei,Samuel C. C. Ting,1954-0-0
D. Valvis,Athens,Z. Valvis,1892-11-30
D. Ljotić,Ajdovščina,M. Nedić,1945-04-23
D. J. Graeff,Amsterdam,Jacob Cornelisz van Neck,1589-07-27
D. Pennington,Indiana,W. Q. Gresham,1854-09-02
D. Viger,Montreal,D. Viger,1861-02-13
D. Papineau,Canada West,L. Papineau,1854-01-20
D. Yingchao,Beijing,S. Weishi,1992-07-11
D. H. Pasha,Constantinople,Lala Kara Mustafa Pasha,1544-0-0
D. T. Stafford,"Alexandria, Louisiana",G. Stafford,1926-01-18
D. Starčević,Jastrebarsko,A. Starčević,1908-11-18
D. S. Terry,"Lathrop, California",B. F. Terry,1889-08-14
D. Orlikow,Manitoba,S. Cherniack,1998-01-19
D. Monro,"Nelson, New Zealand",A. Monro,1877-02-15
D. MacKeen,"Mabou, Nova Scotia",H. P. MacKeen,1916-11-13
D. Logan,"Yamhill County, Oregon",S. T. Logan,1874-03-26
D. Gourd,Montreal,J. Gour,1981-12-29
D. F. Boyd,"Baton Rouge, Louisiana",T. D. Boyd,1899-05-27
D. D. Hay,"Stratford, Ontario",W. Hay,1908-1-1
D. D. Aitken,United States,R. P. Aitken,1930-05-26
D. Cobb,"Taunton, Massachusetts",R. T. Paine,1830-04-17
D. Buddo,Christchurch,B. Todd,1937-12-08
"David Boyle, 7th Earl of Glasgow",Ayrshire,"Sir James Fergusson, 6th Baronet",1915-12-13
D. Suro,Dominican Republic,H. García-Godoy,1997-01-18
D. Riordan,Brisbane,B. Riordan,1936-10-15
D. Suro,Dominican Republic,L. García-Godoy,1997-01-18
D. Stewart,"Barrow County, Georgia",T. Roosevelt,1829-05-27
D. L. Hanington,Canada,D. Hanington,1909-05-05
D. Parizeau,Montreal,J. Parizeau,1915-10-23
D. M. Sr.,Ontario,D. McGuinty,1990-03-16
D. Kulenović,Damascus,O. Kulenović,1956-10-03
C. Bergevin,Quebec,A. Bergevin,1910-07-17
C. King,"Saco, Maine",R. King,1817-04-25
C. Vaillancourt,Quebec,C. É. Vaillancourt,1969-10-30
C. P. Iaukea,Territory of Hawaii,K. C. Iaukea,1940-03-05
Count Karl Ludwig von Ficquelmont,Kingdom of Lombardy–Venetia,Count,1857-04-07
C. Araújo,Colombia,Á. A. Castro,2001-09-30
C. C. Esty,"Framingham, Massachusetts",A. R. Esty,1912-12-27
C. Isopescu-Grecul,Kingdom of Romania,D. Isopescu,1938-1-1
C. Schetz,Brussels,A. Schetz,1632-07-16
C. Rankin,Brisbane,A. Rankin,1940-11-02
C. J. McRae,Belize,J. J. McRae,1877-2-0
C. C. Ferrie,"Hamilton, Ontario",A. Ferrie,1856-11-09
C. Hughes,Australia,V. Barton,2014-10-19
C. Evatt,New South Wales,H. V. Evatt,1984-09-15
C. Dear,"Alexandria, Louisiana",D. D. Drell,1950-12-30
C. B. Whish,Australia,R. H. Roe,1890-02-28
C. Weston,Wellington,T. Shand,1946-11-10
C. Kirkpatrick,"Baton Rouge, Louisiana","P. Elmo Futrell, Jr.",1997-01-14
C. Rollins,"Bancroft, Ontario",D. Rollins,1996-1-1
C. Hughes,Baltimore,G. Armistead,1849-09-18
C. Greene,"Westchester County, New York",N. Greene,1781-5-14
C. Geoffrion,Quebec,F. Geoffrion,1899-07-18
C. S. White,United States,F. White,1917-1-28
C. N. Olds,"Columbus, Ohio",E. B. Olds,1890-02-11
C. Lyons,Louisiana,D. T. Stafford,1973-08-08
C. Wilson,Montreal,D. Tracey,1877-05-04
C. W. Elam,Louisiana,H. D. Jr.,1917-09-05
"Charles Stuart, 1st Baron Stuart de Rothesay",Highcliffe Castle,"John Stuart, 3rd Earl of Bute",1845-11-06
C. Scott,"Clark County, Kentucky",F. P. Blair,1813-10-22
C. S. Morehead,"Greenville, Mississippi",J. T. Morehead,1868-12-21
C. S. May,Gull Lake,D. May,1901-03-25
C. R. Borchers,Texas,J. Zaffirini,1997-06-27
C. Ritchie,Ontario,R. Ritchie,1995-06-07
C. R. Mitchell,Alberta,P. Mitchell,1942-08-16
C. R. Devlin,"Aylmer, Quebec",E. B. Devlin,1914-03-01
C. Pinckney,"Charleston, South Carolina",C. C. Pinckney,1824-10-29
C. Ogle,Pennsylvania,A. Ogle,1841-05-10
C. Morris,Nova Scotia,C. Morris,1781-11-04
"Charles Montagu, 1st Earl of Halifax",London,"Henry Montagu, 1st Earl of Manchester",1715-05-19
C. M. Cunningham,Louisiana,M. Methvin,1936-05-17
C. L. Hill,"Esk, Queensland",G. Harris,1909-10-28
C. Lilley,Brisbane,J. Jeays,1897-08-20
"Charles Lennox, 3rd Duke of Richmond",England,"Charles Lennox, 2nd Duke of Richmond",1806-12-29
C. Layard,England,C. P. Layard,1916-06-08
C. Langelier,Quebec City,F. Langelier,1920-02-07
C. K. Tuckerman,Florence,F. G. Tuckerman,1896-02-26
C. J. Pharazyn,Wellington,W. N. Pharazyn,1903-08-16
C. H. Tupper,British Columbia,C. Tupper,1927-03-30
C. H. Mackintosh,Ontario,C. W. Mackintosh,1931-12-22
C. H. Izard,Upper Hutt,C. B. Izard,1925-09-18
C. H. Broad,"Nelson, New Zealand",H. Bunny,1959-09-07
C. H. Constable,"Effingham, Illinois",C. T. Hinde,1865-10-09
C. Finley,"Williamsburg, Kentucky",H. F. Finley,1941-03-18
C. F. Marks,"Camp Mountain, Queensland",R. Dods,1941-03-28
C. D. French,"Westmount, Quebec",J. W. French,1954-05-03
C. Cutler,"Orange, New South Wales",R. Cutler,2006-09-23
C. Coxen,Australia,J. Gould,1876-05-17
C. Clark,Australia,G. Clark,1896-09-16
C. C. Colby,Montreal,M. F. Colby,1907-01-10
"Charles Calvert, 5th Baron Baltimore",England,"Benedict Calvert, 4th Baron Baltimore",1751-04-24
"Charles Calvert, 3rd Baron Baltimore",England,"Charles Calvert, 5th Baron Baltimore",1715-02-21
C. C. Barham,Louisiana,E. Barham,2010-05-03
"Charles Brandon, 1st Duke of Suffolk",Guildford,W. Brandon,1545-8-22
C. B. Fitzgerald,Queensland,P. Fitzgerald,1913-02-10
