col0,col1,col2,col3
The Other Side,S. Tyler,Monkey on My Back,1989 in music
The Only Hope for Me Is You,G. Way,Sing,2010 in music
The Only Exception,H. Williams,Careful,California
The Only Difference Between Martyrdom and Suicide Is Press Coverage,B. Urie,I Write Sins Not Tragedies,"College Park, Maryland"
The Ones You Love,R. Astley,Hopelessly,A-side and B-side
The One Who Really Loves You,S. Robinson,You Beat Me to the Punch,Hitsville USA
The One,M. Martin,Shape of My Heart,Sweden
The One,A-Lee,Hear the Crowd,Norway
The Next Time,B. Kaye,Summer Holiday,London
The Next Day,D. Bowie,Valentine's Day,New York
The Needle and the Damage Done,N. Young,Words,Royce Hall
The Morning Papers,Prince,Pink Cashmere,Paisley Park Studios
The Man with the Child in His Eyes,K. Bush,Hammer Horror,London
The Man Who Sold the World,D. Bowie,The Supermen,Trident Studios
The Man Who Never Lied,A. Levine,Love Somebody,"Los Angeles, California"
The Man Don't Give a Fuck,S. F. Animals,Hermann ♥'s Pauline,London
The Magnificent Seven,T. Clash,This Is Radio Clash,Electric Lady Studios
The Lovers Are Losing,T. Rice-Oxley,Perfect Symmetry,Berlin
The Love You Save,D. Richards,I'll Be There,Los Angeles
The Love I Saw in You Was Just a Mirage,S. Robinson,More Love,Hitsville USA
The Look,P. Gessle,Dressed for Success,Stockholm
