col0,col1,col2,col3,col4,col5,col6
T. Fracasso,Italy,Roman Catholic Church,1901-01-17,1901-01-17,1927-12-25,2006-03-18
S. Salkaházi,Budapest,Roman Catholic Church,1899-05-11,1899-05-11,1944-12-27,2006-09-17
S. o. Lipnica,Papal States,Roman Catholic Church,1435-1-1,1435-1-1,1482-07-18,1685-02-24
S. Bogdánffy,Romania,Roman Catholic Church,1911-02-21,1911-02-21,1953-10-03,2010-10-30
S. Bellesini,Vatican City,Roman Catholic Church,1774-11-25,1774-11-25,1840-02-02,1904-12-27
S. W. Frelichowski,Poland,Roman Catholic Church,1913-01-22,1913-01-22,1945-02-23,1999-06-07
S. Kubista,Poland,Roman Catholic Church,1898-09-27,1898-09-27,1940-04-26,1999-06-13
S. Kazimierczyk,Vatican City,Canons regular,1433-09-27,1433-09-27,1489-05-03,1993-04-18
S. Papczyński,Poland,Roman Catholic Church,1631-05-18,1631-05-18,1701-09-17,2007-09-16
S. Kubista,Poland,Roman Catholic Church,1898-09-27,1898-09-27,1940-04-26,1999-06-13
S. Kazimierczyk,Vatican City,Canons regular,1433-09-27,1433-09-27,1489-05-03,1993-04-18
S. G. Leonardi,Papal States,Roman Catholic Church,1541-1-1,1541-1-1,1609-10-09,1861-11-10
Sophie-Thérèse de Soubiran La Louvière,Saint Peter's Basilica,Roman Catholic Church,1834-05-16,1834-05-16,1889-06-07,1946-10-20
S. Ballachi,Papal States,Roman Catholic Church,1240,1240,1319-11-05,1820-03-14
S. Pollo,Vercelli,Roman Catholic Church,1908-01-08,1908-01-08,1941-12-26,1998-05-23
S. Valfrè,Rome,Roman Catholic Church,1629-03-09,1629-03-09,1710-01-30,1834-07-15
S. Maggi,Papal States,Roman Catholic Church,1414-0-0,1414-0-0,1496-0-0,1760-04-15
S. Petrilli,Vatican City,Roman Catholic Church,1851-08-29,1851-08-29,1923-04-18,1988-04-24
S. Leclercq,Kingdom of Italy,Roman Catholic Church,1745-11-14,1745-11-14,1792-09-02,1926-10-17
Saint Theophilus of Corte,Kingdom of Italy,Roman Catholic Church,1676-10-30,1676-10-30,1740-06-17,1896-01-19
S. D. Comboni,Rome,Roman Catholic Church,1831-03-15,1831-03-15,1881-10-10,1996-03-17
S. Cajetan,Rome,Roman Catholic Church,1480-10-01,1480-10-01,1547-08-07,1629-10-08
S. Salkaházi,Budapest,Roman Catholic Church,1899-05-11,1899-05-11,1944-12-27,2006-09-17
R. Mayer,Munich,Roman Catholic Church,1876-01-23,1876-01-23,1945-11-01,1987-05-03
R. o. Lima,Papal States,Anglican Communion,1586-04-20,1586-04-20,1617-08-24,1667-04-15
R. P. Duchesne,Vatican City,Roman Catholic Church,1769-08-29,1769-08-29,1852-11-18,1940-05-12
Rosa Maria Benedetta Gattorno Custo,Saint Peter's Square,Roman Catholic Church,1831-10-14,1831-10-14,1900-05-06,2000-04-09
Rosa Francisca Dolors Molas Vallvé,Saint Peter's Basilica,Roman Catholic Church,1815-3-24,1815-3-24,1876-6-11,1977-05-01
R. Rivi,Italy,Roman Catholic Church,1931-01-07,1931-01-07,1945-04-13,2013-10-05
R. Nutter,Rome,Catholic Church,1550,1550,1600-07-26,1998-11-22
R. Bellarmine,Rome,Catholic Church,1542-10-04,1542-10-04,1621-09-17,1923-05-13
Rita Lopes de Almeida,Portugal,Roman Catholic Church,1848-03-05,1848-03-05,1913-01-06,2006-05-28
R. Pampuri,Vatican City,Roman Catholic Church,1897-08-02,1897-08-02,1930-03-01,1981-10-04
R. Goupil,Italy,Roman Catholic Church,1608-05-15,1608-05-15,1642-09-29,1925-06-21
R. Rafiringa,Madagascar,Roman Catholic Church,1856-11-03,1856-11-03,1919-05-19,2009-06-07
R. Sherwin,Rome,Roman Catholic Church,1550-10-19,1550-10-19,1581-12-01,1886-12-29
Rafaela Ybarra de Vilallonga,Vatican City,Roman Catholic Church,1843-01-16,1843-01-16,1900-02-23,1984-09-30
R. P. Ayllón,Vatican City,Roman Catholic Church,1850-03-01,1850-03-01,1925-01-06,1952-05-18
Rafael Guízar y Valencia,Vatican City,Roman Catholic Church,1878-04-26,1878-04-26,1938-06-06,1995-01-29
