col0,col1,col2,col3
Journal of Exposure Science and Environmental Epidemiology,Nature Publishing Group,JESEBS,2005216278
Journal of Experimental and Theoretical Physics,Nauka,JTPHES,93641528
Journal of Experimental and Theoretical Artificial Intelligence,Taylor & Francis,JEAIL,91642203
Journal of Experimental Nanoscience,Taylor & Francis,JENOBX,2007243092
Journal of Experimental Medicine,Rockefeller University Press,JEMEAV,6036096
Journal of Experimental Botany,Oxford University Press,JEBOA6,65071009
Journal of Evolutionary Biology,Wiley-Blackwell,JEBIEQ,89659590
Journal of European Public Policy,Taylor and Francis,JEPPFG,97658154
Journal of Environmental Radioactivity,Elsevier,JERAEE,sn85011782
Journal of Environmental Economics and Management,Elsevier,JEEMDI,74647870
Journal of Endocrinology,Bioscientifica,JOENAK,64005925
Journal of Electronic Imaging,SPIE,JEIME5,92640158
Journal of Electroceramics,Springer Science+Business Media,JOELFJ,sn98038133
Journal of Electrocardiology,Churchill Livingstone,JECAB4,75003900
Journal of Elastomers and Plastics,Sage Publications,JEPLAX,74644802
Journal of Economic Theory,Elsevier,JECTAQ,72009216
Journal of Economic Literature,American Economic Association,JECLB3,73646621
Journal of Economic Dynamics and Control,Elsevier,JEDCDH,97660634
Journal of Economic Behavior and Organization,Elsevier,JEBOD9,81644042
Journal of Econometrics,Elsevier,JECMB6,73646127
Journal of Drug Targeting,Informa,JDTAEH,97661035
Journal of Documentation,Emerald Group Publishing,JDOCAS,47040404
Journal of Differential Geometry,Lehigh University,JDGEAS,74648086
Journal of Developmental and Behavioral Pediatrics,Lippincott Williams & Wilkins,JDBPD5,80644911
Journal of Development Economics,Elsevier,JDECDF,76647333
Journal of Cross-Cultural Gerontology,Springer Science+Business Media,JCCGEB,94660501
Journal of Criminal Law & Criminology,Northwestern University School of Law,JCLCFB,80644520
Journal of Contemporary Health Law and Policy,Columbus School of Law,JCLPEF,85644356
Journal of Consulting and Clinical Psychology,American Psychological Association,JCLPBC,2002210225
Journal of Computational Physics,Elsevier,JCTPAH,68007628
Journal of Computational Chemistry,John Wiley & Sons,JCCHDD,80643914
Journal of Computational Biology,"Mary Ann Liebert, Inc.",JCOBEM,94658564
Journal of Composite Materials,Sage Publications,JCOMBI,68007102
Journal of Comparative and Physiological Psychology,American Psychological Association,JCPPAV,22021128
Journal of Comparative Psychology,American Psychological Association,JCOPDT,83648068
Journal of Colloid and Interface Science,Elsevier,JCISA5,74644184
Journal of Coatings Technology and Research,Springer Science+Business Media,JRCEB5,2003215614
Journal of Cluster Science,Springer Science+Business Media,JCSCEB,90642753
Journal of Clinical Psychology,Wiley-Blackwell,JCPYAO,med47001542
Journal of Clinical Investigation,American Society for Clinical Investigation,JCINAO,27010044
Journal of Clinical Gastroenterology,Lippincott Williams & Wilkins,JCGADC,79642938
Journal of Chromatography A,Elsevier,JCRAEY,94659073
Journal of Child and Family Studies,Springer Science + Business Media,JCFSES,92643457
Journal of Chemometrics,John Wiley & Sons,JOCHEU,87655700
Journal of Chemical Technology & Biotechnology,John Wiley & Sons,JCTBED,86641339
Journal of Chemical Sciences,Springer Science+Business Media,JCSBB5,2004325296
Journal of Chemical Information and Modeling,American Chemical Society,JCISD8,2004212268
Journal of Chemical Ecology,Springer Science+Business Media,JCECD8,75644091
Journal of Chemical Crystallography,Springer Science+Business Media,JCCYEV,94660681
Journal of Cerebral Blood Flow & Metabolism,SAGE Publications,JCBMDN,81642753
Journal of Cellular Plastics,Sage Publications,JCUPAM,64009474
Journal of Cellular Biochemistry,John Wiley & Sons,JCEBD5,82643293
Journal of Cell Science,The Company of Biologists,JNCSAI,66009876
Journal of Catalysis,Elsevier,JCTLA5,64005979
Journal of Business and Technical Communication,SAGE Publications,JBTCE9,91641390
Journal of Business Research,Elsevier,JBRED4,77643139
Journal of Building Physics,Sage Publications,JBPOAL,2005240592
Journal of Biotechnology,Elsevier,JBITD4,sn84012185
Journal of Biosciences,Indian Academy of Sciences,JOBSDN,2003209618
Journal of Biomolecular Screening,SAGE Publications,JBISF3,96656657
Journal of Biomedical Science,BioMed Central,JBCIEA,sn94038251
Journal of Biomedical Optics,SPIE,JBOPFO,96656614
Journal of Biomedical Informatics,Elsevier,JBIOBL,212506
Journal of Biomaterials Applications,Sage Publications,JBAPEL,86650110
Journal of Biology,BioMed Central,JBOIAW,2002248523
Journal of Biological Rhythms,SAGE Publications,JBRHEE,86655794
Journal of Biological Chemistry,American Society for Biochemistry and Molecular Biology,JBCHA3,6046735
Journal of Biogeography,Wiley-Blackwell,JBIODN,75640198
Journal of Biochemistry,Oxford University Press,JOBIAO,51031430
Journal of Bioactive and Compatible Polymers,Sage Publications,JBCPEV,93093542
Journal of Behavioral Medicine,Springer Science+Business Media,JBMEDD,78645188
Journal of Basic Microbiology,Wiley-VCH,JBMIEQ,85640381
Journal of Banking and Finance,Elsevier,JBFIDO,79646417
Journal of Bacteriology,American Society for Microbiology,JOBAAY,sg16000091
Journal of Avian Biology,Wiley-Blackwell,JAVBE9,94657491
Journal of Automated Reasoning,Springer Science+Business Media,JAREEW,sf93093541
Journal of Autoimmunity,Elsevier,JOAUEP,88659269
Journal of Atmospheric and Solar-Terrestrial Physics,Elsevier,JASPF3,97659018
Journal of Artificial Intelligence Research,Association for the Advancement of Artificial Intelligence,JAIRFR,sn94003860
Journal of Archaeological Science,Elsevier,JASCDU,74647523
Journal of Applied Toxicology,John Wiley & Sons,JJATDK,83644016
Journal of Applied Physics,American Institute of Physics,JAPIAU,33023425
Journal of Applied Microbiology,Wiley-Blackwell,JAMIFK,97660036
Journal of Applied Crystallography,Wiley-Blackwell,JACGAR,68007471
Journal of Applied Biomechanics,International Society of Biomechanics,JABOEG,sf95095425
Journal of Animal Ecology,Wiley-Blackwell,JAECAP,agr35000273
Journal of Agricultural and Environmental Ethics,Springer Science+Business Media,JAEVEI,sn 91016292
Journal of Agricultural Economics,Wiley-Blackwell,JAGEA7,78645834
Journal of Aging and Health,SAGE Publications,JAHEEG,89656211
"Journal of Aggression, Maltreatment & Trauma",Taylor & Francis,JAMTFJ,97658627
Journal of Adolescent Health,Elsevier,JADHE5,91642057
Journal of Adolescent & Adult Literacy,Wiley-Blackwell,JADLFI,95659119
Journal of Addiction Medicine,Lippincott Williams & Wilkins,JAMOCZ,2006214656
Journal of Acquired Immune Deficiency Syndromes,Lippincott Williams & Wilkins,JJASFJ,sn99006078
Journal of Accounting and Public Policy,Elsevier,JACPDN,83642516
Journal of Accounting and Economics,Elsevier,JAECDS,2003204320
Journal of AOAC International,AOAC International,JAINEE,60624520
Japanese Journal of Applied Physics,IOP Publishing,JJAPB6,2008228761
JAMA Pediatrics,American Medical Association,APAMEB,95642320
JAMA Neurology,American Medical Association,ANNED3,61066291
JAMA,American Medical Association,JAMAAP,82643544
Izvestiya Vysshikh Uchebnykh Zavedenii. Radioelektronika,Springer Science+Business Media,IVUZB5,70648580
Israel Journal of Mathematics,Hebrew University of Jerusalem,ISJMAP,he66000462
Isis,University of Chicago Press,ISISA4,14020981
Irish Medical Journal,Irish Medical Organisation,IMDJBD,sn 79018505
Iranian Studies,Routledge,IRSTEK,sn85060395
Inventiones Mathematicae,Springer Verlag,INVMBH,66009875
International Review of Victimology,SAGE Publications,IRVIE2,sn91025359
International Organization,University of Cambridge,IOCMFZ,49001752
International Labour Review,Wiley-Blackwell,ILREDT,21018897
International Journal of Wireless Information Networks,Springer Science+Business Media,IJWNEY,94641850
International Journal of Toxicology,SAGE Publications,IJTOFN,97660697
International Journal of Thermophysics,Springer Science+Business Media,IJTHDY,81640144
International Journal of Systematic and Evolutionary Microbiology,Society for General Microbiology,ISEMF5,252051
International Journal of Surgical Pathology,SAGE Publications,IJSPFL,2007214840
International Journal of Stress Management,American Psychological Association,ISMAE8,94648209
International Journal of STD & AIDS,Sage Publications,INSAE3,90642504
International Journal of Research in Marketing,Elsevier,IJRME6,sn84011614
International Journal of Psychology,Wiley-Blackwell,IJPSBB,66009906
International Journal of Primatology,Springer Science+Business Media,IJPRDA,80648062
"International Journal of Politics, Culture, and Society",Springer Science+Business Media,ICSOE2,88647721
International Journal of Pharmaceutics,Elsevier,IJPHDE,sc80000643
International Journal of Oral and Maxillofacial Surgery,Elsevier,IJOSE9,sv86004992
International Journal of Nanoscience,World Scientific,IJNNAJ,2003208351
International Journal of Multiphase Flow,Elsevier,IJMFBP,74642847
International Journal of Modelling and Simulation,Taylor & Francis,IMSIEK,83642220
International Journal of Middle East Studies,Cambridge University Press,IJMECN,79015777
International Journal of Medical Microbiology,Urban and Fischer,IMEMFV,244530
International Journal of Language & Communication Disorders,Wiley-Blackwell,IJLDFI,98657724
International Journal of Impotence Research,Nature Publishing Group,IJIRFB,90031214
International Journal of Hydrogen Energy,Elsevier,IJHEDX,76644490
International Journal of Historical Archaeology,Springer Science+Business Media,IJHAFN,97652890
International Journal of High Performance Computing Applications,Sage Publications,IHPCFL,98657707
International Journal of Hematology,Springer Science+Business Media,IJHEEY,sn 91033431
International Journal of Geriatric Psychiatry,John Wiley & Sons,IJGPES,87644132
International Journal of Geographical Information Science,Taylor & Francis,IGISFR,97648219
International Journal of Forecasting,Elsevier,IJFOEK,86651335
International Journal of Food Sciences and Nutrition,Informa,IJFNEH,sn92038360
International Journal of Energy Research,John Wiley & Sons,IJERDN,92640055
International Journal of Damage Mechanics,Sage Publications,IDMEEH,92640135
International Journal of Cancer,John Wiley & Sons,IJCNAW,66009863
International Journal of Biometeorology,Springer Science+Business Media,IJBMAO,72625755
International Journal of Biological Macromolecules,Elsevier,IJBMDR,80648380
International Journal of Bilingualism,SAGE Publications,IJBIFH,98053550
International Journal of Behavioral Development,SAGE Publications,IJBDDY,81642561
International Journal of Astrobiology,Cambridge University Press,IJANFR,2002243451
International Journal for the Psychology of Religion,Routledge,IPRLEB,91641651
International Journal for Parasitology,Elsevier,IJPYBT,79617745
International Journal for Numerical Methods in Fluids,John Wiley & Sons,IJNFDW,81649775
International Feminist Journal of Politics,Routledge,IJOIED,sn99033230
International Archives of Occupational and Environmental Health,Springer Science+Business Media,IAEHDW,76642762
Interface,Electrochemical Society,ELSIE3,94660502
Intelligence,Elsevier,NTLLDT,77643155
