col0,col1,col2,col3
Priorat,Priorat,103,567
Oregon wine,Columbia Valley AVA,702,1052
New York wine,Lake Erie AVA,212,962
Missouri wine,Augusta AVA,116,400
Châteauneuf-du-Pape AOC,"Orange, Vaucluse",180,320
Alella,Maresme,8,96
