col0,col1,col2,col3
Żubroń,Bos taurus,Bovidae,DOM
Yakalo,Yak,Bovidae,DOM
Verticordia insignis subsp. eomagis,Verticordia insignis,Myrtaceae,P3
Verticordia fimbrilepis subsp. fimbrilepis,Verticordia fimbrilepis,Myrtaceae,EN
Verticordia fimbrilepis subsp. australis,Verticordia fimbrilepis,Myrtaceae,VU
Verticordia endlicheriana var. angustifolia,Verticordia endlicheriana,Myrtaceae,P3
Verticordia densiflora var. rosteostella,Verticordia densiflora,Myrtaceae,P3
Verticordia densiflora var. pedunculata,Verticordia densiflora,Myrtaceae,EN
Taxus × media,Taxus cuspidata,Taxaceae,LR/lc
Sidalcea oregana var. calva,Sidalcea oregana,Malvaceae,LE
Sambucus racemosa subsp. racemosa,Sambucus racemosa,Adoxaceae,VU
Saint Helena olive,Extinction,Rhamnaceae,EX
Oenothera deltoides subsp. howellii,Oenothera deltoides,Onagraceae,LE
Mauna Kea silversword,Argyroxiphium sandwicense,Asteraceae,CR
Lupinus latifolius var. barbatus,Lupinus latifolius,Fabaceae,G1
Lilium pardalinum subsp. pitkinense,Lilium pardalinum,Liliaceae,T1
Japanese river otter,European otter,Mustelidae,EX
Hybrid camel,Bactrian camel,Camelid,DOM
Huarizo,Llama,Camelid,DOM
Grevillea brachystylis subsp. grandis,Grevillea brachystylis,Proteaceae,CR
Golden takin,Budorcas taxicolor,Bovidae,EN
Eucalyptus scias subsp. apoda,Eucalyptus scias,Myrtaceae,VU
Eucalyptus gunnii subsp. divaricata,Eucalyptus gunnii,Myrtaceae,EN
Eriogonum longifolium var. gnaphalifolium,Eriogonum longifolium,Polygonaceae,LT
Endiandra muelleri subsp. bracteata,Endiandra muelleri,Lauraceae,EN
Dzo,Yak,Bovidae,Domesticated
Cypripedium macranthum var. rebunense,Cypripedium macranthum,Orchidaceae,EN
Cupressus arizonica var. glabra,Cupressus arizonica,Cupressaceae,NT
Chicken,Red junglefowl,Phasianidae,DOM
Cama,Dromedary,Camelidae,DOM
Calothamnus quadrifidus subsp. teretifolius,Calothamnus quadrifidus,Fabaceae,P4
Calothamnus quadrifidus subsp. asper,Calothamnus quadrifidus,Fabaceae,P2
Banksia sessilis var. cordata,Banksia sessilis,Proteaceae,P4
Athabasca rainbow trout,Oncorhynchus mykiss,Salmonidae,NE
Argyroxiphium sandwicense subsp. macrocephalum,Argyroxiphium sandwicense,Asteraceae,VU
Acaciella angustissima var. suffrutescens,Acaciella angustissima,Fabaceae,G5
Abarema leucophylla var. vaupesensis,Abarema leucophylla,Fabaceae,VU
Abarema curvicarpa var. rodriguesii,Abarema curvicarpa,Fabaceae,VU
Abarema cochleata var. moniliformis,Abarema cochleata,Fabaceae,VU
Abarema alexandri var. troyana,Abarema alexandri,Fabaceae,NT
Żubroń,Bos taurus,Bovidae,DOM
