col0,col1,col2,col3
Tappan-Viles House,J. C. Stevens,2023,1982-02-11
Taliesin West,F. L. Wright,2509050,1974-02-12
Taborian Hospital,M. &. McKissack,8498,1996-08-01
Tabor Antislavery Historic District,J. Todd,48562,2007-10-31
TWA Flight Center,Eero Saarinen and Associates,71224,2005-09-07
Syracuse City Hall,C. E. Colton,2023,1976-08-27
Sylvester Millard House,W. W. Boyington,20234,1982-09-29
Sylvan Theater Historic District,H. Bartholomew,16187,1995-08-15
Sydenham Hospital for Communicable Diseases,E. H. Glidden,40468,1998-10-30
Sycamore Ranger Station,C. C. Corps,10117,1993-06-10
Swing Bridge at New Bridge Landing,K. B. Company,1618,1989-07-05
Susina Plantation,J. Wind,404685,1970-08-12
Supervisor's House No. 1001,USDA Forest Svce. Architecture Group,404,1986-04-11
Sunset Theater,B. &. Benton,91458,2011-04-20
