col0,col1,col2,col3
K54GK,150,"38, 54",K38DU
K42FE-D,136,42 (2002-2013),K42FE (2002-2013)
K41IO-D,19,34 (1986-1990),K34BQ (1986–1990)
K38IZ-D,511,53 (2002-2009),K53GF (2002-2008)
K36JH,459,16 (CP only),K16GE (2007-2008)
K35DG-D,209,35 (1997-2015),K35DG (1990-2015)
K33LN-D,252,14,K14KH (1999-2012)
K31IA,112,53,K53DW (1991-2007)
K27LF-D,177,14 (2001-2015),K14LM (2001-2015)
K26KJ-D,541,"26 (UHF, 2011-2015)",K26KJ (2011-2015)
K22JA-D,56,"47 (UHF, 1990–2015)",K47DF (1989–2015)
K20KF-D,270,"16 (analog, 1998-2012)",K16EL (1998-2012)
K18JL-D,264,25 (1990-2014),K25DM (1990-2014)
K17JI-D,872,Analog: 12 (1995-2013),K12OZ (1995-2013)
K16HY-D,246,19,K19ER
K08MM-D,373,8 (2001-2015),K08MM (1998)
East Tennessee PBS,551,Analog:,WETP:
CKY-DT,280,"7 (VHF, 1960–2011)",CJAY-TV (1960–1973)
CKXT-DT,458,"52 (Analog, 2003-2011)",CKXT-TV (2003-2011)
CKWS-DT,312,Analog: 11 (1954–2013),CKWS-TV (1954–2013)
CKVR-DT,332,"Analog: 3 (VHF, 1955–2011)",CKVR-TV (1955–2011)
CKTV-DT,581,12 (1955–2011),CKRS-TV (1955–1999)
CKTM-DT,314,"13 (VHF, 1958–2011)",CKTM-TV (1958–2011)
CKSA-DT,220,"2 (Analog,VHF, 1960-2011)","CHSA-TV (1960-1963), CKSA-TV (1963-2011)"
CKRN-DT,219,"4 (VHF, 1957-2011)",CKRN-TV (1957-2011)
CKPR-DT,366,"2 (Analog, 1954-2011)",CFCJ-TV (1957-1962)
CKND-DT,131,"9 (VHF, 1975-2011)",CKND-TV (1975-2011)
CKMI-DT,298,"46 (1997–2011, Montreal)",CKMI-TV (1957–2009)
CKLT-DT,445,"9 (Analog, 1969-2011)",CKLT-TV (1969-2011)
CKES-DT,294,"45 (UHF, 2007–2011)",CKES-TV (2007–2011)
CKEM-DT,294,"51 (UHF, 1997–2011)",CKEM-TV (1997–2011)
CKCW-DT,304,"2 (Analog, 1954-2011)",CKCW-TV (1954-2011)
CKCS-DT,207,"32 (UHF, 2007-2011)",CKCS-TV (2007-2011)
CKCO-DT,291,"13 (VHF, 1954–2011)",CKCO-TV (1954–2011)
CKCK-DT,187,"2 (VHF, 1954–2011)",CKCK-TV (1954–2011)
CKAL-DT,378,"5 (VHF, 1997–2011)",CKAL-TV (1997–2011)
CJPC-DT,128,Analog: 18 (2002-2015),CJPC-TV (2002-2015)
CJON-DT,254,"6 (VHF, 1955–2011)",CJON-TV (1955–2011)
CJOH-DT,373,"13 (VHF, 1961–2011)",CJOH-TV (1961–2011)
CJNT-DT,219,"62 (UHF, 1997–2011)",CJNT-TV (1997–2011)
CJMT-DT,501,"44 (UHF, 2002–2004)",CJMT-TV (2002–2011)
CJIL-DT,133,"17 (Analog, 1996-2011)",CJIL-TV (1996-2011)
CJEO-DT,294,"56 (UHF, 2008–2011)",CJEO-TV (2008–2011)
CJCO-DT,371,"38 (UHF, 2008–2011)",CJCO-TV (2008–2011)
CJCH-DT,211,5 (1961-2011),CJCH-TV (1961-2011)
CJBR-DT,283,2 (1984–2011),CJBR-TV (1954–2011)
CIVT-DT,740,"32 (UHF, 1997–2011)",CIVT-TV (1997–2011)
CITY-DT,501,"53 (UHF, 2003–2011)",CITY-TV (1972–2011)
CITV-DT,228,"13 (VHF, 1974–2011)",CITV-TV (1975-2011)
CITS-DT,335,"35 (UHF, 2008–2011)",CITS-TV (1998–2011)
CITL-DT,220,"4 (Analog,VHF, 1976-2011)",CITL-TV (1976-2011)
CISA-DT,201,"7 (VHF, 1955–2011)",CFAC-TV-7 (1977–1990)
CIMT-DT,362,"9 (Analog, 1978-2011)",CIMT-TV (1978-2011)
CIIT-DT,240,"35 (UHF, 2006–2011)",CIIT-TV (2006–2011)
CIII-DT,503,"22 (UHF, 1974–1988)",CIII-TV (1984–2011)
CIHF-DT,241,Analog: 8 (1988-2011),CIHF-TV (1988-2011)
CICT-DT,378,"2 (VHF, 1954–2011)",CFAC-TV (1968–1990)
CHOT-DT,358,"40 (Analog, 1978-2011)",CHOT-TV (1978-2011)
CHNU-DT,335,"66 (UHF, 2001–2011)",CHNU-TV (2001–2011)
CHNM-DT,670,"42 (UHF, 2003–2011)",CHNM-TV (2003–2011)
CHNB-DT,354,Analog: 12 (1988-2011),CIHF-DT-2 (2011-2013)
CHMI-DT,324,"13 (VHF, 1986-2011)",CHMI-TV (1986-2011)
CHLT-DT,588,"7 (VHF, 1956-2011)",CHLT-TV (1956–2011)
CHFD-DT,366,"4 (Analog,VHF, 1972-2011)",CHFD-TV (1972-2011)
CHEX-DT,316,"Analog: 12 (VHF, 1955–2013)",CHEX-TV (1955–2013)
CHEM-DT,291,"8 (VHF, 1976-2011)",CHEM-TV (1976–2011)
CHEK-DT,480,"6 (VHF, 1956–2011)",CHEK-TV (1956–2011)
CHCH-DT,355,"11 (VHF, 1954–2011)",CHCH-TV (1954–2011)
CHBC-DT,509,"2 (VHF, 1957–2012)",CHBC-TV (1957–2012)
CHAU-DT,482,"5 (Analog, 1959-2011)",CHAU-TV (1959-2011)
CHAN-DT,656,"8 (VHF, 1960–2011)",CHAN-TV (1960–2011)
CFVS-DT,182,25 (1987-2011),CFVS-TV (1987-2011)
