col0,col1,col2,col3,col4
Š. Rosina,Reiter Engineering,Czechoslovakia,1987-07-15,1987-07-15
Ó. Tunjo,Jenzer Motorsport,Colombia,1996-01-05,1996-01-05
É. Cayrolle,SUNRED Engineering,"Pau, Pyrénées-Atlantiques",1962-08-27,1962-08-27
Á. Smith,Team BKR,Dublin,1989-11-09,1989-11-09
Á. Barba,AF Corse,Seville,1984-02-17,1984-02-17
Á. Palou,Campos Racing,Spain,1997-04-01,1997-04-01
Z. Szabó,Zengő Motorsport,Hungary,1995-11-16,1995-11-16
Z. Amberg,AV Formula,Stans,1992-09-25,1992-09-25
Z. Ali,Performance Racing,Jakarta,1987-08-25,1987-08-25
Z. Veach,Belardi Auto Racing,"Stockdale, Ohio",1994-12-09,1994-12-09
Y. Muller,Citroën Total WTCC,Altkirch,1969-08-16,1969-08-16
Y. Taniguchi,NIKA Racing,Hiroshima,1968-09-27,1968-09-27
Y. Nakayama,Mugen Motorsports,"Kanazawa, Ishikawa",1987-07-29,1987-07-29
Y. Sekiguchi,Racing Project Bandoh,Japan,1987-12-29,1987-12-29
Y. E. Marnissi,Maurer Motorsport,Al Hoceima,1976-02-02,1976-02-02
Y. Kuroda,Euronova Racing,"Yamagata, Yamagata",1987-01-10,1987-01-10
Y. Koguchi,Dunlop Tyres,Japan,1969-02-02,1969-02-02
Y. Buurman,A.C. Milan,Ubbergen,1987-02-19,1987-02-19
Y. Clairay,Luc Alphand,"Laval, Mayenne",1983-12-02,1983-12-02
X. Maassen,Prospeed Competition,Heerlen,1980-06-22,1980-06-22
W. O'Brien,Teamwork Motorsport,New Jersey,1951-02-23,1951-02-23
W. Buller,RP Motorsport,Scarva,1992-09-17,1992-09-17
W. Power,Team Penske,Toowoomba,1981-03-01,1981-03-01
W. Bratt,Rob Austin,Oxford,1988-04-13,1988-04-13
W. Tan,Team Pelfrey,Kuala Lumpur,1994-12-03,1994-12-03
W. Scott,Team BMR,Bishop's Stortford,1971-09-28,1971-09-28
W. Grubmüller,P1 Motorsport,Vienna,1989-01-13,1989-01-13
V. Meira,A.J. Foyt Enterprises,Brasília,1977-03-27,1977-03-27
V. Jiménez,Redline Racing,Madrid,1984-02-04,1984-02-04
V. García,Team Moore Racing,Madrid,1990-03-10,1990-03-10
V. Sheshenin,Engstler Motorsport,Russia,1989-03-10,1989-03-10
V. Chagin,Kamaz,Russian SFSR,1970-01-05,1970-01-05
V. Atoev,AF Corse,Russia,1999-01-22,1999-01-22
V. Arabadzhiev,Coloni Motorsport,Plovdiv,1984-03-16,1984-03-16
V. Baptista,RP Motorsport,São Paulo,1998-03-20,1998-03-20
V. Petrov,Mücke Motorsport,Vyborg,1984-09-08,1984-09-08
V. D. Bella,Citroën,Milan,1977-03-23,1977-03-23
V. Shapovalov,Russian Bears Motorsport,Sterlitamak,1965-03-04,1965-03-04
V. Corrêa,Team West-Tec,Brazil,1990-03-14,1990-03-14
V. Meira,A.J. Foyt Enterprises,Brasília,1977-03-27,1977-03-27
V. Jiménez,Redline Racing,Madrid,1984-02-04,1984-02-04
V. García,Team Moore Racing,Madrid,1990-03-10,1990-03-10
U. Sonderegger,Wiechers-Sport,Glarus,1964-04-28,1964-04-28
T. Rocha,Clube de Regatas do Flamengo,São Paulo,1982-12-13,1982-12-13
T. Matsuda,Nismo,Mie Prefecture,1979-06-18,1979-06-18
T. Vautier,Schmidt Peterson Motorsports,Saint-Martin-d'Hères,1989-08-22,1989-08-22
T. Pastrana,Subaru Rally Team USA,"Annapolis, Maryland",1983-10-08,1983-10-08
T. Bell,Andretti Autosport,San Francisco,1975-04-19,1975-04-19
T. Graves,Alan Docking Racing,Thailand,1972-03-26,1972-03-26
T. Heikkinen,EKS RX,Denver,1991-03-23,1991-03-23
T. Gilham,Tony Gilham Racing,England,1979-05-19,1979-05-19
T. Kostka,Audi Sport,Zlín,1984-08-27,1984-08-27
T. Nojiri,Autobacs Racing Team Aguri,Ibaraki Prefecture,1989-09-15,1989-09-15
T. Rustad,Albatec Racing,Oslo,1968-09-03,1968-09-03
T. Onslow-Cole,Motorbase Performance,Kingston upon Thames,1987-05-16,1987-05-16
T. Kristensen,Joest Racing,Hobro,1967-07-07,1967-07-07
T. Kimber-Smith,Greaves Motorsport,England,1984-11-01,1984-11-01
T. Ingram,Speedworks Motorsport,High Wycombe,1993-08-20,1993-08-20
T. Gladdis,MotorSport Vision,Isle of Wight,1991-02-24,1991-02-24
T. Dillmann,AV Formula,Mulhouse,1989-04-06,1989-04-06
T. Coronel,ROAL Motorsport,Naarden,1972-04-05,1972-04-05
T. Chilton,Sébastien Loeb Racing,Reigate,1985-03-15,1985-03-15
T. Blomqvist,BMW Team RBM,Cambridge,1993-11-30,1993-11-30
T. Kostka,Audi Sport,Zlín,1984-08-27,1984-08-27
T. Davis,Team HARD,Herefordshire,1991-06-26,1991-06-26
T. Hegewald,Motorsport Vision,Neuwied,1989-08-03,1989-08-03
T. Ellinas,Strakka Racing,Larnaca,1992-01-27,1992-01-27
T. Sritrai,Asia Racing Team,Thailand,1989-08-22,1989-08-22
T. Timerzyanov,World RX Team Austria,Russian Soviet Federative Socialist Republic,1987-01-31,1987-01-31
T. Scheider,Phoenix Racing,West Germany,1978-11-10,1978-11-10
T. Glock,Team RMG,West Germany,1982-03-18,1982-03-18
T. Hansen,Hansen Motorsport,Sweden,1992-05-21,1992-05-21
T. Sandtler,Prema Powerteam,Bochum,1987-02-20,1987-02-20
T. Coronel,SUNRED Engineering,Naarden,1972-04-05,1972-04-05
T. Blanchard,Britek Motorsport,Melbourne,1987-06-30,1987-06-30
T. Monteiro,JAS Motorsport,Porto,1976-07-24,1976-07-24
T. Geronimi,Signature-Plus,"Lorena, São Paulo",1988-11-27,1988-11-27
T. Randle,Comtec Racing,Melbourne,1996-04-07,1996-04-07
T. Mutsch,Matech Competition,Trier,1979-05-02,1979-05-02
T. Holzer,Kodewa,Augsburg,1985-12-27,1985-12-27
T. Storz,MotorSport Vision,Tettnang,1991-10-12,1991-10-12
T. Björk,Polestar Racing,Vretstorp,1980-12-14,1980-12-14
T. Sakuma,Toyo Tire & Rubber Company,Japan,1974-07-04,1974-07-04
T. Calderón,Carlin Motorsport,Bogotá,1993-03-10,1993-03-10
T. Izawa,ART Grand Prix,Tokyo,1984-06-01,1984-06-01
T. Iguchi,R&D Sport,Fukuoka,1988-02-13,1988-02-13
T. Sato,A. J. Foyt Enterprises,Tokyo,1977-01-28,1977-01-28
T. Kogure,Nakajima Racing,Japan,1980-08-01,1980-08-01
T. Kobayashi,Autobacs Racing Team Aguri,Hiroshima,1987-11-08,1987-11-08
S. S. Câmara,Motopark Academy,Brazil,1998-05-23,1998-05-23
S. Loeb,Team Peugeot-Hansen,France,1974-02-26,1974-02-26
S. Buemi,Toyota Motorsport GmbH,A1 Team Switzerland,1988-10-31,1988-10-31
S. Wong,WestCoast Racing,Hong Kong,1978-07-29,1978-07-29
S. Sarrazin,Toyota Motorsport GmbH,Gard,1974-11-2,1974-11-2
S. Richelmi,DAMS,Monte Carlo,1990-03-17,1990-03-17
S. Peterhansel,Peugeot,France,1965-08-06,1965-08-06
S. Hall,Aston Martin Racing,Chelmsford,1984-10-18,1984-10-18
S. Vandoorne,Dandelion Racing,Belgium,1992-03-26,1992-03-26
S. Longin,PK Carsport,Flemish Brabant,1991-07-30,1991-07-30
S. Zacchia,Hope Racing,Yverdon-les-Bains,1982-08-15,1982-08-15
S. Owen,Rod Nash Racing,Melbourne,1974-12-18,1974-12-18
S. Jelley,Team Parker Racing,Leicester,1982-05-12,1982-05-12
S. Gattuso,Loris Kessel,Sarnico,1984-05-03,1984-05-03
S. Gabellini,ROAL Motorsport,Pesaro,1965-04-18,1965-04-18
S. D'Aste,Münnich Motorsport,Genoa,1974-02-26,1974-02-26
S. Comini,W Racing Team,Lugano,1990-02-03,1990-02-03
S. Coletti,SMP Racing,Monaco,1989-04-06,1989-04-06
S. Bizzarri,RP Motorsport,Seattle,1990-03-30,1990-03-30
S. Wilson,Fan Force United,Sheffield,1989-09-20,1989-09-20
S. Wackerbauer,Abt Sportsline,Germany,1995-11-02,1995-11-02
S. Hodgetts,Scuderia Vittoria,Bromsgrove,1982-06-17,1982-06-17
S. Dusseldorp,Van Amersfoort Racing,Winterswijk,1989-09-27,1989-09-27
S. Sarrazin,Toyota Motorsport GmbH,Alès,1974-11-2,1974-11-2
S. Richelmi,DAMS,Monte Carlo,1990-03-17,1990-03-17
S. Peterhansel,Peugeot,France,1965-08-06,1965-08-06
S. Flörsch,Motopark Academy,Munich,2000-12-01,2000-12-01
S. Cunill,Konrad Motorsport,"Mountain View, California",1990-10-20,1990-10-20
S. d. Silvestro,Andretti Autosport,Thun,1988-09-01,1988-09-01
S. Trummer,Hilmer Motorsport,Switzerland,1989-06-08,1989-06-08
S. Pagenaud,Team Penske,Poitiers,1984-05-18,1984-05-18
S. Belcher,Speedworks Motorsport,Wiltshire,1973-12-18,1973-12-18
S. Creed,Traxxas,"Alpine, California",1997-09-30,1997-09-30
S. Thong,Audi Sport,Hong Kong,1995-11-01,1995-11-01
S. Peña,Rev Racing,Virginia,1993-02-13,1993-02-13
S. Canamasas,Carlin Motorsport,Barcelona,1986-4-30,1986-4-30
S. Campana,Team Lazarus,Reggio Emilia,1986-06-05,1986-06-05
S. Sirotkin,ART Grand Prix,Moscow,1995-08-27,1995-08-27
S. Afanasyev,Charouz Racing System,Moscow,1988-03-25,1988-03-25
S. Ara,Swiss Racing Team,"Chiba, Chiba",1974-05-05,1974-05-05
S. Saavedra,AFS Racing,Bogotá,1990-06-02,1990-06-02
S. Eriksson,Olsbergs MSE,Hagfors,1993-01-05,1993-01-05
S. Saavedra,AFS Racing,Bogotá,1990-06-02,1990-06-02
S. Morris,Status Grand Prix,Wrexham,1995-11-30,1995-11-30
S. Rayhall,8 Star Motorsports,"Winston, Georgia",1995-03-10,1995-03-10
S. Gelael,Campos Racing,Dutch East Indies,1996-11-01,1996-11-01
S. Tucker,Level 5 Motorsports,"Kansas City, Missouri",1955-12-25,1955-12-25
S. Speed,Andretti Autosport,"Manteca, California",1983-01-24,1983-01-24
S. Sharp,Extreme Speed Motorsports,Connecticut,1968-02-14,1968-02-14
S. Pye,DJR Team Penske,Adelaide,1990-01-08,1990-01-08
S. Martin,Club100,East Sussex,1993-11-27,1993-11-27
S. Dixon,Chip Ganassi Racing,Brisbane,1980-07-22,1980-07-22
S. Hermanto,Litespeed F3,Jakarta,1984-06-29,1984-06-29
S. Ferrucci,DAMS,"Woodbury, Connecticut",1998-05-31,1998-05-31
S. Urrutia,Schmidt Peterson Motorsports,Uruguay,1996-08-30,1996-08-30
S. Stuvik,Trident Racing,Phuket Province,1995-04-11,1995-04-11
S. Zeller,Jo Zeller,Uster,1991-11-16,1991-11-16
S. Chan,Formula Racing Development Limited,Canada,1956-12-05,1956-12-05
S. Gómez,Campos Racing,Venezuela,1992-02-04,1992-02-04
S. Tordoff,West Surrey Racing,Bradford,1989-04-19,1989-04-19
S. Sunderland,Red Bull,Poole,1989-04-15,1989-04-15
S. Lok,Asia Racing Team,Hong Kong,1967-01-03,1967-01-03
S. Dejonghe,Virtuosi Racing,"Essen, Belgium",1991-09-02,1991-09-02
S. Bird,AF Corse,Roehampton,1987-01-09,1987-01-09
S. Durán,Team Aguri,Mexico City,1985-05-06,1985-05-06
S. A. Khalifa,Bas Koeten Racing,Bahrain,1976-03-24,1976-03-24
S. Karam,Dreyer & Reinbold Racing,"Nazareth, Pennsylvania",1995-03-05,1995-03-05
