col0,col1,col2,col3
Erkenntnis,1650106,1930,915460912
English Journal,138274,1912,1325886
Eighteenth-Century Studies,132586,1966,33890369
Economics & Sociology,23063459,2008,852079699
Economica,130427,1921,47075577
Economic Policy,2664658,1985,463705996
Economic Geography,130095,1925,48533093
Economic Development and Cultural Change,130079,1952,1567393
Econometrica,129682,1933,1567366
Ecology,129658,1920,35698209
Ecography,9067590,1978,50102682
Eastern Economic Journal,945056,1974,42629270
Early Music History,2611279,1981,49342621
Early Music,3061078,1973,38949504
ELH,138304,1934,1567158
ECS Journal of Solid State Science and Technology,EJSSBG,2012,746499272
Dumbarton Oaks Papers,707546,1941,58423962
Duke Law Journal,127086,1951,1567016
Dublin Historical Record,126861,1938,400997691
Diversity and Distributions,13669516,1993,39848596
Dialectical Anthropology,3044092,1975,41559225
Diacritics,3007162,1971,31870435
Design Issues,7479360,1984,44910652
Demography,703370,1964,1566147
Daedalus,daedalus,1955,1565785
Current History,113530,1914,875826836
Crustaceana,0011216x,1960,1565523
Critical Inquiry,931896,1974,2241746
Copeia,458511,1913,1565060
Contemporary Sociology,943061,1972,958948
Contemporary Literature,107484,1960,2244753
Congress on Research in Dance,1497677,1968,60620743
Computer Music Journal,1489267,1977,41963634
Comparative Studies in Society and History,104175,1958,48536082
Comparative Literature Studies,104132,1963,42631267
Columbia Law Review,101958,1901,1564231
Collectanea Hibernica,5307058,1958,248557020
Clogher Record,4128079,1953,468008548
Cinema Journal,97101,1967,2244743
"Children, Youth and Environments",15462250,1984,52938983
Central European History,89389,1968,47795498
Canadian Journal of Economics,84085,1967,50061154
Canadian Journal of African Studies,83968,1967,51205190
Cambridge Journal of Economics,0309166X,1977,3020038
California Management Review,81256,1958,5755713
Cahiers d'Études africaines,80055,1960,174145640
Business and Professional Ethics Journal,2772027,1981,7520096
Business Ethics Quarterly,1052150X,1991,38554432
Bulletin of the Council for Research in Music Education,109894,1963,1565242
Buddhist–Christian Studies,8820945,1981,42786144
British Museum Quarterly,0007151X,1926,300432851
British Journal of Political Science,71234,1971,863011750
Boundary 2,1903659,1972,1408678
Black Music Research Journal,2763605,1980,42810536
Biotropica,63606,1966,708279941
Biometrika,63444,1901,41669958
Biometrics,0006341X,1945,5898885
Behavioral Ecology and Sociobiology,3405443,1976,39604965
Bach,53600,1970,2092949
Avian Diseases,52086,1957,605197857
Australian Quarterly,50091,1929,1518860
Asian Survey,44687,1961,610384862
Asian Ethnology,18826865,1942,298239510
Artificial Life,10645462,1993,41177834
Artibus Asiae,43648,1925,61966661
Aristotelian Society,667374,1888,224535586
Arctic Anthropology,666939,1962,8690771
"Arctic, Antarctic, and Alpine Research",15230430,1969,40558886
Archivium Hibernicum,448745,1912,448043079
Archive for History of Exact Sciences,39519,1960,243416476
Annual Review of Sociology,3600572,1975,2244366
Annual Review of Anthropology,846570,1959,1783647
