col0,col1,col2,col3,col4
S. W. III,Cleveland Browns,Cleveland Browns,1994-08-28,250
S. Dotson,Green Bay Packers,Tampa Bay Buccaneers,1969-12-12,132
S. Durko,Cincinnati Bengals,Cincinnati Bengals,1948-08-29,137
S. Williams,Baltimore Ravens,Kansas City Chiefs,1974-12-14,164
S. Rogers,Atlanta Falcons,Buffalo Bills,1970-05-30,64
R. Shazier,Pittsburgh Steelers,Pittsburgh Steelers,1992-9-6,15
R. Griffin,Houston Texans,Houston Texans,1990-01-11,201
R. Broyles,Free agent,Detroit Lions,1988-04-09,54
R. Bodine,Cincinnati Bengals,Cincinnati Bengals,1992-06-30,111
R. Mayes,New Orleans Saints,New Orleans Saints,1963-06-06,57
R. Rodriguez,Denver Broncos,Seattle Seahawks,1965-03-03,131
R. Brown,Buffalo Bills,Buffalo Bills,1972-02-13,14
R. Lott,Kansas City Chiefs,San Francisco 49ers,1959-05-08,8
R. Harmon,Buffalo Bills,Buffalo Bills,1964-05-07,16
R. Darby,Buffalo Bills,Buffalo Bills,1994-01-02,50
R. Blair,San Francisco 49ers,San Francisco 49ers,1993-01-23,142
R. Stone,Dallas Cowboys,Dallas Cowboys,1971-07-20,96
R. Brooks,Philadelphia Eagles,Buffalo Bills,1988-10-16,124
R. Oben,Cleveland Browns,New York Giants,1972-10-09,66
R. Stillwell,Chicago Bears,Chicago Bears,1951-11-17,212
R. Craig,Minnesota Vikings,San Francisco 49ers,1960-07-10,49
R. Preston,Atlanta Falcons,Atlanta Falcons,1972-06-23,145
R. Hampton,New York Giants,New York Giants,1969-04-03,24
R. Gardner,Carolina Panthers,Washington Redskins,1977-10-26,15
R. Reynolds,Tennessee Titans,Tennessee Titans,1981-05-20,165
R. Porcher,Detroit Lions,Detroit Lions,1969-07-30,26
R. Brooks,Denver Broncos,Green Bay Packers,1970-06-23,62
R. Brazile,Houston Oilers,Houston Oilers,1953-02-07,6
R. Alford,Atlanta Falcons,Atlanta Falcons,1988-11-01,60
R. Burnett,Baltimore Ravens,Cleveland Browns,1967-08-27,129
R. Reiff,Detroit Lions,Detroit Lions,1988-12-01,23
R. Watters,Philadelphia Eagles,San Francisco 49ers,1969-04-07,45
R. Bell,San Diego Chargers,Tampa Bay Buccaneers,1955-04-08,1
R. Jackson,New Orleans Saints,New Orleans Saints,1958-03-20,51
R. Baldinger,Kansas City Chiefs,New York Giants,1959-12-31,270
R. Colclough,Free agent,Pittsburgh Steelers,1982-4-18,38
R. Langhorne,Cleveland Browns,Cleveland Browns,1963-04-07,175
R. Rissmiller,Buffalo Bills,Philadelphia Eagles,1942-07-22,20
R. Nitschke,Green Bay Packers,Green Bay Packers,1936-12-29,36
R. McDonald,Washington Redskins,Washington Redskins,1944-05-07,13
R. Buchanan,Atlanta Falcons,Indianapolis Colts,1971-09-29,65
P. Gaines,Kansas City Chiefs,Kansas City Chiefs,1991-04-04,87
P. Wheeler,Atlanta Falcons,Indianapolis Colts,1984-12-12,93
P. Boulware,Baltimore Ravens,Baltimore Ravens,1974-12-18,4
P. Kendall,Arizona Cardinals,Seattle Seahawks,1973-07-09,21
P. Seiler,New York Jets,New York Jets,1945-11-01,12
P. Page,Baltimore Colts,Baltimore Colts,1927-09-16,4
P. McGowan,Cleveland Browns,Birmingham Fire,1966-01-13,237
P. Swilling,Detroit Lions,New Orleans Saints,1964-10-25,60
P. Sims,Cincinnati Bengals,Cincinnati Bengals,1985-1-29,77
P. McHugh,Philadelphia Eagles,Philadelphia Eagles,1919-12-21,108
P. Dickinson,Tampa Bay Buccaneers,Tampa Bay Buccaneers,1953-03-14,183
O. Thomas,Minnesota Vikings,Minnesota Vikings,1972-10-21,42
O. Scandrick,Dallas Cowboys,Dallas Cowboys,1987-02-10,143
O. Aboushi,Houston Texans,New York Jets,1991-06-05,141
N. Snead,Minnesota Vikings,Washington Redskins,1939-07-31,2
N. Bradham,Philadelphia Eagles,Buffalo Bills,1989-09-04,105
N. Smith,Denver Broncos,Kansas City Chiefs,1966-04-10,2
N. Lomax,Arizona Cardinals,Arizona Cardinals,1959-02-17,33
N. Suh,Miami Dolphins,Detroit Lions,1987-01-06,2
N. Means,Carolina Panthers,San Diego Chargers,1972-04-26,41
N. Enderle,Free agent,Portland Thunder,1988-01-12,160
N. Stupar,New Orleans Saints,Jacksonville Jaguars,1988-03-14,230
N. Berhe,New York Giants,New York Giants,1991-07-06,152
M. Thompson,New York Giants,New York Giants,1993-04-22,144
M. Kendricks,Philadelphia Eagles,Philadelphia Eagles,1990-09-28,46
M. Wilkerson,New York Jets,New York Jets,1989-10-22,30
M. Andersen,Atlanta Falcons,New Orleans Saints,1960-08-19,86
M. Trent,Free agent,Cincinnati Bengals,1985-12-14,179
M. Lewis,New York Jets,New York Jets,1969-10-21,63
M. Jones,Tennessee State Tigers football,Minnesota Vikings,1960-04-14,159
M. Golic,Miami Dolphins,Houston Oilers,1962-12-12,255
M. McCrary,Baltimore Ravens,Seattle Seahawks,1970-07-07,170
M. Haynes,Atlanta Falcons,Atlanta Falcons,1965-12-24,166
M. Floyd,Arizona Cardinals,Arizona Cardinals,1989-11-27,13
M. Brockers,Los Angeles Rams,St. Louis Rams,1990-12-21,14
M. Bennett,Jacksonville Jaguars,Jacksonville Jaguars,1993-02-24,180
M. Bates,Carolina Panthers,Seattle Seahawks,1969-12-19,150
M. Hanks,San Francisco 49ers,San Francisco 49ers,1968-03-12,122
M. Watson,Oakland Raiders,Oakland Raiders,1988-12-22,42
M. Stinchcomb,Oakland Raiders,Oakland Raiders,1977-06-03,18
M. Shaughnessy,New Orleans Saints,Oakland Raiders,1986-09-23,71
M. Bosher,Atlanta Falcons,Atlanta Falcons,1987-10-18,192
M. Marinovich,Oakland Raiders,Oakland Raiders,1939-08-06,156
M. Lee,Jacksonville Jaguars,Jacksonville Jaguars,1991-11-25,39
M. Kerner,Buffalo Bills,Buffalo Bills,1973-03-18,76
M. Paul,New York Giants,Chicago Bears,1966-04-01,95
M. McMillian,Kansas City Chiefs,Philadelphia Eagles,1970-04-29,272
M. Herrmann,Denver Broncos,Denver Broncos,1959-1-8,15
M. Fields,Carolina Panthers,New Orleans Saints,1972-11-09,13
M. Duper,Miami Dolphins,Miami Dolphins,1959-01-25,52
M. Chmura,Green Bay Packers,Green Bay Packers,1969-02-22,157
M. Bavaro,Cleveland Browns,New York Giants,1963-04-28,100
M. Barron,Los Angeles Rams,Tampa Bay Buccaneers,1989-10-27,7
M. Butts,New England Patriots,San Diego Chargers,1966-08-01,183
M. Hunt,Cincinnati Bengals,Cincinnati Bengals,1987-07-14,53
M. S. II,Philadelphia Eagles,Philadelphia Eagles,1992-03-31,26
M. Martin,San Francisco 49ers,San Francisco 49ers,1993-11-29,70
M. Dupree,Los Angeles Rams,New Orleans Breakers,1964-05-22,327
M. Collins,Dallas Cowboys,Dallas Cowboys,1995-04-08,67
M. Lane,Green Bay Packers,St. Louis Cardinals,1942-3-16,13
L. Dickey,Green Bay Packers,Houston Oilers,1949-10-19,56
L. Alzado,Cleveland Browns,Denver Broncos,1949-4-3,79
L. Joeckel,Jacksonville Jaguars,Jacksonville Jaguars,1991-11-06,2
L. Lipps,New Orleans Saints,Pittsburgh Steelers,1962-8-9,23
L. Slaby,Detroit Lions,New York Giants,1941-12-13,69
L. Toilolo,Atlanta Falcons,Atlanta Falcons,1991-07-30,133
L. Richter,Los Angeles Rams,Los Angeles Rams,1930-10-26,2
L. Kelly,Cleveland Browns,Cleveland Browns,1942-05-20,110
L. Russell,Denver Broncos,New England Patriots,1969-11-17,14
L. Hart,Atlanta Falcons,Atlanta Falcons,1949-03-03,59
L. Parrish,Buffalo Bills,Cincinnati Bengals,1947-12-13,163
L. Suggs,Cleveland Browns,Cleveland Browns,1980-08-11,115
L. Smith,Oakland Raiders,Buffalo Bills,1987-11-21,159
L. Johnson,Cincinnati Bengals,Houston Oilers,1961-11-27,138
L. Bentley,Cleveland Browns,New Orleans Saints,1979-11-07,44
L. Pete,Detroit Lions,Detroit Lions,1966-01-18,115
L. Warford,Detroit Lions,Detroit Lions,1991-06-18,65
L. Hart,Jacksonville Jaguars,Jacksonville Jaguars,1987-07-16,143
L. Friday,Buffalo Bills,Denver Dynamite,1958-01-23,(By theCleveland Browns)
L. Csonka,Miami Dolphins,Miami Dolphins,1946-12-25,8
L. Brown,Dallas Cowboys,Dallas Cowboys,1969-11-30,320
L. Allen,Dallas Cowboys,Dallas Cowboys,1971-11-27,46
L. Johnson,Philadelphia Eagles,Philadelphia Eagles,1990-5-8,4
L. Dawson,Kansas City Chiefs,Kansas City Chiefs,1972-01-02,92
K. Williams,Buffalo Bills,Buffalo Bills,1983-06-10,134
K. Rudolph,Minnesota Vikings,Minnesota Vikings,1989-11-09,43
K. Murphy,Green Bay Packers,Green Bay Packers,1993-12-11,200
K. Petersen,Dallas Cowboys,Dallas Cowboys,1957-06-17,105
K. Kocurek,Detroit Lions,Tennessee Titans,1978-11-15,237
K. Farris,Buffalo Bills,Buffalo Bills,1977-03-27,74
K. Urbik,Miami Dolphins,Buffalo Bills,1985-09-23,79
K. Stringer,Minnesota Vikings,Minnesota Vikings,1974-05-08,24
K. Herring,Baltimore Ravens,Baltimore Ravens,1975-09-10,58
K. Alonso,Miami Dolphins,Buffalo Bills,1990-08-14,46
K. Zeitler,Cincinnati Bengals,Cincinnati Bengals,1990-03-08,27
K. Thomas,Free agent,Indianapolis Colts,1986-09-20,94
K. Pamphile,Tampa Bay Buccaneers,Tampa Bay Buccaneers,1990-11-27,149
K. Minter,Arizona Cardinals,Arizona Cardinals,1990-12-03,45
K. Johnson,Baltimore Ravens,Cleveland Browns,1976-07-15,32
K. Johnson,Houston Texans,Houston Texans,1992-08-05,16
K. Gogan,Dallas Cowboys,Dallas Cowboys,1964-11-02,206
K. Butler,Arizona Cardinals,Chicago Bears,1962-07-24,105
K. Cooks,Atlanta Falcons,Green Bay Packers,1974-03-28,144
K. Vaccaro,New Orleans Saints,New Orleans Saints,1991-02-15,15
K. Barner,Philadelphia Eagles,Carolina Panthers,1989-4-28,182
K. O'Brien,New York Jets,New York Jets,1960-11-27,24
K. Dilger,Indianapolis Colts,Indianapolis Colts,1971-02-02,48
K. Ishmael,Atlanta Falcons,Atlanta Falcons,1991-05-06,243
K. Sheppard,New York Giants,Buffalo Bills,1988-01-02,68
K. Winslow,San Diego Chargers,San Diego Chargers,1957-11-05,13
K. Simpson,Seattle Seahawks,Seattle Seahawks,1956-03-09,9
K. Jackson,Green Bay Packers,Philadelphia Eagles,1965-04-19,13
K. Cash,Kansas City Chiefs,Pittsburgh Steelers,1969-08-07,188
J. Pugh,New York Giants,New York Giants,1990-08-15,19
J. Ellis,Oakland Raiders,Oakland Raiders,1990-12-27,107
J. Blackmon,Jacksonville Jaguars,Jacksonville Jaguars,1990-01-09,5
J. Bannan,Free agent,Buffalo Bills,1979-04-18,139
J. Fagan,New Orleans Saints,New Orleans Saints,1948-02-21,430
J. Roque,Detroit Lions,Detroit Lions,1974-02-06,35
J. Perry,San Diego Chargers,San Diego Chargers,1994-0-0,102
J. Robinson,Tampa Bay Buccaneers,Minnesota Vikings,1991-01-08,66
