col0,col1,col2,col3
Cree Inc.,"Durham, North Carolina",6387,1650000000
Creative Technology Limited,Jurong East,800,116000000
Crawford Composites,"Denver, North Carolina",40,7000000
Craigslist,San Francisco,30,900000
Cracker Barrel,"Lebanon, Tennessee",70000,2580000000
Crédit Mutuel,Strasbourg,99012,1465
Crédit Agricole Srbija,Novi Sad,968,71260000
Crédit Agricole,Montrouge,150000,31178000000
CozyCot,Shaw House and Centre,38,1160000
Cox Enterprises,"Atlanta, Georgia",60000,18000000000
Country Garden,Guangdong,70000,20800000000
Country Energy,New South Wales,4000,2300000000
Cott,"Mississauga, Ontario",3960,2250000000
Costamare,Athens,3,484000000
Cortefiel,Madrid,10592,1010000000
Corsair Components,"Fremont, California",800,455200000
Corficolombiana,Bogotá,274,330000000
Coretronic,Hsinchu Science and Industrial Park,17427,2076500000
Corel,Ontario,500,268200000
Core Magazine,Tokyo,134,5900000000
Core-Mark,"South San Francisco, CA",5933,10280
Coppenrath & Wiese,Osnabrück,2200,370000000
Copel,Curitiba,8560,4100000000
Copart,Texas,4179,1163489
Coop Norge,Oslo,2564,30041000000
Coop Norden,Stockholm,25000,89500000000
Coop Alleanza 3.0,Castenaso,22000,5000000000
Coop,Casalecchio di Reno,56682,12898000000
Cook Group,"Bloomington, Indiana",12000,2000000000
