col0,col1,col2,col3,col4
Democratic Party of Japan,Centrism,Y. Edano,1998,1998-04-27
Democratic Party,Liberalism,Y. Noda,2016,2016-03-27
Democracy Party,Reformism,M. Kavakebian,2001,2001-06-08
Croatian Party of Rights of Bosnia and Herzegovina,Antisemitism,P. Milić,2004,2004-05-05
Civic United Front,Liberalism,S. S. Hamad,1992,1992-05-28
Citizens,Liberalism,M. A. Ruiz,2005,2005-06-07
Christian Democratic Party,Christian democracy,Fernando Álvarez de Miranda,1977,1977-04-04
Chama Cha Mapinduzi,Ujamaa,A. Kinana,1977,1977-02-05
Centre of Social Democrats,Christian democracy,J. Barrot,1976,1976-05-23
Centre Democrats,Nationalism,W. Schuurman,1984,1984-11-07
Barisan Sosialis,Socialism,L. C. Siong,1961,1961-07-29
Barisan Nasional,Nationalism,Tengku Adnan Tengku Mansor,1973,1973-01-01
Bangladesh Nationalist Party,Economic liberalism,Mirza Fakhrul Islam Alamgir,1978,1978-09-01
Asturias Forum,Conservatism,F. Á. Cascos,2011,2011-01-19
Asturian Socialist Federation,Social democracy,J. F. Fernández,1901,1901-01-27
Association for Defence of Revolution Values,Social justice,M. Reyshahri,1996,1996-02-17
Assembly to Energize Japan,Limited government,K. Matsuda,2015,2015-01-01
American Popular Revolutionary Alliance,Social democracy,J. d. Castillo,1924,1924-05-07
African National Congress,Social democracy,G. Mantashe,1912,1912-01-08
