col0,col1,col2,col3
1979 ABN World Tennis Tournament,J. McEnroe,J. McEnroe,B. Borg
1978 German Open,M. Jaušovec,G. Vilas,G. Vilas
1977 German Open,K. Meiler,K. Meiler,L. duPont
1976 German Open,I. Kloss,S. Barker,S. Barker
1975 Grand Prix German Open,J. Gisbert,M. Orantes,M. Orantes
1975 American Airlines Tennis Games,R. Ramírez,R. Ramírez,J. Alexander
1974 German Open,J. Fassbender,J. Fassbender,H. Masthoff
1974 American Airlines Tennis Games,C. Pasarell,C. Pasarell,J. Newcombe
1972 Grand Prix German Open,I. Năstase,M. Orantes,M. Orantes
1971 Grand Prix German Open,A. Gimeno,A. Gimeno,A. Gimeno
1970 German Open Championships,B. Hewitt,B. Hewitt,T. Okker
1969 German Open Championships,T. Okker,T. Okker,T. Roche
1968 German Open Championships,F. McMillan,F. McMillan,J. Newcombe
