col0,col1,col2,col3,col4
Ministry of Foreign Affairs,Victoria Terrasse,Fredskorpset,1905,1905-06-07
Ministry of Foreign Affairs,Brasília,Alexandre de Gusmão,1736,1736-07-08
Ministry of Finance,Moscow,Gokhran,1780,1780-10-24
Ministry of Finance,Japan,National Tax Agency,2001,2001-06-01
"Ministry of Environment, Housing and Territorial Development",Bogotá,"Institute of Hydrology, Meteorology and Environmental Studies",2002,2002-12-27
Ministry of Economic Development and Trade,Kiev,State Service of Statistics of Ukraine,2010,2010-12-09
Ministry of Economic Development,Bogotá D.C.,Potable Water and Basic Sanitation Regulation Commission,1968,1968-12-03
Ministry of Defense,Tokyo,Japan Self Defense Forces,2007,2007-01-09
Ministry of Defence,Kiev,Chief Directorate of Intelligence of the Ministry of Defence of Ukraine,1991,1991-09-03
Ministry of Defence,Singapore,Defence Science and Technology Agency,1970,1970-08-11
"Ministry of Culture, Sports and Tourism",Korea,Cultural Heritage Administration of Korea,2008,2008-02-29
Ministry of Communications and Information,Old Hill Street Police Station,Infocomm Development Authority of Singapore,1990,1990-11-28
"Ministry of Commerce, Industry and Tourism",Colombia,Proexport,2002,2002-12-27
"Ministry of Agriculture, Food and Rural Affairs",Republic of Korea,Korea Forest Service,1948,1948-07-17
Jet Propulsion Laboratory,United States of America,JPL Science Division,1936,1936-10-31
HM Revenue and Customs,Government Offices Great George Street,Valuation Office Agency,2005,2005-04-18
HM Passport Office,London,General Register Office for England and Wales,2006,2006-04-01
Goddard Space Flight Center,Maryland,Goddard Institute for Space Studies,1959,1959-03-01
General Services Administration,"Washington, D.C.",Civilian Board of Contract Appeals,1949,1949-07-01
Foreign Ministry of the Independent State of Croatia,Independent State of Croatia,Berlin,1941,1941-06-24
Financial Services Commission,Seoul,Financial Supervisory Service,1998,2008-03-03
Farm Credit Administration,"McLean, Virginia",Federal Surplus Relief Corporation,1933,1933-03-27
European External Action Service,Brussels,European Union Military Staff,2010,2010-12-01
Economic Stabilization Agency,"Washington, D.C.",Wage Stabilization Board,1950,1950-09-09
Director of National Intelligence,"Tysons Corner, Virginia",National Counterterrorism Center,2005,2005-04-22
Department of Science and Technology,Philippines,Department of Science and Technology,1987,1987-01-30
Department of National Defense,Quezon City,Armed Forces of the Philippines,1939,1939-11-01
Department of Industry,Canberra,CSIRO,2013,2013-09-18
Department of Immigration and Border Protection,Australian Capital Territory,Australian Border Force,2013,2013-09-18
Department of Human Services,"Forrest, Australian Capital Territory",Australian Hearing,2004,2004-10-26
Department of Finance,Australian Capital Territory,Australian Electoral Commission,2013,2013-09-18
Department of Energy,Pretoria,South African Nuclear Energy Corporation,2009,2009-07-07
Department of Defence,Canberra,Defence Science and Technology Group,1942,1942-04-14
Department of Communications and the Arts,Canberra,Australian Broadcasting Corporation,2015,2015-09-21
"Department of Broadband, Communications and the Digital Economy",Canberra,Australian Broadcasting Corporation,2007,2007-12-03
"Department for Business, Innovation and Skills",London,Met Office,2009,2009-06-05
"Department for Business, Energy and Industrial Strategy",London,Met Office,2016,2016-07-14
Defense Acquisition Program Administration,Korea,Agency for Defense Development,2006,2006-01-01
Commission to preserve national monuments of Bosnia and Herzegovina,Bosnia and Herzegovina,Political divisions of Bosnia and Herzegovina,2001,2001-12-21
California Environmental Protection Agency,California,California Air Resources Board,1991,1991-07-17
Bundesfinanzdirektion,Cologne,Hauptzollamt,2008,2008-01-01
Arts NSW,City of Sydney,State Library of New South Wales,1971,1971-05-13
Agency for Cultural Affairs,Japan,Japan Art Academy,1968,1968-06-15
