col0,col1,col2,col3
Game On,Geoffrey Perkins,M. Cottle,1998-02-06
Gallowglass,BBC,M. Sheen,1993-01-24
Gagambino,GMA Entertainment TV Group,D. Trillo,2009-02-20
Gaaner Oparey,Prosenjit Chatterjee,G. Chakrabarty,2011-04-16
Future Weapons,John Macnish,R. Machowicz,2008-04-24
Fury,Irving Cummings,B. Diamond,1960-03-19
Funland,Sanne Wohlenberg,F. Barber,2005-11-07
Fun Khana,Momina Duraid,F. Jamal,2012-07-06
Friends with Benefits,Brian Grazer,R. Hansen,2011-09-09
Fresno,R. W. Goodwin,C. Burnett,1986-11-20
Free Agents,Iain Morris,A. Head,2009-03-20
Fred Flintstone and Friends,Joseph Barbera,F. Flintstone,1978-09-01
Frasier,Maggie Blanc,D. H. Pierce,2004-05-13
Frankenstein Jr. and The Impossibles,Joseph Barbera,D. Beals,1968-09-07
Frank's Place,Richard Dubin,T. Reid,1988-03-22
Fraggle Rock,Jerry Juhl,D. Goelz,1987-03-30
Fox,Verity Lambert,B. Hill,1980-06-02
Forever Green,Brian Eastman,Wendy van der Plank,1992-05-24
Forensic Heroes II,Mui Siu Ching,C. Sheh,2008-06-28
Foreign Affairs,Peter Eton,B. Fraser,1964-02-20
For the Love of Ada,Thames Television,I. Handl,1971-12-26
Footballers' Wives,Sean O'Connor,P. Bretherton,2006-04-14
Follow the Sun,Roy Huggins,B. Halsey,1962-04-08
Foley Square,Diane English,C. Silvers,1986-04-08
Fly with Me,Jonathan Chik,A. Choi,2010-05-22
Flo,Robert Illes,G. Lewis,1981-07-21
Flesh 'n' Blood,Daniel Palladino,P. Gilpin,1991-10-15
Fleming: The Man Who Would Be Bond,Douglas Rae,D. Cooper,2014-02-19
Flatbush,Norman Powell,A. Zmed,1979-03-12
Flamingo Road,Rita Lakin,M. Harmon,1982-05-04
Five Fingers,Herbert Bayard Swope,P. Burke,1960-01-08
First Time Out,Gail Parent,C. Anton,1995-12-17
Firaaq,Momina Duraid,Cybill,2014-12-28
Finders Keepers,BBC,R. Stilgoe,1985-03-01
"Fear, Stress & Anger",Sue Vertue,P. Davison,2007-03-29
Fathers and Sons,Mui Siu Ching,H. Yu,2007-09-07
Father Ted,Geoffrey Perkins,A. O'Hanlon,1998-05-01
"Father, Dear Father",William G. Stewart,N. Pyne,1973-02-06
Fast Times,Amy Heckerling,C. Thorne-Smith,1986-04-23
Fast Forward,Steve Vizard,M. Szubanski,1992-11-26
Farsantes,Pol-ka,B. Vicuña,2014-02-12
Fantasy Hotel,Lee Tim-shing,M. Tao,2005-07-29
Fanny Hill,Sally Head,H. Speer,2007-10-29
Family Matters,Robert L. Boyett,J. M. Payton,1998-07-17
Family Man,Mui Siu-ching,S. Kwok,2002-11-09
Family Album,Douglas S. Cramer,B. Krause,1994-10-24
Family Affair,Edmund Hartmann,S. Cabot,1971-09-09
Fame Academy,Endemol,P. Kielty,2003-10-04
Falling Skies,Noah Wyle,W. Patton,2015-08-30
Falcone,Chris Long,A. Steele,2000-04-12
