col0,col1,col2,col3
Washington Marriott Marquis,Marriott International,400,1175
The Signature at MGM Grand,MGM Grand Las Vegas,400,1728
The Fullerton Hotel Singapore,Sino Land,350,400
Swissôtel Nankai Osaka,AccorHotels,357,546
San Francisco Marriott Marquis,Marriott International,13,1362
Royal Albion Hotel,Britannia Hotels,0,195
"Rosewood Washington, D.C.",Rosewood Hotels & Resorts,50,27
Rosewood London,Rosewood Hotels & Resorts,24,262
Norbreck Castle Hotel,Britannia Hotels,800,480
"Midland Hotel, Bradford",Peel Hotels,40,90
"Mandarin Oriental, Las Vegas",Mandarin Oriental Hotel Group,3000,617
