col0,col1,col2,col3
What'd I Say,Soul Brothers,1952-09-11,1808
What'd I Say,Night Time Is the Right Time,1959-02-18,390
Wet,Barbra Streisand's Greatest Hits Vol. 2,1979-08-28,2467
Western Man,"Hello There, Universe",0003-02-02,2207
West Side Story,Earl Hines Plays Cole Porter,1974-07-02,2360
Werewolves and Lollipops,The Pennsylvania Macaroni Company,2006-12-02,3491
Wenn du gehst,Tu' mir nicht weh,1962-04-13,156
Welcome to the Monkey House,Thirteen Tales from Urban Bohemia,2001-09-11,2907
Welcome to the Club,To Whom It May Concern,0002-07-01,1687
Welcome to the Club,You're Never Alone with a Schizophrenic,1979-11-11,3300
Welcome to the Canteen,John Barleycorn Must Die,1971-06-06,2361
Welcome to Sunny Florida,A Sorta Fairytale,2003-09-04,10740
Welcome to My World,Happiness Is Dean Martin,1964-12-22,1768
Welcome to Love,Moon Child,0018-07-17,4204
Weird Little Boy,Filmworks VIII: 1997,1995-11-26,2509
Weekend in L.A.,In Flight,1977-10-02,4056
Week End,Endless Rain,1990-02-04,764
Wedding Bells,Lovesick Blues,1949-03-20,174
Wedding Album,Unfinished Music No. 2: Life with the Lions,1969-03-31,2858
Weaver of Dreams,A Night at the Vanguard,1960-10-18,2059
Wearing Someone Else's Clothes,The Last Five Years,1997-10-22,3473
Wear My Ring Around Your Neck,Don't,1958-02-01,135
Wealth Won't Save Your Soul,Never Again,1946-12-11,165
We Will Rock You: Australasian Edition,We Will Rock You,2002-07-13,4675
We Will Make a Home for You,Seventeen Pieces,2002-05-26,4352
We Want More,Active,1992-02-25,3233
We Want Moore!,Victims of the Future,1984-06-23,3962
We Want Miles,The Man with the Horn,1981-10-04,4605
We Three,Jazz Abroad,1958-11-14,2369
We Rock,Evil or Divine - Live in New York City,1983-12-04,6000
We Really Shouldn't Be Doing This,True,1997-09-11,149
We Lost the Skyline,Nil Recurring,2007-10-04,2012
We Lost the Road,Run to Me,1971-01-28,207
We Insist!,Parisian Sketches,1960-09-06,2237
We Got a Good Thing Going,Help Me Make It Through the Night,1972-10-10,2291
We Get Requests,Oscar Peterson Trio + One,1964-11-20,2382
We Can Work It Out,Help!,1965-10-29,135
We Came with the Northern Winds: En Saga i Belgia,Legend Land,2007-10-20,5100
We Are the Void,Fiction,2009-08-28,2865
We Are the Romans,American Nervoso,1999-07-08,3155
We Are the Ones,Yes We Can,2008-01-31,185
We Are in Love,When Harry Met Sally...,0005-04-04,3171
We Are Not Obstinate Islands,Radiant Pools,2004-10-29,2847
We've Come a Long Way Baby,Spring Fever,1976-06-29,122
We're Outta Here!,Greatest Hits Live,1996-08-06,3851
We're Here to the End,Crooked Timber,2010-03-31,4020
Wazoo,The Dub Room Special,1972-09-24,2640
