col0,col1,col2,col3
W. Millton,Christchurch,"Christ's College, Christchurch",1858-6-10
W. Bromet,Winchester,Richmond F.C.,1868-5-17
W. Cottrell,Christchurch,Christchurch West High School,1943-9-30
"Wavell Wakefield, 1st Baron Wakefield of Kendal",Kendal,Sedbergh School,1898-3-10
W. M. Robinson,"Evanston, Illinois",Florida Gators football,1902-09-05
V. Jenkins,Harpenden,Llandovery College,1911-11-2
V. L. Fanu,Bray,Haileybury and Imperial Service College,1865-10-14
T. Hare,"Radnor, Pennsylvania",Penn Quakers football,1878-10-12
T. Allan,Sydney,North Sydney Technical High School,1926-9-26
T. Pearson,"Newport, Wales",London,1872-5-10
T. McGown,High Wycombe,Merchiston Castle School,1876-2-22
T. Clapp,California,Monmouth School,1858-10-25
T. Ryan,Auckland,"King's College, Auckland",1864-1-12
T. Pryce-Jenkins,London,Llandovery College,1862-2-1
T. Ellison,Wellington,Te Aute College,1867-1-1
T. Crean,Mayfair,Belvedere College,1873-4-19
T. Harding,"Newport, Wales",Monmouth School,1860-1-1
T. Morgan,North Walsham,"Christ College, Brecon",1880-5-22
S. Ashley,Somerset West,Diocesan College,1880-2-23
S. Casey,Dunedin,Kavanagh College,1882-12-24
S. Mackay,South Africa,Waverley College,1982-05-31
S. V. Perry,Pembrokeshire,King George V College,1918-7-16
R. Harding,Gower Peninsula,Gowerton Grammar School,1901-9-10
R. Brown,New Plymouth,"King's College, Auckland",1934-9-8
R. Horsley,Rotorua,Rongotai College,1932-7-4
R. Welsh,Edinburgh,George Watson's College,1869-10-20
R. Johnston,Kilkenny,King William's College,1872-8-13
R. G. Williams,Loos-en-Gohelle,"Magdalen College School, Oxford",1856-6-15
R. Skrimshire,Worthing,Monmouth School,1878-1-30
R. Stephens,Swansea,Llandovery College,1922-4-16
P. Phillips,"Newport, Wales","Newport, Wales",1869-1-1
P. Roos,Stellenbosch,Paul Roos Gymnasium,1880-10-30
P. Walsh,Auckland,"Sacred Heart College, Auckland",1936-5-6
O. Chadwick,Cambridge,Tonbridge School,1916-05-20
O. Kuhn,"Tampa, Florida",Notre Dame Fighting Irish football,1898-08-14
N. Storter,"Brownsville, Texas",Florida Gators football,1890-10-03
M. Cremin,Australia,Sydney Boys High School,1923-05-14
M. Dixon,Christchurch,Christchurch West High School,1929-2-6
M. Jordan,"Newport, Wales",Monmouth School,1865-3-7
L. Phillips,Cambrai,Monmouth School,1878-2-24
L. Lloyd,"Newport, Wales",Cambridge,1877-1-1
L. McClung,London,Yale Bulldogs football,1870-03-26
L. Bulger,Twickenham,Blackrock College,1870-7-5
K. Skinner,Auckland,"St. Kevin's College, Oamaru",1927-11-24
K. Jones,"Newport, Wales",West Monmouth School,1921-12-30
K. Tremain,"Napier, New Zealand",Auckland Grammar School,1938-2-21
J. Lomu,Auckland,"Wesley College, Auckland",1975-5-12
J. Williams,"Mametz, Somme",Cowbridge Grammar School,1882-1-3
J. Hore,Dunedin,King Edward Technical College,1907-8-9
J. DeWitt,New York City,Princeton Tigers football,1881-10-29
J. Hobbs,Wellington,"Christ's College, Canterbury",1960-2-15
J. Mill,"Gisborne, New Zealand",Nelson College,1899-11-19
J. Collins,Béziers,"St. Patrick's College, Wellington",1980-11-4
J. Pickard,Cape Town,Paarl Gimnasium,1927-12-25
J. T. Burrows,Christchurch,Christchurch Boys' High School,1904-7-13
J. Gowans,Gauteng,Harrow School,1872-4-23
J. Campbell,Winnipeg,Merchiston Castle School,1858-7-1
J. Bevan,Leytonstone,Hereford Cathedral School,1856-4-15
I. Smith,Edinburgh,Winchester College,1903-10-31
I. Kirkpatrick,Somerset West,Kimberley Boys' High School,1930-7-25
H. Marshall,Westminster,Barnard Castle School,1870-12-20
H. Braddon,Sydney,Dulwich College,1863-4-27
H. Tanner,Leicester,Gowerton Grammar School,1917-1-9
G. Hart,Auckland,"Sacred Heart College, Auckland",1897-3-28
G. Stone,"Sydney, New South Wales",Sydney Boys High School,1914-04-06
G. Lea,"Vero Beach, Florida",Princeton Tigers football,1912-12-16
G. Brand,Cape Town,Cape Town,1906-10-8
G. Hart,"Sora, Lazio",Waitaki Boys' High School,1909-2-10
G. Beamish,Castlerock,Coleraine Academical Institution,1905-4-29
F. Lohden,Cheam,Durham School,1871-6-13
F. Hill,Cardiff,Clifton College,1866-1-13
E. Evans,Stockport,Audenshaw Grammar School,1921-2-1
E. Field,Bromley,Clifton College,1871-12-16
E. Larkin,Lone Pine,"St. Joseph's College, Hunters Hill",1880-9-21
E. Kewley,Winchester,Marlborough College,1852-6-20
E. Taylor,"Gainesville, Florida",Florida Gators football,1891-02-02
D. Tarr,Fareham,Ysgol Dyffryn Aman,1910-3-11
D. Bebb,Cardiff,"Bangor, Wales",1938-8-7
D. Tait,Hong Kong,Sale Grammar School,1987-10-5
D. Robertson,West Berkshire,Haileybury and Imperial Service College,1869-3-21
D. Carroll,New Orleans,St Aloysius' College,1892-11-17
C. Brownlie,Wairoa,"Sacred Heart College, Auckland",1895-1-1
C. Rees,Westminster,Llandovery College,1870-1-13
C. Tucker,Dublin,St. Munchin's College,1952-9-22
