col0,col1,col2,col3
J. Baker,S. Jones,S. Jones,1993-10-7
J. Fernández,J. Buttle,N. Morozov,1991-4-15
J. Khokhlova,M. Zueva,M. Zueva,1985-10-7
J. Salé,L. Nichol,J. Ullmark,1977-4-21
J. Larivière,D. Wilson,L. Barkell,1981-7-25
I. Shefer,I. Zhuk,I. Zhuk,1983-2-19
I. Righini,A. Zhulin,N. Morozov,1991-4-16
I. Dinev,N. Morozov,A. Nikodinov,1978-11-8
I. Pieman,D. Wilson,K. Fajfr,1983-9-28
I. Delobel,P. Lauzon,T. Tarasova,1978-6-17
I. Tobias,M. Zueva,M. Zueva,1991-8-23
I. Movchan,M. Gates,H. Kukhar,1990-6-26
I. Maysuradze,N. Kanaeva,R. Arutyunyan,2000-5-24
I. Glebov,S. Nowak,M. Siudek,1987-7-22
I. Kulik,T. Tarasova,T. Tarasova,1977-5-23
I. Hegel,M. Kudriavtseva,V. Kudriavtsev,1983-4-13
I. Moram,M. Zueva,B. Marcotte,1980-2-8
H. Vassileva,N. Borichev,R. Arutyunyan,1984-7-22
H. Na,F. Yang,Y. Sun,1988-3-24
H. Bell,K. Johnson,L. Barkell,1996-7-19
H. Denney,D. Sappenfield,L. Johnston,1995-10-28
H. Imai,I. Bobrin,J. Dungjen,1993-8-31
H. Miller,T. Belbin,R. Arutyunyan,1996-10-29
H. Cong,D. Wilson,L. Bo,1992-8-6
G. Didier,S. Jeannette,P. Pélissier,1986-10-3
G. Grünberg,I. Shpilband,M. Zueva,1988-12-17
G. Merriman,P. Camerlengo,V. Kraatz,1988-10-3
G. Zuerlein,M. Zueva,M. Zueva,1988-10-26
G. Gorshkov,O. Kazakova,A. Urmanov,1993-2-11
G. Lucash,I. Shpilband,E. Shishkova,1978-9-21
G. Chongbo,N. Dubova,N. Dubova,1980-12-14
G. Kubová,G. Hrázská,M. Zueva,1993-5-9
F. Suguri,A. Zhulin,A. Zhulin,1980-12-31
F. Roost,A. Krylova,P. Camerlengo,1989-10-30
F. Amodio,S. Lambiel,F. Bourzat,1990-5-12
F. Bernadowski,V. Chernyshov,M. Olszewska-Lelonkiewicz,1979-6-20
F. Efremenkov,N. Morozov,N. Morozov,1996-3-19
F. Andreev,M. Zueva,M. Zueva,1982-3-2
F. Faiella,A. Krylova,A. Krylova,1981-2-1
F. Bourzat,A. Zhulin,A. Zhulin,1980-12-19
E. Tarasova,N. Morozov,S. Morozov,1994-12-17
E. Lysacek,K. Browning,V. Kudriavtsev,1985-6-4
E. Bates,M. Zueva,M. Zueva,1989-2-23
E. Fitze,I. Steuer,I. Steuer,1982-5-10
E. Pearl,O. Volozhinskaya,R. Callaghan,1982-5-3
E. Hagieva,V. Kotin,V. Kotin,1989-4-26
E. Samuelson,M. Zueva,Y. Nechaeva,1990-5-14
E. Hughes,M. Mitchell,P. Johansson,1989-1-26
E. Hirai,R. Haguenauer,R. Haguenauer,1986-10-14
E. Baldé,Y. Sato,J. Dungjen,1990-11-9
E. Ukolova,M. Huth,A. Kovalevski,1998-3-12
E. Punsalan,I. Shpilband,I. Shpilband,1971-1-9
E. Tursynbayeva,T. Wilson,E. Vodorezova,2000-2-14
E. Gedevanishvili,N. Morozov,B. Orser,1990-1-7
E. Ilinykh,A. Zhulin,A. Zhulin,1994-4-25
E. Berezhnaya,A. Zhulin,T. Moskvina,1977-10-11
E. Rubleva,I. Zhuk,I. Zhuk,1985-10-10
E. Riazanova,E. Kustarova,E. Kustarova,1991-4-6
E. Pushkash,I. Zhuk,I. Zhuk,1992-5-27
E. Bobrova,E. Kustarova,E. Kustarova,1990-3-28
D. Baldwin,D. Ladret,J. Watson,1977-11-15
D. Piątkowska,A. Gorshkov,S. Leonovich,1986-3-12
D. Soloviev,E. Kustarova,E. Kustarova,1989-7-18
D. Kiselev,A. Svinin,G. Hrázská,1989-8-10
D. Dun,I. Shpilband,M. Zueva,1989-11-7
D. Yang,B. Luan,B. Luan,1984-5-10
D. Trent,D. Ladret,I. Vorobieva,1980-3-12
D. Vasiļjevs,B. Richaud,A. Urmanov,1999-8-9
D. Ten,S. Lambiel,T. Tarasova,1993-6-13
D. Stagniūnas,M. Zueva,M. Zueva,1985-4-28
D. Koegel,U. Keszler,U. Keszler,1977-2-28
D. Pelletier,L. Nichol,J. Ullmark,1974-11-22
D. Liu,J. Starbuck,T. Cranston,1967-8-12
D. King,R. Cousins,J. Barrett,1984-5-8
D. Zhunussov,S. Liapina,N. Morozov,1991-8-31
D. Popova,P. Bouquet,I. Steuer,1993-7-28
D. Bourne,M. Filippov,M. Filippov,1981-7-9
D. Barantsev,N. Morozov,N. Morozov,1982-3-10
D. O'Brien,A. Krylova,V. Kraatz,1990-2-7
D. Montalbano,G. Chait,K. Ina,1989-1-23
D. Wende,A. Krylova,K. Schubert,1984-7-24
D. Hermann,R. Sinicyn,R. Sinicyn,1986-10-12
D. Eaton,P. Camerlengo,A. Krylova,1992-3-26
D. Murakami,J. Buttle,N. Morozov,1991-1-15
D. Miyata,I. Bobrin,K. Nakaniwa,1996-7-14
C. Phaneuf,D. Wilson,B. Orser,1988-1-16
C. Oi,M. Mitchell,P. Johansson,1990-10-19
C. Mansour,J. Razgulajevs,J. Razgulajevs,1994-12-15
C. McManus,A. Kirsanov,A. Kirsanov,1990-3-10
C. Appel,Z. Szwed,J. Johns,1986-7-22
C. Hay,S. Bourne,D. Leigh,1983-7-28
C. Shorten,V. Teslia,V. Teslia,1973-6-28
C. Lee,N. Linichuk,G. Karponosov,1980-10-26
C. Mabee,D. Wilson,P. Wirtz,1985-8-26
C. Boyadji,R. Haguenauer,A. König,1990-7-15
C. Berneck,I. Romanova,P. Hill,1992-7-10
C. Zukowski,N. Linichuk,B. Roles,1989-8-9
C. Gao,J. Meno,B. Orser,1994-3-7
C. Chitwood,T. Dickson,S. Hess,1990-3-21
C. Berger,U. Keszler,P. Sczypa,1987-4-3
C. Horvath,A. Levandi,S. Harand,1981-11-7
C. Reed,N. Morozov,S. Kelley,1989-7-7
C. Obzansky,I. Shpilband,M. Zueva,1983-12-13
C. Ji-eun,L. Nichol,L. Kyu-hyun,1988-5-25
C. Lee,R. Cousins,S. Shakhrai,1993-4-21
C. White,I. Shpilband,I. Shpilband,1987-10-24
C. Lefebvre,N. Morozov,S. Bourne,1977-6-5
