col0,col1,col2,col3
This Earth Is Mine,T. J. Kent,H. King,C. Robinson
This Day and Age,A. Bauchens,C. B. DeMille,B. Cormack
This Boy's Life,J. Clark,M. Caton-Jones,R. Getchell
This Beautiful City,E. Gass-Donnelly,E. Gass-Donnelly,E. Gass-Donnelly
This Angry Age,L. Catozzo,R. Clément,M. Duras
This Above All,W. A. Thompson,A. Litvak,R. C. Sherriff
This'll Make You Whistle,F. Wilson,H. Wilcox,G. Bolton
Thiruvilaiyaadal Aarambam,G. Sasikumar,B. Pandian,B. Pandian
Thirupathi,Anthony,Perarasu,Perarasu
Thirumoorthy,B. Lenin,Pavithran,Pavithran
Thirumalai,S. Urs,Ramana,Ramana
Thiruda Thiruda,S. Urs,M. Ratnam,S. Maniratnam
Thirty Seconds of Love,E. D. Roma,M. Bonnard,M. Bonnard
Thirty Seconds Over Tokyo,F. Sullivan,M. LeRoy,D. Trumbo
Thirteen Women,C. L. Kimball,G. Archainbaud,B. Cormack
Thirteen Days,C. Buff,R. Donaldson,D. Self
Thirteen Conversations About One Thing,S. Mirrione,J. Sprecher,J. Sprecher
Thirst,K. Sang-bum,P. Chan-wook,P. Chan-wook
Thirst,J. Gárate,L. Demare,A. R. Bastos
Thirst,O. Rosander,I. Bergman,H. Grevenius
Third from the Right,A. Ludwig,G. v. Cziffra,G. v. Cziffra
Third Time Lucky,I. Dalrymple,W. Forde,A. Ridley
"Think Fast, Mr. Moto",A. Troffey,N. Foster,N. Foster
Things to Do in Denver When You're Dead,R. Marks,G. Fleder,S. Rosenberg
Things to Come,M. Monnier,M. Hansen-Løve,M. Hansen-Løve
Things to Come,C. Crichton,W. C. Menzies,H. G. Wells
Things We Lost in the Fire,B. Cannon,S. Bier,A. Loeb
Things I Never Told You,T. Medina,I. Coixet,I. Coixet
Things Are Looking Up,R. Dearing,A. d. Courville,D. Fisher
Thin Ice,R. L. Simpson,S. Lanfield,M. Sperling
Thimiru,V. T. Vijayan,T. Gopi,T. Gopi
Thillu Mullu,N. B. Srikanth,Badri,Badri
Thilaadanam,A. S. Prasad,K. Sastry,K. Sastry
Thieves Like Us,L. Lombardo,R. Altman,R. Altman
Thieves Fall Out,C. Kolster,R. Enright,B. Markson
Thieves,C. McKay,J. Berry,H. Gardner
Thicker Than Blood,M. Warner,R. Pearce,B. Cain
They Won't Forget,T. Richards,M. LeRoy,R. Rossen
They Won't Believe Me,E. Williams,I. Pichel,J. Latimer
They Who Dare,V. Sagovsky,L. Milestone,R. Westerby
They Wanted to Marry,D. Marquette,L. Landers,P. Yawitz
They Stooge to Conga,P. Borofsky,D. Lord,E. Ullman
"They Shoot Horses, Don't They?",F. Steinkamp,S. Pollack,J. Poe
They Never Come Back,H. N. Todd,F. C. Newmeyer,A. Hoerl
They Might Be Giants,G. B. Greenberg,A. Harvey,J. Goldman
They Met in the Dark,T. Fisher,K. Lamac,A. d. Grunwald
They Met in a Taxi,G. Milford,A. E. Green,O. R. Cohen
They Met in Bombay,B. Sewell,C. Brown,E. J. Mayer
They Meet Again,A. Troffey,E. C. Kenton,P. Milne
They Made Me a Fugitive,R. Beck,A. Cavalcanti,N. Langley
They Made Her a Spy,H. Marker,J. Hively,M. Kanin
They Learned About Women,T. Held,J. Conway,S. Y. Mason
They Knew Mr. Knight,S. Simmonds,N. Walker,N. Walker
They Just Had to Get Married,T. J. Kent,E. Ludwig,P. Sturges
They Got Me Covered,D. Mandell,D. Butler,L. Rosten
They Go Boom,R. C. Currier,J. Parrott,L. McCarey
They Flew Alone,G. Foot,H. Wilcox,M. Malleson
They Drive by Night,L. Norman,A. B. Woods,J. Curtis
They Drive by Night,T. Richards,R. Walsh,J. Wald
They Died with Their Boots On,W. Holmes,R. Walsh,L. J. Coffee
They Came to a City,M. Truman,B. Dearden,B. Dearden
They Came to Cordura,W. A. Lyon,R. Rossen,G. Swarthout
They Came Together,J. Gross,D. Wain,D. Wain
They Came Back,R. Campillo,R. Campillo,R. Campillo
They Call Us Misfits,S. Jarl,S. Jarl,S. Jarl
They Call Me Mister Tibbs!,B. Molin,G. Douglas,J. R. Webb
They All Come Out,R. Goldstein,J. Tourneur,J. C. Higgins
These Thousand Hills,H. S. Fowler,R. Fleischer,A. Hayes
These Are the Damned,R. Mills,J. Losey,E. Jones
Theri,Ruben,Atlee,Atlee
There Will Be Blood,D. Tichenor,P. T. Anderson,P. T. Anderson
There Was a Crooked Man,P. R. Hunt,S. Burge,J. Bridie
There Was a Crooked Man...,G. Milford,J. L. Mankiewicz,R. Benton
There Once Was a Husband,J. J. Marino,F. Méndez,R. Baledón
There Is Another Sun,C. Hasse,L. Gilbert,G. Morgan
There Goes the Groom,J. Hively,J. Santley,D. Yost
There Goes the Bride,I. Dalrymple,A. d. Courville,H. Koster
There Goes My Baby,D. B. Greene,F. Mutrux,F. Mutrux
There Be Dragons,R. Nord,R. Joffé,R. Joffé
There Ain't No Justice,R. Pitt,P. Tennyson,J. Curtis
There's Something Out There,D. Howard,B. Pulido,B. Pulido
There's Something About Mary,C. Greenbury,F. brothers,P. Farrelly
There's No Business Like Show Business,R. L. Simpson,W. Lang,H. Ephron
There's Always a Woman,V. Lawrence,A. Hall,G. Lehman
There's Always Tomorrow,W. Morgan,D. Sirk,U. Parrott
Theodora Goes Wild,O. Meyer,R. Boleslawski,S. Buchman
Thenmerku Paruvakaatru,K. Viswanathan,S. Ramasamy,S. Ramasamy
Thendrale Ennai Thodu,B. Lenin,C. V. Sridhar,C. V. Sridhar
Themmangu Paattukaaran,B. Lenin,G. Amaran,G. Amaran
Thelma & Louise,T. Noble,R. Scott,C. Khouri
Their Purple Moment,R. C. Currier,J. Parrott,H. Walker
Their Night Out,W. Stokvis,H. Hughes,H. Hughes
Their Big Moment,W. Hamilton,J. Cruze,A. Caesar
Theeya Velai Seiyyanum Kumaru,N. B. Srikanth,S. C.,N. Kumarasamy
Theeradha Vilaiyattu Pillai,T. S. Suresh,Thiru,Thiru
Theatre Royal,J. Harris,J. Baxter,B. Flanagan
The Zurich Engagement,K. Dudenhöfer,H. Käutner,H. Käutner
The Zone,J. Swanberg,J. Swanberg,J. Swanberg
The Zero Theorem,M. Audsley,T. Gilliam,P. Rushin
The Zero Hour,W. Morgan,S. Salkow,G. Fort
The Zany Adventures of Robin Hood,B. Lenny,R. Austin,R. Kaufman
The Youngest Profession,R. E. Winters,E. Buzzell,C. Lederer
The Young in Heart,H. C. Kern,R. Wallace,C. Bennett
The Young Victoria,J. Bilcock,J. Vallée,J. Fellowes
The Young Savages,E. Warren,J. Frankenheimer,E. Anhalt
The Young Philadelphians,W. H. Ziegler,V. Sherman,J. Gunn
The Young Mr Pitt,R. Dearing,C. Reed,S. Gilliat
The Young Lovers,W. A. Lyon,S. G. Jr.,G. Garrett
The Young Lovers,F. Wilson,A. Asquith,G. Tabori
The Young Lions,D. Spencer,E. Dmytryk,E. Anhalt
The Young Doctors,R. Swink,P. Karlson,A. Hailey
The Young Count,E. Ensink,C. Lamac,H. H. Zerlett
The Young Baron Neuhaus,E. v. Borsody,G. Ucicky,G. Ucicky
The Yo-Yo Gang,G. Jones,G. Jones,G. Jones
The Yin and the Yang of Mr. Go,J. Tucker,B. Meredith,B. Meredith
The Yellow Ticket,J. Murray,R. Walsh,M. Morton
The Yellow Cab Man,A. Akst,J. Donohue,D. Freeman
The Yellow Birds,J. Klotz,A. Moors,D. Lowery
The Yearling,H. F. Kress,C. Brown,P. Osborn
The Year of Living Dangerously,W. M. Anderson,P. Weir,D. Williamson
The Year My Parents Went on Vacation,D. Rezende,C. Hamburger,C. Hamburger
The Yards,J. Ford,J. Gray,M. Reeves
The Yakuza,D. Guidice,S. Pollack,P. Schrader
The Yacht Isabel Arrived This Afternoon,N. Melli,C. H. Christensen,A. Nazoa
The Wrong Road,W. Morgan,J. Cruze,E. Taylor
The Wrong Move,P. Przygodda,W. Wenders,P. Handke
The Wrong Man,G. Tomasini,A. Hitchcock,M. Anderson
The Wrong Husband,C. Hoffmann,J. Guter,B. Wilder
The Wrong Ferarri,A. Green,A. Green,A. Green
The Wrestler,A. Weisblum,D. Aronofsky,R. D. Siegel
The Wrecker,A. Tavares,G. v. Bolváry,A. Ridley
The Wreck of the Mary Deare,E. Warren,M. Anderson,E. Ambler
The Wreck of the Hesperus,J. Sweeney,J. Hoffman,A. Wisberg
The Wrath of God,J. T. Williams,R. Nelson,J. Higgins
The World of Suzie Wong,B. Bates,R. Quine,J. Patrick
The World of Henry Orient,S. Gilmore,G. R. Hill,N. Johnson
The World of Abbott and Costello,S. Meyer,S. Miller,G. Wood
The World Moves On,P. Weatherwax,J. Ford,R. Berkeley
The World Is Not Enough,J. Clark,M. Apted,B. Feirstein
