col0,col1,col2,col3
Vdara,180525,2600 West Harmon Avenue,1
Turnberry Isle Miami,420,19999 W. Country Dr.,1
"The Raviz Hotel, Kollam",18580,"Kollam,Kerala",4
"The Oberoi, Gurgaon",60000,"443 Udyog Vihar, Phase V,",2
Tayyare Apartments,25000,"34470 Laleli, Istanbul",2
Swiss Diamond Prishtina,1200,"Sheshi Nëna Terezë 10000 Prishtina, Kosovo",2
Seascape Beach Resort,182108,1 Seascape Resort Drive,1
"Raintree Hotel, St Mary's Road",7432,"120,St Marys Road,Alwarpet",4
Qaqortoq Hostel,265,Postbox 172Aaninngivit B 2423920 Qaqortoq,1
Marriott Marquis Houston,15421,1777 Walker Street,5
Marriott's Grand Chateau,420,75 East Harmon Avenue,1
Manila Hotel,35000,One Rizal Park,3
"Mandarin Oriental, Las Vegas",1114,3752Las Vegas Boulevard,5
Le Méridien San Francisco,1486,333 Battery Street,333
InterContinental San Francisco,52454,888 Howard Street,888
ITC Grand Chola Hotel,150874,"63,Anna Salai,Guindy",10
Hyatt Regency San Francisco,80212,Five Embarcadero Center,2
Hotel Montgomery,5574,211 S. First Street,1
"Hotel Metropole, Brussels",952,"Brussels 1000, Belgium",1
Four Seasons Resort Hualalai,129499,"72-100 Ka'upulehu Drive,",3
Delano Las Vegas,420,3940 SLas Vegas Boulevard,1
