col0,col1,col2,col3
USS LST-872,1947-10-27,1944-11-18,1944-12-28
USS LST-853,1958-12-22,1944-08-30,1944-11-17
USS LST-851,1948-11-14,1944-08-10,1944-11-08
USS LST-849,1958-12-22,1944-11-10,1944-12-30
USS LST-607,1976-09-13,1943-12-02,1944-04-07
USS LST-573,1948-05-26,1944-04-15,1944-05-31
USS LST-557,1946-05-25,1944-02-08,1944-04-11
USS LST-546,1972-07-15,1943-12-20,1944-02-16
USS LST-512,1957-10-11,1943-07-22,1943-12-10
USS LST-50,1960-09-16,1943-08-29,1943-10-16
USS LST-389,1960-06-02,1942-09-07,1942-09-16
USS LST-380,1944-11-20,1942-12-10,1943-02-10
USS LST-325,1964-09-01,1942-08-10,1942-10-27
USS LST-288,1956-03-05,1943-09-06,1943-11-07
USS LST-279,1955-06-30,1943-07-02,1943-09-19
USS LST-13,1943-04-03,1942-09-01,1943-01-05
USS LST-12,1943-03-25,1942-08-16,1942-12-07
USS LST-1104,1947-04-28,1944-12-01,1945-01-17
USS LST-11,1943-03-22,1942-08-08,1942-11-18
USS LST-1064,1976-09-24,1945-01-09,1945-02-14
USS LST-1044,1948-11-14,1944-11-25,1944-02-03
USS LSM-45,1958-11-03,1944-06-06,1944-06-30
USS LSM-17,1954-04-01,1944-04-10,1944-05-07
USS LCS,1953-04-30,1945-01-13,1945-02-03
