col0,col1,col2,col3,col4,col5
J. Mieses,Germany,London,1865-02-27,1954-02-23,1865-02-27
J. Piatigorsky,French Third Republic,California,1911-11-06,2012-07-15,1911-11-06
J. Bednarski,Poland,Poland,1939-03-12,2008-10-19,1939-03-12
J. Klovāns,Latvia,Latvia,1935-04-09,2010-10-05,1935-04-09
J. Randviir,Estonia,Estonia,1927-05-28,1996-08-08,1927-05-28
J. Gromek,Ostrowiec Świętokrzyski,Poland,1931-04-20,1985-04-19,1931-04-20
J. Flesch,Budapest,London,1933-9-30,1983-12-9,1933-9-30
I. Aloni,Buchach,Israel,1905-04-05,1985-1-1,1905-04-05
I. Nemet,Yugoslavia,Basel,1943-04-14,2007-12-16,1943-04-14
I. Bukavshin,Rostov-on-Don,Tolyatti,1995-05-03,2016-01-12,1995-05-03
I. Bilek,Budapest,Budapest,1932-08-11,2010-03-20,1932-08-11
I. Gunsberg,Budapest,England,1854-11-01,1930-05-02,1854-11-01
I. Lipnitsky,Kiev,Kiev,1923-06-25,1959-03-25,1923-06-25
I. Kashdan,New York City,Los Angeles,1905-11-19,1985-2-20,1905-11-19
I. Boleslavsky,Ukrainian SSR,Minsk,1919-06-09,1977-02-15,1919-06-09
I. V. Ivanov,Saint Petersburg,United States,1947-01-08,2005-11-17,1947-01-08
I. Platonov,Odessa,Kiev,1934-1-18,1994-11-13,1934-1-18
I. Kurnosov,Chelyabinsk,Russia,1985-05-30,2013-08-08,1985-05-30
I. Bondarevsky,Russia,Pyatigorsk,1913-05-12,1979-06-14,1913-05-12
I. Kolisch,Austrian Empire,Austro-Hungarian Empire,1837-04-06,1889-04-30,1837-04-06
H. Süchting,Bosau,Lüttow-Valluhn,1874-10-08,1916-12-27,1874-10-08
H. Myers,"Decatur, Illinois","Davenport, Iowa",1930-01-23,2008-12-22,1930-01-23
H. Blandford,England,England,1917-01-24,1981-09-20,1917-01-24
H. A. Kennedy,"Bath, Somerset","Reading, Berkshire",1809-08-22,1878-10-22,1809-08-22
H. Bartolović,Zagreb,Zagreb,1932-6-15,2005-12-3,1932-6-15
H. Staunton,Westmorland,London,1810-4-1,1874-06-22,1810-4-1
H. v. Gottschall,Poznań,Görlitz,1862-10-16,1933-03-07,1862-10-16
H. Pilnik,Stuttgart,Caracas,1914-01-08,1981-11-12,1914-01-08
H. Hosmer,Massachusetts,Chicago,1837-04-07,1892-01-01,1837-04-07
H. E. Atkins,Leicester,Huddersfield,1872-08-20,1955-01-31,1872-08-20
H. Charlick,England,Adelaide,1845-07-08,1916-07-26,1845-07-08
H. Luik,Estonia,Estonia,1928-02-28,2009-05-05,1928-02-28
H. N. Pillsbury,"Somerville, Massachusetts",Philadelphia,1872-12-05,1906-06-17,1872-12-05
H. Golombek,London,London,1911-03-01,1995-01-07,1911-03-01
G. Stoltz,Stockholm,Stockholm,1904-5-9,1963-7-25,1904-5-9
G. Maróczy,Szeged,Budapest,1870-03-03,1951-05-29,1870-03-03
G. Sax,Hungary,Budapest,1951-06-18,2014-01-25,1951-06-18
G. Breyer,Budapest,Bratislava,1893-04-30,1921-11-09,1893-04-30
G. Levenfish,Piotrków Trybunalski,Moscow,1889-3-9,1961-2-9,1889-3-9
G. Alekhine,New Jersey,France,1876-10-26,1956-02-21,1876-10-26
Giovanni Leonardo Di Bona,Calabria,Bisignano,1542-1-1,1597-1-1,1542-1-1
G. Porreca,Naples,Naples,1927-08-30,1988-01-05,1927-08-30
G. Andruet,Versailles,France,1958-03-30,1995-08-22,1958-03-30
G. Ståhlberg,Gothenburg,Saint Petersburg,1908-01-26,1967-05-26,1908-01-26
G. Barbero,Argentina,Budapest,1961-08-21,2001-03-04,1961-08-21
G. Borisenko,Ukraine,Tashkent,1922-05-25,2012-12-03,1922-05-25
G. Agzamov,Olmaliq,Sevastopol,1954-9-6,1986-8-27,1954-9-6
G. Tringov,Plovdiv,Plovdiv,1937-3-7,2000-7-2,1937-3-7
G. Koltanowski,Antwerp,San Francisco,1903-09-17,2000-02-05,1903-09-17
G. H. Mackenzie,Aberdeen,New York City,1837-03-24,1891-04-14,1837-03-24
George H. D. Gossip,New York City,Liphook,1841-12-06,1907-05-11,1841-12-06
G. Kasparyan,Georgia,Armenia,1910-02-27,1995-12-27,1910-02-27
G. Barcza,Kisújszállás,Budapest,1911-08-21,1986-02-27,1911-08-21
G. Veresov,Belarus,Belarus,1912-07-28,1979-11-12,1912-07-28
G. H. Diggle,Lincolnshire,Brighton,1902-12-06,1993-02-13,1902-12-06
G. Stoltz,Stockholm,Stockholm,1904-5-9,1963-7-25,1904-5-9
G. Maróczy,Hungary,Budapest,1870-03-03,1951-05-29,1870-03-03
F. Zhensong,China,Guangzhou,1872-1-1,1953-1-1,1872-1-1
F. Sämisch,Charlottenburg,Wannsee,1896-9-20,1975-8-16,1896-9-20
F. Yates,England,England,1884-01-16,1932-11-11,1884-01-16
F. D. Philidor,France,England,1726-09-07,1795-08-31,1726-09-07
F. Marshall,New York City,New York City,1877-08-10,1944-11-09,1877-08-10
F. J. Lee,London,London,1857-0-0,1909-09-12,1857-0-0
F. D. Philidor,France,England,1726-09-07,1795-08-31,1726-09-07
F. Bohatyrchuk,Kiev,Ottawa,1892-11-14,1984-09-04,1892-11-14
E. German,Ubá,Belo Horizonte,1930-10-24,2001-04-01,1930-10-24
E. Grünfeld,Austria,Vienna,1893-11-21,1962-04-03,1893-11-21
E. Andersen,Gentofte Municipality,Copenhagen,1904-04-10,1938-02-27,1904-04-10
