col0,col1,col2,col3
Wish You Were Here,G. Akers,D. Leland,D. Leland
Wise Guys,G. B. Greenberg,B. D. Palma,G. Gallo
Wise Girls,M. Booth,E. M. Hopper,E. Nugent
Wise Girl,J. Hively,L. Jason,A. Scott
Wisdom,M. Kahn,E. Estevez,E. Estevez
Wintertime,L. R. Loeffler,J. Brahm,A. Kober
Winterborn,A. Henning-Jensen,A. Henning-Jensen,A. Henning-Jensen
Winter in the Woods,W. Fredersdorf,F. P. Buch,F. P. Buch
Winter in Wartime,J. t. Burg,M. Koolhoven,M. Koolhoven
Winter Stories,A. Corriveau,F. Bouvier,F. Bouvier
Winter Sleep,N. B. Ceylan,N. B. Ceylan,N. B. Ceylan
Winter People,T. Noble,T. Kotcheff,J. Ehle
Winter Meeting,O. Marks,B. Windust,G. Z. Stone
Winter Kills,D. Bretherton,W. Richert,R. Condon
Winter's Bone,A. Gonçalves,D. Granik,A. Rosellini
Winning of the West,J. Sweeney,G. Archainbaud,N. S. Hall
Winners of the West,A. Todd,F. Beebe,G. H. Plympton
Winner Takes All,M. Mak,C. Ko,K. Maka
Winner,P. Pudi,G. Malineni,G. Malineni
Wings of the Morning,J. B. Clark,H. D. Schuster,J. Meehan
Wings of Desire,P. Przygodda,W. Wenders,W. Wenders
Wings of Danger,J. Needs,T. Fisher,E. Trevor
Wings,E. L. Sheldon,W. A. Wellman,L. D. Lighton
Winged Devils,M. Morra,D. Tessari,D. Tessari
Wing and a Prayer,J. Watson Webb Jr.,H. Hathaway,J. Cady
Wine Cellars,M. Paredes,B. Perojo,V. B. Ibáñez
Winds of the Pampas,A. Varney,A. Varney,A. Varney
Windows,B. Malkin,G. Willis,B. Siegel
Windom's Way,R. Mills,R. Neame,J. Craigie
Windjammer,J. Orton,J. Orton,A. Herbert
Windfall,M. Rootes,H. Cass,J. Gilling
Windbag the Sailor,T. Fisher,W. Beaudine,W. Hay
Wind River,G. D. Roach,T. Sheridan,T. Sheridan
Wind Echoing in My Being,P. Gok-ji,J. Soo-il,J. Soo-il
Win Win,T. McArdle,T. McCarthy,T. McCarthy
Wimbledon,H. Dixon,R. Loncraine,A. Brooks
Wilson,B. McLean,H. King,L. Trotti
Willow,D. P. Hanley,R. Howard,B. Dolman
Willie & Phil,D. Cambern,P. Mazursky,P. Mazursky
William Tell,P. May,H. Paul,F. Schiller
Willard,J. Coblentz,G. Morgan,G. Morgan
Willard,W. Low,D. Mann,G. Ralston
Will Penny,W. Low,T. Gries,T. Gries
Will Our Heroes Be Able to Find Their Friend Who Has Mysteriously Disappeared in Africa?,F. Arcalli,E. Scola,E. Scola
Will Any Gentleman...?,M. Benedict,M. Anderson,V. Sylvaine
Will,L. Walker,E. Perry,E. Perry
Wildfire,D. B. Greene,Z. King,Z. King
Wilderness Survival for Girls,K. Roberts,K. Roberts,K. Roberts
Wilde Salomé,D. Leonard,A. Pacino,A. Pacino
Wildcat,W. H. Ziegler,F. McDonald,R. Murphy
Wild in the Streets,E. Newman,B. Shear,R. Thom
Wild in the Country,D. Spencer,P. Dunne,C. Odets
Wild at Heart,D. Dunham,D. Lynch,D. Lynch
Wild and Woolly,A. DeGaetano,A. L. Werker,F. Fenton
Wild and Wonderful,G. Milford,M. Anderson,W. Salt
Wild Wings,J. Legard,P. Carey,P. Scott
Wild West Days,A. Todd,F. Beebe,W. R. Burnett
Wild Tigers I Have Known,C. Archer,C. Archer,C. Archer
Wild Strawberries,O. Rosander,I. Bergman,I. Bergman
Wild Side,F. Mazzola,D. Cammell,D. Cammell
Wild River,W. H. Reynolds,E. Kazan,P. Osborn
Wild Orchids,C. A. Nervig,S. Franklin,H. Kräly
Wild Money,S. Gilmore,L. King,P. Gallico
Wild Justice,H. C. Kern,C. Franklin,C. G. Sullivan
Wild Is the Wind,W. Low,G. Cukor,A. Schulman
Wild Iris,H. Winborne,D. Petrie,K. Broadhurst
Wild Hogs,C. Greenbury,W. Becker,B. Copeland
Wild Hearts Can't Be Broken,J. Poll,S. Miner,M. Williams
Wild Harvest,G. Tomasini,T. Garnett,"John Cherry Monks, Jr."
Wild Girl,J. Murray,R. Walsh,E. J. Mayer
Wild Geese Calling,W. A. Thompson,J. Brahm,H. McCoy
Wild Gals of the Naked West,R. Meyer,R. Meyer,R. Meyer
Wild Flower,J. Bustos,E. Fernández,E. Fernández
Wild Cats on the Beach,N. Baragli,V. Sala,R. Sonego
Wild Cargo,S. B. Jacobson,A. Denis,C. R. Cooper
Wild Boys of the Road,T. Pratt,W. Wellman,E. Baldwin
Wild Bill Hickok Rides,C. Kolster,R. Enright,R. L. Schrock
Wild,M. Pensa,J. Vallée,N. Hornby
Wiggle Your Ears,R. C. Currier,R. F. McGowan,H. M. Walker
Wifemistress,N. Baragli,M. Vicario,R. Sonego
Wife Savers,G. N. Jr.,R. Ceder,A. Wimperis
Widecombe Fair,E. d. Ruelle,N. Walker,E. Philpotts
Wide Awake,A. Mondshein,M. N. Shyamalan,M. N. Shyamalan
Wickedness Preferred,W. Hamilton,H. Henley,F. Ryerson
Wicked as They Come,M. Benedict,K. Hughes,K. Hughes
Wicked Stepmother,D. Kern,L. Cohen,L. Cohen
Wicked,D. Gross,M. Steinberg,E. Weiss
Wibbel the Tailor,R. Métain,V. d. Kowa,H. Käutner
Why Men Leave Home,M. Booth,J. M. Stahl,A. P. Younger
Why Man Creates,K. Mackenzie,S. Bass,S. Bass
Why Leave Home?,J. Murray,R. Cannon,W. Catlett
Why Has Bodhi-Dharma Left for the East?,B. Yong-kyun,B. Yong-kyun,B. Yong-kyun
Why Does Herr R. Run Amok?,R. W. Fassbinder,R. W. Fassbinder,R. W. Fassbinder
Why Change Your Wife?,A. Bauchens,C. B. DeMille,O. Printzlau
Whose Life Is It Anyway?,F. Morriss,J. Badham,R. Rose
Whoopee!,S. Heisler,T. Freeland,O. Davis
Whom the Gods Love,K. Hartl,K. Hartl,E. v. Borsody
Whom the Gods Love,T. Dickinson,B. Dean,G. Wellesley
Who Was That Lady?,V. Lawrence,G. Sidney,N. Krasna
Who Killed Bambi?,R. Campillo,G. Marchand,G. Marchand
Who Is Without Sin,M. Serandrei,R. Matarazzo,A. d. Lamartine
Who Is Harry Kellerman and Why Is He Saying Those Terrible Things About Me?,B. Malkin,U. Grosbard,H. Gardner
Who Framed Roger Rabbit,A. Schmidt,R. Zemeckis,Jeffrey Price and Peter S. Seaman
Who Done It?,A. Hilton,E. C. Kenton,S. Roberts
Who Can Kill a Child?,J. Serra,N. I. Serrador,J. J. Plans
Who's Your Caddy?,S. Mosier,D. M. Paul,D. M. Paul
Who's That Knocking at My Door,T. Schoonmaker,M. Scorsese,M. Scorsese
Who's That Girl,P. J. Herring,J. Foley,K. Finkleman
Who's Minding the Mint?,A. Fazan,H. Morris,H. Bullock
Who's Guilty?,E. Turner,H. Bretherton,G. H. Plympton
Who's Been Sleeping in My Bed?,G. Tomasini,D. Mann,J. Rose
Who's Afraid of Virginia Woolf?,S. O'Steen,M. Nichols,E. Lehman
Who'll Stop the Rain,J. Bloom,K. Reisz,R. Stone
Whity,R. W. Fassbinder,R. W. Fassbinder,R. W. Fassbinder
Whiteout,S. Baird,L. Wiseman,C. Hayes
White of the Eye,T. Rawlings,D. Cammell,C. Kong
White Witch Doctor,J. B. Clark,H. Hathaway,I. Goff
White Voices,R. Mastroianni,P. F. Campanile,P. F. Campanile
White Squall,G. Hambling,R. Scott,T. Robinson
White Slaves,L. Grisebach,K. Anton,A. Pohl
White Room,P. Rozema,P. Rozema,P. Rozema
White Pongo,H. N. Todd,S. Newfield,R. L. Schrock
White Palace,C. Littleton,L. Mandoki,A. Sargent
White Oak,W. O'Shea,L. Hillyer,W. S. Hart
White Nights,F. Steinkamp,T. Hackford,J. Goldman
White Mischief,T. Priestley,M. Radford,J. Gems
White Hunter Black Heart,J. Cox,C. Eastwood,J. Bridges
White Heat,O. Marks,R. Walsh,I. Goff
White Flowers for the Dead,S. Peries,L. J. Peries,T. Abeysekera
White Eagle,E. Turner,J. W. Horne,M. Cox
White Dog,B. Gribble,S. Fuller,S. Fuller
White Cargo,M. Renoir,R. Siodmak,H. Jeanson
White Bird in a Blizzard,G. Araki,G. Araki,G. Araki
White Banners,T. Richards,E. Goulding,L. J. Coffee
Whistling Hills,S. Fields,D. Abrahams,F. Myton
Whistle Down the Wind,M. Benedict,B. Forbes,W. Hall
Whistle,S. Urs,J. D. Jerry,J. D. Jerry
Whispering Whoopee,R. C. Currier,J. W. Horne,H. Walker
Whispering Tongues,L. Laurance,G. Pearson,H. F. Mear
Whispering Smith Hits London,J. Needs,F. Searle,S. Fisher
Whispering Smith,A. Marshek,L. Fenton,F. Butler
Whispering Ghosts,A. Troffey,A. L. Werker,P. MacDonald
Whisper of the Heart,T. Seyama,Y. Kondō,H. Miyazaki
Whisky Romeo Zulu,A. Brodersohn,E. Piñeyro,E. Piñeyro
Whirlwind,M. d. Ochoa,L. Marquina,L. Marquina
Whirlpool,L. R. Loeffler,O. Preminger,B. Hecht
Whirlpool,R. Cahoon,R. W. Neill,E. Hill
Whiplash,T. Cross,D. Chazelle,D. Chazelle
Whiplash,F. Magee,L. Seiler,H. F. Jr.
Whip It,D. Tichenor,D. Barrymore,S. Cross
While the Patient Slept,O. Marks,R. Enright,B. Holmes
While the City Sleeps,G. F. Jr.,F. Lang,C. Robinson
While the City Sleeps,S. Zimbalist,J. Conway,A. Younger
While You Were Sleeping,B. Green,J. Turteltaub,D. G. Sullivan
While There's War There's Hope,R. Mastroianni,A. Sordi,A. Sordi
While She Was Out,W. M. Anderson,S. Montford,E. Bryant
While Mexico Sleeps,E. G. Muriel,A. Galindo,A. Galindo
Whiffs,R. Lawrence,T. Post,M. Marmorstein
Where the Wild Things Are,J. Haygood,S. Jonze,D. Eggers
Where the Truth Lies,S. Shipton,A. Egoyan,A. Egoyan
Where the Sidewalk Ends,L. R. Loeffler,O. Preminger,B. Hecht
Where the North Begins,L. Milestone,C. Franklin,R. L. Schrock
Where the Lark Sings,V. Bánky,C. Lamac,F. Lehár
Where the Green Ants Dream,B. Mainka-Jellinghaus,W. Herzog,W. Herzog
Where the Circle Ends,G. Schoemann,A. B. Crevenna,J. Revueltas
Where the Buffalo Roam,C. Greenbury,A. Linson,J. Kaye
Where the Boys Are,F. Steinkamp,H. Levin,G. Wells
Where Words Fail,A. Rinaldi,H. Fregonese,H. Manzi
Where There's a Will,T. Fisher,W. Beaudine,W. Hay
Where There's Life,A. Marshek,S. Lanfield,M. Shavelson
Where Is the Friend's Home?,A. Kiarostami,A. Kiarostami,A. Kiarostami
Where East Is East,I. Thalberg,T. Browning,W. Young
Where Eagles Dare,J. Jympson,B. G. Hutton,A. MacLean
Where Do We Go from Here?,J. McPhail,J. McPhail,J. McPhail
Where Do We Go from Here?,J. Watson Webb Jr.,G. Ratoff,M. Ryskind
Where Danger Lives,E. Warren,J. Farrow,C. Bennett
Where Are You Going on Holiday?,N. Baragli,A. Sordi,A. Sordi
Where Are You? I'm Here,A. Nicolini,L. Cavani,L. Cavani
Where Are Their Stories?,N. Pereda,N. Pereda,N. Pereda
Where's That Fire?,R. Dearing,M. Varnel,V. Guest
When the Wind Blows,R. C. Currier,J. W. Horne,R. A. McGowan
