col0,col1,col2,col3
Written in the Sand,Rock Will Never Die,Ron Nevison,3063
Written in Scars,Before the Storm,Samuel Dixon,2280
Written in Red,About Time,The Stranglers,2451
Writing to Reach You,More Than Us,Nigel Godrich,221
Writing on the Wall,The King Is Gone,Billy Sherrill,175
Writing's on the Wall,Omen,Disclosure,278
Writer's Block,Glory Days,Just Jack,223
Writer's Block,Burned Alive by Time,Evergreen Terrace,2051
Write to Death,Celestial Clockwork,Blueprint,71
Write This Down,Meanwhile,Tony Brown,221
Write On Me,The Life,Stargate,219
Write On,Another Night,The Hollies,2072
Write Me a Letter,Mama Kin,Adrian Barber,252
Write Me Back,Love Letter,R. Kelly,2780
Write It on Your Skin,I Hate Mondays,Newton Faulkner,194
Write It on Your Skin,Rebuilt by Humans,Newton Faulkner,2197
Write About Love,White Collar Boy,Tony Hoffer,173
Wrist,Flexicution,6ix,206
Wrist,Fine by Me,The MeKanics,194
Wrinkles,I Believe,Diamond Rio,189
Wretched and Divine: The Story of the Wild Ones,In the End,John Feldmann,3068
Wretch,Sons of Kyuss,Kyuss,2929
Wrecking Everything,Bloodletting,Overkill,4252
Wrecking Ball,We Can't Stop,Cirkut,221
Wrecking Ball,Cowgirl's Prayer,Daniel Lanois,3186
Wrecking Ball,Dead Confederate EP,Mike McCarthy,3360
Wrecking Ball,The Promise,Ron Aniello,3100
Wrecked,Sinsation,Raymond Watts,3480
Wreck,Visqueen,Unsane,2464
Wrathrash,World Dirtnap,Teloch,463
Wrath of the Math,The Sun Rises in the East,DJ Premier,3107
Wrath,Awakening,Andrew Sega,2580
Wrapped in Red,PrizeFighter,Greg Kurstin,216
Wrapped in Red,The Smoakstack Sessions Vol. 2,Greg Kurstin,2809
Wrapped Up,Hand on Heart,Steve Robson,185
Wrapped Around Your Finger,Every Breath You Take,Hugh Padgham,313
Wrapped Around,Two People Fell in Love,Frank Rogers,186
Wrapped,It Just Comes Natural,George Strait,249
Wrap Your Arms Around Me,The Heat Is On,Mike Chapman,232
Wrap Your Arms Around Me,Nu tändas tusen juleljus,Mike Chapman,2776
Wrap Her Up,Nikita,Gus Dudgeon,364
Wrap Around Joy,Fantasy,Lou Adler,2535
Woz Not Woz,Call on Me,David Was,181
Woyaya,Osibisa,Tony Visconti,2444
Wowowillie,Wil Time Bigtime,Willie Revillame,7200
Wowee Zowee,"Crooked Rain, Crooked Rain",Pavement,3351
Wow Oh Wow,Bad Behaviour,Deekay,200
Wow,Pop'n'gum,Superbus,2697
Wow,2 Hearts,Greg Kurstin,193
Wow,Endless,Play & Win,189
Wow,Dreams,Greg Kurstin,220
Wow/Grape Jam,Moby Grape,David Rubinson,2251
Wow!,True Confessions,Stock Aitken Waterman,2559
Woven Cord,Heaven's Bright Sun,Dave Bainbridge,4688
Wounded Rhymes,Youth Novels,Björn Yttling,2456
Wouldn't You,Number 1,Dappy,234
Wouldn't It Be Nice,Sloop John B,Brian Wilson,153
Wouldn't It Be Good,I Won't Let the Sun Go Down on Me,Peter Collins,272
Wouldn't I Be Someone,Saw a New Morning,Barry Gibb,210
Wouldn't Get Far,Let's Ride,Kanye West,218
Wouldn't Change a Thing,Hand on Your Heart,Stock Aitken Waterman,194
Wouldn't Believe It,Action & Action,The Get Up Kids,870
Would You Lay with Me,Blood Red and Goin' Down,Billy Sherrill,143
Would You Go with Me,Your Man,Frank Rogers,228
Would You Believe,All for You,Jonas Berggren,170
Would You Believe?,Hollies,Ron Richards,1531
Would You Be Mine?,Mare,Jason Gray,208
Would It Kill You?,Ukulele Recordings,Forrest Kline,2138
Would I Lie to You?,Julia,David A. Stewart,262
Would?,Sea of Sorrow,Rick Parashar,207
Wotabunch!,Handsome,Tony Ashton,2128
Wot,Happy Talk,Tony Mansfield,7
Worthless Recluse,This Narrow Road,Corwood Industries,2823
Worth the Weight,Past and Present - Live in Concert,Anvil,2889
Worth It,Sledgehammer,Stargate,224
Worst Fears Confirmed,The Darkest Cloud,Chemo,3165
Worst Case Scenario,Zea,Peter Vermeersch,3313
Worst Behavior,Believe Me,DJ Dahi,270
Worship the Glitch,Born Again Pagans,Coil,3236
Worship and Tribute,Everything You Ever Wanted to Know About Silence,Ross Robinson,2745
Worship and Believe,The Glorious Unfolding,Steven Curtis Chapman,4348
Worship Music,We've Come for You All,Rob Caggiano,3943
Worship,Exploding Head,A Place to Bury Strangers,2672
Worse for the Wear,Para Toda Vida,Ed Rose,1942
Worse Than a Fairy Tale,In Vogue,Ross Robinson,2940
Worse Than Alone,Here at the End of All Things,The Number Twelve Looks Like You,2768
Worse Comes to Worst,Piano Man,Michael Stewart,168
Worrisome Heart,Some Lessons: The Bedroom Sessions,Melody Gardot,1994
Worried Man Blues: Their Complete Victor Recordings,When the Roses Bloom in Dixieland: Their Complete Victor Recordings,Ralph Peer,2652
Worn Thin,Never Ever,Doc Hammer,2793
Worn Copy,Holy Shit EP,Ariel Pink,4579
Wormwood,Season's Greetings from moe.,Moe.,3443
Wormwood,Continent,Zeuss,2852
Wormwood,Rom 5:12,Marduk,2759
Worms for the Garden,Pancake Heater,Dan Monti,1807
Worm Tamer,Heathen Child,Nick Launay,193
Worm Infested,Gore Obsessed,Neil Kernon,1362
Worlock,Tin Omen,CEvin Key,1288
Worldwide Underground,Mama's Gun,Executive producer,3261
Worldwide Favourites,Perfecta,Gene Eugene,4219
Worldwide,The Language of Life,Everything but the Girl,2641
Worldwide,Lift,Charlie Peacock,2436
Worlds Torn Asunder,Waking into Nightmares,Steve Evetts,2484
Worlds Remixed,Worlds,Porter Robinson,3111
Worlds Collide,Amplified // A Decade of Reinventing the Cello,Howard Benson,2901
Worlds Away,A Place in the Sun,Bill Schnee,2395
Worlds Away,Another Destination,Jeff Glixman,3050
Worlds Apart,High Lonesome Sound,Tony Brown,238
Worlds Apart,From the Cradle to the Grave,Subhumans,2563
Worlds Apart,Silent Knight,Rupert Hine,2618
Worlds Apart,Like a Child,Jars of Clay,318
Worlds Apart,The Secret of Elena's Tomb,...And You Will Know Us by the Trail of Dead,2697
Worlds,Spitfire,Porter Robinson,3469
Worldillia,Kumo o mo Tsukamu Tami,Porno Graffitti,3743
Worldchanger,Starfire,Jørn Lande,2545
Worldbroken,"Surviving You, Always",Joe Carducci,2505
World on Fire,Apocalyptic Love,Michael Baskette,4644
World of Wonders,Stealing Fire,Jonathan Goldsmith,2610
World of Sand,Rockin' Revival,Jim Palosaari,2601
World of Our Own,Queen of My Heart,Steve Mac,210
World of Our Own,Coast to Coast,David Kreuger,4595
World of Noise,Nervous & Weird,Art Alexakis,2012
World of Fantasy,Player,Yasutaka Nakata,900
World in Your Hands,Anything,Torsten Fenslau,333
World in Perfect Harmony,I Can't Say Goodbye,Ricky Wilde,7
World in My Eyes,Policy of Truth,Depeche Mode,266
World in Motion,Lives in the Balance,Jackson Browne,2812
World in Motion,Run 2,New Order,270
World at Your Feet,Nature's Law,Martin Glover,219
World World World,Feedback File,Asian Kung-Fu Generation,2649
World Won't Miss You,Reverend,Reverend,2680
World Without Tears,Essence,Lucinda Williams,3593
World Without End,The Pillars of the Earth,Ridley Scott,22440
World Wide Suicide,Man of the Hour,Pearl Jam,209
World Wide Rebel Songs,Union Town,Tom Morello,2994
World Wide Live,Tokyo Tapes,Marty Callner,3600
World Where You Live,Mean to Me,Mitchell Froom,185
World We View,Escape,Trevor McNevan,2320
World War III,Attics to Eden,Billy Corgan,2626
World War III,Shell Shocked,Donald XL Robertson,3237
World Waits,Return of the Frog Queen,Josh Myers,2190
World Turning,Landslide,Fleetwood Mac,265
World Tour & Other Destinations,The Heart's Tremolo,Tsunami,4200
World Statesman,Modern Jazz Sextet,Norman Granz,2409
World So Cold,The Good Life,Howard Benson,243
World So Cold,Not Falling,Mudvayne,341
World Sinfonía III – The Grande Passion,Winter Nights,Robert Woods,3579
World Service,Access:d,Delirious?,3440
World Scum,Rise of the Fallen,Max Cavalera,320
World Saxophone Quartet: Plays Duke Ellington,Live at Brooklyn Academy of Music,Robert Hurwitz,4156
World Record,Still Life,Van der Graaf Generator,3181
World Radio,Living in a Fantasy,Arif Mardin,2486
World Peace Is None of Your Business,Satellite of Love,Joe Chiccarelli,261
World Peace Is None of Your Business,Years of Refusal,Joe Chiccarelli,3274
World Peace Hope et al.,The Operation of the Sonne,The Dead C,3832
World Party,Still Standing,Kanye West,3299
World Painted Blood,Christ Illusion,Greg Fidelman,2391
World Mix,Deep Forest,Dan Lacksman,4593
World Misanthropy,Alive in Torment,Dimmu Borgir,2031
World Long Gone,They Say,Daron Malakian,196
World Gone Wrong,The 30th Anniversary Concert Celebration,Bob Dylan,2631
World Gone Mad,コレクション,Paul Northfield,3380
World Gone Crazy,The Very Best Of,Ted Templeman,3321
World Funeral,Blackcrowned,Marduk,2894
World Filled with Love,Spanish,Craig David,224
World Falling Down,One More Story,Peter Cetera,2698
World Dirtnap,Demo 2002,Ivar Bjørnson,596
