col0,col1,col2,col3
Drood,R. Holmes,Charles Dickens,R. Holmes
Dreamtime,D. Niles,Cerrone,M. Cerrone
Dreamgirls,T. Eyen,The Supremes,H. Krieger
Dracula: A Chamber Musical,R. Ouzounian,Bram Stoker,R. Ouzounian
"Dracula, the Musical",D. Black,Dracula,F. Wildhorn
Dr. Seuss' How the Grinch Stole Christmas! The Musical,T. Mason,How The Grinch Stole Christmas,A. Hague
Doonesbury,G. Trudeau,Doonesbury,E. Swados
Dogfight,P. Duchan,Dogfight,P. a. Paul
Do I Hear a Waltz?,A. Laurents,The Time of the Cuckoo,R. Rodgers
"Divorce Me, Darling!",S. Wilson,The Boy Friend,S. Wilson
Dirty Rotten Scoundrels,J. Lane,Dirty Rotten Scoundrels,D. Yazbek
Destry Rides Again,L. Gershe,Destry Rides Again,H. Rome
Dessa Rose,L. Ahrens,Sherley Anne Williams,S. Flaherty
Dearest Enemy,H. Fields,American Revolutionary War,R. Rodgers
Dear World,J. Lawrence,Jean Giraudoux,J. Herman
Darling of the Day,N. Johnson,Arnold Bennett,J. Styne
Dance of the Vampires,D. Ives,Roman Polanski,J. Steinman
