col0,col1,col2,col3,col4
Á. Miguel,Spain,Madrid,1929-12-27,2009-4-13
Y. Hayashi,Japan,"Abiko, Chiba",1922-1-27,2012-1-2
W. Ogg,United States,Carnoustie,1888-5-10,1959-12-25
W. Klein,United States,Long Island,1901-1-1,1957-1-3
W. Hunter,United States,Forest Row,1892-1-29,1968-10-18
W. Stickney,United States,St. Louis,1879-5-25,1944-9-12
William C. Fownes Jr.,United States,Pittsburgh,1877-10-2,1950-7-4
W. C. Campbell,United States,"Huntington, West Virginia",1923-5-5,2013-8-30
W. Reid,United States,Bulwell,1884-11-3,1973-11-24
W. Cox,United States,Brooklyn,1896-10-27,1969-2-20
W. Ellis,United States,"Kansas City, Missouri",1932-1-27,1984-6-4
W. Gunn,United States,"Macon, Georgia",1905-1-11,1994-11-5
W. Travis,Australia,"Maldon, Victoria",1862-1-10,1927-7-31
W. Hagen,United States,"Rochester, New York",1892-12-21,1969-10-6
W. Fovargue,United States,"Glenville, Cleveland",1882-10-13,1963-3-27
W. Egan,United States,Chicago,1881-6-2,1971-9-12
W. Burkemo,United States,Detroit,1918-10-9,1986-10-8
W. Ulrich,United States,Iowa,1921-3-12,1995-4-7
V. Ghezzi,United States,"Rumson, New Jersey",1910-10-19,1976-5-30
V. Heafner,United States,"Charlotte, North Carolina",1954-8-11,2012-9-26
U. Grappasonni,Italy,Rome,1922-5-8,1999-2-16
T. Nakamura,Japan,Yokohama,1915-9-17,2008-2-11
T. Manero,United States,New York City,1905-4-4,1989-10-22
T. Lema,United States,"Oakland, California",1934-2-25,1966-7-24
T. Penna,Italy,Naples,1908-1-15,1995-8-6
T. Moore,United States,New Orleans,1962-12-23,1998-5-24
T. Bolt,United States,"Haworth, Oklahoma",1916-3-31,2008-8-30
T. Armour,United States,Edinburgh,1894-9-24,1968-9-11
T. Nieporte,United States,Cincinnati,1928-10-21,2014-12-21
T. McNamara,United States,"Brookline, Massachusetts",1882-11-18,1939-7-21
T. Kerrigan,United States,"Quincy, Massachusetts",1895-10-10,1964-5-6
T. Creavy,United States,Tuckahoe,1911-2-3,1979-3-3
T. Sugihara,Japan,"Ibaraki, Osaka",1937-6-14,2011-12-28
T. Ray,Jersey,Jersey,1877-3-28,1943-8-26
T. Kroll,United States,"New Hartford, New York",1919-8-4,2002-4-23
T. Bishop,United States,"Natick, Massachusetts",1913-1-10,1986-9-25
T. Smith,United States,"Pensacola, Florida",1990-1-1,2007-7-21
T. Kono,Japan,Kanagawa Prefecture,1940-1-4,2010-4-22
T. Kitta,Japan,Hyōgo Prefecture,1934-4-20,2003-3-22
S. Stickney,United States,St. Louis,1877-3-9,1932-9-24
S. Maiden,United States,Carnoustie,1886-2-13,1948-11-4
S. Quick,United States,"Centralia, Illinois",1909-3-19,1979-12-23
S. Alexander,United States,Philadelphia,1918-8-6,1997-10-24
S. Riegel,United States,"New Bloomfield, Pennsylvania",1914-11-25,2009-2-22
S. Brews,South Africa,"Blackheath, London",1899-5-29,1972-1-1
S. Mayfield,United States,"Liberty Hill, Texas",1924-6-19,2010-3-22
S. Ballesteros,Spain,Pedreña,1957-4-9,2011-5-7
S. Urzetta,United States,"Rochester, New York",1926-3-19,2011-4-8
S. Snead,United States,Virginia,1912-5-27,2002-5-23
S. P. Jr.,United States,"Bellevue, Pennsylvania",1909-6-23,1997-4-7
S. D. Herron,United States,Pittsburgh,1897-10-16,1956-1-27
R. Funseth,United States,"Spokane, Washington",1933-4-3,1985-9-9
R. W. White,United States,St Andrews,1874-1-1,1959-7-15
R. Hunter,United States,Chicago,1886-11-20,1971-03-28
R. A. Gardner,United States,"Hinsdale, Illinois",1890-4-9,1956-6-21
R. Mangrum,United States,Texas,1910-6-17,1975-4-2
R. McKittrick,United States,St. Louis,1877-8-17,1923-5-4
R. Guldahl,United States,Dallas,1911-11-22,1987-6-11
P. O'Hara,Ireland,Greenore,1885-8-21,1977-4-11
P. Brown,United States,"Port Gibson, Mississippi",1935-2-2,2015-5-1
P. Adair,United States,Atlanta,1899-0-0,1953-5-30
P. Stewart,United States,"Springfield, Missouri",1957-1-30,1999-10-25
P. Whittier,United States,Boston,1876-12-9,1946-3-3
P. Runyan,United States,"Hot Springs, Arkansas",1908-7-12,2002-3-17
P. Harney,United States,"Worcester, Massachusetts",1929-7-11,2011-8-24
P. Berg,United States,Minneapolis,1918-2-13,2006-9-10
O. Hackbarth,United States,"Granville, Wisconsin",1886-3-11,1967-7-24
O. Moody,United States,"Chickasha, Oklahoma",1933-12-9,2008-8-8
O. Jones,United States,"Jackson, Ohio",1867-1-1,1963-8-10
O. Dutra,United States,"Monterey, California",1901-1-17,1983-5-5
N. V. Nida,Australia,Australia,1914-2-14,2007-5-20
N. Moore,United States,Chicago,1884-1-25,1910-1-9
M. Dutra,United States,"Monterey, California",1899-10-3,1988-8-10
M. Kaser,United States,"Wichita, Kansas",1941-9-24,2009-9-19
M. Norman,Canada,"Kitchener, Ontario",1929-7-10,2004-9-4
M. Barber,United States,"Shreveport, Louisiana",1931-3-31,2013-6-11
M. Turnesa,United States,"Elmsford, New York",1907-6-9,2000-10-31
M. Souchak,United States,"Berwick, Pennsylvania",1927-5-10,2008-7-10
M. Fetchick,United States,"Yonkers, New York",1922-10-13,2012-3-8
M. Brannan,United States,"Salinas, California",1955-12-27,2013-1-8
M. Brady,United States,"Brighton, Boston",1887-4-15,1972-12-3
M. Christie,United States,"Greenville, South Carolina",1969-6-25,2004-4-22
M. R. Marston,United States,"Buffalo, New York",1892-6-12,1949-5-7
M. Phelps,United States,Chicago,1885-12-7,1945-9-2
M. Amono,Japan,Hiroshima,1942-8-9,2006-7-28
M. Furgol,United States,"New York Mills, New York",1916-1-5,2005-11-23
M. Smith,United States,Carnoustie,1892-3-18,1949-8-31
L. Suggs,United States,Atlanta,1923-9-7,2015-8-6
L. N. James,United States,Chicago,1882-9-1,1935-6-7
L. Mangrum,United States,"Trenton, Texas",1914-8-1,1973-11-17
L. Gullickson,United States,Illinois,1899-3-23,1982-5-7
L. Hebert,United States,"Lafayette, Louisiana",1928-1-20,2000-12-30
L. Worsham,United States,"Pittsylvania County, Virginia",1917-10-5,1990-10-19
L. Dodson,United States,"Greene County, Missouri",1912-3-29,1997-1-14
L. Gilbert,United States,Fort Knox,1942-11-19,1998-1-21
K. Laffoon,United States,"Zinc, Arkansas",1908-12-23,1984-3-17
K. Edwards,United States,Chicago,1886-03-09,1952-12-21
K. Venturi,United States,San Francisco,1931-5-15,2013-5-17
K. Nagle,Australia,Sydney,1920-12-21,2015-1-29
J. Boros,United States,"Bridgeport, Connecticut",1920-3-3,1994-5-28
J. McSpaden,United States,"Monticello Township, Johnson County, Kansas",1908-7-21,1996-4-22
J. Gustin,United States,Kentucky,1932-5-7,1994-4-9
J. Revolta,United States,St. Louis,1911-4-5,1991-3-3
J. Goodman,United States,"South Omaha, Nebraska",1909-12-28,1970-8-8
J. Golden,United States,"Tuxedo, New York",1896-4-2,1936-1-27
J. Farrell,United States,"White Plains, New York",1901-4-1,1988-6-14
J. Dawson,United States,Chicago,1902-12-20,1986-1-6
J. Bulla,United States,"Newell, West Virginia",1914-6-2,2003-12-7
J. Shippen,United States,"Washington, D.C.",1879-12-2,1968-5-20
J. Schlee,United States,"Kremmling, Colorado",1939-6-2,2000-6-2
