col0,col1,col2,col3
W. W. Woollcott,United States,1876-3-24,1949-2-2
W. Pennington,United States,1923-03-24,2011-05-15
W. Bucknell,United States,1811-4-1,1890-3-5
W. D. MacMillan,United States,1930-07-05,2006-10-31
W. W. Jr.,United States,1926-07-30,2016-05-20
W. C. Coleman,United States,1849-03-25,1904-03-31
W. Ritchie,United States,1905-6-15,1996-1-24
T. Scallen,United States,1925-8-14,2015-3-21
T. F. MacManus,United States,1872-1-1,1940-1-1
T. F. Jr.,United States,1730-1-1,1800-1-1
S. Bloch,United States,1940-0-0,1982-05-10
S. Gillen,United States,1911-8-10,1978-0-0
S. Williamson,United States,1927-11-21,2013-12-25
"Simon J. Murphy, Sr.",United States,1820-1-1,1910-1-1
S. E. Reisenbach,United States,1932-05-13,2015-01-06
Samuel Stevens Sands I,United States,1827-11-18,1892-7-24
R. Enrico,United States,1944-11-11,2016-6-1
R. Owen,United States,1905-10-03,1983-0-0
P. Fleet,United States,1934-2-26,1995-1-31
M. Puskar,United States,1934-9-8,2011-10-7
M. Jackson,United States,1888-12-23,1945-6-21
M. Robbins,United States,1912-0-0,1984-0-0
M. H. Dubilier,United States,1926-1-1,1991-1-1
L. D. Baker,United States,1840-3-15,1908-6-21
L. Cahn,United States,1923-12-11,2013-3-4
L. Phelan,United States,1884-02-10,1971-10-01
K. Oshman,United States,1940-7-9,2011-8-6
J. Greenberg,United States,1987-04-17,2015-07-19
J. E. Broussard,United States,1866-1-1,1956-1-1
J. D. Oliver,United States,1850-8-2,1933-8-6
J. W. Tyson,United States,1905-07-26,1967-0-0
J. P. Jr.,United States,1932-1-1,2008-1-1
J. Park,United States,1775-0-0,1852-0-0
J. H. Sinfelt,United States,1931-2-18,2011-5-28
J. Finkelstein,United States,1916-1-16,2012-11-28
J. B. LeLande,United States,1778-5-19,1821-2-8
J. Wallace,United States,1821-4-8,1885-7-22
J. R. Cargill,United States,1923-1-1,2006-03-26
J. Parmelee,United States,1855-0-0,1931-0-0
J. Humphreys,United States,1748-1-15,1810-2-2
J. Davant,United States,1915-12-1,2009-4-17
J. a. Barzinji,United States,1939-12-15,2015-0-0
J. H. Liedtke,United States,1922-02-10,2003-03-28
I. Kimball,United States,1874-4-2,1933-10-16
H. Magnuson,United States,1900-5-23,2003-5-20
H. Courtright,United States,1904-1-1,1986-1-1
H. D. Aldrich,United States,1801-07-06,1880-04-05
H. C. Schenk,United States,1880-6-26,1972-4-18
H. Giessenbier,United States,1892-6-26,1935-11-7
