col0,col1,col2,col3,col4
M. Prytz,Sweden,Sweden,1976-10-18,1976-10-18
M. Poulsen,Denmark,Denmark,1984-10-29,1984-10-29
M. Motohashi,Hokkaido,Hokkaido,1986-06-10,1986-06-10
M. Smith,Manitoba,"St. Paul, Minnesota",1960-03-20,1960-03-20
M. Fomina,Russian SFSR,Moscow,1988-08-19,1988-08-19
M. Sigfridsson,Sweden,Skellefteå,1976-01-28,1976-01-28
M. Ramstein,Basel,St. Moritz,1978-11-22,1978-11-22
M. Berthelot,"Murdochville, Quebec","Cap-de-la-Madeleine, Quebec",1972-12-11,1972-12-11
M. Pfister,Sumiswald,Bern,1989-09-26,1989-09-26
M. Kennedy,"St. Albert, Alberta","Edmonton, Alberta",1982-02-05,1982-02-05
L. Fyfe,Manitoba,East St. Paul,1987-10-03,1987-10-03
L. Yin,Harbin,Harbin,1981-08-19,1981-08-19
L. Rui,Harbin,Harbin,1982-3-13,1982-3-13
L. Weagle,Ontario,Ottawa,1985-03-24,1985-03-24
L. Eyamie,Manitoba,"Coaldale, Alberta",1977-04-10,1977-04-10
L. Warkentin,Manitoba,"Winnipeg, Manitoba",1982-11-08,1982-11-08
L. MacDougall,"Lachine, Quebec","Charlottetown, Prince Edward Island",1970-04-29,1970-04-29
L. Nielsen,Denmark,Hvidovre,1986-08-31,1986-08-31
L. Strong,"St. John's, Newfoundland and Labrador","Kronau, Saskatchewan",1979-10-31,1979-10-31
L. Hallisey,"Medfield, Massachusetts","Paoli, Pennsylvania",1986-12-31,1986-12-31
L. Vågberg,Sollefteå,Oslo,1967-6-30,1967-6-30
L. Vågberg,Sollefteå,Oslo,1967-6-30,1967-6-30
L. Vey,"Saskatoon, Saskatchewan","Regina, Saskatchewan",1984-04-06,1984-04-06
K. Karwacki,Manitoba,Winnipeg,1991-04-30,1991-04-30
K. McDonald,Manitoba,Granite Curling Club,1979-05-20,1979-05-20
K. Moore,Alberta,"Regina, Saskatchewan",1979-04-22,1979-04-22
K. Lindström,Sweden,Karlstad,1989-11-04,1989-11-04
K. McCarville,Ontario,Thunder Bay,1982-11-10,1982-11-10
K. Ishizaki,"Obihiro, Hokkaido","Aomori, Aomori",1979-01-04,1979-01-04
K. Wall,"Milton, Ontario","Milton, Ontario",1975-11-27,1975-11-27
K. Muyres,"St. Gregor, Saskatchewan","Saskatoon, Saskatchewan",1990-06-29,1990-06-29
K. Schneider,Saskatchewan,"Kronau, Saskatchewan",1984-08-21,1984-08-21
K. Kelly,"Halifax, Nova Scotia",Halifax Regional Municipality,1962-04-04,1962-04-04
K. Ji-sun,Korea,Korea,1987-06-27,1987-06-27
K. Eun-jung,Korea,Uiseong County,1990-11-29,1990-11-29
K. Dolan,Prince Edward Island,Charlottetown,1958-04-12,1958-04-12
K. Park,"Hythe, Alberta",Alberta,1964-09-02,1964-09-02
K. Koe,Edmonton,Calgary,1975-01-11,1975-01-11
K. Galusha,"Yellowknife, Northwest Territories","Yellowknife, Northwest Territories",1977-11-03,1977-11-03
K. Einarson,"Gimli, Manitoba",East St. Paul,1987-10-03,1987-10-03
K. Lilly,Ontario,"Sudbury, Ontario",1991-06-18,1991-06-18
K. Scott,Manitoba,Kelowna,1977-06-01,1977-06-01
K. Mittelstadt,Alberta,"Halifax, Nova Scotia",1975-06-01,1975-06-01
K. Law,Burnaby,"New Westminster, British Columbia",1966-01-11,1966-01-11
K. Hakunti,Helsinki,"Lohja, Finland",1988-11-17,1988-11-17
K. Lavoie,Ontario,"Thunder Bay, Ontario",1977-12-25,1977-12-25
K. Hennigar,"Halifax, Nova Scotia","Truro, Nova Scotia",1953-02-28,1953-02-28
K. V. Osch,British Columbia,Nanaimo,1993-10-08,1993-10-08
K. Lawes,Manitoba,Manitoba,1988-12-16,1988-12-16
J. Tippin,Quebec,"Woodstock, Ontario",1983-08-16,1983-08-16
J. Hastings,Ontario,Ontario,1975-09-05,1975-09-05
J. Devereaux,"St. John's, Newfoundland and Labrador","St. John's, Newfoundland and Labrador",1989-01-15,1989-01-15
J. Pinder,"Miramichi, New Brunswick","Lower Sackville, Nova Scotia",1984-04-24,1984-04-24
J. Mead,Saskatchewan,Winnipeg,1967-04-10,1967-04-10
J. Campbell,"Saskatoon, Saskatchewan","Regina, Saskatchewan",1981-08-12,1981-08-12
J. Frederiksen,Hvidovre,Hvidovre,1975-07-31,1975-07-31
J. Shuster,Minnesota,"Duluth, Minnesota",1982-11-3,1982-11-3
J. Morris,Manitoba,Chestermere,1978-12-16,1978-12-16
J. Landsteiner,"Mankato, Minnesota","Duluth, Minnesota",1990-05-19,1990-05-19
J. Epping,"Peterborough, Ontario",Toronto,1983-03-20,1983-03-20
J. Benton,"Stillwater, Minnesota","St. Paul, Minnesota",1969-06-23,1969-06-23
J. Jordison,Saskatchewan,Saskatchewan,1978-03-11,1978-03-11
J. Polo,"Duluth, Minnesota",Bemidji Curling Club,1982-12-10,1982-12-10
J. Frans,"Grimsby, Ontario","Ingersoll, Ontario",1975-07-01,1975-07-01
J. deSolla,Quebec,"Oromocto, New Brunswick",1982-04-11,1982-04-11
J. Peterman,"Red Deer, Alberta","Calgary, Alberta",1993-09-23,1993-09-23
J. Courtney,Alberta,Ottawa,1989-03-07,1989-03-07
J. Rizzo,West Germany,"Coldwater, Ontario",1965-06-01,1965-06-01
J. Snítil,Czechoslovakia,Brno,1975-02-24,1975-02-24
J. Cotter,British Columbia,"Vernon, British Columbia",1974-10-15,1974-10-15
J. Thurston,Manitoba,Granite Curling Club,1971-12-02,1971-12-02
J. Officer,Manitoba,Manitoba,1975-06-02,1975-06-02
J. Brothers,"Liverpool, Nova Scotia",Halifax Regional Municipality,1983-05-20,1983-05-20
J. Snítil,Czechoslovakia,Brno,1975-02-24,1975-02-24
J. Kaufman,Alberta,"Edmonton, Alberta",1988-08-24,1988-08-24
J. Schultz,"Anchorage, Alaska","St. Paul, Minnesota",1985-01-02,1985-01-02
J. Mair,Alberta,"Edmonton, Alberta",1984-05-14,1984-05-14
J. Jones,Manitoba,Manitoba,1974-07-07,1974-07-07
J. Gates,Ontario,Alberta,1990-04-22,1990-04-22
J. Baxter,Nova Scotia,"Dartmouth, Nova Scotia",1987-04-04,1987-04-04
J. Hanna,Canada,Ottawa,1980-01-22,1980-01-22
J. Isaacson,"Virginia, Minnesota","Duluth, Minnesota",1983-7-14,1983-7-14
J. Ellegaard,Stevns Municipality,Hvidovre,1987-07-02,1987-07-02
J. Schraeder,British Columbia,British Columbia,1976-09-21,1976-09-21
J. Ménard,Quebec,Saint-Romuald,1976-01-19,1976-01-19
J. Smith,"Robbinsdale, Minnesota","Blaine, Minnesota",1983-9-18,1983-9-18
J. Roach,"Saint John, New Brunswick","Saint John, New Brunswick",1984-07-11,1984-07-11
J. Gunnlaugson,Manitoba,Winnipeg,1984-06-02,1984-06-02
J. Zezel,"Hibbing, Minnesota",Bemidji Curling Club,1991-03-04,1991-03-04
J. Pitko,Kemi,"Lohja, Finland",1981-09-08,1981-09-08
J. LeBlanc,"Halifax, Nova Scotia","Chester, Nova Scotia",1997-05-25,1997-05-25
J. Harvey,Manitoba,"Winnipeg, Manitoba",1967-03-28,1967-03-28
J. Sinclair,"Anchorage, Alaska","Manotick, Ontario",1992-02-21,1992-02-21
J. Korab,Harbour Grace,"St. John's, Newfoundland and Labrador",1979-11-28,1979-11-28
J. Koe,Northwest Territories,Yellowknife,1977-11-03,1977-11-03
J. King,Alberta,Edmonton,1973-11-21,1973-11-21
J. Haskell,"Bemidji, Minnesota",Bemidji Curling Club,1980-07-18,1980-07-18
J. Danbrook,"Vernon, British Columbia","Halifax, Nova Scotia",1988-06-05,1988-06-05
J. Grattan,Canada,"Oromocto, New Brunswick",1974-07-28,1974-07-28
J. Armstrong,British Columbia,"Kelowna, British Columbia",1976-03-19,1976-03-19
J. Harrison,Ontario,Mississaugua Golf & Country Club,1978-07-28,1978-07-28
I. Schori,Switzerland,Flims,1983-12-04,1983-12-04
H. V. Petersson,Norway,Oslo,1984-01-05,1984-01-05
H. Rajala,"Sault Ste. Marie, Ontario",Ottawa,1962-02-12,1962-02-12
H. Nicol,Ontario,Don Mills,1987-01-06,1987-01-06
H. Simonsen,Denmark,Denmark,1984-09-07,1984-09-07
H. Strong,"St. John's, Newfoundland and Labrador","St. John's, Newfoundland and Labrador",1976-11-09,1976-11-09
H. Smith,New Brunswick,"Halifax, Nova Scotia",1972-09-21,1972-09-21
H. Martin,"Halifax, Nova Scotia","St. John's, Newfoundland and Labrador",1963-11-10,1963-11-10
H. Jensen,Alberta,"Airdrie, Alberta",1985-1-1,1985-1-1
H. McCormick,"Lansing, Michigan","Irvington, New York",1976-08-07,1976-08-07
H. V. Petersson,Norway,Oslo,1984-01-05,1984-01-05
G. Hemmings,Quebec,"Sorel, Quebec",1962-05-10,1962-05-10
G. Drummond,Scotland,Aberdeen,1989-02-03,1989-02-03
G. Balsdon,Ontario,"Kingston, Ontario",1977-10-09,1977-10-09
G. Howard,Ontario,"Coldwater, Ontario",1962-07-17,1962-07-17
G. Apollonio,Italy,Italy,1988-03-13,1988-03-13
G. Un-chi,Korea,Euijeongbu City,1990-01-23,1990-01-23
G. Ramsay,Prince Edward Island,Calgary,1988-10-26,1988-10-26
G. Wheatcroft,Nanaimo,New Westminster,1965-11-30,1965-11-30
G. Walker,Alberta,"St. John's, Newfoundland and Labrador",1985-11-28,1985-11-28
F. Kaufmann,Unterseen,Flims,1987-11-03,1987-11-03
F. Davanger,Bergen,Oslo,1963-4-1,1963-4-1
E. MacDonald,Scotland,Inverness,1975-11-17,1975-11-17
E. Arkhipov,Moscow,Moscow,1992-01-04,1992-01-04
E. Muirhead,"Perth, Scotland",Pitlochry,1990-04-22,1990-04-22
E. Carmody,Prince Edward Island,"Edmonton, Alberta",1988-08-04,1988-08-04
E. Brown,"Madison, Wisconsin","Madison, Wisconsin",1973-01-25,1973-01-25
E. Fenson,Minnesota,Minnesota,1971-05-06,1971-05-06
E. Miskew,Ontario,Ottawa,1989-02-14,1989-02-14
E. Kızılkaya,Erzurum,Atatürk University,1991-1-1,1991-1-1
E. Galkina,Moscow,Moscow,1988-08-10,1988-08-10
E. J. Harnden,Ontario,"Sault Ste. Marie, Ontario",1983-04-14,1983-04-14
D. Gaspari,Italy,Cortina d'Ampezzo,1984-06-05,1984-06-05
D. Samagalski,Manitoba,"West St. Paul, Manitoba",1984-09-09,1984-09-09
D. Neufeld,"Steinbach, Manitoba",Winnipeg,1981-01-25,1981-01-25
D. McCormick,Saskatoon,"Madison, Wisconsin",1974-1-8,1974-1-8
D. Gemmell,British Columbia,New Jersey,1967-08-27,1967-08-27
D. Deruelle,Ontario,"Brampton, Ontario",1982-06-17,1982-06-17
D. Moses,Northwest Territories,"Yellowknife, Northwest Territories",1969-11-10,1969-11-10
D. McEwen,Ontario,Manitoba,1980-07-03,1980-07-03
D. Nedohin,Manitoba,Alberta,1973-12-20,1973-12-20
D. Murdoch,Dumfries,Aberdeen,1978-04-17,1978-04-17
D. Roach,"Saint John, New Brunswick","Saint John, New Brunswick",1986-12-29,1986-12-29
D. Robertson,Manitoba,Winnipeg,1965-03-13,1965-03-13
D. Parsons,City of Halifax,New Brunswick,1990-01-29,1990-01-29
