col0,col1,col2,col3,col4
J. Sreekumar,M. Sukumaran,India,1951-01-05,1951-01-05
H. Einstein,T. Leeds,Boston,1904-05-06,1904-05-06
H. Lloyd,M. Davis,United States,1893-04-20,1893-04-20
H. Blake,Logie Awards of 2012,Melbourne,1981-12-11,1981-12-11
G. Marx,E. Hartford,New York,1890-10-02,1890-10-02
G. Delaney,S. Millican,Warwickshire,1973-04-16,1973-04-16
F. Armisen,E. Moss,"Hattiesburg, Mississippi",1966-12-04,1966-12-04
F. Albutairi,L. Alhathloul,Saudi Arabia,1985-05-12,1985-05-12
E. Kovacs,E. Adams,"Trenton, New Jersey",1919-01-23,1919-01-23
E. DeGeneres,P. d. Rossi,"Metairie, Louisiana",1958-01-26,1958-01-26
E. Murphy,1993 MTV Movie Awards,Brooklyn,1961-04-03,1961-04-03
D. Harron,V. Leith,Ontario,1924-09-19,1924-09-19
D. Martin,D. Read,United States,1922-01-30,1922-01-30
D. Cavett,C. Nye,"Gibbon, Nebraska",1936-11-19,1936-11-19
D. Cross,A. Tamblyn,Georgia,1964-04-04,1964-04-04
D. Levy,R. Specter,"Stamford, Connecticut",1981-03-19,1981-03-19
C. Mochrie,D. McGrath,United Kingdom,1957-11-30,1957-11-30
C. Swift,M. Drabble,England,1936-02-09,1936-02-09
C. Pazsitzky,T. Segura,Ontario,1976-06-18,1976-06-18
C. Finnegan,K. Crews,"Albany, New York",1973-04-01,1973-04-01
C. Hardwick,L. Hearst,United States,1971-11-23,1971-11-23
C. Peretti,J. Peele,"Oakland, California",1978-02-20,1978-02-20
C. Leifer,R. Shydner,United States,1956-07-27,1956-07-27
C. Reiner,E. Reiner,New York,1922-03-20,1922-03-20
C. Esposito,R. Butcher,Chicago,1981-10-17,1981-10-17
B. Connolly,P. Stephenson,Scotland,1942-11-24,1942-11-24
A. Richter,S. Thyre,"Grand Rapids, Michigan",1966-10-28,1966-10-28
A. Buenafuente,S. Abril,Spain,1965-01-24,1965-01-24
A. Edmondson,J. Saunders,England,1957-01-24,1957-01-24
A. Hills,A. McGregor,Sydney,1970-07-10,1970-07-10
A. W. Brown,C. Wonderland,"Charlotte, Michigan",1952-07-08,1952-07-08
