col0,col1,col2,col3
P. Donnellan,O'Callaghan Mills GAA,1985-6-19,1985-6-19
P. Cronin,Bishopstown GAA,1987-5-20,1987-5-20
P. Stakelum,Holycross-Ballycahill GAA,1927-0-0,1927-0-0
P. Ryan,Sarsfield's GAA,1976-7-23,1976-7-23
P. McGrath,Mount Sion GAA,1953-1-1,1953-1-1
P. Leahy,Gortnahoe-Glengoole GAA,1857-1-1,1857-1-1
P. Leahy,Dungourney GAA,1883-1-1,1883-1-1
P. Hegarty,Youghal GAA,1947-1-1,1947-1-1
P. Gilroy,St Vincents GAA,1971-11-3,1971-11-3
P. Dowling,Sarsfields GAA,1936-0-0,1936-0-0
P. McConnell,Newtownstewart St. Eugene's GAC,1980-4-10,1980-4-10
P. O'Donovan,Glen Rovers GAA,1916-1-1,1916-1-1
P. Molloy,Drumcullen GAA,1934-0-0,1934-0-0
P. Moclair,Castlebar Mitchels GAA,1908-1-1,1908-1-1
P. McGrath,C.L.G. Ard an Rátha,1989-2-2,1989-2-2
P. Hayes,Blackrock GAA,1921-0-0,1921-0-0
P. Doherty,Ballykinlar GAA,1934-1-1,1934-1-1
P. Curran,Bishopstown GAA,1988-1-1,1988-1-1
P. Christie,Ballymun Kickhams,1976-1-1,1976-1-1
P. Bradley,Glenullin GAC,1981-5-23,1981-5-23
P. Barry,St. Vincent's GAA,1941-8-27,1941-8-27
P. Barry,Murroe / Boher GAA,1895-1-1,1895-1-1
P. McGarty,Mohill,1933-1-1,1933-1-1
P. Collins,Cratloe GAA,1992-1-14,1992-1-14
O. Moran,Ahane GAA,1975-11-7,1975-11-7
O. McConville,Crossmaglen Rangers,1975-10-13,1975-10-13
N. Kennelly,Listowel Emmets,1979-12-25,1979-12-25
N. Garvan,St Josephs GAA,1978-9-29,1978-9-29
N. Crowley,Roanmore GAA,1962-12-23,1962-12-23
N. Joyce,Killererin GAA,1983-12-25,1983-12-25
N. Quaid,Effin GAA,1989-6-12,1989-6-12
N. Murphy,Carrigaline GAA,1978-4-23,1978-4-23
N. McNamee,UCD GAA,1985-10-21,1985-10-21
N. McCusker,Ballinderry GAC,1980-12-8,1980-12-8
N. Gilligan,Sixmilebridge GAA,1976-8-12,1976-8-12
N. McEvoy,Thomas Davis GAA,1886-0-0,1886-0-0
N. Lambe,Upperchurch-Drombane GAA,1866-0-0,1866-0-0
N. Grey,Garda GAA,1896-1-1,1896-1-1
N. O'Dowd,Tubbercurry GAA,1931-1-1,1931-1-1
M. Ó. Sé,An Ghaeltacht GAA,1946-1-1,1946-1-1
M. Murphy,Galbally Pearses GAC,1985-10-28,1985-10-28
M. Brennan,Sarsfield's GAA,1914-1-1,1914-1-1
M. Waters,Blackrock GAA,1941-7-21,1941-7-21
M. Ryan,Munster GAA,1925-6-2,1925-6-2
M. O'Dowd,Skryne GFC,1973-11-5,1973-11-5
M. Neville,Faughs GAA,1891-2-14,1891-2-14
M. Murphy,Clarecastle GAA,1918-0-0,1918-0-0
M. Mullane,Croom GAA,1887-1-1,1887-1-1
M. Mackey,Ahane GAA,1912-7-12,1912-7-12
M. Kenny,Tynagh-Abbey-Duniry GAA,1893-0-0,1893-0-0
M. Kennefick,St. Finbarr's GAA,1924-1-1,1924-1-1
M. Holden,Cuala,1955-0-0,1955-0-0
M. Deegan,Erins Isle,1964-1-1,1964-1-1
M. Cashman,Blackrock GAA,1931-1-1,1931-1-1
M. Webster,Loughmore-Castleiney,1975-5-11,1975-5-11
