col0,col1,col2,col3
Ventromedial nucleus of the hypothalamus,Hypothalamus,12584102,Ventromedial+Hypothalamic+Nucleus
Subthalamic nucleus,Basal ganglia,14166739,Subthalamic+Nucleus
Putamen,Dorsal striatum,12681480,Putamen
Pulvinar nuclei,Thalamus,12680162,Pulvinar
Olivary body,Medulla oblongata,12589442,Olivary+Nucleus
Nucleus accumbens,Basal ganglia,12580142,Nucleus+Accumbens
Medulla oblongata,Brain stem,12519731,Medulla+Oblongata
Hippocampus,Temporal lobe,12422843,Hippocampus
Brainstem,Brain,12195821,Brain+Stem
Basal ganglia,Cerebrum,12580456,Basal+Ganglia
Arcuate nucleus,Hypothalamus,12580380,Arcuate+nucleus
Arachnoid mater,Meninges,12149123,Arachnoid
Anterior nuclei of thalamus,Thalamus,12580278,Anterior+Thalamic+Nuclei
