col0,col1,col2,col3,col4
Submandibular gland,Glandular branches of facial artery,Submandibular ganglion,Submandibular+Gland,g_06
Scalp,Superficial temporal artery,Supraorbital nerve,Scalp,s_03
Rectum,Middle rectal artery,Inferior mesenteric ganglia,Rectum,r_05
Preorbital gland,Lacrimal artery,Greater petrosal nerve,Lacrimal Apparatus,g_06
Nasal septum,Anterior ethmoidal artery,Anterior ethmoidal nerve,Nasal+septum,s_08
Lip,Superior labial artery,Frontal nerve,Lip,l_01
Hard palate,Greater palatine artery,Greater palatine nerve,Hard+Palate,p_02
Forehead,Supratrochlear artery,Facial nerve,Forehead,f_16z
Dental alveolus,Posterior superior alveolar artery,Inferior alveolar nerve,Tooth+socket,a_27
Cheek,Buccal artery,Buccal branch of the facial nerve,Cheek,c_25
Bronchus,Bronchial artery,Pulmonary branches of vagus nerve,Bronchi,b_23
Axilla,Axillary artery,Axillary nerve,Axilla,a_76
