col0,col1,col2,col3
Zyuden Sentai Kyoryuger,T. Sahashi,S. Chiba,-1500
Your Show of Shows,M. Tolkin,E. Herlihy,5400
Your Number's Up,B. Cobert,J. Gilbert,1560
You Saw Them Here First,K. Mansfield,R. Webb,3600
You've Been Framed!,R. Monk,H. Hill,-3600
You're in the Picture,J. Gleason,J. Olson,1800
You're Cut Off!,Morningwood,R. Locke,3600
Yogi's Space Race,H. Curtin,G. Owens,5400
X-Bomber,K. Yamamoto,Y. Fujimoto,-1560
World War II in HD Colour,D. W. Music,R. Powell,37980
Wonders of the Monsoon,N. Sawhney,C. Salmon,3600
Wild Down Under,A. Johnston,M. Day,3000
Wild Caribbean,D. Lowe,S. Toussaint,3000
Wild Africa,C. Gunning,F. Keane,3000
Wide-Eye,K. Hopwood,T. Woodward,600
Whew!,A. Thicke,R. Roddy,1500
Wheel of Fortune,A. Thicke,C. O'Donnell,1320
Wheel of Fortune,J. Grimsley,J. Deeks,1500
Westinghouse Desilu Playhouse,J. Green,B. Furness,2880
Wendy and Me,E. Drake,G. Burns,1500
Weird Nature,E. Parker,C. McMenamin,1800
Watchdog Test House,M. 4,M. McClean,1800
War and Remembrance,B. Cobert,W. Woodson,97200
Walt Disney,J. Goodman,O. Platt,13295
Walking with Monsters,B. Bartlett,K. Branagh,1800
Walking with Dinosaurs,B. Bartlett,K. Branagh,1800
Walking with Cavemen,A. Parker,A. Baldwin,1500
Walking with Beasts,B. Bartlett,K. Branagh,1800
WWII in HD,L. Balfe,G. Sinise,2700
W1A,L. Johnson,D. Tennant,1800
Vets in Practice,D. Wiseman,C. Timothy,1800
Underdog,W. W. Biggers,G. S. Irving,1800
Underbelly,B. Dallwitz,C. Craig,2400
Ultraman Retsuden,T. Sahashi,Y. Matsumoto,1800
Twenty Questions,S. Productions,B. Richardson,1500
Twas the Night Before Christmas,M. Laws,G. Gobel,1500
Tugs,J. Campbell,P. Allen,-1200
Trumpton,F. Phillips,B. Cant,900
Trump Card,S. Productions,C. Riley,1800
Tory! Tory! Tory!,E. Parker,H. Gwynne,3600
Too Rich: The Secret Life of Doris Duke,P. Williams,L. Bacall,2880
Todd McFarlane's Spawn,S. Walker,R. Dysart,1800
Today,J. Williams,F. Facey,-3120
Time Machine,R. Ellis,C. Tuna,1800
Tic-Tac-Dough,H. Mancini,C. O'Donnell,-1560
Through the Wormhole,H. Zimmer,M. Freeman,2520
This Week in Baseball,M. Vickers,W. Fusselle,1800
This Week,S. Productions,C. Gibson,2640
The Young Indiana Jones Chronicles,J. McNeely,G. Hall,2700
The Year Without a Santa Claus,M. Laws,S. Booth,2880
The WotWots,D. Long,N. Parsons,600
The World at War,C. Davis,L. Olivier,81120
The World's Greatest Super Friends,H. Curtin,W. Woodson,1800
The Wonder Years,Lennon–McCartney,D. Stern,1440
The Wizard of Odds,A. Thicke,C. O'Donnell,1320
The Winds of War,B. Cobert,W. Woodson,52980
The Wind in the Willows,C. Towns,V. Redgrave,4380
"The Who, What, or Where Game",G. D. Weiss,M. Darrow,1500
The Weakest Link,P. Farrer,J. Briggs,2700
The Watcher,J. Goldsmith,S. Mix-a-Lot,3600
The Untouchables,N. Riddle,W. Winchell,3000
The Tonight Show Starring Johnny Carson,P. Anka,E. McMahon,-6300
The Tonight Show Starring Jimmy Fallon,T. Roots,S. Higgins,3600
The Three Musketeers,K. Hirai,Y. Tanaka,1200
The Temptations,S. Robinson,C. M. Whitfield,5280
The Super Mario Bros. Super Show!,S. Levy,L. Albano,1320
The Super Globetrotters,H. Curtin,M. Rye,1800
The Story of Jacob and Joseph,M. Theodorakis,A. Bates,7200
The Smothers Brothers Comedy Hour,M. Williams,R. Carroll,3000
The Shnookums and Meat Funny Cartoon Show,J. Jorgenson,J. Cummings,1800
The Selfish Giant,R. Goodwin,C. Aznavour,1560
The Secret Life of Machines,V. Bennett,T. Hunkin,1500
The Secret Life of Elephants,D. Poore,S. Parish,3600
The Ruff and Reddy Show,H. Curtin,D. Messick,1800
The Rocky and Bullwinkle Show,F. Steiner,W. Conrad,1380
The Robonic Stooges,H. Curtin,F. Welker,180
The Restless Gun,S. Wilson,J. Payne,1800
The Restaurant,D. Masters,B. Flynn,3600
The Rebels,G. Fried,W. Conrad,14400
The Real O'Neals,T. Transcenders,N. Galvin,1320
The Raggy Dolls,N. Innes,N. Innes,600
The Quick Draw McGraw Show,H. Curtin,D. Messick,420
The Puppy's Further Adventures,D. Elliott,B. Jayne,1800
The Problem Solverz,B. Jones,J. DiMaggio,660
The Price Is Right,E. Kalehoff,J. Olson,1560
The Price Is Right,J. Grimsley,J. Deeks,1800
The Powerpuff Girls,M. Reagan,T. Kenny,660
The Planners Are Coming,S. Russell,T. Spall,1800
The Pink Panther Show,H. Mancini,M. Miller,1800
The Perils of Penelope Pitstop,T. Nichols,G. Owens,1260
The People's Court,A. Tew,C. Chaplin,1320
The Nightmare Room,K. Carter,J. Avery,1800
The Morph Files,I. Eshkeri,N. Morrissey,540
The Money Maze,S. Productions,A. Kalter,1500
The Middle,J. Newman,P. Heaton,1260
The Making of Me,S. Tongue,T. Oberman,3600
The Lorax,D. Elliott,E. Albert,1440
The Little Drummer Boy,M. Laws,G. Garson,1500
The Life of Verdi,R. Vlad,B. Lancaster,37800
The Life of Muhammad,J. Spencer,R. Omaar,3600
The Late Show,M. Hudson,C. Holmes,-2880
The Last Halloween,B. Broughton,W. Hanna,1500
The Kitchen Musical,K. Tatlonghari,K. Tatlonghari,3600
The Jump,D. Lowe,B. Davies,-4800
The Joker's Wild,P. a. Kingsley,C. O'Donnell,1500
The Jerry Lewis Show,C. Chaplin,D. Moore,3600
The Jackie Gleason Show,J. Gleason,J. Olson,-1500
The Invaders,D. Frontiere,B. Woodson,3060
The Hunt,S. Price,D. Attenborough,3600
The Huckleberry Hound Show,H. Curtin,D. Messick,420
The Hitchhiker's Guide to the Galaxy,B. Leadon,P. Jones,1980
The History of Sex,K. Kiner,P. Coyote,3600
The Highwayman,S. Phillips,W. Conrad,3600
The Happy Prince,R. Goodwin,C. Plummer,1500
The Halloween Tree,J. Debney,R. Bradbury,4140
The Green Hornet,B. May,W. Dozier,1800
The Greatest Adventure: Stories from the Bible,H. Curtin,M. Rye,-1800
The Great War,W. Josephs,M. Redgrave,2400
The Goldbergs,I. F. Dragons,P. Oswalt,1320
The Gingerbread Man,D. Wood,A. Rodgers,600
The Further Adventures of SuperTed,J. Debney,B. S. Mitchell,1320
The Fugitive,P. Rugolo,W. Conrad,3060
The Flintstone Kids,H. Curtin,K. Mars,1800
The First Easter Rabbit,M. Laws,B. Ives,1500
The Edge,C. Tyng,E. Hall,1800
The Ed Wynn Show,L. Gluskin,B. LeMond,1800
The Ed Sullivan Show,R. Bloch,B. Bennett,-3000
The Easter Bunny Is Comin' to Town,M. Laws,F. Astaire,3000
The Deputy,J. Marshall,H. Fonda,1800
The Day After Tomorrow,D. Wadsworth,E. Bishop,2820
The Colony,A. Kubiszewski,T. Beers,2640
The Challengers,J. Hirschhorn,B. Hilton,-1440
The Carrie Diaries,M. Mothersbaugh,A. Robb,3600
The Boy Who Loved Trolls,Ferdinand Jay Smith III,R. B. Shull,3480
The Blue Planet,G. Fenton,D. Attenborough,3000
The Black Adder,H. Goodall,P. Allen,1980
The Biggest Loser,H. Small,A. Sweeney,-5100
The Big Showdown,S. Productions,D. Daniel,1800
The Bible,L. Gerrard,R. Powell,26400
The Berenstain Bears' Christmas Tree,E. Lawrence,R. McLarty,1500
The Bastard,J. Addison,R. Burr,14400
The Bananas,R. Coneybeare,A. Maitland,1800
The Avengers: Earth's Mightiest Heroes,G. Michelmore,A. Désert,300
The Arsenio Hall Show,A. Hall,B. Richardson,3600
The Adventures of Twizzle,B. Gray,N. Nevinson,780
The Adventures of Robinson Crusoe,R. Mellin,L. Payant,1500
The Adventures of Pete & Pete,M. Mulcahy,M. Maronna,1440
The Adventures of Don Coyote and Sancho Panda,M. Tavera,H. Elizondo,1800
The A-Team,M. Post,J. Ashley,2880
The 20th Century,P. Creston,W. Cronkite,1800
That Metal Show,"R. "". Thal",B. Ellsworth,-2700
Tennessee Tuxedo and His Tales,W. W. Biggers,A. Swift,1800
Tattletales,E. Kalehoff,J. Olson,-1560
Tales from the Green Valley,D. Poore,O. Teale,1800
Série noire,Cristobal Tapia de Veer,B. Derome,2580
Superman,R. Jones,B. Woodson,1800
Super Friends,H. Curtin,B. Woodson,3600
Super Friends,H. Curtin,T. Knight,3600
Super Friends: The Legendary Super Powers Show,H. Curtin,B. Woodson,1800
Suburgatory,J. Faber,J. Levy,1320
Stuart Little: The Animated Series,V. D. Parks,D. Kaufman,1380
Star Wars: The Clone Wars,J. Williams,T. Kane,1320
Sports Challenge,P. Williams,J. Gilbert,1800
Split Second,T. Thicke,J. Clark,-1560
Spider-Man and His Amazing Friends,J. Douglas,S. Lee,1500
Spider-Man: The New Animated Series,J. Digweed,N. P. Harris,1320
Space Stars,H. Curtin,K. Curtis,3600
Space Race,S. Sim,R. Lindsay,14400
Soul Food,Babyface,A. Meeks,34
Son of God,J. Whitbourn,A. Brooks,3000
Soap,G. A. Tipton,R. Roddy,1800
Smallpox 2002,A. Price,B. Cox,5400
