col0,col1,col2,col3
R. Rahe,1960-06-12,208–113 (),208–113 ()
R. Mazey,1966-05-23,305–258–1,124–101
R. Dunton,1960-12-22,111-128,77-102 (.426)
R. Awrey,1956-04-27,125–86–1,3–16
P. Moser,1968-08-24,169-182 (),71–91 ()
P. Montgomery,1971-12-21,10–8,10–9
P. Mathews,1950-11-27,139–123 (college),22–34
P. Estes,1958-06-07,109–75,109–75
P. Rossomando,1972-04-07,50–33,8–20
P. Shinnick,1965-05-15,103–46,2-2
P. Weir,1980-1-1,0-0 (),0–0 ()
P. Thomas,1962-10-28,434–282 (),198–125 ()
P. Petrino,1967-05-25,10–32,10–32
P. Nichols,1981-01-25,5–33,5–33
P. Mainieri,1957-08-29,1324–674–8 (),459–182–3()
P. Lusk,1971-11-14,71–90 (),71–90 ()
P. Johnson,1957-08-20,172–86,65–47
P. Haynes,1969-07-11,11–31,11–31
P. Hamilton,1958-05-28,76–132,22–54
P. Murphy,1965-11-28,763-215,735-195
P. Beilein,1983-03-23,32–25,10-17
P. Narduzzi,1966-04-22,13–7,13–7
P. Kelsey,1975-05-15,76–52 (),76–52 ()
P. Fitzgerald,1974-12-02,73–59,73–59
P. Chambers,1970-12-13,114-119(),72-91 ()
P. Casey,1959-03-17,925–534–6,754-421-5 ()
O. Purnell,1953-05-19,448–386 (),54–105 ()
N. Roberts,1965-07-21,88–169 (.342),64–85
N. Giarratano,1962-06-02,492–510–1,492–510–1
N. Medved,1973-10-10,24–46 (),24–46 ()
N. Saban,1951-10-31,198–60–1 (college)[[#notea,107–18[[#notea
N. Mingione,1978-09-10,0-0 (),0-0 ()
N. McDevitt,1979-04-21,54–42,54–42
N. Hill,1985-04-05,2–4,2–4
N. Bobeck,1980-06-07,20–31,20–31
N. Brown,1980-03-11,9–9,9–9
N. Oats,1974-10-13,20–15,20–15
N. Leaman,1972-11-27,217–185–54,79–58–19
M. Lee,1977-02-09,320-165,44-20
M. Coleman,1957-11-04,38–56,38–56
M. Cater,1924-7-7,257–115–2,227–91–1
M. Henderson,1975-08-14,96–52 (),96–52 ()
M. Hannahs,1967-09-16,98-65,98-65
M. Gaspard,1965-05-26,425–311 (),215-173 ()
M. Young,1963-05-01,195–183 (),195–183 ()
M. White,1957-08-11,114–62,2–11
M. White,1977-03-02,122–55 (),21-15 ()
M. Swider,1955-05-26,170–45,170–45
M. Stone,1955-04-29,716–753–5,662–663–3
M. Sirianni,1972-03-22,119–28,119–28
M. Sanford,1955-04-20,33–68,17–27
M. Riley,1953-07-06,105–87 (college),12–7
M. Norvell,1981-10-11,5–1,5–1
M. Neighbors,1969-03-29,69–35 () (college),69–35 ()
M. McConathy,1955-12-27,267–260,267–260
M. Martin,1982-07-04,49–67 (),49–67 ()
M. Martin,1944-02-12,1854–647–4 (),1898–671–4 ()
M. Maker,1965-11-09,158–72,0–0
M. MacIntyre,1965-03-14,31–50,15–29
M. Leach,1961-03-09,109–74,25–31
M. Kunigonis,1980-06-04,1–0,1–0
M. Kramer,1955-07-25,95–120 (college),18–45
M. Kelly,1958-02-11,33–21 (college),18–5
M. Jinks,1972-02-07,1–6(college),1–6
M. Houston,1971-0-0,49–20,6–1
M. Gundy,1967-08-12,98–49,98–49
M. Gardner,1967-03-09,88–45,63-27
M. Gambino,1977-07-09,100–166,100–166
M. Dee,1958-05-19,506–382,557–434
M. Davis,1960-09-15,313–208 (),76–57 ()
M. Carey,1958-07-04,610–273 (),322–171 ()
M. Brey,1959-03-22,455–228 (),356–176 ()
M. Brennan,1972-05-18,49–48 (),49–48 ()
M. Bobo,1974-04-09,10–9,10–9
M. Bianco,1967-05-03,730–441–1,630–370–1
M. Ayers,1948-05-26,202–155–2,191–134–1
M. Anderson,1959-12-12,302-162 (),102-64 ()
M. Aoki,1968-10-07,311–359–2,110–111–1
M. Cronin,1971-07-17,272–149 (),203–125 ()
M. Huger,1970-06-27,16–18,16–18
M. Haywood,1964-02-26,12–17,2–2
M. McFerrin,1960-12-20,190–186 (),140–116 ()
M. Balcomb,1962-09-24,472–245 (),309–142 ()
M. Gebbia,1973-03-07,46–23 (),48–27 ()
M. Mitchell,1970-12-16,249–118 (),219–89 ()
M. Wells,1973-08-10,27–20,27–20
M. Viator,1963-09-03,80–37 (college),2–4
M. Rhule,1975-01-31,22–23,22–23
M. Reid,1978-06-19,54–44,54–44
M. Painter,1970-08-27,263–138 (),238–133 ()
M. McMahon,1978-04-26,17–14 (),17–14 ()
M. Kelchner,1959-03-05,102–57,102–57
M. Insell,1982-09-22,41–54 (),41–54 ()
M. Campbell,1979-11-29,36–21,1–6
M. Wise,1959-08-08,713–132 (),632–69 ()
M. Menzies,1961-10-15,198–111 (),0–0 ()
M. Fine,1959-07-30,87–70 (college),77–59
M. Frese,1972-03-02,36–82,36–82
M. Whipple,1957-04-01,128–83,56–50
M. Turgeon,1965-02-05,364–218 (),114–59 ()
