col0,col1,col2,col3,col4
Liver,40,9,103,26
Lion,76,33,193,45
Lime,100,75,191,0
Lilac,78,300,200,19
Lavender,98,240,230,8
Lava,28,27,72,17
Kobicha,42,28,107,36
Jonquil,96,49,244,17
Jasmine,97,47,248,11
Ivory,100,60,255,0
Indigo,51,275,75,100
Indian red,75,0,205,52
Heliotrope,100,286,223,55
Goldenrod,85,43,218,24
Gold,100,51,255,16
Glaucous,71,216,96,29
Fulvous,89,35,228,42
Forest green,55,120,34,21
Flax,93,50,238,8
Fire engine red,81,357,206,89
Federal Standard 595 camouflage colours,62,212,146,40
Fallow,76,33,193,14
Electric green,100,120,0,0
Electric blue,100,183,125,2
Eggshell,94,46,240,2
Duke blue,34,222,0,75
Desert sand,93,25,237,15
Dark purple,20,291,48,52
Cyclamen,96,0,245,55
Cyan,100,180,0,0
Crimson,86,348,220,100
Cream,100,57,255,1
Coyote brown,51,31,129,25
Cornflower blue,93,219,100,37
Cordovan,54,355,137,54
Coral,100,16,255,50
Coquelicot,100,13,255,78
Copper,72,29,184,32
Columbia blue,89,200,196,4
Coffee,44,25,111,30
Citron,66,64,158,0
Citrine,89,54,228,8
Cinereous,60,12,152,15
Chocolate,48,31,123,50
Chestnut,58,10,149,54
Chartreuse,100,90,127,0
Champagne,97,37,247,6
Cerulean,65,196,0,26
Cerise,87,343,222,95
Carmine,59,350,150,75
Cardinal,77,350,196,85
Capri,100,195,0,25
Candy apple red,100,2,255,97
Camel,76,33,193,20
Cadet grey,69,205,145,29
