col0,col1,col2,col3
1930 Monza Grand Prix,L. Arcangeli,Alfa Romeo in motorsport,35
1930 Monaco Grand Prix,L. Chiron,Bugatti,100
1929 Monaco Grand Prix,G. Bouriano,Bugatti,100
1926 French Grand Prix,M. Costantini,Bugatti,100
1925 French Grand Prix,L. Wagner,Sunbeam Motor Car Company,80
1925 Belgian Grand Prix,G. Campari,Delage,54
1924 French Grand Prix,A. Divo,Sunbeam Motor Car Company,35
1923 Italian Grand Prix,F. Nazzaro,Benz & Cie.,80
1923 French Grand Prix,A. Divo,Delage,35
1922 Italian Grand Prix,F. Nazzaro,Fiat,80
1922 French Grand Prix,P. D. Vizcaya,Fiat,60
1921 Italian Grand Prix,J. Chassagne,Fiat,30
1921 French Grand Prix,R. DePalma,Ballot,30
