[
    {
        "col0": "S. Kydd",
        "col1": "England",
        "col2": "J. Kydd",
        "col3": "1915-02-15",
        "col4": "1982-03-26"
    },
    {
        "col0": "S. A. Katrib",
        "col1": "Lebanon",
        "col2": "A. Lahoud",
        "col3": "1953-09-17",
        "col4": "2009-03-04"
    },
    {
        "col0": "S. Zaheer",
        "col1": "Almaty",
        "col2": "N. Babbar",
        "col3": "1905-11-05",
        "col4": "1973-09-11"
    },
    {
        "col0": "S. Jaffrey",
        "col1": "London",
        "col2": "S. Jaffrey",
        "col3": "1929-01-08",
        "col4": "2015-11-14"
    },
    {
        "col0": "S. Dastagir",
        "col1": "California",
        "col2": "P. Sabu",
        "col3": "1924-01-27",
        "col4": "1963-12-02"
    },
    {
        "col0": "R. Hussey",
        "col1": "Newbury Park, California",
        "col2": "J. Longenecker",
        "col3": "1911-10-30",
        "col4": "2005-04-19"
    },
    {
        "col0": "R. Fernandez",
        "col1": "Philippines",
        "col2": "M. A. Fernandez",
        "col3": "1952-03-16",
        "col4": "2008-06-07"
    },
    {
        "col0": "R. Hess",
        "col1": "West Berlin",
        "col2": "W. R. Hess",
        "col3": "1894-04-26",
        "col4": "1987-08-17"
    },
    {
        "col0": "R. Dee",
        "col1": "New Rochelle, New York",
        "col2": "G. Davis",
        "col3": "1922-10-27",
        "col4": "2014-06-11"
    },
    {
        "col0": "R. Dandridge",
        "col1": "Los Angeles",
        "col2": "V. Dandridge",
        "col3": "1900-03-03",
        "col4": "1987-10-17"
    },
    {
        "col0": "R. Redgrave",
        "col1": "Sydney",
        "col2": "M. Redgrave",
        "col3": "1873-04-26",
        "col4": "1922-05-25"
    },
    {
        "col0": "R. Kinnear",
        "col1": "Madrid",
        "col2": "R. Kinnear",
        "col3": "1934-01-08",
        "col4": "1988-09-20"
    },
    {
        "col0": "R. E. Disney",
        "col1": "Newport Beach, California",
        "col2": "A. Disney",
        "col3": "1930-01-10",
        "col4": "2009-12-16"
    },
    {
        "col0": "R. Castle",
        "col1": "Buckinghamshire",
        "col2": "B. Castle",
        "col3": "1932-08-31",
        "col4": "1994-09-02"
    },
    {
        "col0": "R. Roker",
        "col1": "United States",
        "col2": "L. Kravitz",
        "col3": "1929-08-28",
        "col4": "1995-12-02"
    },
    {
        "col0": "R. Clooney",
        "col1": "Beverly Hills, California",
        "col2": "M. Ferrer",
        "col3": "1928-05-23",
        "col4": "2002-06-29"
    },
    {
        "col0": "R. Karns",
        "col1": "Los Angeles",
        "col2": "T. Karns",
        "col3": "1891-09-07",
        "col4": "1970-02-06"
    },
    {
        "col0": "R. Crutchley",
        "col1": "London",
        "col2": "J. Ashmore",
        "col3": "1920-01-04",
        "col4": "1997-07-28"
    },
    {
        "col0": "R. Barker",
        "col1": "Adderbury",
        "col2": "C. Barker",
        "col3": "1929-09-25",
        "col4": "2005-10-03"
    },
    {
        "col0": "R. Reagan",
        "col1": "Bel Air, Los Angeles",
        "col2": "M. Reagan",
        "col3": "1911-02-06",
        "col4": "2004-06-05"
    },
    {
        "col0": "R. Lacey",
        "col1": "England",
        "col2": "R. Lacey",
        "col3": "1935-09-28",
        "col4": "1991-05-15"
    },
    {
        "col0": "R. Pickering",
        "col1": "London Borough of Hackney",
        "col2": "S. Pickering",
        "col3": "1930-05-04",
        "col4": "1991-02-13"
    },
    {
        "col0": "R. Schneider",
        "col1": "France",
        "col2": "S. Biasini",
        "col3": "1938-09-23",
        "col4": "1982-05-29"
    },
    {
        "col0": "R. Culver",
        "col1": "England",
        "col2": "M. Culver",
        "col3": "1900-08-31",
        "col4": "1984-03-01"
    },
    {
        "col0": "R. Lloyd-Pack",
        "col1": "London",
        "col2": "E. Lloyd",
        "col3": "1944-02-08",
        "col4": "2014-01-15"
    },
    {
        "col0": "R. Hill",
        "col1": "The Bronx",
        "col2": "H. California",
        "col3": "1948-07-31",
        "col4": "2014-02-20"
    },
    {
        "col0": "R. H. Jr.",
        "col1": "Los Angeles",
        "col2": "T. Hoyos",
        "col3": "1916-03-06",
        "col4": "1983-04-15"
    },
    {
        "col0": "R. Taylor",
        "col1": "California",
        "col2": "F. Taylor",
        "col3": "1929-1-11",
        "col4": "2015-01-07"
    },
    {
        "col0": "R. Walker",
        "col1": "Los Angeles",
        "col2": "R. W. Jr.",
        "col3": "1918-10-13",
        "col4": "1951-08-28"
    },
    {
        "col0": "R. Sterling",
        "col1": "Los Angeles",
        "col2": "T. Sterling",
        "col3": "1917-11-13",
        "col4": "2006-05-30"
    },
    {
        "col0": "R. Stephens",
        "col1": "England",
        "col2": "C. Larkin",
        "col3": "1931-07-14",
        "col4": "1995-11-12"
    },
    {
        "col0": "R. Shaw",
        "col1": "County Mayo",
        "col2": "I. Shaw",
        "col3": "1927-08-09",
        "col4": "1978-08-28"
    },
    {
        "col0": "R. Prosky",
        "col1": "Washington, D.C.",
        "col2": "J. Prosky",
        "col3": "1930-12-13",
        "col4": "2008-12-08"
    },
    {
        "col0": "R. Montgomery",
        "col1": "New York City",
        "col2": "E. Montgomery",
        "col3": "1904-05-21",
        "col4": "1981-09-27"
    },
    {
        "col0": "R. Mitchum",
        "col1": "Billboard Hot 100",
        "col2": "C. Mitchum",
        "col3": "1917-08-06",
        "col4": "1997-07-01"
    },
    {
        "col0": "R. McNamara",
        "col1": "Washington, D.C.",
        "col2": "R. C. McNamara",
        "col3": "1916-06-09",
        "col4": "2009-07-06"
    },
    {
        "col0": "R. Livingston",
        "col1": "Tarzana, Los Angeles",
        "col2": "A. Randall",
        "col3": "1904-12-09",
        "col4": "1988-03-07"
    },
    {
        "col0": "R. Keith",
        "col1": "California",
        "col2": "B. Keith",
        "col3": "1898-02-10",
        "col4": "1966-12-22"
    },
    {
        "col0": "R. Goulet",
        "col1": "Los Angeles",
        "col2": "N. Goulet",
        "col3": "1933-11-26",
        "col4": "2007-10-30"
    },
    {
        "col0": "R. F. Scott",
        "col1": "Antarctica",
        "col2": "P. Scott",
        "col3": "1868-06-06",
        "col4": "1912-03-29"
    },
    {
        "col0": "R. F. Kennedy",
        "col1": "California",
        "col2": "R. Kennedy",
        "col3": "1925-11-20",
        "col4": "1968-06-06"
    },
    {
        "col0": "R. E. Jones",
        "col1": "Englewood, New Jersey",
        "col2": "J. E. Jones",
        "col3": "1910-2-3",
        "col4": "2006-09-07"
    },
    {
        "col0": "R. Clarke",
        "col1": "Valley Village, California",
        "col2": "C. Clarke",
        "col3": "1920-06-01",
        "col4": "2005-06-11"
    },
    {
        "col0": "R. B. Sherman",
        "col1": "England",
        "col2": "R. J. Sherman",
        "col3": "1925-12-19",
        "col4": "2012-03-06"
    },
    {
        "col0": "R. Altman",
        "col1": "California",
        "col2": "R. R. Altman",
        "col3": "1925-02-20",
        "col4": "2006-11-20"
    },
    {
        "col0": "R. Alda",
        "col1": "Los Angeles",
        "col2": "A. Alda",
        "col3": "1914-02-26",
        "col4": "1986-05-03"
    },
    {
        "col0": "R. Hayworth",
        "col1": "Manhattan",
        "col2": "Y. A. Khan",
        "col3": "1918-10-17",
        "col4": "1987-05-14"
    },
    {
        "col0": "R. Thorpe",
        "col1": "California",
        "col2": "J. Thorpe",
        "col3": "1896-02-24",
        "col4": "1991-05-01"
    },
    {
        "col0": "R. Schaal",
        "col1": "Woodland Hills, Los Angeles",
        "col2": "W. Schaal",
        "col3": "1928-05-05",
        "col4": "2014-11-04"
    },
    {
        "col0": "R. Nixon",
        "col1": "Manhattan",
        "col2": "J. N. Eisenhower",
        "col3": "1913-01-09",
        "col4": "1994-04-22"
    },
    {
        "col0": "R. Ney",
        "col1": "Pasadena, California",
        "col2": "R. Dufay",
        "col3": "1916-11-12",
        "col4": "2004-07-18"
    },
    {
        "col0": "R. Jaeckel",
        "col1": "California",
        "col2": "B. Jaeckel",
        "col3": "1926-10-10",
        "col4": "1997-06-14"
    },
    {
        "col0": "R. Hart",
        "col1": "New York City",
        "col2": "C. Rawson",
        "col3": "1915-04-14",
        "col4": "1951-01-02"
    },
    {
        "col0": "R. Harris",
        "col1": "London",
        "col2": "J. Harris",
        "col3": "1930-10-01",
        "col4": "2002-10-25"
    },
    {
        "col0": "R. Dawson",
        "col1": "California",
        "col2": "M. Dawson",
        "col3": "1932-11-20",
        "col4": "2012-06-02"
    },
    {
        "col0": "R. Davalos",
        "col1": "Burbank, California",
        "col2": "E. Davalos",
        "col3": "1930-11-05",
        "col4": "2016-03-08"
    },
    {
        "col0": "R. C. Sarafian",
        "col1": "Santa Monica, California",
        "col2": "T. Sarafian",
        "col3": "1930-04-28",
        "col4": "2013-09-18"
    },
    {
        "col0": "R. Burton",
        "col1": "Switzerland",
        "col2": "K. Burton",
        "col3": "1925-11-10",
        "col4": "1984-08-05"
    },
    {
        "col0": "R. B. Heydrich",
        "col1": "Dresden",
        "col2": "R. Heydrich",
        "col3": "1865-02-23",
        "col4": "1938-08-24"
    },
    {
        "col0": "R. Briers",
        "col1": "England",
        "col2": "L. Briers",
        "col3": "1934-01-14",
        "col4": "2013-02-17"
    },
    {
        "col0": "R. Bennett",
        "col1": "Los Angeles",
        "col2": "B. Bennett",
        "col3": "1870-05-21",
        "col4": "1944-10-22"
    },
    {
        "col0": "R. Beckinsale",
        "col1": "Berkshire",
        "col2": "S. Beckinsale",
        "col3": "1947-07-06",
        "col4": "1979-03-19"
    },
    {
        "col0": "R. Attenborough",
        "col1": "London",
        "col2": "M. Attenborough",
        "col3": "1923-08-29",
        "col4": "2014-08-24"
    },
    {
        "col0": "R. Harrison",
        "col1": "New York City",
        "col2": "N. Harrison",
        "col3": "1908-03-05",
        "col4": "1990-06-02"
    },
    {
        "col0": "R. Allen",
        "col1": "Tucson, Arizona",
        "col2": "R. A. Jr.",
        "col3": "1920-12-31",
        "col4": "1999-12-17"
    },
    {
        "col0": "R. Cardona",
        "col1": "Mexico",
        "col2": "R. C. Jr.",
        "col3": "1905-08-10",
        "col4": "1988-04-25"
    },
    {
        "col0": "R. Mikuni",
        "col1": "Inagi",
        "col2": "K. Sato",
        "col3": "1923-01-20",
        "col4": "2013-04-14"
    },
    {
        "col0": "R. Cardona",
        "col1": "Mexico",
        "col2": "R. C. Jr.",
        "col3": "1905-08-10",
        "col4": "1988-04-25"
    },
    {
        "col0": "R. Massey",
        "col1": "Los Angeles",
        "col2": "A. Massey",
        "col3": "1896-08-30",
        "col4": "1983-07-29"
    },
    {
        "col0": "R. Lovell",
        "col1": "London",
        "col2": "S. Lovell",
        "col3": "1900-04-13",
        "col4": "1953-10-01"
    },
    {
        "col0": "Ratheesh",
        "col1": "Kerala",
        "col2": "P. Ratheesh",
        "col3": "1954-0-0",
        "col4": "2002-12-23"
    },
    {
        "col0": "R. Morgan",
        "col1": "New York City, New York",
        "col2": "C. Morgan",
        "col3": "1883-07-06",
        "col4": "1956-06-11"
    },
    {
        "col0": "Rajkumar",
        "col1": "Bangalore",
        "col2": "S. Rajkumar",
        "col3": "1929-04-24",
        "col4": "2006-04-12"
    },
    {
        "col0": "R. Khanna",
        "col1": "India",
        "col2": "R. Khanna",
        "col3": "1942-12-29",
        "col4": "2012-07-18"
    },
    {
        "col0": "R. Kumar",
        "col1": "India",
        "col2": "K. Gaurav",
        "col3": "1929-07-20",
        "col4": "1999-07-12"
    },
    {
        "col0": "R. Khosla",
        "col1": "Mumbai",
        "col2": "M. Luthria",
        "col3": "1925-05-31",
        "col4": "1991-06-09"
    },
    {
        "col0": "R. Kapoor",
        "col1": "New Delhi",
        "col2": "R. Kapoor",
        "col3": "1924-12-14",
        "col4": "1988-06-02"
    },
    {
        "col0": "R. Bardem",
        "col1": "Madrid",
        "col2": "J. A. Bardem",
        "col3": "1889-01-10",
        "col4": "1972-11-06"
    },
    {
        "col0": "R. Banquells",
        "col1": "Mexico",
        "col2": "R. Banquells",
        "col3": "1917-06-25",
        "col4": "1990-10-27"
    },
    {
        "col0": "R. Vallone",
        "col1": "Rome",
        "col2": "E. Vallone",
        "col3": "1916-02-17",
        "col4": "2002-10-31"
    },
    {
        "col0": "R. Kempson",
        "col1": "New York",
        "col2": "V. Redgrave",
        "col3": "1910-05-28",
        "col4": "2003-05-24"
    },
    {
        "col0": "P. Kapoor",
        "col1": "Bombay",
        "col2": "R. Kapoor",
        "col3": "1906-11-03",
        "col4": "1972-05-29"
    },
    {
        "col0": "P. F. Zeid",
        "col1": "Amman",
        "col2": "P. Ra'ad",
        "col3": "1901-1-1",
        "col4": "1991-09-05"
    },
    {
        "col0": "P. Nazir",
        "col1": "Chennai",
        "col2": "Shanavas",
        "col3": "1929-12-16",
        "col4": "1989-01-16"
    },
    {
        "col0": "P. Nath",
        "col1": "Maharashtra",
        "col2": "P. Krishen",
        "col3": "1926-11-21",
        "col4": "1992-11-03"
    },
    {
        "col0": "P. Kaas",
        "col1": "Copenhagen",
        "col2": "N. L. Kaas",
        "col3": "1930-03-30",
        "col4": "1981-03-27"
    },
    {
        "col0": "Pran",
        "col1": "Maharashtra",
        "col2": "S. Sikand",
        "col3": "1920-02-12",
        "col4": "2013-07-12"
    },
    {
        "col0": "P. Colvig",
        "col1": "United States",
        "col2": "V. Colvig",
        "col3": "1892-09-11",
        "col4": "1967-10-03"
    },
    {
        "col0": "P. Cousteau",
        "col1": "Lisbon",
        "col2": "P. C. Jr.",
        "col3": "1940-12-30",
        "col4": "1979-06-28"
    },
    {
        "col0": "P. Sellers",
        "col1": "London",
        "col2": "M. Sellers",
        "col3": "1925-09-08",
        "col4": "1980-07-24"
    },
    {
        "col0": "P. O'Toole",
        "col1": "Wellington Hospital, London",
        "col2": "K. O'Toole",
        "col3": "1932-08-02",
        "col4": "2013-12-14"
    },
    {
        "col0": "P. Lindgren",
        "col1": "Stockholm",
        "col2": "M. Nielsen",
        "col3": "1915-12-13",
        "col4": "1981-05-30"
    },
    {
        "col0": "P. Cookson",
        "col1": "Massachusetts",
        "col2": "Peter W. Cookson, Jr.",
        "col3": "1913-05-08",
        "col4": "1990-01-06"
    },
    {
        "col0": "P. Butterworth",
        "col1": "Coventry",
        "col2": "T. Butterworth",
        "col3": "1919-02-04",
        "col4": "1979-01-16"
    },
    {
        "col0": "P. Armendariz",
        "col1": "California",
        "col2": "P. A. Jr.",
        "col3": "1912-05-09",
        "col4": "1963-06-18"
    },
    {
        "col0": "P. Winchell",
        "col1": "California",
        "col2": "A. Winchell",
        "col3": "1922-12-21",
        "col4": "2005-06-24"
    },
    {
        "col0": "P. Robeson",
        "col1": "Pennsylvania",
        "col2": "P. R. Jr.",
        "col3": "1898-04-09",
        "col4": "1976-01-23"
    },
    {
        "col0": "P. Newman",
        "col1": "Westport, Connecticut",
        "col2": "M. Newman",
        "col3": "1925-01-26",
        "col4": "2008-09-26"
    },
    {
        "col0": "P. Lange",
        "col1": "Ottoman Empire",
        "col2": "H. Lange",
        "col3": "1857-10-11",
        "col4": "1919-12-02"
    },
    {
        "col0": "P. Duke",
        "col1": "Coeur d'Alene, Idaho",
        "col2": "S. Astin",
        "col3": "1946-12-14",
        "col4": "2016-03-29"
    },
    {
        "col0": "P. Wymark",
        "col1": "Australia",
        "col2": "J. Wymark",
        "col3": "1926-07-11",
        "col4": "1970-10-20"
    },
    {
        "col0": "P. Troughton",
        "col1": "Columbus, Georgia",
        "col2": "D. Troughton",
        "col3": "1920-03-25",
        "col4": "1987-03-28"
    },
    {
        "col0": "P. McGoohan",
        "col1": "Los Angeles",
        "col2": "C. McGoohan",
        "col3": "1928-03-19",
        "col4": "2009-01-13"
    },
    {
        "col0": "P. Heron",
        "col1": "Zennor",
        "col2": "S. Heron",
        "col3": "1920-01-30",
        "col4": "1999-03-20"
    },
    {
        "col0": "P. Neal",
        "col1": "Edgartown, Massachusetts",
        "col2": "L. Dahl",
        "col3": "1926-01-20",
        "col4": "2010-08-08"
    },
    {
        "col0": "P. Hayes",
        "col1": "England",
        "col2": "R. O'Callaghan",
        "col3": "1909-12-22",
        "col4": "1998-09-19"
    },
    {
        "col0": "P. Mori",
        "col1": "Las Vegas Valley",
        "col2": "B. Welles",
        "col3": "1928-09-18",
        "col4": "1986-08-12"
    },
    {
        "col0": "P. Magalona",
        "col1": "Philippines",
        "col2": "F. Magalona",
        "col3": "1921-0-0",
        "col4": "1998-4-0"
    },
    {
        "col0": "P. Ramlee",
        "col1": "Kuala Lumpur",
        "col2": "N. P. Ramlee",
        "col3": "1929-03-22",
        "col4": "1973-05-29"
    },
    {
        "col0": "P. Lankesh",
        "col1": "Bangalore",
        "col2": "K. Lankesh",
        "col3": "1935-03-08",
        "col4": "2000-01-25"
    },
    {
        "col0": "P. J. Sarma",
        "col1": "Hyderabad",
        "col2": "P. R. Shankar",
        "col3": "1933-5-24",
        "col4": "2014-12-14"
    },
    {
        "col0": "O. Nelson",
        "col1": "Hollywood, California",
        "col2": "R. Nelson",
        "col3": "1906-03-20",
        "col4": "1975-06-03"
    },
    {
        "col0": "O. Fries",
        "col1": "California",
        "col2": "S. Fries",
        "col3": "1887-10-28",
        "col4": "1938-09-15"
    },
    {
        "col0": "O. Skinner",
        "col1": "New York City",
        "col2": "C. O. Skinner",
        "col3": "1858-06-28",
        "col4": "1942-01-04"
    },
    {
        "col0": "O. Davis",
        "col1": "Miami",
        "col2": "G. Davis",
        "col3": "1917-12-18",
        "col4": "2005-02-04"
    },
    {
        "col0": "O. Perkins",
        "col1": "Washington, D.C.",
        "col2": "A. Perkins",
        "col3": "1892-05-16",
        "col4": "1937-09-21"
    },
    {
        "col0": "O. Wilde",
        "col1": "French Third Republic",
        "col2": "C. Holland",
        "col3": "1854-10-16",
        "col4": "1900-11-30"
    },
    {
        "col0": "O. Welles",
        "col1": "Los Angeles",
        "col2": "B. Welles",
        "col3": "1915-05-06",
        "col4": "1985-10-10"
    },
    {
        "col0": "O. O'Neill",
        "col1": "Switzerland",
        "col2": "G. Chaplin",
        "col3": "1925-05-14",
        "col4": "1991-09-27"
    },
    {
        "col0": "O. Shivpuri",
        "col1": "Maharashtra",
        "col2": "R. Shivpuri",
        "col3": "1938-0-0",
        "col4": "1990-10-15"
    },
    {
        "col0": "O. S. Juan",
        "col1": "United States",
        "col2": "B. O'Brien",
        "col3": "1927-03-16",
        "col4": "2009-01-03"
    },
    {
        "col0": "O. Olsen",
        "col1": "Albuquerque, New Mexico",
        "col2": "M. Lear",
        "col3": "1892-11-06",
        "col4": "1963-01-26"
    },
    {
        "col0": "N. Westman",
        "col1": "Burbank, California",
        "col2": "K. Williamson",
        "col3": "1902-02-19",
        "col4": "1970-05-23"
    },
    {
        "col0": "Nutan",
        "col1": "India",
        "col2": "M. Bahl",
        "col3": "1936-06-04",
        "col4": "1991-02-21"
    },
    {
        "col0": "N. Yemm",
        "col1": "Rosebud, Victoria",
        "col2": "J. Yemm",
        "col3": "1933-03-23",
        "col4": "2015-02-03"
    },
    {
        "col0": "N. Mitchell",
        "col1": "England",
        "col2": "C. Mitchell",
        "col3": "1918-08-27",
        "col4": "2001-03-19"
    },
    {
        "col0": "N. Shearer",
        "col1": "California",
        "col2": "I. T. Jr.",
        "col3": "1902-08-11",
        "col4": "1983-06-12"
    },
    {
        "col0": "N. MacMillan",
        "col1": "British Columbia",
        "col2": "A. Arngrim",
        "col3": "1921-09-15",
        "col4": "2001-03-16"
    },
    {
        "col0": "N. Harrison",
        "col1": "Devon",
        "col2": "C. Harrison",
        "col3": "1934-01-29",
        "col4": "2013-10-19"
    }
]