[
    {
        "col0": "Yellow",
        "col1": "100",
        "col2": "255",
        "col3": "0",
        "col4": "100",
        "col5": "60"
    },
    {
        "col0": "Yale Blue",
        "col1": "100",
        "col2": "0",
        "col3": "40",
        "col4": "8",
        "col5": "210"
    },
    {
        "col0": "Wine",
        "col1": "59",
        "col2": "114",
        "col3": "55",
        "col4": "52",
        "col5": "353"
    },
    {
        "col0": "Wheat",
        "col1": "26",
        "col2": "245",
        "col3": "3",
        "col4": "26",
        "col5": "39"
    },
    {
        "col0": "Viridian",
        "col1": "51",
        "col2": "64",
        "col3": "11",
        "col4": "63",
        "col5": "161"
    },
    {
        "col0": "Violet",
        "col1": "100",
        "col2": "127",
        "col3": "0",
        "col4": "0",
        "col5": "270"
    },
    {
        "col0": "Vermilion",
        "col1": "77",
        "col2": "227",
        "col3": "0",
        "col4": "71",
        "col5": "5"
    },
    {
        "col0": "Verdigris",
        "col1": "46",
        "col2": "67",
        "col3": "30",
        "col4": "3",
        "col5": "177"
    },
    {
        "col0": "Venetian red",
        "col1": "84",
        "col2": "200",
        "col3": "0",
        "col4": "97",
        "col5": "0"
    },
    {
        "col0": "Vanilla",
        "col1": "30",
        "col2": "243",
        "col3": "5",
        "col4": "30",
        "col5": "48"
    },
    {
        "col0": "Umber",
        "col1": "28",
        "col2": "99",
        "col3": "61",
        "col4": "28",
        "col5": "21"
    },
    {
        "col0": "Tuscan red",
        "col1": "61",
        "col2": "124",
        "col3": "51",
        "col4": "61",
        "col5": "0"
    },
    {
        "col0": "Turquoise",
        "col1": "71",
        "col2": "64",
        "col3": "12",
        "col4": "7",
        "col5": "174"
    },
    {
        "col0": "Tufts Blue",
        "col1": "71",
        "col2": "62",
        "col3": "0",
        "col4": "0",
        "col5": "210"
    },
    {
        "col0": "Terra cotta",
        "col1": "60",
        "col2": "226",
        "col3": "11",
        "col4": "60",
        "col5": "10"
    },
    {
        "col0": "Teal",
        "col1": "100",
        "col2": "0",
        "col3": "8",
        "col4": "49",
        "col5": "180"
    },
    {
        "col0": "Taupe",
        "col1": "17",
        "col2": "72",
        "col3": "30",
        "col4": "60",
        "col5": "30"
    },
    {
        "col0": "Tan",
        "col1": "33",
        "col2": "210",
        "col3": "18",
        "col4": "33",
        "col5": "34"
    },
    {
        "col0": "Sunset",
        "col1": "34",
        "col2": "250",
        "col3": "2",
        "col4": "34",
        "col5": "35"
    },
    {
        "col0": "Straw",
        "col1": "51",
        "col2": "228",
        "col3": "11",
        "col4": "51",
        "col5": "54"
    },
    {
        "col0": "Steel blue",
        "col1": "61",
        "col2": "70",
        "col3": "29",
        "col4": "0",
        "col5": "207"
    },
    {
        "col0": "Spring green",
        "col1": "100",
        "col2": "0",
        "col3": "0",
        "col4": "50",
        "col5": "150"
    },
    {
        "col0": "Spring bud",
        "col1": "90",
        "col2": "167",
        "col3": "0",
        "col4": "80",
        "col5": "88"
    },
    {
        "col0": "Slate gray",
        "col1": "22",
        "col2": "112",
        "col3": "4",
        "col4": "34",
        "col5": "210"
    },
    {
        "col0": "Sky blue",
        "col1": "43",
        "col2": "135",
        "col3": "8",
        "col4": "0",
        "col5": "197"
    },
    {
        "col0": "Shades of yellow",
        "col1": "100",
        "col2": "255",
        "col3": "0",
        "col4": "100",
        "col5": "60"
    },
    {
        "col0": "Shades of white",
        "col1": "0",
        "col2": "255",
        "col3": "0",
        "col4": "0",
        "col5": "0"
    },
    {
        "col0": "Shades of violet",
        "col1": "100",
        "col2": "143",
        "col3": "0",
        "col4": "0",
        "col5": "274"
    },
    {
        "col0": "Shades of pink",
        "col1": "25",
        "col2": "255",
        "col3": "0",
        "col4": "14",
        "col5": "350"
    },
    {
        "col0": "Shades of orange",
        "col1": "100",
        "col2": "255",
        "col3": "0",
        "col4": "100",
        "col5": "30"
    },
    {
        "col0": "Shades of magenta",
        "col1": "100",
        "col2": "255",
        "col3": "0",
        "col4": "0",
        "col5": "300"
    },
    {
        "col0": "Shades of cyan",
        "col1": "100",
        "col2": "0",
        "col3": "0",
        "col4": "0",
        "col5": "180"
    },
    {
        "col0": "Shades of brown",
        "col1": "100",
        "col2": "150",
        "col3": "41",
        "col4": "100",
        "col5": "30"
    },
    {
        "col0": "Shades of blue",
        "col1": "100",
        "col2": "0",
        "col3": "0",
        "col4": "0",
        "col5": "240"
    },
    {
        "col0": "Sepia",
        "col1": "82",
        "col2": "112",
        "col3": "56",
        "col4": "82",
        "col5": "30"
    },
    {
        "col0": "Seashell",
        "col1": "7",
        "col2": "255",
        "col3": "0",
        "col4": "4",
        "col5": "25"
    },
    {
        "col0": "Seal brown",
        "col1": "60",
        "col2": "89",
        "col3": "57",
        "col4": "93",
        "col5": "0"
    },
    {
        "col0": "School bus yellow",
        "col1": "100",
        "col2": "255",
        "col3": "0",
        "col4": "100",
        "col5": "51"
    },
    {
        "col0": "Scarlet",
        "col1": "100",
        "col2": "255",
        "col3": "0",
        "col4": "100",
        "col5": "9"
    },
    {
        "col0": "Sapphire",
        "col1": "91",
        "col2": "15",
        "col3": "27",
        "col4": "0",
        "col5": "216"
    },
    {
        "col0": "Salmon",
        "col1": "52",
        "col2": "250",
        "col3": "0",
        "col4": "69",
        "col5": "14"
    },
    {
        "col0": "Saffron",
        "col1": "80",
        "col2": "244",
        "col3": "5",
        "col4": "81",
        "col5": "45"
    },
    {
        "col0": "Safety orange",
        "col1": "100",
        "col2": "255",
        "col3": "0",
        "col4": "100",
        "col5": "28"
    },
    {
        "col0": "Rust",
        "col1": "92",
        "col2": "183",
        "col3": "13",
        "col4": "100",
        "col5": "18"
    },
    {
        "col0": "Russet",
        "col1": "79",
        "col2": "128",
        "col3": "50",
        "col4": "79",
        "col5": "26"
    },
    {
        "col0": "Ruby",
        "col1": "92",
        "col2": "224",
        "col3": "12",
        "col4": "57",
        "col5": "337"
    },
    {
        "col0": "Royal blue",
        "col1": "100",
        "col2": "0",
        "col3": "60",
        "col4": "0",
        "col5": "219"
    },
    {
        "col0": "Rose",
        "col1": "100",
        "col2": "255",
        "col3": "0",
        "col4": "50",
        "col5": "330"
    },
    {
        "col0": "Robin egg blue",
        "col1": "100",
        "col2": "0",
        "col3": "0",
        "col4": "27",
        "col5": "180"
    },
    {
        "col0": "Raspberry",
        "col1": "95",
        "col2": "227",
        "col3": "11",
        "col4": "60",
        "col5": "337"
    },
    {
        "col0": "Raisin black",
        "col1": "8",
        "col2": "36",
        "col3": "86",
        "col4": "0",
        "col5": "300"
    },
    {
        "col0": "Purple",
        "col1": "100",
        "col2": "128",
        "col3": "0",
        "col4": "0",
        "col5": "300"
    },
    {
        "col0": "Puce",
        "col1": "59",
        "col2": "114",
        "col3": "55",
        "col4": "52",
        "col5": "353"
    },
    {
        "col0": "Powder blue",
        "col1": "70",
        "col2": "176",
        "col3": "10",
        "col4": "0",
        "col5": "220"
    },
    {
        "col0": "Plum",
        "col1": "514",
        "col2": "142",
        "col3": "44",
        "col4": "6",
        "col5": "347"
    },
    {
        "col0": "Pink",
        "col1": "25",
        "col2": "255",
        "col3": "0",
        "col4": "14",
        "col5": "350"
    },
    {
        "col0": "Persian green",
        "col1": "75",
        "col2": "0",
        "col3": "0",
        "col4": "22",
        "col5": "135"
    },
    {
        "col0": "Persian blue",
        "col1": "85",
        "col2": "28",
        "col3": "11",
        "col4": "21",
        "col5": "249"
    },
    {
        "col0": "Periwinkle",
        "col1": "20",
        "col2": "204",
        "col3": "0",
        "col4": "0",
        "col5": "240"
    },
    {
        "col0": "Peach",
        "col1": "29",
        "col2": "255",
        "col3": "0",
        "col4": "29",
        "col5": "40"
    },
    {
        "col0": "Oxford Blue",
        "col1": "100",
        "col2": "0",
        "col3": "60",
        "col4": "0",
        "col5": "212"
    },
    {
        "col0": "Orchid",
        "col1": "49",
        "col2": "218",
        "col3": "15",
        "col4": "2",
        "col5": "302"
    },
    {
        "col0": "Orange",
        "col1": "100",
        "col2": "255",
        "col3": "0",
        "col4": "100",
        "col5": "30"
    },
    {
        "col0": "Olive",
        "col1": "100",
        "col2": "128",
        "col3": "50",
        "col4": "100",
        "col5": "60"
    },
    {
        "col0": "Old gold",
        "col1": "71",
        "col2": "207",
        "col3": "19",
        "col4": "71",
        "col5": "49"
    },
    {
        "col0": "Ochre",
        "col1": "83",
        "col2": "204",
        "col3": "20",
        "col4": "83",
        "col5": "30"
    },
    {
        "col0": "Navy blue",
        "col1": "100",
        "col2": "0",
        "col3": "17",
        "col4": "14",
        "col5": "240"
    },
    {
        "col0": "Navajo white",
        "col1": "32",
        "col2": "255",
        "col3": "0",
        "col4": "32",
        "col5": "36"
    },
    {
        "col0": "Naples yellow",
        "col1": "62",
        "col2": "250",
        "col3": "2",
        "col4": "62",
        "col5": "48"
    },
    {
        "col0": "NIVO",
        "col1": "15",
        "col2": "65",
        "col3": "70",
        "col4": "15",
        "col5": "120"
    },
    {
        "col0": "Mustard",
        "col1": "66",
        "col2": "255",
        "col3": "0",
        "col4": "77",
        "col5": "47"
    },
    {
        "col0": "Mulberry",
        "col1": "67",
        "col2": "197",
        "col3": "0",
        "col4": "0",
        "col5": "285"
    },
    {
        "col0": "Mikado yellow",
        "col1": "95",
        "col2": "255",
        "col3": "0",
        "col4": "95",
        "col5": "45"
    },
    {
        "col0": "Midnight green",
        "col1": "100",
        "col2": "0",
        "col3": "70",
        "col4": "26",
        "col5": "187"
    },
    {
        "col0": "Midnight blue",
        "col1": "78",
        "col2": "25",
        "col3": "29",
        "col4": "39",
        "col5": "240"
    },
    {
        "col0": "Mauve",
        "col1": "31",
        "col2": "224",
        "col3": "0",
        "col4": "0",
        "col5": "276"
    },
    {
        "col0": "Marigold",
        "col1": "85",
        "col2": "234",
        "col3": "8",
        "col4": "86",
        "col5": "39"
    },
    {
        "col0": "Marian blue",
        "col1": "30",
        "col2": "225",
        "col3": "0",
        "col4": "0",
        "col5": "193"
    },
    {
        "col0": "Marengo",
        "col1": "25",
        "col2": "76",
        "col3": "60",
        "col4": "0",
        "col5": "212"
    },
    {
        "col0": "Maize",
        "col1": "63",
        "col2": "251",
        "col3": "2",
        "col4": "63",
        "col5": "54"
    },
    {
        "col0": "Mahogany",
        "col1": "100",
        "col2": "192",
        "col3": "25",
        "col4": "100",
        "col5": "20"
    },
    {
        "col0": "Magenta",
        "col1": "100",
        "col2": "255",
        "col3": "0",
        "col4": "0",
        "col5": "300"
    },
    {
        "col0": "Liver",
        "col1": "31",
        "col2": "103",
        "col3": "60",
        "col4": "31",
        "col5": "9"
    },
    {
        "col0": "Lion",
        "col1": "45",
        "col2": "193",
        "col3": "24",
        "col4": "20",
        "col5": "33"
    },
    {
        "col0": "Lime",
        "col1": "100",
        "col2": "191",
        "col3": "0",
        "col4": "100",
        "col5": "75"
    },
    {
        "col0": "Lilac",
        "col1": "19",
        "col2": "200",
        "col3": "22",
        "col4": "0",
        "col5": "300"
    },
    {
        "col0": "Lavender",
        "col1": "8",
        "col2": "230",
        "col3": "2",
        "col4": "0",
        "col5": "240"
    }
]