[
    {
        "col0": "William Boyd House",
        "col1": "1800",
        "col2": "4046",
        "col3": "1988-04-13"
    },
    {
        "col0": "William Bland House",
        "col1": "1850",
        "col2": "4856",
        "col3": "1988-10-04"
    },
    {
        "col0": "William Berly House",
        "col1": "1860",
        "col2": "4856",
        "col3": "1977-11-23"
    },
    {
        "col0": "William Beers House",
        "col1": "1839",
        "col2": "404",
        "col3": "1969-04-16"
    },
    {
        "col0": "William Bates House",
        "col1": "1835",
        "col2": "44110",
        "col3": "1978-12-04"
    },
    {
        "col0": "William Barnwell House",
        "col1": "1816",
        "col2": "16187",
        "col3": "1971-03-24"
    },
    {
        "col0": "William Barnett House",
        "col1": "1813",
        "col2": "10117",
        "col3": "1989-11-13"
    },
    {
        "col0": "William Baker House",
        "col1": "1830",
        "col2": "24281",
        "col3": "1978-03-08"
    },
    {
        "col0": "William Bailey House",
        "col1": "1825",
        "col2": "9307",
        "col3": "1982-11-12"
    },
    {
        "col0": "William B. Willis House",
        "col1": "1835",
        "col2": "8093",
        "col3": "1983-09-22"
    },
    {
        "col0": "William B. Hunt House",
        "col1": "1862",
        "col2": "22662",
        "col3": "1997-01-09"
    },
    {
        "col0": "William B. Hanna School",
        "col1": "1908",
        "col2": "8093",
        "col3": "1986-12-04"
    },
    {
        "col0": "William B. Dunlap Mansion",
        "col1": "1840",
        "col2": "2428",
        "col3": "1980-08-29"
    },
    {
        "col0": "William Austin House",
        "col1": "1870",
        "col2": "2832",
        "col3": "2002-07-19"
    },
    {
        "col0": "William Augustus Bootle Federal Building and United States Courthouse",
        "col1": "1908",
        "col2": "4046",
        "col3": "1972-01-20"
    },
    {
        "col0": "William Archer House",
        "col1": "1811",
        "col2": "3237",
        "col3": "1980-11-19"
    },
    {
        "col0": "William Apollos James House",
        "col1": "1903",
        "col2": "4046",
        "col3": "1999-10-06"
    },
    {
        "col0": "William Alston Rives House",
        "col1": "1825",
        "col2": "16187",
        "col3": "1985-07-05"
    },
    {
        "col0": "William Allison House",
        "col1": "1880",
        "col2": "6070",
        "col3": "1977-04-18"
    },
    {
        "col0": "William Aiken House and Associated Railroad Structures",
        "col1": "1807",
        "col2": "109265",
        "col3": "1966-10-15"
    },
    {
        "col0": "William A. Wittmer Lustron House",
        "col1": "1949",
        "col2": "1214",
        "col3": "2000-07-25"
    },
    {
        "col0": "William A. Leet and Frederick Hassler Farmstead District",
        "col1": "1916",
        "col2": "17806",
        "col3": "1999-05-05"
    },
    {
        "col0": "William A. Jeffreys House",
        "col1": "1842",
        "col2": "24281",
        "col3": "1976-06-23"
    },
    {
        "col0": "William A. Heiss House and Buggy Shop",
        "col1": "1870",
        "col2": "10926",
        "col3": "1979-08-06"
    },
    {
        "col0": "William A. Haseltine House",
        "col1": "1935",
        "col2": "1214",
        "col3": "1991-10-17"
    },
    {
        "col0": "William A. Graham Jr. Farm",
        "col1": "1890",
        "col2": "40063",
        "col3": "1977-05-06"
    },
    {
        "col0": "William A. Buckingham House",
        "col1": "1847",
        "col2": "809",
        "col3": "1982-04-29"
    },
    {
        "col0": "Willet Titus House",
        "col1": "1860",
        "col2": "2023",
        "col3": "1986-10-02"
    },
    {
        "col0": "Willard Homestead",
        "col1": "1787",
        "col2": "8903",
        "col3": "1988-01-14"
    },
    {
        "col0": "Willard D. Purdy Junior High and Vocational School",
        "col1": "1919",
        "col2": "8093",
        "col3": "1992-09-08"
    },
    {
        "col0": "Willard Carpenter House",
        "col1": "1848",
        "col2": "4046",
        "col3": "1978-02-10"
    },
    {
        "col0": "Willard Bunnell House",
        "col1": "1850",
        "col2": "4046",
        "col3": "1973-04-23"
    },
    {
        "col0": "Willard-Fisk House",
        "col1": "1790",
        "col2": "21245",
        "col3": "1996-02-23"
    },
    {
        "col0": "Willakenzie Grange Hall",
        "col1": "1913",
        "col2": "3237",
        "col3": "2009-01-22"
    },
    {
        "col0": "Will Rogers Memorial Hospital",
        "col1": "1928",
        "col2": "23471",
        "col3": "1983-09-08"
    },
    {
        "col0": "Will Reed Farm House",
        "col1": "1895",
        "col2": "2023",
        "col3": "1978-07-14"
    },
    {
        "col0": "Will Mayfield College",
        "col1": "1884",
        "col2": "5139",
        "col3": "2013-01-14"
    },
    {
        "col0": "Will County Historical Society Headquarters",
        "col1": "1845",
        "col2": "404",
        "col3": "1972-05-17"
    },
    {
        "col0": "Wilks Brooks House",
        "col1": "1834",
        "col2": "2832",
        "col3": "1980-05-16"
    },
    {
        "col0": "Wilkinson House",
        "col1": "1884",
        "col2": "8093",
        "col3": "1985-09-16"
    },
    {
        "col0": "Wilkinson House",
        "col1": "1932",
        "col2": "40468",
        "col3": "2006-11-29"
    },
    {
        "col0": "Wilkinson-Dozier House",
        "col1": "1815",
        "col2": "8093",
        "col3": "1974-10-23"
    },
    {
        "col0": "Wilkins Farm",
        "col1": "1776",
        "col2": "14163",
        "col3": "2014-02-10"
    },
    {
        "col0": "Wilkin County Courthouse",
        "col1": "1928",
        "col2": "4046",
        "col3": "1980-07-17"
    },
    {
        "col0": "Wilkes Hosiery Mills",
        "col1": "1923",
        "col2": "5665",
        "col3": "2008-04-30"
    }
]