[
    {
        "col0": "W. Churchill",
        "col1": "W. Churchill",
        "col2": "2010-03-02",
        "col3": "1940-10-10"
    },
    {
        "col0": "W. T. Buckland",
        "col1": "A. Buckland",
        "col2": "1876-01-17",
        "col3": "1819-0-0"
    },
    {
        "col0": "W. S. Allen",
        "col1": "J. Candlish",
        "col2": "1915-01-15",
        "col3": "1831-06-22"
    },
    {
        "col0": "W. Richmond",
        "col1": "H. Atkinson",
        "col2": "1895-08-03",
        "col3": "1821-07-12"
    },
    {
        "col0": "W. Landsborough",
        "col1": "D. Landsborough",
        "col2": "1886-03-16",
        "col3": "1825-02-21"
    },
    {
        "col0": "W. L. Nelson",
        "col1": "H. M. Nelson",
        "col2": "1887-06-13",
        "col3": "1808-09-20"
    },
    {
        "col0": "W. Johnston",
        "col1": "C. Johnston",
        "col2": "1902-07-17",
        "col3": "1829-02-22"
    },
    {
        "col0": "W. H. Field",
        "col1": "F. Hodgkins",
        "col2": "1944-12-13",
        "col3": "1861-07-17"
    },
    {
        "col0": "W. H. Groom",
        "col1": "L. Groom",
        "col2": "1901-08-08",
        "col3": "1833-03-09"
    },
    {
        "col0": "W. Gisborne",
        "col1": "T. Gisborne",
        "col2": "1898-01-07",
        "col3": "1825-08-13"
    },
    {
        "col0": "W. Gibson",
        "col1": "D. Gibson",
        "col2": "1955-05-22",
        "col3": "1869-05-19"
    },
    {
        "col0": "W. Adams",
        "col1": "A. Adams",
        "col2": "1884-07-23",
        "col3": "1811-03-21"
    },
    {
        "col0": "W. A. Russell",
        "col1": "C. Russell",
        "col2": "1932-01-08",
        "col3": "1874-1-1"
    },
    {
        "col0": "W. Tirikatene-Sullivan",
        "col1": "R. Tirikatene",
        "col2": "2011-07-20",
        "col3": "1932-01-09"
    },
    {
        "col0": "V. Reed",
        "col1": "J. Reed",
        "col2": "1963-05-26",
        "col3": "1871-05-07"
    },
    {
        "col0": "Tufton Beamish, Baron Chelwood",
        "col1": "Tufton Percy Hamilton Beamish",
        "col2": "1989-04-06",
        "col3": "1917-01-27"
    },
    {
        "col0": "T. G. Sr.",
        "col1": "T. G. Jr.",
        "col2": "1994-11-14",
        "col3": "1908-05-07"
    },
    {
        "col0": "T. Brennan",
        "col1": "F. Brennan",
        "col2": "1944-1-3",
        "col3": "1866-0-0"
    },
    {
        "col0": "T. Hughes",
        "col1": "L. Turnbull",
        "col2": "1930-04-15",
        "col3": "1863-04-19"
    },
    {
        "col0": "T. G. Wallace",
        "col1": "N. C. Wallace",
        "col2": "1921-02-20",
        "col3": "1879-05-07"
    },
    {
        "col0": "T. Ewing",
        "col1": "N. Ewing",
        "col2": "1920-09-15",
        "col3": "1856-10-09"
    },
    {
        "col0": "T. Cowan",
        "col1": "J. L. Cowan",
        "col2": "1890-09-14",
        "col3": "1839-12-05"
    },
    {
        "col0": "T. Beirne",
        "col1": "A. Douglas",
        "col2": "1949-04-21",
        "col3": "1860-09-09"
    },
    {
        "col0": "T. Haultain",
        "col1": "C. Morison",
        "col2": "1902-10-18",
        "col3": "1817-05-27"
    },
    {
        "col0": "T. McCombs",
        "col1": "E. McCombs",
        "col2": "1982-11-06",
        "col3": "1905-09-05"
    }
]