[
    {
        "col0": "Woodland Courts",
        "col1": "1938",
        "col2": "6070",
        "col3": "1992-11-27"
    },
    {
        "col0": "Woodland Cemetery",
        "col1": "1846",
        "col2": "182108",
        "col3": "2002-03-01"
    },
    {
        "col0": "Woodland Baptist Church",
        "col1": "1920",
        "col2": "24281",
        "col3": "2003-03-26"
    },
    {
        "col0": "Woodland",
        "col1": "1760",
        "col2": "683918",
        "col3": "1973-09-20"
    },
    {
        "col0": "Woodland-Olney School",
        "col1": "1928",
        "col2": "8093",
        "col3": "1997-10-08"
    },
    {
        "col0": "Woodford",
        "col1": "1756",
        "col2": "4046",
        "col3": "1967-12-24"
    },
    {
        "col0": "Woodend",
        "col1": "1927",
        "col2": "131927",
        "col3": "1980-03-20"
    },
    {
        "col0": "Wooddale Historic District",
        "col1": "1826",
        "col2": "0",
        "col3": "1979-08-24"
    },
    {
        "col0": "Woodcrest",
        "col1": "1901",
        "col2": "11331",
        "col3": "2008-12-30"
    },
    {
        "col0": "Woodcrest",
        "col1": "1895",
        "col2": "116954",
        "col3": "1993-08-09"
    },
    {
        "col0": "Woodchopper Roadhouse",
        "col1": "1910",
        "col2": "8093",
        "col3": "1987-07-20"
    },
    {
        "col0": "Woodbury Historic District No. 1",
        "col1": "1680",
        "col2": "809371",
        "col3": "1971-03-11"
    },
    {
        "col0": "Woodbury Friends' Meetinghouse",
        "col1": "1715",
        "col2": "10117",
        "col3": "1973-02-06"
    },
    {
        "col0": "Woodbury",
        "col1": "1834",
        "col2": "6070",
        "col3": "1974-10-09"
    },
    {
        "col0": "Woodburn Circle",
        "col1": "1870",
        "col2": "4046",
        "col3": "1974-12-04"
    },
    {
        "col0": "Woodburn",
        "col1": "1777",
        "col2": "971245",
        "col3": "1976-12-12"
    },
    {
        "col0": "Woodburn",
        "col1": "1821",
        "col2": "74866",
        "col3": "2000-01-28"
    },
    {
        "col0": "Woodburn",
        "col1": "1815",
        "col2": "242811",
        "col3": "1978-12-12"
    },
    {
        "col0": "Woodbourne Reformed Church Complex",
        "col1": "1837",
        "col2": "16187",
        "col3": "2003-11-07"
    },
    {
        "col0": "Woodbourne",
        "col1": "1810",
        "col2": "16187",
        "col3": "1971-08-26"
    },
    {
        "col0": "Woodbourne",
        "col1": "1805",
        "col2": "213997",
        "col3": "1999-06-28"
    },
    {
        "col0": "Woodbourne",
        "col1": "1785",
        "col2": "364217",
        "col3": "1973-07-02"
    },
    {
        "col0": "Woodbine Brotherhood Synagogue",
        "col1": "1896",
        "col2": "4046",
        "col3": "1980-09-17"
    },
    {
        "col0": "Woodbine",
        "col1": "1920",
        "col2": "20234",
        "col3": "1994-09-08"
    },
    {
        "col0": "Woodbine-Palmetto-Gates Historic District",
        "col1": "1908",
        "col2": "32374",
        "col3": "1983-09-30"
    },
    {
        "col0": "Woodard Hall",
        "col1": "1792",
        "col2": "910542",
        "col3": "1975-10-10"
    },
    {
        "col0": "Woodard Family Rural Historic District",
        "col1": "1832",
        "col2": "2227389",
        "col3": "1986-08-29"
    },
    {
        "col0": "Wood Lawn",
        "col1": "1836",
        "col2": "57870",
        "col3": "1980-11-24"
    },
    {
        "col0": "Wood House",
        "col1": "1890",
        "col2": "3237",
        "col3": "1983-12-15"
    },
    {
        "col0": "Wood Hall",
        "col1": "1874",
        "col2": "6070",
        "col3": "1982-07-26"
    },
    {
        "col0": "Wood Grove",
        "col1": "1825",
        "col2": "339126",
        "col3": "1982-09-23"
    },
    {
        "col0": "Wood County Courthouse and Jail",
        "col1": "1894",
        "col2": "97124",
        "col3": "1974-06-25"
    },
    {
        "col0": "Wood County Courthouse",
        "col1": "1899",
        "col2": "5260",
        "col3": "1979-08-29"
    },
    {
        "col0": "Wood-Tellkamp House",
        "col1": "1872",
        "col2": "8093",
        "col3": "1995-01-24"
    },
    {
        "col0": "Womelsdorf Historic District",
        "col1": "1880",
        "col2": "28539645",
        "col3": "1982-03-10"
    },
    {
        "col0": "Woman's Club of White Plains",
        "col1": "1910",
        "col2": "16187",
        "col3": "2010-10-20"
    },
    {
        "col0": "Woman's Club of Redondo Beach",
        "col1": "1922",
        "col2": "404",
        "col3": "1984-04-19"
    },
    {
        "col0": "Woman's Club House",
        "col1": "1911",
        "col2": "4046",
        "col3": "1980-11-28"
    },
    {
        "col0": "Womack-Parker House",
        "col1": "1878",
        "col2": "21853",
        "col3": "1978-12-01"
    },
    {
        "col0": "Wollner Building",
        "col1": "1906",
        "col2": "404",
        "col3": "1984-08-23"
    },
    {
        "col0": "Wolfeboro Centre Community Church",
        "col1": "1841",
        "col2": "1214",
        "col3": "1984-03-15"
    },
    {
        "col0": "Wolf Mountains Battlefield",
        "col1": "1877",
        "col2": "11153136",
        "col3": "2001-01-10"
    },
    {
        "col0": "Witthoefft House",
        "col1": "1957",
        "col2": "11128",
        "col3": "2011-02-22"
    },
    {
        "col0": "Witter House",
        "col1": "1820",
        "col2": "4046",
        "col3": "1970-10-06"
    },
    {
        "col0": "Witmer's Tavern",
        "col1": "1725",
        "col2": "4046",
        "col3": "1978-12-01"
    },
    {
        "col0": "Witherspoon Street School for Colored Children",
        "col1": "1858",
        "col2": "3035",
        "col3": "2005-03-09"
    },
    {
        "col0": "Withers Log House",
        "col1": "1931",
        "col2": "1214",
        "col3": "2000-04-06"
    },
    {
        "col0": "Wissahickon",
        "col1": "1911",
        "col2": "2832",
        "col3": "1983-11-25"
    },
    {
        "col0": "Wise County Courthouse",
        "col1": "1896",
        "col2": "4046",
        "col3": "1981-03-02"
    },
    {
        "col0": "Wisconsin Heights Battlefield",
        "col1": "1832",
        "col2": "283279",
        "col3": "2002-01-31"
    },
    {
        "col0": "Wisconsin Concrete Park",
        "col1": "1948",
        "col2": "72843",
        "col3": "2005-10-28"
    },
    {
        "col0": "Wiscasset Jail and Museum",
        "col1": "1809",
        "col2": "20234",
        "col3": "1970-01-26"
    },
    {
        "col0": "Wirts House",
        "col1": "1765",
        "col2": "16187",
        "col3": "1992-01-22"
    },
    {
        "col0": "Winyah Indigo School",
        "col1": "1908",
        "col2": "5260",
        "col3": "1988-11-03"
    },
    {
        "col0": "Winton Place Methodist Episcopal Church",
        "col1": "1884",
        "col2": "4046",
        "col3": "1980-03-03"
    },
    {
        "col0": "Winthrop Mill",
        "col1": "1650",
        "col2": "16187",
        "col3": "1982-11-30"
    },
    {
        "col0": "Winthrop Center/Metcalf Square Historic District",
        "col1": "1795",
        "col2": "169967",
        "col3": "2010-03-23"
    },
    {
        "col0": "Winters Lane Historic District",
        "col1": "1867",
        "col2": "198295",
        "col3": "2007-12-21"
    },
    {
        "col0": "Winterport Congregational Church",
        "col1": "1831",
        "col2": "4046",
        "col3": "1973-04-24"
    },
    {
        "col0": "Winter Street Church",
        "col1": "1843",
        "col2": "4046",
        "col3": "1971-07-27"
    },
    {
        "col0": "Winston Place",
        "col1": "1838",
        "col2": "60702",
        "col3": "1987-03-19"
    },
    {
        "col0": "Winston-Salem Tobacco Historic District",
        "col1": "1890",
        "col2": "125452",
        "col3": "2009-08-05"
    },
    {
        "col0": "Winsted",
        "col1": "1805",
        "col2": "20234",
        "col3": "1979-09-19"
    },
    {
        "col0": "Winstead House",
        "col1": "1870",
        "col2": "14973",
        "col3": "1979-04-18"
    },
    {
        "col0": "Winstead Hill",
        "col1": "1864",
        "col2": "39659",
        "col3": "1974-11-29"
    },
    {
        "col0": "Winona Lake Historic District",
        "col1": "1887",
        "col2": "194249",
        "col3": "1993-12-10"
    },
    {
        "col0": "Winona",
        "col1": "1681",
        "col2": "0",
        "col3": "1969-10-01"
    },
    {
        "col0": "Winona",
        "col1": "1909",
        "col2": "125452",
        "col3": "2001-07-05"
    },
    {
        "col0": "Winnsboro Historic District",
        "col1": "1785",
        "col2": "1104791",
        "col3": "1971-10-14"
    },
    {
        "col0": "Winnie Davis Hall",
        "col1": "1904",
        "col2": "1214",
        "col3": "1977-04-29"
    },
    {
        "col0": "Winnemucca Main Post Office",
        "col1": "1921",
        "col2": "1618",
        "col3": "1990-02-28"
    },
    {
        "col0": "Winnemucca Hotel",
        "col1": "1863",
        "col2": "1618",
        "col3": "2005-05-26"
    },
    {
        "col0": "Winn Road School",
        "col1": "1846",
        "col2": "1214",
        "col3": "1984-03-22"
    },
    {
        "col0": "Winkelman Bridge",
        "col1": "1916",
        "col2": "809",
        "col3": "1988-09-30"
    },
    {
        "col0": "Wingmead",
        "col1": "1939",
        "col2": "22225335",
        "col3": "2011-05-23"
    },
    {
        "col0": "Wingate Commercial Historic District",
        "col1": "1888",
        "col2": "289350",
        "col3": "2014-12-01"
    },
    {
        "col0": "Wing Park Golf Course",
        "col1": "1908",
        "col2": "210436",
        "col3": "2009-02-18"
    },
    {
        "col0": "Wing Family Cemetery",
        "col1": "1867",
        "col2": "1618",
        "col3": "1991-10-16"
    },
    {
        "col0": "Winfield Corners Stone House",
        "col1": "1732",
        "col2": "23067",
        "col3": "1999-08-12"
    },
    {
        "col0": "Winfall Historic District",
        "col1": "1881",
        "col2": "80937",
        "col3": "2003-01-15"
    },
    {
        "col0": "Windy Run Grade School",
        "col1": "1889",
        "col2": "2023",
        "col3": "1984-01-12"
    },
    {
        "col0": "Windswept Farm",
        "col1": "1823",
        "col2": "322129",
        "col3": "1989-09-07"
    },
    {
        "col0": "Windswept Acres-Powers House",
        "col1": "1800",
        "col2": "194249",
        "col3": "1985-06-21"
    },
    {
        "col0": "Windswept",
        "col1": "1936",
        "col2": "20234",
        "col3": "2007-05-08"
    },
    {
        "col0": "Windsor Village Historic District",
        "col1": "1810",
        "col2": "222577",
        "col3": "1980-07-30"
    },
    {
        "col0": "Windsor Ruins",
        "col1": "1859",
        "col2": "8498",
        "col3": "1971-11-23"
    },
    {
        "col0": "Windsor Mills Christ Church Episcopal",
        "col1": "1832",
        "col2": "4046",
        "col3": "1975-05-29"
    },
    {
        "col0": "Windsor Historic District",
        "col1": "1768",
        "col2": "275186",
        "col3": "1991-07-29"
    },
    {
        "col0": "Windsor Castle",
        "col1": "1760",
        "col2": "202342",
        "col3": "1987-12-14"
    },
    {
        "col0": "Windsor Castle",
        "col1": "1750",
        "col2": "640617",
        "col3": "2000-08-02"
    },
    {
        "col0": "Windsor Avenue Congregational Church",
        "col1": "1871",
        "col2": "2428",
        "col3": "1993-04-03"
    },
    {
        "col0": "Windsor",
        "col1": "1862",
        "col2": "153780",
        "col3": "1980-07-30"
    },
    {
        "col0": "Windmill at Water Mill",
        "col1": "1800",
        "col2": "4046",
        "col3": "1978-12-27"
    },
    {
        "col0": "Windham Village Historic District",
        "col1": "1785",
        "col2": "182108",
        "col3": "1984-11-01"
    },
    {
        "col0": "Windham Center Historic District",
        "col1": "1750",
        "col2": "829605",
        "col3": "1979-06-04"
    },
    {
        "col0": "Windermere",
        "col1": "1891",
        "col2": "20234",
        "col3": "1979-11-14"
    },
    {
        "col0": "Windber Historic District",
        "col1": "1897",
        "col2": "1210010",
        "col3": "1991-11-14"
    },
    {
        "col0": "Wind Cave National Park Administrative and Utility Area Historic District",
        "col1": "1905",
        "col2": "84983",
        "col3": "1984-07-11"
    },
    {
        "col0": "Winchester Town Hall",
        "col1": "1911",
        "col2": "1618",
        "col3": "1987-08-27"
    },
    {
        "col0": "Winchester Residential Historic District",
        "col1": "1837",
        "col2": "226623",
        "col3": "2011-03-21"
    },
    {
        "col0": "Winchester Repeating Arms Company Historic District",
        "col1": "1912",
        "col2": "1031948",
        "col3": "1988-01-28"
    },
    {
        "col0": "Winchester Memorial Church",
        "col1": "1912",
        "col2": "2832",
        "col3": "1980-05-15"
    },
    {
        "col0": "Winchester Downtown Commercial District",
        "col1": "1830",
        "col2": "84983",
        "col3": "1982-04-28"
    },
    {
        "col0": "Winchester Courthouse Square Historic District",
        "col1": "1875",
        "col2": "56655",
        "col3": "2001-08-09"
    },
    {
        "col0": "Winchester Coca-Cola Bottling Works",
        "col1": "1940",
        "col2": "5260",
        "col3": "2008-09-12"
    },
    {
        "col0": "Win-Mock Farm Dairy",
        "col1": "1930",
        "col2": "18615",
        "col3": "2010-12-27"
    },
    {
        "col0": "Wilton",
        "col1": "1749",
        "col2": "20234",
        "col3": "1977-12-12"
    },
    {
        "col0": "Wilton",
        "col1": "1763",
        "col2": "32374",
        "col3": "1979-02-28"
    },
    {
        "col0": "Wilson-South House",
        "col1": "1929",
        "col2": "809",
        "col3": "1999-01-27"
    },
    {
        "col0": "Wilson School",
        "col1": "1860",
        "col2": "2023",
        "col3": "1998-10-30"
    },
    {
        "col0": "Wilson Park Historic District",
        "col1": "1900",
        "col2": "153780",
        "col3": "1995-03-31"
    },
    {
        "col0": "Wilson Kindley Farm and Kindley Mine",
        "col1": "1873",
        "col2": "175228",
        "col3": "1992-06-11"
    },
    {
        "col0": "Wilson Junior High School",
        "col1": "1921",
        "col2": "35612",
        "col3": "2001-09-16"
    },
    {
        "col0": "Wilson House",
        "col1": "1828",
        "col2": "7284",
        "col3": "1974-11-20"
    },
    {
        "col0": "Wilson Hall",
        "col1": "1850",
        "col2": "2023",
        "col3": "1983-04-27"
    },
    {
        "col0": "Wilson Hall",
        "col1": "1925",
        "col2": "9307",
        "col3": "1992-09-18"
    },
    {
        "col0": "Wilson Building",
        "col1": "1904",
        "col2": "6070",
        "col3": "1979-07-24"
    },
    {
        "col0": "Wilson Alwyn \"Snowflake\" Bentley House",
        "col1": "1860",
        "col2": "16187",
        "col3": "1980-07-03"
    },
    {
        "col0": "Wilson-Winslow House",
        "col1": "1812",
        "col2": "8093",
        "col3": "1993-11-04"
    },
    {
        "col0": "Wilson-Vines House",
        "col1": "1895",
        "col2": "67987",
        "col3": "1997-12-22"
    },
    {
        "col0": "Wilson-Pittman-Campbell-Gregory House",
        "col1": "1866",
        "col2": "24281",
        "col3": "1980-05-06"
    },
    {
        "col0": "Wilson-Kuykendall Farm",
        "col1": "1870",
        "col2": "8093",
        "col3": "1985-07-10"
    },
    {
        "col0": "Wilson-Gibson House",
        "col1": "1860",
        "col2": "4046",
        "col3": "1976-03-17"
    },
    {
        "col0": "Wilson-Finlay House",
        "col1": "1846",
        "col2": "10926",
        "col3": "1978-07-12"
    },
    {
        "col0": "Wilson-Courtney House",
        "col1": "1848",
        "col2": "16187",
        "col3": "1984-02-09"
    },
    {
        "col0": "Wilson-Clary House",
        "col1": "1892",
        "col2": "4046",
        "col3": "1986-12-11"
    },
    {
        "col0": "Wilson-South House",
        "col1": "1929",
        "col2": "809",
        "col3": "1999-01-27"
    },
    {
        "col0": "Wilmington and Western Railroad",
        "col1": "1867",
        "col2": "295420",
        "col3": "1980-09-08"
    },
    {
        "col0": "Wilmington Trust Company Bank",
        "col1": "1923",
        "col2": "2023",
        "col3": "1982-05-07"
    },
    {
        "col0": "Wilmington Savings Fund Society Building",
        "col1": "1920",
        "col2": "1214",
        "col3": "1985-01-30"
    },
    {
        "col0": "Wilmington Club",
        "col1": "1864",
        "col2": "2832",
        "col3": "2006-04-19"
    },
    {
        "col0": "Willtown Bluff",
        "col1": "1704",
        "col2": "515164",
        "col3": "1974-01-08"
    },
    {
        "col0": "Willson House",
        "col1": "1812",
        "col2": "58274",
        "col3": "2009-12-03"
    },
    {
        "col0": "Willsboro Congregational Church",
        "col1": "1834",
        "col2": "4451",
        "col3": "1984-05-31"
    },
    {
        "col0": "Willowmere",
        "col1": "1750",
        "col2": "10117",
        "col3": "1999-07-22"
    },
    {
        "col0": "Willowdale",
        "col1": "1666",
        "col2": "64749",
        "col3": "2007-05-02"
    },
    {
        "col0": "Willow Grove",
        "col1": "1787",
        "col2": "101171",
        "col3": "1979-05-07"
    },
    {
        "col0": "Willow Consolidated High School",
        "col1": "1926",
        "col2": "12140",
        "col3": "2006-07-11"
    },
    {
        "col0": "Willow City School",
        "col1": "1905",
        "col2": "20234",
        "col3": "2005-05-06"
    },
    {
        "col0": "Willow-Spence Streets Historic District",
        "col1": "1880",
        "col2": "72843",
        "col3": "1985-09-17"
    },
    {
        "col0": "Willoughby-Suydam Historic District",
        "col1": "1904",
        "col2": "16187",
        "col3": "1983-09-30"
    },
    {
        "col0": "Willoughby-Baylor House",
        "col1": "1794",
        "col2": "40063",
        "col3": "1971-09-22"
    },
    {
        "col0": "Williston Mill Historic District",
        "col1": "1830",
        "col2": "12140",
        "col3": "2002-12-27"
    },
    {
        "col0": "Williston",
        "col1": "1867",
        "col2": "116954",
        "col3": "2005-11-16"
    },
    {
        "col0": "Williston-West Church and Parish House",
        "col1": "1897",
        "col2": "2023",
        "col3": "1980-06-22"
    }
]