[
    {
        "col0": "USS PGM-32",
        "col1": "7",
        "col2": "1944-10-14",
        "col3": "1945-02-09"
    },
    {
        "col0": "USS PGM-11",
        "col1": "7",
        "col2": "1943-10-30",
        "col3": "1944-12-13"
    },
    {
        "col0": "USS PGM-10",
        "col1": "7",
        "col2": "1943-10-27",
        "col3": "1944-11-29"
    },
    {
        "col0": "USS PCS-1450",
        "col1": "7",
        "col2": "1943-08-14",
        "col3": "1944-02-03"
    },
    {
        "col0": "USS PCS-1405",
        "col1": "7",
        "col2": "1943-08-21",
        "col3": "1944-02-01"
    },
    {
        "col0": "USS PCS-1379",
        "col1": "7",
        "col2": "1944-02-04",
        "col3": "1944-03-06"
    },
    {
        "col0": "USS PCS-1376",
        "col1": "7",
        "col2": "1943-04-03",
        "col3": "1943-07-09"
    },
    {
        "col0": "USS PC-823",
        "col1": "7",
        "col2": "1944-01-15",
        "col3": "1944-07-24"
    },
    {
        "col0": "USS PC-817",
        "col1": "7",
        "col2": "1943-03-04",
        "col3": "1943-07-13"
    },
    {
        "col0": "USS PC-586",
        "col1": "7",
        "col2": "1942-07-15",
        "col3": "1942-10-05"
    },
    {
        "col0": "USS PC-568",
        "col1": "7",
        "col2": "1942-04-25",
        "col3": "1942-07-13"
    },
    {
        "col0": "USS PC-565",
        "col1": "7",
        "col2": "1942-02-27",
        "col3": "1942-05-25"
    },
    {
        "col0": "USS PC-558",
        "col1": "7",
        "col2": "1942-09-13",
        "col3": "1942-11-19"
    },
    {
        "col0": "USS PC-552",
        "col1": "7",
        "col2": "1942-02-13",
        "col3": "1942-07-29"
    },
    {
        "col0": "USS PC-496",
        "col1": "7",
        "col2": "1941-11-22",
        "col3": "1942-02-26"
    },
    {
        "col0": "USS PC-465",
        "col1": "7",
        "col2": "1942-03-28",
        "col3": "1942-05-25"
    },
    {
        "col0": "USS PC-1603",
        "col1": "7",
        "col2": "1942-09-07",
        "col3": "1943-06-16"
    },
    {
        "col0": "USS PC-1264",
        "col1": "7",
        "col2": "1943-11-28",
        "col3": "1944-04-25"
    },
    {
        "col0": "USS PC-1217",
        "col1": "7",
        "col2": "1943-09-26",
        "col3": "1944-04-27"
    },
    {
        "col0": "USS PC-1181",
        "col1": "7",
        "col2": "1943-04-15",
        "col3": "1943-09-17"
    },
    {
        "col0": "USS PC-1179",
        "col1": "7",
        "col2": "1943-11-06",
        "col3": "1944-01-22"
    },
    {
        "col0": "USS PC-1168",
        "col1": "7",
        "col2": "1943-07-03",
        "col3": "1943-12-03"
    },
    {
        "col0": "USS PC-1142",
        "col1": "7",
        "col2": "1943-08-20",
        "col3": "1944-06-03"
    },
    {
        "col0": "USS PC-1141",
        "col1": "7",
        "col2": "1943-06-22",
        "col3": "1943-12-23"
    },
    {
        "col0": "USS PC-1140",
        "col1": "7",
        "col2": "1943-06-14",
        "col3": "1944-01-22"
    },
    {
        "col0": "USS PC-1138",
        "col1": "7",
        "col2": "1943-04-19",
        "col3": "1943-09-17"
    },
    {
        "col0": "USS PC-1137",
        "col1": "7",
        "col2": "1943-03-29",
        "col3": "1943-10-23"
    },
    {
        "col0": "USS PC-1136",
        "col1": "7",
        "col2": "1943-03-05",
        "col3": "1943-11-16"
    },
    {
        "col0": "USS PC-1119",
        "col1": "7",
        "col2": "1942-08-11",
        "col3": "1942-12-15"
    },
    {
        "col0": "USS Ozette",
        "col1": "8",
        "col2": "1945-05-14",
        "col3": "1945-10-31"
    },
    {
        "col0": "USS Ozark",
        "col1": "18",
        "col2": "1942-06-15",
        "col3": "1944-09-23"
    },
    {
        "col0": "USS Ozark",
        "col1": "15",
        "col2": "1863-02-18",
        "col3": "1864-02-18"
    },
    {
        "col0": "USS Oyster Bay",
        "col1": "12",
        "col2": "1942-09-17",
        "col3": "1943-11-17"
    },
    {
        "col0": "USS Oxford",
        "col1": "18",
        "col2": "1944-07-12",
        "col3": "1944-09-11"
    },
    {
        "col0": "USS Oxford",
        "col1": "17",
        "col2": "1945-07-31",
        "col3": "1961-07-08"
    },
    {
        "col0": "USS Owl",
        "col1": "7",
        "col2": "1944-04-18",
        "col3": "1944-05-16"
    },
    {
        "col0": "USS Owasco",
        "col1": "8",
        "col2": "1861-10-05",
        "col3": "1862-01-23"
    },
    {
        "col0": "USS Outpost",
        "col1": "17",
        "col2": "1945-06-08",
        "col3": "1957-02-06"
    },
    {
        "col0": "USS Outagamie County",
        "col1": "15",
        "col2": "1945-03-22",
        "col3": "1945-04-17"
    },
    {
        "col0": "USS Ouachita County",
        "col1": "15",
        "col2": "1945-03-14",
        "col3": "1945-04-09"
    },
    {
        "col0": "USS Otus",
        "col1": "18",
        "col2": "1940-11-02",
        "col3": "1941-03-19"
    },
    {
        "col0": "USS Otterstetter",
        "col1": "11",
        "col2": "1943-01-19",
        "col3": "1943-08-06"
    },
    {
        "col0": "USS Otter",
        "col1": "11",
        "col2": "1943-10-23",
        "col3": "1944-02-21"
    },
    {
        "col0": "USS Ottawa",
        "col1": "19",
        "col2": "1944-11-29",
        "col3": "1945-02-08"
    },
    {
        "col0": "USS Oswald",
        "col1": "10",
        "col2": "1944-04-25",
        "col3": "1944-06-12"
    },
    {
        "col0": "USS Ostrich",
        "col1": "7",
        "col2": "1944-03-23",
        "col3": "1944-10-10"
    },
    {
        "col0": "USS Osterhaus",
        "col1": "10",
        "col2": "1943-04-18",
        "col3": "1943-06-12"
    },
    {
        "col0": "USS Ostara",
        "col1": "17",
        "col2": "1944-12-21",
        "col3": "1945-01-31"
    },
    {
        "col0": "USS Ossipee",
        "col1": "11",
        "col2": "1861-11-16",
        "col3": "1862-11-06"
    },
    {
        "col0": "USS Osprey",
        "col1": "11",
        "col2": "1991-03-23",
        "col3": "1993-11-20"
    },
    {
        "col0": "USS Osprey",
        "col1": "7",
        "col2": "1944-06-01",
        "col3": "1944-09-27"
    },
    {
        "col0": "USS Osprey",
        "col1": "9",
        "col2": "1940-08-24",
        "col3": "1940-12-16"
    },
    {
        "col0": "USS Osmus",
        "col1": "11",
        "col2": "1943-11-04",
        "col3": "1944-02-23"
    },
    {
        "col0": "USS Osmond Ingram",
        "col1": "9",
        "col2": "1919-02-23",
        "col3": "1919-06-28"
    },
    {
        "col0": "USS Osceola",
        "col1": "8",
        "col2": "1938-03-03",
        "col3": "1938-06-01"
    },
    {
        "col0": "USS Osceola",
        "col1": "10",
        "col2": "1863-05-29",
        "col3": "1864-02-10"
    },
    {
        "col0": "USS Osborne",
        "col1": "9",
        "col2": "1919-12-29",
        "col3": "1920-05-17"
    },
    {
        "col0": "USS Osberg",
        "col1": "10",
        "col2": "1943-12-07",
        "col3": "1945-12-10"
    },
    {
        "col0": "USS Osage",
        "col1": "13",
        "col2": "1863-01-13",
        "col3": "1863-07-10"
    },
    {
        "col0": "USS Ortolan",
        "col1": "26",
        "col2": "1969-09-10",
        "col3": "1973-07-14"
    },
    {
        "col0": "USS Ortolan",
        "col1": "7",
        "col2": "1944-04-10",
        "col3": "1944-05-05"
    },
    {
        "col0": "USS Ortolan",
        "col1": "10",
        "col2": "1919-01-30",
        "col3": "1919-09-17"
    },
    {
        "col0": "USS Orleck",
        "col1": "12",
        "col2": "1945-05-12",
        "col3": "1945-09-15"
    },
    {
        "col0": "USS Orleans Parish",
        "col1": "15",
        "col2": "1945-03-07",
        "col3": "1945-03-31"
    },
    {
        "col0": "USS Orlando",
        "col1": "11",
        "col2": "1943-12-01",
        "col3": "1944-11-15"
    },
    {
        "col0": "USS Orion",
        "col1": "22",
        "col2": "1942-06-24",
        "col3": "1943-09-30"
    },
    {
        "col0": "USS Orion",
        "col1": "19",
        "col2": "1912-03-23",
        "col3": "1912-07-29"
    },
    {
        "col0": "USS Oriole",
        "col1": "11",
        "col2": "1993-05-22",
        "col3": "1995-09-16"
    },
    {
        "col0": "USS Oriole",
        "col1": "7",
        "col2": "1944-04-05",
        "col3": "1944-05-30"
    },
    {
        "col0": "USS Oriole",
        "col1": "10",
        "col2": "1918-07-03",
        "col3": "1918-11-05"
    },
    {
        "col0": "USS Orestes",
        "col1": "15",
        "col2": "1943-11-16",
        "col3": "1944-04-25"
    },
    {
        "col0": "USS Oregon City",
        "col1": "21",
        "col2": "1945-06-09",
        "col3": "1946-02-16"
    },
    {
        "col0": "USS Ordronaux",
        "col1": "10",
        "col2": "1942-11-09",
        "col3": "1943-02-13"
    },
    {
        "col0": "USS Orca",
        "col1": "12",
        "col2": "1942-10-04",
        "col3": "1944-01-23"
    },
    {
        "col0": "USS Orange County",
        "col1": "15",
        "col2": "1945-03-03",
        "col3": "1945-03-27"
    },
    {
        "col0": "USS Orange",
        "col1": "11",
        "col2": "1943-08-06",
        "col3": "1944-01-01"
    },
    {
        "col0": "USS Oracle",
        "col1": "9",
        "col2": "1942-09-30",
        "col3": "1943-05-14"
    },
    {
        "col0": "USS Onward",
        "col1": "10",
        "col2": "1852-07-03",
        "col3": "1862-01-11"
    },
    {
        "col0": "USS Ontonagon",
        "col1": "11",
        "col2": "1944-06-14",
        "col3": "1944-09-21"
    },
    {
        "col0": "USS Ontario",
        "col1": "10",
        "col2": "1912-04-11",
        "col3": "1912-09-04"
    },
    {
        "col0": "USS Onslow",
        "col1": "12",
        "col2": "1942-09-20",
        "col3": "1943-12-22"
    },
    {
        "col0": "USS Onondaga",
        "col1": "15",
        "col2": "1863-07-29",
        "col3": "1864-03-24"
    },
    {
        "col0": "USS Oneota",
        "col1": "10",
        "col2": "1944-05-27",
        "col3": "1945-03-12"
    },
    {
        "col0": "USS Oneida",
        "col1": "18",
        "col2": "1944-10-31",
        "col3": "1944-12-04"
    },
    {
        "col0": "USS Oneida",
        "col1": "10",
        "col2": "1861-11-20",
        "col3": "1862-02-28"
    },
    {
        "col0": "USS Ommaney Bay",
        "col1": "19",
        "col2": "1943-12-29",
        "col3": "1944-02-11"
    },
    {
        "col0": "USS Omaha",
        "col1": "16",
        "col2": "1920-12-14",
        "col3": "1923-02-24"
    },
    {
        "col0": "USS Omaha",
        "col1": "11",
        "col2": "1869-06-10",
        "col3": "1872-09-12"
    }
]