[
    {
        "col0": "PBB/342346",
        "col1": "342346",
        "col2": "40031",
        "col3": "C16orf96"
    },
    {
        "col0": "PARK11",
        "col1": "352908",
        "col2": "17963",
        "col3": "PARK11"
    },
    {
        "col0": "P87PIKAP",
        "col1": "146850",
        "col2": "27101",
        "col3": "p84,PIK3R6"
    },
    {
        "col0": "P38 mitogen-activated protein kinases",
        "col1": "1432",
        "col2": "6873",
        "col3": "CSPB1, CSBP1, CSBP2"
    },
    {
        "col0": "P300-CBP coactivator family",
        "col1": "1387",
        "col2": "2348",
        "col3": "CBP, RSTS"
    },
    {
        "col0": "P-type calcium channel",
        "col1": "773",
        "col2": "1388",
        "col3": "CACNA1A"
    },
    {
        "col0": "Orosomucoid",
        "col1": "5004",
        "col2": "8498",
        "col3": "ORM1"
    },
    {
        "col0": "Ornithine translocase",
        "col1": "10166",
        "col2": "10985",
        "col3": "ORNT1, HHH"
    },
    {
        "col0": "Orexin receptor",
        "col1": "3061",
        "col2": "4848",
        "col3": "HCRTR1"
    },
    {
        "col0": "Orexin",
        "col1": "3060",
        "col2": "4847",
        "col3": "HCRT"
    },
    {
        "col0": "Odorant-binding protein",
        "col1": "29989",
        "col2": "23380",
        "col3": "OBP2A"
    },
    {
        "col0": "Oct-2",
        "col1": "5452",
        "col2": "9213",
        "col3": "OTF2"
    },
    {
        "col0": "Obestatin",
        "col1": "51738",
        "col2": "18129",
        "col3": "GHRL"
    },
    {
        "col0": "OX40L",
        "col1": "7292",
        "col2": "11934",
        "col3": "TNFSF4"
    },
    {
        "col0": "OPN1MW2",
        "col1": "728458",
        "col2": "26952",
        "col3": "OPN1MW2"
    },
    {
        "col0": "Nucleoporin 37",
        "col1": "79023",
        "col2": "29929",
        "col3": "NUP37"
    },
    {
        "col0": "Nucleoporin 210kDa",
        "col1": "23225",
        "col2": "30052",
        "col3": "FLJ22389, GP210, KIAA0906, POM210"
    },
    {
        "col0": "Nuclear cap-binding protein complex",
        "col1": "22916",
        "col2": "7658",
        "col3": "NCBP"
    },
    {
        "col0": "Nitrilase",
        "col1": "4817",
        "col2": "7828",
        "col3": "NIT1"
    },
    {
        "col0": "Neurturin",
        "col1": "4902",
        "col2": "8007",
        "col3": "NRTN"
    },
    {
        "col0": "Neurotensin receptor",
        "col1": "23620",
        "col2": "11186",
        "col3": "Gp95, NT3"
    },
    {
        "col0": "Neuropilin",
        "col1": "8828",
        "col2": "8004",
        "col3": "NRP1"
    },
    {
        "col0": "Neuropeptide Y receptor",
        "col1": "4886",
        "col2": "7956",
        "col3": "NPY1R"
    },
    {
        "col0": "Neuropeptide FF receptor",
        "col1": "10886",
        "col2": "17425",
        "col3": "GPR147"
    },
    {
        "col0": "Neuropeptide B/W receptor",
        "col1": "2831",
        "col2": "4522",
        "col3": "GPR7"
    },
    {
        "col0": "Neuromedin U receptor",
        "col1": "10316",
        "col2": "16454",
        "col3": "GPR66"
    },
    {
        "col0": "Neuromedin U",
        "col1": "10874",
        "col2": "7859",
        "col3": "NMU"
    },
    {
        "col0": "Neuromedin S",
        "col1": "129521",
        "col2": "32203",
        "col3": "NMS"
    },
    {
        "col0": "Neuromedin B",
        "col1": "4828",
        "col2": "7842",
        "col3": "NMB"
    },
    {
        "col0": "Neuroligin",
        "col1": "22871",
        "col2": "14287",
        "col3": "NLGN1"
    },
    {
        "col0": "Neurogenins",
        "col1": "4762",
        "col2": "13805",
        "col3": "NEUROD3"
    },
    {
        "col0": "Neurofilament",
        "col1": "10763",
        "col2": "6057",
        "col3": "INA"
    },
    {
        "col0": "Neurocalcin",
        "col1": "83988",
        "col2": "7655",
        "col3": "NCALD"
    },
    {
        "col0": "Neurexin",
        "col1": "9369",
        "col2": "8008",
        "col3": "NRXN1"
    },
    {
        "col0": "Neonatal Fc receptor",
        "col1": "2217",
        "col2": "3621",
        "col3": "FCGRT"
    },
    {
        "col0": "Na-K-Cl cotransporter",
        "col1": "6557",
        "col2": "10910",
        "col3": "NKCC1"
    },
    {
        "col0": "NPAS1",
        "col1": "4861",
        "col2": "7894",
        "col3": "NPAS1"
    },
    {
        "col0": "NKG2",
        "col1": "3821",
        "col2": "6374",
        "col3": "KLRC1"
    },
    {
        "col0": "NF-kB",
        "col1": "4790",
        "col2": "7794",
        "col3": "NFKB1"
    },
    {
        "col0": "N-terminal prohormone of brain natriuretic peptide",
        "col1": "4879",
        "col2": "7940",
        "col3": "NPPB"
    },
    {
        "col0": "N-acyl phosphatidylethanolamine-specific phospholipase D",
        "col1": "222236",
        "col2": "21683",
        "col3": "NAPEPLD"
    },
    {
        "col0": "N-acetylglucosamine-1-phosphate transferase",
        "col1": "79158",
        "col2": "23026",
        "col3": "GNPTA"
    },
    {
        "col0": "N-Acetylglutamate synthase",
        "col1": "162417",
        "col2": "17996",
        "col3": "NAGS"
    },
    {
        "col0": "N-Acetylglucosamine receptor",
        "col1": "4670",
        "col2": "5046",
        "col3": "HNRPM"
    },
    {
        "col0": "Myosin light-chain kinase",
        "col1": "340156",
        "col2": "16243",
        "col3": "MYLK"
    },
    {
        "col0": "Myophosphorylase",
        "col1": "5837",
        "col2": "9726",
        "col3": "PYGM"
    },
    {
        "col0": "Mu hemoglobin",
        "col1": "3042",
        "col2": "4826",
        "col3": "HBAP2"
    },
    {
        "col0": "Motilin",
        "col1": "4295",
        "col2": "7141",
        "col3": "MLN"
    },
    {
        "col0": "Monoacylglycerol lipase",
        "col1": "11343",
        "col2": "17038",
        "col3": "MGLL"
    },
    {
        "col0": "Mitochondrial calcium uniporter",
        "col1": "90550",
        "col2": "23526",
        "col3": "C10orf42, CCDC109A, FLJ46135"
    },
    {
        "col0": "Methylcrotonyl-CoA carboxylase",
        "col1": "56922",
        "col2": "6936",
        "col3": "MCCC1"
    },
    {
        "col0": "Membrane-bound transcription factor site-2 protease",
        "col1": "51360",
        "col2": "15455",
        "col3": "MBTPS2"
    },
    {
        "col0": "Melatonin receptor",
        "col1": "4543",
        "col2": "7463",
        "col3": "MTNR1A"
    },
    {
        "col0": "Melanocyte-stimulating hormone",
        "col1": "5443",
        "col2": "9201",
        "col3": "POMC"
    },
    {
        "col0": "Melanin-concentrating hormone receptor",
        "col1": "2847",
        "col2": "20867",
        "col3": "GPR145"
    },
    {
        "col0": "Melanin-concentrating hormone",
        "col1": "5367",
        "col2": "9109",
        "col3": "PMCH"
    },
    {
        "col0": "Map44",
        "col1": "5648",
        "col2": "6901",
        "col3": "CRARF, PRSS5"
    },
    {
        "col0": "Mannose receptor",
        "col1": "4360",
        "col2": "16875",
        "col3": "CD206"
    },
    {
        "col0": "Mannose 6-phosphate receptor",
        "col1": "3482",
        "col2": "5467",
        "col3": "CIMR"
    },
    {
        "col0": "Major histocompatibility complex, class II, DP alpha 1",
        "col1": "3113",
        "col2": "4938",
        "col3": "HLA-DP1A"
    },
    {
        "col0": "Macrophage inflammatory protein",
        "col1": "6348",
        "col2": "10627",
        "col3": "CCL3"
    },
    {
        "col0": "MYLK4",
        "col1": "340156",
        "col2": "27972",
        "col3": "MYLK4"
    },
    {
        "col0": "MTORC2",
        "col1": "2475",
        "col2": "18752",
        "col3": "FRAP, FRAP2, FRAP1"
    },
    {
        "col0": "MTORC1",
        "col1": "2475",
        "col2": "30287",
        "col3": "FRAP, FRAP2, FRAP1"
    },
    {
        "col0": "MT-TY",
        "col1": "4579",
        "col2": "7502",
        "col3": "MT-TY"
    },
    {
        "col0": "MT-TW",
        "col1": "4578",
        "col2": "7501",
        "col3": "MT-TW"
    },
    {
        "col0": "MT-TV",
        "col1": "4577",
        "col2": "7500",
        "col3": "MT-TV"
    },
    {
        "col0": "MT-TT",
        "col1": "4576",
        "col2": "7499",
        "col3": "MT-TT"
    },
    {
        "col0": "MT-TS2",
        "col1": "4575",
        "col2": "7498",
        "col3": "MT-TS2"
    },
    {
        "col0": "MT-TS1",
        "col1": "4574",
        "col2": "7497",
        "col3": "MT-TS1"
    },
    {
        "col0": "MT-TR",
        "col1": "4573",
        "col2": "7496",
        "col3": "MT-TR"
    },
    {
        "col0": "MT-TQ",
        "col1": "4572",
        "col2": "7495",
        "col3": "MT-TQ"
    },
    {
        "col0": "MT-TP",
        "col1": "4571",
        "col2": "7494",
        "col3": "MT-TP"
    },
    {
        "col0": "MT-TN",
        "col1": "4570",
        "col2": "7493",
        "col3": "MT-TN"
    },
    {
        "col0": "MT-TM",
        "col1": "4569",
        "col2": "7492",
        "col3": "MT-TM"
    },
    {
        "col0": "MT-TL2",
        "col1": "4568",
        "col2": "7491",
        "col3": "MT-TL2"
    },
    {
        "col0": "MT-TL1",
        "col1": "4567",
        "col2": "7490",
        "col3": "MT-TL1"
    },
    {
        "col0": "MT-TK",
        "col1": "4566",
        "col2": "7489",
        "col3": "MERRF, MTTK"
    },
    {
        "col0": "MT-TI",
        "col1": "4565",
        "col2": "7488",
        "col3": "MT-TI"
    },
    {
        "col0": "MT-TH",
        "col1": "4564",
        "col2": "7487",
        "col3": "MT-TH"
    },
    {
        "col0": "MT-TG",
        "col1": "4563",
        "col2": "7486",
        "col3": "MT-TG"
    },
    {
        "col0": "MT-TF",
        "col1": "4558",
        "col2": "7481",
        "col3": "MT-TF"
    },
    {
        "col0": "MT-TE",
        "col1": "4556",
        "col2": "7479",
        "col3": "MT-TE"
    },
    {
        "col0": "MT-TD",
        "col1": "4555",
        "col2": "7478",
        "col3": "MT-TD"
    }
]