[
    {
        "col0": "USS R-21",
        "col1": "4",
        "col2": "1918-07-10",
        "col3": "1919-06-17"
    },
    {
        "col0": "USS R-20",
        "col1": "5",
        "col2": "1918-01-21",
        "col3": "1918-10-26"
    },
    {
        "col0": "USS R-1",
        "col1": "5",
        "col2": "1918-08-24",
        "col3": "1918-12-16"
    },
    {
        "col0": "USS R-19",
        "col1": "5",
        "col2": "1918-01-28",
        "col3": "1918-10-07"
    },
    {
        "col0": "USS R-18",
        "col1": "5",
        "col2": "1918-01-08",
        "col3": "1918-09-11"
    },
    {
        "col0": "USS R-17",
        "col1": "5",
        "col2": "1917-12-24",
        "col3": "1918-08-17"
    },
    {
        "col0": "USS R-15",
        "col1": "5",
        "col2": "1917-10-12",
        "col3": "1918-07-27"
    },
    {
        "col0": "USS R-14",
        "col1": "5",
        "col2": "1919-10-10",
        "col3": "1919-12-24"
    },
    {
        "col0": "USS R-13",
        "col1": "5",
        "col2": "1919-08-27",
        "col3": "1919-10-17"
    },
    {
        "col0": "USS R-12",
        "col1": "5",
        "col2": "1919-08-15",
        "col3": "1919-09-23"
    },
    {
        "col0": "USS R-11",
        "col1": "5",
        "col2": "1919-07-21",
        "col3": "1919-09-05"
    },
    {
        "col0": "USS R-10",
        "col1": "5",
        "col2": "1919-06-28",
        "col3": "1919-08-20"
    },
    {
        "col0": "USS Quirinus",
        "col1": "15",
        "col2": "1945-06-04",
        "col3": "1945-06-15"
    },
    {
        "col0": "USS Quinnebaug",
        "col1": "12",
        "col2": "1898-10-14",
        "col3": "1918-03-28"
    },
    {
        "col0": "USS Quinnebaug",
        "col1": "11",
        "col2": "1875-09-28",
        "col3": "1878-10-02"
    },
    {
        "col0": "USS Quinnebaug",
        "col1": "9",
        "col2": "1866-03-31",
        "col3": "1866-07-19"
    },
    {
        "col0": "USS Quincy",
        "col1": "21",
        "col2": "1943-06-23",
        "col3": "1943-12-15"
    },
    {
        "col0": "USS Quillback",
        "col1": "8",
        "col2": "1944-10-01",
        "col3": "1944-12-29"
    },
    {
        "col0": "USS Quick",
        "col1": "10",
        "col2": "1942-05-03",
        "col3": "1942-07-03"
    },
    {
        "col0": "USS Quest",
        "col1": "10",
        "col2": "1944-03-16",
        "col3": "1944-10-25"
    },
    {
        "col0": "USS Queens",
        "col1": "20",
        "col2": "1944-09-12",
        "col3": "1944-12-16"
    },
    {
        "col0": "USS Queenfish",
        "col1": "8",
        "col2": "1943-11-30",
        "col3": "1944-03-11"
    },
    {
        "col0": "USS Quastinet",
        "col1": "11",
        "col2": "1944-09-24",
        "col3": "1944-11-06"
    },
    {
        "col0": "USS Quapaw",
        "col1": "11",
        "col2": "1943-05-15",
        "col3": "1944-05-06"
    },
    {
        "col0": "USS Quail",
        "col1": "9",
        "col2": "1944-08-20",
        "col3": "1945-03-05"
    },
    {
        "col0": "USS Quail",
        "col1": "10",
        "col2": "1918-10-06",
        "col3": "1919-04-29"
    },
    {
        "col0": "USS Pyro",
        "col1": "21",
        "col2": "1958-11-05",
        "col3": "1959-07-24"
    },
    {
        "col0": "USS Putnam",
        "col1": "12",
        "col2": "1944-03-26",
        "col3": "1944-10-12"
    },
    {
        "col0": "USS Putnam",
        "col1": "9",
        "col2": "1919-09-30",
        "col3": "1919-12-18"
    },
    {
        "col0": "USS Pursuit",
        "col1": "9",
        "col2": "1942-06-12",
        "col3": "1943-04-30"
    },
    {
        "col0": "USS Puritan",
        "col1": "18",
        "col2": "1882-12-06",
        "col3": "1896-12-10"
    },
    {
        "col0": "USS Purdy",
        "col1": "12",
        "col2": "1944-05-07",
        "col3": "1944-07-18"
    },
    {
        "col0": "USS Pulaski County",
        "col1": "15",
        "col2": "1945-02-11",
        "col3": "1945-03-27"
    },
    {
        "col0": "USS Puget Sound",
        "col1": "25",
        "col2": "1966-09-16",
        "col3": "1968-04-27"
    },
    {
        "col0": "USS Puffer",
        "col1": "8",
        "col2": "1942-11-21",
        "col3": "1943-04-27"
    },
    {
        "col0": "USS Pueblo",
        "col1": "11",
        "col2": "1944-01-20",
        "col3": "1944-05-27"
    },
    {
        "col0": "USS Ptarmigan",
        "col1": "9",
        "col2": "1944-07-15",
        "col3": "1945-01-15"
    },
    {
        "col0": "USS Pruitt",
        "col1": "9",
        "col2": "1920-04-20",
        "col3": "1920-06-09"
    },
    {
        "col0": "USS Prudent",
        "col1": "10",
        "col2": "1942-12-04",
        "col3": "1943-08-16"
    },
    {
        "col0": "USS Prowess",
        "col1": "10",
        "col2": "1944-02-17",
        "col3": "1944-09-27"
    },
    {
        "col0": "USS Providence",
        "col1": "20",
        "col2": "1944-12-28",
        "col3": "1945-05-15"
    },
    {
        "col0": "USS Proton",
        "col1": "15",
        "col2": "1945-04-25",
        "col3": "1945-05-15"
    },
    {
        "col0": "USS Proteus",
        "col1": "22",
        "col2": "1942-11-12",
        "col3": "1944-01-31"
    },
    {
        "col0": "USS Proteus",
        "col1": "19",
        "col2": "1912-09-14",
        "col3": "1913-07-09"
    },
    {
        "col0": "USS Protector",
        "col1": "11",
        "col2": "1943-04-27",
        "col3": "1943-12-28"
    },
    {
        "col0": "USS Protector",
        "col1": "17",
        "col2": "1945-03-15",
        "col3": "1957-02-20"
    },
    {
        "col0": "USS Proserpine",
        "col1": "15",
        "col2": "1944-12-28",
        "col3": "1945-05-31"
    },
    {
        "col0": "USS Prometheus",
        "col1": "18",
        "col2": "1908-12-05",
        "col3": "1910-01-15"
    },
    {
        "col0": "USS Project",
        "col1": "10",
        "col2": "1943-11-20",
        "col3": "1944-08-22"
    },
    {
        "col0": "USS Procyon",
        "col1": "19",
        "col2": "1940-11-14",
        "col3": "1941-08-28"
    },
    {
        "col0": "USS Procyon",
        "col1": "19",
        "col2": "1942-07-01",
        "col3": "1961-10-13"
    },
    {
        "col0": "USS Pringle",
        "col1": "12",
        "col2": "1942-05-02",
        "col3": "1942-09-15"
    },
    {
        "col0": "USS Princeton",
        "col1": "10",
        "col2": "1897-06-03",
        "col3": "1898-05-27"
    },
    {
        "col0": "USS Princeton",
        "col1": "21",
        "col2": "1942-10-18",
        "col3": "1943-02-25"
    },
    {
        "col0": "USS Princeton",
        "col1": "9",
        "col2": "1843-09-05",
        "col3": "1843-09-09"
    },
    {
        "col0": "USS Prince William",
        "col1": "21",
        "col2": "1942-08-23",
        "col3": "1943-04-09"
    },
    {
        "col0": "USS Prime",
        "col1": "10",
        "col2": "1954-05-27",
        "col3": "1954-10-11"
    },
    {
        "col0": "USS Prime",
        "col1": "10",
        "col2": "1944-01-22",
        "col3": "1944-09-12"
    },
    {
        "col0": "USS Pride",
        "col1": "11",
        "col2": "1943-07-03",
        "col3": "1943-11-13"
    },
    {
        "col0": "USS Prichett",
        "col1": "12",
        "col2": "1943-07-31",
        "col3": "1944-01-15"
    },
    {
        "col0": "USS Price",
        "col1": "11",
        "col2": "1943-10-30",
        "col3": "1944-01-12"
    },
    {
        "col0": "USS Prevail",
        "col1": "9",
        "col2": "1942-09-13",
        "col3": "1943-04-17"
    },
    {
        "col0": "USS Preston",
        "col1": "11",
        "col2": "1943-12-12",
        "col3": "1944-03-20"
    },
    {
        "col0": "USS Preston",
        "col1": "9",
        "col2": "1920-08-07",
        "col3": "1921-04-13"
    },
    {
        "col0": "USS Preston",
        "col1": "7",
        "col2": "1909-07-14",
        "col3": "1909-12-21"
    },
    {
        "col0": "USS Prestige",
        "col1": "10",
        "col2": "1954-04-30",
        "col3": "1954-09-11"
    },
    {
        "col0": "USS Presley",
        "col1": "11",
        "col2": "1944-08-19",
        "col3": "1944-11-07"
    },
    {
        "col0": "USS Presidio",
        "col1": "17",
        "col2": "1945-02-17",
        "col3": "1945-04-09"
    },
    {
        "col0": "USS President Polk",
        "col1": "19",
        "col2": "1941-06-28",
        "col3": "1943-10-04"
    },
    {
        "col0": "USS President Monroe",
        "col1": "19",
        "col2": "1940-08-07",
        "col3": "1943-08-20"
    },
    {
        "col0": "USS President Jackson",
        "col1": "21",
        "col2": "1940-06-07",
        "col3": "1942-01-16"
    },
    {
        "col0": "USS President Hayes",
        "col1": "21",
        "col2": "1940-10-04",
        "col3": "1941-12-15"
    },
    {
        "col0": "USS President Adams",
        "col1": "21",
        "col2": "1941-01-31",
        "col3": "1941-11-19"
    },
    {
        "col0": "USS Preserver",
        "col1": "11",
        "col2": "1943-04-01",
        "col3": "1944-01-11"
    },
    {
        "col0": "USS Prentiss",
        "col1": "19",
        "col2": "1944-12-06",
        "col3": "1945-02-11"
    },
    {
        "col0": "USS Preble",
        "col1": "15",
        "col2": "1959-05-23",
        "col3": "1960-05-09"
    },
    {
        "col0": "USS Preble",
        "col1": "9",
        "col2": "1920-03-08",
        "col3": "1920-03-19"
    },
    {
        "col0": "USS Pratt",
        "col1": "11",
        "col2": "1944-06-01",
        "col3": "1944-09-18"
    },
    {
        "col0": "USS Prairie",
        "col1": "22",
        "col2": "1939-12-09",
        "col3": "1940-08-05"
    },
    {
        "col0": "USS Powhatan",
        "col1": "18",
        "col2": "1899-11-25",
        "col3": "1917-08-16"
    },
    {
        "col0": "USS Poughkeepsie",
        "col1": "11",
        "col2": "1943-08-12",
        "col3": "1944-09-06"
    },
    {
        "col0": "USS Potomac",
        "col1": "7",
        "col2": "1934-06-30",
        "col3": "1934-10-25"
    },
    {
        "col0": "USS Poseidon",
        "col1": "15",
        "col2": "1944-08-24",
        "col3": "1945-02-13"
    },
    {
        "col0": "USS Portunus",
        "col1": "15",
        "col2": "1943-02-11",
        "col3": "1943-06-12"
    },
    {
        "col0": "USS Portsmouth",
        "col1": "20",
        "col2": "1944-09-20",
        "col3": "1945-06-25"
    },
    {
        "col0": "USS Portsmouth",
        "col1": "11",
        "col2": "1843-10-23",
        "col3": "1844-11-10"
    },
    {
        "col0": "USS Portland",
        "col1": "25",
        "col2": "1969-12-20",
        "col3": "1970-10-03"
    },
    {
        "col0": "USS Porterfield",
        "col1": "11",
        "col2": "1943-06-13",
        "col3": "1943-10-30"
    },
    {
        "col0": "USS Porter",
        "col1": "11",
        "col2": "1944-03-13",
        "col3": "1944-06-24"
    },
    {
        "col0": "USS Porter",
        "col1": "9",
        "col2": "1915-08-26",
        "col3": "1916-04-17"
    },
    {
        "col0": "USS Porter",
        "col1": "10",
        "col2": "1935-12-12",
        "col3": "1936-08-25"
    },
    {
        "col0": "USS Portent",
        "col1": "9",
        "col2": "1942-08-16",
        "col3": "1943-04-03"
    },
    {
        "col0": "USS Porpoise",
        "col1": "3",
        "col2": "1901-09-23",
        "col3": "1903-09-19"
    },
    {
        "col0": "USS Porpoise",
        "col1": "7",
        "col2": "1935-06-20",
        "col3": "1935-08-15"
    },
    {
        "col0": "USS Porcupine",
        "col1": "17",
        "col2": "1943-11-24",
        "col3": "1943-12-30"
    },
    {
        "col0": "USS Pope",
        "col1": "9",
        "col2": "1920-03-23",
        "col3": "1920-10-27"
    },
    {
        "col0": "USS Pontus",
        "col1": "15",
        "col2": "1943-03-02",
        "col3": "1943-03-24"
    },
    {
        "col0": "USS Pondera",
        "col1": "18",
        "col2": "1944-07-27",
        "col3": "1944-09-24"
    },
    {
        "col0": "USS Ponchatoula",
        "col1": "11",
        "col2": "1944-07-30",
        "col3": "1944-10-06"
    },
    {
        "col0": "USS Ponaganset",
        "col1": "20",
        "col2": "1943-07-10",
        "col3": "1944-05-15"
    },
    {
        "col0": "USS Pompon",
        "col1": "8",
        "col2": "1942-08-15",
        "col3": "1943-03-17"
    },
    {
        "col0": "USS Pompano",
        "col1": "7",
        "col2": "1937-03-11",
        "col3": "1937-06-12"
    },
    {
        "col0": "USS Pomodon",
        "col1": "8",
        "col2": "1945-06-12",
        "col3": "1945-09-11"
    },
    {
        "col0": "USS Pomfret",
        "col1": "8",
        "col2": "1943-10-27",
        "col3": "1944-02-19"
    },
    {
        "col0": "USS Pollux",
        "col1": "19",
        "col2": "1942-02-05",
        "col3": "1942-04-27"
    },
    {
        "col0": "USS Pollux",
        "col1": "19",
        "col2": "1939-12-16",
        "col3": "1941-05-06"
    },
    {
        "col0": "USS Pollack",
        "col1": "9",
        "col2": "1962-03-17",
        "col3": "1964-05-26"
    },
    {
        "col0": "USS Pollack",
        "col1": "7",
        "col2": "1936-09-15",
        "col3": "1937-01-15"
    },
    {
        "col0": "USS Polana",
        "col1": "17",
        "col2": "1945-01-17",
        "col3": "1945-02-21"
    },
    {
        "col0": "USS Point Defiance",
        "col1": "25",
        "col2": "1954-09-28",
        "col3": "1955-03-31"
    },
    {
        "col0": "USS Point Cruz",
        "col1": "22",
        "col2": "1945-05-18",
        "col3": "1945-10-16"
    },
    {
        "col0": "USS Pogy",
        "col1": "8",
        "col2": "1942-06-23",
        "col3": "1943-01-10"
    },
    {
        "col0": "USS Pocono",
        "col1": "19",
        "col2": "1945-01-25",
        "col3": "1945-12-29"
    },
    {
        "col0": "USS Pocomoke",
        "col1": "21",
        "col2": "1940-06-08",
        "col3": "1941-07-18"
    },
    {
        "col0": "USS Pochard",
        "col1": "9",
        "col2": "1944-06-11",
        "col3": "1944-11-27"
    },
    {
        "col0": "USS Pocatello",
        "col1": "11",
        "col2": "1943-10-17",
        "col3": "1944-02-18"
    },
    {
        "col0": "USS Pocahontas",
        "col1": "18",
        "col2": "1900-06-19",
        "col3": "1917-07-25"
    },
    {
        "col0": "USS Plymouth Rock",
        "col1": "25",
        "col2": "1954-05-07",
        "col3": "1954-11-29"
    },
    {
        "col0": "USS Plunkett",
        "col1": "10",
        "col2": "1940-03-07",
        "col3": "1940-07-17"
    },
    {
        "col0": "USS Plunger",
        "col1": "9",
        "col2": "1961-12-09",
        "col3": "1962-11-21"
    },
    {
        "col0": "USS Plunger",
        "col1": "7",
        "col2": "1936-07-08",
        "col3": "1936-11-19"
    },
    {
        "col0": "USS Plumas County",
        "col1": "15",
        "col2": "1945-01-14",
        "col3": "1945-02-13"
    },
    {
        "col0": "USS Pluck",
        "col1": "10",
        "col2": "1954-02-06",
        "col3": "1954-08-11"
    },
    {
        "col0": "USS Plover",
        "col1": "7",
        "col2": "1944-04-20",
        "col3": "1944-10-14"
    },
    {
        "col0": "USS Pledge",
        "col1": "10",
        "col2": "1955-07-20",
        "col3": "1956-04-20"
    },
    {
        "col0": "USS Pledge",
        "col1": "10",
        "col2": "1943-12-23",
        "col3": "1944-07-29"
    },
    {
        "col0": "USS Platte",
        "col1": "26",
        "col2": "1982-01-30",
        "col3": "1983-01-29"
    },
    {
        "col0": "USS Plainview",
        "col1": "12",
        "col2": "1965-06-28",
        "col3": "1969-03-03"
    },
    {
        "col0": "USS Pivot",
        "col1": "10",
        "col2": "1954-01-09",
        "col3": "1954-07-12"
    },
    {
        "col0": "USS Pivot",
        "col1": "10",
        "col2": "1943-11-11",
        "col3": "1944-07-12"
    },
    {
        "col0": "USS Pittsburgh",
        "col1": "21",
        "col2": "1944-02-22",
        "col3": "1944-10-10"
    },
    {
        "col0": "USS Pitt",
        "col1": "18",
        "col2": "1944-11-10",
        "col3": "1944-12-11"
    },
    {
        "col0": "USS Pitkin County",
        "col1": "15",
        "col2": "1945-01-26",
        "col3": "1945-02-07"
    },
    {
        "col0": "USS Pirate",
        "col1": "10",
        "col2": "1943-12-16",
        "col3": "1944-06-16"
    },
    {
        "col0": "USS Piranha",
        "col1": "8",
        "col2": "1943-10-27",
        "col3": "1944-02-05"
    },
    {
        "col0": "USS Piper",
        "col1": "8",
        "col2": "1944-06-26",
        "col3": "1944-08-23"
    },
    {
        "col0": "USS Pipefish",
        "col1": "8",
        "col2": "1943-10-12",
        "col3": "1944-01-22"
    },
    {
        "col0": "USS Pioneer",
        "col1": "9",
        "col2": "1942-07-26",
        "col3": "1943-02-27"
    },
    {
        "col0": "USS Pinto",
        "col1": "11",
        "col2": "1943-01-05",
        "col3": "1943-04-01"
    },
    {
        "col0": "USS Pintado",
        "col1": "8",
        "col2": "1943-09-15",
        "col3": "1944-01-01"
    },
    {
        "col0": "USS Pinon",
        "col1": "11",
        "col2": "1944-01-16",
        "col3": "1944-03-31"
    }
]