[
    {
        "col0": "USS Wilkes",
        "col1": "5",
        "col2": "1901-09-28",
        "col3": "1902-09-18"
    },
    {
        "col0": "USS Wilkes",
        "col1": "9",
        "col2": "1916-05-18",
        "col3": "1916-11-10"
    },
    {
        "col0": "USS Wilkes",
        "col1": "10",
        "col2": "1940-05-31",
        "col3": "1941-04-22"
    },
    {
        "col0": "USS Wilhoite",
        "col1": "11",
        "col2": "1943-10-05",
        "col3": "1943-12-16"
    },
    {
        "col0": "USS Wilhelmina",
        "col1": "16",
        "col2": "1909-09-18",
        "col3": "1918-01-26"
    },
    {
        "col0": "USS Wileman",
        "col1": "10",
        "col2": "1942-12-19",
        "col3": "1943-06-11"
    },
    {
        "col0": "USS Wildcat",
        "col1": "17",
        "col2": "1944-01-07",
        "col3": "1944-02-17"
    },
    {
        "col0": "USS Widgeon",
        "col1": "8",
        "col2": "1954-10-15",
        "col3": "1955-11-16"
    },
    {
        "col0": "USS Widgeon",
        "col1": "10",
        "col2": "1918-05-05",
        "col3": "1918-07-27"
    },
    {
        "col0": "USS Wickes",
        "col1": "9",
        "col2": "1918-06-25",
        "col3": "1918-07-31"
    },
    {
        "col0": "USS Wickes",
        "col1": "12",
        "col2": "1942-09-13",
        "col3": "1943-06-16"
    },
    {
        "col0": "USS Wichita",
        "col1": "29",
        "col2": "1968-03-16",
        "col3": "1969-06-07"
    },
    {
        "col0": "USS Whitney",
        "col1": "18",
        "col2": "1923-10-12",
        "col3": "1924-09-02"
    },
    {
        "col0": "USS Whitman",
        "col1": "10",
        "col2": "1943-01-19",
        "col3": "1943-07-03"
    },
    {
        "col0": "USS Whitewood",
        "col1": "10",
        "col2": "1944-04-21",
        "col3": "1944-07-17"
    },
    {
        "col0": "USS White Plains",
        "col1": "24",
        "col2": "1966-07-26",
        "col3": "1968-11-23"
    },
    {
        "col0": "USS White Marsh",
        "col1": "21",
        "col2": "1943-07-19",
        "col3": "1944-01-29"
    },
    {
        "col0": "USS Whirlwind",
        "col1": "7",
        "col2": "1994-09-09",
        "col3": "1995-07-01"
    },
    {
        "col0": "USS Whippoorwill",
        "col1": "8",
        "col2": "1954-08-13",
        "col3": "1955-10-20"
    },
    {
        "col0": "USS Whippoorwill",
        "col1": "10",
        "col2": "1918-07-04",
        "col3": "1919-04-01"
    },
    {
        "col0": "USS Whipple",
        "col1": "14",
        "col2": "1968-04-12",
        "col3": "1970-08-22"
    },
    {
        "col0": "USS Whipple",
        "col1": "9",
        "col2": "1919-11-06",
        "col3": "1920-04-23"
    },
    {
        "col0": "USS Whipple",
        "col1": "7",
        "col2": "1901-08-15",
        "col3": "1903-02-17"
    },
    {
        "col0": "USS Whippet",
        "col1": "17",
        "col2": "1943-12-15",
        "col3": "1944-01-14"
    },
    {
        "col0": "USS Whetstone",
        "col1": "21",
        "col2": "1945-07-18",
        "col3": "1946-02-12"
    },
    {
        "col0": "USS Wheeling",
        "col1": "10",
        "col2": "1897-03-18",
        "col3": "1897-08-10"
    },
    {
        "col0": "USS Wheatland",
        "col1": "19",
        "col2": "1944-09-21",
        "col3": "1945-04-03"
    },
    {
        "col0": "USS Wheatear",
        "col1": "9",
        "col2": "1945-04-21",
        "col3": "1945-10-03"
    },
    {
        "col0": "USS Wharton",
        "col1": "21",
        "col2": "1919-07-20",
        "col3": "1940-12-07"
    },
    {
        "col0": "USS Whale",
        "col1": "9",
        "col2": "1966-10-14",
        "col3": "1968-10-12"
    },
    {
        "col0": "USS Whale",
        "col1": "8",
        "col2": "1942-03-14",
        "col3": "1942-06-01"
    },
    {
        "col0": "USS Wexford County",
        "col1": "16",
        "col2": "1953-11-28",
        "col3": "1954-06-15"
    },
    {
        "col0": "USS Westover",
        "col1": "16",
        "col2": "1918-02-17",
        "col3": "1918-05-22"
    },
    {
        "col0": "USS Westmoreland",
        "col1": "21",
        "col2": "1944-04-28",
        "col3": "1945-01-18"
    },
    {
        "col0": "USS Westerner",
        "col1": "16",
        "col2": "1917-11-04",
        "col3": "1918-06-20"
    },
    {
        "col0": "USS Western Star",
        "col1": "16",
        "col2": "1918-07-04",
        "col3": "1918-08-28"
    },
    {
        "col0": "USS Western Spirit",
        "col1": "16",
        "col2": "1918-05-06",
        "col3": "1918-07-30"
    },
    {
        "col0": "USS Western Sea",
        "col1": "16",
        "col2": "1918-05-25",
        "col3": "1918-06-29"
    },
    {
        "col0": "USS Western Hope",
        "col1": "16",
        "col2": "1918-07-29",
        "col3": "1918-09-25"
    },
    {
        "col0": "USS Western Comet",
        "col1": "16",
        "col2": "1918-07-23",
        "col3": "1918-09-22"
    },
    {
        "col0": "USS Western Chief",
        "col1": "16",
        "col2": "1918-04-20",
        "col3": "1918-07-03"
    },
    {
        "col0": "USS Westchester County",
        "col1": "16",
        "col2": "1953-04-18",
        "col3": "1954-03-10"
    },
    {
        "col0": "USS West Zula",
        "col1": "16",
        "col2": "1918-07-04",
        "col3": "1918-09-26"
    },
    {
        "col0": "USS West Gate",
        "col1": "16",
        "col2": "1918-01-27",
        "col3": "1918-05-29"
    },
    {
        "col0": "USS West Gambo",
        "col1": "16",
        "col2": "1918-07-04",
        "col3": "1918-07-20"
    },
    {
        "col0": "USS West Ekonk",
        "col1": "16",
        "col2": "1918-06-22",
        "col3": "1918-07-13"
    },
    {
        "col0": "USS West Corum",
        "col1": "16",
        "col2": "1919-01-02",
        "col3": "1919-02-10"
    },
    {
        "col0": "USS West Coast",
        "col1": "16",
        "col2": "1918-07-06",
        "col3": "1918-08-09"
    },
    {
        "col0": "USS West Carnifax",
        "col1": "16",
        "col2": "1918-10-19",
        "col3": "1918-12-31"
    },
    {
        "col0": "USS West Bridge",
        "col1": "16",
        "col2": "1918-04-24",
        "col3": "1918-05-26"
    },
    {
        "col0": "USS West Avenal",
        "col1": "16",
        "col2": "1918-10-13",
        "col3": "1919-02-01"
    },
    {
        "col0": "USS West Alsek",
        "col1": "16",
        "col2": "1918-05-04",
        "col3": "1918-06-04"
    },
    {
        "col0": "USS Wesson",
        "col1": "10",
        "col2": "1943-10-17",
        "col3": "1943-11-11"
    },
    {
        "col0": "USS Welles",
        "col1": "10",
        "col2": "1942-09-07",
        "col3": "1943-08-16"
    },
    {
        "col0": "USS Welles",
        "col1": "9",
        "col2": "1919-05-08",
        "col3": "1919-09-02"
    },
    {
        "col0": "USS Welch",
        "col1": "7",
        "col2": "1968-07-25",
        "col3": "1969-09-08"
    },
    {
        "col0": "USS Welborn C. Wood",
        "col1": "9",
        "col2": "1920-03-06",
        "col3": "1921-01-14"
    },
    {
        "col0": "USS Weiss",
        "col1": "10",
        "col2": "1945-02-17",
        "col3": "1945-07-07"
    },
    {
        "col0": "USS Weight",
        "col1": "11",
        "col2": "1943-04-21",
        "col3": "1943-08-14"
    },
    {
        "col0": "USS Weehawken",
        "col1": "14",
        "col2": "1862-11-05",
        "col3": "1863-01-18"
    },
    {
        "col0": "USS Weeden",
        "col1": "11",
        "col2": "1943-10-27",
        "col3": "1944-02-19"
    },
    {
        "col0": "USS Wedderburn",
        "col1": "12",
        "col2": "1943-08-01",
        "col3": "1944-03-09"
    },
    {
        "col0": "USS Webster",
        "col1": "17",
        "col2": "1944-08-05",
        "col3": "1945-05-15"
    },
    {
        "col0": "USS Weber",
        "col1": "10",
        "col2": "1943-05-01",
        "col3": "1943-06-30"
    },
    {
        "col0": "USS Weaver",
        "col1": "10",
        "col2": "1943-07-04",
        "col3": "1943-12-31"
    },
    {
        "col0": "USS Wayne",
        "col1": "19",
        "col2": "1942-12-06",
        "col3": "1943-08-27"
    },
    {
        "col0": "USS Waxsaw",
        "col1": "10",
        "col2": "1944-09-15",
        "col3": "1945-05-06"
    },
    {
        "col0": "USS Waxbill",
        "col1": "7",
        "col2": "1943-09-30",
        "col3": "1944-07-20"
    },
    {
        "col0": "USS Wautauga",
        "col1": "11",
        "col2": "1944-01-10",
        "col3": "1944-09-28"
    },
    {
        "col0": "USS Waupaca",
        "col1": "11",
        "col2": "1945-01-04",
        "col3": "1945-02-09"
    },
    {
        "col0": "USS Watts",
        "col1": "12",
        "col2": "1943-12-31",
        "col3": "1944-04-29"
    },
    {
        "col0": "USS Waters",
        "col1": "9",
        "col2": "1918-03-03",
        "col3": "1918-08-08"
    },
    {
        "col0": "USS Waterman",
        "col1": "10",
        "col2": "1943-06-20",
        "col3": "1943-11-30"
    },
    {
        "col0": "USS Wateree",
        "col1": "11",
        "col2": "1944-06-14",
        "col3": "1945-02-17"
    },
    {
        "col0": "USS Wateree",
        "col1": "10",
        "col2": "1943-11-18",
        "col3": "1944-07-20"
    },
    {
        "col0": "USS Wateree",
        "col1": "10",
        "col2": "1863-08-12",
        "col3": "1864-01-20"
    },
    {
        "col0": "USS Watchman",
        "col1": "17",
        "col2": "1945-02-20",
        "col3": "1959-01-05"
    },
    {
        "col0": "USS Wassaic",
        "col1": "16",
        "col2": "1918-04-14",
        "col3": "1918-10-14"
    },
    {
        "col0": "USS Wasp",
        "col1": "32",
        "col2": "1987-08-04",
        "col3": "1989-07-29"
    },
    {
        "col0": "USS Wasmuth",
        "col1": "9",
        "col2": "1920-09-15",
        "col3": "1921-12-16"
    },
    {
        "col0": "USS Washtenaw County",
        "col1": "16",
        "col2": "1952-11-22",
        "col3": "1953-10-29"
    },
    {
        "col0": "USS Washoe County",
        "col1": "16",
        "col2": "1953-07-14",
        "col3": "1953-11-30"
    },
    {
        "col0": "USS Washington",
        "col1": "21",
        "col2": "1905-03-18",
        "col3": "1906-08-07"
    },
    {
        "col0": "USS Washington",
        "col1": "16",
        "col2": "1814-10-01",
        "col3": "1815-08-26"
    },
    {
        "col0": "USS Washburn",
        "col1": "19",
        "col2": "1944-12-18",
        "col3": "1945-05-17"
    },
    {
        "col0": "USS Washakie",
        "col1": "7",
        "col2": "1944-02-13",
        "col3": "1944-07-01"
    },
    {
        "col0": "USS Warrington",
        "col1": "12",
        "col2": "1945-09-27",
        "col3": "1945-12-20"
    },
    {
        "col0": "USS Warrington",
        "col1": "10",
        "col2": "1937-05-15",
        "col3": "1938-02-09"
    },
    {
        "col0": "USS Warrington",
        "col1": "8",
        "col2": "1910-06-18",
        "col3": "1911-03-20"
    },
    {
        "col0": "USS Warren",
        "col1": "19",
        "col2": "1942-09-07",
        "col3": "1943-08-02"
    },
    {
        "col0": "USS Warbler",
        "col1": "8",
        "col2": "1954-06-18",
        "col3": "1955-07-26"
    },
    {
        "col0": "USS Warbler",
        "col1": "10",
        "col2": "1919-07-30",
        "col3": "1919-12-22"
    },
    {
        "col0": "USS War Hawk",
        "col1": "19",
        "col2": "1943-04-03",
        "col3": "1944-03-09"
    },
    {
        "col0": "USS Wantuck",
        "col1": "11",
        "col2": "1944-09-25",
        "col3": "1944-12-30"
    },
    {
        "col0": "USS Waneta",
        "col1": "7",
        "col2": "1943-12-24",
        "col3": "1944-04-25"
    },
    {
        "col0": "USS Wando",
        "col1": "7",
        "col2": "1916-03-17",
        "col3": "1917-04-03"
    },
    {
        "col0": "USS Wandank",
        "col1": "9",
        "col2": "1919-10-21",
        "col3": "1920-03-23"
    },
    {
        "col0": "USS Wampanoag",
        "col1": "10",
        "col2": "1944-10-10",
        "col3": "1944-12-08"
    },
    {
        "col0": "USS Wampanoag",
        "col1": "13",
        "col2": "1864-12-15",
        "col3": "1867-09-17"
    },
    {
        "col0": "USS Walworth County",
        "col1": "17",
        "col2": "1953-05-15",
        "col3": "1953-10-26"
    },
    {
        "col0": "USS Walton",
        "col1": "11",
        "col2": "1944-05-20",
        "col3": "1944-09-04"
    },
    {
        "col0": "USS Walter X. Young",
        "col1": "10",
        "col2": "1944-09-30",
        "col3": "1945-05-01"
    },
    {
        "col0": "USS Walter S. Gorka",
        "col1": "11",
        "col2": "1945-05-26",
        "col3": "1945-08-07"
    },
    {
        "col0": "USS Walter S. Brown",
        "col1": "10",
        "col2": "1943-02-22",
        "col3": "1943-06-25"
    },
    {
        "col0": "USS Walter C. Wann",
        "col1": "10",
        "col2": "1944-01-19",
        "col3": "1944-05-02"
    },
    {
        "col0": "USS Walter B. Cobb",
        "col1": "11",
        "col2": "1944-02-23",
        "col3": "1945-04-25"
    },
    {
        "col0": "USS Walter A. Luckenbach",
        "col1": "16",
        "col2": "1917-12-19",
        "col3": "1918-06-09"
    },
    {
        "col0": "USS Walsh",
        "col1": "11",
        "col2": "1945-04-27",
        "col3": "1945-07-11"
    },
    {
        "col0": "USS Wallacut",
        "col1": "7",
        "col2": "1945-10-28",
        "col3": "1945-03-31"
    },
    {
        "col0": "USS Wallace L. Lind",
        "col1": "12",
        "col2": "1944-06-14",
        "col3": "1944-09-08"
    },
    {
        "col0": "USS Walker",
        "col1": "12",
        "col2": "1943-01-31",
        "col3": "1943-04-03"
    },
    {
        "col0": "USS Walker",
        "col1": "9",
        "col2": "1918-09-14",
        "col3": "1919-01-31"
    },
    {
        "col0": "USS Walke",
        "col1": "12",
        "col2": "1943-10-27",
        "col3": "1944-01-21"
    },
    {
        "col0": "USS Walke",
        "col1": "8",
        "col2": "1910-11-03",
        "col3": "1911-07-22"
    },
    {
        "col0": "USS Waldron",
        "col1": "12",
        "col2": "1944-03-26",
        "col3": "1944-06-07"
    },
    {
        "col0": "USS Waldo County",
        "col1": "16",
        "col2": "1953-05-17",
        "col3": "1953-09-17"
    },
    {
        "col0": "USS Wakulla",
        "col1": "16",
        "col2": "1918-01-14",
        "col3": "1918-06-26"
    },
    {
        "col0": "USS Wakulla",
        "col1": "11",
        "col2": "1944-12-17",
        "col3": "1945-02-03"
    },
    {
        "col0": "USS Wakiva II",
        "col1": "9",
        "col2": "1907-02-03",
        "col3": "1917-08-06"
    },
    {
        "col0": "USS Wakefield",
        "col1": "26",
        "col2": "1931-12-05",
        "col3": "1940-05-15"
    },
    {
        "col0": "USS Wake Island",
        "col1": "19",
        "col2": "1943-09-15",
        "col3": "1943-11-07"
    },
    {
        "col0": "USS Wake",
        "col1": "8",
        "col2": "1927-05-28",
        "col3": "1927-12-28"
    },
    {
        "col0": "USS Wainwright",
        "col1": "8",
        "col2": "1915-06-12",
        "col3": "1916-05-12"
    },
    {
        "col0": "USS Wahoo",
        "col1": "8",
        "col2": "1951-10-16",
        "col3": "1952-05-30"
    },
    {
        "col0": "USS Wahkiakum County",
        "col1": "16",
        "col2": "1953-01-23",
        "col3": "1953-08-13"
    },
    {
        "col0": "USS Wagner",
        "col1": "10",
        "col2": "1943-12-27",
        "col3": "1955-11-22"
    },
    {
        "col0": "USS Wadsworth",
        "col1": "8",
        "col2": "1915-04-29",
        "col3": "1915-07-23"
    },
    {
        "col0": "USS Wadsworth",
        "col1": "11",
        "col2": "1943-01-10",
        "col3": "1943-03-16"
    },
    {
        "col0": "USS Wadleigh",
        "col1": "12",
        "col2": "1943-08-07",
        "col3": "1943-10-19"
    },
    {
        "col0": "USS Wachusett",
        "col1": "10",
        "col2": "1861-10-10",
        "col3": "1862-03-03"
    },
    {
        "col0": "USS Wachapreague",
        "col1": "12",
        "col2": "1943-07-10",
        "col3": "1944-05-17"
    },
    {
        "col0": "USS Waccamaw",
        "col1": "22",
        "col2": "1946-03-30",
        "col3": "1946-06-25"
    },
    {
        "col0": "USS Wabash",
        "col1": "14",
        "col2": "1942-10-28",
        "col3": "1943-05-10"
    },
    {
        "col0": "USS Wabash",
        "col1": "15",
        "col2": "1855-10-24",
        "col3": "1856-08-18"
    },
    {
        "col0": "USS W. S. Sims",
        "col1": "14",
        "col2": "1969-01-04",
        "col3": "1970-01-03"
    },
    {
        "col0": "USS Vulcan",
        "col1": "22",
        "col2": "1940-12-14",
        "col3": "1941-06-14"
    },
    {
        "col0": "USS Volunteer",
        "col1": "17",
        "col2": "1918-05-18",
        "col3": "1918-08-23"
    },
    {
        "col0": "USS Volans",
        "col1": "17",
        "col2": "1943-02-02",
        "col3": "1944-03-31"
    },
    {
        "col0": "USS Volador",
        "col1": "8",
        "col2": "1948-05-21",
        "col3": "1948-10-01"
    },
    {
        "col0": "USS Vogelgesang",
        "col1": "12",
        "col2": "1945-01-15",
        "col3": "1945-04-28"
    },
    {
        "col0": "USS Voge",
        "col1": "13",
        "col2": "1965-02-04",
        "col3": "1966-11-25"
    }
]