[
    {
        "col0": "The Flying Fox of Snowy Mountain",
        "col1": "J. To",
        "col2": "P. Tse",
        "col3": "1985-12-06"
    },
    {
        "col0": "The Flockton Flyer",
        "col1": "C. Nutley",
        "col2": "A. Sharp",
        "col3": "1978-02-13"
    },
    {
        "col0": "The Flaxton Boys",
        "col1": "R. D. Cardona",
        "col2": "P. Firth",
        "col3": "1973-06-17"
    },
    {
        "col0": "The Firm",
        "col1": "N. P. Ho",
        "col2": "P. Pek",
        "col3": "2007-08-26"
    },
    {
        "col0": "The Fantastic Journey",
        "col1": "A. V. McLaglen",
        "col2": "C. Franklin",
        "col3": "1977-06-17"
    },
    {
        "col0": "The Fanelli Boys",
        "col1": "J. Burrows",
        "col2": "A. M. Guilbert",
        "col3": "1991-02-16"
    },
    {
        "col0": "The Famous Teddy Z",
        "col1": "H. Wilson",
        "col2": "A. Rocco",
        "col3": "1990-05-12"
    },
    {
        "col0": "The Family Man",
        "col1": "M. Linn-Baker",
        "col2": "G. Harrison",
        "col3": "1991-07-17"
    },
    {
        "col0": "The Faculty",
        "col1": "T. Cherones",
        "col2": "P. M. Goetz",
        "col3": "1996-06-26"
    },
    {
        "col0": "The Ernie Kovacs Show",
        "col1": "B. Shear",
        "col2": "E. Adams",
        "col3": "1955-04-07"
    },
    {
        "col0": "The Emissary",
        "col1": "L. Tim-shing",
        "col2": "A. Lau",
        "col3": "1983-01-21"
    },
    {
        "col0": "The Eloquent Ji Xiaolan",
        "col1": "Z. Guoli",
        "col2": "Z. Guoli",
        "col3": "2010-03-05"
    },
    {
        "col0": "The Ellen Burstyn Show",
        "col1": "S. Weisman",
        "col2": "E. Stritch",
        "col3": "1987-09-05"
    },
    {
        "col0": "The Edge",
        "col1": "D. Mirkin",
        "col2": "W. Knight",
        "col3": "1993-05-02"
    },
    {
        "col0": "The Eddie Fisher Show",
        "col1": "B. Shear",
        "col2": "G. Gobel",
        "col3": "1959-03-17"
    },
    {
        "col0": "The Ed Wynn Show",
        "col1": "R. Levy",
        "col2": "E. Wynn",
        "col3": "1950-06-15"
    },
    {
        "col0": "The Eagle",
        "col1": "S. Kragh-Jacobsen",
        "col2": "G. Norby",
        "col3": "2006-11-26"
    },
    {
        "col0": "The Duke of Mount Deer",
        "col1": "J. To",
        "col2": "T. L. Chiu-wai",
        "col3": "1984-08-31"
    },
    {
        "col0": "The Duke",
        "col1": "D. Elcar",
        "col2": "R. West",
        "col3": "1979-05-18"
    },
    {
        "col0": "The Dovekeepers",
        "col1": "Y. Simoneau",
        "col2": "S. Neill",
        "col3": "2015-04-01"
    },
    {
        "col0": "The Dots",
        "col1": "M. Modiri",
        "col2": "R. S. Jam",
        "col3": "2004-01-15"
    },
    {
        "col0": "The Donald O'Connor Show",
        "col1": "D. O'Connor",
        "col2": "D. O'Connor",
        "col3": "1955-09-10"
    },
    {
        "col0": "The District Nurse",
        "col1": "M. Ridge",
        "col2": "M. John",
        "col3": "1987-05-24"
    },
    {
        "col0": "The Dingo Principle",
        "col1": "T. Robinson",
        "col2": "J. Biggins",
        "col3": "1987-06-08"
    },
    {
        "col0": "The Dick Van Dyke Show",
        "col1": "S. Leonard",
        "col2": "R. Marie",
        "col3": "1966-06-01"
    },
    {
        "col0": "The Dick Powell Show",
        "col1": "B. Edwards",
        "col2": "G. Ford",
        "col3": "1963-04-30"
    },
    {
        "col0": "The Diary of Anne Frank",
        "col1": "J. Jones",
        "col2": "T. Greig",
        "col3": "2009-01-09"
    },
    {
        "col0": "The Devil's Crown",
        "col1": "A. Cooke",
        "col2": "B. Cox",
        "col3": "1978-07-01"
    },
    {
        "col0": "The Detectives",
        "col1": "A. Hiller",
        "col2": "T. Andrews",
        "col3": "1962-05-18"
    },
    {
        "col0": "The Dennis O'Keefe Show",
        "col1": "D. Weis",
        "col2": "D. O'Keefe",
        "col3": "1960-06-14"
    },
    {
        "col0": "The Dennis Day Show",
        "col1": "R. Amateau",
        "col2": "D. Day",
        "col3": "1954-08-02"
    },
    {
        "col0": "The Deep Blue Sea",
        "col1": "J. Amyes",
        "col2": "G. Withers",
        "col3": "1954-01-21"
    },
    {
        "col0": "The Debbie Reynolds Show",
        "col1": "E. Stone",
        "col2": "D. Reynolds",
        "col3": "1970-04-14"
    },
    {
        "col0": "The Day of the Triffids",
        "col1": "N. Copus",
        "col2": "J. Murray",
        "col3": "2009-12-29"
    },
    {
        "col0": "The Day of the Triffids",
        "col1": "K. Hannam",
        "col2": "M. Colbourne",
        "col3": "1981-10-15"
    },
    {
        "col0": "The Danny Thomas Show",
        "col1": "W. Asher",
        "col2": "J. Hagen",
        "col3": "1964-04-27"
    },
    {
        "col0": "The Danny Thomas Hour",
        "col1": "P. Bogart",
        "col2": "D. Thomas",
        "col3": "1968-06-03"
    },
    {
        "col0": "The Dakotas",
        "col1": "R. Totten",
        "col2": "C. Everett",
        "col3": "1963-09-09"
    },
    {
        "col0": "The D.A.",
        "col1": "H. Morgan",
        "col2": "H. Morgan",
        "col3": "1972-01-07"
    },
    {
        "col0": "The Cup",
        "col1": "M. Lipsey",
        "col2": "S. Edge",
        "col3": "2008-09-25"
    },
    {
        "col0": "The Cult",
        "col1": "P. Burger",
        "col2": "L. Chappell",
        "col3": "2009-12-10"
    },
    {
        "col0": "The Cube",
        "col1": "J. Henson",
        "col2": "R. Schaal",
        "col3": "1971-02-21"
    },
    {
        "col0": "The Crow Road",
        "col1": "G. Millar",
        "col2": "B. Paterson",
        "col3": "1996-11-25"
    },
    {
        "col0": "The Crouches",
        "col1": "N. Wood",
        "col2": "R. Gee",
        "col3": "2005-02-14"
    },
    {
        "col0": "The Criminal Investigator II",
        "col1": "J. Chik",
        "col2": "F. Wong",
        "col3": "1996-12-06"
    },
    {
        "col0": "The Crew",
        "col1": "A. Bearse",
        "col2": "L. Davies",
        "col3": "1996-06-30"
    },
    {
        "col0": "The Court of Last Resort",
        "col1": "T. Gries",
        "col2": "L. Bettger",
        "col3": "1958-04-11"
    },
    {
        "col0": "The Corner Bar",
        "col1": "P. Baldwin",
        "col2": "E. Roche",
        "col3": "1973-09-07"
    },
    {
        "col0": "The Corner",
        "col1": "C. S. Dutton",
        "col2": "K. Alexander",
        "col3": "2000-05-21"
    },
    {
        "col0": "The Company",
        "col1": "M. Salomon",
        "col2": "A. Molina",
        "col3": "2007-08-19"
    },
    {
        "col0": "The Comedy Company",
        "col1": "I. McFadyen",
        "col2": "G. Robbins",
        "col3": "1990-11-11"
    },
    {
        "col0": "The Client",
        "col1": "M. W. Watkins",
        "col2": "J. Williams",
        "col3": "1996-04-16"
    },
    {
        "col0": "The Clear Horizon",
        "col1": "J. Behar",
        "col2": "D. Alexander",
        "col3": "1962-06-15"
    },
    {
        "col0": "The Chinese Puzzle",
        "col1": "Alan J. W. Bell",
        "col2": "M. Cronin",
        "col3": "1974-12-18"
    },
    {
        "col0": "The Chicago Teddy Bears",
        "col1": "L. H. Martinson",
        "col2": "H. Hall",
        "col3": "1971-12-10"
    },
    {
        "col0": "The Chaser's War on Everything",
        "col1": "C. Melville",
        "col2": "C. Reucassel",
        "col3": "2009-07-29"
    },
    {
        "col0": "The Charmings",
        "col1": "J. Shea",
        "col2": "B. Call",
        "col3": "1988-02-11"
    },
    {
        "col0": "The Charmer",
        "col1": "A. Gibson",
        "col2": "N. Havers",
        "col3": "1987-11-22"
    },
    {
        "col0": "The Cazalets",
        "col1": "S. Krishnamma",
        "col2": "H. Bonneville",
        "col3": "2001-07-27"
    },
    {
        "col0": "The Casual Vacancy",
        "col1": "J. Campbell",
        "col2": "J. McKenzie",
        "col3": "2015-03-01"
    },
    {
        "col0": "The Capone Investment",
        "col1": "A. Gibson",
        "col2": "G. Owen",
        "col3": "1974-08-13"
    },
    {
        "col0": "The Cafe",
        "col1": "C. Cash",
        "col2": "M. Terry",
        "col3": "2013-09-04"
    },
    {
        "col0": "The Burn with Jeff Ross",
        "col1": "J. Karas",
        "col2": "J. Ross",
        "col3": "2013-02-12"
    },
    {
        "col0": "The Building",
        "col1": "J. Bowab",
        "col2": "B. Hunt",
        "col3": "1993-09-17"
    },
    {
        "col0": "The Buddha of Suburbia",
        "col1": "R. Michell",
        "col2": "R. Seth",
        "col3": "1993-11-24"
    },
    {
        "col0": "The Bronx Is Burning",
        "col1": "J. Chechik",
        "col2": "D. Sunjata",
        "col3": "2007-08-28"
    },
    {
        "col0": "The Brittas Empire",
        "col1": "M. Stephens",
        "col2": "C. Barrie",
        "col3": "1997-02-24"
    },
    {
        "col0": "The Brady Bunch",
        "col1": "P. Baldwin",
        "col2": "F. Henderson",
        "col3": "1974-03-08"
    },
    {
        "col0": "The Boys Are Back",
        "col1": "W. Mackenzie",
        "col2": "H. Linden",
        "col3": "1995-01-28"
    },
    {
        "col0": "The Book of Negroes",
        "col1": "C. Virgo",
        "col2": "L. G. Jr.",
        "col3": "2015-02-11"
    },
    {
        "col0": "The Bold Ones: The Senator",
        "col1": "D. Duke",
        "col2": "S. Acker",
        "col3": "1971-02-28"
    },
    {
        "col0": "The Bold Ones: The Protectors",
        "col1": "D. Duke",
        "col2": "L. Nielsen",
        "col3": "1970-03-08"
    },
    {
        "col0": "The Bold Ones: The New Doctors",
        "col1": "A. Biberman",
        "col2": "E. G. Marshall",
        "col3": "1973-05-04"
    },
    {
        "col0": "The Bold Ones: The Lawyers",
        "col1": "D. Heyes",
        "col2": "B. Ives",
        "col3": "1972-02-13"
    },
    {
        "col0": "The Bob Cummings Show",
        "col1": "R. Amateau",
        "col2": "R. Cummings",
        "col3": "1959-09-15"
    },
    {
        "col0": "The Blue and the Gray",
        "col1": "A. McLaglen",
        "col2": "L. Bridges",
        "col3": "1982-11-17"
    },
    {
        "col0": "The Blonde Bombshell",
        "col1": "R. Bierman",
        "col2": "A. Redman",
        "col3": "1999-04-27"
    },
    {
        "col0": "The Black Forest Clinic",
        "col1": "A. Vohrer",
        "col2": "K. Wussow",
        "col3": "1989-03-25"
    },
    {
        "col0": "The Bill Dana Show",
        "col1": "S. Leonard",
        "col2": "D. Adams",
        "col3": "1965-01-17"
    },
    {
        "col0": "The Big Comfy Couch",
        "col1": "W. Moss",
        "col2": "J. Harris",
        "col3": "2006-12-29"
    },
    {
        "col0": "The Bible",
        "col1": "R. Downey",
        "col2": "R. Downey",
        "col3": "2013-03-31"
    },
    {
        "col0": "The Betty White Show",
        "col1": "J. Burrows",
        "col2": "G. Engel",
        "col3": "1978-01-02"
    },
    {
        "col0": "The Betty Hutton Show",
        "col1": "H. B. Humberstone",
        "col2": "D. White",
        "col3": "1960-06-30"
    },
    {
        "col0": "The Beast",
        "col1": "M. Dinner",
        "col2": "T. Fimmel",
        "col3": "2009-04-23"
    },
    {
        "col0": "The Beast",
        "col1": "M. Leder",
        "col2": "F. Langella",
        "col3": "2001-07-25"
    },
    {
        "col0": "The Basil Brush Show",
        "col1": "D. McKay",
        "col2": "C. Pizzey",
        "col3": "2007-12-21"
    },
    {
        "col0": "The Barchester Chronicles",
        "col1": "D. Giles",
        "col2": "N. Hawthorne",
        "col3": "1982-12-22"
    },
    {
        "col0": "The Banana Splits",
        "col1": "R. Donner",
        "col2": "J. Winkless",
        "col3": "1970-09-05"
    },
    {
        "col0": "The Baker Street Boys",
        "col1": "M. Kerrigan",
        "col2": "C. Jeavons",
        "col3": "1983-04-01"
    },
    {
        "col0": "The Baileys of Balboa",
        "col1": "B. Sweeney",
        "col2": "J. Carne",
        "col3": "1965-04-01"
    },
    {
        "col0": "The Bad News Bears",
        "col1": "W. Asher",
        "col2": "C. Hicks",
        "col3": "1980-07-26"
    },
    {
        "col0": "The Baby-Sitters Club",
        "col1": "N. Black",
        "col2": "A. Hillman",
        "col3": "1990-03-26"
    },
    {
        "col0": "The Awakening Land",
        "col1": "B. Sagal",
        "col2": "J. Seymour",
        "col3": "1978-02-21"
    },
    {
        "col0": "The Aunty Jack Show",
        "col1": "M. Murphy",
        "col2": "R. O'Donoghue",
        "col3": "1973-11-29"
    },
    {
        "col0": "The Atlanta Child Murders",
        "col1": "J. Erman",
        "col2": "M. Sheen",
        "col3": "1985-02-12"
    },
    {
        "col0": "The Army Show",
        "col1": "R. Schiller",
        "col2": "J. Sencio",
        "col3": "1998-12-13"
    },
    {
        "col0": "The Archie Show",
        "col1": "H. Sutherland",
        "col2": "J. Webb",
        "col3": "1969-08-30"
    },
    {
        "col0": "The Aquanauts",
        "col1": "W. Conrad",
        "col2": "R. Ely",
        "col3": "1961-06-07"
    },
    {
        "col0": "The Ann Sothern Show",
        "col1": "R. Whorf",
        "col2": "A. Sothern",
        "col3": "1961-09-25"
    },
    {
        "col0": "The Andy Dick Show",
        "col1": "A. Dick",
        "col2": "A. Dick",
        "col3": "2002-05-18"
    },
    {
        "col0": "The Andromeda Strain",
        "col1": "M. Salomon",
        "col2": "R. Schroder",
        "col3": "2008-05-27"
    },
    {
        "col0": "The Andromeda Breakthrough",
        "col1": "J. Elliot",
        "col2": "S. Hampshire",
        "col3": "1962-08-02"
    },
    {
        "col0": "The All-New Super Friends Hour",
        "col1": "C. A. Nichols",
        "col2": "C. Kasem",
        "col3": "1978-09-02"
    },
    {
        "col0": "The Alaskans",
        "col1": "G. Waggner",
        "col2": "D. Provine",
        "col3": "1960-06-19"
    },
    {
        "col0": "The Aeronauts",
        "col1": "F. Villiers",
        "col2": "C. Marin",
        "col3": "1970-03-03"
    },
    {
        "col0": "The Adventures of the Scarlet Pimpernel",
        "col1": "W. Rilla",
        "col2": "M. Goring",
        "col3": "1956-06-22"
    },
    {
        "col0": "The Adventures of Wild Bill Hickok",
        "col1": "L. King",
        "col2": "A. Devine",
        "col3": "1958-05-16"
    },
    {
        "col0": "The Adventures of Superboy",
        "col1": "G. Blair",
        "col2": "J. Waldo",
        "col3": "1969-09-06"
    },
    {
        "col0": "The Adventures of Sam",
        "col1": "C. Handley",
        "col2": "M. Craig",
        "col3": "1999-04-23"
    },
    {
        "col0": "The Adventures of Rin Tin Tin",
        "col1": "W. Beaudine",
        "col2": "J. Brown",
        "col3": "1959-05-08"
    },
    {
        "col0": "The Adventures of Ozzie and Harriet",
        "col1": "D. Nelson",
        "col2": "R. Nelson",
        "col3": "1966-04-23"
    },
    {
        "col0": "The Adventures of Kit Carson",
        "col1": "J. English",
        "col2": "B. Williams",
        "col3": "1955-11-22"
    },
    {
        "col0": "The Adventures of Dudley the Dragon",
        "col1": "A. Novak",
        "col2": "G. Greene",
        "col3": "1997-09-13"
    },
    {
        "col0": "The Adventures of Dr. Fu Manchu",
        "col1": "F. Adreon",
        "col2": "G. Gordon",
        "col3": "1956-11-26"
    },
    {
        "col0": "The Adventures of Champion",
        "col1": "F. Beebe",
        "col2": "J. Bannon",
        "col3": "1956-03-03"
    },
    {
        "col0": "The Adventures of Black Beauty",
        "col1": "C. Crichton",
        "col2": "J. Bowker",
        "col3": "1974-03-10"
    },
    {
        "col0": "The Adventures of Aggie",
        "col1": "J. Guillermin",
        "col2": "J. Shawlee",
        "col3": "1957-03-18"
    },
    {
        "col0": "The Adams Chronicles",
        "col1": "P. Bogart",
        "col2": "D. Birney",
        "col3": "1976-04-13"
    },
    {
        "col0": "The Abbott and Costello Show",
        "col1": "J. Yarbrough",
        "col2": "G. Jones",
        "col3": "1954-05-01"
    },
    {
        "col0": "The 7.39",
        "col1": "J. Alexander",
        "col2": "O. Colman",
        "col3": "2014-01-07"
    },
    {
        "col0": "The 10 Percenters",
        "col1": "E. Bye",
        "col2": "C. Stinton",
        "col3": "1996-09-03"
    },
    {
        "col0": "The 101st Proposal",
        "col1": "J. Tae-yoo",
        "col2": "P. Sun-young",
        "col3": "2006-07-25"
    },
    {
        "col0": "The 100 Lives of Black Jack Savage",
        "col1": "K. Manners",
        "col2": "D. H. Kelly",
        "col3": "1991-05-26"
    },
    {
        "col0": "That Winter, the Wind Blows",
        "col1": "K. Kyu-tae",
        "col2": "S. Hye-kyo",
        "col3": "2013-04-03"
    },
    {
        "col0": "That Was Then",
        "col1": "A. Myerson",
        "col2": "T. O'Kelley",
        "col3": "2002-10-04"
    },
    {
        "col0": "That Mitchell and Webb Look",
        "col1": "D. Kerr",
        "col2": "D. Mitchell",
        "col3": "2010-08-17"
    },
    {
        "col0": "That '70s Show",
        "col1": "T. Hughes",
        "col2": "A. Kutcher",
        "col3": "2006-05-18"
    },
    {
        "col0": "That's My Amboy",
        "col1": "G. Alajar",
        "col2": "B. Forteza",
        "col3": "2016-04-29"
    },
    {
        "col0": "That's Life",
        "col1": "M. Lembeck",
        "col2": "P. Perrette",
        "col3": "1998-04-07"
    },
    {
        "col0": "Texas Rising",
        "col1": "R. Joffe",
        "col2": "C. M. Murray",
        "col3": "2015-06-15"
    },
    {
        "col0": "Tess of the D'Urbervilles",
        "col1": "D. Blair",
        "col2": "A. Massey",
        "col3": "2008-10-05"
    },
    {
        "col0": "Terry and the Pirates",
        "col1": "L. Landers",
        "col2": "G. Saunders",
        "col3": "1953-11-21"
    },
    {
        "col0": "Teresa",
        "col1": "M. Miguel",
        "col2": "A. Boyer",
        "col3": "2011-02-27"
    },
    {
        "col0": "Tere Liye",
        "col1": "F. Kashmiri",
        "col2": "T. Liye",
        "col3": "2011-04-02"
    },
    {
        "col0": "Tequila and Bonetti",
        "col1": "R. Bowman",
        "col2": "J. Scalia",
        "col3": "1992-04-17"
    },
    {
        "col0": "Tenafly",
        "col1": "R. A. Colla",
        "col2": "J. McEachin",
        "col3": "1974-01-02"
    },
    {
        "col0": "Temptation of Wife",
        "col1": "G. Alajar",
        "col2": "M. Rivera",
        "col3": "2013-04-05"
    },
    {
        "col0": "Temple Houston",
        "col1": "R. Totten",
        "col2": "J. Hunter",
        "col3": "1964-04-02"
    },
    {
        "col0": "Television Parts",
        "col1": "M. Nesmith",
        "col2": "J. Leno",
        "col3": "1985-07-01"
    },
    {
        "col0": "Teen Gen",
        "col1": "M. Reyes",
        "col2": "J. Gonzales",
        "col3": "2013-06-30"
    },
    {
        "col0": "Teen Bahuraaniyaan",
        "col1": "S. W. Joshi",
        "col2": "T. Bahuraniyaan",
        "col3": "2009-01-09"
    },
    {
        "col0": "Teech",
        "col1": "P. Lazarus",
        "col2": "M. Han",
        "col3": "1991-10-16"
    },
    {
        "col0": "Te sigo amando",
        "col1": "M. Corcega",
        "col2": "C. Ramirez",
        "col3": "1997-04-25"
    },
    {
        "col0": "Tayong Dalawa",
        "col1": "R. S. Bayani",
        "col2": "J. Cuenca",
        "col3": "2009-09-25"
    },
    {
        "col0": "Tawan Deard",
        "col1": "C. Plengpanich",
        "col2": "U. Sperbund",
        "col3": "2011-09-18"
    },
    {
        "col0": "Tate",
        "col1": "I. Lupino",
        "col2": "D. McLean",
        "col3": "1960-09-14"
    },
    {
        "col0": "Tasya Fantasya",
        "col1": "M. Alejandre",
        "col2": "Y. Kurdi",
        "col3": "2008-07-13"
    },
    {
        "col0": "Tashan-e-Ishq",
        "col1": "S. Varma",
        "col2": "S. Gupta",
        "col3": "2016-09-16"
    },
    {
        "col0": "Target: The Corruptors!",
        "col1": "A. Hiller",
        "col2": "S. McNally",
        "col3": "1962-06-08"
    },
    {
        "col0": "Tanhaiyan Naye Silsilay",
        "col1": "M. Khan",
        "col2": "M. Khan",
        "col3": "2013-01-19"
    },
    {
        "col0": "Tanhai",
        "col1": "F. Burney",
        "col2": "A. Omar",
        "col3": "2013-07-10"
    },
    {
        "col0": "Tangle",
        "col1": "M. Saville",
        "col2": "J. Tobeck",
        "col3": "2012-04-29"
    },
    {
        "col0": "Tammy",
        "col1": "S. Miller",
        "col2": "D. Woods",
        "col3": "1966-03-11"
    },
    {
        "col0": "Talk to Me",
        "col1": "D. Walsh",
        "col2": "M. Beesley",
        "col3": "2007-07-01"
    },
    {
        "col0": "Tales of the Texas Rangers",
        "col1": "S. K. Sr.",
        "col2": "H. Lauter",
        "col3": "1958-12-26"
    },
    {
        "col0": "Tales of the 77th Bengal Lancers",
        "col1": "L. Landers",
        "col2": "P. Carey",
        "col3": "1957-04-14"
    },
    {
        "col0": "Tales of Wells Fargo",
        "col1": "E. Bellamy",
        "col2": "D. Robertson",
        "col3": "1962-06-02"
    },
    {
        "col0": "Tal como somos",
        "col1": "G. M. Ortega",
        "col2": "E. Palomo",
        "col3": "1988-04-15"
    },
    {
        "col0": "Taking the Falls",
        "col1": "M. Kennedy",
        "col2": "S. Nelson",
        "col3": "1996-02-01"
    },
    {
        "col0": "Take the Money and Run",
        "col1": "B. v. Munster",
        "col2": "P. Bishop",
        "col3": "2011-09-06"
    },
    {
        "col0": "Take Three Girls",
        "col1": "T. D. Cole",
        "col2": "L. Goddard",
        "col3": "1971-01-01"
    },
    {
        "col0": "Take Care, Your Highness!",
        "col1": "J. Chik",
        "col2": "C. Lau",
        "col3": "1985-10-25"
    },
    {
        "col0": "Tak and the Power of Juju",
        "col1": "M. Risley",
        "col2": "P. Warburton",
        "col3": "2009-01-24"
    },
    {
        "col0": "Tabitha",
        "col1": "W. Asher",
        "col2": "R. Urich",
        "col3": "1978-01-14"
    },
    {
        "col0": "TV 101",
        "col1": "S. Brazil",
        "col2": "M. LeBlanc",
        "col3": "1989-03-25"
    },
    {
        "col0": "TLC",
        "col1": "G. Posner",
        "col2": "T. Brooke-Taylor",
        "col3": "2002-12-16"
    },
    {
        "col0": "T.H.E. Cat",
        "col1": "B. Sagal",
        "col2": "R. Loggia",
        "col3": "1967-03-31"
    },
    {
        "col0": "T.G.I.S.",
        "col1": "M. Reyes",
        "col2": "A. d. Leon",
        "col3": "1999-11-27"
    },
    {
        "col0": "T-Bag",
        "col1": "G. Edwards",
        "col2": "E. Estensen",
        "col3": "1992-11-17"
    },
    {
        "col0": "Sydney",
        "col1": "J. Ratzenberger",
        "col2": "C. Bierko",
        "col3": "1990-06-25"
    },
    {
        "col0": "Sybil",
        "col1": "D. Petrie",
        "col2": "S. Field",
        "col3": "1976-11-15"
    },
    {
        "col0": "Sword of Justice",
        "col1": "R. Austin",
        "col2": "D. Rambo",
        "col3": "1979-07-11"
    },
    {
        "col0": "Sword Stained with Royal Blood",
        "col1": "Z. Jizhong",
        "col2": "W. Ma",
        "col3": "2007-02-27"
    },
    {
        "col0": "Swinging Spiketaculars",
        "col1": "R. Scheerer",
        "col2": "B. Dana",
        "col3": "1960-09-19"
    },
    {
        "col0": "Swift and Shift Couriers",
        "col1": "P. Fenech",
        "col2": "A. Keller",
        "col3": "2011-10-17"
    },
    {
        "col0": "Swans Crossing",
        "col1": "N. Black",
        "col2": "S. M. Gellar",
        "col3": "1992-09-25"
    },
    {
        "col0": "Super Twins",
        "col1": "D. Zapata",
        "col2": "D. Trillo",
        "col3": "2007-06-01"
    },
    {
        "col0": "Sungkyunkwan Scandal",
        "col1": "K. Won-seok",
        "col2": "S. Joong-ki",
        "col3": "2010-11-02"
    },
    {
        "col0": "Summer Scent",
        "col1": "Y. Seok-ho",
        "col2": "S. Seung-heon",
        "col3": "2003-09-09"
    },
    {
        "col0": "Sumit Sambhal Lega",
        "col1": "P. Sethi",
        "col2": "S. S. Lega",
        "col3": "2016-01-04"
    },
    {
        "col0": "Sugo",
        "col1": "D. Zapata",
        "col2": "R. Gutierrez",
        "col3": "2006-02-10"
    },
    {
        "col0": "Sugarfoot",
        "col1": "L. H. Martinson",
        "col2": "W. Hutchins",
        "col3": "1961-04-17"
    },
    {
        "col0": "Suave Veneno",
        "col1": "D. Filho",
        "col2": "P. Franca",
        "col3": "1999-09-18"
    },
    {
        "col0": "Style & Substance",
        "col1": "P. Tolan",
        "col2": "N. McKeon",
        "col3": "1998-09-02"
    },
    {
        "col0": "Strumpet City",
        "col1": "T. Barry",
        "col2": "P. O'Toole",
        "col3": "1980-04-27"
    },
    {
        "col0": "Struck by Lightning",
        "col1": "J. Zwick",
        "col2": "B. Erwin",
        "col3": "1979-10-03"
    },
    {
        "col0": "Strike Back",
        "col1": "P. Wilmshurst",
        "col2": "J. May",
        "col3": "2015-07-29"
    },
    {
        "col0": "Streets of Laredo",
        "col1": "J. Sargent",
        "col2": "W. Studi",
        "col3": "1995-11-14"
    },
    {
        "col0": "Street Fighter: Resurrection",
        "col1": "J. Ansah",
        "col2": "M. Moh",
        "col3": "2016-04-05"
    },
    {
        "col0": "Strawberry on the Shortcake",
        "col1": "N. Doi",
        "col2": "H. Takizawa",
        "col3": "2001-03-16"
    },
    {
        "col0": "Strawberry Lane",
        "col1": "D. M. Perez",
        "col2": "B. Binene",
        "col3": "2015-01-02"
    },
    {
        "col0": "Storm of the Century",
        "col1": "C. R. Baxley",
        "col2": "C. Feore",
        "col3": "1999-02-18"
    }
]