[
    {
        "col0": "USS Swerve",
        "col1": "9",
        "col2": "1943-02-25",
        "col3": "1944-01-23"
    },
    {
        "col0": "USS Swenning",
        "col1": "11",
        "col2": "1943-09-13",
        "col3": "1943-12-01"
    },
    {
        "col0": "USS Swearer",
        "col1": "10",
        "col2": "1943-10-31",
        "col3": "1943-11-23"
    },
    {
        "col0": "USS Sway",
        "col1": "9",
        "col2": "1942-09-29",
        "col3": "1943-07-20"
    },
    {
        "col0": "USS Swatara",
        "col1": "9",
        "col2": "1865-05-23",
        "col3": "1865-11-15"
    },
    {
        "col0": "USS Swasey",
        "col1": "11",
        "col2": "1943-03-18",
        "col3": "1943-08-31"
    },
    {
        "col0": "USS Swasey",
        "col1": "9",
        "col2": "1919-05-07",
        "col3": "1919-08-08"
    },
    {
        "col0": "USS Swanson",
        "col1": "10",
        "col2": "1940-11-02",
        "col3": "1941-05-29"
    },
    {
        "col0": "USS Swan",
        "col1": "7",
        "col2": "1944-04-05",
        "col3": "1944-10-14"
    },
    {
        "col0": "USS Swallow",
        "col1": "7",
        "col2": "1944-01-08",
        "col3": "1944-06-22"
    },
    {
        "col0": "USS Swallow",
        "col1": "9",
        "col2": "1942-05-06",
        "col3": "1943-01-14"
    },
    {
        "col0": "USS Swallow",
        "col1": "10",
        "col2": "1918-07-04",
        "col3": "1918-10-08"
    },
    {
        "col0": "USS Sutton",
        "col1": "10",
        "col2": "1944-08-06",
        "col3": "1944-12-22"
    },
    {
        "col0": "USS Sustain",
        "col1": "9",
        "col2": "1942-06-23",
        "col3": "1942-11-09"
    },
    {
        "col0": "USS Susquehanna",
        "col1": "17",
        "col2": "1899-09-20",
        "col3": "1917-09-05"
    },
    {
        "col0": "USS Susquehanna",
        "col1": "14",
        "col2": "1942-11-23",
        "col3": "1943-06-07"
    },
    {
        "col0": "USS Susquehanna",
        "col1": "13",
        "col2": "1850-04-05",
        "col3": "1850-12-24"
    },
    {
        "col0": "USS Susanville",
        "col1": "7",
        "col2": "1944-01-11",
        "col3": "1944-06-22"
    },
    {
        "col0": "USS Surprise",
        "col1": "10",
        "col2": "1940-06-05",
        "col3": "1942-03-24"
    },
    {
        "col0": "USS Surfbird",
        "col1": "9",
        "col2": "1944-08-31",
        "col3": "1944-11-25"
    },
    {
        "col0": "USS Superior",
        "col1": "10",
        "col2": "1944-05-11",
        "col3": "1944-11-01"
    },
    {
        "col0": "USS Sunnadin",
        "col1": "10",
        "col2": "1945-02-06",
        "col3": "1945-03-15"
    },
    {
        "col0": "USS Sunnadin",
        "col1": "9",
        "col2": "1919-02-28",
        "col3": "1919-10-20"
    },
    {
        "col0": "USS Sunfish",
        "col1": "9",
        "col2": "1966-10-14",
        "col3": "1969-03-15"
    },
    {
        "col0": "USS Sunfish",
        "col1": "8",
        "col2": "1942-05-02",
        "col3": "1942-07-15"
    },
    {
        "col0": "USS Suncook",
        "col1": "10",
        "col2": "1945-02-16",
        "col3": "1945-05-05"
    },
    {
        "col0": "USS Sunbird",
        "col1": "13",
        "col2": "1946-04-03",
        "col3": "1950-06-23"
    },
    {
        "col0": "USS Sumter",
        "col1": "21",
        "col2": "1969-12-13",
        "col3": "1970-06-20"
    },
    {
        "col0": "USS Sumter",
        "col1": "19",
        "col2": "1942-10-04",
        "col3": "1943-09-01"
    },
    {
        "col0": "USS Sumner",
        "col1": "9",
        "col2": "1920-11-27",
        "col3": "1921-05-27"
    },
    {
        "col0": "USS Sumner",
        "col1": "13",
        "col2": "1915-02-09",
        "col3": "1915-11-24"
    },
    {
        "col0": "USS Summit County",
        "col1": "15",
        "col2": "1945-05-11",
        "col3": "1945-05-30"
    },
    {
        "col0": "USS Summit",
        "col1": "7",
        "col2": "1941-09-20",
        "col3": "1942-01-29"
    },
    {
        "col0": "USS Suisun",
        "col1": "12",
        "col2": "1943-03-14",
        "col3": "1944-09-13"
    },
    {
        "col0": "USS Suffolk County",
        "col1": "18",
        "col2": "1956-09-05",
        "col3": "1957-08-15"
    },
    {
        "col0": "USS Suffolk",
        "col1": "19",
        "col2": "1944-09-15",
        "col3": "1944-10-23"
    },
    {
        "col0": "USS Success",
        "col1": "10",
        "col2": "1944-05-11",
        "col3": "1944-10-18"
    },
    {
        "col0": "USS Suamico",
        "col1": "20",
        "col2": "1942-05-30",
        "col3": "1942-08-10"
    },
    {
        "col0": "USS Sturtevant",
        "col1": "11",
        "col2": "1942-12-03",
        "col3": "1943-06-16"
    },
    {
        "col0": "USS Sturtevant",
        "col1": "9",
        "col2": "1920-07-29",
        "col3": "1920-09-21"
    },
    {
        "col0": "USS Sturgeon",
        "col1": "7",
        "col2": "1938-03-15",
        "col3": "1938-06-25"
    },
    {
        "col0": "USS Sturdy",
        "col1": "10",
        "col2": "1956-01-28",
        "col3": "1957-10-23"
    },
    {
        "col0": "USS Strong",
        "col1": "12",
        "col2": "1944-04-23",
        "col3": "1945-03-08"
    },
    {
        "col0": "USS Strive",
        "col1": "9",
        "col2": "1942-05-16",
        "col3": "1942-10-27"
    },
    {
        "col0": "USS Stringham",
        "col1": "6",
        "col2": "1899-06-10",
        "col3": "1905-11-07"
    },
    {
        "col0": "USS Stringham",
        "col1": "9",
        "col2": "1918-03-30",
        "col3": "1918-07-02"
    },
    {
        "col0": "USS Strickland",
        "col1": "11",
        "col2": "1943-11-02",
        "col3": "1944-01-10"
    },
    {
        "col0": "USS Stribling",
        "col1": "9",
        "col2": "1918-05-29",
        "col3": "1918-08-16"
    },
    {
        "col0": "USS Stribling",
        "col1": "12",
        "col2": "1945-06-08",
        "col3": "1945-09-29"
    },
    {
        "col0": "USS Strength",
        "col1": "10",
        "col2": "1944-03-28",
        "col3": "1944-09-30"
    },
    {
        "col0": "USS Straus",
        "col1": "11",
        "col2": "1943-12-30",
        "col3": "1944-04-06"
    },
    {
        "col0": "USS Straub",
        "col1": "10",
        "col2": "1943-09-19",
        "col3": "1943-10-25"
    },
    {
        "col0": "USS Stratford",
        "col1": "13",
        "col2": "1918-05-28",
        "col3": "1941-08-25"
    },
    {
        "col0": "USS Strategy",
        "col1": "10",
        "col2": "1944-03-28",
        "col3": "1944-09-22"
    },
    {
        "col0": "USS Stormes",
        "col1": "12",
        "col2": "1944-11-04",
        "col3": "1945-01-27"
    },
    {
        "col0": "USS Storm King",
        "col1": "19",
        "col2": "1943-09-17",
        "col3": "1943-12-04"
    },
    {
        "col0": "USS Stokes",
        "col1": "19",
        "col2": "1944-08-31",
        "col3": "1944-10-12"
    },
    {
        "col0": "USS Stoddert",
        "col1": "9",
        "col2": "1919-01-08",
        "col3": "1920-06-30"
    },
    {
        "col0": "USS Stoddard",
        "col1": "12",
        "col2": "1943-11-19",
        "col3": "1944-04-15"
    },
    {
        "col0": "USS Stockton",
        "col1": "5",
        "col2": "1899-12-27",
        "col3": "1901-03-14"
    },
    {
        "col0": "USS Stockton",
        "col1": "9",
        "col2": "1917-07-17",
        "col3": "1917-11-26"
    },
    {
        "col0": "USS Stockton",
        "col1": "10",
        "col2": "1942-11-11",
        "col3": "1943-01-11"
    },
    {
        "col0": "USS Stockham",
        "col1": "12",
        "col2": "1943-06-25",
        "col3": "1944-02-11"
    },
    {
        "col0": "USS Stockdale",
        "col1": "11",
        "col2": "1943-10-30",
        "col3": "1943-12-31"
    },
    {
        "col0": "USS Stingray",
        "col1": "7",
        "col2": "1937-10-06",
        "col3": "1938-03-15"
    },
    {
        "col0": "USS Stickell",
        "col1": "12",
        "col2": "1945-06-16",
        "col3": "1945-10-31"
    },
    {
        "col0": "USS Stewart",
        "col1": "11",
        "col2": "1942-11-22",
        "col3": "1943-05-31"
    },
    {
        "col0": "USS Stewart",
        "col1": "9",
        "col2": "1920-03-04",
        "col3": "1920-09-15"
    },
    {
        "col0": "USS Stevenson",
        "col1": "10",
        "col2": "1942-11-11",
        "col3": "1942-12-15"
    },
    {
        "col0": "USS Stevens",
        "col1": "12",
        "col2": "1942-06-24",
        "col3": "1943-02-01"
    },
    {
        "col0": "USS Steuben County",
        "col1": "15",
        "col2": "1945-04-05",
        "col3": "1945-04-24"
    },
    {
        "col0": "USS Stern",
        "col1": "10",
        "col2": "1943-10-31",
        "col3": "1943-12-01"
    },
    {
        "col0": "USS Sterling",
        "col1": "11",
        "col2": "1881-08-24",
        "col3": "1898-04-16"
    },
    {
        "col0": "USS Sterlet",
        "col1": "8",
        "col2": "1943-10-27",
        "col3": "1944-03-04"
    },
    {
        "col0": "USS Sterett",
        "col1": "10",
        "col2": "1938-10-27",
        "col3": "1939-08-15"
    },
    {
        "col0": "USS Sterett",
        "col1": "8",
        "col2": "1910-05-12",
        "col3": "1910-12-15"
    },
    {
        "col0": "USS Sterett",
        "col1": "16",
        "col2": "1964-06-30",
        "col3": "1967-04-08"
    },
    {
        "col0": "USS Stephen Potter",
        "col1": "12",
        "col2": "1943-04-28",
        "col3": "1943-10-21"
    },
    {
        "col0": "USS Stentor",
        "col1": "15",
        "col2": "1944-11-11",
        "col3": "1944-12-22"
    },
    {
        "col0": "USS Steinaker",
        "col1": "12",
        "col2": "1945-02-13",
        "col3": "1945-05-26"
    },
    {
        "col0": "USS Stein",
        "col1": "14",
        "col2": "1970-12-19",
        "col3": "1972-01-08"
    },
    {
        "col0": "USS Steelhead",
        "col1": "8",
        "col2": "1942-09-11",
        "col3": "1942-12-07"
    },
    {
        "col0": "USS Steele",
        "col1": "10",
        "col2": "1943-01-09",
        "col3": "1943-05-04"
    },
    {
        "col0": "USS Steamer Bay",
        "col1": "19",
        "col2": "1944-02-26",
        "col3": "1944-04-04"
    },
    {
        "col0": "USS Steady",
        "col1": "9",
        "col2": "1942-06-06",
        "col3": "1942-11-16"
    },
    {
        "col0": "USS Staunch",
        "col1": "10",
        "col2": "1944-02-15",
        "col3": "1944-09-09"
    },
    {
        "col0": "USS Starr",
        "col1": "19",
        "col2": "1944-08-18",
        "col3": "1944-09-29"
    },
    {
        "col0": "USS Starling",
        "col1": "9",
        "col2": "1942-04-11",
        "col3": "1942-12-21"
    },
    {
        "col0": "USS Starlight",
        "col1": "19",
        "col2": "1943-12-23",
        "col3": "1944-02-15"
    },
    {
        "col0": "USS Stanton",
        "col1": "11",
        "col2": "1943-02-21",
        "col3": "1943-08-07"
    },
    {
        "col0": "USS Stansbury",
        "col1": "9",
        "col2": "1919-05-16",
        "col3": "1920-01-08"
    },
    {
        "col0": "USS Stanly",
        "col1": "12",
        "col2": "1942-05-02",
        "col3": "1942-10-15"
    },
    {
        "col0": "USS Standard Arrow",
        "col1": "18",
        "col2": "1916-05-15",
        "col3": "1917-08-22"
    }
]