[
    {
        "col0": "Factor XIII",
        "col1": "2162",
        "col2": "3531",
        "col3": "F13A"
    },
    {
        "col0": "Factor D",
        "col1": "1675",
        "col2": "2771",
        "col3": "CFD"
    },
    {
        "col0": "FXYD6",
        "col1": "53826",
        "col2": "4030",
        "col3": "FXYD6"
    },
    {
        "col0": "FUT4",
        "col1": "2526",
        "col2": "4015",
        "col3": "CD15, FCT3A, ELFT, SSEA-1, LeX"
    },
    {
        "col0": "FKBP6",
        "col1": "8468",
        "col2": "3722",
        "col3": "FKBP36; MGC87179"
    },
    {
        "col0": "FGF22",
        "col1": "27006",
        "col2": "3679",
        "col3": "FGF22"
    },
    {
        "col0": "FGF20",
        "col1": "26281",
        "col2": "3677",
        "col3": "FGF20"
    },
    {
        "col0": "FGF11",
        "col1": "2256",
        "col2": "3667",
        "col3": "FGF11"
    },
    {
        "col0": "FCER1",
        "col1": "2205",
        "col2": "3609",
        "col3": "FCER1A"
    },
    {
        "col0": "FANCM",
        "col1": "57697",
        "col2": "23168",
        "col3": "FANCM"
    },
    {
        "col0": "FAM123B",
        "col1": "139285",
        "col2": "26837",
        "col3": "FAM123B"
    },
    {
        "col0": "Extracellular signal-regulated kinases",
        "col1": "5594",
        "col2": "6871",
        "col3": "MAPK1"
    },
    {
        "col0": "Estrogen receptor",
        "col1": "2099",
        "col2": "3467",
        "col3": "ER-a, NR3A1"
    },
    {
        "col0": "Estrogen-related receptor",
        "col1": "2101",
        "col2": "3471",
        "col3": "ESRL1"
    },
    {
        "col0": "Epididymal secretory protein E1",
        "col1": "10577",
        "col2": "14537",
        "col3": "NPC2"
    },
    {
        "col0": "Enoyl-CoA hydratase",
        "col1": "1962",
        "col2": "3247",
        "col3": "ECHD"
    },
    {
        "col0": "Enkephalin",
        "col1": "5179",
        "col2": "8831",
        "col3": "PENK"
    },
    {
        "col0": "Endothelin receptor",
        "col1": "1909",
        "col2": "3179",
        "col3": "EDNRA"
    },
    {
        "col0": "Endothelial lipase",
        "col1": "9388",
        "col2": "6623",
        "col3": "LIPG"
    },
    {
        "col0": "Emopamil binding protein",
        "col1": "10682",
        "col2": "3133",
        "col3": "CDPX2"
    },
    {
        "col0": "Electron-transferring-flavoprotein dehydrogenase",
        "col1": "2110",
        "col2": "3483",
        "col3": "ETF-QO"
    },
    {
        "col0": "EVC",
        "col1": "2121",
        "col2": "3497",
        "col3": "EVC"
    },
    {
        "col0": "EVC2",
        "col1": "132884",
        "col2": "19747",
        "col3": "EVC2"
    },
    {
        "col0": "ETM2",
        "col1": "2112",
        "col2": "3487",
        "col3": "ETM2"
    },
    {
        "col0": "ERM transcription factor",
        "col1": "2119",
        "col2": "3494",
        "col3": "ERM"
    },
    {
        "col0": "ELMO3",
        "col1": "79767",
        "col2": "17289",
        "col3": "CED12, FLJ13824"
    },
    {
        "col0": "EIF4A",
        "col1": "1973",
        "col2": "18683",
        "col3": "DDX48"
    },
    {
        "col0": "EID2",
        "col1": "163126",
        "col2": "28292",
        "col3": "CRI2"
    },
    {
        "col0": "EHHADH",
        "col1": "1962",
        "col2": "3247",
        "col3": "ECHD"
    },
    {
        "col0": "EGF module-containing mucin-like hormone receptor",
        "col1": "2015",
        "col2": "19240",
        "col3": "EMR1"
    },
    {
        "col0": "Dystrobrevin",
        "col1": "1837",
        "col2": "3057",
        "col3": "DTNA"
    },
    {
        "col0": "Dynorphin",
        "col1": "5173",
        "col2": "8820",
        "col3": "PDYN"
    },
    {
        "col0": "Duodenal cytochrome B",
        "col1": "79901",
        "col2": "20797",
        "col3": "CYBRD1"
    },
    {
        "col0": "Doubletime",
        "col1": "1454",
        "col2": "2453",
        "col3": "CSNK1E"
    },
    {
        "col0": "Dipeptidase 2",
        "col1": "64174",
        "col2": "23028",
        "col3": "DPEP2"
    },
    {
        "col0": "Dihydropyrimidine dehydrogenase",
        "col1": "1806",
        "col2": "3012",
        "col3": "DPYD"
    },
    {
        "col0": "Dihydroorotase",
        "col1": "790",
        "col2": "1424",
        "col3": "CAD"
    },
    {
        "col0": "Diacylglycerol lipase",
        "col1": "221955",
        "col2": "1165",
        "col3": "C11orf11"
    },
    {
        "col0": "Deoxyribonuclease II",
        "col1": "1777",
        "col2": "28875",
        "col3": "DNASE2"
    },
    {
        "col0": "Delta catenin",
        "col1": "1500",
        "col2": "2515",
        "col3": "CTNND"
    },
    {
        "col0": "DNA damage-binding protein",
        "col1": "1642",
        "col2": "2717",
        "col3": "DBB, UV-DDB2, FLJ34321"
    },
    {
        "col0": "DNA clamp",
        "col1": "5111",
        "col2": "8729",
        "col3": "DNA_pol3_beta"
    },
    {
        "col0": "DHH",
        "col1": "50846",
        "col2": "2865",
        "col3": "DHH"
    },
    {
        "col0": "DHDPSL",
        "col1": "112817",
        "col2": "25155",
        "col3": "C10orf65"
    },
    {
        "col0": "D1-D2 dopamine receptor heteromer",
        "col1": "1812",
        "col2": "3020",
        "col3": "DRD1"
    },
    {
        "col0": "D-amino acid oxidase activator",
        "col1": "267012",
        "col2": "21191",
        "col3": "DAOA"
    },
    {
        "col0": "Cytochrome b5",
        "col1": "1528",
        "col2": "2570",
        "col3": "CYB5"
    },
    {
        "col0": "Cytochrome C1",
        "col1": "1537",
        "col2": "2579",
        "col3": "CYC1"
    },
    {
        "col0": "Cyclophilin",
        "col1": "5478",
        "col2": "9253",
        "col3": "PPIA"
    },
    {
        "col0": "Cyclin E2",
        "col1": "9134",
        "col2": "1590",
        "col3": "CCNE2"
    },
    {
        "col0": "Cyclin E",
        "col1": "898",
        "col2": "1589",
        "col3": "CCNE"
    },
    {
        "col0": "Cyclin D",
        "col1": "595",
        "col2": "1582",
        "col3": "BCL1, D11S287E, PRAD1"
    },
    {
        "col0": "Cyclin B",
        "col1": "85417",
        "col2": "1579",
        "col3": "CCNB"
    },
    {
        "col0": "Cyclin A",
        "col1": "890",
        "col2": "1577",
        "col3": "CCNA, CCN1"
    },
    {
        "col0": "Cycle",
        "col1": "406",
        "col2": "701",
        "col3": "ARNTL"
    },
    {
        "col0": "Cubam",
        "col1": "8029",
        "col2": "14604",
        "col3": "AMN"
    },
    {
        "col0": "Corticotropin-releasing hormone receptor",
        "col1": "1394",
        "col2": "2357",
        "col3": "CRHR"
    },
    {
        "col0": "Conglutinin",
        "col1": "1099",
        "col2": "1904",
        "col3": "CGN1"
    },
    {
        "col0": "Complement receptor of the immunoglobulin family",
        "col1": "11326",
        "col2": "17032",
        "col3": "VSIG4"
    },
    {
        "col0": "Complement component 5a",
        "col1": "727",
        "col2": "1331",
        "col3": "C5"
    },
    {
        "col0": "Complement component 4",
        "col1": "720",
        "col2": "1323",
        "col3": "C4A"
    },
    {
        "col0": "Complement component 1s",
        "col1": "716",
        "col2": "1247",
        "col3": "C1S"
    },
    {
        "col0": "Complement component 1R",
        "col1": "715",
        "col2": "1246",
        "col3": "C1R"
    },
    {
        "col0": "Collectin liver 1",
        "col1": "10584",
        "col2": "2220",
        "col3": "CL-L1"
    },
    {
        "col0": "Collagenase",
        "col1": "4312",
        "col2": "7155",
        "col3": "MMP1"
    },
    {
        "col0": "Collagen, type XX, alpha 1",
        "col1": "57642",
        "col2": "14670",
        "col3": "COL20A1"
    },
    {
        "col0": "Cocaine and amphetamine regulated transcript",
        "col1": "9607",
        "col2": "24323",
        "col3": "CART"
    },
    {
        "col0": "Clathrin",
        "col1": "1211",
        "col2": "2091",
        "col3": "CHC, CHC17, CLTCL2"
    },
    {
        "col0": "Citrin",
        "col1": "10165",
        "col2": "10983",
        "col3": "CTLN2"
    },
    {
        "col0": "Ciliary neurotrophic factor receptor",
        "col1": "1271",
        "col2": "2170",
        "col3": "CNTFR"
    },
    {
        "col0": "Chymase",
        "col1": "1215",
        "col2": "2097",
        "col3": "CMA1"
    },
    {
        "col0": "Chordin",
        "col1": "8646",
        "col2": "1949",
        "col3": "CHRD"
    },
    {
        "col0": "Cholinesterase",
        "col1": "43",
        "col2": "108",
        "col3": "ACHE"
    },
    {
        "col0": "Cholecystokinin receptor",
        "col1": "886",
        "col2": "1570",
        "col3": "CCKAR"
    },
    {
        "col0": "Chicken ovalbumin upstream promoter-transcription factor",
        "col1": "7025",
        "col2": "7975",
        "col3": "ARP1, TFCOUP2, COUP-TFII, COUPTFB, SVP40"
    },
    {
        "col0": "Channel-inducing factor 4",
        "col1": "53828",
        "col2": "4028",
        "col3": "FXYD4"
    },
    {
        "col0": "Cellular apoptosis susceptibility protein",
        "col1": "1434",
        "col2": "2431",
        "col3": "CSE1L"
    },
    {
        "col0": "Caveolin",
        "col1": "857",
        "col2": "1527",
        "col3": "CAV"
    },
    {
        "col0": "Cation channels of sperm",
        "col1": "117144",
        "col2": "17116",
        "col3": "CATSPER1"
    },
    {
        "col0": "Caspase 5",
        "col1": "838",
        "col2": "1506",
        "col3": "CASP5"
    },
    {
        "col0": "Caspase 4",
        "col1": "837",
        "col2": "1505",
        "col3": "CASP4"
    },
    {
        "col0": "Caspase 12",
        "col1": "120329",
        "col2": "19004",
        "col3": "CASP12"
    },
    {
        "col0": "Casein kinase 2",
        "col1": "1457",
        "col2": "2457",
        "col3": "CSNK2A1"
    },
    {
        "col0": "Carboxypeptidase B",
        "col1": "1360",
        "col2": "2299",
        "col3": "CPB1"
    },
    {
        "col0": "Carbamoyl phosphate synthetase I",
        "col1": "1373",
        "col2": "2323",
        "col3": "CPS1"
    },
    {
        "col0": "Cannabinoid receptor",
        "col1": "1268",
        "col2": "2159",
        "col3": "CNR"
    },
    {
        "col0": "Calponin",
        "col1": "1264",
        "col2": "2155",
        "col3": "CH"
    },
    {
        "col0": "Calcitonin gene-related peptide",
        "col1": "796",
        "col2": "1437",
        "col3": "CALC1"
    },
    {
        "col0": "Calcineurin",
        "col1": "5530",
        "col2": "9314",
        "col3": "CALN, CALNA"
    },
    {
        "col0": "Calbindin",
        "col1": "793",
        "col2": "1434",
        "col3": "CALB"
    },
    {
        "col0": "CXCL6",
        "col1": "6372",
        "col2": "10643",
        "col3": "CXCL6"
    },
    {
        "col0": "CXCL2",
        "col1": "2920",
        "col2": "4603",
        "col3": "CXCL2"
    },
    {
        "col0": "CXCL16",
        "col1": "58191",
        "col2": "16642",
        "col3": "CXCL16"
    },
    {
        "col0": "CXCL14",
        "col1": "9547",
        "col2": "10640",
        "col3": "CXCL14"
    },
    {
        "col0": "CORO1B",
        "col1": "57175",
        "col2": "2253",
        "col3": "CORO1B"
    },
    {
        "col0": "COPII",
        "col1": "10802",
        "col2": "10701",
        "col3": "SEC23A"
    },
    {
        "col0": "CGMP-dependent protein kinase",
        "col1": "5592",
        "col2": "9414",
        "col3": "PRKG1"
    },
    {
        "col0": "CEACAM4",
        "col1": "1089",
        "col2": "1816",
        "col3": "CEACAM4"
    },
    {
        "col0": "CEACAM21",
        "col1": "90273",
        "col2": "28834",
        "col3": "CEACAM21"
    },
    {
        "col0": "CEACAM20",
        "col1": "125931",
        "col2": "24879",
        "col3": "CEACAM20"
    }
]