[
    {
        "col0": "Yo-Yo",
        "col1": "N. Roberts",
        "col2": "Dimitri Tikovoi",
        "col3": "Lucky Day",
        "col4": "206"
    },
    {
        "col0": "Yet Again",
        "col1": "C. Bear",
        "col2": "Chris Taylor",
        "col3": "Sleeping Ute",
        "col4": "318"
    },
    {
        "col0": "Yesterdays",
        "col1": "A. Rose",
        "col2": "Guns N' Roses",
        "col3": "November Rain",
        "col4": "193"
    },
    {
        "col0": "Yesterday Went Too Soon",
        "col1": "G. Nicholas",
        "col2": "Feeder",
        "col3": "Insomnia",
        "col4": "260"
    },
    {
        "col0": "Yesterday Once More",
        "col1": "R. Carpenter",
        "col2": "Jack Daugherty",
        "col3": "Sing",
        "col4": "236"
    },
    {
        "col0": "Yesterday Girl",
        "col1": "P. DiNizio",
        "col2": "Ed Stasium",
        "col3": "Blues Before and After",
        "col4": "207"
    },
    {
        "col0": "Yesterday",
        "col1": "T. Braxton",
        "col2": "DJ Frank E",
        "col3": "The Time of Our Lives",
        "col4": "228"
    },
    {
        "col0": "Yesterday",
        "col1": "Apl.de.ap",
        "col2": "Will.i.am",
        "col3": "Don't Stop the Party",
        "col4": "320"
    },
    {
        "col0": "Yesterday",
        "col1": "Lennon-McCartney",
        "col2": "George Martin",
        "col3": "Help!",
        "col4": "123"
    },
    {
        "col0": "Yesterday & Today",
        "col1": "D. Nagao",
        "col2": "Dai Nagao",
        "col3": "Oasis",
        "col4": "1830"
    },
    {
        "col0": "Yesterday, When I Was Mad",
        "col1": "C. Lowe",
        "col2": "Pet Shop Boys",
        "col3": "Absolutely Fabulous",
        "col4": "235"
    },
    {
        "col0": "Yesterday's Wine",
        "col1": "W. Nelson",
        "col2": "Billy Sherrill",
        "col3": "Are the Good Times Really Over",
        "col4": "195"
    },
    {
        "col0": "Yesterday's Song",
        "col1": "H. Hayes",
        "col2": "Dann Huff",
        "col3": "21",
        "col4": "223"
    },
    {
        "col0": "Yesterday's Men",
        "col1": "C. Foreman",
        "col2": "Clive Langer",
        "col3": "One Better Day",
        "col4": "247"
    },
    {
        "col0": "Yester Love",
        "col1": "S. Robinson",
        "col2": "Smokey Robinson",
        "col3": "If You Can Want",
        "col4": "136"
    },
    {
        "col0": "Yester-Me, Yester-You, Yesterday",
        "col1": "R. Miller",
        "col2": "Harvey Fuqua",
        "col3": "My Cherie Amour",
        "col4": "186"
    },
    {
        "col0": "Yes or No",
        "col1": "R. Mael",
        "col2": "Martin Rushent",
        "col3": "Turn to You",
        "col4": "216"
    },
    {
        "col0": "Yes We Can",
        "col1": "B. Obama",
        "col2": "Will.i.am",
        "col3": "Here I Come",
        "col4": "245"
    },
    {
        "col0": "Yes It Is",
        "col1": "Lennon-McCartney",
        "col2": "George Martin",
        "col3": "I Feel Fine",
        "col4": "161"
    },
    {
        "col0": "Yes Girl",
        "col1": "B. Miller",
        "col2": "Pop & Oak",
        "col3": "Fire n Gold",
        "col4": "211"
    },
    {
        "col0": "Yes!",
        "col1": "J. Collins",
        "col2": "Norro Wilson",
        "col3": "George Jones",
        "col4": "204"
    },
    {
        "col0": "Yep!",
        "col1": "D. Eddy",
        "col2": "Lee Hazlewood",
        "col3": "Peter Gunn",
        "col4": "124"
    },
    {
        "col0": "Yellow Submarine",
        "col1": "Lennon-McCartney",
        "col2": "George Martin",
        "col3": "Paperback Writer",
        "col4": "158"
    },
    {
        "col0": "Yellow Roses",
        "col1": "D. Parton",
        "col2": "Ricky Skaggs",
        "col3": "Why'd You Come in Here Lookin' Like That",
        "col4": "235"
    },
    {
        "col0": "Yellow Flicker Beat",
        "col1": "Lorde",
        "col2": "Joel Little",
        "col3": "Glory and Gore",
        "col4": "232"
    },
    {
        "col0": "Yellow",
        "col1": "G. Berryman",
        "col2": "Coldplay",
        "col3": "Shiver",
        "col4": "269"
    },
    {
        "col0": "Year of the Lover",
        "col1": "R. Love",
        "col2": "Eric Hudson",
        "col3": "Girls Around the World",
        "col4": "247"
    },
    {
        "col0": "Year of tha Boomerang",
        "col1": "B. Wilk",
        "col2": "Rage Against the Machine",
        "col3": "Freedom",
        "col4": "241"
    },
    {
        "col0": "Year 3000",
        "col1": "C. Simpson",
        "col2": "Steve Robson",
        "col3": "What I Go to School For",
        "col4": "198"
    },
    {
        "col0": "Yeah Yeah Yeah Yeah Yeah",
        "col1": "S. MacGowan",
        "col2": "Steve Lillywhite",
        "col3": "Fiesta",
        "col4": "196"
    },
    {
        "col0": "Yeah Yeah U Know It",
        "col1": "E. Sermon",
        "col2": "Just Blaze",
        "col3": "Incredible",
        "col4": "252"
    },
    {
        "col0": "Yeah Yeah",
        "col1": "RZA",
        "col2": "Willy Moon",
        "col3": "Railroad Track",
        "col4": "164"
    },
    {
        "col0": "Yeah Yeah",
        "col1": "S. Salerno",
        "col2": "Severo Lombardoni",
        "col3": "Gringo",
        "col4": "241"
    },
    {
        "col0": "Yeah 3x",
        "col1": "C. Harris",
        "col2": "DJ Frank E",
        "col3": "Make a Movie",
        "col4": "241"
    },
    {
        "col0": "Yeah",
        "col1": "J. Murphy",
        "col2": "DFA Records",
        "col3": "Give It Up",
        "col4": "560"
    },
    {
        "col0": "Yeah",
        "col1": "A. Gorley",
        "col2": "Tony Brown",
        "col3": "Sunny and 75",
        "col4": "231"
    },
    {
        "col0": "Yeah!",
        "col1": "L. Jon",
        "col2": "Lil Jon",
        "col3": "I Need a Girl",
        "col4": "250"
    },
    {
        "col0": "Yeah!",
        "col1": "P. Brandt",
        "col2": "Josh Leo",
        "col3": "What's Come Over You",
        "col4": "253"
    },
    {
        "col0": "Yay Yay",
        "col1": "S. Q",
        "col2": "The Maven Boys",
        "col3": "Hands on the Wheel",
        "col4": "271"
    },
    {
        "col0": "Yassassin",
        "col1": "D. Bowie",
        "col2": "Tony Visconti",
        "col3": "DJ",
        "col4": "186"
    }
]