[
    {
        "col0": "Madres egoistas",
        "col1": "A. Aragon",
        "col2": "M. d. Sol",
        "col3": "1991-06-07"
    },
    {
        "col0": "Madoff",
        "col1": "R. D. Felitta",
        "col2": "L. Larsen",
        "col3": "2016-02-04"
    },
    {
        "col0": "Madman of the People",
        "col1": "J. Ratzenberger",
        "col2": "D. Coleman",
        "col3": "1995-06-17"
    },
    {
        "col0": "Madhubala - Ek Ishq Ek Junoon",
        "col1": "R. Gautam",
        "col2": "D. Dhami",
        "col3": "2014-08-09"
    },
    {
        "col0": "Madame Bovary",
        "col1": "T. Fywell",
        "col2": "H. Dancy",
        "col3": "2000-02-13"
    },
    {
        "col0": "Madam Chairman",
        "col1": "J. Lamangan",
        "col2": "S. Cuneta",
        "col3": "2014-02-28"
    },
    {
        "col0": "Mad Jack the Pirate",
        "col1": "J. DeGrandis",
        "col2": "J. Harnell",
        "col3": "1999-02-27"
    },
    {
        "col0": "Mad Dogs",
        "col1": "R. Einhorn",
        "col2": "S. Zahn",
        "col3": "2016-01-22"
    },
    {
        "col0": "Machete",
        "col1": "G. Alajar",
        "col2": "A. Abrenica",
        "col3": "2011-03-18"
    },
    {
        "col0": "MacGruber",
        "col1": "J. Taccone",
        "col2": "K. Wiig",
        "col3": "2010-05-08"
    },
    {
        "col0": "Maat Pitaah Ke Charnon Mein Swarg",
        "col1": "R. Shahi",
        "col2": "Maat Pitaah Ke Charnon Mein Swarg",
        "col3": "2010-06-04"
    },
    {
        "col0": "Maat",
        "col1": "A. N. Khan",
        "col2": "S. Qamar",
        "col3": "2012-02-24"
    },
    {
        "col0": "Maana Ka Gharana",
        "col1": "S. Kashmiri",
        "col2": "S. Khan",
        "col3": "2016-04-06"
    },
    {
        "col0": "MVP",
        "col1": "M. Poulette",
        "col2": "D. Odell",
        "col3": "2008-03-11"
    },
    {
        "col0": "M3: Malay Mo Ma-develop",
        "col1": "J. Jeturian",
        "col2": "Ai-Ai de las Alas",
        "col3": "2010-11-27"
    },
    {
        "col0": "M.I. High",
        "col1": "R. M. Elson",
        "col2": "O. Jacques",
        "col3": "2014-03-31"
    },
    {
        "col0": "M.A.N.T.I.S.",
        "col1": "D. Nutter",
        "col2": "R. Rees",
        "col3": "1995-03-03"
    },
    {
        "col0": "Medecins de nuit",
        "col1": "P. Lefebvre",
        "col2": "B. Rouan",
        "col3": "1986-07-11"
    },
    {
        "col0": "Luz y sombra",
        "col1": "G. M. Ortega",
        "col2": "Thalia",
        "col3": "1989-08-04"
    },
    {
        "col0": "Luz Clarita",
        "col1": "P. Damian",
        "col2": "D. Lujan",
        "col3": "1997-02-21"
    },
    {
        "col0": "Luv U",
        "col1": "E. Mortiz",
        "col2": "A. Ilacad",
        "col3": "2016-01-17"
    },
    {
        "col0": "Lupin",
        "col1": "M. Tuviera",
        "col2": "E. Madrigal",
        "col3": "2007-08-17"
    },
    {
        "col0": "Luna Mystika",
        "col1": "M. Tuviera",
        "col2": "H. Evangelista",
        "col3": "2009-03-06"
    },
    {
        "col0": "Luna Blanca",
        "col1": "G. Alajar",
        "col2": "H. Evangelista",
        "col3": "2012-10-26"
    },
    {
        "col0": "Luis",
        "col1": "W. Shriner",
        "col2": "L. Guzman",
        "col3": "2003-10-24"
    },
    {
        "col0": "Lucky Louie",
        "col1": "G. Halvorson",
        "col2": "P. Adlon",
        "col3": "2006-08-27"
    },
    {
        "col0": "Loveholic",
        "col1": "K. Kyu-tae",
        "col2": "Kangta",
        "col3": "2005-06-21"
    },
    {
        "col0": "Love ni Mister, Love ni Misis",
        "col1": "L. Ignacio",
        "col2": "Z. Legaspi",
        "col3": "2011-03-04"
    },
    {
        "col0": "Love and Marriage",
        "col1": "B. Sweeney",
        "col2": "S. Kaye",
        "col3": "1961-01-25"
    },
    {
        "col0": "Love Rain",
        "col1": "Y. Seok-ho",
        "col2": "I. Yoona",
        "col3": "2012-05-29"
    },
    {
        "col0": "Love Me Again",
        "col1": "R. S. Bayani",
        "col2": "T. Rodriguez",
        "col3": "2010-05-14"
    },
    {
        "col0": "Love & Lies",
        "col1": "M. Reyes",
        "col2": "M. Madrigal",
        "col3": "2013-06-07"
    },
    {
        "col0": "Love, Lies and Murder",
        "col1": "R. Markowitz",
        "col2": "C. Brown",
        "col3": "1991-02-18"
    },
    {
        "col0": "Lottery!",
        "col1": "M. Vejar",
        "col2": "B. Murphy",
        "col3": "1984-06-14"
    },
    {
        "col0": "Lost in Space",
        "col1": "L. Penn",
        "col2": "P. Robinson",
        "col3": "1968-03-06"
    },
    {
        "col0": "Lost in Austen",
        "col1": "D. Zeff",
        "col2": "A. Kingston",
        "col3": "2008-09-24"
    },
    {
        "col0": "Lost: Missing Pieces",
        "col1": "J. Bender",
        "col2": "H. Perrineau",
        "col3": "2008-01-28"
    },
    {
        "col0": "Los hijos de nadie",
        "col1": "P. Damian",
        "col2": "Y. Andrade",
        "col3": "1997-06-20"
    },
    {
        "col0": "Los anos felices",
        "col1": "E. Lizalde",
        "col2": "L. Zapata",
        "col3": "1985-04-19"
    },
    {
        "col0": "Los Ricos Tambien Lloran",
        "col1": "R. Banquells",
        "col2": "C. Dominguez",
        "col3": "1980-02-29"
    },
    {
        "col0": "Los Parientes Pobres",
        "col1": "M. Corcega",
        "col2": "H. Elizondo",
        "col3": "1993-08-13"
    },
    {
        "col0": "Look Around You",
        "col1": "T. Kirkby",
        "col2": "O. Colman",
        "col3": "2005-03-07"
    },
    {
        "col0": "Look: The Series",
        "col1": "A. Rifkin",
        "col2": "C. Christian",
        "col3": "2010-12-19"
    },
    {
        "col0": "Longitude",
        "col1": "C. Sturridge",
        "col2": "J. Irons",
        "col3": "2000-01-03"
    },
    {
        "col0": "Lonesome Dove",
        "col1": "S. Wincer",
        "col2": "A. Huston",
        "col3": "1989-02-08"
    },
    {
        "col0": "Lonelygirl15",
        "col1": "M. Beckett",
        "col2": "J. L. Rose",
        "col3": "2008-08-01"
    },
    {
        "col0": "London Spy",
        "col1": "J. Verbruggen",
        "col2": "E. Holcroft",
        "col3": "2015-12-07"
    },
    {
        "col0": "Locura de amor",
        "col1": "A. Barraza",
        "col2": "J. Soler",
        "col3": "2000-10-06"
    },
    {
        "col0": "Lock-Up",
        "col1": "O. Lang",
        "col2": "M. Carey",
        "col3": "1961-06-17"
    },
    {
        "col0": "Lobo",
        "col1": "C. Garcia-Molina",
        "col2": "A. Locsin",
        "col3": "2008-07-11"
    },
    {
        "col0": "Liwanag Ng Hatinggabi",
        "col1": "J. Lamangan",
        "col2": "L. Tolentino",
        "col3": "2000-03-27"
    },
    {
        "col0": "Living in Your Car",
        "col1": "D. Steinberg",
        "col2": "J. Ralston",
        "col3": "2011-12-12"
    },
    {
        "col0": "Live Shot",
        "col1": "C. Bucksey",
        "col2": "E. Velez",
        "col3": "1996-01-09"
    },
    {
        "col0": "Live-In",
        "col1": "A. D. Weyman",
        "col2": "C. Young",
        "col3": "1989-05-29"
    },
    {
        "col0": "Little Nanay",
        "col1": "R. Davao",
        "col2": "K. Bernal",
        "col3": "2016-03-23"
    },
    {
        "col0": "Little House on the Prairie",
        "col1": "D. L. Cunningham",
        "col2": "D. Chuchran",
        "col3": "2005-04-23"
    },
    {
        "col0": "Little Dorrit",
        "col1": "D. Walsh",
        "col2": "C. Foy",
        "col3": "2008-12-11"
    },
    {
        "col0": "List of The Wiggles episodes",
        "col1": "P. Field",
        "col2": "T. Wiggles",
        "col3": "1998-09-24"
    },
    {
        "col0": "Liocracy",
        "col1": "R. Murphy",
        "col2": "L. Nielsen",
        "col3": "2001-07-01"
    },
    {
        "col0": "Linlang",
        "col1": "M. Alejandre",
        "col2": "R. Fernandez",
        "col3": "2006-09-22"
    },
    {
        "col0": "Limmy's Show",
        "col1": "B. Limond",
        "col2": "Limmy",
        "col3": "2013-12-22"
    },
    {
        "col0": "Lime Street",
        "col1": "R. Austin",
        "col2": "L. Ayres",
        "col3": "1985-10-26"
    },
    {
        "col0": "Like Family",
        "col1": "J. Regalbuto",
        "col2": "D. Farr",
        "col3": "2004-04-22"
    },
    {
        "col0": "Ligaw na Bulaklak",
        "col1": "A. Ranay",
        "col2": "M. Abaya",
        "col3": "2008-10-24"
    },
    {
        "col0": "Life with Roger",
        "col1": "J. Hampton",
        "col2": "H. Todd",
        "col3": "1997-03-30"
    },
    {
        "col0": "Life with Bonnie",
        "col1": "B. Hunt",
        "col2": "D. A. Grier",
        "col3": "2004-04-09"
    },
    {
        "col0": "Leyla ile Mecnun",
        "col1": "O. Unlu",
        "col2": "A. M. Taylan",
        "col3": "2013-06-17"
    },
    {
        "col0": "Lewis & Clark: The Journey of the Corps of Discovery",
        "col1": "K. Burns",
        "col2": "A. Arkin",
        "col3": "1997-11-05"
    },
    {
        "col0": "Let the Love Begin",
        "col1": "G. Alajar",
        "col2": "R. Madrid",
        "col3": "2015-08-07"
    },
    {
        "col0": "Less Than Kind",
        "col1": "K. Makin",
        "col2": "B. Palsson",
        "col3": "2013-07-14"
    },
    {
        "col0": "Lenny",
        "col1": "T. Hughes",
        "col2": "L. Clarke",
        "col3": "1991-03-09"
    },
    {
        "col0": "Legacy",
        "col1": "B. Duke",
        "col2": "B. Cullen",
        "col3": "1999-07-30"
    },
    {
        "col0": "Legacy",
        "col1": "A. Ranay",
        "col2": "H. Evangelista",
        "col3": "2012-06-01"
    },
    {
        "col0": "Leap of Faith",
        "col1": "A. Bernstein",
        "col2": "J. Clayburgh",
        "col3": "2002-04-04"
    },
    {
        "col0": "Lead Balloon",
        "col1": "A. Hardcastle",
        "col2": "J. Dee",
        "col3": "2011-07-05"
    },
    {
        "col0": "Lazos de Amor",
        "col1": "M. Corcega",
        "col2": "L. J. Santander",
        "col3": "1996-02-23"
    },
    {
        "col0": "Lawrence Leung's Unbelievable",
        "col1": "C. Melville",
        "col2": "L. Leung",
        "col3": "2011-07-20"
    },
    {
        "col0": "Lawrence Leung's Choose Your Own Adventure",
        "col1": "C. Melville",
        "col2": "L. Leung",
        "col3": "2009-04-29"
    },
    {
        "col0": "Laurie Hill",
        "col1": "L. Day",
        "col2": "E. DeGeneres",
        "col3": "1992-10-28"
    },
    {
        "col0": "Last of the Summer Wine",
        "col1": "B. Thompson",
        "col2": "B. Young",
        "col3": "2010-08-29"
    },
    {
        "col0": "Last Man Standing",
        "col1": "S. Jodrell",
        "col2": "M. Smith",
        "col3": "2005-10-25"
    },
    {
        "col0": "Lasermannen",
        "col1": "M. Marcimain",
        "col2": "S. Ljunggren",
        "col3": "2005-12-07"
    },
    {
        "col0": "Las grandes aguas",
        "col1": "J. C. Munoz",
        "col2": "J. C. Ruiz",
        "col3": "1989-10-13"
    },
    {
        "col0": "Larawan: A Special Drama Engagement",
        "col1": "C. Montano",
        "col2": "D. Dantes",
        "col3": "2002-01-30"
    },
    {
        "col0": "Laramie",
        "col1": "H. Daugherty",
        "col2": "H. Carmichael",
        "col3": "1963-05-21"
    },
    {
        "col0": "Lanigan's Rabbi",
        "col1": "J. Astin",
        "col2": "A. Carney",
        "col3": "1977-04-24"
    },
    {
        "col0": "Langt fra Las Vegas",
        "col1": "J. Elmer",
        "col2": "C. Christensen",
        "col3": "2003-11-25"
    },
    {
        "col0": "Land of the Giants",
        "col1": "H. Harris",
        "col2": "D. Matheson",
        "col3": "1970-09-06"
    },
    {
        "col0": "Lancer",
        "col1": "R. Butler",
        "col2": "A. Duggan",
        "col3": "1970-06-23"
    },
    {
        "col0": "Laid",
        "col1": "A. Forsythe",
        "col2": "A. Forsythe",
        "col3": "2012-06-06"
    },
    {
        "col0": "Ladoon Mein Pali",
        "col1": "W. Abbas",
        "col2": "A. Waheed",
        "col3": "2015-01-15"
    },
    {
        "col0": "Lace",
        "col1": "W. Hale",
        "col2": "A. Dombasle",
        "col3": "1984-02-27"
    },
    {
        "col0": "Lab Rats",
        "col1": "A. Tandy",
        "col2": "C. Addison",
        "col3": "2008-08-14"
    },
    {
        "col0": "Laagi Tujhse Lagan",
        "col1": "D. Mahadev",
        "col2": "L. T. Lagan",
        "col3": "2012-01-06"
    },
    {
        "col0": "Laa",
        "col1": "F. Rind",
        "col2": "M. Zulfiqar",
        "col3": "2014-08-30"
    },
    {
        "col0": "La viuda de Blanco",
        "col1": "J. Jimenez",
        "col2": "I. Cantoral",
        "col3": "2007-03-02"
    },
    {
        "col0": "La usurpadora",
        "col1": "B. Sheridan",
        "col2": "L. Lamarque",
        "col3": "1998-07-24"
    },
    {
        "col0": "La traicion",
        "col1": "R. Araiza",
        "col2": "E. Fernandez",
        "col3": "1985-04-16"
    },
    {
        "col0": "La tempestad",
        "col1": "M. Miguel",
        "col2": "X. Navarrete",
        "col3": "2013-10-27"
    },
    {
        "col0": "La prepago",
        "col1": "C. G. Diaz",
        "col2": "J. Roman",
        "col3": "2013-10-31"
    },
    {
        "col0": "La mujer del Vendaval",
        "col1": "P. R. Spindola",
        "col2": "A. Diaz",
        "col3": "2013-06-30"
    },
    {
        "col0": "La intrusa",
        "col1": "B. Sheridan",
        "col2": "G. G. Cantu",
        "col3": "2001-10-19"
    },
    {
        "col0": "La indomable",
        "col1": "L. d. Rodas",
        "col2": "M. Rivas",
        "col3": "1987-09-18"
    },
    {
        "col0": "La gloria y el infierno",
        "col1": "G. M. Ortega",
        "col2": "P. A. Jr.",
        "col3": "1986-08-29"
    },
    {
        "col0": "La fiera",
        "col1": "P. Damian",
        "col2": "I. Corona",
        "col3": "1984-11-09"
    },
    {
        "col0": "La fea mas bella",
        "col1": "S. Jimenez",
        "col2": "J. Jose",
        "col3": "2007-02-25"
    },
    {
        "col0": "La esposa virgen",
        "col1": "M. Corcega",
        "col2": "A. Noriega",
        "col3": "2005-10-21"
    },
    {
        "col0": "La casa al final de la calle",
        "col1": "J. Fons",
        "col2": "E. Palomo",
        "col3": "1989-09-08"
    },
    {
        "col0": "La antorcha encendida",
        "col1": "G. M. Ortega",
        "col2": "H. Zurita",
        "col3": "1996-11-15"
    },
    {
        "col0": "La Venganza",
        "col1": "A. V. Carrol",
        "col2": "J. A. Llamas",
        "col3": "2003-05-16"
    },
    {
        "col0": "La Vendetta",
        "col1": "Mulawin",
        "col2": "J. Mercado",
        "col3": "2008-01-18"
    },
    {
        "col0": "La Madrastra",
        "col1": "R. Banquells",
        "col2": "E. Capetillo",
        "col3": "2005-07-29"
    },
    {
        "col0": "La La Land",
        "col1": "R. Films",
        "col2": "M. Wootton",
        "col3": "2010-03-01"
    },
    {
        "col0": "La Duena",
        "col1": "R. G. Fernandez",
        "col2": "C. Klitbo",
        "col3": "1995-09-29"
    },
    {
        "col0": "La Diosa Coronada",
        "col1": "M. Varoni",
        "col2": "C. Guerra",
        "col3": "2010-09-07"
    },
    {
        "col0": "La Cittadella",
        "col1": "A. G. Majano",
        "col2": "A. Lupo",
        "col3": "1964-03-22"
    },
    {
        "col0": "LaLola",
        "col1": "J. Lana",
        "col2": "R. Ramos",
        "col3": "2009-02-06"
    },
    {
        "col0": "LG15: Outbreak",
        "col1": "G. A. McConnell",
        "col2": "G. A. McConnell",
        "col3": "2010-03-24"
    },
    {
        "col0": "L.A. Heat",
        "col1": "J. Travolta",
        "col2": "S. Williams",
        "col3": "1999-05-19"
    },
    {
        "col0": "L'ispettore Giusti",
        "col1": "S. Martino",
        "col2": "E. Montesano",
        "col3": "1999-05-17"
    },
    {
        "col0": "Kyoryu Sentai Zyuranger",
        "col1": "K. Amemiya",
        "col2": "T. Hashimoto",
        "col3": "1993-02-12"
    },
    {
        "col0": "Kyunki Saas Bhi Kabhi Bahu Thi",
        "col1": "F. Kashmiri",
        "col2": "Kyunki Saas Bhi Kabhi Bahu Thi",
        "col3": "2008-11-06"
    },
    {
        "col0": "Kyoryu Sentai Zyuranger",
        "col1": "K. Amemiya",
        "col2": "M. Soga",
        "col3": "1993-02-12"
    },
    {
        "col0": "Kung Mawawala Ka",
        "col1": "J. Lamangan",
        "col2": "E. Garcia",
        "col3": "2003-06-06"
    },
    {
        "col0": "Kung Mahawi Man Ang Ulap",
        "col1": "M. Alejandre",
        "col2": "D. Trillo",
        "col3": "2007-11-09"
    },
    {
        "col0": "Kung Aagawin Mo Ang Lahat Sa Akin",
        "col1": "T. Lee",
        "col2": "J. Tiuseco",
        "col3": "2009-09-25"
    },
    {
        "col0": "Kumkum",
        "col1": "A. Babbal",
        "col2": "J. Parmar",
        "col3": "2009-03-13"
    },
    {
        "col0": "Kuch Pyar Ka Pagalpan",
        "col1": "H. Hussain",
        "col2": "S. Baloch",
        "col3": "2012-03-10"
    },
    {
        "col0": "Krod Mandoon and the Flaming Sword of Fire",
        "col1": "A. Hardcastle",
        "col2": "K. Hart",
        "col3": "2009-05-07"
    },
    {
        "col0": "Kristine",
        "col1": "R. Quintos",
        "col2": "I. Villania",
        "col3": "2011-02-11"
    },
    {
        "col0": "Krod Mandoon and the Flaming Sword of Fire",
        "col1": "A. Hardcastle",
        "col2": "K. Hart",
        "col3": "2009-05-07"
    },
    {
        "col0": "Korg: 70,000 B.C.",
        "col1": "I. J. Moore",
        "col2": "B. Ewing",
        "col3": "1975-08-30"
    },
    {
        "col0": "Korean Peninsula",
        "col1": "L. Hyung-min",
        "col2": "H. Jung-min",
        "col3": "2012-04-03"
    },
    {
        "col0": "Kokey at Ako",
        "col1": "W. V. Deramas",
        "col2": "T. Gonzaga",
        "col3": "2010-12-03"
    },
    {
        "col0": "Kokey",
        "col1": "W. V. Deramas",
        "col2": "Kokey",
        "col3": "2007-11-09"
    },
    {
        "col0": "Kokak",
        "col1": "R. Davao",
        "col2": "S. Lahbati",
        "col3": "2012-03-02"
    },
    {
        "col0": "Kodiak",
        "col1": "W. Witney",
        "col2": "C. Walker",
        "col3": "1974-10-04"
    },
    {
        "col0": "Knots Landing: Back to the Cul-de-Sac",
        "col1": "B. Corcoran",
        "col2": "D. Mills",
        "col3": "1997-05-09"
    },
    {
        "col0": "Knight Rider",
        "col1": "J. Chandrasekhar",
        "col2": "B. Davison",
        "col3": "2009-03-04"
    },
    {
        "col0": "Klondike",
        "col1": "S. C. Jones",
        "col2": "A. Cornish",
        "col3": "2014-01-22"
    },
    {
        "col0": "Klondike",
        "col1": "S. Peckinpah",
        "col2": "J. Coburn",
        "col3": "1961-02-13"
    },
    {
        "col0": "Kitani Mohabbat Hai",
        "col1": "F. Kashmiri",
        "col2": "K. M. Hai",
        "col3": "2009-09-25"
    },
    {
        "col0": "Kis Desh Mein Hai Meraa Dil",
        "col1": "R. Gautam",
        "col2": "Kis Desh Mein Hai Meraa Dil",
        "col3": "2010-02-05"
    },
    {
        "col0": "Kirk",
        "col1": "S. Baio",
        "col2": "T. Fry",
        "col3": "1997-01-12"
    },
    {
        "col0": "Kirara, Ano Ang Kulay ng Pag-ibig?",
        "col1": "G. Alajar",
        "col2": "A. Austria",
        "col3": "2001-11-02"
    },
    {
        "col0": "Kinvig",
        "col1": "B. Simmons",
        "col2": "P. Rowlands",
        "col3": "1981-10-16"
    },
    {
        "col0": "Kingdom Hospital",
        "col1": "C. R. Baxley",
        "col2": "B. Davison",
        "col3": "2004-07-15"
    },
    {
        "col0": "King of the Ghetto",
        "col1": "R. Battersby",
        "col2": "A. Sachak",
        "col3": "1986-05-22"
    },
    {
        "col0": "Killer Net",
        "col1": "G. Sax",
        "col2": "M. Tandy",
        "col3": "1998-05-26"
    },
    {
        "col0": "Kidnap and Ransom",
        "col1": "A. Wilson",
        "col2": "E. Fielding",
        "col3": "2012-03-08"
    },
    {
        "col0": "Kidlat",
        "col1": "T. Lee",
        "col2": "N. Samonte",
        "col3": "2013-05-03"
    },
    {
        "col0": "Kick",
        "col1": "E. Storm",
        "col2": "R. James",
        "col3": "2007-08-18"
    },
    {
        "col0": "Khuda Aur Muhabbat",
        "col1": "A. Shahzad",
        "col2": "A. Jahanzeb",
        "col3": "2011-05-26"
    },
    {
        "col0": "Khan!",
        "col1": "I. Dixon",
        "col2": "R. Carlson",
        "col3": "1975-02-28"
    },
    {
        "col0": "Key & Peele",
        "col1": "P. Atencio",
        "col2": "J. Peele",
        "col3": "2015-09-09"
    },
    {
        "col0": "Kesar",
        "col1": "A. Babbal",
        "col2": "Kesar",
        "col3": "2007-05-31"
    },
    {
        "col0": "Kentucky Jones",
        "col1": "B. Kulik",
        "col2": "H. Morgan",
        "col3": "1965-04-10"
    },
    {
        "col0": "Kenny vs. Spenny",
        "col1": "S. Rice",
        "col2": "S. Rice",
        "col3": "2010-12-23"
    },
    {
        "col0": "Kenny Hotz's Triumph of the Will",
        "col1": "S. Cluer",
        "col2": "K. Hotz",
        "col3": "2011-08-05"
    },
    {
        "col0": "Keep Your Head Up, Kid: The Don Cherry Story",
        "col1": "J. Woolnough",
        "col2": "J. Keeso",
        "col3": "2010-03-29"
    },
    {
        "col0": "Kayitham",
        "col1": "V. Gowthaman",
        "col2": "D. Padmini",
        "col3": "2014-05-16"
    },
    {
        "col0": "Kaya ni Mister, Kaya ni Misis",
        "col1": "J. Manahan",
        "col2": "C. Montano",
        "col3": "2001-07-22"
    },
    {
        "col0": "Kaya Kong Abutin Ang Langit",
        "col1": "T. Lee",
        "col2": "W. Ramos",
        "col3": "2010-02-05"
    },
    {
        "col0": "Kate & Allie",
        "col1": "B. Persky",
        "col2": "J. Curtin",
        "col3": "1989-05-22"
    },
    {
        "col0": "KateModern",
        "col1": "M. Beckett",
        "col2": "R. Little",
        "col3": "2008-06-28"
    },
    {
        "col0": "Kasautii Zindagii Kay",
        "col1": "A. Babbal",
        "col2": "K. Z. Kay",
        "col3": "2008-02-28"
    },
    {
        "col0": "Kasamh Se",
        "col1": "F. Kashmiri",
        "col2": "K. Se",
        "col3": "2009-03-12"
    },
    {
        "col0": "Kasalanan Bang Ibigin Ka?",
        "col1": "M. Reyes",
        "col2": "G. Eigenmann",
        "col3": "2012-08-31"
    },
    {
        "col0": "Karen",
        "col1": "E. Bellamy",
        "col2": "R. Denning",
        "col3": "1965-04-19"
    },
    {
        "col0": "Kareena Kareena",
        "col1": "H. Faisal",
        "col2": "K. Kareena",
        "col3": "2005-10-17"
    },
    {
        "col0": "Karb",
        "col1": "A. N. Khan",
        "col2": "A. Siddiqui",
        "col3": "2015-10-12"
    },
    {
        "col0": "Karate Kommandos",
        "col1": "C. A. Nichols",
        "col2": "C. Norris",
        "col3": "1986-09-19"
    },
    {
        "col0": "Karam Apnaa Apnaa",
        "col1": "A. V. Kumar",
        "col2": "K. A. Apnaa",
        "col3": "2009-03-27"
    },
    {
        "col0": "Karadayi",
        "col1": "U. Bayraktar",
        "col2": "R. Kocaoglu",
        "col3": "2015-06-15"
    },
    {
        "col0": "Kaputol ng Isang Awit",
        "col1": "M. Tuviera",
        "col2": "J. Revilla",
        "col3": "2008-06-13"
    },
    {
        "col0": "Kapitan Awesome",
        "col1": "J. Bernal",
        "col2": "A. E.",
        "col3": "2013-05-05"
    },
    {
        "col0": "Kampanerang Kuba",
        "col1": "W. V. Deramas",
        "col2": "L. Manzano",
        "col3": "2005-12-16"
    },
    {
        "col0": "Kamen Rider Wizard",
        "col1": "R. Tasaki",
        "col2": "M. Okunaka",
        "col3": "2013-09-29"
    },
    {
        "col0": "Kamen Rider W",
        "col1": "K. Sakamoto",
        "col2": "H. Yamamoto",
        "col3": "2010-08-29"
    },
    {
        "col0": "Kamen Rider Ryuki",
        "col1": "R. Tasaki",
        "col2": "T. Suga",
        "col3": "2003-01-19"
    },
    {
        "col0": "Kamen Rider OOO",
        "col1": "O. Kaneda",
        "col2": "S. Watanabe",
        "col3": "2011-08-28"
    },
    {
        "col0": "Kamen Rider Kuuga",
        "col1": "O. Kaneda",
        "col2": "J. Odagiri",
        "col3": "2001-01-21"
    },
    {
        "col0": "Kamen Rider Kiva",
        "col1": "R. Tasaki",
        "col2": "K. Kato",
        "col3": "2009-01-18"
    },
    {
        "col0": "Kamen Rider Kabuto",
        "col1": "R. Tasaki",
        "col2": "K. Kato",
        "col3": "2007-01-21"
    },
    {
        "col0": "Kamen Rider Hibiki",
        "col1": "O. Kaneda",
        "col2": "J. Shibue",
        "col3": "2006-01-22"
    },
    {
        "col0": "Kamen Rider Ghost",
        "col1": "K. Sakamoto",
        "col2": "S. Nishime",
        "col3": "2016-09-25"
    },
    {
        "col0": "Kamen Rider Gaim",
        "col1": "R. Tasaki",
        "col2": "Y. Kobayashi",
        "col3": "2014-09-28"
    },
    {
        "col0": "Kamen Rider Fourze",
        "col1": "K. Sakamoto",
        "col2": "F. Shimizu",
        "col3": "2012-08-26"
    },
    {
        "col0": "Kamen Rider Drive",
        "col1": "R. Tasaki",
        "col2": "R. Uchida",
        "col3": "2015-09-27"
    },
    {
        "col0": "Kamen Rider Den-O",
        "col1": "R. Tasaki",
        "col2": "K. Ishimaru",
        "col3": "2008-01-20"
    }
]