[
    {
        "col0": "Woku",
        "col1": "M. cuisine",
        "col2": "Chicken or seafood in hot and spicy spice mixture",
        "col3": "Hot"
    },
    {
        "col0": "Waldorf salad",
        "col1": "O. Tschirky",
        "col2": "Apples,celery,walnuts,mayonnaise",
        "col3": "Chilled"
    },
    {
        "col0": "Veal Orloff",
        "col1": "U. Dubois",
        "col2": "veal,mushrooms,onion,bechamel sauce,cheese",
        "col3": "hot"
    },
    {
        "col0": "Urap",
        "col1": "J. cuisine",
        "col2": "Steamedvegetablesalad, shreddedcoconutdressing",
        "col3": "Mostly served with main course"
    },
    {
        "col0": "Triple Cooked Chips",
        "col1": "H. Blumenthal",
        "col2": "Potato",
        "col3": "Hot"
    },
    {
        "col0": "Tongseng",
        "col1": "J. cuisine",
        "col2": "Meat (mutton or beef) and vegetables cooked in curry-like soup with sweet soy sauce",
        "col3": "Hot"
    },
    {
        "col0": "Tempoyak",
        "col1": "E. Malays",
        "col2": "Durian",
        "col3": "Room temperature or cold"
    },
    {
        "col0": "Tauge goreng",
        "col1": "B. cuisine",
        "col2": "tauge (bean sprouts) stir fried with addition of slices of ketupat rice cake,tofu, and noodle, in oncom-based sauce.",
        "col3": "hot"
    },
    {
        "col0": "Ta-a noodles",
        "col1": "T. people",
        "col2": "Chinese wheat noodles, shrimp flavored soup, shrimp, coriander, Taiwanese Meat Sauce and garlic",
        "col3": "Hot"
    },
    {
        "col0": "Swikee",
        "col1": "C. Indonesian",
        "col2": "Frog legs cooked in various sauces",
        "col3": "Hot"
    },
    {
        "col0": "Stir fried water spinach",
        "col1": "A. cuisine",
        "col2": "Kangkung stir-fried in certainseasoning",
        "col3": "hot"
    },
    {
        "col0": "Spam",
        "col1": "Hormel",
        "col2": "Pork shoulderandham",
        "col3": "Hot or cold"
    },
    {
        "col0": "Soto mie",
        "col1": "P. cuisine",
        "col2": "Chicken, or beef soups with noodle",
        "col3": "Hot"
    },
    {
        "col0": "Soto ayam",
        "col1": "I. cuisine",
        "col2": "Chickenin spicy lightturmericsoup",
        "col3": "Hot"
    },
    {
        "col0": "Slavink",
        "col1": "L. N. Holland",
        "col2": "Pork,beef,bacon,butterorvegetable oil",
        "col3": "Hot"
    },
    {
        "col0": "Sisig",
        "col1": "L. Cunanan",
        "col2": "Porkjowls, ears and liver",
        "col3": "Hot"
    },
    {
        "col0": "Siomay",
        "col1": "S. cuisine",
        "col2": "fish dumpling with tofu and vegetables inpeanut sauce",
        "col3": "hot"
    },
    {
        "col0": "Sinangag",
        "col1": "P. cuisine",
        "col2": "Fried rice in oil with a lot of garlic",
        "col3": "Hot"
    },
    {
        "col0": "Selat solo",
        "col1": "J. cuisine",
        "col2": "Braisedbeef tenderloinserved in thin watery sauce, served with vegetables and potato",
        "col3": "Hot"
    },
    {
        "col0": "Sekba",
        "col1": "C. I. cuisine",
        "col2": "Porkoffals (liver, tongue, ear, intestine) and meat braised in soy sauce, garlic and Chinese herbs",
        "col3": "Hot"
    },
    {
        "col0": "Seblak",
        "col1": "S. cuisine",
        "col2": "wet krupuk cooked with scrambled egg, vegetables, and other protein sources (chicken, chicken feet, seafood, or beef sausages), with spicy sauces including garlic, shallot,  kencur, sweet soy sauce, and chili sauce.",
        "col3": "hot"
    },
    {
        "col0": "Sayur lodeh",
        "col1": "J. cuisine",
        "col2": "Coconut milk,vegetables (jackfruit,eggplant,chayote, melinjo,long beans,tofu,tempeh),chickenorbeef stock",
        "col3": "Hot or room temperature"
    },
    {
        "col0": "Sayur asem",
        "col1": "S. cuisine",
        "col2": "variousvegetables intamarindsoup",
        "col3": "hot and room temperature"
    },
    {
        "col0": "Sate Padang",
        "col1": "M. people",
        "col2": "Beef and offal satay in thick yellow sauce",
        "col3": "Hot"
    },
    {
        "col0": "Sate Lilit",
        "col1": "B. cuisine",
        "col2": "Minced meat (pork, chicken, fish or beef) spiced and wrapped around bamboo or lemongrass stick, and grilled over the chatcoal",
        "col3": "Hot"
    },
    {
        "col0": "Samlor Kako",
        "col1": "C. cuisine",
        "col2": "Kroeung, fish paste, fish flesh, pork or chicken and vegetables",
        "col3": "Hot"
    },
    {
        "col0": "Sambal",
        "col1": "J. cuisine",
        "col2": "Groundchili pepperwithshallot,garlicandshrimp paste",
        "col3": "Room temperature"
    },
    {
        "col0": "Salisbury steak",
        "col1": "J. H. Salisbury",
        "col2": "Ground beef",
        "col3": "Hot"
    },
    {
        "col0": "Roti canai",
        "col1": "M. I. cuisine",
        "col2": "Flour",
        "col3": "Hot"
    },
    {
        "col0": "Rijsttafel",
        "col1": "I. cuisine",
        "col2": "Rice with various side dishes",
        "col3": "Hot or room temperature"
    },
    {
        "col0": "Rica-rica",
        "col1": "M. cuisine",
        "col2": "Chicken, meat, or seafood in hot and spicy spice mixture with a lot of red chili pepper",
        "col3": "Hot"
    },
    {
        "col0": "Pootharekulu",
        "col1": "Atreyapuram",
        "col2": "Rice starch/Black gram,powdered sugarorjaggery,ghee",
        "col3": "Room temperature"
    },
    {
        "col0": "Pljeskavica",
        "col1": "Serbia",
        "col2": "Two or more ofbeef,lamb,pork,veal;onions",
        "col3": "Hot"
    },
    {
        "col0": "Pesaha Appam",
        "col1": "J. Diaspora",
        "col2": "Rice batter",
        "col3": "Served after dinner without any yeast"
    },
    {
        "col0": "Pepes",
        "col1": "S. people",
        "col2": "Various ingredients (fish, meat, mushroom, tofu or oncom) spiced and cooked inbanana leaf",
        "col3": "Hot or room temperature"
    },
    {
        "col0": "Pecel Lele",
        "col1": "J. cuisine",
        "col2": "Clarias catfish served with sambal traditional chili paste",
        "col3": "Hot"
    },
    {
        "col0": "Pecel",
        "col1": "J. cuisine",
        "col2": "vegetables in peanut sauce",
        "col3": "Room temperature"
    },
    {
        "col0": "Pastel de nata",
        "col1": "Religious",
        "col2": "Egg yolks",
        "col3": "Fresh from oven, with cinnamon and icing sugar"
    },
    {
        "col0": "Papeda",
        "col1": "I. cuisine",
        "col2": "Sago",
        "col3": "Hot or room temperature"
    },
    {
        "col0": "Nasi timbel",
        "col1": "S. cuisine",
        "col2": "Hot steamed rice wrapped inbanana leafsurrounded with side dishes",
        "col3": "Hot"
    },
    {
        "col0": "Nasi tim",
        "col1": "C. Indonesians",
        "col2": "Ricesteamed withchickenormeat",
        "col3": "Hot"
    },
    {
        "col0": "Nasi pecel",
        "col1": "J. people",
        "col2": "Rice with vegetables in peanut sauce",
        "col3": "Room temperature"
    },
    {
        "col0": "Nasi liwet",
        "col1": "J. cuisine",
        "col2": "Rice cooked in richcoconut milksurrounded with side dishes",
        "col3": "Hot"
    },
    {
        "col0": "Nasi lemak",
        "col1": "M. cuisine",
        "col2": "Rice cooked incoconut milkwith leaves ofPandan screwpineand served with traditional anchovies chili paste, cucumber, and various side dishes",
        "col3": "Hot or room temperature"
    },
    {
        "col0": "Nasi kuning",
        "col1": "J. cuisine",
        "col2": "Rice cooked inturmericsurrounded with side dishes",
        "col3": "Hot and room temperature"
    },
    {
        "col0": "Nasi kucing",
        "col1": "J. people",
        "col2": "Rice in small portion with various side dishes wrapped inside banaan leaf",
        "col3": "Hot or room temperature"
    },
    {
        "col0": "Nasi kerabu",
        "col1": "M. cuisine",
        "col2": "Rice cooked with clitoria ternatea (butterfly-pea) flowers or turmeric, various herbs, anchovy sauce orbudu",
        "col3": "Room temperature"
    },
    {
        "col0": "Nasi kebuli",
        "col1": "A. Indonesians",
        "col2": "Ricewith minyak samin (ghee) spiced and served with goat meat",
        "col3": "Hot"
    },
    {
        "col0": "Nasi dagang",
        "col1": "M. cuisine",
        "col2": "Rice with cooked incoconut milkserved with Malay fish,chicken and prawn Curry",
        "col3": "Hot or room temperature"
    },
    {
        "col0": "Nasi bogana",
        "col1": "J. people",
        "col2": "Rice with side dishes wrapped inside banana leaf",
        "col3": "Hot or room temperature"
    },
    {
        "col0": "Nasi bakar",
        "col1": "I. cuisine",
        "col2": "Seasoned rice with various ingredients wrapped inbanana leafand grilled upon charcoal fire.",
        "col3": "Hot"
    },
    {
        "col0": "Nachos",
        "col1": "I. Anaya",
        "col2": "Tortilla chips, nacho cheese or shredded cheese,salsa",
        "col3": "Warm"
    },
    {
        "col0": "Mochi ice cream",
        "col1": "F. Hashimoto",
        "col2": "Mochi,ice cream,powdered sugar",
        "col3": "Cold"
    },
    {
        "col0": "Mie ayam",
        "col1": "O. Chinese",
        "col2": "Noodle, chicken meat,soy sauce,garlic,cooking oil(from chicken fat or vegetable oil), chickenbroth,chinese cabbage,scallions",
        "col3": "Hot"
    },
    {
        "col0": "Lontong Cap Go Meh",
        "col1": "Java",
        "col2": "Lontongtopped withopor ayam, sayur lodeh, sambal goreng ati, pindang telur, koya powder, sambal, and krupuk",
        "col3": "Hot"
    },
    {
        "col0": "Lontong",
        "col1": "I. cuisine",
        "col2": "compressed rice cooked inbanana leaf",
        "col3": "Room temperature"
    },
    {
        "col0": "Lekor",
        "col1": "M. people",
        "col2": "Fish,sago flour",
        "col3": "Hot"
    },
    {
        "col0": "Lalab",
        "col1": "S. people",
        "col2": "Various raw vegetables served with sambal terasi",
        "col3": "Cold or room temperature"
    },
    {
        "col0": "Kwetiau goreng",
        "col1": "Peranakan",
        "col2": "Fried flat noodles with chicken, meat, beef, prawn or crab",
        "col3": "Hot"
    },
    {
        "col0": "Kuluban",
        "col1": "J. Regency",
        "col2": "Steamedvegetablesalad, shreddedcoconutdressing",
        "col3": "Mostly served with main course"
    },
    {
        "col0": "Kue putu",
        "col1": "Puttu",
        "col2": "Rice flour, palm sugar, grated coconut",
        "col3": "Room temperature"
    },
    {
        "col0": "Kue lapis",
        "col1": "B. people",
        "col2": "Rice flour, sugar, coconut milk",
        "col3": "Room temperature"
    },
    {
        "col0": "Krupuk kulit",
        "col1": "I. cuisine",
        "col2": "Cattle skin (cow or water buffalo), diced, sun dried, and fried in ample of coconut oil",
        "col3": "Room temperature"
    },
    {
        "col0": "Krechek",
        "col1": "J. cuisine",
        "col2": "Rambak orkrupuk kulit, potato and soybeans cooked in spicy coconut milk stew with chili peppers",
        "col3": "Hot or room temperature"
    },
    {
        "col0": "Kelan Antep",
        "col1": "J. Regency",
        "col2": "Meatnot fat (beef,lamborgoat),water,garlic,red onion,red pepper,sour,galangal,bay leaf.",
        "col3": "Hot or room temperature"
    },
    {
        "col0": "Kaya toast",
        "col1": "M. Chinese",
        "col2": "kaya(coconut jam)",
        "col3": "Hot"
    },
    {
        "col0": "Karedok",
        "col1": "S. people",
        "col2": "Rawvegetables,peanut sauce,krupuk",
        "col3": "Room temperature"
    },
    {
        "col0": "Johnny Marzetti",
        "col1": "C. Ohio",
        "col2": "Pasta,ground beef,tomatoes.",
        "col3": "Hot"
    },
    {
        "col0": "Jemput-jemput",
        "col1": "Malays",
        "col2": "Flour, (Alternative ingredients for flavours:banana,anchovies,prawns,onionormaize)",
        "col3": "Hot"
    },
    {
        "col0": "Ikan goreng",
        "col1": "I. cuisine",
        "col2": "Fish, seasoned withgarlic,shallotsand other spices anddeep friedincoconut oil",
        "col3": "Hot"
    },
    {
        "col0": "Ikan bakar",
        "col1": "I. cuisine",
        "col2": "Fish, seasoned withgarlic,shallotsand other spicesgrilledoncharcoal",
        "col3": "Hot"
    },
    {
        "col0": "Iga penyet",
        "col1": "J. cuisine",
        "col2": "\"Squeezed\"beef ribsserved withsambal",
        "col3": "Hot"
    },
    {
        "col0": "Hot Brown",
        "col1": "B. Hotel",
        "col2": "Turkey,bacon,Mornay sauce",
        "col3": "Hot"
    },
    {
        "col0": "Gudeg",
        "col1": "J. cuisine",
        "col2": "Youngjackfruit,coconut milk,palm sugar, chili, various spices,chicken,egg,Tempeh (optional)",
        "col3": "Hot or room temperature"
    },
    {
        "col0": "Empal gepuk",
        "col1": "S. people",
        "col2": "Sweet spiced fried beef",
        "col3": "Hot or room temperature"
    },
    {
        "col0": "Doner kebab",
        "col1": "O. Turks",
        "col2": "Lamb,beeforchicken",
        "col3": "Hot"
    },
    {
        "col0": "Dize mile",
        "col1": "G. Creole",
        "col2": "Flour,lard,salt,baking powder,water,sugar,lemon,vanilla,cinnamon,nutmeg",
        "col3": "Cold"
    },
    {
        "col0": "Daun ubi tumbuk",
        "col1": "I. cuisine",
        "col2": "cassavaleaves, pounded and seasoned with spice mixture ofginger,galangal,candlenut,garlic, andlemongrass, along withcoconut milkand ikan teri",
        "col3": "Hot or room temperature"
    },
    {
        "col0": "Crab in oyster sauce",
        "col1": "C. cuisine",
        "col2": "Crabserved inoyster sauce, garlic, ginger and scallion",
        "col3": "Hot"
    },
    {
        "col0": "Crab in Padang sauce",
        "col1": "P. food",
        "col2": "Crabserved in Padang style hot and spicy sauce, which includes chili pepper, garlic, shallot, ginger, turmeric, candlenut and scallion",
        "col3": "Hot"
    },
    {
        "col0": "Countess",
        "col1": "G. Creole",
        "col2": "Flour,water,lard,eggs,milk powder, (sometimes)sugar,salt,butter",
        "col3": "Hot"
    },
    {
        "col0": "Confederate cush",
        "col1": "C. S. Army",
        "col2": "salt pork, bacon,cornmeal mush, cubed beef",
        "col3": "Warm"
    },
    {
        "col0": "Clementine cake",
        "col1": "S. Jews",
        "col2": "Clementinefruit and typical cake ingredients",
        "col3": "Cold or warmed"
    },
    {
        "col0": "Chairo",
        "col1": "A. people",
        "col2": "Chunos,onions,carrots,potatoes, white corn,beefandwheatkernels",
        "col3": "Hot"
    },
    {
        "col0": "Cap cai",
        "col1": "C. Indonesian",
        "col2": "Stir fried vegetables",
        "col3": "Hot"
    },
    {
        "col0": "Buntil",
        "col1": "J. cuisine",
        "col2": "Papaya, taro, or cassava leaves filled with gratedcoconutandanchovies, boiled incoconut milk",
        "col3": "Hot or room temperature"
    },
    {
        "col0": "Bubur pedas",
        "col1": "E. Malay",
        "col2": "For Bubur:Carrots,potatoes,leafy greens,mushrooms,bean curd,bamboo shoots,turmeric leaves,long beans,dried shrimpandmeatare added along withseasoning",
        "col3": "Hot"
    }
]