[
    {
        "col0": "H. Lloyd",
        "col1": "United States",
        "col2": "1971-03-08",
        "col3": "Harold Clayton Lloyd",
        "col4": "1893-04-20"
    },
    {
        "col0": "G. Marx",
        "col1": "New York",
        "col2": "1977-08-19",
        "col3": "Julius Henry Marx",
        "col4": "1890-10-02"
    },
    {
        "col0": "G. Giraldo",
        "col1": "New York",
        "col2": "2010-09-29",
        "col3": "Gregory C. Giraldo",
        "col4": "1965-12-10"
    },
    {
        "col0": "G. Nutt",
        "col1": "Amarillo, Texas",
        "col2": "1982-11-23",
        "col3": "Grady Lee Nutt",
        "col4": "1934-09-02"
    },
    {
        "col0": "G. Roper",
        "col1": "Lancashire",
        "col2": "2003-07-01",
        "col3": "George Francis Furnival",
        "col4": "1934-05-15"
    },
    {
        "col0": "G. Shandling",
        "col1": "Chicago",
        "col2": "2016-03-24",
        "col3": "Garry Emmanuel Shandling",
        "col4": "1949-11-29"
    },
    {
        "col0": "F. Travalena",
        "col1": "New York",
        "col2": "2009-06-28",
        "col3": "Frederick Albert Travalena III",
        "col4": "1942-10-06"
    },
    {
        "col0": "F. Suero",
        "col1": "San Cristobal Province",
        "col2": "2012-06-06",
        "col3": "Francisco de la Cruz Suero",
        "col4": "1960-06-04"
    },
    {
        "col0": "F. Potenza",
        "col1": "Brooklyn, New York",
        "col2": "2011-08-23",
        "col3": "Francis Potenza",
        "col4": "1933-11-11"
    },
    {
        "col0": "F. Carson",
        "col1": "Belfast, Northern Ireland",
        "col2": "2012-02-22",
        "col3": "Hugh Francis Carson",
        "col4": "1926-11-06"
    },
    {
        "col0": "F. Wilson",
        "col1": "Jersey City, New Jersey",
        "col2": "1998-11-25",
        "col3": "Clerow Wilson, Jr.",
        "col4": "1933-12-08"
    },
    {
        "col0": "F. Holzmann",
        "col1": "Czechoslovakia",
        "col2": "2002-09-13",
        "col3": "Felix Holzmann",
        "col4": "1921-07-08"
    },
    {
        "col0": "E. Kovacs",
        "col1": "Trenton, New Jersey",
        "col2": "1962-01-13",
        "col3": "Ernest Edward Kovacs",
        "col4": "1919-01-23"
    },
    {
        "col0": "D. Gee",
        "col1": "York",
        "col2": "1986-01-03",
        "col3": "Gerald Harrison",
        "col4": "1942-06-24"
    },
    {
        "col0": "D. Harron",
        "col1": "Ontario",
        "col2": "2015-01-17",
        "col3": "Donald Hugh Harron",
        "col4": "1924-09-19"
    }
]