[
    {
        "col0": "Bleu de France",
        "col1": "79",
        "col2": "49",
        "col3": "9",
        "col4": "0",
        "col5": "210"
    },
    {
        "col0": "Bistre",
        "col1": "49",
        "col2": "61",
        "col3": "76",
        "col4": "49",
        "col5": "24"
    },
    {
        "col0": "Beige",
        "col1": "10",
        "col2": "245",
        "col3": "4",
        "col4": "10",
        "col5": "60"
    },
    {
        "col0": "Baker-Miller Pink",
        "col1": "43",
        "col2": "255",
        "col3": "0",
        "col4": "31",
        "col5": "344"
    },
    {
        "col0": "Baby blue",
        "col1": "43",
        "col2": "137",
        "col3": "6",
        "col4": "0",
        "col5": "199"
    },
    {
        "col0": "Aqua",
        "col1": "100",
        "col2": "0",
        "col3": "0",
        "col4": "0",
        "col5": "180"
    },
    {
        "col0": "Apricot",
        "col1": "30",
        "col2": "251",
        "col3": "16",
        "col4": "30",
        "col5": "24"
    },
    {
        "col0": "Android green",
        "col1": "71",
        "col2": "164",
        "col3": "22",
        "col4": "71",
        "col5": "74"
    },
    {
        "col0": "Amber",
        "col1": "100",
        "col2": "255",
        "col3": "0",
        "col4": "100",
        "col5": "45"
    },
    {
        "col0": "Amaranth",
        "col1": "35",
        "col2": "241",
        "col3": "5",
        "col4": "22",
        "col5": "338"
    },
    {
        "col0": "Alizarin crimson",
        "col1": "83",
        "col2": "227",
        "col3": "11",
        "col4": "76",
        "col5": "355"
    },
    {
        "col0": "Alice blue",
        "col1": "6",
        "col2": "240",
        "col3": "0",
        "col4": "1",
        "col5": "208"
    },
    {
        "col0": "Acid green",
        "col1": "86",
        "col2": "176",
        "col3": "25",
        "col4": "86",
        "col5": "65"
    }
]