[
    {
        "col0": "Small Potatoes",
        "col1": "P. Duane",
        "col2": "T. Tiernan",
        "col3": "2001-09-11"
    },
    {
        "col0": "Small Island",
        "col1": "J. Alexander",
        "col2": "N. Harris",
        "col3": "2009-12-13"
    },
    {
        "col0": "Slings & Arrows",
        "col1": "P. Wellington",
        "col2": "P. Gross",
        "col3": "2006-08-28"
    },
    {
        "col0": "Sleepers",
        "col1": "G. Sax",
        "col2": "D. Calder",
        "col3": "1991-05-01"
    },
    {
        "col0": "Skargardsdoktorn",
        "col1": "D. L. Lagerlof",
        "col2": "E. Hultkvist",
        "col3": "2000-05-08"
    },
    {
        "col0": "Skippy the Bush Kangaroo",
        "col1": "M. Varnel",
        "col2": "L. Goddard",
        "col3": "1970-05-04"
    },
    {
        "col0": "Skins",
        "col1": "S. Smith",
        "col2": "B. Oldford",
        "col3": "2011-03-21"
    },
    {
        "col0": "Skag",
        "col1": "F. Perry",
        "col2": "P. Boothe",
        "col3": "1980-02-21"
    },
    {
        "col0": "Sk8",
        "col1": "J. Head",
        "col2": "J. V. Jr.",
        "col3": "2002-01-05"
    },
    {
        "col0": "Skargardsdoktorn",
        "col1": "D. L. Lagerlof",
        "col2": "E. Hultkvist",
        "col3": "2000-05-08"
    },
    {
        "col0": "Sitamgar",
        "col1": "F. Burney",
        "col2": "A. Malik",
        "col3": "2013-03-07"
    },
    {
        "col0": "Sisters Over Flowers",
        "col1": "N. Young-seok",
        "col2": "L. Mi-yeon",
        "col3": "2014-01-17"
    },
    {
        "col0": "Sister Kate",
        "col1": "J. Melman",
        "col2": "S. Beacham",
        "col3": "1990-07-30"
    },
    {
        "col0": "Sisid",
        "col1": "R. Davao",
        "col2": "J. Tiuseco",
        "col3": "2011-09-16"
    },
    {
        "col0": "Sir Francis Drake",
        "col1": "C. Donner",
        "col2": "T. Morgan",
        "col3": "1962-05-20"
    },
    {
        "col0": "Sir Bernard's Stately Homes",
        "col1": "E. Wright",
        "col2": "D. Walliams",
        "col3": "1998-06-16"
    },
    {
        "col0": "Sinner or Saint",
        "col1": "D. M. Perez",
        "col2": "D. Monasterio",
        "col3": "2011-10-07"
    },
    {
        "col0": "Single Father",
        "col1": "S. Miller",
        "col2": "S. Jones",
        "col3": "2010-10-31"
    },
    {
        "col0": "Sing Me a Story with Belle",
        "col1": "S. Purcell",
        "col2": "K. Storms",
        "col3": "1999-12-11"
    },
    {
        "col0": "Sinbad",
        "col1": "A. Wilson",
        "col2": "N. Andrews",
        "col3": "2012-09-23"
    },
    {
        "col0": "Sinasamba Kita",
        "col1": "J. Lamangan",
        "col2": "S. Cruz",
        "col3": "2007-07-27"
    },
    {
        "col0": "Simplemente Maria",
        "col1": "B. Sheridan",
        "col2": "V. Ruffo",
        "col3": "1990-05-11"
    },
    {
        "col0": "Silversun",
        "col1": "M. Smith",
        "col2": "S. Walker",
        "col3": "2004-09-01"
    },
    {
        "col0": "Silver Spoons",
        "col1": "J. Shea",
        "col2": "R. Schroder",
        "col3": "1987-03-04"
    },
    {
        "col0": "Significant Others",
        "col1": "G. Huang",
        "col2": "J. Garner",
        "col3": "1999-01-31"
    },
    {
        "col0": "Signal",
        "col1": "K. Won-seok",
        "col2": "K. Hye-soo",
        "col3": "2016-03-12"
    },
    {
        "col0": "Sign",
        "col1": "J. Hang-jun",
        "col2": "U. Ji-won",
        "col3": "2011-03-10"
    },
    {
        "col0": "Siempre te amare",
        "col1": "A. Rojas",
        "col2": "L. Flores",
        "col3": "2000-07-28"
    },
    {
        "col0": "Sidekicks",
        "col1": "J. Fargo",
        "col2": "G. Gerard",
        "col3": "1987-06-13"
    },
    {
        "col0": "Siblings",
        "col1": "D. Zeff",
        "col2": "T. Stourton",
        "col3": "2016-02-08"
    },
    {
        "col0": "Siberia",
        "col1": "M. Arnold",
        "col2": "E. Anderson",
        "col3": "2013-09-16"
    },
    {
        "col0": "Si Dios me quita la vida",
        "col1": "E. Lizalde",
        "col2": "C. Evora",
        "col3": "1995-08-11"
    },
    {
        "col0": "SiS",
        "col1": "L. Ignacio",
        "col2": "C. Villaroel",
        "col3": "2010-01-01"
    },
    {
        "col0": "Shuriken Sentai Ninninger",
        "col1": "O. Kaneda",
        "col2": "H. Tawada",
        "col3": "2016-02-07"
    },
    {
        "col0": "Show Me a Hero",
        "col1": "P. Haggis",
        "col2": "T. Kinney",
        "col3": "2015-08-30"
    },
    {
        "col0": "Show Me Yours",
        "col1": "T. W. Peacocke",
        "col2": "R. Crawford",
        "col3": "2005-05-31"
    },
    {
        "col0": "Shoutout!",
        "col1": "J. Manahan",
        "col2": "E. Dee",
        "col3": "2011-02-11"
    },
    {
        "col0": "Shoot to Kill",
        "col1": "P. Kosminsky",
        "col2": "D. Calder",
        "col3": "1990-06-04"
    },
    {
        "col0": "Shobha Somnath Ki",
        "col1": "A. Babbal",
        "col2": "V. Virk",
        "col3": "2012-02-26"
    },
    {
        "col0": "Sherlock Holmes",
        "col1": "A. Kavun",
        "col2": "A. Panin",
        "col3": "2013-11-28"
    },
    {
        "col0": "Sherlock Holmes",
        "col1": "S. Reynolds",
        "col2": "R. Howard",
        "col3": "1955-10-17"
    },
    {
        "col0": "Shehr-e-Zaat",
        "col1": "S. S. Khoosat",
        "col2": "M. Khan",
        "col3": "2012-11-02"
    },
    {
        "col0": "She's the Sheriff",
        "col1": "D. Grossman",
        "col2": "P. Carroll",
        "col3": "1989-04-01"
    },
    {
        "col0": "She's Out",
        "col1": "I. Toynton",
        "col2": "A. Mitchell",
        "col3": "1995-04-10"
    },
    {
        "col0": "Shasta McNasty",
        "col1": "S. S. Holland",
        "col2": "J. Busey",
        "col3": "2000-08-01"
    },
    {
        "col0": "Sharpe",
        "col1": "T. Clegg",
        "col2": "S. Bean",
        "col3": "2008-11-09"
    },
    {
        "col0": "Sharon",
        "col1": "J. Manahan",
        "col2": "S. Cuneta",
        "col3": "2010-10-03"
    },
    {
        "col0": "Sharon: Kasama Mo, Kapatid",
        "col1": "M. Meily",
        "col2": "S. Cuneta",
        "col3": "2013-01-04"
    },
    {
        "col0": "Shaq Vs.",
        "col1": "J. R. Thompson",
        "col2": "S. O'Neal",
        "col3": "2010-08-31"
    },
    {
        "col0": "Shaping Up",
        "col1": "M. Lessac",
        "col2": "L. Nielsen",
        "col3": "1984-04-17"
    },
    {
        "col0": "Shanthi Nilayam",
        "col1": "K. Balachander",
        "col2": "R. Arumugam",
        "col3": "2012-05-09"
    },
    {
        "col0": "Shangri-La Plaza",
        "col1": "N. Castle",
        "col2": "M. Hardin",
        "col3": "1990-07-30"
    },
    {
        "col0": "Shane",
        "col1": "D. Greene",
        "col2": "J. Ireland",
        "col3": "1966-12-31"
    },
    {
        "col0": "Shanakht",
        "col1": "A. N. Khan",
        "col2": "F. Mirza",
        "col3": "2014-12-16"
    },
    {
        "col0": "Shaky Ground",
        "col1": "A. Wolff",
        "col2": "J. L. Hewitt",
        "col3": "1993-05-23"
    },
    {
        "col0": "Shahrzad",
        "col1": "H. Fathi",
        "col2": "S. Hosseini",
        "col3": "2016-05-09"
    },
    {
        "col0": "Shagun",
        "col1": "K. Ghatak",
        "col2": "Shagun",
        "col3": "2004-11-04"
    },
    {
        "col0": "Shadow Warriors",
        "col1": "K. Fukasaku",
        "col2": "H. Sanada",
        "col3": "1985-12-30"
    },
    {
        "col0": "Shadow Raiders",
        "col1": "M. Sawers",
        "col2": "S. McNeil",
        "col3": "1999-06-23"
    },
    {
        "col0": "Shackleton",
        "col1": "C. Sturridge",
        "col2": "K. Branagh",
        "col3": "2002-01-03"
    },
    {
        "col0": "Sex Traffic",
        "col1": "D. Yates",
        "col2": "M. Popistasu",
        "col3": "2004-10-21"
    },
    {
        "col0": "Seventeen Moments of Spring",
        "col1": "T. Lioznova",
        "col2": "V. Tikhonov",
        "col3": "1973-08-24"
    },
    {
        "col0": "Seven Wonders of the Industrial World",
        "col1": "P. Wilmshurst",
        "col2": "R. Cavanah",
        "col3": "2003-10-16"
    },
    {
        "col0": "Seven Deadly Sins",
        "col1": "G. Edwards",
        "col2": "H. Weaving",
        "col3": "1993-03-25"
    },
    {
        "col0": "Servants",
        "col1": "T. Whitby",
        "col2": "R. Herring",
        "col3": "2003-05-15"
    },
    {
        "col0": "Serpico",
        "col1": "R. Badiyi",
        "col2": "T. Atkins",
        "col3": "1977-01-28"
    },
    {
        "col0": "Sense and Sensibility",
        "col1": "J. Alexander",
        "col2": "H. Morahan",
        "col3": "2008-01-13"
    },
    {
        "col0": "Senda de gloria",
        "col1": "R. Araiza",
        "col2": "R. Vander",
        "col3": "1987-10-02"
    },
    {
        "col0": "Selva de Pedra",
        "col1": "D. Filho",
        "col2": "R. Duarte",
        "col3": "1973-01-23"
    },
    {
        "col0": "Selling Hitler",
        "col1": "A. Reid",
        "col2": "J. Pryce",
        "col3": "1991-07-09"
    },
    {
        "col0": "Seijuu Sentai Gingaman",
        "col1": "R. Tasaki",
        "col2": "K. Mizutani",
        "col3": "1999-02-14"
    },
    {
        "col0": "Seeing Things",
        "col1": "G. McCowan",
        "col2": "L. D. Grande",
        "col3": "1987-05-15"
    },
    {
        "col0": "Secret Love Affair",
        "col1": "A. Pan-seok",
        "col2": "Y. Ah-in",
        "col3": "2014-05-13"
    },
    {
        "col0": "Secret Diary of a Call Girl",
        "col1": "S. Tully",
        "col2": "L. James",
        "col3": "2011-03-22"
    },
    {
        "col0": "Secret Agent Man",
        "col1": "J. Levy",
        "col2": "C. Mandylor",
        "col3": "2000-07-28"
    },
    {
        "col0": "Second Time Around",
        "col1": "S. Lathan",
        "col2": "B. Kodjoe",
        "col3": "2005-01-24"
    },
    {
        "col0": "Second Noah",
        "col1": "D. Deitch",
        "col2": "D. H. Kelly",
        "col3": "1997-06-08"
    },
    {
        "col0": "Second Generation",
        "col1": "J. Sen",
        "col2": "C. Simpson",
        "col3": "2003-09-15"
    },
    {
        "col0": "Second Chances",
        "col1": "L. Guillen",
        "col2": "R. Santiago",
        "col3": "2015-05-08"
    },
    {
        "col0": "Seaway",
        "col1": "A. Biberman",
        "col2": "S. Young",
        "col3": "1966-09-08"
    },
    {
        "col0": "Season of the Sun",
        "col1": "N. Doi",
        "col2": "H. Takizawa",
        "col3": "2002-09-15"
    },
    {
        "col0": "Scorch",
        "col1": "R. Correll",
        "col2": "R. Marie",
        "col3": "1992-03-13"
    },
    {
        "col0": "Scooby-Doo and Scrappy-Doo",
        "col1": "C. A. Nichols",
        "col2": "D. Messick",
        "col3": "1982-12-18"
    },
    {
        "col0": "Saved by the Bell: The College Years",
        "col1": "J. Melman",
        "col2": "B. Golic",
        "col3": "1994-02-08"
    },
    {
        "col0": "Save the Last Dance for Me",
        "col1": "L. S. Yol",
        "col2": "L. Bo-young",
        "col3": "2005-01-02"
    },
    {
        "col0": "Save Me",
        "col1": "S. Winant",
        "col2": "A. Breckenridge",
        "col3": "2013-06-13"
    },
    {
        "col0": "Saul of the Mole Men",
        "col1": "T. Stern",
        "col2": "J. Gardner",
        "col3": "2007-07-15"
    },
    {
        "col0": "Saraswatichandra",
        "col1": "A. Babbal",
        "col2": "G. Rode",
        "col3": "2014-09-20"
    },
    {
        "col0": "Sarabhai vs Sarabhai",
        "col1": "D. Bhojani",
        "col2": "R. Pathak",
        "col3": "2006-03-10"
    },
    {
        "col0": "Sara",
        "col1": "W. Mackenzie",
        "col2": "A. Woodard",
        "col3": "1985-05-08"
    },
    {
        "col0": "Sanskaar Laxmi",
        "col1": "F. Kashmiri",
        "col2": "S. Laxmi",
        "col3": "2011-09-08"
    },
    {
        "col0": "Sanjha",
        "col1": "F. Rind",
        "col2": "N. Ijaz",
        "col3": "2012-04-26"
    },
    {
        "col0": "Sangat",
        "col1": "K. Nisar",
        "col2": "S. Qamar",
        "col3": "2016-02-04"
    },
    {
        "col0": "Sang Doo! Let's Go to School",
        "col1": "L. Hyung-min",
        "col2": "Rain",
        "col3": "2003-11-04"
    },
    {
        "col0": "Sandglass",
        "col1": "K. Jong-hak",
        "col2": "C. Min-soo",
        "col3": "1995-02-16"
    },
    {
        "col0": "Sana Ngayong Pasko",
        "col1": "M. Tuviera",
        "col2": "S. Roces",
        "col3": "2010-01-08"
    },
    {
        "col0": "Sana Ay Ikaw Na Nga",
        "col1": "R. Lindayag",
        "col2": "M. Daez",
        "col3": "2013-02-08"
    },
    {
        "col0": "Samvidhaan",
        "col1": "S. Benegal",
        "col2": "D. Tahil",
        "col3": "2014-05-04"
    },
    {
        "col0": "Sam Benedict",
        "col1": "A. Biberman",
        "col2": "E. O'Brien",
        "col3": "1963-03-30"
    },
    {
        "col0": "Sam",
        "col1": "C. Cant",
        "col2": "J. Hazeldine",
        "col3": "1975-08-25"
    },
    {
        "col0": "Salut D'Amour",
        "col1": "Y. Seok-ho",
        "col2": "B. Yong-joon",
        "col3": "1995-04-25"
    },
    {
        "col0": "Salome",
        "col1": "P. R. Spindola",
        "col2": "S. Ligarde",
        "col3": "2002-05-17"
    },
    {
        "col0": "Sally",
        "col1": "W. Asher",
        "col2": "M. Lorne",
        "col3": "1958-03-30"
    },
    {
        "col0": "Salem's Lot",
        "col1": "M. Salomon",
        "col2": "D. Sutherland",
        "col3": "2004-06-21"
    }
]