[
    {
        "col0": "W. Lloyd",
        "col1": "M. Dawson",
        "col2": "New York City",
        "col3": "1994-8-24"
    },
    {
        "col0": "S. Reid",
        "col1": "J. Jareau",
        "col2": "Las Vegas",
        "col3": "1981-10-0"
    },
    {
        "col0": "P. J. Fry",
        "col1": "The Luck of the Fryrish",
        "col2": "Brooklyn",
        "col3": "1974-8-9"
    },
    {
        "col0": "L. P. Wimsey",
        "col1": "C. Parker",
        "col2": "Hampshire",
        "col3": "1890-0-0"
    },
    {
        "col0": "L. d. Lioncourt",
        "col1": "G. d. Lioncourt",
        "col2": "History of Auvergne",
        "col3": "1760-11-7"
    },
    {
        "col0": "K. Bauer",
        "col1": "J. Bauer",
        "col2": "Santa Monica, California",
        "col3": "1987-1-1"
    },
    {
        "col0": "J. Bartlet",
        "col1": "J. Bartlett",
        "col2": "Manchester, New Hampshire",
        "col3": "1942-0-0"
    },
    {
        "col0": "J. Clark",
        "col1": "D. Chavez",
        "col2": "Indianapolis",
        "col3": "1944-1-1"
    },
    {
        "col0": "J. Adams",
        "col1": "L. Adams",
        "col2": "Tufnell Park",
        "col3": "1991-10-27"
    },
    {
        "col0": "J. Shephard",
        "col1": "C. Shephard",
        "col2": "Los Angeles",
        "col3": "1969-12-3"
    },
    {
        "col0": "J. Bauer",
        "col1": "G. Bauer",
        "col2": "Santa Monica, California",
        "col3": "1966-2-18"
    },
    {
        "col0": "H. Mills",
        "col1": "Wicked Witch of the West",
        "col2": "Phoenix, Arizona",
        "col3": "2001-0-0"
    },
    {
        "col0": "H. T. Dog",
        "col1": "D. T. Dog",
        "col2": "Wigan",
        "col3": "2005-10-27"
    },
    {
        "col0": "G. V. Pelt",
        "col1": "A. football",
        "col2": "Iowa",
        "col3": "1983-4-4"
    },
    {
        "col0": "Gorgythion",
        "col1": "Antiphus",
        "col2": "Troy",
        "col3": "12"
    },
    {
        "col0": "E. Cullen",
        "col1": "C. Cullen",
        "col2": "Chicago",
        "col3": "1901-0-0"
    },
    {
        "col0": "D. Palmer",
        "col1": "W. Palmer",
        "col2": "Philadelphia",
        "col3": "1953-0-0"
    },
    {
        "col0": "C. Littleton",
        "col1": "C. Shephard",
        "col2": "Sydney",
        "col3": "1982-10-27"
    }
]