[
    {
        "col0": "W. Ancker",
        "col1": "Philadelphia Athletics",
        "col2": "1893-05-10",
        "col3": "1954-02-13"
    },
    {
        "col0": "W. Alston",
        "col1": "St. Louis Cardinals",
        "col2": "1911-12-01",
        "col3": "1984-10-01"
    },
    {
        "col0": "W. Woods",
        "col1": "Chicago Cubs",
        "col2": "1875-04-28",
        "col3": "1951-10-30"
    },
    {
        "col0": "W. Wilmot",
        "col1": "Washington Nationals",
        "col2": "1863-10-18",
        "col3": "1929-02-01"
    },
    {
        "col0": "W. Williams",
        "col1": "Houston Colt .45's",
        "col2": "1943-12-19",
        "col3": "2016-01-23"
    },
    {
        "col0": "W. Whittaker",
        "col1": "Philadelphia Athletics",
        "col2": "1894-06-11",
        "col3": "1965-08-07"
    },
    {
        "col0": "W. Walsh",
        "col1": "Philadelphia Phillies",
        "col2": "1897-04-30",
        "col3": "1966-01-15"
    },
    {
        "col0": "W. Walker",
        "col1": "Detroit Wolverines",
        "col2": "1860-03-12",
        "col3": "1922-02-28"
    },
    {
        "col0": "W. Tragesser",
        "col1": "Boston Braves",
        "col2": "1887-06-14",
        "col3": "1970-12-14"
    },
    {
        "col0": "W. Thomas",
        "col1": "Boston Doves",
        "col2": "1884-04-28",
        "col3": "1950-06-06"
    },
    {
        "col0": "W. Tauscher",
        "col1": "Pittsburgh Pirates",
        "col2": "1901-11-22",
        "col3": "1992-11-27"
    },
    {
        "col0": "W. Smallwood",
        "col1": "New York Yankees",
        "col2": "1893-04-24",
        "col3": "1967-04-29"
    },
    {
        "col0": "W. Slagle",
        "col1": "Cincinnati Reds",
        "col2": "1878-12-15",
        "col3": "1974-06-14"
    },
    {
        "col0": "W. Schulz",
        "col1": "St. Louis Cardinals",
        "col2": "1900-04-16",
        "col3": "1928-02-27"
    },
    {
        "col0": "W. Ripley",
        "col1": "Boston Red Sox",
        "col2": "1916-11-26",
        "col3": "1990-10-07"
    },
    {
        "col0": "W. Preston",
        "col1": "Louisville Colonels",
        "col2": "1868-04-06",
        "col3": "1937-12-23"
    },
    {
        "col0": "W. Moryn",
        "col1": "Brooklyn Dodgers",
        "col2": "1926-04-12",
        "col3": "1996-07-21"
    },
    {
        "col0": "W. Miller",
        "col1": "Brooklyn Dodgers",
        "col2": "1883-10-19",
        "col3": "1956-03-01"
    },
    {
        "col0": "W. Meinert",
        "col1": "St. Louis Browns",
        "col2": "1890-12-11",
        "col3": "1958-11-09"
    },
    {
        "col0": "W. McCredie",
        "col1": "Brooklyn Superbas",
        "col2": "1876-11-09",
        "col3": "1934-07-29"
    },
    {
        "col0": "W. Masterson",
        "col1": "Washington Senators",
        "col2": "1920-06-22",
        "col3": "2008-04-05"
    },
    {
        "col0": "W. Lynch",
        "col1": "Boston Red Sox",
        "col2": "1897-04-15",
        "col3": "1976-12-21"
    },
    {
        "col0": "W. Linden",
        "col1": "Boston Braves",
        "col2": "1924-03-27",
        "col3": "2013-09-20"
    },
    {
        "col0": "W. Leverenz",
        "col1": "St. Louis Browns",
        "col2": "1888-07-21",
        "col3": "1973-03-19"
    },
    {
        "col0": "W. Kuhn",
        "col1": "Chicago White Sox",
        "col2": "1887-02-02",
        "col3": "1935-06-14"
    },
    {
        "col0": "W. Kinzie",
        "col1": "Detroit Wolverines",
        "col2": "1857-03-16",
        "col3": "1909-11-05"
    },
    {
        "col0": "W. Kinney",
        "col1": "Boston Red Sox",
        "col2": "1893-09-09",
        "col3": "1971-07-01"
    },
    {
        "col0": "W. Kellner",
        "col1": "Philadelphia Athletics",
        "col2": "1929-04-26",
        "col3": "2006-06-19"
    },
    {
        "col0": "W. Justis",
        "col1": "Detroit Tigers",
        "col2": "1883-08-17",
        "col3": "1941-10-04"
    },
    {
        "col0": "W. Irwin",
        "col1": "St. Louis Cardinals",
        "col2": "1897-09-23",
        "col3": "1976-08-18"
    },
    {
        "col0": "W. Huntzinger",
        "col1": "New York Giants",
        "col2": "1899-02-06",
        "col3": "1981-08-11"
    },
    {
        "col0": "W. Herrell",
        "col1": "Washington Senators",
        "col2": "1889-02-19",
        "col3": "1949-01-29"
    },
    {
        "col0": "W. Golvin",
        "col1": "Chicago Cubs",
        "col2": "1894-02-01",
        "col3": "1973-06-11"
    },
    {
        "col0": "W. Goldsby",
        "col1": "St. Louis Browns",
        "col2": "1861-12-31",
        "col3": "1914-01-11"
    },
    {
        "col0": "W. Doan",
        "col1": "Cleveland Indians",
        "col2": "1887-03-12",
        "col3": "1935-10-19"
    },
    {
        "col0": "W. Dickson",
        "col1": "New York Giants",
        "col2": "1878-12-03",
        "col3": "1918-12-09"
    },
    {
        "col0": "W. Devoy",
        "col1": "St. Louis Browns",
        "col2": "1885-03-14",
        "col3": "1953-12-17"
    },
    {
        "col0": "W. Craddock",
        "col1": "Kansas City Athletics",
        "col2": "1932-03-25",
        "col3": "1980-07-06"
    },
    {
        "col0": "W. Chipple",
        "col1": "Washington Senators",
        "col2": "1918-09-26",
        "col3": "1988-06-08"
    },
    {
        "col0": "W. Bond",
        "col1": "Cleveland Indians",
        "col2": "1937-10-19",
        "col3": "1967-09-14"
    },
    {
        "col0": "W. Alexander",
        "col1": "St. Louis Browns",
        "col2": "1891-03-05",
        "col3": "1978-12-29"
    },
    {
        "col0": "W. Taylor",
        "col1": "Birmingham Ironmakers",
        "col2": "1864-1-1",
        "col3": "1922-11-10"
    },
    {
        "col0": "W. Snell",
        "col1": "Boston Red Sox",
        "col2": "1889-05-19",
        "col3": "1980-07-23"
    },
    {
        "col0": "W. Smith",
        "col1": "St. Louis Cardinals",
        "col2": "1888-03-13",
        "col3": "1930-06-10"
    },
    {
        "col0": "W. Shannon",
        "col1": "St. Louis Cardinals",
        "col2": "1933-01-23",
        "col3": "1992-02-08"
    },
    {
        "col0": "W. Shaner",
        "col1": "Cleveland Indians",
        "col2": "1900-05-24",
        "col3": "1992-11-13"
    },
    {
        "col0": "W. Schang",
        "col1": "Philadelphia Athletics",
        "col2": "1889-08-22",
        "col3": "1965-03-06"
    },
    {
        "col0": "W. Reinecker",
        "col1": "Baltimore Terrapins",
        "col2": "1890-04-21",
        "col3": "1957-04-18"
    },
    {
        "col0": "W. Post",
        "col1": "Cincinnati Reds",
        "col2": "1929-07-09",
        "col3": "1982-01-06"
    },
    {
        "col0": "W. Pipp",
        "col1": "Detroit Tigers",
        "col2": "1893-02-17",
        "col3": "1965-01-11"
    },
    {
        "col0": "W. Moses",
        "col1": "Philadelphia Athletics",
        "col2": "1910-10-08",
        "col3": "1990-10-10"
    },
    {
        "col0": "W. Millies",
        "col1": "Brooklyn Dodgers",
        "col2": "1906-10-18",
        "col3": "1995-02-28"
    },
    {
        "col0": "W. Mayer",
        "col1": "Chicago White Sox",
        "col2": "1890-07-08",
        "col3": "1951-11-18"
    },
    {
        "col0": "W. Mattick",
        "col1": "Chicago White Sox",
        "col2": "1887-03-12",
        "col3": "1968-11-05"
    },
    {
        "col0": "W. Kopf",
        "col1": "New York Giants",
        "col2": "1899-07-10",
        "col3": "1979-04-30"
    },
    {
        "col0": "W. Judnich",
        "col1": "St. Louis Browns",
        "col2": "1917-01-24",
        "col3": "1971-07-12"
    },
    {
        "col0": "W. Hood",
        "col1": "New York Yankees",
        "col2": "1925-09-24",
        "col3": "2001-06-16"
    },
    {
        "col0": "W. Hood",
        "col1": "Brooklyn Robins",
        "col2": "1895-02-09",
        "col3": "1965-05-02"
    },
    {
        "col0": "W. Holborow",
        "col1": "Washington Senators",
        "col2": "1913-11-30",
        "col3": "1986-07-14"
    },
    {
        "col0": "W. Hebert",
        "col1": "St. Louis Browns",
        "col2": "1907-08-21",
        "col3": "1999-12-08"
    },
    {
        "col0": "W. Goldsmith",
        "col1": "Fort Wayne Kekiongas",
        "col2": "1848-10-1",
        "col3": "1915-09-16"
    },
    {
        "col0": "W. Gilbert",
        "col1": "Brooklyn Robins",
        "col2": "1900-12-19",
        "col3": "1958-09-07"
    },
    {
        "col0": "W. Gerber",
        "col1": "Pittsburgh Pirates",
        "col2": "1891-08-18",
        "col3": "1951-06-19"
    },
    {
        "col0": "W. Dashiell",
        "col1": "Chicago White Sox",
        "col2": "1902-05-09",
        "col3": "1972-05-20"
    },
    {
        "col0": "W. Clement",
        "col1": "Philadelphia Phillies",
        "col2": "1881-07-21",
        "col3": "1953-11-01"
    },
    {
        "col0": "W. Burnette",
        "col1": "Kansas City Athletics",
        "col2": "1929-06-20",
        "col3": "2003-02-12"
    },
    {
        "col0": "W. Berger",
        "col1": "Boston Braves",
        "col2": "1905-10-10",
        "col3": "1988-11-30"
    },
    {
        "col0": "W. Andrews",
        "col1": "Louisville Eclipse",
        "col2": "1859-09-18",
        "col3": "1940-01-20"
    },
    {
        "col0": "W. Cress",
        "col1": "Cincinnati Reds",
        "col2": "1917-03-06",
        "col3": "1996-04-21"
    },
    {
        "col0": "W. Cooper",
        "col1": "St. Louis Cardinals",
        "col2": "1915-01-08",
        "col3": "1991-04-11"
    },
    {
        "col0": "W. Hoyt",
        "col1": "New York Giants",
        "col2": "1899-09-09",
        "col3": "1984-08-25"
    },
    {
        "col0": "W. Lefler",
        "col1": "Boston Braves",
        "col2": "1896-06-05",
        "col3": "1981-03-06"
    },
    {
        "col0": "W. MacPhee",
        "col1": "New York Giants",
        "col2": "1899-12-23",
        "col3": "1980-01-20"
    }
]