[
    {
        "col0": "Presenilin",
        "col1": "P49768",
        "col2": "9508",
        "col3": "5663"
    },
    {
        "col0": "Potassium-dependent sodium-calcium exchanger",
        "col1": "O60721",
        "col2": "10975",
        "col3": "123041"
    },
    {
        "col0": "Polypyrimidine tract-binding protein",
        "col1": "P26599",
        "col2": "17662",
        "col3": "5725"
    },
    {
        "col0": "Podocin",
        "col1": "Q9NP85",
        "col2": "13394",
        "col3": "7827"
    },
    {
        "col0": "Pleckstrin",
        "col1": "P08567",
        "col2": "9070",
        "col3": "5341"
    },
    {
        "col0": "Platelet-derived growth factor receptor",
        "col1": "P09619",
        "col2": "8803",
        "col3": "5156"
    },
    {
        "col0": "Phospholipid scramblase",
        "col1": "A0PG75",
        "col2": "16494",
        "col3": "389158"
    },
    {
        "col0": "Phospholipase B",
        "col1": "Q6P1J6",
        "col2": "30041",
        "col3": "151056"
    },
    {
        "col0": "Phosphoglycerate mutase",
        "col1": "P15259",
        "col2": "8888",
        "col3": "5223"
    },
    {
        "col0": "Phosphogluconate dehydrogenase",
        "col1": "P52209",
        "col2": "8891",
        "col3": "5226"
    },
    {
        "col0": "Phosphodiesterase 3",
        "col1": "Q13370",
        "col2": "8778",
        "col3": "5139"
    },
    {
        "col0": "Peroxisome proliferator-activated receptor",
        "col1": "P37231",
        "col2": "9232",
        "col3": "5465"
    },
    {
        "col0": "Peroxin-7",
        "col1": "O00628",
        "col2": "8860",
        "col3": "5191"
    }
]