[
    {
        "col0": "Jonquil",
        "col1": "17",
        "col2": "91",
        "col3": "96"
    },
    {
        "col0": "Jasmine",
        "col1": "11",
        "col2": "49",
        "col3": "97"
    },
    {
        "col0": "Ivory",
        "col1": "0",
        "col2": "6",
        "col3": "100"
    },
    {
        "col0": "Indigo",
        "col1": "100",
        "col2": "0",
        "col3": "51"
    },
    {
        "col0": "Indian red",
        "col1": "52",
        "col2": "52",
        "col3": "75"
    },
    {
        "col0": "Heliotrope",
        "col1": "55",
        "col2": "0",
        "col3": "100"
    },
    {
        "col0": "Grey",
        "col1": "0",
        "col2": "0",
        "col3": "50"
    },
    {
        "col0": "Goldenrod",
        "col1": "24",
        "col2": "85",
        "col3": "85"
    },
    {
        "col0": "Gold",
        "col1": "16",
        "col2": "100",
        "col3": "100"
    },
    {
        "col0": "Glaucous",
        "col1": "29",
        "col2": "0",
        "col3": "71"
    },
    {
        "col0": "Fulvous",
        "col1": "42",
        "col2": "100",
        "col3": "89"
    },
    {
        "col0": "Forest green",
        "col1": "21",
        "col2": "100",
        "col3": "55"
    },
    {
        "col0": "Flax",
        "col1": "8",
        "col2": "60",
        "col3": "93"
    },
    {
        "col0": "Fire engine red",
        "col1": "89",
        "col2": "80",
        "col3": "81"
    },
    {
        "col0": "Federal Standard 595 camouflage colours",
        "col1": "40",
        "col2": "40",
        "col3": "62"
    },
    {
        "col0": "Fallow",
        "col1": "14",
        "col2": "33",
        "col3": "76"
    },
    {
        "col0": "Electric green",
        "col1": "0",
        "col2": "100",
        "col3": "100"
    },
    {
        "col0": "Electric blue",
        "col1": "2",
        "col2": "0",
        "col3": "100"
    },
    {
        "col0": "Eggshell",
        "col1": "2",
        "col2": "11",
        "col3": "94"
    },
    {
        "col0": "Duke blue",
        "col1": "75",
        "col2": "6",
        "col3": "34"
    },
    {
        "col0": "Desert sand",
        "col1": "15",
        "col2": "26",
        "col3": "93"
    },
    {
        "col0": "Dark purple",
        "col1": "52",
        "col2": "0",
        "col3": "20"
    },
    {
        "col0": "Cyclamen",
        "col1": "55",
        "col2": "34",
        "col3": "96"
    },
    {
        "col0": "Cyan",
        "col1": "0",
        "col2": "0",
        "col3": "100"
    },
    {
        "col0": "Crimson",
        "col1": "100",
        "col2": "100",
        "col3": "86"
    },
    {
        "col0": "Cream",
        "col1": "1",
        "col2": "18",
        "col3": "100"
    },
    {
        "col0": "Coyote brown",
        "col1": "25",
        "col2": "52",
        "col3": "51"
    },
    {
        "col0": "Cornflower blue",
        "col1": "37",
        "col2": "0",
        "col3": "93"
    },
    {
        "col0": "Cordovan",
        "col1": "54",
        "col2": "50",
        "col3": "54"
    },
    {
        "col0": "Coral",
        "col1": "50",
        "col2": "69",
        "col3": "100"
    },
    {
        "col0": "Coquelicot",
        "col1": "78",
        "col2": "100",
        "col3": "100"
    },
    {
        "col0": "Copper",
        "col1": "32",
        "col2": "72",
        "col3": "72"
    },
    {
        "col0": "Columbia blue",
        "col1": "4",
        "col2": "0",
        "col3": "89"
    },
    {
        "col0": "Coffee",
        "col1": "30",
        "col2": "51",
        "col3": "44"
    },
    {
        "col0": "Citron",
        "col1": "0",
        "col2": "82",
        "col3": "66"
    },
    {
        "col0": "Citrine",
        "col1": "8",
        "col2": "96",
        "col3": "89"
    },
    {
        "col0": "Cinereous",
        "col1": "15",
        "col2": "19",
        "col3": "60"
    },
    {
        "col0": "Chocolate",
        "col1": "50",
        "col2": "86",
        "col3": "48"
    },
    {
        "col0": "Chestnut",
        "col1": "54",
        "col2": "64",
        "col3": "58"
    },
    {
        "col0": "Chartreuse",
        "col1": "0",
        "col2": "100",
        "col3": "100"
    },
    {
        "col0": "Champagne",
        "col1": "6",
        "col2": "17",
        "col3": "97"
    },
    {
        "col0": "Cerulean",
        "col1": "26",
        "col2": "0",
        "col3": "65"
    },
    {
        "col0": "Cerise",
        "col1": "95",
        "col2": "46",
        "col3": "87"
    },
    {
        "col0": "Carmine",
        "col1": "75",
        "col2": "42",
        "col3": "59"
    },
    {
        "col0": "Cardinal",
        "col1": "85",
        "col2": "70",
        "col3": "77"
    },
    {
        "col0": "Capri",
        "col1": "25",
        "col2": "0",
        "col3": "100"
    },
    {
        "col0": "Candy apple red",
        "col1": "97",
        "col2": "100",
        "col3": "100"
    },
    {
        "col0": "Camel",
        "col1": "20",
        "col2": "45",
        "col3": "76"
    },
    {
        "col0": "Cadet grey",
        "col1": "29",
        "col2": "24",
        "col3": "69"
    },
    {
        "col0": "Byzantium",
        "col1": "63",
        "col2": "12",
        "col3": "44"
    },
    {
        "col0": "Buff",
        "col1": "8",
        "col2": "46",
        "col3": "94"
    },
    {
        "col0": "Brown",
        "col1": "50",
        "col2": "100",
        "col3": "59"
    },
    {
        "col0": "Bronze",
        "col1": "59",
        "col2": "86",
        "col3": "80"
    },
    {
        "col0": "British racing green",
        "col1": "0",
        "col2": "44",
        "col3": "26"
    },
    {
        "col0": "Bole",
        "col1": "44",
        "col2": "51",
        "col3": "47"
    },
    {
        "col0": "Blue-green",
        "col1": "18",
        "col2": "0",
        "col3": "72"
    },
    {
        "col0": "Blue-gray",
        "col1": "25",
        "col2": "0",
        "col3": "80"
    },
    {
        "col0": "Bleu de France",
        "col1": "39",
        "col2": "0",
        "col3": "91"
    },
    {
        "col0": "Black",
        "col1": "0",
        "col2": "0",
        "col3": "0"
    },
    {
        "col0": "Bistre",
        "col1": "30",
        "col2": "49",
        "col3": "24"
    },
    {
        "col0": "Beige",
        "col1": "0",
        "col2": "10",
        "col3": "96"
    },
    {
        "col0": "Baker-Miller Pink",
        "col1": "43",
        "col2": "31",
        "col3": "100"
    },
    {
        "col0": "Baby blue",
        "col1": "14",
        "col2": "0",
        "col3": "94"
    },
    {
        "col0": "Aqua",
        "col1": "0",
        "col2": "0",
        "col3": "100"
    },
    {
        "col0": "Apricot",
        "col1": "18",
        "col2": "30",
        "col3": "98"
    },
    {
        "col0": "Android green",
        "col1": "0",
        "col2": "71",
        "col3": "78"
    },
    {
        "col0": "Amber",
        "col1": "25",
        "col2": "100",
        "col3": "100"
    },
    {
        "col0": "Amaranth",
        "col1": "35",
        "col2": "22",
        "col3": "95"
    },
    {
        "col0": "Alizarin crimson",
        "col1": "83",
        "col2": "76",
        "col3": "89"
    },
    {
        "col0": "Alice blue",
        "col1": "2",
        "col2": "1",
        "col3": "100"
    },
    {
        "col0": "Acid green",
        "col1": "0",
        "col2": "86",
        "col3": "75"
    }
]