[
    {
        "col0": "Ochre",
        "col1": "0",
        "col2": "20",
        "col3": "83"
    },
    {
        "col0": "Navy blue",
        "col1": "100",
        "col2": "17",
        "col3": "100"
    },
    {
        "col0": "Navajo white",
        "col1": "0",
        "col2": "0",
        "col3": "32"
    },
    {
        "col0": "Naples yellow",
        "col1": "0",
        "col2": "2",
        "col3": "62"
    },
    {
        "col0": "NIVO",
        "col1": "15",
        "col2": "70",
        "col3": "15"
    },
    {
        "col0": "Mustard",
        "col1": "1",
        "col2": "0",
        "col3": "66"
    },
    {
        "col0": "Mikado yellow",
        "col1": "0",
        "col2": "0",
        "col3": "95"
    },
    {
        "col0": "Midnight green",
        "col1": "100",
        "col2": "70",
        "col3": "100"
    },
    {
        "col0": "Midnight blue",
        "col1": "97",
        "col2": "29",
        "col3": "78"
    },
    {
        "col0": "Mauve",
        "col1": "12",
        "col2": "0",
        "col3": "31"
    },
    {
        "col0": "Marigold",
        "col1": "0",
        "col2": "8",
        "col3": "85"
    },
    {
        "col0": "Marian blue",
        "col1": "194",
        "col2": "0",
        "col3": "30"
    },
    {
        "col0": "Marengo",
        "col1": "25",
        "col2": "60",
        "col3": "25"
    },
    {
        "col0": "Maize",
        "col1": "0",
        "col2": "2",
        "col3": "63"
    },
    {
        "col0": "Mahogany",
        "col1": "0",
        "col2": "25",
        "col3": "100"
    },
    {
        "col0": "Magenta",
        "col1": "0",
        "col2": "0",
        "col3": "100"
    },
    {
        "col0": "Liver",
        "col1": "0",
        "col2": "60",
        "col3": "31"
    },
    {
        "col0": "Lion",
        "col1": "0",
        "col2": "24",
        "col3": "45"
    },
    {
        "col0": "Lime",
        "col1": "25",
        "col2": "0",
        "col3": "100"
    },
    {
        "col0": "Lilac",
        "col1": "0",
        "col2": "22",
        "col3": "19"
    },
    {
        "col0": "Lavender",
        "col1": "8",
        "col2": "2",
        "col3": "8"
    },
    {
        "col0": "Lava",
        "col1": "0",
        "col2": "72",
        "col3": "31"
    },
    {
        "col0": "Kobicha",
        "col1": "0",
        "col2": "58",
        "col3": "67"
    },
    {
        "col0": "Jonquil",
        "col1": "0",
        "col2": "4",
        "col3": "91"
    },
    {
        "col0": "Jasmine",
        "col1": "0",
        "col2": "3",
        "col3": "49"
    },
    {
        "col0": "Ivory",
        "col1": "0",
        "col2": "0",
        "col3": "6"
    },
    {
        "col0": "Indigo",
        "col1": "42",
        "col2": "49",
        "col3": "100"
    },
    {
        "col0": "Indian red",
        "col1": "0",
        "col2": "25",
        "col3": "52"
    },
    {
        "col0": "Heliotrope",
        "col1": "13",
        "col2": "0",
        "col3": "55"
    },
    {
        "col0": "Grey",
        "col1": "0",
        "col2": "50",
        "col3": "0"
    },
    {
        "col0": "Goldenrod",
        "col1": "0",
        "col2": "15",
        "col3": "85"
    },
    {
        "col0": "Gold",
        "col1": "0",
        "col2": "0",
        "col3": "100"
    },
    {
        "col0": "Glaucous",
        "col1": "47",
        "col2": "29",
        "col3": "47"
    },
    {
        "col0": "Fulvous",
        "col1": "0",
        "col2": "11",
        "col3": "100"
    },
    {
        "col0": "Forest green",
        "col1": "83",
        "col2": "8",
        "col3": "76"
    },
    {
        "col0": "Flax",
        "col1": "7",
        "col2": "0",
        "col3": "45"
    },
    {
        "col0": "Fire engine red",
        "col1": "0",
        "col2": "19",
        "col3": "89"
    },
    {
        "col0": "Federal Standard 595 camouflage colours",
        "col1": "50",
        "col2": "0",
        "col3": "8"
    },
    {
        "col0": "Fallow",
        "col1": "0",
        "col2": "8",
        "col3": "45"
    },
    {
        "col0": "Electric green",
        "col1": "100",
        "col2": "0",
        "col3": "100"
    },
    {
        "col0": "Electric blue",
        "col1": "51",
        "col2": "0",
        "col3": "51"
    },
    {
        "col0": "Eggshell",
        "col1": "0",
        "col2": "6",
        "col3": "11"
    },
    {
        "col0": "Duke blue",
        "col1": "100",
        "col2": "24",
        "col3": "100"
    },
    {
        "col0": "Desert sand",
        "col1": "0",
        "col2": "7",
        "col3": "26"
    },
    {
        "col0": "Dark purple",
        "col1": "8",
        "col2": "80",
        "col3": "51"
    },
    {
        "col0": "Cyclamen",
        "col1": "0",
        "col2": "4",
        "col3": "54"
    },
    {
        "col0": "Cyan",
        "col1": "100",
        "col2": "0",
        "col3": "100"
    },
    {
        "col0": "Crimson",
        "col1": "0",
        "col2": "40",
        "col3": "91"
    },
    {
        "col0": "Cream",
        "col1": "0",
        "col2": "0",
        "col3": "18"
    },
    {
        "col0": "Coyote brown",
        "col1": "0",
        "col2": "49",
        "col3": "52"
    },
    {
        "col0": "Cornflower blue",
        "col1": "59",
        "col2": "0",
        "col3": "58"
    },
    {
        "col0": "Cordovan",
        "col1": "0",
        "col2": "46",
        "col3": "54"
    },
    {
        "col0": "Coral",
        "col1": "0",
        "col2": "0",
        "col3": "69"
    },
    {
        "col0": "Coquelicot",
        "col1": "0",
        "col2": "0",
        "col3": "100"
    },
    {
        "col0": "Copper",
        "col1": "0",
        "col2": "28",
        "col3": "72"
    },
    {
        "col0": "Columbia blue",
        "col1": "13",
        "col2": "11",
        "col3": "13"
    },
    {
        "col0": "Coffee",
        "col1": "0",
        "col2": "57",
        "col3": "51"
    },
    {
        "col0": "Citron",
        "col1": "6",
        "col2": "34",
        "col3": "82"
    },
    {
        "col0": "Citrine",
        "col1": "0",
        "col2": "11",
        "col3": "96"
    },
    {
        "col0": "Cinereous",
        "col1": "0",
        "col2": "40",
        "col3": "19"
    },
    {
        "col0": "Chocolate",
        "col1": "0",
        "col2": "82",
        "col3": "100"
    },
    {
        "col0": "Chestnut",
        "col1": "0",
        "col2": "42",
        "col3": "64"
    },
    {
        "col0": "Chartreuse",
        "col1": "50",
        "col2": "0",
        "col3": "100"
    },
    {
        "col0": "Champagne",
        "col1": "0",
        "col2": "3",
        "col3": "17"
    },
    {
        "col0": "Cerulean",
        "col1": "100",
        "col2": "35",
        "col3": "100"
    },
    {
        "col0": "Cerise",
        "col1": "7",
        "col2": "0",
        "col3": "78"
    },
    {
        "col0": "Carmine",
        "col1": "0",
        "col2": "1",
        "col3": "100"
    },
    {
        "col0": "Cardinal",
        "col1": "0",
        "col2": "23",
        "col3": "85"
    },
    {
        "col0": "Capri",
        "col1": "100",
        "col2": "0",
        "col3": "100"
    },
    {
        "col0": "Candy apple red",
        "col1": "0",
        "col2": "0",
        "col3": "100"
    },
    {
        "col0": "Camel",
        "col1": "0",
        "col2": "24",
        "col3": "45"
    },
    {
        "col0": "Cadet grey",
        "col1": "46",
        "col2": "0",
        "col3": "18"
    },
    {
        "col0": "Byzantium",
        "col1": "0",
        "col2": "56",
        "col3": "63"
    },
    {
        "col0": "Buff",
        "col1": "0",
        "col2": "6",
        "col3": "46"
    },
    {
        "col0": "Brown",
        "col1": "0",
        "col2": "41",
        "col3": "100"
    },
    {
        "col0": "Bronze",
        "col1": "25",
        "col2": "0",
        "col3": "76"
    },
    {
        "col0": "British racing green",
        "col1": "98",
        "col2": "74",
        "col3": "99"
    }
]