[
    {
        "col0": "C. Jones",
        "col1": "Halifax, Nova Scotia",
        "col2": "1959-12-16",
        "col3": "1959-12-16"
    },
    {
        "col0": "C. Hodgson",
        "col1": "West St. Paul, Manitoba",
        "col2": "1990-06-08",
        "col3": "1990-06-08"
    },
    {
        "col0": "C. Patz",
        "col1": "Geneva",
        "col2": "1987-01-07",
        "col3": "1987-01-07"
    },
    {
        "col0": "C. Pescia",
        "col1": "Switzerland",
        "col2": "1963-11-17",
        "col3": "1963-11-17"
    },
    {
        "col0": "C. Patz",
        "col1": "Geneva",
        "col2": "1987-01-07",
        "col3": "1987-01-07"
    },
    {
        "col0": "C. Hamilton",
        "col1": "Scotland",
        "col2": "1989-01-31",
        "col3": "1989-01-31"
    },
    {
        "col0": "C. Sundgren",
        "col1": "Karlstad",
        "col2": "1989-07-31",
        "col3": "1989-07-31"
    },
    {
        "col0": "C. Urech",
        "col1": "Flims",
        "col2": "1984-01-15",
        "col3": "1984-01-15"
    },
    {
        "col0": "C. Schille",
        "col1": "Regina, Saskatchewan",
        "col2": "1983-02-19",
        "col3": "1983-02-19"
    },
    {
        "col0": "C. Gardner",
        "col1": "Ajax, Ontario",
        "col2": "1985-03-25",
        "col3": "1985-03-25"
    },
    {
        "col0": "C. Yoshida",
        "col1": "Japan",
        "col2": "1991-07-26",
        "col3": "1991-07-26"
    },
    {
        "col0": "C. Carey",
        "col1": "Calgary, Alberta",
        "col2": "1984-09-12",
        "col3": "1984-09-12"
    },
    {
        "col0": "C. Thomas",
        "col1": "Calgary",
        "col2": "1986-04-04",
        "col3": "1986-04-04"
    },
    {
        "col0": "C. Eberle",
        "col1": "Regina, Saskatchewan",
        "col2": "1981-09-17",
        "col3": "1981-09-17"
    },
    {
        "col0": "C. Osborne",
        "col1": "Thurso",
        "col2": "1966-06-17",
        "col3": "1966-06-17"
    },
    {
        "col0": "C. Stevens",
        "col1": "Halifax, Nova Scotia",
        "col2": "1974-06-23",
        "col3": "1974-06-23"
    },
    {
        "col0": "C. Ostlund",
        "col1": "Karlstad",
        "col2": "1988-01-10",
        "col3": "1988-01-10"
    },
    {
        "col0": "C. Auld",
        "col1": "Port Perry",
        "col2": "1971-0-0",
        "col3": "1971-0-0"
    },
    {
        "col0": "C. Scheidegger",
        "col1": "Lethbridge Curling Club",
        "col2": "1988-01-31",
        "col3": "1988-01-31"
    },
    {
        "col0": "C. Rycroft",
        "col1": "Alberta",
        "col2": "1977-08-29",
        "col3": "1977-08-29"
    },
    {
        "col0": "C. Delahunt",
        "col1": "Owen Sound, Ontario",
        "col2": "1981-07-11",
        "col3": "1981-07-11"
    },
    {
        "col0": "C. McRorie",
        "col1": "Calgary Curling Club",
        "col2": "1963-12-06",
        "col3": "1963-12-06"
    },
    {
        "col0": "C. Whitaker",
        "col1": "Saint John, New Brunswick",
        "col2": "1982-6-30",
        "col3": "1982-6-30"
    },
    {
        "col0": "B. Cochrane",
        "col1": "Russell, Ontario",
        "col2": "1957-10-09",
        "col3": "1957-10-09"
    },
    {
        "col0": "B. Webster",
        "col1": "Calgary",
        "col2": "1978-08-02",
        "col3": "1978-08-02"
    },
    {
        "col0": "B. Virtue",
        "col1": "Regina, Saskatchewan",
        "col2": "1986-09-21",
        "col3": "1986-09-21"
    },
    {
        "col0": "B. O'Neill",
        "col1": "Ottawa",
        "col2": "1986-05-06",
        "col3": "1986-05-06"
    },
    {
        "col0": "B. Gallant",
        "col1": "St. John's, Newfoundland and Labrador",
        "col2": "1990-02-18",
        "col3": "1990-02-18"
    },
    {
        "col0": "B. Pierce",
        "col1": "New Westminster, British Columbia",
        "col2": "1969-07-07",
        "col3": "1969-07-07"
    },
    {
        "col0": "B. Laing",
        "col1": "Calgary",
        "col2": "1978-12-10",
        "col3": "1978-12-10"
    },
    {
        "col0": "B. Bottcher",
        "col1": "Edmonton",
        "col2": "1991-12-19",
        "col3": "1991-12-19"
    },
    {
        "col0": "B. Nicholls",
        "col1": "Saint-Romuald, Quebec",
        "col2": "1972-08-09",
        "col3": "1972-08-09"
    },
    {
        "col0": "B. Moskowy",
        "col1": "West St. Paul, Manitoba",
        "col2": "1990-08-14",
        "col3": "1990-08-14"
    },
    {
        "col0": "B. Clark",
        "col1": "Seattle, Washington",
        "col2": "1977-09-12",
        "col3": "1977-09-12"
    },
    {
        "col0": "B. Jacobs",
        "col1": "Sault Ste. Marie, Ontario",
        "col2": "1985-06-11",
        "col3": "1985-06-11"
    },
    {
        "col0": "B. Gushue",
        "col1": "St. John's, Newfoundland and Labrador",
        "col2": "1980-06-16",
        "col3": "1980-06-16"
    },
    {
        "col0": "B. Chorostkowski",
        "col1": "Yellowknife",
        "col2": "1973-09-05",
        "col3": "1973-09-05"
    },
    {
        "col0": "B. Ursel",
        "col1": "Kelowna",
        "col2": "1965-02-12",
        "col3": "1965-02-12"
    },
    {
        "col0": "B. Joyce",
        "col1": "Halifax Regional Municipality",
        "col2": "1983-03-06",
        "col3": "1983-03-06"
    },
    {
        "col0": "B. Morton",
        "col1": "Bemidji Curling Club",
        "col2": "1991-03-17",
        "col3": "1991-03-17"
    },
    {
        "col0": "B. MacDonald",
        "col1": "Edmonton",
        "col2": "1976-04-10",
        "col3": "1976-04-10"
    },
    {
        "col0": "B. Feltscher",
        "col1": "Flims",
        "col2": "1978-10-13",
        "col3": "1978-10-13"
    }
]