[
    {
        "col0": "W. Lees",
        "col1": "1875-12-25",
        "col2": "1875-12-25",
        "col3": "1924-9-10"
    },
    {
        "col0": "W. Lancashire",
        "col1": "1903-10-28",
        "col2": "1903-10-28",
        "col3": "1981-06-07"
    },
    {
        "col0": "W. Keeton",
        "col1": "1905-04-30",
        "col2": "1905-04-30",
        "col3": "1980-10-10"
    },
    {
        "col0": "W. Kavanagh",
        "col1": "1814-3-20",
        "col2": "1814-3-20",
        "col3": "1836-6-19"
    },
    {
        "col0": "W. Jessop",
        "col1": "1899-03-22",
        "col2": "1899-03-22",
        "col3": "1960-12-25"
    },
    {
        "col0": "W. Jamieson",
        "col1": "1828-07-21",
        "col2": "1828-07-21",
        "col3": "1881-12-28"
    },
    {
        "col0": "W. Ingleton",
        "col1": "1867-02-16",
        "col2": "1867-02-16",
        "col3": "1923-01-04"
    },
    {
        "col0": "W. H. senior",
        "col1": "1849-10-28",
        "col2": "1849-10-28",
        "col3": "1924-03-22"
    },
    {
        "col0": "W. H. junior",
        "col1": "1878-06-28",
        "col2": "1878-06-28",
        "col3": "1960-01-01"
    },
    {
        "col0": "W. Heath",
        "col1": "1860-1-20",
        "col2": "1860-1-20",
        "col3": "1937-3-7"
    },
    {
        "col0": "W. Hearne",
        "col1": "1864-01-15",
        "col2": "1864-01-15",
        "col3": "1925-04-02"
    },
    {
        "col0": "W. Harvie",
        "col1": "1891-06-18",
        "col2": "1891-06-18",
        "col3": "1969-05-24"
    },
    {
        "col0": "W. Hardcastle",
        "col1": "1843-2-10",
        "col2": "1843-2-10",
        "col3": "1901-4-27"
    },
    {
        "col0": "W. Hall",
        "col1": "1861-11-27",
        "col2": "1861-11-27",
        "col3": "1924-11-19"
    },
    {
        "col0": "W. Hale",
        "col1": "1870-03-06",
        "col2": "1870-03-06",
        "col3": "1956-08-12"
    },
    {
        "col0": "W. Haggas",
        "col1": "1881-4-1",
        "col2": "1881-4-1",
        "col3": "1959-11-14"
    },
    {
        "col0": "W. Hadow",
        "col1": "1849-9-25",
        "col2": "1849-9-25",
        "col3": "1898-9-15"
    },
    {
        "col0": "W. Hadlee",
        "col1": "1915-6-4",
        "col2": "1915-6-4",
        "col3": "2006-9-29"
    },
    {
        "col0": "W. Grimston",
        "col1": "1844-5-16",
        "col2": "1844-5-16",
        "col3": "1932-7-28"
    },
    {
        "col0": "W. Greenhill",
        "col1": "1849-06-19",
        "col2": "1849-06-19",
        "col3": "1913-06-26"
    },
    {
        "col0": "W. Gilbert",
        "col1": "1853-09-16",
        "col2": "1853-09-16",
        "col3": "1924-07-26"
    },
    {
        "col0": "W. Giffen",
        "col1": "1861-9-20",
        "col2": "1861-9-20",
        "col3": "1949-6-28"
    },
    {
        "col0": "W. George",
        "col1": "1847-09-20",
        "col2": "1847-09-20",
        "col3": "1938-11-02"
    },
    {
        "col0": "W. Garwood",
        "col1": "1849-04-30",
        "col2": "1849-04-30",
        "col3": "1885-04-10"
    },
    {
        "col0": "W. Fullwood",
        "col1": "1907-02-08",
        "col2": "1907-02-08",
        "col3": "1988-01-04"
    },
    {
        "col0": "W. Franklin",
        "col1": "1891-08-16",
        "col2": "1891-08-16",
        "col3": "1968-03-05"
    },
    {
        "col0": "W. Fielder",
        "col1": "1899-1-1",
        "col2": "1899-1-1",
        "col3": "1968-1-1"
    },
    {
        "col0": "W. Feltham",
        "col1": "1864-04-23",
        "col2": "1864-04-23",
        "col3": "1904-09-23"
    },
    {
        "col0": "W. Fellows",
        "col1": "1834-2-23",
        "col2": "1834-2-23",
        "col3": "1901-7-23"
    },
    {
        "col0": "W. Fawcett",
        "col1": "1929-08-06",
        "col2": "1929-08-06",
        "col3": "2015-12-10"
    },
    {
        "col0": "W. Fairbanks",
        "col1": "1852-04-13",
        "col2": "1852-04-13",
        "col3": "1924-08-25"
    },
    {
        "col0": "W. Dudley",
        "col1": "1918-05-29",
        "col2": "1918-05-29",
        "col3": "1978-04-05"
    },
    {
        "col0": "W. Driver",
        "col1": "1922-09-25",
        "col2": "1922-09-25",
        "col3": "1994-01-11"
    },
    {
        "col0": "W. Delves",
        "col1": "1891-02-17",
        "col2": "1891-02-17",
        "col3": "1955-05-27"
    },
    {
        "col0": "W. Christopherson",
        "col1": "1898-5-27",
        "col2": "1898-5-27",
        "col3": "1979-7-14"
    },
    {
        "col0": "W. Butterfield",
        "col1": "1870-08-06",
        "col2": "1870-08-06",
        "col3": "1954-07-19"
    },
    {
        "col0": "W. Buswell",
        "col1": "1875-1-12",
        "col2": "1875-1-12",
        "col3": "1950-0-0"
    },
    {
        "col0": "W. Brown",
        "col1": "1868-7-31",
        "col2": "1868-7-31",
        "col3": "1954-8-13"
    },
    {
        "col0": "W. Brearley",
        "col1": "1876-1-1",
        "col2": "1876-1-1",
        "col3": "1937-1-1"
    },
    {
        "col0": "W. Bradshaw",
        "col1": "1906-08-02",
        "col2": "1906-08-02",
        "col3": "1989-10-30"
    },
    {
        "col0": "W. Bradshaw",
        "col1": "1909-01-22",
        "col2": "1909-01-22",
        "col3": "1986-07-13"
    },
    {
        "col0": "W. Boden",
        "col1": "1837-08-06",
        "col2": "1837-08-06",
        "col3": "1905-09-16"
    },
    {
        "col0": "W. Bird",
        "col1": "1845-07-22",
        "col2": "1845-07-22",
        "col3": "1921-07-27"
    },
    {
        "col0": "W. Beisiegel",
        "col1": "1907-07-13",
        "col2": "1907-07-13",
        "col3": "1973-01-08"
    },
    {
        "col0": "W. Bedford",
        "col1": "1879-2-24",
        "col2": "1879-2-24",
        "col3": "1939-7-28"
    },
    {
        "col0": "W. Bearblock",
        "col1": "1796-10-20",
        "col2": "1796-10-20",
        "col3": "1857-2-1"
    },
    {
        "col0": "W. Attewell",
        "col1": "1865-01-29",
        "col2": "1865-01-29",
        "col3": "1919-02-03"
    },
    {
        "col0": "W. Anstead",
        "col1": "1845-02-26",
        "col2": "1845-02-26",
        "col3": "1933-05-14"
    },
    {
        "col0": "W. Andrews",
        "col1": "1865-04-17",
        "col2": "1865-04-17",
        "col3": "1908-11-26"
    },
    {
        "col0": "W. Luckes",
        "col1": "1901-01-01",
        "col2": "1901-01-01",
        "col3": "1982-10-27"
    },
    {
        "col0": "W. Hardinge",
        "col1": "1886-02-25",
        "col2": "1886-02-25",
        "col3": "1965-05-08"
    },
    {
        "col0": "W. Hammond",
        "col1": "1903-06-19",
        "col2": "1903-06-19",
        "col3": "1965-07-01"
    },
    {
        "col0": "W. Grout",
        "col1": "1927-03-30",
        "col2": "1927-03-30",
        "col3": "1968-11-09"
    },
    {
        "col0": "W. Mathias",
        "col1": "1935-2-4",
        "col2": "1935-2-4",
        "col3": "1994-9-1"
    },
    {
        "col0": "W. Evershed",
        "col1": "1863-05-10",
        "col2": "1863-05-10",
        "col3": "1911-05-08"
    },
    {
        "col0": "W. Bower",
        "col1": "1895-1-2",
        "col2": "1895-1-2",
        "col3": "1971-2-10"
    },
    {
        "col0": "W. Ellis",
        "col1": "1895-1-27",
        "col2": "1895-1-27",
        "col3": "1974-11-25"
    },
    {
        "col0": "W. Walmsley",
        "col1": "1916-03-16",
        "col2": "1916-03-16",
        "col3": "1978-02-25"
    },
    {
        "col0": "W. G. Grace Jr.",
        "col1": "1874-07-06",
        "col2": "1874-07-06",
        "col3": "1905-03-02"
    },
    {
        "col0": "W. Clement",
        "col1": "1820-0-0",
        "col2": "1820-0-0",
        "col3": "1864-1-0"
    },
    {
        "col0": "V. Robinson",
        "col1": "1897-05-16",
        "col2": "1897-05-16",
        "col3": "1979-02-28"
    },
    {
        "col0": "V. Metcalfe",
        "col1": "1906-03-05",
        "col2": "1906-03-05",
        "col3": "1967-12-28"
    },
    {
        "col0": "V. Majendie",
        "col1": "1886-4-20",
        "col2": "1886-4-20",
        "col3": "1960-1-13"
    },
    {
        "col0": "V. Kavanagh",
        "col1": "1882-06-02",
        "col2": "1882-06-02",
        "col3": "1917-08-09"
    },
    {
        "col0": "V. Crawford",
        "col1": "1879-04-11",
        "col2": "1879-04-11",
        "col3": "1922-08-21"
    },
    {
        "col0": "V. Agarwal",
        "col1": "1962-1-3",
        "col2": "1962-1-3",
        "col3": "1993-4-26"
    },
    {
        "col0": "V. Patil",
        "col1": "1927-06-30",
        "col2": "1927-06-30",
        "col3": "2014-06-10"
    },
    {
        "col0": "V. Thool",
        "col1": "1946-07-01",
        "col2": "1946-07-01",
        "col3": "2014-04-24"
    },
    {
        "col0": "V. Bondre",
        "col1": "1936-11-25",
        "col2": "1936-11-25",
        "col3": "2014-01-08"
    },
    {
        "col0": "V. Yorke",
        "col1": "1869-5-21",
        "col2": "1869-5-21",
        "col3": "1957-11-27"
    },
    {
        "col0": "V. Valentine",
        "col1": "1908-4-4",
        "col2": "1908-4-4",
        "col3": "1972-0-0"
    },
    {
        "col0": "V. Trapp",
        "col1": "1861-01-26",
        "col2": "1861-01-26",
        "col3": "1929-10-21"
    },
    {
        "col0": "V. Price",
        "col1": "1895-5-22",
        "col2": "1895-5-22",
        "col3": "1973-5-29"
    },
    {
        "col0": "V. Mayers",
        "col1": "1934-03-19",
        "col2": "1934-03-19",
        "col3": "2013-12-05"
    },
    {
        "col0": "V. Giblin",
        "col1": "1817-11-13",
        "col2": "1817-11-13",
        "col3": "1884-05-15"
    },
    {
        "col0": "V. Costello",
        "col1": "1906-02-24",
        "col2": "1906-02-24",
        "col3": "1979-04-22"
    },
    {
        "col0": "V. Broderick",
        "col1": "1920-08-17",
        "col2": "1920-08-17",
        "col3": "2010-11-14"
    },
    {
        "col0": "V. Evans",
        "col1": "1935-02-19",
        "col2": "1935-02-19",
        "col3": "2013-08-14"
    },
    {
        "col0": "V. Smith",
        "col1": "1821-9-30",
        "col2": "1821-9-30",
        "col3": "1871-2-1"
    },
    {
        "col0": "V. Telang",
        "col1": "1952-3-13",
        "col2": "1952-3-13",
        "col3": "2013-6-18"
    }
]