[
    {
        "col0": "Zinc metalloproteinase STE24",
        "col1": "O75844",
        "col2": "12877",
        "col3": "10269"
    },
    {
        "col0": "ZMPSTE24",
        "col1": "O75844",
        "col2": "12877",
        "col3": "10269"
    },
    {
        "col0": "XK",
        "col1": "P51811",
        "col2": "12811",
        "col3": "7504"
    },
    {
        "col0": "Wee1",
        "col1": "P07527",
        "col2": "12761",
        "col3": "2539123"
    },
    {
        "col0": "WNT6",
        "col1": "Q9Y6F9",
        "col2": "12785",
        "col3": "7475"
    },
    {
        "col0": "WDTC1",
        "col1": "Q8N5D0",
        "col2": "29175",
        "col3": "23038"
    },
    {
        "col0": "Von Hippel-Lindau binding protein 1",
        "col1": "P61758",
        "col2": "12662",
        "col3": "7411"
    },
    {
        "col0": "Villin",
        "col1": "P09327",
        "col2": "12690",
        "col3": "7429"
    },
    {
        "col0": "Vasopressin receptor",
        "col1": "P30518",
        "col2": "895",
        "col3": "552"
    },
    {
        "col0": "Vasoactive intestinal peptide receptor",
        "col1": "P32241",
        "col2": "12694",
        "col3": "117"
    },
    {
        "col0": "VEGF receptor",
        "col1": "P17948",
        "col2": "3763",
        "col3": "2321"
    },
    {
        "col0": "VAMP5",
        "col1": "O95183",
        "col2": "12646",
        "col3": "10791"
    },
    {
        "col0": "Uracil phosphoribosyltransferase",
        "col1": "Q96BW1",
        "col2": "28334",
        "col3": "139596"
    },
    {
        "col0": "USP26",
        "col1": "Q9BXU7",
        "col2": "13485",
        "col3": "83844"
    },
    {
        "col0": "ULK2",
        "col1": "Q8IYT8",
        "col2": "13480",
        "col3": "9706"
    },
    {
        "col0": "Type XVIII collagen",
        "col1": "P39060",
        "col2": "2195",
        "col3": "80781"
    },
    {
        "col0": "Type I collagen",
        "col1": "P02452",
        "col2": "2197",
        "col3": "1277"
    },
    {
        "col0": "Type II collagen",
        "col1": "P02458",
        "col2": "2200",
        "col3": "1280"
    },
    {
        "col0": "Two-pore channel",
        "col1": "Q8NHX9",
        "col2": "18182",
        "col3": "219931"
    },
    {
        "col0": "Tuberous sclerosis protein",
        "col1": "P49815",
        "col2": "12362",
        "col3": "7248"
    },
    {
        "col0": "Transporter associated with antigen processing",
        "col1": "Q03518",
        "col2": "43",
        "col3": "6890"
    },
    {
        "col0": "Transmembrane Protein 175",
        "col1": "Q9BSA9",
        "col2": "28709",
        "col3": "84286"
    },
    {
        "col0": "Translocated promoter region",
        "col1": "P12270",
        "col2": "12017",
        "col3": "7175"
    },
    {
        "col0": "Transferrin receptor",
        "col1": "P02786",
        "col2": "11762",
        "col3": "7036"
    },
    {
        "col0": "Transcription factor II H",
        "col1": "P32780",
        "col2": "4655",
        "col3": "2965"
    },
    {
        "col0": "Transcription factor II F",
        "col1": "P13984",
        "col2": "4652",
        "col3": "2962"
    },
    {
        "col0": "Transcription factor II E",
        "col1": "P29083",
        "col2": "4650",
        "col3": "2960"
    },
    {
        "col0": "Transcription factor II A",
        "col1": "P52655",
        "col2": "4646",
        "col3": "2957"
    },
    {
        "col0": "Transcobalamin",
        "col1": "P20061",
        "col2": "11652",
        "col3": "6947"
    },
    {
        "col0": "Timeless",
        "col1": "Q9UNS1",
        "col2": "11813",
        "col3": "8914"
    },
    {
        "col0": "Thyroid hormone receptor",
        "col1": "P10827",
        "col2": "11796",
        "col3": "7067"
    },
    {
        "col0": "Thyroid-stimulating hormone",
        "col1": "P01215",
        "col2": "12372",
        "col3": "1081"
    },
    {
        "col0": "Testicular receptor",
        "col1": "P13056",
        "col2": "7971",
        "col3": "7181"
    },
    {
        "col0": "Telokin",
        "col1": "Q5MYA0",
        "col2": "7590",
        "col3": "4638"
    },
    {
        "col0": "Talin protein",
        "col1": "Q9Y490",
        "col2": "11845",
        "col3": "7094"
    },
    {
        "col0": "Tachykinin receptor",
        "col1": "P21452",
        "col2": "11526",
        "col3": "6865"
    },
    {
        "col0": "TRPA",
        "col1": "O75762",
        "col2": "497",
        "col3": "8989"
    },
    {
        "col0": "TRIM50",
        "col1": "Q86XT4",
        "col2": "19017",
        "col3": "135892"
    },
    {
        "col0": "TRIF",
        "col1": "Q8IUC6",
        "col2": "18348",
        "col3": "148022"
    },
    {
        "col0": "TOX3",
        "col1": "O15405",
        "col2": "11972",
        "col3": "27324"
    },
    {
        "col0": "TOX2",
        "col1": "Q96NM4",
        "col2": "16095",
        "col3": "84969"
    },
    {
        "col0": "TIE1",
        "col1": "P35590",
        "col2": "11809",
        "col3": "7075"
    },
    {
        "col0": "TIA1",
        "col1": "P31483",
        "col2": "11802",
        "col3": "7072"
    },
    {
        "col0": "TGM5",
        "col1": "O43548",
        "col2": "11781",
        "col3": "9333"
    },
    {
        "col0": "TGF beta receptor",
        "col1": "P36897",
        "col2": "11772",
        "col3": "7046"
    },
    {
        "col0": "TFAP2E",
        "col1": "Q6VUC0",
        "col2": "30774",
        "col3": "339488"
    },
    {
        "col0": "TFAP2D",
        "col1": "Q7Z6R9",
        "col2": "15581",
        "col3": "83741"
    },
    {
        "col0": "T-type calcium channel",
        "col1": "O43497",
        "col2": "1394",
        "col3": "8911"
    },
    {
        "col0": "Synaptojanin",
        "col1": "O15056",
        "col2": "11503",
        "col3": "8867"
    },
    {
        "col0": "Surfactant protein C",
        "col1": "P11686",
        "col2": "10802",
        "col3": "6440"
    },
    {
        "col0": "Surfactant protein A",
        "col1": "Q8IWL1",
        "col2": "10798",
        "col3": "6435"
    },
    {
        "col0": "Sulfonylurea receptor",
        "col1": "O60706",
        "col2": "59",
        "col3": "10060"
    },
    {
        "col0": "Sucrase-isomaltase",
        "col1": "P14410",
        "col2": "10856",
        "col3": "6476"
    },
    {
        "col0": "Sterolin",
        "col1": "Q9H221",
        "col2": "13886",
        "col3": "64240"
    },
    {
        "col0": "Sterol regulatory element-binding protein",
        "col1": "P36956",
        "col2": "11289",
        "col3": "6720"
    },
    {
        "col0": "Steroidogenic acute regulatory protein",
        "col1": "P49675",
        "col2": "11359",
        "col3": "6770"
    },
    {
        "col0": "Spermidine synthase",
        "col1": "P19623",
        "col2": "11296",
        "col3": "6723"
    },
    {
        "col0": "Sp100 nuclear antigen",
        "col1": "P23497",
        "col2": "11206",
        "col3": "6672"
    },
    {
        "col0": "Sorbitol dehydrogenase",
        "col1": "Q00796",
        "col2": "11184",
        "col3": "6652"
    },
    {
        "col0": "Son of Sevenless",
        "col1": "Q07889",
        "col2": "11187",
        "col3": "6654"
    },
    {
        "col0": "Somatostatin receptor",
        "col1": "P30872",
        "col2": "11330",
        "col3": "6751"
    },
    {
        "col0": "Sodium-glucose transport proteins",
        "col1": "P13866",
        "col2": "11036",
        "col3": "6523"
    },
    {
        "col0": "Sodium-calcium exchanger",
        "col1": "P32418",
        "col2": "11068",
        "col3": "6543"
    },
    {
        "col0": "Slit",
        "col1": "O75093",
        "col2": "11085",
        "col3": "6585"
    },
    {
        "col0": "Signal recognition particle",
        "col1": "O76094",
        "col2": "11299",
        "col3": "6726"
    },
    {
        "col0": "Sialoadhesin",
        "col1": "Q9BZZ2",
        "col2": "11127",
        "col3": "6614"
    },
    {
        "col0": "Shaker gene",
        "col1": "P22001",
        "col2": "6221",
        "col3": "3738"
    },
    {
        "col0": "Serum amyloid A",
        "col1": "P02735",
        "col2": "10513",
        "col3": "6288"
    },
    {
        "col0": "Serine dehydratase",
        "col1": "P20132",
        "col2": "10691",
        "col3": "10993"
    },
    {
        "col0": "Scleraxis",
        "col1": "Q7RTU7",
        "col2": "24312",
        "col3": "333927"
    },
    {
        "col0": "Saccharopine dehydrogenase",
        "col1": "Q8NBX0",
        "col2": "24275",
        "col3": "51097"
    },
    {
        "col0": "SURF2",
        "col1": "Q15527",
        "col2": "11475",
        "col3": "6835"
    },
    {
        "col0": "STRA6",
        "col1": "Q7Z3U9",
        "col2": "30650",
        "col3": "64220"
    },
    {
        "col0": "STAT5",
        "col1": "P42229",
        "col2": "11366",
        "col3": "6776"
    },
    {
        "col0": "STARD3",
        "col1": "Q14849",
        "col2": "17579",
        "col3": "10948"
    },
    {
        "col0": "ST2 cardiac biomarker",
        "col1": "Q01638",
        "col2": "5998",
        "col3": "9173"
    },
    {
        "col0": "SREB",
        "col1": "P60893",
        "col2": "18186",
        "col3": "2850"
    },
    {
        "col0": "SNX6",
        "col1": "Q9UNH7",
        "col2": "14970",
        "col3": "58533"
    },
    {
        "col0": "SLC7A9",
        "col1": "P82251",
        "col2": "11067",
        "col3": "11136"
    },
    {
        "col0": "SLC39A4",
        "col1": "Q6P5W5",
        "col2": "17129",
        "col3": "55630"
    },
    {
        "col0": "SKA2",
        "col1": "Q8WVK7",
        "col2": "28006",
        "col3": "348235"
    },
    {
        "col0": "SH3BP2",
        "col1": "P78314",
        "col2": "10825",
        "col3": "6452"
    },
    {
        "col0": "Ryanodine receptor",
        "col1": "P21817",
        "col2": "10483",
        "col3": "6261"
    },
    {
        "col0": "Roundabout",
        "col1": "Q8WZ75",
        "col2": "10249",
        "col3": "54538"
    },
    {
        "col0": "Ribosome Recycling Factor",
        "col1": "Q96E11",
        "col2": "7234",
        "col3": "92399"
    },
    {
        "col0": "Ribosomal protein s6",
        "col1": "P62753",
        "col2": "10429",
        "col3": "6194"
    },
    {
        "col0": "Rhodopsin kinase",
        "col1": "Q15835",
        "col2": "10013",
        "col3": "6011"
    },
    {
        "col0": "RhoBTB",
        "col1": "O94844",
        "col2": "18738",
        "col3": "22836"
    },
    {
        "col0": "Rho-associated protein kinase",
        "col1": "O75116",
        "col2": "10251",
        "col3": "579202"
    },
    {
        "col0": "Rev-ErbA",
        "col1": "P20393",
        "col2": "7962",
        "col3": "9572"
    },
    {
        "col0": "Retinoid X receptor",
        "col1": "P19793",
        "col2": "10477",
        "col3": "6256"
    },
    {
        "col0": "Retinoic acid receptor",
        "col1": "P10276",
        "col2": "9864",
        "col3": "5914"
    },
    {
        "col0": "Retinoic acid-inducible orphan G protein-coupled receptor",
        "col1": "Q8NFJ5",
        "col2": "13308",
        "col3": "51704"
    },
    {
        "col0": "Repulsive guidance molecule",
        "col1": "Q6NW40",
        "col2": "26896",
        "col3": "148738"
    },
    {
        "col0": "Relaxin receptor",
        "col1": "Q8TDU9",
        "col2": "14666",
        "col3": "122042"
    },
    {
        "col0": "Relaxin family peptide hormones",
        "col1": "P04090",
        "col2": "10026",
        "col3": "117579"
    },
    {
        "col0": "Relaxin",
        "col1": "P04090",
        "col2": "10026",
        "col3": "117579"
    },
    {
        "col0": "Recombination-activating gene",
        "col1": "P15918",
        "col2": "9831",
        "col3": "5896"
    },
    {
        "col0": "Receptor tyrosine kinase-like orphan receptor",
        "col1": "Q01973",
        "col2": "10256",
        "col3": "4919"
    },
    {
        "col0": "Receptor activity-modifying protein",
        "col1": "O60894",
        "col2": "9843",
        "col3": "10266"
    },
    {
        "col0": "RecQ helicase",
        "col1": "O94761",
        "col2": "1058",
        "col3": "641"
    },
    {
        "col0": "Ras-GRF1",
        "col1": "Q13972",
        "col2": "9875",
        "col3": "5923"
    },
    {
        "col0": "Rap GTP-binding protein",
        "col1": "P61224",
        "col2": "9855",
        "col3": "5906"
    },
    {
        "col0": "Rap1",
        "col1": "P61224",
        "col2": "9855",
        "col3": "5906"
    },
    {
        "col0": "Rac3",
        "col1": "P60763",
        "col2": "9803",
        "col3": "5881"
    },
    {
        "col0": "Rab geranylgeranyltransferase",
        "col1": "P53611",
        "col2": "9795",
        "col3": "5875"
    },
    {
        "col0": "RVD-HpI+-",
        "col1": "P69905",
        "col2": "4823",
        "col3": "3039"
    },
    {
        "col0": "RPGRIP1L",
        "col1": "Q68CZ1",
        "col2": "29168",
        "col3": "23322"
    },
    {
        "col0": "RAR-related orphan receptor",
        "col1": "P35398",
        "col2": "10258",
        "col3": "6095"
    },
    {
        "col0": "RAI1",
        "col1": "Q7Z5J4",
        "col2": "9834",
        "col3": "10743"
    },
    {
        "col0": "RAB27",
        "col1": "O00194",
        "col2": "9766",
        "col3": "5873"
    },
    {
        "col0": "Q-type calcium channel",
        "col1": "O00555",
        "col2": "1388",
        "col3": "773"
    },
    {
        "col0": "Pyrophosphomevalonate decarboxylase",
        "col1": "P53602",
        "col2": "7529",
        "col3": "4597"
    },
    {
        "col0": "Protein phosphatase 2",
        "col1": "P62714",
        "col2": "9299",
        "col3": "5515"
    },
    {
        "col0": "Protein phosphatase 1",
        "col1": "P36873",
        "col2": "9281",
        "col3": "5499"
    },
    {
        "col0": "Protein Z-related protease inhibitor",
        "col1": "Q9UK55",
        "col2": "15996",
        "col3": "51156"
    },
    {
        "col0": "Protease-activated receptor",
        "col1": "O00254",
        "col2": "3537",
        "col3": "2149"
    },
    {
        "col0": "Protamine",
        "col1": "P04553",
        "col2": "9447",
        "col3": "5619"
    },
    {
        "col0": "Prokineticin receptor",
        "col1": "Q8NFJ6",
        "col2": "15836",
        "col3": "10887"
    },
    {
        "col0": "Prokineticin",
        "col1": "P58294",
        "col2": "18454",
        "col3": "60675"
    },
    {
        "col0": "Procollagen peptidase",
        "col1": "Q9HD42",
        "col2": "8740",
        "col3": "5119"
    }
]