[
    {
        "col0": "Under and Over It",
        "col1": "I. L. Moody",
        "col2": "Kevin Churko",
        "col3": "Five Finger Death Punch",
        "col4": "Back for More"
    },
    {
        "col0": "Under a Raging Moon",
        "col1": "J. Parr",
        "col2": "Alan Shacklock",
        "col3": "Roger Daltrey",
        "col4": "The Pride You Hide"
    },
    {
        "col0": "Under Siege",
        "col1": "A. Kisser",
        "col2": "Scott Burns",
        "col3": "Sepultura",
        "col4": "Refuse/Resist"
    },
    {
        "col0": "Under Pressure",
        "col1": "R. Taylor",
        "col2": "Howard Benson",
        "col3": "Queen",
        "col4": "We Will Rock You"
    },
    {
        "col0": "Under My Skin",
        "col1": "L. Secon",
        "col2": "Remee",
        "col3": "Sarah Connor",
        "col4": "I'll Kiss It Away"
    },
    {
        "col0": "Under Cover of Darkness",
        "col1": "T. Strokes",
        "col2": "The Strokes",
        "col3": "The Strokes",
        "col4": "Taken for a Fool"
    },
    {
        "col0": "Under Control",
        "col1": "C. Harris",
        "col2": "Calvin Harris",
        "col3": "Calvin Harris",
        "col4": "Summer"
    },
    {
        "col0": "Under Attack",
        "col1": "B. Andersson",
        "col2": "Benny Andersson",
        "col3": "ABBA",
        "col4": "Thank You for the Music"
    },
    {
        "col0": "Under Any Moon",
        "col1": "D. Warren",
        "col2": "Don Powell",
        "col3": "The Jets",
        "col4": "Somebody to Love Me"
    },
    {
        "col0": "Under African Skies",
        "col1": "P. Simon",
        "col2": "Paul Simon",
        "col3": "Linda Ronstadt",
        "col4": "The Obvious Child"
    },
    {
        "col0": "Undefeated",
        "col1": "J. Derulo",
        "col2": "DJ Frank E",
        "col3": "Jason Derulo",
        "col4": "Pick Up the Pieces"
    },
    {
        "col0": "Undead",
        "col1": "O. Osbourne",
        "col2": "Danny Lohner",
        "col3": "Hollywood Undead",
        "col4": "Young"
    },
    {
        "col0": "Unconditional Love",
        "col1": "T. Shakur",
        "col2": "Johnny \"J\"",
        "col3": "Tupac Shakur",
        "col4": "Baby Don't Cry"
    },
    {
        "col0": "Unconditional Love",
        "col1": "L. J. Grace",
        "col2": "Against Me!",
        "col3": "Against Me!",
        "col4": "Osama bin Laden as the Crucified Christ"
    },
    {
        "col0": "Unconditional",
        "col1": "S. Endicott",
        "col2": "Sam Endicott",
        "col3": "The Bravery",
        "col4": "Time Won't Let Me Go"
    },
    {
        "col0": "Uncommitted",
        "col1": "Junsu",
        "col2": "Junsu",
        "col3": "Junsu",
        "col4": "Thank U For"
    },
    {
        "col0": "Uncle Walter",
        "col1": "B. Folds",
        "col2": "Caleb Southern",
        "col3": "Ben Folds Five",
        "col4": "Battle of Who Could Care Less"
    },
    {
        "col0": "Uncle Pen",
        "col1": "B. Monroe",
        "col2": "Ricky Skaggs",
        "col3": "Ricky Skaggs",
        "col4": "Something in My Heart"
    },
    {
        "col0": "Uncle John from Jamaica",
        "col1": "W. v. Diepen",
        "col2": "Vengaboys",
        "col3": "Vengaboys",
        "col4": "Cheekah Bow Wow"
    },
    {
        "col0": "Uncle Albert/Admiral Halsey",
        "col1": "L. McCartney",
        "col2": "Linda McCartney",
        "col3": "Linda McCartney",
        "col4": "The Back Seat of My Car"
    },
    {
        "col0": "Unchained Melody",
        "col1": "A. North",
        "col2": "Mike Stock",
        "col3": "Elvis Presley",
        "col4": "Ebb Tide"
    },
    {
        "col0": "Unbroken",
        "col1": "H. Lamar",
        "col2": "James Stroud",
        "col3": "Tim McGraw",
        "col4": "Red Rag Top"
    },
    {
        "col0": "Unbroken",
        "col1": "R. Tedder",
        "col2": "Ryan Tedder",
        "col3": "Stan Walker",
        "col4": "Stand Up"
    },
    {
        "col0": "Unbreakable",
        "col1": "J. Elofsson",
        "col2": "Steve Mac",
        "col3": "Westlife",
        "col4": "Tonight/Miss You Nights"
    },
    {
        "col0": "Unbreakable",
        "col1": "Jimmy Jam and Terry Lewis",
        "col2": "Jimmy Jam and Terry Lewis",
        "col3": "Janet Jackson",
        "col4": "Dammn Baby"
    },
    {
        "col0": "Unbreakable",
        "col1": "D. Hume",
        "col2": "Jon Hume",
        "col3": "Evermore",
        "col4": "Never Let You Go"
    },
    {
        "col0": "Unbelievers",
        "col1": "E. Koenig",
        "col2": "Ariel Rechtshaid",
        "col3": "Vampire Weekend",
        "col4": "Step"
    },
    {
        "col0": "Unbelievable",
        "col1": "EMF",
        "col2": "Ralph Jezzard",
        "col3": "EMF",
        "col4": "I Believe"
    },
    {
        "col0": "Unbelievable",
        "col1": "A. Anderson",
        "col2": "Diamond Rio",
        "col3": "Diamond Rio",
        "col4": "I Know How the River Feels"
    },
    {
        "col0": "Unbelievable",
        "col1": "C. David",
        "col2": "Mark Taylor",
        "col3": "Craig David",
        "col4": "This Is the Girl"
    },
    {
        "col0": "Unbelievable",
        "col1": "J. Gracin",
        "col2": "Brett James",
        "col3": "Josh Gracin",
        "col4": "Telluride"
    },
    {
        "col0": "Unashamed Desire",
        "col1": "M. Higgins",
        "col2": "Butterfly Boucher",
        "col3": "Missy Higgins",
        "col4": "Everyone's Waiting"
    },
    {
        "col0": "Unapologetic Bitch",
        "col1": "T. Gad",
        "col2": "Madonna",
        "col3": "Madonna",
        "col4": "Illuminati"
    },
    {
        "col0": "Unanswered Prayers",
        "col1": "G. Brooks",
        "col2": "Allen Reynolds",
        "col3": "Garth Brooks",
        "col4": "Two of a Kind, Workin' on a Full House"
    },
    {
        "col0": "Una storia che vale",
        "col1": "L. Pausini",
        "col2": "Laura Pausini",
        "col3": "Laura Pausini",
        "col4": "La solitudine"
    },
    {
        "col0": "Un geste d'amour",
        "col1": "E. Benzi",
        "col2": "Erick Benzi",
        "col3": "Anggun",
        "col4": "Still Reminds Me"
    },
    {
        "col0": "Un Momento",
        "col1": "J. Magan",
        "col2": "Juan Magan",
        "col3": "Inna",
        "col4": "Endless"
    },
    {
        "col0": "Un Beso",
        "col1": "A. Santos",
        "col2": "Anthony Santos",
        "col3": "Aventura",
        "col4": "Los Infieles"
    },
    {
        "col0": "Un-Thinkable",
        "col1": "Drake",
        "col2": "Noah \"40\" Shebib",
        "col3": "Alicia Keys",
        "col4": "Wait Til You See My Smile"
    },
    {
        "col0": "Un-Break My Heart",
        "col1": "D. Warren",
        "col2": "David Foster",
        "col3": "Toni Braxton",
        "col4": "I Don't Want To"
    },
    {
        "col0": "Un'emozione per sempre",
        "col1": "E. Ramazzotti",
        "col2": "Eros Ramazzotti",
        "col3": "Eros Ramazzotti",
        "col4": "Un attimo di pace"
    },
    {
        "col0": "Umma Do Me",
        "col1": "Rocko",
        "col2": "Drumma Boy",
        "col3": "Rocko",
        "col4": "U.O.E.N.O."
    },
    {
        "col0": "Ulysses",
        "col1": "F. Ferdinand",
        "col2": "Dan Carey",
        "col3": "Franz Ferdinand",
        "col4": "No You Girls"
    },
    {
        "col0": "Ultraviolet",
        "col1": "Bono",
        "col2": "Daniel Lanois",
        "col3": "U2",
        "col4": "Acrobat"
    },
    {
        "col0": "Ulan",
        "col1": "R. Blanco",
        "col2": "Chito Rono",
        "col3": "Rivermaya",
        "col4": "214"
    },
    {
        "col0": "Uh La La La",
        "col1": "Robyx",
        "col2": "Random",
        "col3": "Alexia",
        "col4": "Hey Boy"
    },
    {
        "col0": "Uh Huh",
        "col1": "T. Stewart",
        "col2": "Tricky Stewart",
        "col3": "B2K",
        "col4": "Gots Ta Be"
    },
    {
        "col0": "Ugly",
        "col1": "D. Austin",
        "col2": "Dallas Austin",
        "col3": "Sugababes",
        "col4": "Red Dress"
    },
    {
        "col0": "Ugly",
        "col1": "J. Connolly",
        "col2": "Sevendust",
        "col3": "Sevendust",
        "col4": "Failure"
    },
    {
        "col0": "Ugly",
        "col1": "J. B. Jovi",
        "col2": "Desmond Child",
        "col3": "Jon Bon Jovi",
        "col4": "Bang a Drum"
    },
    {
        "col0": "Ugh! Your Ugly Houses!",
        "col1": "Chumbawamba",
        "col2": "Chumbawamba",
        "col3": "Chumbawamba",
        "col4": "Just Look at Me Now"
    },
    {
        "col0": "Ue kara Mariko",
        "col1": "Y. Akimoto",
        "col2": "Yasushi Akimoto",
        "col3": "AKB48",
        "col4": "Give Me Five!"
    },
    {
        "col0": "U Smile",
        "col1": "J. Bieber",
        "col2": "Jerry Duplessis",
        "col3": "Justin Bieber",
        "col4": "Pray"
    },
    {
        "col0": "U Should've Known Better",
        "col1": "J. Dupri",
        "col2": "Bryan Michael Cox",
        "col3": "Monica",
        "col4": "Everytime tha Beat Drop"
    },
    {
        "col0": "U Make Me Wanna",
        "col1": "Jadakiss",
        "col2": "Scott Storch",
        "col3": "Jadakiss",
        "col4": "New York"
    },
    {
        "col0": "U Make Me Wanna",
        "col1": "S. Robson",
        "col2": "Stargate",
        "col3": "Blue",
        "col4": "Guilty"
    },
    {
        "col0": "U Guessed It",
        "col1": "O. Maco",
        "col2": "Brandon Thomas",
        "col3": "OG Maco",
        "col4": "U Guessed It"
    },
    {
        "col0": "U Got the Look",
        "col1": "Prince",
        "col2": "Prince",
        "col3": "Prince",
        "col4": "I Could Never Take the Place of Your Man"
    },
    {
        "col0": "U Got It Bad",
        "col1": "R. Kelly",
        "col2": "Bryan-Michael Cox",
        "col3": "Usher",
        "col4": "U Don't Have to Call"
    },
    {
        "col0": "U Got 2 Let the Music",
        "col1": "G. Bortolotti",
        "col2": "Gianfranco Bortolotti",
        "col3": "Cappella",
        "col4": "Move on Baby"
    },
    {
        "col0": "U Don't Know Me",
        "col1": "T.I.",
        "col2": "DJ Toomp",
        "col3": "T.I.",
        "col4": "3 Kings"
    },
    {
        "col0": "U Don't Have to Call",
        "col1": "P. Williams",
        "col2": "The Neptunes",
        "col3": "Usher",
        "col4": "I Need a Girl"
    },
    {
        "col0": "U Can't Touch This",
        "col1": "R. James",
        "col2": "MC Hammer",
        "col3": "MC Hammer",
        "col4": "Have You Seen Her"
    },
    {
        "col0": "U & Me",
        "col1": "G. Bortolotti",
        "col2": "Gianfranco Bortolotti",
        "col3": "Cappella",
        "col4": "Move It Up"
    },
    {
        "col0": "USA Today",
        "col1": "A. Jackson",
        "col2": "Keith Stegall",
        "col3": "Alan Jackson",
        "col4": "Like Red on a Rose"
    },
    {
        "col0": "URL Badman",
        "col1": "G. Kurstin",
        "col2": "Greg Kurstin",
        "col3": "Lily Allen",
        "col4": "As Long as I Got You"
    },
    {
        "col0": "U.O.Me",
        "col1": "H. v. Hemert",
        "col2": "Hans van Hemert",
        "col3": "Luv'",
        "col4": "You're the Greatest Lover"
    },
    {
        "col0": "Toku Made",
        "col1": "D. Nagao",
        "col2": "Dai Nagao",
        "col3": "Do As Infinity",
        "col4": "Week!"
    },
    {
        "col0": "Tontarna",
        "col1": "J. Berg",
        "col2": "Kent",
        "col3": "Kent",
        "col4": "Hjarta"
    },
    {
        "col0": "Tyrone",
        "col1": "E. Badu",
        "col2": "Erykah Badu",
        "col3": "Erykah Badu",
        "col4": "Appletree"
    },
    {
        "col0": "Type",
        "col1": "V. Reid",
        "col2": "Ed Stasium",
        "col3": "Living Colour",
        "col4": "Love Rears Its Ugly Head"
    },
    {
        "col0": "Ty Cobb",
        "col1": "C. Cornell",
        "col2": "Soundgarden",
        "col3": "Soundgarden",
        "col4": "Bleed Together"
    },
    {
        "col0": "Two of a Kind, Workin' on a Full House",
        "col1": "W. Haynes",
        "col2": "Allen Reynolds",
        "col3": "Garth Brooks",
        "col4": "The Thunder Rolls"
    },
    {
        "col0": "Two Wrongs Don't Make a Right",
        "col1": "B. G. Jr.",
        "col2": "Smokey Robinson",
        "col3": "Mary Wells",
        "col4": "Your Old Standby"
    },
    {
        "col0": "Two Wrongs",
        "col1": "W. Jean",
        "col2": "Wyclef Jean",
        "col3": "Wyclef Jean",
        "col4": "Pussycat"
    },
    {
        "col0": "Two Worlds",
        "col1": "P. Collins",
        "col2": "Phil Collins",
        "col3": "Phil Collins",
        "col4": "Can't Stop Loving You"
    },
    {
        "col0": "Two Weeks",
        "col1": "E. Haynie",
        "col2": "Emile Haynie",
        "col3": "FKA twigs",
        "col4": "Pendulum"
    },
    {
        "col0": "Two Weeks",
        "col1": "P. Labonte",
        "col2": "Jason Suecof",
        "col3": "All That Remains",
        "col4": "Forever in Your Hands"
    },
    {
        "col0": "Two Way Street",
        "col1": "F. Tetaz",
        "col2": "Francois Tetaz",
        "col3": "Kimbra",
        "col4": "Come into My Head"
    },
    {
        "col0": "Two Tribes",
        "col1": "H. Johnson",
        "col2": "Trevor Horn",
        "col3": "Frankie Goes to Hollywood",
        "col4": "The Power of Love"
    },
    {
        "col0": "Two Tickets to Paradise",
        "col1": "E. Money",
        "col2": "Bruce Botnick",
        "col3": "Eddie Money",
        "col4": "You've Really Got a Hold on Me"
    },
    {
        "col0": "Two Teardrops",
        "col1": "B. Anderson",
        "col2": "Steve Wariner",
        "col3": "Steve Wariner",
        "col4": "I'm Already Taken"
    },
    {
        "col0": "Two Steps Behind",
        "col1": "J. Elliott",
        "col2": "Joe Elliott",
        "col3": "Def Leppard",
        "col4": "Action"
    },
    {
        "col0": "Two Sisters",
        "col1": "R. Davies",
        "col2": "Ray Davies",
        "col3": "The Kinks",
        "col4": "Dave Davies"
    },
    {
        "col0": "Two Pina Coladas",
        "col1": "S. Camp",
        "col2": "Allen Reynolds",
        "col3": "Garth Brooks",
        "col4": "Make You Feel My Love"
    },
    {
        "col0": "Two Pink Lines",
        "col1": "E. Church",
        "col2": "Jay Joyce",
        "col3": "Eric Church",
        "col4": "Guys Like Me"
    },
    {
        "col0": "Two Pina Coladas",
        "col1": "S. Camp",
        "col2": "Allen Reynolds",
        "col3": "Garth Brooks",
        "col4": "Make You Feel My Love"
    },
    {
        "col0": "Two People Fell in Love",
        "col1": "B. Paisley",
        "col2": "Frank Rogers",
        "col3": "Brad Paisley",
        "col4": "Wrapped Around"
    },
    {
        "col0": "Two People",
        "col1": "G. Lyle",
        "col2": "Terry Britten",
        "col3": "Tina Turner",
        "col4": "Girls"
    },
    {
        "col0": "Two Out of Three Ain't Bad",
        "col1": "J. Steinman",
        "col2": "Todd Rundgren",
        "col3": "Meat Loaf",
        "col4": "Paradise by the Dashboard Light"
    },
    {
        "col0": "Two Lovers",
        "col1": "S. Robinson",
        "col2": "Smokey Robinson",
        "col3": "Mary Wells",
        "col4": "Laughing Boy"
    },
    {
        "col0": "Two Hearts Beat as One",
        "col1": "U2",
        "col2": "Steve Lillywhite",
        "col3": "U2",
        "col4": "Sunday Bloody Sunday"
    },
    {
        "col0": "Two Hearts",
        "col1": "P. Collins",
        "col2": "Phil Collins",
        "col3": "Phil Collins",
        "col4": "Another Day in Paradise"
    },
    {
        "col0": "Two Grey Rooms",
        "col1": "J. Mitchell",
        "col2": "Joni Mitchell",
        "col3": "Joni Mitchell",
        "col4": "Got 'til It's Gone"
    },
    {
        "col0": "Two Dozen Roses",
        "col1": "M. McAnally",
        "col2": "Robert Byrne",
        "col3": "Shenandoah",
        "col4": "See If I Care"
    },
    {
        "col0": "Two Black Cadillacs",
        "col1": "C. Underwood",
        "col2": "Mark Bright",
        "col3": "Carrie Underwood",
        "col4": "See You Again"
    },
    {
        "col0": "Two-Lane Blacktop",
        "col1": "R. Zombie",
        "col2": "Rob Zombie",
        "col3": "Rob Zombie",
        "col4": "Foxy Foxy"
    },
    {
        "col0": "Two-Bit Manchild",
        "col1": "N. Diamond",
        "col2": "Neil Diamond",
        "col3": "Neil Diamond",
        "col4": "Shilo"
    },
    {
        "col0": "Twistin' the Night Away",
        "col1": "S. Cooke",
        "col2": "Al Schmitt",
        "col3": "Rod Stewart",
        "col4": "Chain Gang"
    },
    {
        "col0": "Twisted Transistor",
        "col1": "J. Davis",
        "col2": "Jonathan Davis",
        "col3": "Korn",
        "col4": "Coming Undone"
    },
    {
        "col0": "Twisted",
        "col1": "S. Nicks",
        "col2": "Lindsey Buckingham",
        "col3": "Stevie Nicks",
        "col4": "Reconsider Me"
    },
    {
        "col0": "Twisted",
        "col1": "M. Gaye",
        "col2": "Keith Sweat",
        "col3": "Keith Sweat",
        "col4": "Nobody"
    },
    {
        "col0": "Twisted",
        "col1": "Skin",
        "col2": "GGGarth",
        "col3": "Skunk Anansie",
        "col4": "Hedonism"
    },
    {
        "col0": "Twisted",
        "col1": "B. McFadden",
        "col2": "The Potbelleez",
        "col3": "Brian McFadden",
        "col4": "Everything but You"
    },
    {
        "col0": "Twist in My Sobriety",
        "col1": "T. Tikaram",
        "col2": "Rod Argent",
        "col3": "Tanita Tikaram",
        "col4": "Cathedral Song"
    },
    {
        "col0": "Twist and Shout",
        "col1": "B. Russell",
        "col2": "Phil Spector",
        "col3": "The Beatles",
        "col4": "Can't Buy Me Love"
    },
    {
        "col0": "Twist",
        "col1": "A. Goldfrapp",
        "col2": "Alison Goldfrapp",
        "col3": "Goldfrapp",
        "col4": "Black Cherry"
    },
    {
        "col0": "Twinkle, Twinkle Lucky Star",
        "col1": "M. Haggard",
        "col2": "Merle Haggard",
        "col3": "Merle Haggard",
        "col4": "Chill Factor"
    },
    {
        "col0": "Twilight Zone",
        "col1": "S. Harris",
        "col2": "Iron Maiden",
        "col3": "Iron Maiden",
        "col4": "Purgatory"
    },
    {
        "col0": "Twilight Is Gone",
        "col1": "C. Hillman",
        "col2": "Tony Brown",
        "col3": "The Desert Rose Band",
        "col4": "What About Love"
    },
    {
        "col0": "Twilight",
        "col1": "J. Lynne",
        "col2": "Jeff Lynne",
        "col3": "Electric Light Orchestra",
        "col4": "Here Is the News"
    },
    {
        "col0": "Twilight",
        "col1": "I. Wroldsen",
        "col2": "Quiz & Larossi",
        "col3": "Cover Drive",
        "col4": "Sparks"
    },
    {
        "col0": "Twerk It",
        "col1": "B. Rhymes",
        "col2": "Pharrell Williams",
        "col3": "Busta Rhymes",
        "col4": "Thank You"
    },
    {
        "col0": "Twelve Thirty",
        "col1": "J. Phillips",
        "col2": "Lou Adler",
        "col3": "The Mamas & the Papas",
        "col4": "Safe in My Garden"
    },
    {
        "col0": "Tweeter and the Monkey Man",
        "col1": "T. Wilburys",
        "col2": "George Harrison",
        "col3": "Traveling Wilburys",
        "col4": "End of the Line"
    },
    {
        "col0": "Twang",
        "col1": "J. Lauderdale",
        "col2": "George Strait",
        "col3": "George Strait",
        "col4": "I Gotta Get to You"
    },
    {
        "col0": "Tutti Frutti",
        "col1": "B. Sumner",
        "col2": "New Order",
        "col3": "New Order",
        "col4": "Singularity"
    },
    {
        "col0": "Tusk",
        "col1": "L. Buckingham",
        "col2": "Fleetwood Mac",
        "col3": "Fleetwood Mac",
        "col4": "Sara"
    },
    {
        "col0": "Tush",
        "col1": "B. Gibbons",
        "col2": "Bill Ham",
        "col3": "ZZ Top",
        "col4": "It's Only Love"
    },
    {
        "col0": "Turtles All the Way Down",
        "col1": "S. Simpson",
        "col2": "Dave Cobb",
        "col3": "Sturgill Simpson",
        "col4": "The Promise"
    },
    {
        "col0": "Turning Tables",
        "col1": "Adele",
        "col2": "Jim Abbiss",
        "col3": "Adele",
        "col4": "Skyfall"
    },
    {
        "col0": "Turning Into You",
        "col1": "D. Holland",
        "col2": "Bob Rock",
        "col3": "The Offspring",
        "col4": "Coming for You"
    },
    {
        "col0": "Turning Home",
        "col1": "K. Chesney",
        "col2": "Frank Liddell",
        "col3": "David Nail",
        "col4": "Let It Rain"
    },
    {
        "col0": "Turning Away",
        "col1": "T. Krekel",
        "col2": "Jimmy Bowen",
        "col3": "Crystal Gayle",
        "col4": "Me Against the Night"
    },
    {
        "col0": "Turnin Me On",
        "col1": "P. d. Don",
        "col2": "Polow da Don",
        "col3": "Keri Hilson",
        "col4": "Knock You Down"
    },
    {
        "col0": "Turn to You",
        "col1": "J. Bieber",
        "col2": "Justin Bieber",
        "col3": "Justin Bieber",
        "col4": "As Long as You Love Me"
    }
]