[
    {
        "col0": "Period",
        "col1": "O15055",
        "col2": "8845",
        "col3": "5187"
    },
    {
        "col0": "Patched",
        "col1": "Q13635",
        "col2": "9585",
        "col3": "5727"
    },
    {
        "col0": "Parathyroid hormone receptor",
        "col1": "P49190",
        "col2": "9608",
        "col3": "5745"
    },
    {
        "col0": "Paraoxonase",
        "col1": "P27169",
        "col2": "9204",
        "col3": "5444"
    },
    {
        "col0": "Pannexin",
        "col1": "Q96QZ0",
        "col2": "20573",
        "col3": "116337"
    },
    {
        "col0": "Palmitoyl protein thioesterase",
        "col1": "P50897",
        "col2": "9325",
        "col3": "5538"
    },
    {
        "col0": "PXK",
        "col1": "Q6ZN39",
        "col2": "23326",
        "col3": "54899"
    },
    {
        "col0": "PORCN",
        "col1": "Q9H237",
        "col2": "17652",
        "col3": "64840"
    },
    {
        "col0": "POLR3GL",
        "col1": "Q9BT43",
        "col2": "28466",
        "col3": "84265"
    },
    {
        "col0": "PHLPP",
        "col1": "O60346",
        "col2": "20610",
        "col3": "23035"
    },
    {
        "col0": "PEN-2",
        "col1": "Q9NZ42",
        "col2": "30100",
        "col3": "55851"
    },
    {
        "col0": "PBB/342346",
        "col1": "A6NNT2",
        "col2": "40031",
        "col3": "342346"
    },
    {
        "col0": "P87PIKAP",
        "col1": "P31749",
        "col2": "27101",
        "col3": "146850"
    },
    {
        "col0": "P38 mitogen-activated protein kinases",
        "col1": "O15264",
        "col2": "6873",
        "col3": "1432"
    },
    {
        "col0": "P300-CBP coactivator family",
        "col1": "Q09472",
        "col2": "2348",
        "col3": "1387"
    },
    {
        "col0": "P-type calcium channel",
        "col1": "O00555",
        "col2": "1388",
        "col3": "773"
    },
    {
        "col0": "Orosomucoid",
        "col1": "P02763",
        "col2": "8498",
        "col3": "5004"
    },
    {
        "col0": "Ornithine translocase",
        "col1": "Q9Y619",
        "col2": "10985",
        "col3": "10166"
    },
    {
        "col0": "Orexin receptor",
        "col1": "O43613",
        "col2": "4848",
        "col3": "3061"
    },
    {
        "col0": "Orexin",
        "col1": "O43612",
        "col2": "4847",
        "col3": "3060"
    },
    {
        "col0": "Odorant-binding protein",
        "col1": "Q9NPH6",
        "col2": "23380",
        "col3": "29989"
    },
    {
        "col0": "Oct-2",
        "col1": "P09086",
        "col2": "9213",
        "col3": "5452"
    },
    {
        "col0": "Obestatin",
        "col1": "Q9UBU3",
        "col2": "18129",
        "col3": "51738"
    },
    {
        "col0": "OX40L",
        "col1": "P23510",
        "col2": "11934",
        "col3": "7292"
    },
    {
        "col0": "Nucleoporin 37",
        "col1": "Q8NFH4",
        "col2": "29929",
        "col3": "79023"
    },
    {
        "col0": "Nucleoporin 210kDa",
        "col1": "Q8TEM1",
        "col2": "30052",
        "col3": "23225"
    },
    {
        "col0": "Nuclear cap-binding protein complex",
        "col1": "P52298",
        "col2": "7658",
        "col3": "22916"
    },
    {
        "col0": "Nitrilase",
        "col1": "Q86X76",
        "col2": "7828",
        "col3": "4817"
    },
    {
        "col0": "Neurturin",
        "col1": "Q99748",
        "col2": "8007",
        "col3": "4902"
    },
    {
        "col0": "Neurotensin receptor",
        "col1": "O95665",
        "col2": "11186",
        "col3": "23620"
    },
    {
        "col0": "Neuropilin",
        "col1": "O14786",
        "col2": "8004",
        "col3": "8828"
    },
    {
        "col0": "Neuropeptide Y receptor",
        "col1": "P25929",
        "col2": "7956",
        "col3": "4886"
    },
    {
        "col0": "Neuropeptide FF receptor",
        "col1": "Q9GZQ6",
        "col2": "17425",
        "col3": "10886"
    },
    {
        "col0": "Neuropeptide B/W receptor",
        "col1": "P48145",
        "col2": "4522",
        "col3": "2831"
    },
    {
        "col0": "Neuromedin U receptor",
        "col1": "Q9GZQ4",
        "col2": "16454",
        "col3": "10316"
    },
    {
        "col0": "Neuromedin U",
        "col1": "P48645",
        "col2": "7859",
        "col3": "10874"
    },
    {
        "col0": "Neuromedin B",
        "col1": "P08949",
        "col2": "7842",
        "col3": "4828"
    },
    {
        "col0": "Neuroligin",
        "col1": "Q8N0W4",
        "col2": "14287",
        "col3": "22871"
    },
    {
        "col0": "Neurogenins",
        "col1": "Q92886",
        "col2": "13805",
        "col3": "4762"
    },
    {
        "col0": "Neurofilament",
        "col1": "P07196",
        "col2": "6057",
        "col3": "10763"
    },
    {
        "col0": "Neurocalcin",
        "col1": "P61601",
        "col2": "7655",
        "col3": "83988"
    },
    {
        "col0": "Neurexin",
        "col1": "P58401",
        "col2": "8008",
        "col3": "9369"
    },
    {
        "col0": "Neonatal Fc receptor",
        "col1": "P55899",
        "col2": "3621",
        "col3": "2217"
    }
]