[
    {
        "col0": "T. Rostollan",
        "col1": "Armee de Terre",
        "col2": "1986-03-18",
        "col3": "1986-03-18"
    },
    {
        "col0": "T. Lebas",
        "col1": "Bridgestone-Anchor",
        "col2": "1985-12-14",
        "col3": "1985-12-14"
    },
    {
        "col0": "T. Koep",
        "col1": "Team Stolting",
        "col2": "1990-09-15",
        "col3": "1990-09-15"
    },
    {
        "col0": "T. Degand",
        "col1": "Wanty-Groupe Gobert",
        "col2": "1986-05-13",
        "col3": "1986-05-13"
    },
    {
        "col0": "T. Damuseau",
        "col1": "Roubaix-Lille Metropole",
        "col2": "1989-03-18",
        "col3": "1989-03-18"
    },
    {
        "col0": "T. Zonneveld",
        "col1": "Parkhotel Valkenburg CT",
        "col2": "1980-09-28",
        "col3": "1980-09-28"
    },
    {
        "col0": "T. Aerts",
        "col1": "Telenet-Fidea",
        "col2": "1996-11-03",
        "col3": "1996-11-03"
    },
    {
        "col0": "T. Hupond",
        "col1": "Delko-Marseille Provence KTM",
        "col2": "1984-11-10",
        "col3": "1984-11-10"
    },
    {
        "col0": "T. Vimpere",
        "col1": "HP BTP-Auber93",
        "col2": "1990-07-03",
        "col3": "1990-07-03"
    },
    {
        "col0": "T. Wiles",
        "col1": "Orica-AIS",
        "col2": "1989-07-20",
        "col3": "1989-07-20"
    },
    {
        "col0": "T. Ayabe",
        "col1": "Aisan Racing Team",
        "col2": "1980-09-05",
        "col3": "1980-09-05"
    },
    {
        "col0": "T. Nishitani",
        "col1": "Aisan Racing Team",
        "col2": "1981-02-01",
        "col3": "1981-02-01"
    },
    {
        "col0": "Taco van der Hoorn",
        "col1": "Cyclingteam Join-S-De Rijke",
        "col2": "1993-12-04",
        "col3": "1993-12-04"
    },
    {
        "col0": "S. K. Andersen",
        "col1": "Team Giant-Alpecin",
        "col2": "1994-08-10",
        "col3": "1994-08-10"
    },
    {
        "col0": "S. Sousa",
        "col1": "Team Vorarlberg",
        "col2": "1983-10-11",
        "col3": "1983-10-11"
    },
    {
        "col0": "S. Waersted",
        "col1": "Team Ringeriks-Kraft",
        "col2": "1996-08-08",
        "col3": "1996-08-08"
    },
    {
        "col0": "S. Janiszewski",
        "col1": "Wibatech-Fuji",
        "col2": "1988-01-24",
        "col3": "1988-01-24"
    },
    {
        "col0": "S. Reutter",
        "col1": "Team Stolting",
        "col2": "1996-08-13",
        "col3": "1996-08-13"
    },
    {
        "col0": "S. d. Goede",
        "col1": "Equipe Nurnberger Versicherung",
        "col2": "1984-04-16",
        "col3": "1984-04-16"
    },
    {
        "col0": "S. Rossetto",
        "col1": "Cofidis",
        "col2": "1987-04-06",
        "col3": "1987-04-06"
    },
    {
        "col0": "S. Steels",
        "col1": "Topsport Vlaanderen-Baloise",
        "col2": "1989-08-21",
        "col3": "1989-08-21"
    },
    {
        "col0": "S. Tronet",
        "col1": "Fortuneo-Vital Concept",
        "col2": "1986-10-14",
        "col3": "1986-10-14"
    },
    {
        "col0": "S. Lammertink",
        "col1": "Team LottoNL-Jumbo",
        "col2": "1993-12-04",
        "col3": "1993-12-04"
    },
    {
        "col0": "S. Peat",
        "col1": "Santa Cruz Syndicate",
        "col2": "1974-06-17",
        "col3": "1974-06-17"
    },
    {
        "col0": "S. Nardelli",
        "col1": "Norda-MG.Kvis Vega",
        "col2": "1993-11-29",
        "col3": "1993-11-29"
    },
    {
        "col0": "S. Locatelli",
        "col1": "Bardiani-CSF",
        "col2": "1989-02-26",
        "col3": "1989-02-26"
    },
    {
        "col0": "S. Hristov",
        "col1": "Brisaspor",
        "col2": "1985-07-12",
        "col3": "1985-07-12"
    },
    {
        "col0": "S. Aniolkowski",
        "col1": "Verva ActiveJet",
        "col2": "1997-01-20",
        "col3": "1997-01-20"
    },
    {
        "col0": "S. Rossetto",
        "col1": "Cofidis",
        "col2": "1987-04-06",
        "col3": "1987-04-06"
    },
    {
        "col0": "S. Jim",
        "col1": "MTN-Qhubeka",
        "col2": "1990-09-17",
        "col3": "1990-09-17"
    },
    {
        "col0": "S. Lunke",
        "col1": "Team Giant-Alpecin",
        "col2": "1993-04-17",
        "col3": "1993-04-17"
    },
    {
        "col0": "S. Velasco",
        "col1": "Bardiani-CSF",
        "col2": "1995-12-02",
        "col3": "1995-12-02"
    },
    {
        "col0": "S. Sterbini",
        "col1": "Bardiani-CSF",
        "col2": "1993-12-11",
        "col3": "1993-12-11"
    },
    {
        "col0": "S. Antonini",
        "col1": "Roth-Skoda",
        "col2": "1991-02-12",
        "col3": "1991-02-12"
    },
    {
        "col0": "S. Pellaud",
        "col1": "IAM Cycling",
        "col2": "1992-11-06",
        "col3": "1992-11-06"
    },
    {
        "col0": "S. Herklotz",
        "col1": "Team Stolting",
        "col2": "1994-05-06",
        "col3": "1994-05-06"
    },
    {
        "col0": "S. Hatsuyama",
        "col1": "Bridgestone-Anchor",
        "col2": "1988-08-17",
        "col3": "1988-08-17"
    },
    {
        "col0": "S. Suzuki",
        "col1": "Utsunomiya Blitzen",
        "col2": "1974-12-25",
        "col3": "1974-12-25"
    },
    {
        "col0": "S. Laws",
        "col1": "Podium Ambition Pro Cycling",
        "col2": "1974-07-07",
        "col3": "1974-07-07"
    },
    {
        "col0": "S. Kline",
        "col1": "Team SmartStop",
        "col2": "1989-04-11",
        "col3": "1989-04-11"
    },
    {
        "col0": "S. Haga",
        "col1": "Team SmartStop",
        "col2": "1991-04-19",
        "col3": "1991-04-19"
    },
    {
        "col0": "S. Archbold",
        "col1": "Bora-Argon 18",
        "col2": "1989-02-02",
        "col3": "1989-02-02"
    },
    {
        "col0": "S. Nikolaev",
        "col1": "Itera-Katusha",
        "col2": "1988-02-05",
        "col3": "1988-02-05"
    },
    {
        "col0": "S. Belykh",
        "col1": "Lokosphinx",
        "col2": "1990-03-04",
        "col3": "1990-03-04"
    },
    {
        "col0": "S. Vanmarcke",
        "col1": "Belkin Pro Cycling Team",
        "col2": "1988-07-28",
        "col3": "1988-07-28"
    },
    {
        "col0": "S. Joon-yong",
        "col1": "KSPO Cycling Team",
        "col2": "1988-03-14",
        "col3": "1988-03-14"
    },
    {
        "col0": "S. Lander",
        "col1": "ONE Pro Cycling",
        "col2": "1991-03-11",
        "col3": "1991-03-11"
    },
    {
        "col0": "S. D. Bie",
        "col1": "Lotto-Soudal",
        "col2": "1991-10-03",
        "col3": "1991-10-03"
    },
    {
        "col0": "S. Wilborne",
        "col1": "UnitedHealthcare Women's Team",
        "col2": "1983-01-07",
        "col3": "1983-01-07"
    },
    {
        "col0": "S. Thwaites",
        "col1": "Bora-Argon 18",
        "col2": "1990-02-12",
        "col3": "1990-02-12"
    },
    {
        "col0": "S. Sunderland",
        "col1": "Team Illuminate",
        "col2": "1988-03-16",
        "col3": "1988-03-16"
    },
    {
        "col0": "S. Zahit",
        "col1": "LeTua Cycling Team",
        "col2": "1984-04-06",
        "col3": "1984-04-06"
    },
    {
        "col0": "S. Raisin",
        "col1": "Credit Agricole",
        "col2": "1983-01-06",
        "col3": "1983-01-06"
    },
    {
        "col0": "S. Roy",
        "col1": "Orica-AIS",
        "col2": "1986-02-27",
        "col3": "1986-02-27"
    },
    {
        "col0": "S. Headley",
        "col1": "Podium Ambition Pro Cycling",
        "col2": "1985-04-05",
        "col3": "1985-04-05"
    },
    {
        "col0": "S. Helven",
        "col1": "Topsport Vlaanderen-Baloise",
        "col2": "1990-05-30",
        "col3": "1990-05-30"
    },
    {
        "col0": "S. Williams",
        "col1": "ONE Pro Cycling",
        "col2": "1994-03-18",
        "col3": "1994-03-18"
    },
    {
        "col0": "S. Samai",
        "col1": "LeTua Cycling Team",
        "col2": "1980-09-26",
        "col3": "1980-09-26"
    },
    {
        "col0": "S. Pourseyedi",
        "col1": "Tabriz Shahrdari Team",
        "col2": "1985-10-15",
        "col3": "1985-10-15"
    },
    {
        "col0": "S. Reynolds",
        "col1": "Fox Racing",
        "col2": "1991-06-04",
        "col3": "1991-06-04"
    },
    {
        "col0": "S. Stultiens",
        "col1": "Team Liv-Plantur",
        "col2": "1993-07-08",
        "col3": "1993-07-08"
    },
    {
        "col0": "S. K. Andersen",
        "col1": "Team Giant-Alpecin",
        "col2": "1994-08-10",
        "col3": "1994-08-10"
    },
    {
        "col0": "S. Sousa",
        "col1": "Team Vorarlberg",
        "col2": "1983-10-11",
        "col3": "1983-10-11"
    },
    {
        "col0": "R. Nishizono",
        "col1": "Bridgestone-Anchor",
        "col2": "1987-09-01",
        "col3": "1987-09-01"
    },
    {
        "col0": "R. Ariehan",
        "col1": "LeTua Cycling Team",
        "col2": "1979-03-04",
        "col3": "1979-03-04"
    },
    {
        "col0": "R. Cremers",
        "col1": "Team Novo Nordisk",
        "col2": "1992-01-03",
        "col3": "1992-01-03"
    },
    {
        "col0": "R. Winder",
        "col1": "USA Cycling",
        "col2": "1993-07-09",
        "col3": "1993-07-09"
    },
    {
        "col0": "R. Buchanan",
        "col1": "UnitedHealthcare Women's Team",
        "col2": "1988-01-20",
        "col3": "1988-01-20"
    },
    {
        "col0": "R. Sousa",
        "col1": "Radio Popular-Boavista",
        "col2": "1976-07-17",
        "col3": "1976-07-17"
    },
    {
        "col0": "R. Kemna",
        "col1": "Team Giant-Alpecin",
        "col2": "1967-10-05",
        "col3": "1967-10-05"
    },
    {
        "col0": "R. Miller",
        "col1": "Trek Bicycle Corporation",
        "col2": "1992-08-17",
        "col3": "1992-08-17"
    },
    {
        "col0": "R. Pols",
        "col1": "Topsport Vlaanderen-Baloise",
        "col2": "1994-11-03",
        "col3": "1994-11-03"
    },
    {
        "col0": "R. Jans",
        "col1": "Wanty-Groupe Gobert",
        "col2": "1990-09-15",
        "col3": "1990-09-15"
    },
    {
        "col0": "R. Ratto",
        "col1": "Estado de Mexico-Faren Kuota",
        "col2": "1993-10-20",
        "col3": "1993-10-20"
    },
    {
        "col0": "R. Reid",
        "col1": "Rapha Condor recycling.co.uk",
        "col2": "1987-08-21",
        "col3": "1987-08-21"
    },
    {
        "col0": "R. V. Uden",
        "col1": "CCN Cycling Team",
        "col2": "1988-10-29",
        "col3": "1988-10-29"
    },
    {
        "col0": "R. Kustadinchev",
        "col1": "RusVelo",
        "col2": "1995-08-03",
        "col3": "1995-08-03"
    },
    {
        "col0": "R. Pillon",
        "col1": "Roubaix-Lille Metropole",
        "col2": "1988-09-22",
        "col3": "1988-09-22"
    },
    {
        "col0": "R. Guillemois",
        "col1": "Team Europcar",
        "col2": "1991-03-28",
        "col3": "1991-03-28"
    },
    {
        "col0": "R. Feillu",
        "col1": "HP BTP-Auber93",
        "col2": "1984-04-16",
        "col3": "1984-04-16"
    },
    {
        "col0": "R. Combaud",
        "col1": "Delko-Marseille Provence KTM",
        "col2": "1991-04-01",
        "col3": "1991-04-01"
    },
    {
        "col0": "R. Cardis",
        "col1": "Direct Energie",
        "col2": "1992-08-12",
        "col3": "1992-08-12"
    },
    {
        "col0": "R. Thalmann",
        "col1": "Team Roth",
        "col2": "1993-08-15",
        "col3": "1993-08-15"
    },
    {
        "col0": "R. Chalapud",
        "col1": "Orgullo Antioqueno",
        "col2": "1984-03-08",
        "col3": "1984-03-08"
    },
    {
        "col0": "R. Farina",
        "col1": "BMW p/b Happy Tooth Dental",
        "col2": "1977-09-03",
        "col3": "1977-09-03"
    },
    {
        "col0": "R. Carpenter",
        "col1": "Hincapie Racing",
        "col2": "1992-06-20",
        "col3": "1992-06-20"
    },
    {
        "col0": "R. Pinheiro",
        "col1": "Funvic Soul Cycles-Carrefour",
        "col2": "1983-01-09",
        "col3": "1983-01-09"
    },
    {
        "col0": "R. Wagner",
        "col1": "Belkin Pro Cycling Team",
        "col2": "1983-04-17",
        "col3": "1983-04-17"
    },
    {
        "col0": "R. Sweeting",
        "col1": "Team SmartStop",
        "col2": "1987-06-05",
        "col3": "1987-06-05"
    },
    {
        "col0": "R. Retschke",
        "col1": "Team Kuota-Lotto",
        "col2": "1980-12-17",
        "col3": "1980-12-17"
    },
    {
        "col0": "R. Radosz",
        "col1": "BDC Marcpol Team",
        "col2": "1975-07-08",
        "col3": "1975-07-08"
    },
    {
        "col0": "R. Squire",
        "col1": "Hincapie Racing",
        "col2": "1990-04-01",
        "col3": "1990-04-01"
    },
    {
        "col0": "R. Hucker",
        "col1": "Avanti IsoWhey Sports",
        "col2": "1990-03-13",
        "col3": "1990-03-13"
    }
]