[
    {
        "col0": "SM UC-9",
        "col1": "168000000",
        "col2": "3",
        "col3": "1915-07-11"
    },
    {
        "col0": "SM UC-8",
        "col1": "168000000",
        "col2": "3",
        "col3": "1915-07-06"
    },
    {
        "col0": "SM UC-79",
        "col1": "410000000",
        "col2": "3",
        "col3": "1916-12-19"
    },
    {
        "col0": "SM UC-78",
        "col1": "410000000",
        "col2": "3",
        "col3": "1916-12-08"
    },
    {
        "col0": "SM UC-77",
        "col1": "410000000",
        "col2": "3",
        "col3": "1916-12-02"
    },
    {
        "col0": "SM UC-76",
        "col1": "410000000",
        "col2": "3",
        "col3": "1916-11-25"
    },
    {
        "col0": "SM UC-75",
        "col1": "410000000",
        "col2": "3",
        "col3": "1916-11-06"
    },
    {
        "col0": "SM UC-74",
        "col1": "410000000",
        "col2": "3",
        "col3": "1916-10-19"
    },
    {
        "col0": "SM UC-73",
        "col1": "427000000",
        "col2": "3",
        "col3": "1916-08-26"
    },
    {
        "col0": "SM UC-72",
        "col1": "427000000",
        "col2": "3",
        "col3": "1916-08-12"
    },
    {
        "col0": "SM UC-70",
        "col1": "427000000",
        "col2": "3",
        "col3": "1916-08-07"
    },
    {
        "col0": "SM UC-7",
        "col1": "168000000",
        "col2": "3",
        "col3": "1915-07-06"
    },
    {
        "col0": "SM UC-69",
        "col1": "427000000",
        "col2": "3",
        "col3": "1916-08-07"
    },
    {
        "col0": "SM UC-68",
        "col1": "427000000",
        "col2": "3",
        "col3": "1916-08-12"
    },
    {
        "col0": "SM UC-67",
        "col1": "427000000",
        "col2": "3",
        "col3": "1916-08-06"
    },
    {
        "col0": "SM UC-66",
        "col1": "427000000",
        "col2": "3",
        "col3": "1916-07-15"
    },
    {
        "col0": "SM UC-65",
        "col1": "427000000",
        "col2": "3",
        "col3": "1916-07-08"
    },
    {
        "col0": "SM UC-64",
        "col1": "422000000",
        "col2": "3",
        "col3": "1917-01-23"
    },
    {
        "col0": "SM UC-63",
        "col1": "422000000",
        "col2": "3",
        "col3": "1917-01-06"
    },
    {
        "col0": "SM UC-62",
        "col1": "422000000",
        "col2": "3",
        "col3": "1916-12-09"
    },
    {
        "col0": "SM UC-60",
        "col1": "415000000",
        "col2": "3",
        "col3": "1916-11-08"
    },
    {
        "col0": "SM UC-6",
        "col1": "168000000",
        "col2": "3",
        "col3": "1915-06-20"
    },
    {
        "col0": "SM UC-59",
        "col1": "415000000",
        "col2": "3",
        "col3": "1916-09-28"
    },
    {
        "col0": "SM UC-58",
        "col1": "415000000",
        "col2": "3",
        "col3": "1916-10-21"
    },
    {
        "col0": "SM UC-56",
        "col1": "415000000",
        "col2": "3",
        "col3": "1916-08-26"
    },
    {
        "col0": "SM UC-54",
        "col1": "434000000",
        "col2": "3",
        "col3": "1917-03-20"
    },
    {
        "col0": "SM UC-53",
        "col1": "434000000",
        "col2": "3",
        "col3": "1917-02-27"
    },
    {
        "col0": "SM UC-52",
        "col1": "434000000",
        "col2": "3",
        "col3": "1917-01-23"
    },
    {
        "col0": "SM UC-51",
        "col1": "434000000",
        "col2": "3",
        "col3": "1916-12-05"
    },
    {
        "col0": "SM UC-50",
        "col1": "434000000",
        "col2": "3",
        "col3": "1916-11-23"
    },
    {
        "col0": "SM UC-5",
        "col1": "168000000",
        "col2": "3",
        "col3": "1915-06-13"
    },
    {
        "col0": "SM UC-49",
        "col1": "434000000",
        "col2": "3",
        "col3": "1916-11-07"
    },
    {
        "col0": "SM UC-48",
        "col1": "420000000",
        "col2": "3",
        "col3": "1916-09-27"
    },
    {
        "col0": "SM UC-47",
        "col1": "420000000",
        "col2": "3",
        "col3": "1916-08-30"
    },
    {
        "col0": "SM UC-46",
        "col1": "420000000",
        "col2": "3",
        "col3": "1916-08-08"
    },
    {
        "col0": "SM UC-45",
        "col1": "400000000",
        "col2": "3",
        "col3": "1916-10-20"
    },
    {
        "col0": "SM UC-44",
        "col1": "400000000",
        "col2": "3",
        "col3": "1916-10-10"
    },
    {
        "col0": "SM UC-43",
        "col1": "400000000",
        "col2": "3",
        "col3": "1916-10-05"
    },
    {
        "col0": "SM UC-42",
        "col1": "400000000",
        "col2": "3",
        "col3": "1916-09-21"
    },
    {
        "col0": "SM UC-41",
        "col1": "400000000",
        "col2": "3",
        "col3": "1916-09-13"
    },
    {
        "col0": "SM UC-40",
        "col1": "400000000",
        "col2": "3",
        "col3": "1916-09-05"
    },
    {
        "col0": "SM UC-39",
        "col1": "427000000",
        "col2": "3",
        "col3": "1916-06-25"
    },
    {
        "col0": "SM UC-38",
        "col1": "427000000",
        "col2": "3",
        "col3": "1916-06-25"
    },
    {
        "col0": "SM UC-37",
        "col1": "427000000",
        "col2": "3",
        "col3": "1916-06-05"
    },
    {
        "col0": "SM UC-36",
        "col1": "427000000",
        "col2": "3",
        "col3": "1916-06-05"
    },
    {
        "col0": "SM UC-35",
        "col1": "427000000",
        "col2": "3",
        "col3": "1916-05-06"
    },
    {
        "col0": "SM UC-33",
        "col1": "400000000",
        "col2": "3",
        "col3": "1916-08-26"
    },
    {
        "col0": "SM UC-32",
        "col1": "400000000",
        "col2": "3",
        "col3": "1916-08-12"
    },
    {
        "col0": "SM UC-31",
        "col1": "400000000",
        "col2": "3",
        "col3": "1916-08-07"
    },
    {
        "col0": "SM UC-30",
        "col1": "400000000",
        "col2": "3",
        "col3": "1916-07-27"
    },
    {
        "col0": "SM UC-3",
        "col1": "168000000",
        "col2": "3",
        "col3": "1915-05-28"
    },
    {
        "col0": "SM UC-29",
        "col1": "400000000",
        "col2": "3",
        "col3": "1916-07-15"
    },
    {
        "col0": "SM UC-28",
        "col1": "400000000",
        "col2": "3",
        "col3": "1916-07-08"
    },
    {
        "col0": "SM UC-27",
        "col1": "400000000",
        "col2": "3",
        "col3": "1916-06-28"
    },
    {
        "col0": "SM UC-26",
        "col1": "400000000",
        "col2": "3",
        "col3": "1916-06-22"
    },
    {
        "col0": "SM UC-25",
        "col1": "400000000",
        "col2": "3",
        "col3": "1916-06-10"
    },
    {
        "col0": "SM UC-24",
        "col1": "417000000",
        "col2": "3",
        "col3": "1916-03-04"
    },
    {
        "col0": "SM UC-23",
        "col1": "417000000",
        "col2": "3",
        "col3": "1916-02-29"
    },
    {
        "col0": "SM UC-22",
        "col1": "417000000",
        "col2": "3",
        "col3": "1916-02-01"
    },
    {
        "col0": "SM UC-20",
        "col1": "417000000",
        "col2": "3",
        "col3": "1916-04-01"
    },
    {
        "col0": "SM UC-2",
        "col1": "168000000",
        "col2": "3",
        "col3": "1915-05-12"
    },
    {
        "col0": "SM UC-19",
        "col1": "417000000",
        "col2": "3",
        "col3": "1916-03-15"
    },
    {
        "col0": "SM UC-18",
        "col1": "417000000",
        "col2": "3",
        "col3": "1916-03-04"
    },
    {
        "col0": "SM UC-17",
        "col1": "417000000",
        "col2": "3",
        "col3": "1916-02-29"
    },
    {
        "col0": "SM UC-16",
        "col1": "417000000",
        "col2": "3",
        "col3": "1916-02-01"
    },
    {
        "col0": "SM UC-15",
        "col1": "168000000",
        "col2": "3",
        "col3": "1915-05-19"
    },
    {
        "col0": "SM UC-14",
        "col1": "168000000",
        "col2": "3",
        "col3": "1915-05-13"
    },
    {
        "col0": "SM UC-13",
        "col1": "168000000",
        "col2": "3",
        "col3": "1915-05-11"
    },
    {
        "col0": "SM UC-12",
        "col1": "168000000",
        "col2": "3",
        "col3": "1915-04-29"
    },
    {
        "col0": "SM UC-114",
        "col1": "491000000",
        "col2": "5",
        "col3": "1918-08-11"
    },
    {
        "col0": "SM UC-113",
        "col1": "491000000",
        "col2": "5",
        "col3": "1918-07-06"
    },
    {
        "col0": "SM UC-112",
        "col1": "491000000",
        "col2": "5",
        "col3": "1918-07-06"
    },
    {
        "col0": "SM UC-111",
        "col1": "491000000",
        "col2": "5",
        "col3": "1918-07-06"
    },
    {
        "col0": "SM UC-110",
        "col1": "491000000",
        "col2": "5",
        "col3": "1918-07-06"
    },
    {
        "col0": "SM UC-11",
        "col1": "168000000",
        "col2": "3",
        "col3": "1915-04-11"
    },
    {
        "col0": "SM UC-109",
        "col1": "491000000",
        "col2": "5",
        "col3": "1918-06-02"
    },
    {
        "col0": "SM UC-108",
        "col1": "491000000",
        "col2": "5",
        "col3": "1918-06-02"
    },
    {
        "col0": "SM UC-107",
        "col1": "491000000",
        "col2": "5",
        "col3": "1918-06-02"
    },
    {
        "col0": "SM UC-106",
        "col1": "491000000",
        "col2": "5",
        "col3": "1918-05-25"
    },
    {
        "col0": "SM UC-105",
        "col1": "491000000",
        "col2": "5",
        "col3": "1918-05-25"
    },
    {
        "col0": "SM UC-104",
        "col1": "491000000",
        "col2": "5",
        "col3": "1918-05-25"
    },
    {
        "col0": "SM UC-103",
        "col1": "491000000",
        "col2": "5",
        "col3": "1918-04-14"
    },
    {
        "col0": "SM UC-102",
        "col1": "491000000",
        "col2": "5",
        "col3": "1918-04-14"
    },
    {
        "col0": "SM UC-101",
        "col1": "491000000",
        "col2": "5",
        "col3": "1918-04-14"
    },
    {
        "col0": "SM UC-100",
        "col1": "491000000",
        "col2": "5",
        "col3": "1918-04-14"
    },
    {
        "col0": "SM UC-10",
        "col1": "168000000",
        "col2": "3",
        "col3": "1915-07-15"
    },
    {
        "col0": "SM UB-99",
        "col1": "510000000",
        "col2": "5",
        "col3": "1918-07-29"
    },
    {
        "col0": "SM UB-98",
        "col1": "510000000",
        "col2": "5",
        "col3": "1918-07-01"
    },
    {
        "col0": "SM UB-97",
        "col1": "510000000",
        "col2": "5",
        "col3": "1918-06-13"
    },
    {
        "col0": "SM UB-96",
        "col1": "510000000",
        "col2": "5",
        "col3": "1918-05-31"
    },
    {
        "col0": "SM UB-95",
        "col1": "510000000",
        "col2": "5",
        "col3": "1918-05-10"
    },
    {
        "col0": "SM UB-94",
        "col1": "510000000",
        "col2": "5",
        "col3": "1918-04-26"
    },
    {
        "col0": "SM UB-93",
        "col1": "510000000",
        "col2": "5",
        "col3": "1918-04-12"
    },
    {
        "col0": "SM UB-92",
        "col1": "510000000",
        "col2": "5",
        "col3": "1918-03-25"
    },
    {
        "col0": "SM UB-91",
        "col1": "510000000",
        "col2": "5",
        "col3": "1918-03-06"
    },
    {
        "col0": "SM UB-90",
        "col1": "510000000",
        "col2": "5",
        "col3": "1918-02-12"
    },
    {
        "col0": "SM UB-9",
        "col1": "127000000",
        "col2": "3",
        "col3": "1915-02-06"
    },
    {
        "col0": "SM UB-89",
        "col1": "510000000",
        "col2": "5",
        "col3": "1917-12-22"
    },
    {
        "col0": "SM UB-88",
        "col1": "510000000",
        "col2": "5",
        "col3": "1917-12-11"
    },
    {
        "col0": "SM UB-87",
        "col1": "516000000",
        "col2": "5",
        "col3": "1917-11-10"
    },
    {
        "col0": "SM UB-86",
        "col1": "516000000",
        "col2": "5",
        "col3": "1917-10-10"
    },
    {
        "col0": "SM UB-85",
        "col1": "516000000",
        "col2": "5",
        "col3": "1917-10-26"
    },
    {
        "col0": "SM UB-84",
        "col1": "516000000",
        "col2": "5",
        "col3": "1917-10-03"
    },
    {
        "col0": "SM UB-83",
        "col1": "516000000",
        "col2": "5",
        "col3": "1917-09-15"
    },
    {
        "col0": "SM UB-82",
        "col1": "516000000",
        "col2": "5",
        "col3": "1917-09-01"
    },
    {
        "col0": "SM UB-81",
        "col1": "516000000",
        "col2": "5",
        "col3": "1917-08-18"
    },
    {
        "col0": "SM UB-80",
        "col1": "516000000",
        "col2": "5",
        "col3": "1917-08-04"
    },
    {
        "col0": "SM UB-79",
        "col1": "516000000",
        "col2": "5",
        "col3": "1917-06-03"
    },
    {
        "col0": "SM UB-78",
        "col1": "516000000",
        "col2": "5",
        "col3": "1917-06-02"
    },
    {
        "col0": "SM UB-77",
        "col1": "516000000",
        "col2": "5",
        "col3": "1917-05-05"
    },
    {
        "col0": "SM UB-76",
        "col1": "516000000",
        "col2": "5",
        "col3": "1917-05-05"
    },
    {
        "col0": "SM UB-75",
        "col1": "516000000",
        "col2": "5",
        "col3": "1917-05-05"
    },
    {
        "col0": "SM UB-74",
        "col1": "508000000",
        "col2": "5",
        "col3": "1917-09-12"
    },
    {
        "col0": "SM UB-73",
        "col1": "508000000",
        "col2": "5",
        "col3": "1917-08-11"
    },
    {
        "col0": "SM UB-72",
        "col1": "508000000",
        "col2": "5",
        "col3": "1917-07-30"
    },
    {
        "col0": "SM UB-71",
        "col1": "513000000",
        "col2": "5",
        "col3": "1917-07-12"
    },
    {
        "col0": "SM UB-70",
        "col1": "513000000",
        "col2": "5",
        "col3": "1917-08-07"
    },
    {
        "col0": "SM UB-69",
        "col1": "513000000",
        "col2": "5",
        "col3": "1917-08-07"
    }
]