[
    {
        "col0": "White Prayer",
        "col1": "A. Nine",
        "col2": "Alice Nine",
        "col3": "Alice Nine",
        "col4": "Tsubasa"
    },
    {
        "col0": "White People for Peace",
        "col1": "L. J. Grace",
        "col2": "Butch Vig",
        "col3": "Against Me!",
        "col4": "Thrash Unreal"
    },
    {
        "col0": "White Nights",
        "col1": "D. McCracken",
        "col2": "Dave McCracken",
        "col3": "Oh Land",
        "col4": "Speak Out Now"
    },
    {
        "col0": "White Lines",
        "col1": "M. Mel",
        "col2": "Melle Mel",
        "col3": "Duran Duran",
        "col4": "Out of My Mind"
    },
    {
        "col0": "White Limozeen",
        "col1": "D. Parton",
        "col2": "Ricky Skaggs",
        "col3": "Dolly Parton",
        "col4": "Love Is Strange"
    },
    {
        "col0": "White Limo",
        "col1": "F. Fighters",
        "col2": "Butch Vig",
        "col3": "Foo Fighters",
        "col4": "Walk"
    },
    {
        "col0": "White Lightning",
        "col1": "T. B. Bopper",
        "col2": "Pappy Daily",
        "col3": "George Jones",
        "col4": "Who Shot Sam"
    },
    {
        "col0": "White Light/White Heat",
        "col1": "L. Reed",
        "col2": "David Bowie",
        "col3": "David Bowie",
        "col4": "Blue Jean"
    },
    {
        "col0": "White Liar",
        "col1": "M. Lambert",
        "col2": "Frank Liddell",
        "col3": "Miranda Lambert",
        "col4": "The House That Built Me"
    },
    {
        "col0": "White Knuckles",
        "col1": "D. Kulash",
        "col2": "Dave Fridmann",
        "col3": "OK Go",
        "col4": "All Is Not Lost"
    },
    {
        "col0": "White Knuckle Ride",
        "col1": "J. Kay",
        "col2": "Jason Kay",
        "col3": "Jamiroquai",
        "col4": "Blue Skies"
    },
    {
        "col0": "White Iverson",
        "col1": "A. Post",
        "col2": "FKi",
        "col3": "Post Malone",
        "col4": "Too Young"
    },
    {
        "col0": "White Houses",
        "col1": "E. Burdon",
        "col2": "Tom Wilson",
        "col3": "Eric Burdon & the Animals",
        "col4": "Ring of Fire"
    },
    {
        "col0": "White Horse",
        "col1": "L. Rose",
        "col2": "Nathan Chapman",
        "col3": "Taylor Swift",
        "col4": "You Belong with Me"
    },
    {
        "col0": "White Guilt",
        "col1": "M. Caughthran",
        "col2": "Michael Beinhorn",
        "col3": "The Bronx",
        "col4": "Young Bloods"
    },
    {
        "col0": "White Flag",
        "col1": "Dido",
        "col2": "Dido",
        "col3": "Dido",
        "col4": "Life for Rent"
    },
    {
        "col0": "White Feather",
        "col1": "A. Stockdale",
        "col2": "Alan Moulder",
        "col3": "Wolfmother",
        "col4": "Far Away"
    },
    {
        "col0": "White Crosses",
        "col1": "L. J. Grace",
        "col2": "Butch Vig",
        "col3": "Against Me!",
        "col4": "High Pressure Low"
    },
    {
        "col0": "White Collar Boy",
        "col1": "S. Murdoch",
        "col2": "Tony Hoffer",
        "col3": "Belle & Sebastian",
        "col4": "Write About Love"
    },
    {
        "col0": "White & Nerdy",
        "col1": "\". A. Yankovic",
        "col2": "\"Weird Al\" Yankovic",
        "col3": "\"Weird Al\" Yankovic",
        "col4": "Canadian Idiot"
    },
    {
        "col0": "White, White Dove",
        "col1": "S. Harley",
        "col2": "Steve Harley",
        "col3": "Steve Harley & Cockney Rebel",
        "col4": "Here Comes the Sun"
    },
    {
        "col0": "White, Discussion",
        "col1": "Live",
        "col2": "Live",
        "col3": "Live",
        "col4": "Lakini's Juice"
    },
    {
        "col0": "Whistlin' Dixie",
        "col1": "R. Houser",
        "col2": "Mark Wright",
        "col3": "Randy Houser",
        "col4": "I'm All About It"
    },
    {
        "col0": "Whistle",
        "col1": "F. Rida",
        "col2": "DJ Frank E",
        "col3": "Flo Rida",
        "col4": "Get Low"
    },
    {
        "col0": "Whisper Your Name",
        "col1": "A. Tierney",
        "col2": "Paul Begaud",
        "col3": "Human Nature",
        "col4": "Everytime You Cry"
    },
    {
        "col0": "Whisper My Name",
        "col1": "T. Bruce",
        "col2": "Kyle Lehning",
        "col3": "Randy Travis",
        "col4": "This Is Me"
    },
    {
        "col0": "Whiskey in the Jar",
        "col1": "B. Downey",
        "col2": "Lars Ulrich",
        "col3": "Metallica",
        "col4": "Die, Die My Darling"
    },
    {
        "col0": "Whiskey Under the Bridge",
        "col1": "R. Dunn",
        "col2": "Don Cook",
        "col3": "Brooks & Dunn",
        "col4": "My Maria"
    },
    {
        "col0": "Whiskey Lullaby",
        "col1": "B. Anderson",
        "col2": "Frank Rogers",
        "col3": "Brad Paisley",
        "col4": "Mud on the Tires"
    },
    {
        "col0": "Whiskey Hangover",
        "col1": "S. Erna",
        "col2": "Sully Erna",
        "col3": "Godsmack",
        "col4": "Cryin' Like A Bitch"
    },
    {
        "col0": "Whiskey Girl",
        "col1": "T. Keith",
        "col2": "Toby Keith",
        "col3": "Toby Keith",
        "col4": "Hey, Good Lookin'"
    },
    {
        "col0": "Whiskey Bent and Hell Bound",
        "col1": "H. W. Jr.",
        "col2": "Jimmy Bowen",
        "col3": "Hank Williams Jr.",
        "col4": "Women I've Never Had"
    },
    {
        "col0": "Whiskey",
        "col1": "C. Gravitt",
        "col2": "Scott Hendricks",
        "col3": "Jana Kramer",
        "col4": "I Hope It Rains"
    },
    {
        "col0": "Whiplash",
        "col1": "J. Hetfield",
        "col2": "Johny Zazula",
        "col3": "Metallica",
        "col4": "Jump in the Fire"
    },
    {
        "col0": "Whip It!",
        "col1": "C. Angelides",
        "col2": "Dr. Luke",
        "col3": "LunchMoney Lewis",
        "col4": "Trini Dem Girls"
    },
    {
        "col0": "While You Wait for the Others",
        "col1": "C. Bear",
        "col2": "Chris Taylor",
        "col3": "Grizzly Bear",
        "col4": "Sleeping Ute"
    },
    {
        "col0": "While You're Out Looking for Sugar",
        "col1": "Holland-Dozier-Holland",
        "col2": "Joss Stone",
        "col3": "Joss Stone",
        "col4": "The High Road"
    },
    {
        "col0": "Which Face Should I Put On Tonight",
        "col1": "T. Thorney",
        "col2": "Erica Ehm",
        "col3": "Cassandra Vasik",
        "col4": "Wildflowers"
    },
    {
        "col0": "Wherever You Go",
        "col1": "C. Black",
        "col2": "Clint Black",
        "col3": "Clint Black",
        "col4": "Summer's Comin'"
    },
    {
        "col0": "Wherever You Are",
        "col1": "J. Stover",
        "col2": "Jeremy Stover",
        "col3": "Jack Ingram",
        "col4": "Love You"
    },
    {
        "col0": "Wherever Would I Be",
        "col1": "D. Warren",
        "col2": "Richie Zito",
        "col3": "Dusty Springfield",
        "col4": "If You Need Me"
    },
    {
        "col0": "Wherever I May Roam",
        "col1": "J. Hetfield",
        "col2": "James Hetfield",
        "col3": "Metallica",
        "col4": "Sad but True"
    },
    {
        "col0": "Where the Wild Roses Grow",
        "col1": "N. Cave",
        "col2": "Tony Cohen",
        "col3": "Kylie Minogue",
        "col4": "Young Hunting"
    },
    {
        "col0": "Where the Streets Have No Name",
        "col1": "Bono",
        "col2": "Brian Eno",
        "col3": "U2",
        "col4": "In God's Country"
    },
    {
        "col0": "Where the Stars and Stripes and the Eagle Fly",
        "col1": "A. Tippin",
        "col2": "Aaron Tippin",
        "col3": "Aaron Tippin",
        "col4": "If Her Lovin' Don't Kill Me"
    },
    {
        "col0": "Where the Lost Ones Go",
        "col1": "E. Lind",
        "col2": "Frank Peterson",
        "col3": "Sarah Brightman",
        "col4": "Running"
    },
    {
        "col0": "Where the Green Grass Grows",
        "col1": "C. Wiseman",
        "col2": "James Stroud",
        "col3": "Tim McGraw",
        "col4": "For a Little While"
    },
    {
        "col0": "Where the Blacktop Ends",
        "col1": "S. Wariner",
        "col2": "Keith Urban",
        "col3": "Keith Urban",
        "col4": "Somebody Like You"
    },
    {
        "col0": "Where Your Road Leads",
        "col1": "D. Child",
        "col2": "Allen Reynolds",
        "col3": "Trisha Yearwood",
        "col4": "Powerful Thing"
    },
    {
        "col0": "Where You Lead",
        "col1": "C. King",
        "col2": "Lou Adler",
        "col3": "Carole King",
        "col4": "Will You Love Me Tomorrow"
    },
    {
        "col0": "Where You At",
        "col1": "S. Garrett",
        "col2": "Sean Garrett",
        "col3": "Joe",
        "col4": "If I Was Your Man"
    },
    {
        "col0": "Where You At",
        "col1": "R. Kelly",
        "col2": "R. Kelly",
        "col3": "Jennifer Hudson",
        "col4": "I Remember Me"
    },
    {
        "col0": "Where You Are",
        "col1": "N. Lachey",
        "col2": "Sam Watters",
        "col3": "Jessica Simpson",
        "col4": "I Think I'm in Love with You"
    },
    {
        "col0": "Where Ya At",
        "col1": "Drake",
        "col2": "Metro Boomin",
        "col3": "Future",
        "col4": "March Madness"
    },
    {
        "col0": "Where Would You Be",
        "col1": "R. Proctor",
        "col2": "Martina McBride",
        "col3": "Martina McBride",
        "col4": "Practice Life"
    },
    {
        "col0": "Where Were You",
        "col1": "A. Jackson",
        "col2": "Keith Stegall",
        "col3": "Alan Jackson",
        "col4": "Drive"
    },
    {
        "col0": "Where It's At",
        "col1": "M. Jenkins",
        "col2": "Mickey Jack Cones",
        "col3": "Dustin Lynch",
        "col4": "Hell of a Night"
    },
    {
        "col0": "Where Is the Love?",
        "col1": "Apl.de.ap",
        "col2": "Will.i.am",
        "col3": "The Black Eyed Peas",
        "col4": "Shut Up"
    },
    {
        "col0": "Where Is the Love",
        "col1": "R. MacDonald",
        "col2": "Joel Dorn",
        "col3": "Rick Price",
        "col4": "River of Love"
    },
    {
        "col0": "Where Is My Mind?",
        "col1": "B. Francis",
        "col2": "Steve Albini",
        "col3": "Pixies",
        "col4": "Cactus"
    },
    {
        "col0": "Where I Stood",
        "col1": "M. Higgins",
        "col2": "Mitchell Froom",
        "col3": "Missy Higgins",
        "col4": "Peachy"
    },
    {
        "col0": "Where I Come From",
        "col1": "A. Jackson",
        "col2": "Keith Stegall",
        "col3": "Alan Jackson",
        "col4": "It's Alright to Be a Redneck"
    },
    {
        "col0": "Where Have You Been",
        "col1": "E. Dean",
        "col2": "Calvin Harris",
        "col3": "Rihanna",
        "col4": "Cockiness"
    },
    {
        "col0": "Where Have All the Cowboys Gone?",
        "col1": "P. Cole",
        "col2": "Paula Cole",
        "col3": "Paula Cole",
        "col4": "I Don't Want to Wait"
    },
    {
        "col0": "Where Has Love Gone?",
        "col1": "H. Johnson",
        "col2": "Andy Richards",
        "col3": "Holly Johnson",
        "col4": "Across the Universe"
    },
    {
        "col0": "Where Does the Good Times Go",
        "col1": "B. Owens",
        "col2": "Ken Nelson",
        "col3": "Buck Owens",
        "col4": "Sam's Place"
    },
    {
        "col0": "Where Does My Heart Beat Now",
        "col1": "R. W. Johnson",
        "col2": "Christopher Neil",
        "col3": "Celine Dion",
        "col4": "The Last to Know"
    },
    {
        "col0": "Where Do You Go",
        "col1": "F. Reuther",
        "col2": "Frank Farian",
        "col3": "No Mercy",
        "col4": "When I Die"
    },
    {
        "col0": "Where Do We Go from Here",
        "col1": "P. Cetera",
        "col2": "James William Guercio",
        "col3": "Chicago",
        "col4": "Does Anybody Really Know What Time It Is?"
    },
    {
        "col0": "Where Do We Go from Here?",
        "col1": "D. Foster",
        "col2": "David Foster",
        "col3": "Vanessa L. Williams",
        "col4": "Do You Hear What I Hear?"
    },
    {
        "col0": "Where Do We Go",
        "col1": "J. Sean",
        "col2": "Orange Factory Music",
        "col3": "Jay Sean",
        "col4": "I'm All Yours"
    },
    {
        "col0": "Where Do I Go from You",
        "col1": "D. Cook",
        "col2": "Keith Stegall",
        "col3": "Clay Walker",
        "col4": "Like We Never Said Goodbye"
    },
    {
        "col0": "Where Do I Fit in the Picture",
        "col1": "C. Walker",
        "col2": "James Stroud",
        "col3": "Clay Walker",
        "col4": "Dreaming with My Eyes Open"
    },
    {
        "col0": "Where Do I Begin",
        "col1": "E. Simons",
        "col2": "The Chemical Brothers",
        "col3": "The Chemical Brothers",
        "col4": "Block Rockin' Beats"
    },
    {
        "col0": "Where Do Broken Hearts Go",
        "col1": "C. Jackson",
        "col2": "Narada Michael Walden",
        "col3": "Whitney Houston",
        "col4": "Love Will Save the Day"
    },
    {
        "col0": "Where Did the Feeling Go?",
        "col1": "M. Masser",
        "col2": "Michael Masser",
        "col3": "Selena",
        "col4": "Con Tanto Amor Medley"
    },
    {
        "col0": "Where Did We Go Wrong",
        "col1": "D. Allen",
        "col2": "Daryl Simmons",
        "col3": "BlackGirl",
        "col4": "Give Love on Christmas Day"
    },
    {
        "col0": "Where Did Our Love Go",
        "col1": "Holland-Dozier-Holland",
        "col2": "Lamont Dozier",
        "col3": "The Supremes",
        "col4": "Baby Love"
    },
    {
        "col0": "Where Did It All Go Wrong?",
        "col1": "N. Gallagher",
        "col2": "Noel Gallagher",
        "col3": "Oasis",
        "col4": "Who Feels Love?"
    },
    {
        "col0": "Where Did I Go Wrong",
        "col1": "S. Wariner",
        "col2": "Jimmy Bowen",
        "col3": "Steve Wariner",
        "col4": "I Got Dreams"
    },
    {
        "col0": "Where Did All the Love Go?",
        "col1": "S. Pizzorno",
        "col2": "Sergio Pizzorno",
        "col3": "Kasabian",
        "col4": "Underdog"
    },
    {
        "col0": "Where Are You Now",
        "col1": "C. Black",
        "col2": "James Stroud",
        "col3": "Clint Black",
        "col4": "We Tell Ourselves"
    },
    {
        "col0": "Where Are You Going",
        "col1": "D. Matthews",
        "col2": "Stephen Harris",
        "col3": "Dave Matthews Band",
        "col4": "Grace Is Gone"
    },
    {
        "col0": "Where Are We Runnin'?",
        "col1": "L. Kravitz",
        "col2": "Lenny Kravitz",
        "col3": "Lenny Kravitz",
        "col4": "California"
    },
    {
        "col0": "Where Are We Now?",
        "col1": "D. Bowie",
        "col2": "Tony Visconti",
        "col3": "David Bowie",
        "col4": "The Stars"
    },
    {
        "col0": "Where's the Playground Susie",
        "col1": "J. Webb",
        "col2": "Al DeLory",
        "col3": "Glen Campbell",
        "col4": "True Grit"
    },
    {
        "col0": "Where's Your Love",
        "col1": "F. T. Smith",
        "col2": "Fraser T Smith",
        "col3": "Craig David",
        "col4": "Insomnia"
    },
    {
        "col0": "Where's Your Head At",
        "col1": "G. Numan",
        "col2": "Basement Jaxx",
        "col3": "Basement Jaxx",
        "col4": "Get Me Off"
    },
    {
        "col0": "Where's Summer B.?",
        "col1": "B. Folds",
        "col2": "Caleb Southern",
        "col3": "Ben Folds Five",
        "col4": "Philosophy"
    },
    {
        "col0": "Where'd You Go",
        "col1": "M. Shinoda",
        "col2": "Mike Shinoda",
        "col3": "Fort Minor",
        "col4": "S.C.O.M. / Dolla / Get It / Spraypaint & Ink Pens"
    },
    {
        "col0": "Whenever You Need Somebody",
        "col1": "S. A. Waterman",
        "col2": "Stock Aitken Waterman",
        "col3": "Rick Astley",
        "col4": "When I Fall in Love"
    },
    {
        "col0": "Whenever You Need Me",
        "col1": "C. Decker",
        "col2": "Andy Richards",
        "col3": "T'Pau",
        "col4": "Walk on Air"
    },
    {
        "col0": "Whenever You Need Me",
        "col1": "L. Rafn",
        "col2": "Infernal",
        "col3": "Infernal",
        "col4": "Electric Light"
    },
    {
        "col0": "Whenever You're Near",
        "col1": "J. Blades",
        "col2": "Ron Nevison",
        "col3": "Cher",
        "col4": "Many Rivers to Cross"
    },
    {
        "col0": "Whenever There Is Love",
        "col1": "B. Roberts",
        "col2": "David Foster",
        "col3": "Donna Summer",
        "col4": "Con te partiro"
    },
    {
        "col0": "Whenever God Shines His Light",
        "col1": "V. Morrison",
        "col2": "Van Morrison",
        "col3": "Cliff Richard",
        "col4": "Orangefield"
    },
    {
        "col0": "When the Wind Blows",
        "col1": "D. Bowie",
        "col2": "David Richards",
        "col3": "David Bowie",
        "col4": "Day-In Day-Out"
    },
    {
        "col0": "When the War Is Over",
        "col1": "S. Prestwich",
        "col2": "Mark Opitz",
        "col3": "Cold Chisel",
        "col4": "Hold Me Tight"
    },
    {
        "col0": "When the Trickster Starts a-Poking",
        "col1": "E. Hutz",
        "col2": "Gogol Bordello",
        "col3": "Gogol Bordello",
        "col4": "Sally"
    },
    {
        "col0": "When the Tigers Broke Free",
        "col1": "R. Waters",
        "col2": "Michael Kamen",
        "col3": "Pink Floyd",
        "col4": "Not Now John"
    },
    {
        "col0": "When the Thought of You Catches Up with Me",
        "col1": "D. Ball",
        "col2": "Blake Chancey",
        "col3": "David Ball",
        "col4": "Look What Followed Me Home"
    },
    {
        "col0": "When the Sun Goes Down",
        "col1": "A. Turner",
        "col2": "Jim Abbiss",
        "col3": "Arctic Monkeys",
        "col4": "Leave Before the Lights Come On"
    },
    {
        "col0": "When the Shit Goes Down",
        "col1": "B-Real",
        "col2": "DJ Muggs",
        "col3": "Cypress Hill",
        "col4": "I Ain't Goin' Out Like That"
    },
    {
        "col0": "When the Money's Gone",
        "col1": "D. T. Weiss",
        "col2": "Bruce Roberts",
        "col3": "Cher",
        "col4": "Love One Another"
    },
    {
        "col0": "When the Lovelight Starts Shining Through His Eyes",
        "col1": "Holland-Dozier-Holland",
        "col2": "Lamont Dozier",
        "col3": "The Supremes",
        "col4": "Run, Run, Run"
    },
    {
        "col0": "When the Lights Go Out",
        "col1": "E. Kennedy",
        "col2": "Eliot Kennedy",
        "col3": "Five",
        "col4": "Got the Feelin'"
    },
    {
        "col0": "When the Heartache Is Over",
        "col1": "Nightcrawlers",
        "col2": "Mark Taylor",
        "col3": "Tina Turner",
        "col4": "Whatever You Need"
    }
]