[
    {
        "col0": "Relaciones peligrosas",
        "col1": "La casa de al lado",
        "col2": "A. Layevska",
        "col3": "-2760"
    },
    {
        "col0": "Refresh Man",
        "col1": "Bromance",
        "col2": "A. Yan",
        "col3": "5400"
    },
    {
        "col0": "Red Dwarf: Back to Earth",
        "col1": "Only the Good...",
        "col2": "C. Barrie",
        "col3": "1500"
    },
    {
        "col0": "Rebeca",
        "col1": "Gata Salvaje",
        "col2": "M. Seoane",
        "col3": "2700"
    },
    {
        "col0": "Rear Mirror",
        "col1": "Ghost Dragon of Cold Mountain",
        "col2": "N. Tong",
        "col3": "2700"
    },
    {
        "col0": "Reality Check",
        "col1": "The Day of Days",
        "col2": "M. Cheung-ching",
        "col3": "2700"
    },
    {
        "col0": "Real World/Road Rules Extreme Challenge",
        "col1": "Real World/Road Rules Challenge 2000",
        "col2": "J. Stoffer",
        "col3": "1800"
    },
    {
        "col0": "Real World/Road Rules Challenge 2000",
        "col1": "Real World/Road Rules Challenge",
        "col2": "V. Portillo",
        "col3": "1800"
    },
    {
        "col0": "Real World/Road Rules Challenge: The Ruins",
        "col1": "Real World/Road Rules Challenge: The Duel II",
        "col2": "E. Starkman",
        "col3": "3600"
    },
    {
        "col0": "Real World/Road Rules Challenge: The Inferno 3",
        "col1": "Real World/Road Rules Challenge: The Duel",
        "col2": "T. Cooley",
        "col3": "1800"
    },
    {
        "col0": "Real World/Road Rules Challenge: The Gauntlet III",
        "col1": "Real World/Road Rules Challenge: The Inferno 3",
        "col2": "T. Hall",
        "col3": "3600"
    },
    {
        "col0": "Real World/Road Rules Challenge: The Duel II",
        "col1": "Real World/Road Rules Challenge: The Island",
        "col2": "E. Starkman",
        "col3": "3600"
    },
    {
        "col0": "Real Chance of Love",
        "col1": "Real Chance of Love",
        "col2": "K. Givens",
        "col3": "3600"
    },
    {
        "col0": "Real Chance of Love",
        "col1": "I Love New York",
        "col2": "K. Givens",
        "col3": "3600"
    },
    {
        "col0": "Real Chance of Love",
        "col1": "I Love New York",
        "col2": "K. Givens",
        "col3": "-2880"
    },
    {
        "col0": "Random! Cartoons",
        "col1": "Oh Yeah! Cartoons",
        "col2": "V. actors",
        "col3": "420"
    },
    {
        "col0": "Ramona",
        "col1": "Tres mujeres",
        "col2": "R. Strickler",
        "col3": "-2640"
    },
    {
        "col0": "Rajakumari",
        "col1": "Thangam",
        "col2": "S. Babu",
        "col3": "-1320"
    },
    {
        "col0": "Rain on the Roof",
        "col1": "Blade on the Feather",
        "col2": "C. Campbell",
        "col3": "4920"
    },
    {
        "col0": "Rafaela",
        "col1": "Para volver a amar",
        "col2": "J. Poza",
        "col3": "-2700"
    },
    {
        "col0": "RadyoBisyon",
        "col1": "Balitaan",
        "col2": "A. Bendijo",
        "col3": "3600"
    },
    {
        "col0": "Rachel Allen: Bake!",
        "col1": "Nationwide",
        "col2": "R. Allen",
        "col3": "1800"
    },
    {
        "col0": "Rab C. Nesbitt",
        "col1": "Naked Video",
        "col2": "G. Fisher",
        "col3": "-3000"
    },
    {
        "col0": "RI:SE",
        "col1": "The Big Breakfast",
        "col2": "C. Murray",
        "col3": "8100"
    },
    {
        "col0": "Que pobres tan ricos",
        "col1": "Libre para amarte",
        "col2": "J. Camil",
        "col3": "-2700"
    },
    {
        "col0": "Que bonito amor",
        "col1": "Amor bravio",
        "col2": "P. Montero",
        "col3": "-2700"
    },
    {
        "col0": "Quiereme tonto",
        "col1": "Pobre Diabla",
        "col2": "Yahir",
        "col3": "2520"
    },
    {
        "col0": "Quiereme siempre",
        "col1": "Al rojo vivo",
        "col2": "U. Prats",
        "col3": "-1320"
    },
    {
        "col0": "Quinceanera",
        "col1": "Senda de gloria",
        "col2": "A. Noriega",
        "col3": "-2640"
    },
    {
        "col0": "Quiero amarte",
        "col1": "Mentir para Vivir",
        "col2": "A. Barros",
        "col3": "-2700"
    },
    {
        "col0": "Quiereme tonto",
        "col1": "Pobre Diabla",
        "col2": "Yahir",
        "col3": "2520"
    },
    {
        "col0": "Quiereme siempre",
        "col1": "Al rojo vivo",
        "col2": "V. Ruffo",
        "col3": "-1320"
    },
    {
        "col0": "Quest for the Bay",
        "col1": "Pioneer Quest: A Year in the Real West",
        "col2": "R. Schick",
        "col3": "3000"
    },
    {
        "col0": "Querida Enemiga",
        "col1": "Palabra de mujer",
        "col2": "G. Soto",
        "col3": "-2640"
    },
    {
        "col0": "Quererte asi",
        "col1": "Huerfanas",
        "col2": "B. Paz",
        "col3": "-2580"
    },
    {
        "col0": "Queen of the Office",
        "col1": "Ad Genius Lee Tae-baek",
        "col2": "O. Ji-ho",
        "col3": "1320"
    },
    {
        "col0": "Queen Divas",
        "col1": "Coffee Cat Mama",
        "col2": "A. Tong",
        "col3": "2700"
    },
    {
        "col0": "Quatermass and the Pit",
        "col1": "Quatermass II",
        "col2": "A. Morell",
        "col3": "2100"
    },
    {
        "col0": "Quatermass II",
        "col1": "The Quatermass Experiment",
        "col2": "H. Griffith",
        "col3": "1800"
    },
    {
        "col0": "Quatermass",
        "col1": "Quatermass and the Pit",
        "col2": "J. Mills",
        "col3": "3000"
    },
    {
        "col0": "Que pobres tan ricos",
        "col1": "Libre para amarte",
        "col2": "J. Camil",
        "col3": "-2700"
    },
    {
        "col0": "Que bonito amor",
        "col1": "Amor bravio",
        "col2": "P. Montero",
        "col3": "-2700"
    },
    {
        "col0": "Qianlong Dynasty",
        "col1": "Kangxi Dynasty",
        "col2": "Z. Xiaoqing",
        "col3": "2700"
    },
    {
        "col0": "Pe na Jaca",
        "col1": "Cobras & Lagartos",
        "col2": "F. Lima",
        "col3": "2700"
    },
    {
        "col0": "Patria Minha",
        "col1": "Fera Ferida",
        "col2": "I. Ribeiro",
        "col3": "3000"
    },
    {
        "col0": "Paginas da Vida",
        "col1": "Belissima",
        "col2": "R. Duarte",
        "col3": "3000"
    },
    {
        "col0": "Python Night - 30 Years of Monty Python",
        "col1": "Monty Python Live At Aspen",
        "col2": "T. Gilliam",
        "col3": "7320"
    },
    {
        "col0": "Pure in Heart",
        "col1": "Bizarre Bunch",
        "col2": "K. Hye-sun",
        "col3": "1225"
    },
    {
        "col0": "Pure Pumpkin Flower",
        "col1": "Three Sisters",
        "col2": "L. Chung-ah",
        "col3": "1155"
    },
    {
        "col0": "Punch",
        "col1": "Secret Door",
        "col2": "K. Rae-won",
        "col3": "1315"
    },
    {
        "col0": "Pumpkinhead: Blood Feud",
        "col1": "Pumpkinhead: Ashes to Ashes",
        "col2": "L. Henriksen",
        "col3": "5700"
    },
    {
        "col0": "Pumpkinhead: Ashes to Ashes",
        "col1": "Pumpkinhead II: Blood Wings",
        "col2": "L. Henriksen",
        "col3": "5460"
    },
    {
        "col0": "Pulso: Aksyon Balita",
        "col1": "ABS-CBN News Channel",
        "col2": "K. Sanchez",
        "col3": "900"
    },
    {
        "col0": "Pueblo chico, infierno grande",
        "col1": "Te sigo amando",
        "col2": "V. Castro",
        "col3": "-1320"
    },
    {
        "col0": "Psycho IV: The Beginning",
        "col1": "Psycho III",
        "col2": "A. Perkins",
        "col3": "5760"
    },
    {
        "col0": "Profugas del destino",
        "col1": "Vidas Robadas",
        "col2": "J. A. Llamas",
        "col3": "2520"
    },
    {
        "col0": "Prosperity",
        "col1": "Breakout",
        "col2": "A. Tan",
        "col3": "2700"
    },
    {
        "col0": "Prosecutor Princess",
        "col1": "OB & GY",
        "col2": "K. So-yeon",
        "col3": "1315"
    },
    {
        "col0": "Pros and Cons",
        "col1": "Gabriel's Fire",
        "col2": "M. Sinclair",
        "col3": "3600"
    },
    {
        "col0": "Project Runway Australia",
        "col1": "Project Runway Australia",
        "col2": "P. Morrissey",
        "col3": "3600"
    },
    {
        "col0": "Project Runway Australia",
        "col1": "Project Runway Australia",
        "col2": "K. Hinze",
        "col3": "3600"
    },
    {
        "col0": "Prohibido amar",
        "col1": "Secretos de Familia",
        "col2": "A. Telch",
        "col3": "-3900"
    },
    {
        "col0": "Problem Child 3: Junior in Love",
        "col1": "Problem Child 2",
        "col2": "G. Gottfried",
        "col3": "5220"
    },
    {
        "col0": "Priyasaki",
        "col1": "Indian Standard Time",
        "col2": "M. Kurian",
        "col3": "-1320"
    },
    {
        "col0": "Prison Break: The Final Break",
        "col1": "Killing Your Number",
        "col2": "W. Fichtner",
        "col3": "5340"
    },
    {
        "col0": "Prisionera de amor",
        "col1": "Mas alla del puente",
        "col2": "M. Guardia",
        "col3": "-2640"
    },
    {
        "col0": "Prisionera",
        "col1": "Amor Descarado",
        "col2": "G. Spanic",
        "col3": "-3000"
    },
    {
        "col0": "Prince of Wolf",
        "col1": "Refresh Man",
        "col2": "MC40",
        "col3": "5400"
    },
    {
        "col0": "Prince Caspian/The Voyage of the Dawn Treader",
        "col1": "The Lion, the Witch and the Wardrobe",
        "col2": "W. Davis",
        "col3": "-1680"
    },
    {
        "col0": "Prince + Princess 2",
        "col1": "Miss No Good",
        "col2": "D. Kuo",
        "col3": "5700"
    },
    {
        "col0": "Primeval: New World",
        "col1": "Primeval",
        "col2": "A. Potts",
        "col3": "2520"
    },
    {
        "col0": "Primer amor, a mil por hora",
        "col1": "Locura de amor",
        "col2": "Anahi",
        "col3": "-2640"
    },
    {
        "col0": "Prime Minister and I",
        "col1": "Marry Him If You Dare",
        "col2": "Y. Shi-yoon",
        "col3": "1320"
    },
    {
        "col0": "Priceless Wonder",
        "col1": "Happy Family",
        "col2": "A. Tern",
        "col3": "2700"
    },
    {
        "col0": "President",
        "col1": "The Fugitive: Plan B",
        "col2": "C. Soo-jong",
        "col3": "1265"
    },
    {
        "col0": "Precious Babes",
        "col1": "With You",
        "col2": "A. Tern",
        "col3": "2700"
    },
    {
        "col0": "Preciosas",
        "col1": "Veinteanero a los 40",
        "col2": "P. Bascunan",
        "col3": "3600"
    },
    {
        "col0": "Preciosa",
        "col1": "Mi pequena traviesa",
        "col2": "F. Gattorno",
        "col3": "-2640"
    },
    {
        "col0": "Pranked",
        "col1": "The CollegeHumor Show",
        "col2": "A. Blumenfeld",
        "col3": "1440"
    },
    {
        "col0": "Profugas del destino",
        "col1": "Vidas Robadas",
        "col2": "J. A. Llamas",
        "col3": "2520"
    },
    {
        "col0": "Power Rangers in Space",
        "col1": "Power Rangers Turbo",
        "col2": "J. Narvy",
        "col3": "1200"
    },
    {
        "col0": "Power Rangers Zeo",
        "col1": "Mighty Morphin Alien Rangers",
        "col2": "J. Narvy",
        "col3": "-1260"
    },
    {
        "col0": "Power Rangers Wild Force",
        "col1": "Power Rangers Time Force",
        "col2": "J. Rey",
        "col3": "1200"
    },
    {
        "col0": "Power Rangers Turbo",
        "col1": "Power Rangers Zeo",
        "col2": "J. Narvy",
        "col3": "-1260"
    },
    {
        "col0": "Power Rangers Time Force",
        "col1": "Power Rangers Lightspeed Rescue",
        "col2": "E. Albert",
        "col3": "1200"
    },
    {
        "col0": "Power Rangers Samurai",
        "col1": "Mighty Morphin Power Rangers",
        "col2": "B. A. Pirtle",
        "col3": "1380"
    },
    {
        "col0": "Power Rangers S.P.D.",
        "col1": "Power Rangers Dino Thunder",
        "col2": "B. J. McLaren",
        "col3": "1320"
    },
    {
        "col0": "Power Rangers RPM",
        "col1": "Power Rangers Jungle Fury",
        "col2": "M. Cawthorne",
        "col3": "1320"
    },
    {
        "col0": "Power Rangers Operation Overdrive",
        "col1": "Power Rangers Mystic Force",
        "col2": "G. Yuen",
        "col3": "1320"
    },
    {
        "col0": "Power Rangers Ninja Storm",
        "col1": "Power Rangers Wild Force",
        "col2": "G. McMillan",
        "col3": "-1260"
    },
    {
        "col0": "Power Rangers Mystic Force",
        "col1": "Power Rangers S.P.D.",
        "col2": "R. Brancatisano",
        "col3": "1320"
    }
]