[
    {
        "col0": "Speak",
        "col1": "Laurie Halse Anderson",
        "col2": "K. Stewart",
        "col3": "J. Sharzer"
    },
    {
        "col0": "Sorority House",
        "col1": "Mary Coyle Chase",
        "col2": "A. Shirley",
        "col3": "J. Farrow"
    },
    {
        "col0": "Sophia Loren: Her Own Story",
        "col1": "A.E. Hotchner",
        "col2": "J. Gavin",
        "col3": "M. Stuart"
    },
    {
        "col0": "Song of the West",
        "col1": "Oscar Hammerstein II",
        "col2": "V. Segal",
        "col3": "R. Enright"
    },
    {
        "col0": "Song of the South",
        "col1": "Joel Chandler Harris",
        "col2": "H. McDaniel",
        "col3": "W. Jackson"
    },
    {
        "col0": "Song of Summer",
        "col1": "Eric Fenby",
        "col2": "M. Adrian",
        "col3": "K. Russell"
    },
    {
        "col0": "Son of the Pink Panther",
        "col1": "Blake Edwards",
        "col2": "C. Cardinale",
        "col3": "B. Edwards"
    },
    {
        "col0": "Somewhere in Time",
        "col1": "Bid Time Return",
        "col2": "C. Reeve",
        "col3": "J. Szwarc"
    },
    {
        "col0": "Something's Got to Give",
        "col1": "Samuel and Bella Spewack",
        "col2": "M. Monroe",
        "col3": "G. Cukor"
    },
    {
        "col0": "Some Girls Do",
        "col1": "Bulldog Drummond",
        "col2": "M. Denham",
        "col3": "R. Thomas"
    },
    {
        "col0": "Solomon and Sheba",
        "col1": "Books of Chronicles",
        "col2": "G. Lollobrigida",
        "col3": "K. Vidor"
    },
    {
        "col0": "Solomon Kane",
        "col1": "Robert E. Howard",
        "col2": "M. v. Sydow",
        "col3": "M. J. Bassett"
    },
    {
        "col0": "Soldiers and Women",
        "col1": "George Tilton",
        "col2": "A. Pringle",
        "col3": "E. Sloman"
    },
    {
        "col0": "Soldiers Three",
        "col1": "Rudyard Kipling",
        "col2": "S. Granger",
        "col3": "T. Garnett"
    },
    {
        "col0": "So This Is Paris",
        "col1": "Ludovic Halevy",
        "col2": "M. Blue",
        "col3": "E. Lubitsch"
    },
    {
        "col0": "So Long Letty",
        "col1": "Oliver Morosco",
        "col2": "C. Greenwood",
        "col3": "L. Bacon"
    },
    {
        "col0": "So Dear to My Heart",
        "col1": "Sterling North",
        "col2": "B. Ives",
        "col3": "H. D. Schuster"
    },
    {
        "col0": "Snowtown",
        "col1": "Snowtown murders",
        "col2": "D. Henshall",
        "col3": "J. Kurzel"
    },
    {
        "col0": "Snow White and the Three Stooges",
        "col1": "Snow White",
        "col2": "P. Medina",
        "col3": "W. Lang"
    },
    {
        "col0": "Snow White",
        "col1": "Snow White",
        "col2": "D. Rigg",
        "col3": "M. Berz"
    },
    {
        "col0": "Snow Country",
        "col1": "Snow Country",
        "col2": "K. Yachigusa",
        "col3": "S. Toyoda"
    },
    {
        "col0": "Sniper 3",
        "col1": "Michael Frost Beckner",
        "col2": "T. Berenger",
        "col3": "P. Pesce"
    },
    {
        "col0": "Sniper 2",
        "col1": "Michael Frost Beckner",
        "col2": "B. Woodbine",
        "col3": "C. R. Baxley"
    },
    {
        "col0": "Sniper: Reloaded",
        "col1": "Michael Frost Beckner",
        "col2": "B. Zane",
        "col3": "C. Fah"
    },
    {
        "col0": "Sniper: Legacy",
        "col1": "Michael Frost Beckner",
        "col2": "T. Berenger",
        "col3": "D. M. Paul"
    },
    {
        "col0": "Sniper: Ghost Shooter",
        "col1": "Michael Frost Beckner",
        "col2": "B. Zane",
        "col3": "D. M. Paul"
    },
    {
        "col0": "Smosh: The Movie",
        "col1": "Smosh",
        "col2": "M. I. Black",
        "col3": "A. Winter"
    },
    {
        "col0": "Smoky",
        "col1": "Will James",
        "col2": "F. Parker",
        "col3": "G. Sherman"
    },
    {
        "col0": "Smoky",
        "col1": "Will James",
        "col2": "B. Cabot",
        "col3": "L. King"
    },
    {
        "col0": "Smithy",
        "col1": "Ken G. Hall",
        "col2": "R. Randell",
        "col3": "K. G. Hall"
    },
    {
        "col0": "Smashing Barriers",
        "col1": "Cyrus Townsend Brady",
        "col2": "W. Duncan",
        "col3": "W. Duncan"
    },
    {
        "col0": "Sliver",
        "col1": "Ira Levin",
        "col2": "S. Stone",
        "col3": "P. Noyce"
    },
    {
        "col0": "Sling Blade",
        "col1": "Some Folks Call It a Sling Blade",
        "col2": "B. B. Thornton",
        "col3": "B. B. Thornton"
    },
    {
        "col0": "Sleeping Car to Trieste",
        "col1": "Clifford Grey",
        "col2": "R. Anderson",
        "col3": "J. P. Carstairs"
    },
    {
        "col0": "Sleeping Beauty",
        "col1": "Sleeping Beauty",
        "col2": "V. Felton",
        "col3": "E. Larson"
    },
    {
        "col0": "Slaves of Beauty",
        "col1": "Nina Wilcox Putnam",
        "col2": "E. Foxe",
        "col3": "J. G. Blystone"
    },
    {
        "col0": "Skyline",
        "col1": "Felix Riesenberg",
        "col2": "T. Meighan",
        "col3": "S. Taylor"
    },
    {
        "col0": "Skullduggery",
        "col1": "Les Animaux denatures",
        "col2": "B. Reynolds",
        "col3": "G. Douglas"
    },
    {
        "col0": "Skin Deep",
        "col1": "Marc Edmund Jones",
        "col2": "M. Blue",
        "col3": "R. Enright"
    },
    {
        "col0": "Skin Deep",
        "col1": "Marc Edmund Jones",
        "col2": "M. Sills",
        "col3": "L. Hillyer"
    },
    {
        "col0": "Sixth Happiness",
        "col1": "Trying to Grow",
        "col2": "N. Wadia",
        "col3": "W. Hussein"
    },
    {
        "col0": "Six Cylinder Love",
        "col1": "William Anthony McGuire",
        "col2": "F. Eldridge",
        "col3": "E. Clifton"
    },
    {
        "col0": "Six Bridges to Cross",
        "col1": "Joseph F. Dinneen",
        "col2": "T. Curtis",
        "col3": "J. Pevney"
    },
    {
        "col0": "Siva Rama Raju",
        "col1": "Samudhiram",
        "col2": "Laya",
        "col3": "V. Samudra"
    },
    {
        "col0": "Siren of Atlantis",
        "col1": "Atlantida",
        "col2": "J. Aumont",
        "col3": "G. G. Tallas"
    },
    {
        "col0": "Sins of Jezebel",
        "col1": "Books of Chronicles",
        "col2": "P. Goddard",
        "col3": "R. L. Borg"
    },
    {
        "col0": "Singhasan",
        "col1": "Simhasanam",
        "col2": "Mandakini",
        "col3": "Krishna"
    },
    {
        "col0": "Singham",
        "col1": "Singam",
        "col2": "A. Devgn",
        "col3": "R. Shetty"
    },
    {
        "col0": "Sinbad of the Seven Seas",
        "col1": "Sinbad the Sailor",
        "col2": "L. Ferrigno",
        "col3": "L. Cozzi"
    },
    {
        "col0": "Sinbad and the Eye of the Tiger",
        "col1": "Sinbad the Sailor",
        "col2": "J. Seymour",
        "col3": "S. Wanamaker"
    },
    {
        "col0": "Sinbad: Legend of the Seven Seas",
        "col1": "Sinbad the Sailor",
        "col2": "B. Pitt",
        "col3": "T. Johnson"
    },
    {
        "col0": "Sinbad: Beyond the Veil of Mists",
        "col1": "Sinbad the Sailor",
        "col2": "B. Fraser",
        "col3": "A. Jacobs"
    },
    {
        "col0": "Simhadriya Simha",
        "col1": "Nattamai",
        "col2": "Umashree",
        "col3": "S. Narayan"
    },
    {
        "col0": "Simha Swapnam",
        "col1": "Khatron Ke Khiladi",
        "col2": "K. Raju",
        "col3": "V. M. Rao"
    },
    {
        "col0": "Silver Bullet",
        "col1": "Cycle of the Werewolf",
        "col2": "G. Busey",
        "col3": "D. Attias"
    },
    {
        "col0": "Silks and Saddles",
        "col1": "John Cosgrove",
        "col2": "A. Vernon",
        "col3": "J. K. Wells"
    },
    {
        "col0": "Sign of the Pagan",
        "col1": "Oscar Brodney",
        "col2": "J. Palance",
        "col3": "D. Sirk"
    },
    {
        "col0": "Sightings: Heartland Ghost",
        "col1": "Sightings",
        "col2": "T. Gill",
        "col3": "B. Trenchard-Smith"
    },
    {
        "col0": "Siddham",
        "col1": "Ab Tak Chhappan",
        "col2": "S. Menon",
        "col3": "J. D. Chakravarthy"
    },
    {
        "col0": "Shogun",
        "col1": "Shogun",
        "col2": "T. Mifune",
        "col3": "J. London"
    },
    {
        "col0": "Shri Ram Bhakta Hanuman",
        "col1": "Valmiki Ramayana",
        "col2": "S. N. Tripathi",
        "col3": "H. Wadia"
    },
    {
        "col0": "Shri Krishna Leela",
        "col1": "Lord Krishna",
        "col2": "Sachin",
        "col3": "H. Wadia"
    },
    {
        "col0": "Shourya",
        "col1": "Souryam",
        "col2": "Darshan",
        "col3": "S. Kokila"
    },
    {
        "col0": "Shogun Assassin",
        "col1": "Goseki Kojima",
        "col2": "T. Wakayama",
        "col3": "R. Houston"
    },
    {
        "col0": "Shoes",
        "col1": "Jane Addams",
        "col2": "M. MacLaren",
        "col3": "L. Weber"
    },
    {
        "col0": "Shivalinga",
        "col1": "Shivalinga",
        "col2": "R. Lawrence",
        "col3": "P. Vasu"
    },
    {
        "col0": "Sherlock Holmes Faces Death",
        "col1": "Sir Arthur Conan Doyle",
        "col2": "B. Rathbone",
        "col3": "R. W. Neill"
    },
    {
        "col0": "Sheepmates",
        "col1": "William Hatfield",
        "col2": "F. Harvey",
        "col3": "F. W. Thring"
    },
    {
        "col0": "Shed No Tears",
        "col1": "Hakan Hellstrom",
        "col2": "M. Richardson",
        "col3": "M. Marlind"
    },
    {
        "col0": "She Shall Have Murder",
        "col1": "Delano Ames",
        "col2": "D. D. Marney",
        "col3": "D. Birt"
    },
    {
        "col0": "She Knows Y'Know",
        "col1": "Kate Sullivan",
        "col2": "H. Baker",
        "col3": "M. Tully"
    },
    {
        "col0": "She's the Man",
        "col1": "Twelfth Night",
        "col2": "C. Tatum",
        "col3": "A. Fickman"
    },
    {
        "col0": "Shattered Glass",
        "col1": "Buzz Bissinger",
        "col2": "H. Azaria",
        "col3": "B. Ray"
    },
    {
        "col0": "Shahid",
        "col1": "Shahid Azmi",
        "col2": "T. Dhulia",
        "col3": "H. Mehta"
    },
    {
        "col0": "Shaheed-e-Mohabbat Boota Singh",
        "col1": "Boota Singh",
        "col2": "G. Maan",
        "col3": "M. Punj"
    },
    {
        "col0": "Shaft's Big Score",
        "col1": "Ernest Tidyman",
        "col2": "M. Gunn",
        "col3": "G. Parks"
    },
    {
        "col0": "Shaadi Ke Baad",
        "col1": "Pelli Chesi Choodu",
        "col2": "Raakhee",
        "col3": "L. Prasad"
    },
    {
        "col0": "Shogun",
        "col1": "Shogun",
        "col2": "T. Mifune",
        "col3": "J. London"
    },
    {
        "col0": "Sh! The Octopus",
        "col1": "Donald Gallaher",
        "col2": "A. Jenkins",
        "col3": "W. McGann"
    },
    {
        "col0": "Seven Sinners",
        "col1": "The Wrecker",
        "col2": "C. Cummings",
        "col3": "A. d. Courville"
    },
    {
        "col0": "Seven Keys to Baldpate",
        "col1": "Seven Keys to Baldpate",
        "col2": "P. Terry",
        "col3": "L. Landers"
    },
    {
        "col0": "Seven Keys to Baldpate",
        "col1": "Earl Derr Biggers",
        "col2": "G. Raymond",
        "col3": "E. Killy"
    },
    {
        "col0": "Seven Keys to Baldpate",
        "col1": "Earl Derr Biggers",
        "col2": "R. Dix",
        "col3": "R. Barker"
    },
    {
        "col0": "Seven Keys to Baldpate",
        "col1": "Earl Derr Biggers",
        "col2": "C. Villiers",
        "col3": "M. Luke"
    },
    {
        "col0": "Seven Footprints to Satan",
        "col1": "Abraham Merritt",
        "col2": "T. Todd",
        "col3": "B. Christensen"
    },
    {
        "col0": "Seven Days in May",
        "col1": "Fletcher Knebel",
        "col2": "A. Gardner",
        "col3": "J. Frankenheimer"
    },
    {
        "col0": "Seven Brides for Seven Brothers",
        "col1": "Stephen Vincent Benet",
        "col2": "H. Keel",
        "col3": "S. Donen"
    },
    {
        "col0": "Sensational Janine",
        "col1": "Josephine Mutzenbacher",
        "col2": "P. Rhomberg",
        "col3": "H. Billian"
    },
    {
        "col0": "Sensation Seekers",
        "col1": "Ernest Pascal",
        "col2": "B. Dove",
        "col3": "L. Weber"
    },
    {
        "col0": "Seenu",
        "col1": "Sollamale",
        "col2": "D. Venkatesh",
        "col3": "Sasi"
    },
    {
        "col0": "Secret Window",
        "col1": "Stephen King",
        "col2": "J. Turturro",
        "col3": "D. Koepp"
    },
    {
        "col0": "Scrooged",
        "col1": "Charles Dickens",
        "col2": "J. Forsythe",
        "col3": "R. Donner"
    },
    {
        "col0": "Science Ninja Team Gatchaman: The Movie",
        "col1": "Science Ninja Team Gatchaman",
        "col2": "I. Sasaki",
        "col3": "H. Toriumi"
    },
    {
        "col0": "School for Love",
        "col1": "Vicki Baum",
        "col2": "B. Bardot",
        "col3": "M. Allegret"
    },
    {
        "col0": "Scary Movie 3",
        "col1": "Marlon Wayans",
        "col2": "A. Anderson",
        "col3": "D. Zucker"
    },
    {
        "col0": "Scarabea: How Much Land Does a Man Need?",
        "col1": "How Much Land Does a Man Need?",
        "col2": "N. Machiavelli",
        "col3": "H. Syberberg"
    },
    {
        "col0": "Save the Lady",
        "col1": "Yoram Gross",
        "col2": "B. Kerr",
        "col3": "L. Thau"
    },
    {
        "col0": "Savage Souls",
        "col1": "Les Ames fortes",
        "col2": "L. Casta",
        "col3": "R. Ruiz"
    },
    {
        "col0": "Savage Sam",
        "col1": "Savage Sam",
        "col2": "B. Keith",
        "col3": "N. Tokar"
    },
    {
        "col0": "Sathyavan Savithri",
        "col1": "Cactus Flower",
        "col2": "R. Aravind",
        "col3": "R. Arvind"
    },
    {
        "col0": "Satanas",
        "col1": "Satanas",
        "col2": "D. Alcazar",
        "col3": "A. Baiz"
    },
    {
        "col0": "Sarfarosh",
        "col1": "Sardar Papa Rayudu",
        "col2": "Sridevi",
        "col3": "D. N. Rao"
    },
    {
        "col0": "Sardukupodaam Randi",
        "col1": "Pelli Naati Pramanalu",
        "col2": "Soundarya",
        "col3": "S. V. Krishna Reddy"
    },
    {
        "col0": "Saraba Abunai Deka",
        "col1": "Abunai Deka",
        "col2": "H. Tachi",
        "col3": "T. Murakawa"
    },
    {
        "col0": "Sant Dnyaneshwar",
        "col1": "Jnanesvar",
        "col2": "S. Modak",
        "col3": "V. G. Damle"
    },
    {
        "col0": "Sankranti",
        "col1": "Aanandham",
        "col2": "Sneha",
        "col3": "M. Shiva"
    },
    {
        "col0": "Sanjog",
        "col1": "Jeevana Jyothi",
        "col2": "J. Prada",
        "col3": "K. Vishwanath"
    },
    {
        "col0": "Sandokan the Great",
        "col1": "Emilio Salgari",
        "col2": "S. Reeves",
        "col3": "U. Lenzi"
    }
]