[
    {
        "col0": "T. Katori",
        "col1": "Japanese people",
        "col2": "2015-10-12",
        "col3": "600"
    },
    {
        "col0": "S. Cadro",
        "col1": "Hungarian people",
        "col2": "2000-3-21",
        "col3": "20"
    },
    {
        "col0": "M. Morrison",
        "col1": "Caucasian Race",
        "col2": "2006-12-22",
        "col3": "109"
    },
    {
        "col0": "M. Leigh",
        "col1": "Caucasian race",
        "col2": "1990-06-16",
        "col3": "147"
    },
    {
        "col0": "L. Ferrari",
        "col1": "France",
        "col2": "2000-03-05",
        "col3": "9"
    },
    {
        "col0": "L. D. Leeuw",
        "col1": "White people",
        "col2": "1993-11-11",
        "col3": "262"
    },
    {
        "col0": "L. D. Mae",
        "col1": "Czechs",
        "col2": "2004-12-09",
        "col3": "193"
    },
    {
        "col0": "K. Marshall",
        "col1": "White people",
        "col2": "1988-10-10",
        "col3": "4"
    },
    {
        "col0": "K. Lancaume",
        "col1": "Caucasian race",
        "col2": "2005-01-28",
        "col3": "40"
    },
    {
        "col0": "K. Dior",
        "col1": "White people",
        "col2": "2004-08-25",
        "col3": "120"
    },
    {
        "col0": "J. Holliday",
        "col1": "Caucasian Race",
        "col2": "2004-12-15",
        "col3": "52"
    },
    {
        "col0": "J. Gillis",
        "col1": "Dutch people",
        "col2": "2010-02-19",
        "col3": "700"
    },
    {
        "col0": "H. Paige",
        "col1": "Mexican people",
        "col2": "2007-08-21",
        "col3": "417"
    },
    {
        "col0": "E. Rhodes",
        "col1": "Caucasian race",
        "col2": "2012-06-14",
        "col3": "38"
    },
    {
        "col0": "C. Royalle",
        "col1": "Cherokee",
        "col2": "2015-09-07",
        "col3": "17"
    },
    {
        "col0": "B. Seven",
        "col1": "United States",
        "col2": "2000-01-15",
        "col3": "107"
    },
    {
        "col0": "A. Jordan",
        "col1": "Whites",
        "col2": "1995-07-02",
        "col3": "251"
    },
    {
        "col0": "Aja",
        "col1": "Caucasian race",
        "col2": "2006-09-18",
        "col3": "17"
    }
]