[
    {
        "col0": "Italian submarine Uebi Scebeli",
        "col1": "680000000",
        "col2": "1937-10-03",
        "col3": "4",
        "col4": "6"
    },
    {
        "col0": "Italian submarine Flutto",
        "col1": "930000000",
        "col2": "1942-11-19",
        "col3": "4",
        "col4": "6"
    },
    {
        "col0": "Italian submarine Durbo",
        "col1": "680000000",
        "col2": "1938-03-06",
        "col3": "4",
        "col4": "6"
    },
    {
        "col0": "Italian submarine Comandante FaA  di Bruno",
        "col1": "1043000000",
        "col2": "1939-06-18",
        "col3": "5",
        "col4": "7"
    },
    {
        "col0": "Italian submarine Berillo",
        "col1": "680000000",
        "col2": "1936-06-14",
        "col3": "4",
        "col4": "6"
    },
    {
        "col0": "Italian submarine Axum",
        "col1": "680000000",
        "col2": "1936-09-27",
        "col3": "4",
        "col4": "6"
    },
    {
        "col0": "Italian submarine Archimede",
        "col1": "1000000000",
        "col2": "1939-03-05",
        "col3": "4",
        "col4": "6"
    },
    {
        "col0": "Italian destroyer Caio Duilio",
        "col1": "7050000000",
        "col2": "2007-10-23",
        "col3": "7",
        "col4": "20"
    },
    {
        "col0": "Italian destroyer Audace",
        "col1": "922000000",
        "col2": "1916-09-27",
        "col3": "2",
        "col4": "8"
    },
    {
        "col0": "Italian destroyer Andrea Doria",
        "col1": "7050000000",
        "col2": "2005-10-14",
        "col3": "7",
        "col4": "20"
    },
    {
        "col0": "Italian cruiser Vettor Pisani",
        "col1": "6614000000",
        "col2": "1895-08-14",
        "col3": "7",
        "col4": "18"
    },
    {
        "col0": "Italian cruiser Gorizia",
        "col1": "11712000000",
        "col2": "1930-12-28",
        "col3": "7",
        "col4": "20"
    },
    {
        "col0": "Italian cruiser Carlo Alberto",
        "col1": "6397000000",
        "col2": "1896-09-23",
        "col3": "7",
        "col4": "18"
    },
    {
        "col0": "INS Visakhapatnam",
        "col1": "7500000000",
        "col2": "2015-04-20",
        "col3": "6",
        "col4": "17"
    },
    {
        "col0": "INS Mormugao",
        "col1": "7300000000",
        "col2": "2016-09-17",
        "col3": "6",
        "col4": "17"
    },
    {
        "col0": "INS Kalvari",
        "col1": "1565000000",
        "col2": "2015-04-06",
        "col3": "5",
        "col4": "6"
    },
    {
        "col0": "HSwMS Visby",
        "col1": "650000000",
        "col2": "2000-06-08",
        "col3": "2",
        "col4": "10"
    },
    {
        "col0": "HSwMS Tirfing",
        "col1": "1511000000",
        "col2": "1866-06-01",
        "col3": "3",
        "col4": "13"
    },
    {
        "col0": "HSwMS Thordon",
        "col1": "1501000000",
        "col2": "1865-12-01",
        "col3": "3",
        "col4": "13"
    },
    {
        "col0": "HSwMS Smaland",
        "col1": "3344000000",
        "col2": "1952-10-23",
        "col3": "4",
        "col4": "12"
    },
    {
        "col0": "HSwMS Loke",
        "col1": "1594000000",
        "col2": "1869-09-04",
        "col3": "3",
        "col4": "14"
    },
    {
        "col0": "HSwMS John Ericsson",
        "col1": "1522000000",
        "col2": "1865-03-17",
        "col3": "3",
        "col4": "13"
    },
    {
        "col0": "HSwMS Helsingborg",
        "col1": "650000000",
        "col2": "2003-06-27",
        "col3": "2",
        "col4": "10"
    },
    {
        "col0": "HSwMS Carlskrona",
        "col1": "3800000000",
        "col2": "1980-06-28",
        "col3": "4",
        "col4": "15"
    },
    {
        "col0": "HNLMS Medusa",
        "col1": "593000000",
        "col2": "1911-06-23",
        "col3": "2",
        "col4": "9"
    },
    {
        "col0": "HMS Bridgewater",
        "col1": "1045000000",
        "col2": "1928-09-14",
        "col3": "3",
        "col4": "10"
    },
    {
        "col0": "HMAS Canberra",
        "col1": "27500000000",
        "col2": "2011-02-17",
        "col3": "7",
        "col4": "32"
    }
]