[
    {
        "col0": "S. d. Chair",
        "col1": "United Kingdom",
        "col2": "D. d. Chair",
        "col3": "L. J. Tadgell",
        "col4": "1911-08-22",
        "col5": "1911-08-22"
    },
    {
        "col0": "P. Clarey",
        "col1": "Australia",
        "col2": "A. Clarey",
        "col3": "K. Williams",
        "col4": "1890-01-20",
        "col5": "1890-01-20"
    },
    {
        "col0": "J. Trudeau",
        "col1": "Canadian",
        "col2": "A. Trudeau",
        "col3": "S. Gregoire",
        "col4": "1971-12-25",
        "col5": "1971-12-25"
    },
    {
        "col0": "J. Ridsdale",
        "col1": "United Kingdom",
        "col2": "S. Baldwin",
        "col3": "P. Ridsdale",
        "col4": "1915-06-08",
        "col5": "1915-06-08"
    },
    {
        "col0": "J. Spender",
        "col1": "Australia",
        "col2": "P. Spender",
        "col3": "C. Zampatti",
        "col4": "1935-12-02",
        "col5": "1935-12-02"
    },
    {
        "col0": "J. Norman",
        "col1": "United Kingdom",
        "col2": "T. Norman",
        "col3": "Nee",
        "col4": "1962-06-23",
        "col5": "1962-06-23"
    },
    {
        "col0": "H. McElhone",
        "col1": "United Kingdom",
        "col2": "J. McElhone",
        "col3": "F. McElhone",
        "col4": "1933-04-10",
        "col5": "1933-04-10"
    }
]