[
    {
        "col0": "F. F. Coppola",
        "col1": "Detroit",
        "col2": "New York",
        "col3": "C. Coppola"
    },
    {
        "col0": "E. Roberts",
        "col1": "Mississippi",
        "col2": "Atlanta",
        "col3": "B. L. Bredemus"
    },
    {
        "col0": "E. Iglesias",
        "col1": "Madrid",
        "col2": "Madrid",
        "col3": "J. Iglesias"
    },
    {
        "col0": "E. Z. Jr.",
        "col1": "New York",
        "col2": "New York City",
        "col3": "E. Zimbalist"
    },
    {
        "col0": "E. B. Jr.",
        "col1": "California",
        "col2": "Sherman Oaks, California",
        "col3": "E. Begley"
    },
    {
        "col0": "D. Cassidy",
        "col1": "New York",
        "col2": "New Jersey",
        "col3": "J. Cassidy"
    },
    {
        "col0": "C. Bleu",
        "col1": "Brooklyn",
        "col2": "Los Angeles, California",
        "col3": "D. Reivers"
    },
    {
        "col0": "C. Reeve",
        "col1": "New York City",
        "col2": "Princeton, New Jersey",
        "col3": "Married and maiden names"
    },
    {
        "col0": "C. Bono",
        "col1": "California",
        "col2": "California",
        "col3": "Cher"
    },
    {
        "col0": "B. Spears",
        "col1": "McComb, Mississippi",
        "col2": "Kentwood, Louisiana",
        "col3": "L. Spears"
    },
    {
        "col0": "B. Norwood",
        "col1": "McComb, Mississippi",
        "col2": "California",
        "col3": "W. Norwood"
    },
    {
        "col0": "B. Marley",
        "col1": "Jamaica",
        "col2": "Jamaica",
        "col3": "C. Booker"
    },
    {
        "col0": "A. Franklin",
        "col1": "Memphis, Tennessee",
        "col2": "Detroit, Michigan",
        "col3": "C. L. Franklin"
    },
    {
        "col0": "A. Allen",
        "col1": "Hammersmith",
        "col2": "Islington",
        "col3": "K. Allen"
    },
    {
        "col0": "A. Alda",
        "col1": "New York",
        "col2": "Chicago",
        "col3": "R. Alda"
    },
    {
        "col0": "A. Elliott",
        "col1": "New York",
        "col2": "Wilton, Connecticut",
        "col3": "C. Elliott"
    }
]