[
    {
        "col0": "B. Gourley",
        "col1": "Ontario",
        "col2": "La Jolla, California",
        "col3": "1976-03-11"
    },
    {
        "col0": "B. Walsh",
        "col1": "Haileybury, Ontario",
        "col2": "Winnipeg",
        "col3": "1971-10-07"
    },
    {
        "col0": "B. Rose",
        "col1": "Minot, North Dakota",
        "col2": "Sedgewick, Alberta",
        "col3": "1987-10-06"
    },
    {
        "col0": "B. Tetley",
        "col1": "Lion's Head, Ontario",
        "col2": "Thunder Bay, Ontario",
        "col3": "2003-06-09"
    },
    {
        "col0": "B. Grant",
        "col1": "Ingersoll, Ontario",
        "col2": "Manitoba",
        "col3": "1942-04-16"
    },
    {
        "col0": "B. Naimark",
        "col1": "Regina, Saskatchewan",
        "col2": "Halfmoon Bay, British Columbia",
        "col3": "2004-12-03"
    },
    {
        "col0": "A. Pollon",
        "col1": "Dauphin, Manitoba",
        "col2": "Salmon Arm, British Columbia",
        "col3": "2009-03-28"
    },
    {
        "col0": "A. McWilliams",
        "col1": "Rathwell, Manitoba",
        "col2": "Winnipeg, Manitoba",
        "col3": "1995-03-23"
    },
    {
        "col0": "A. Welsh",
        "col1": "Scotland",
        "col2": "Winnipeg, Manitoba",
        "col3": "1971-01-04"
    },
    {
        "col0": "A. Langlois",
        "col1": "Manitoba",
        "col2": "Manitoba",
        "col3": "2005-01-30"
    },
    {
        "col0": "A. Gowanlock",
        "col1": "Glenboro, Manitoba",
        "col2": "Dauphin, Manitoba",
        "col3": "1988-09-27"
    }
]