[
    {
        "col0": "R. Rutledge",
        "col1": "1975-08-12",
        "col2": "1975-08-12",
        "col3": "54"
    },
    {
        "col0": "R. Perry",
        "col1": "1953-09-11",
        "col2": "1953-09-11",
        "col3": "98"
    },
    {
        "col0": "R. Monroe",
        "col1": "1975-7-30",
        "col2": "1975-7-30",
        "col3": "237"
    },
    {
        "col0": "R. Milstead",
        "col1": "1969-11-10",
        "col2": "1969-11-10",
        "col3": "121"
    },
    {
        "col0": "R. McSwain",
        "col1": "1962-01-28",
        "col2": "1962-01-28",
        "col3": "(By theAtlanta Falcons)"
    },
    {
        "col0": "R. McNeill",
        "col1": "1951-03-26",
        "col2": "1951-03-26",
        "col3": "88"
    },
    {
        "col0": "R. Martin",
        "col1": "1954-04-07",
        "col2": "1954-04-07",
        "col3": "317"
    },
    {
        "col0": "R. Manuel",
        "col1": "1974-10-08",
        "col2": "1974-10-08",
        "col3": "199"
    },
    {
        "col0": "R. Kush",
        "col1": "1956-12-29",
        "col2": "1956-12-29",
        "col3": "114"
    },
    {
        "col0": "R. Jones",
        "col1": "1974-01-11",
        "col2": "1974-01-11",
        "col3": "202"
    },
    {
        "col0": "R. Jones",
        "col1": "1964-03-31",
        "col2": "1964-03-31",
        "col3": "25"
    },
    {
        "col0": "R. Issac",
        "col1": "1989-02-20",
        "col2": "1989-02-20",
        "col3": "147"
    },
    {
        "col0": "R. Gardner",
        "col1": "1977-10-26",
        "col2": "1977-10-26",
        "col3": "15"
    },
    {
        "col0": "R. Coleman",
        "col1": "1976-08-16",
        "col2": "1976-08-16",
        "col3": "153"
    },
    {
        "col0": "R. Bernstine",
        "col1": "1965-02-08",
        "col2": "1965-02-08",
        "col3": "24"
    },
    {
        "col0": "R. Babers",
        "col1": "1980-10-06",
        "col2": "1980-10-06",
        "col3": "123"
    },
    {
        "col0": "R. Thompson",
        "col1": "1947-11-08",
        "col2": "1947-11-08",
        "col3": "18"
    },
    {
        "col0": "R. Ryan",
        "col1": "1932-07-05",
        "col2": "1932-07-05",
        "col3": "21"
    },
    {
        "col0": "R. McIntosh",
        "col1": "1982-11-15",
        "col2": "1982-11-15",
        "col3": "35"
    },
    {
        "col0": "R. Klever",
        "col1": "1959-07-10",
        "col2": "1959-07-10",
        "col3": "247"
    },
    {
        "col0": "R. Calmus",
        "col1": "1979-08-01",
        "col2": "1979-08-01",
        "col3": "77"
    },
    {
        "col0": "R. Bernard",
        "col1": "1979-04-19",
        "col2": "1979-04-19",
        "col3": "146"
    },
    {
        "col0": "R. Cartwright",
        "col1": "1979-12-03",
        "col2": "1979-12-03",
        "col3": "257"
    },
    {
        "col0": "R. Pirro",
        "col1": "1916-06-30",
        "col2": "1916-06-30",
        "col3": "102"
    },
    {
        "col0": "R. Moore",
        "col1": "1955-03-31",
        "col2": "1955-03-31",
        "col3": "283"
    },
    {
        "col0": "R. Canale",
        "col1": "1917-05-01",
        "col2": "1917-05-01",
        "col3": "72"
    },
    {
        "col0": "R. Carmichael",
        "col1": "1988-09-09",
        "col2": "1988-09-09",
        "col3": "127"
    },
    {
        "col0": "R. Earl",
        "col1": "1955-3-18",
        "col2": "1955-3-18",
        "col3": "61"
    },
    {
        "col0": "R. Cole",
        "col1": "1955-09-11",
        "col2": "1955-09-11",
        "col3": "21"
    },
    {
        "col0": "R. Garza",
        "col1": "1979-03-26",
        "col2": "1979-03-26",
        "col3": "99"
    },
    {
        "col0": "R. Aguayo",
        "col1": "1994-05-17",
        "col2": "1994-05-17",
        "col3": "59"
    },
    {
        "col0": "R. Young",
        "col1": "1969-1-29",
        "col2": "1969-1-29",
        "col3": "116"
    },
    {
        "col0": "R. Woods",
        "col1": "1992-04-10",
        "col2": "1992-04-10",
        "col3": "41"
    },
    {
        "col0": "R. Wilson",
        "col1": "1969-01-13",
        "col2": "1969-01-13",
        "col3": "80"
    },
    {
        "col0": "R. West",
        "col1": "1950-10-03",
        "col2": "1950-10-03",
        "col3": "90"
    },
    {
        "col0": "R. Weathers",
        "col1": "1960-09-13",
        "col2": "1960-09-13",
        "col3": "40"
    },
    {
        "col0": "R. Turbin",
        "col1": "1989-12-02",
        "col2": "1989-12-02",
        "col3": "106"
    },
    {
        "col0": "R. Thomas",
        "col1": "1980-07-17",
        "col2": "1980-07-17",
        "col3": "31"
    },
    {
        "col0": "R. Strait",
        "col1": "1969-11-14",
        "col2": "1969-11-14",
        "col3": "171"
    },
    {
        "col0": "R. Stewart",
        "col1": "1967-04-02",
        "col2": "1967-04-02",
        "col3": "218"
    },
    {
        "col0": "R. Smith",
        "col1": "1972-03-04",
        "col2": "1972-03-04",
        "col3": "21"
    },
    {
        "col0": "R. Shaw",
        "col1": "1956-10-15",
        "col2": "1956-10-15",
        "col3": "27"
    },
    {
        "col0": "R. Sands",
        "col1": "1989-11-03",
        "col2": "1989-11-03",
        "col3": "134"
    },
    {
        "col0": "R. Rozier",
        "col1": "1955-7-28",
        "col2": "1955-7-28",
        "col3": "228"
    },
    {
        "col0": "R. Royal",
        "col1": "1979-05-15",
        "col2": "1979-05-15",
        "col3": "160"
    },
    {
        "col0": "R. Reynolds",
        "col1": "1981-05-20",
        "col2": "1981-05-20",
        "col3": "165"
    },
    {
        "col0": "R. R. Thomas",
        "col1": "1952-08-07",
        "col2": "1952-08-07",
        "col3": "388"
    },
    {
        "col0": "R. Quinn",
        "col1": "1990-05-18",
        "col2": "1990-05-18",
        "col3": "14"
    },
    {
        "col0": "R. Pratt",
        "col1": "1951-05-25",
        "col2": "1951-05-25",
        "col3": "67"
    },
    {
        "col0": "R. Porcher",
        "col1": "1969-07-30",
        "col2": "1969-07-30",
        "col3": "26"
    },
    {
        "col0": "R. Newhouse",
        "col1": "1950-01-09",
        "col2": "1950-01-09",
        "col3": "35"
    },
    {
        "col0": "R. Myers",
        "col1": "1991-12-26",
        "col2": "1991-12-26",
        "col3": "176"
    },
    {
        "col0": "R. Meachem",
        "col1": "1984-09-28",
        "col2": "1984-09-28",
        "col3": "27"
    },
    {
        "col0": "R. McCune",
        "col1": "1979-03-09",
        "col2": "1979-03-09",
        "col3": "154"
    },
    {
        "col0": "R. McClain",
        "col1": "1988-07-22",
        "col2": "1988-07-22",
        "col3": "249"
    },
    {
        "col0": "R. Mathis",
        "col1": "1981-02-26",
        "col2": "1981-02-26",
        "col3": "138"
    },
    {
        "col0": "R. Massey",
        "col1": "1966-02-17",
        "col2": "1966-02-17",
        "col3": "46"
    },
    {
        "col0": "R. Lavette",
        "col1": "1963-09-08",
        "col2": "1963-09-08",
        "col3": "103"
    },
    {
        "col0": "R. Jones",
        "col1": "1969-09-27",
        "col2": "1969-09-27",
        "col3": "24"
    },
    {
        "col0": "R. Johnson",
        "col1": "1987-02-13",
        "col2": "1987-02-13",
        "col3": "148"
    },
    {
        "col0": "R. James",
        "col1": "1983-12-26",
        "col2": "1983-12-26",
        "col3": "138"
    },
    {
        "col0": "R. Jackson",
        "col1": "1958-10-10",
        "col2": "1958-10-10",
        "col3": "285"
    },
    {
        "col0": "R. Ingalls",
        "col1": "1919-01-17",
        "col2": "1919-01-17",
        "col3": "169"
    },
    {
        "col0": "R. Hunt",
        "col1": "1975-07-22",
        "col2": "1975-07-22",
        "col3": "226"
    },
    {
        "col0": "R. Holt",
        "col1": "1959-10-04",
        "col2": "1959-10-04",
        "col3": "161"
    },
    {
        "col0": "R. Holmes",
        "col1": "1945-10-5",
        "col2": "1945-10-5",
        "col3": "375"
    },
    {
        "col0": "R. Holcombe",
        "col1": "1975-12-11",
        "col2": "1975-12-11",
        "col3": "37"
    },
    {
        "col0": "R. Hicks",
        "col1": "1974-11-17",
        "col2": "1974-11-17",
        "col3": "68"
    },
    {
        "col0": "R. Herron",
        "col1": "1992-06-02",
        "col2": "1992-06-02",
        "col3": "185"
    },
    {
        "col0": "R. Henson",
        "col1": "1986-01-27",
        "col2": "1986-01-27",
        "col3": "186"
    },
    {
        "col0": "R. Henderson",
        "col1": "1983-11-09",
        "col2": "1983-11-09",
        "col3": "199"
    },
    {
        "col0": "R. Harris",
        "col1": "1969-06-13",
        "col2": "1969-06-13",
        "col3": "38"
    },
    {
        "col0": "R. Hardy",
        "col1": "1956-07-03",
        "col2": "1956-07-03",
        "col3": "267"
    },
    {
        "col0": "R. G. III",
        "col1": "1990-02-12",
        "col2": "1990-02-12",
        "col3": "2"
    },
    {
        "col0": "R. Griffin",
        "col1": "1989-11-22",
        "col2": "1989-11-22",
        "col3": "203"
    },
    {
        "col0": "R. Goff",
        "col1": "1965-10-02",
        "col2": "1965-10-02",
        "col3": "83"
    }
]