[
    {
        "col0": "E. Montgomery",
        "col1": "M. Allen",
        "col2": "California",
        "col3": "R. Montgomery"
    },
    {
        "col0": "E. D. Filippo",
        "col1": "P. D. Filippo",
        "col2": "Italy",
        "col3": "E. Scarpetta"
    },
    {
        "col0": "D. Dunne",
        "col1": "G. Dunne",
        "col2": "California",
        "col3": "D. Dunne"
    },
    {
        "col0": "D. Barrymore",
        "col1": "E. Barrymore",
        "col2": "New York",
        "col3": "J. Barrymore"
    },
    {
        "col0": "D. Nelson",
        "col1": "R. Nelson",
        "col2": "Century City, Los Angeles",
        "col3": "O. Nelson"
    },
    {
        "col0": "D. Gorcey",
        "col1": "L. Gorcey",
        "col2": "California",
        "col3": "B. Gorcey"
    },
    {
        "col0": "D. Carradine",
        "col1": "K. Carradine",
        "col2": "Bangkok",
        "col3": "J. Carradine"
    },
    {
        "col0": "D. W. Smith",
        "col1": "D. Birkhead",
        "col2": "Nassau, Bahamas",
        "col3": "A. N. Smith"
    },
    {
        "col0": "D. Snow",
        "col1": "D. L. George",
        "col2": "London",
        "col3": "P. Snow"
    },
    {
        "col0": "C. Penn",
        "col1": "M. Penn",
        "col2": "Santa Monica, California",
        "col3": "L. Penn"
    },
    {
        "col0": "C. Marx",
        "col1": "G. Marx",
        "col2": "Hollywood",
        "col3": "M. Marx"
    },
    {
        "col0": "C. Hamilton",
        "col1": "E. Hamilton",
        "col2": "Los Angeles",
        "col3": "C. Burnett"
    },
    {
        "col0": "B. K. Brown",
        "col1": "D. Warwick",
        "col2": "Duluth, Georgia",
        "col3": "W. Houston"
    },
    {
        "col0": "B. Lehmann",
        "col1": "J. Lehmann",
        "col2": "England",
        "col3": "R. C. Lehmann"
    },
    {
        "col0": "B. Straight",
        "col1": "M. W. Straight",
        "col2": "California",
        "col3": "D. P. Whitney"
    },
    {
        "col0": "B. Bennett",
        "col1": "C. Bennett",
        "col2": "Montreal",
        "col3": "R. Bennett"
    },
    {
        "col0": "A. Hussain",
        "col1": "Nargis",
        "col2": "India",
        "col3": "Jaddanbai"
    },
    {
        "col0": "A. Ainley",
        "col1": "R. Ainley",
        "col2": "England",
        "col3": "H. Ainley"
    },
    {
        "col0": "A. Arquette",
        "col1": "D. Arquette",
        "col2": "Beverly Hills, California",
        "col3": "L. Arquette"
    },
    {
        "col0": "A. Kramm",
        "col1": "A. Egede-Nissen",
        "col2": "Norway",
        "col3": "A. Egede-Nissen"
    }
]