[
    {
        "col0": "Electric blue",
        "col1": "183",
        "col2": "249",
        "col3": "51",
        "col4": "2",
        "col5": "0",
        "col6": "255",
        "col7": "51"
    },
    {
        "col0": "Eggshell",
        "col1": "46",
        "col2": "234",
        "col3": "0",
        "col4": "2",
        "col5": "6",
        "col6": "214",
        "col7": "11"
    },
    {
        "col0": "Duke blue",
        "col1": "222",
        "col2": "0",
        "col3": "100",
        "col4": "75",
        "col5": "24",
        "col6": "156",
        "col7": "100"
    },
    {
        "col0": "Desert sand",
        "col1": "25",
        "col2": "201",
        "col3": "0",
        "col4": "15",
        "col5": "7",
        "col6": "175",
        "col7": "26"
    },
    {
        "col0": "Dark purple",
        "col1": "291",
        "col2": "25",
        "col3": "8",
        "col4": "52",
        "col5": "80",
        "col6": "52",
        "col7": "51"
    },
    {
        "col0": "Cyclamen",
        "col1": "0",
        "col2": "111",
        "col3": "0",
        "col4": "55",
        "col5": "4",
        "col6": "161",
        "col7": "54"
    },
    {
        "col0": "Cyan",
        "col1": "180",
        "col2": "255",
        "col3": "100",
        "col4": "0",
        "col5": "0",
        "col6": "255",
        "col7": "100"
    },
    {
        "col0": "Crimson",
        "col1": "348",
        "col2": "20",
        "col3": "0",
        "col4": "100",
        "col5": "40",
        "col6": "60",
        "col7": "91"
    },
    {
        "col0": "Cream",
        "col1": "57",
        "col2": "253",
        "col3": "0",
        "col4": "1",
        "col5": "0",
        "col6": "208",
        "col7": "18"
    },
    {
        "col0": "Coyote brown",
        "col1": "31",
        "col2": "97",
        "col3": "0",
        "col4": "25",
        "col5": "49",
        "col6": "62",
        "col7": "52"
    },
    {
        "col0": "Cornflower blue",
        "col1": "219",
        "col2": "149",
        "col3": "59",
        "col4": "37",
        "col5": "0",
        "col6": "237",
        "col7": "58"
    },
    {
        "col0": "Cordovan",
        "col1": "355",
        "col2": "63",
        "col3": "0",
        "col4": "54",
        "col5": "46",
        "col6": "69",
        "col7": "54"
    },
    {
        "col0": "Coral",
        "col1": "16",
        "col2": "127",
        "col3": "0",
        "col4": "50",
        "col5": "0",
        "col6": "80",
        "col7": "69"
    },
    {
        "col0": "Coquelicot",
        "col1": "13",
        "col2": "56",
        "col3": "0",
        "col4": "78",
        "col5": "0",
        "col6": "0",
        "col7": "100"
    },
    {
        "col0": "Copper",
        "col1": "29",
        "col2": "115",
        "col3": "0",
        "col4": "32",
        "col5": "28",
        "col6": "51",
        "col7": "72"
    },
    {
        "col0": "Columbia blue",
        "col1": "200",
        "col2": "216",
        "col3": "13",
        "col4": "4",
        "col5": "11",
        "col6": "226",
        "col7": "13"
    },
    {
        "col0": "Coffee",
        "col1": "25",
        "col2": "78",
        "col3": "0",
        "col4": "30",
        "col5": "57",
        "col6": "55",
        "col7": "51"
    },
    {
        "col0": "Citron",
        "col1": "64",
        "col2": "169",
        "col3": "6",
        "col4": "0",
        "col5": "34",
        "col6": "31",
        "col7": "82"
    },
    {
        "col0": "Citrine",
        "col1": "54",
        "col2": "208",
        "col3": "0",
        "col4": "8",
        "col5": "11",
        "col6": "10",
        "col7": "96"
    },
    {
        "col0": "Cinereous",
        "col1": "12",
        "col2": "129",
        "col3": "0",
        "col4": "15",
        "col5": "40",
        "col6": "123",
        "col7": "19"
    },
    {
        "col0": "Chocolate",
        "col1": "31",
        "col2": "63",
        "col3": "0",
        "col4": "50",
        "col5": "82",
        "col6": "0",
        "col7": "100"
    },
    {
        "col0": "Chestnut",
        "col1": "10",
        "col2": "69",
        "col3": "0",
        "col4": "54",
        "col5": "42",
        "col6": "53",
        "col7": "64"
    },
    {
        "col0": "Chartreuse",
        "col1": "90",
        "col2": "255",
        "col3": "50",
        "col4": "0",
        "col5": "0",
        "col6": "0",
        "col7": "100"
    },
    {
        "col0": "Champagne",
        "col1": "37",
        "col2": "231",
        "col3": "0",
        "col4": "6",
        "col5": "3",
        "col6": "206",
        "col7": "17"
    },
    {
        "col0": "Cerulean",
        "col1": "196",
        "col2": "123",
        "col3": "100",
        "col4": "26",
        "col5": "35",
        "col6": "167",
        "col7": "100"
    },
    {
        "col0": "Cerise",
        "col1": "343",
        "col2": "49",
        "col3": "7",
        "col4": "95",
        "col5": "0",
        "col6": "99",
        "col7": "78"
    },
    {
        "col0": "Carmine",
        "col1": "350",
        "col2": "0",
        "col3": "0",
        "col4": "75",
        "col5": "1",
        "col6": "24",
        "col7": "100"
    },
    {
        "col0": "Cardinal",
        "col1": "350",
        "col2": "30",
        "col3": "0",
        "col4": "85",
        "col5": "23",
        "col6": "58",
        "col7": "85"
    },
    {
        "col0": "Capri",
        "col1": "195",
        "col2": "191",
        "col3": "100",
        "col4": "25",
        "col5": "0",
        "col6": "255",
        "col7": "100"
    },
    {
        "col0": "Candy apple red",
        "col1": "2",
        "col2": "8",
        "col3": "0",
        "col4": "97",
        "col5": "0",
        "col6": "0",
        "col7": "100"
    },
    {
        "col0": "Camel",
        "col1": "33",
        "col2": "154",
        "col3": "0",
        "col4": "20",
        "col5": "24",
        "col6": "107",
        "col7": "45"
    },
    {
        "col0": "Cadet grey",
        "col1": "205",
        "col2": "163",
        "col3": "46",
        "col4": "29",
        "col5": "0",
        "col6": "176",
        "col7": "18"
    },
    {
        "col0": "Byzantium",
        "col1": "311",
        "col2": "41",
        "col3": "0",
        "col4": "63",
        "col5": "56",
        "col6": "99",
        "col7": "63"
    },
    {
        "col0": "Buff",
        "col1": "49",
        "col2": "220",
        "col3": "0",
        "col4": "8",
        "col5": "6",
        "col6": "130",
        "col7": "46"
    }
]