[
    {
        "col0": "Vertebral artery",
        "col1": "Vertebral vein",
        "col2": "a_61",
        "col3": "A07.231.114.839"
    },
    {
        "col0": "Superior mesenteric artery",
        "col1": "Superior mesenteric vein",
        "col2": "a_61",
        "col3": "A07.231.114.565.755"
    },
    {
        "col0": "Superficial epigastric artery",
        "col1": "Superficial epigastric vein",
        "col2": "a_61",
        "col3": "A07.231.114.330"
    },
    {
        "col0": "Subclavian artery",
        "col1": "Subclavian vein",
        "col2": "a_61",
        "col3": "A07.231.114.839"
    },
    {
        "col0": "Splenic artery",
        "col1": "Splenic vein",
        "col2": "a_61",
        "col3": "A07.231.114.814"
    },
    {
        "col0": "Scalp",
        "col1": "Occipital vein",
        "col2": "s_03",
        "col3": "A01.456.810"
    },
    {
        "col0": "Renal artery",
        "col1": "Renal vein",
        "col2": "a_61",
        "col3": "A07.231.114.745"
    },
    {
        "col0": "Rectum",
        "col1": "Middle rectal veins",
        "col2": "r_05",
        "col3": "A03.556.124.526.767"
    },
    {
        "col0": "Posterior cerebral artery",
        "col1": "Cerebral veins",
        "col2": "a_61",
        "col3": "A07.231.114.228.700"
    },
    {
        "col0": "Popliteal artery",
        "col1": "Popliteal vein",
        "col2": "a_61",
        "col3": "A07.231.114.681"
    },
    {
        "col0": "Ophthalmic artery",
        "col1": "Inferior ophthalmic vein",
        "col2": "a_61",
        "col3": "A07.231.114.622"
    },
    {
        "col0": "Navel",
        "col1": "Umbilical vein",
        "col2": "u_02",
        "col3": "D014472"
    },
    {
        "col0": "Lip",
        "col1": "Inferior labial vein",
        "col2": "l_01",
        "col3": "D008046"
    },
    {
        "col0": "Internal thoracic artery",
        "col1": "Internal thoracic vein",
        "col2": "a_61",
        "col3": "A07.231.114.891.525"
    },
    {
        "col0": "Internal iliac artery",
        "col1": "Internal iliac vein",
        "col2": "a_61",
        "col3": "A07.231.114.444"
    }
]