[
    {
        "col0": "K. Prutkov",
        "col1": "1803-4-11",
        "col2": "1803-4-11",
        "col3": "1863-1-13"
    },
    {
        "col0": "K. Harmony",
        "col1": "1941-01-21",
        "col2": "1941-01-21",
        "col3": "1984-01-21"
    },
    {
        "col0": "K. Fletcher",
        "col1": "1972-01-16",
        "col2": "1972-01-16",
        "col3": "2005-05-29"
    },
    {
        "col0": "J. Nuisance",
        "col1": "1937-4-1",
        "col2": "1937-4-1",
        "col3": "1944-4-1"
    },
    {
        "col0": "Judy",
        "col1": "1936-1-1",
        "col2": "1936-1-1",
        "col3": "1950-2-17"
    },
    {
        "col0": "J. Locke",
        "col1": "1956-5-30",
        "col2": "1956-5-30",
        "col3": "2007-11-17"
    },
    {
        "col0": "J. Fawcett",
        "col1": "1825-1-1",
        "col2": "1825-1-1",
        "col3": "1857-1-1"
    },
    {
        "col0": "J. Connor",
        "col1": "1985-2-28",
        "col2": "1985-2-28",
        "col3": "2032-7-4"
    },
    {
        "col0": "J. B. Timberlake",
        "col1": "1777-1-1",
        "col2": "1777-1-1",
        "col3": "1828-1-1"
    },
    {
        "col0": "J. Kwon",
        "col1": "1974-11-27",
        "col2": "1974-11-27",
        "col3": "2007-12-4"
    },
    {
        "col0": "Jigsaw",
        "col1": "1954-0-0",
        "col2": "1954-0-0",
        "col3": "2006-0-0"
    },
    {
        "col0": "J. Cardoza",
        "col1": "1968-7-21",
        "col2": "1968-7-21",
        "col3": "2010-5-24"
    },
    {
        "col0": "J. Gatsby",
        "col1": "1890-0-0",
        "col2": "1890-0-0",
        "col3": "1922-9-0"
    },
    {
        "col0": "J. Crockett",
        "col1": "1910-2-17",
        "col2": "1910-2-17",
        "col3": "1986-7-30"
    },
    {
        "col0": "J. Shephard",
        "col1": "1969-12-3",
        "col2": "1969-12-3",
        "col3": "2007-12-6"
    },
    {
        "col0": "I. Cohen",
        "col1": "1904-1-2",
        "col2": "1904-1-2",
        "col3": "1991-6-25"
    },
    {
        "col0": "I. Clough",
        "col1": "1920-11-10",
        "col2": "1920-11-10",
        "col3": "2003-01-25"
    },
    {
        "col0": "H. Crowe",
        "col1": "1945-4-23",
        "col2": "1945-4-23",
        "col3": "2006-5-22"
    },
    {
        "col0": "Hachiko",
        "col1": "1923-11-10",
        "col2": "1923-11-10",
        "col3": "1935-3-8"
    },
    {
        "col0": "H. Bailey",
        "col1": "1775-1-1",
        "col2": "1775-1-1",
        "col3": "1845-1-1"
    },
    {
        "col0": "G. Bruno",
        "col1": "1884-1-1",
        "col2": "1884-1-1",
        "col3": "1942-1-1"
    },
    {
        "col0": "Geraint",
        "col1": "448-1-1",
        "col2": "448-1-1",
        "col3": "508-1-1"
    },
    {
        "col0": "G. P. Thomann",
        "col1": "1945-03-13",
        "col2": "1945-03-13",
        "col3": "2005-07-21"
    },
    {
        "col0": "G. Gil",
        "col1": "1840-0-0",
        "col2": "1840-0-0",
        "col3": "1878-01-08"
    },
    {
        "col0": "F. Corleone",
        "col1": "1919-5-13",
        "col2": "1919-5-13",
        "col3": "1959-3-25"
    },
    {
        "col0": "Fido",
        "col1": "1941-1-1",
        "col2": "1941-1-1",
        "col3": "1958-6-9"
    },
    {
        "col0": "Fala",
        "col1": "1940-4-7",
        "col2": "1940-4-7",
        "col3": "1952-4-5"
    },
    {
        "col0": "Faith",
        "col1": "2002-12-24",
        "col2": "2002-12-24",
        "col3": "2014-9-23"
    },
    {
        "col0": "E. Skinner",
        "col1": "1914-2-19",
        "col2": "1914-2-19",
        "col3": "2000-9-7"
    },
    {
        "col0": "E. Malley",
        "col1": "1918-03-14",
        "col2": "1918-03-14",
        "col3": "1943-07-23"
    },
    {
        "col0": "E. Fandorin",
        "col1": "1856-1-20",
        "col2": "1856-1-20",
        "col3": "1920-0-0"
    },
    {
        "col0": "Endal",
        "col1": "1995-12-13",
        "col2": "1995-12-13",
        "col3": "2009-3-13"
    },
    {
        "col0": "E. Jutilainen",
        "col1": "1919-2-21",
        "col2": "1919-2-21",
        "col3": "2000-9-21"
    },
    {
        "col0": "E. Cullen",
        "col1": "1901-0-0",
        "col2": "1901-0-0",
        "col3": "1918-0-0"
    },
    {
        "col0": "D. J. Matus",
        "col1": "1890-0-0",
        "col2": "1890-0-0",
        "col3": "1973-0-0"
    },
    {
        "col0": "D. Peel",
        "col1": "1782-1-1",
        "col2": "1782-1-1",
        "col3": "1857-1-1"
    },
    {
        "col0": "D. Hudson",
        "col1": "1925-1-26",
        "col2": "1925-1-26",
        "col3": "2008-0-0"
    },
    {
        "col0": "Diesel",
        "col1": "2008-1-1",
        "col2": "2008-1-1",
        "col3": "2015-11-18"
    },
    {
        "col0": "Dido",
        "col1": "-839-0-0",
        "col2": "-839-0-0",
        "col3": "-759-0-0"
    },
    {
        "col0": "D. Barnes",
        "col1": "1965-4-24",
        "col2": "1965-4-24",
        "col3": "1998-11-18"
    },
    {
        "col0": "D. Scott",
        "col1": "1970-1-29",
        "col2": "1970-1-29",
        "col3": "2012-3-21"
    },
    {
        "col0": "D. Thorn",
        "col1": "1976-6-6",
        "col2": "1976-6-6",
        "col3": "1999-9-9"
    },
    {
        "col0": "C. Ray",
        "col1": "1931-01-22",
        "col2": "1931-01-22",
        "col3": "2007-03-17"
    },
    {
        "col0": "C. Lee",
        "col1": "1910-07-10",
        "col2": "1910-07-10",
        "col3": "1976-09-19"
    },
    {
        "col0": "C. d. Rochefort",
        "col1": "1615-1-1",
        "col2": "1615-1-1",
        "col3": "1687-1-1"
    },
    {
        "col0": "C. Carlton",
        "col1": "1986-3-5",
        "col2": "1986-3-5",
        "col3": "2009-10-5"
    },
    {
        "col0": "C. o. Ambracia",
        "col1": "-500-1-1",
        "col2": "-500-1-1",
        "col3": "-400-1-1"
    },
    {
        "col0": "C. Drescher",
        "col1": "1982-1-1",
        "col2": "1982-1-1",
        "col3": "2000-1-1"
    },
    {
        "col0": "C. Pace",
        "col1": "1976-12-8",
        "col2": "1976-12-8",
        "col3": "2004-12-21"
    },
    {
        "col0": "C. DeSalvo",
        "col1": "1956-7-7",
        "col2": "1956-7-7",
        "col3": "1995-8-21"
    },
    {
        "col0": "C. F. Kane",
        "col1": "1862-0-0",
        "col2": "1862-0-0",
        "col3": "1941-0-0"
    },
    {
        "col0": "C. Parker",
        "col1": "1897-09-03",
        "col2": "1897-09-03",
        "col3": "1971-04-20"
    },
    {
        "col0": "C. Keene",
        "col1": "1905-6-10",
        "col2": "1905-6-10",
        "col3": "2002-3-28"
    },
    {
        "col0": "C. A. Dupin",
        "col1": "1841-0-0",
        "col2": "1841-0-0",
        "col3": "1890-0-0"
    },
    {
        "col0": "B. Carlyle",
        "col1": "1981-0-0",
        "col2": "1981-0-0",
        "col3": "2004-11-1"
    },
    {
        "col0": "B. Thorleiksson",
        "col1": "970-0-0",
        "col2": "970-0-0",
        "col3": "1007-0-0"
    },
    {
        "col0": "Blondi",
        "col1": "1934-1-1",
        "col2": "1934-1-1",
        "col3": "1945-4-29"
    },
    {
        "col0": "Barry",
        "col1": "1800-1-1",
        "col2": "1800-1-1",
        "col3": "1814-1-1"
    },
    {
        "col0": "B. Munchausen",
        "col1": "1720-5-11",
        "col2": "1720-5-11",
        "col3": "1797-2-22"
    },
    {
        "col0": "A. Mix",
        "col1": "1896-06-18",
        "col2": "1896-06-18",
        "col3": "1972-12-07"
    },
    {
        "col0": "A. Yasusada",
        "col1": "1907-0-0",
        "col2": "1907-0-0",
        "col3": "1972-0-0"
    },
    {
        "col0": "A. L. Cortez",
        "col1": "1975-0-0",
        "col2": "1975-0-0",
        "col3": "2004-11-24"
    },
    {
        "col0": "A. Rousseau",
        "col1": "1988-4-0",
        "col2": "1988-4-0",
        "col3": "2004-12-27"
    }
]