[
    {
        "col0": "T. Berra",
        "col1": "1951-09-23",
        "col2": "1951-09-23",
        "col3": "(By theBaltimore Colts)"
    },
    {
        "col0": "T. Baylor",
        "col1": "1954-5-23",
        "col2": "1954-5-23",
        "col3": "283"
    },
    {
        "col0": "T. Barnett",
        "col1": "1968-04-19",
        "col2": "1968-04-19",
        "col3": "77"
    },
    {
        "col0": "T. Anderson",
        "col1": "1980-11-22",
        "col2": "1980-11-22",
        "col3": "74"
    },
    {
        "col0": "T. Anderson",
        "col1": "1949-08-01",
        "col2": "1949-08-01",
        "col3": "23"
    },
    {
        "col0": "T. Barber",
        "col1": "1975-04-07",
        "col2": "1975-04-07",
        "col3": "36"
    },
    {
        "col0": "T. Thomas",
        "col1": "1966-05-16",
        "col2": "1966-05-16",
        "col3": "40"
    },
    {
        "col0": "T. \". McGraw",
        "col1": "1927-7-17",
        "col2": "1927-7-17",
        "col3": "27"
    },
    {
        "col0": "T. Cooper",
        "col1": "1933-3-18",
        "col2": "1933-3-18",
        "col3": "193"
    },
    {
        "col0": "T. Chandler",
        "col1": "1963-11-27",
        "col2": "1963-11-27",
        "col3": "140"
    },
    {
        "col0": "T. Williams",
        "col1": "1984-12-25",
        "col2": "1984-12-25",
        "col3": "155"
    },
    {
        "col0": "T. Welch",
        "col1": "1987-06-19",
        "col2": "1987-06-19",
        "col3": "208"
    },
    {
        "col0": "T. Sanders",
        "col1": "1962-01-04",
        "col2": "1962-01-04",
        "col3": "250"
    },
    {
        "col0": "T. Randolph",
        "col1": "1970-10-05",
        "col2": "1970-10-05",
        "col3": "47"
    },
    {
        "col0": "T. Lewis",
        "col1": "1972-01-10",
        "col2": "1972-01-10",
        "col3": "24"
    },
    {
        "col0": "T. Jones",
        "col1": "1978-08-19",
        "col2": "1978-08-19",
        "col3": "7"
    },
    {
        "col0": "T. Howard",
        "col1": "1983-07-14",
        "col2": "1983-07-14",
        "col3": "38"
    },
    {
        "col0": "T. H. Sr.",
        "col1": "1954-08-18",
        "col2": "1954-08-18",
        "col3": "67"
    },
    {
        "col0": "T. Henderson",
        "col1": "1953-3-3",
        "col2": "1953-3-3",
        "col3": "18"
    },
    {
        "col0": "T. Everett",
        "col1": "1964-11-21",
        "col2": "1964-11-21",
        "col3": "94"
    },
    {
        "col0": "T. Duarte",
        "col1": "1995-03-30",
        "col2": "1995-03-30",
        "col3": "231"
    },
    {
        "col0": "T. DeCoud",
        "col1": "1985-03-19",
        "col2": "1985-03-19",
        "col3": "98"
    },
    {
        "col0": "T. Davis",
        "col1": "1983-03-22",
        "col2": "1983-03-22",
        "col3": "14"
    },
    {
        "col0": "T. Clayton",
        "col1": "1984-04-26",
        "col2": "1984-04-26",
        "col3": "186"
    },
    {
        "col0": "T. Brown",
        "col1": "1957-07-08",
        "col2": "1957-07-08",
        "col3": "302"
    },
    {
        "col0": "T. Brown",
        "col1": "1957-4-20",
        "col2": "1957-4-20",
        "col3": "35"
    },
    {
        "col0": "T. Young",
        "col1": "1965-04-25",
        "col2": "1965-04-25",
        "col3": "317"
    },
    {
        "col0": "T. Riddick",
        "col1": "1991-05-04",
        "col2": "1991-05-04",
        "col3": "199"
    },
    {
        "col0": "T. Doyle",
        "col1": "1914-01-12",
        "col2": "1914-01-12",
        "col3": "68"
    },
    {
        "col0": "T. Bell",
        "col1": "1953-12-21",
        "col2": "1953-12-21",
        "col3": "120"
    },
    {
        "col0": "T. Simon",
        "col1": "1991-03-06",
        "col2": "1991-03-06",
        "col3": "138"
    },
    {
        "col0": "T. Gash",
        "col1": "1965-09-01",
        "col2": "1965-09-01",
        "col3": "188"
    },
    {
        "col0": "T. Merrill",
        "col1": "1977-12-12",
        "col2": "1977-12-12",
        "col3": "223"
    },
    {
        "col0": "T. Gibson",
        "col1": "1987-10-21",
        "col2": "1987-10-21",
        "col3": "116"
    },
    {
        "col0": "T. Johnson",
        "col1": "1981-11-29",
        "col2": "1981-11-29",
        "col3": "63"
    },
    {
        "col0": "T. Warrington",
        "col1": "1921-03-21",
        "col2": "1921-03-21",
        "col3": "87"
    },
    {
        "col0": "T. Reese",
        "col1": "1991-01-02",
        "col2": "1991-01-02",
        "col3": "240"
    },
    {
        "col0": "T. Mitchel",
        "col1": "1992-08-03",
        "col2": "1992-08-03",
        "col3": "182"
    },
    {
        "col0": "T. Coleman",
        "col1": "1993-04-16",
        "col2": "1993-04-16",
        "col3": "73"
    },
    {
        "col0": "T. Wooden",
        "col1": "1967-01-14",
        "col2": "1967-01-14",
        "col3": "29"
    },
    {
        "col0": "T. Williams",
        "col1": "1965-10-14",
        "col2": "1965-10-14",
        "col3": "37"
    },
    {
        "col0": "T. Unrein",
        "col1": "1962-10-24",
        "col2": "1962-10-24",
        "col3": "66"
    },
    {
        "col0": "T. Taylor",
        "col1": "1961-07-18",
        "col2": "1961-07-18",
        "col3": "22"
    },
    {
        "col0": "T. Tausch",
        "col1": "1959-02-05",
        "col2": "1959-02-05",
        "col3": "39"
    },
    {
        "col0": "T. Robiskie",
        "col1": "1954-11-12",
        "col2": "1954-11-12",
        "col3": "233"
    },
    {
        "col0": "T. Randolph",
        "col1": "1955-07-17",
        "col2": "1955-07-17",
        "col3": "290"
    },
    {
        "col0": "T. Poole",
        "col1": "1992-02-27",
        "col2": "1992-02-27",
        "col3": "130"
    },
    {
        "col0": "T. Pierce",
        "col1": "1981-06-21",
        "col2": "1981-06-21",
        "col3": "51"
    },
    {
        "col0": "T. Owens",
        "col1": "1944-07-05",
        "col2": "1944-07-05",
        "col3": "(By theChicago Bears)"
    },
    {
        "col0": "T. Orr",
        "col1": "1961-09-27",
        "col2": "1961-09-27",
        "col3": "263"
    },
    {
        "col0": "T. Mickens",
        "col1": "1971-02-21",
        "col2": "1971-02-21",
        "col3": "146"
    },
    {
        "col0": "T. McDaniel",
        "col1": "1965-02-08",
        "col2": "1965-02-08",
        "col3": "9"
    },
    {
        "col0": "T. Long",
        "col1": "1959-07-21",
        "col2": "1959-07-21",
        "col3": "111"
    },
    {
        "col0": "T. Kunz",
        "col1": "1952-10-26",
        "col2": "1952-10-26",
        "col3": "231"
    },
    {
        "col0": "T. Kirby",
        "col1": "1970-01-20",
        "col2": "1970-01-20",
        "col3": "78"
    },
    {
        "col0": "T. Kinard",
        "col1": "1959-11-24",
        "col2": "1959-11-24",
        "col3": "10"
    },
    {
        "col0": "T. Killens",
        "col1": "1974-03-24",
        "col2": "1974-03-24",
        "col3": "74"
    },
    {
        "col0": "T. Jones",
        "col1": "1956-11-08",
        "col2": "1956-11-08",
        "col3": "248"
    },
    {
        "col0": "T. Jackson",
        "col1": "1976-1-10",
        "col2": "1976-1-10",
        "col3": "157"
    },
    {
        "col0": "T. Jackson",
        "col1": "1955-12-09",
        "col2": "1955-12-09",
        "col3": "120"
    },
    {
        "col0": "T. Irving",
        "col1": "1971-07-03",
        "col2": "1971-07-03",
        "col3": "115"
    },
    {
        "col0": "T. Hoage",
        "col1": "1962-4-11",
        "col2": "1962-4-11",
        "col3": "68"
    },
    {
        "col0": "T. Hawthorne",
        "col1": "1990-01-01",
        "col2": "1990-01-01",
        "col3": "150"
    },
    {
        "col0": "T. Hardy",
        "col1": "1976-05-31",
        "col2": "1976-05-31",
        "col3": "125"
    },
    {
        "col0": "T. Hanratty",
        "col1": "1948-01-19",
        "col2": "1948-01-19",
        "col3": "30"
    },
    {
        "col0": "T. Glenn",
        "col1": "1974-07-23",
        "col2": "1974-07-23",
        "col3": "7"
    },
    {
        "col0": "T. Fair",
        "col1": "1976-07-20",
        "col2": "1976-07-20",
        "col3": "20"
    },
    {
        "col0": "T. Crouch",
        "col1": "1959-07-06",
        "col2": "1959-07-06",
        "col3": "113"
    },
    {
        "col0": "T. Cole",
        "col1": "1945-07-07",
        "col2": "1945-07-07",
        "col3": "242"
    },
    {
        "col0": "T. Charles",
        "col1": "1979-07-08",
        "col2": "1979-07-08",
        "col3": "142"
    },
    {
        "col0": "T. Bradshaw",
        "col1": "1948-9-2",
        "col2": "1948-9-2",
        "col3": "1"
    },
    {
        "col0": "T. Beeson",
        "col1": "1955-09-19",
        "col2": "1955-09-19",
        "col3": "41"
    },
    {
        "col0": "T. Beasley",
        "col1": "1950-02-05",
        "col2": "1950-02-05",
        "col3": "19"
    },
    {
        "col0": "T. Barr",
        "col1": "1935-08-10",
        "col2": "1935-08-10",
        "col3": "36"
    },
    {
        "col0": "T. Baker",
        "col1": "1941-5-5",
        "col2": "1941-5-5",
        "col3": "1"
    },
    {
        "col0": "T. Anthony",
        "col1": "1968-03-09",
        "col2": "1968-03-09",
        "col3": "281"
    },
    {
        "col0": "T. Allen",
        "col1": "1968-02-21",
        "col2": "1968-02-21",
        "col3": "241"
    },
    {
        "col0": "T. Armstead",
        "col1": "1991-07-23",
        "col2": "1991-07-23",
        "col3": "75"
    },
    {
        "col0": "T. Wheatley",
        "col1": "1985-05-05",
        "col2": "1985-05-05",
        "col3": "62"
    },
    {
        "col0": "T. Warren",
        "col1": "1969-08-02",
        "col2": "1969-08-02",
        "col3": "114"
    },
    {
        "col0": "T. Murphy",
        "col1": "1982-12-15",
        "col2": "1982-12-15",
        "col3": "58"
    },
    {
        "col0": "T. Metcalf",
        "col1": "1978-01-28",
        "col2": "1978-01-28",
        "col3": "93"
    },
    {
        "col0": "T. McGee",
        "col1": "1980-10-14",
        "col2": "1980-10-14",
        "col3": "111"
    },
    {
        "col0": "T. Kiel",
        "col1": "1980-11-24",
        "col2": "1980-11-24",
        "col3": "62"
    },
    {
        "col0": "T. Jones",
        "col1": "1966-06-18",
        "col2": "1966-06-18",
        "col3": "195"
    }
]