[
    {
        "col0": "Will Take Charge",
        "col1": "Take Charge Lady",
        "col2": "Dehere",
        "col3": "Unbridled",
        "col4": "2010-04-13"
    },
    {
        "col0": "Triptych",
        "col1": "Trillion",
        "col2": "Hail To Reason",
        "col3": "Never Bend",
        "col4": "1982-04-19"
    },
    {
        "col0": "Take Charge Indy",
        "col1": "Take Charge Lady",
        "col2": "Dehere",
        "col3": "Seattle Slew",
        "col4": "2009-03-27"
    },
    {
        "col0": "Surplice",
        "col1": "Crucifix",
        "col2": "Priam",
        "col3": "Camel",
        "col4": "1845-01-21"
    },
    {
        "col0": "Surfside",
        "col1": "Flanders",
        "col2": "Seeking The Gold",
        "col3": "Bold Reasoning",
        "col4": "1997-01-21"
    },
    {
        "col0": "Summer Squall",
        "col1": "Weekend Surprise",
        "col2": "Secretariat",
        "col3": "Northern Dancer",
        "col4": "1987-03-12"
    },
    {
        "col0": "Storm Cat",
        "col1": "Terlingua",
        "col2": "Secretariat",
        "col3": "Northern Dancer",
        "col4": "1983-02-27"
    },
    {
        "col0": "Sophisticat",
        "col1": "Serena's Song",
        "col2": "Rahy",
        "col3": "Storm Bird",
        "col4": "1999-01-25"
    },
    {
        "col0": "So Factual",
        "col1": "Sookera",
        "col2": "Roberto",
        "col3": "In Reality",
        "col4": "1990-03-04"
    },
    {
        "col0": "Sixties Icon",
        "col1": "Love Divine",
        "col2": "Diesis",
        "col3": "Sadler's Wells",
        "col4": "2003-02-16"
    },
    {
        "col0": "Singspiel",
        "col1": "Glorious Song",
        "col2": "Halo",
        "col3": "Sadler's Wells",
        "col4": "1992-02-25"
    },
    {
        "col0": "Secretariat",
        "col1": "Somethingroyal",
        "col2": "Princequillo",
        "col3": "Nasrullah",
        "col4": "1970-03-30"
    },
    {
        "col0": "Quiff",
        "col1": "Wince",
        "col2": "Selkirk",
        "col3": "Northern Dancer",
        "col4": "2001-03-02"
    },
    {
        "col0": "Prince of Dance",
        "col1": "Sun Princess",
        "col2": "English Prince",
        "col3": "Northern Dancer",
        "col4": "1986-04-21"
    },
    {
        "col0": "Ormonde",
        "col1": "Lily Agnes",
        "col2": "Macaroni",
        "col3": "Doncaster",
        "col4": "1883-03-18"
    },
    {
        "col0": "Noble Mission",
        "col1": "Kind",
        "col2": "Danehill",
        "col3": "Sadler's Wells",
        "col4": "2009-02-25"
    },
    {
        "col0": "Nijinsky",
        "col1": "Flaming Page",
        "col2": "Bull Page",
        "col3": "Nearctic",
        "col4": "1967-02-21"
    },
    {
        "col0": "Nashwan",
        "col1": "Height of Fashion",
        "col2": "Bustino",
        "col3": "Red God",
        "col4": "1986-03-01"
    },
    {
        "col0": "Miss France",
        "col1": "Miss Tahiti",
        "col2": "Tirol",
        "col3": "Danehill",
        "col4": "2011-03-23"
    },
    {
        "col0": "Mine That Bird",
        "col1": "Mining My Own",
        "col2": "Smart Strike",
        "col3": "Grindstone",
        "col4": "2006-05-10"
    },
    {
        "col0": "Minding",
        "col1": "Lillie Langtry",
        "col2": "Danehill Dancer",
        "col3": "Sadler's Wells",
        "col4": "2013-02-10"
    },
    {
        "col0": "Marling",
        "col1": "Marwell",
        "col2": "Habitat",
        "col3": "Northern Dancer",
        "col4": "1989-03-17"
    },
    {
        "col0": "Man o' War",
        "col1": "Mahubah",
        "col2": "Rock Sand",
        "col3": "Hastings",
        "col4": "1917-03-29"
    },
    {
        "col0": "Lammtarra",
        "col1": "Snow Bride",
        "col2": "Blushing Groom",
        "col3": "Northern Dancer",
        "col4": "1992-02-02"
    },
    {
        "col0": "Kingmambo",
        "col1": "Miesque",
        "col2": "Nureyev",
        "col3": "Raise a Native",
        "col4": "1990-02-19"
    },
    {
        "col0": "John F Kennedy",
        "col1": "Rumplestiltskin",
        "col2": "Danehill",
        "col3": "Sadlers Wells",
        "col4": "2012-05-08"
    },
    {
        "col0": "Islington",
        "col1": "Hellenic",
        "col2": "Darshaan",
        "col3": "Northern Dancer",
        "col4": "1999-02-12"
    },
    {
        "col0": "Ibn Khaldun",
        "col1": "Gossamer",
        "col2": "Sadler's Wells",
        "col3": "Kingmambo",
        "col4": "2005-02-14"
    },
    {
        "col0": "Frankel",
        "col1": "Kind",
        "col2": "Danehill",
        "col3": "Sadler's Wells",
        "col4": "2008-02-11"
    },
    {
        "col0": "Eswarah",
        "col1": "Midway Lady",
        "col2": "Alleged",
        "col3": "Northern Dancer",
        "col4": "2002-04-21"
    },
    {
        "col0": "Estimate",
        "col1": "Ebaziya",
        "col2": "Darshaan",
        "col3": "Konigsstuhl",
        "col4": "2009-04-04"
    },
    {
        "col0": "Enzeli",
        "col1": "Ebaziya",
        "col2": "Darshaan",
        "col3": "Ile de Bourbon",
        "col4": "1995-04-05"
    },
    {
        "col0": "Edabiya",
        "col1": "Ebaziya",
        "col2": "Darshaan",
        "col3": "Blushing Groom",
        "col4": "1996-04-08"
    },
    {
        "col0": "Eclipse",
        "col1": "Spilletta",
        "col2": "Regulus",
        "col3": "Squirt",
        "col4": "1764-04-01"
    },
    {
        "col0": "Dullahan",
        "col1": "Mining My Own",
        "col2": "Smart Strike",
        "col3": "Unbridled's Song",
        "col4": "2009-02-08"
    },
    {
        "col0": "Dansili",
        "col1": "Hasili",
        "col2": "Kahyasi",
        "col3": "Danzig",
        "col4": "1996-01-27"
    },
    {
        "col0": "Dancethruthedawn",
        "col1": "Dance Smartly",
        "col2": "Danzig",
        "col3": "Raise a Native",
        "col4": "1998-03-06"
    },
    {
        "col0": "Cellini",
        "col1": "Gamely",
        "col2": "Bold Ruler",
        "col3": "Princequillo",
        "col4": "1971-04-10"
    },
    {
        "col0": "Casino Drive",
        "col1": "Better Than Honour",
        "col2": "Deputy Minister",
        "col3": "A. P. Indy",
        "col4": "2005-03-07"
    },
    {
        "col0": "Carnegie",
        "col1": "Detroit",
        "col2": "Riverman",
        "col3": "Northern Dancer",
        "col4": "1991-02-26"
    },
    {
        "col0": "Brian Boru",
        "col1": "Eva Luna",
        "col2": "Alleged",
        "col3": "Northern Dancer",
        "col4": "2000-03-16"
    },
    {
        "col0": "Australia",
        "col1": "Ouija Board",
        "col2": "Cape Cross",
        "col3": "Sadler's Wells",
        "col4": "2011-04-08"
    },
    {
        "col0": "A.P. Indy",
        "col1": "Weekend Surprise",
        "col2": "Secretariat",
        "col3": "Bold Reasoning",
        "col4": "1989-03-31"
    }
]