[
    {
        "col0": "Wrong Side of Memphis",
        "col1": "M. Berg",
        "col2": "Garth Fundis",
        "col3": "166"
    },
    {
        "col0": "Wrong Side of Heaven",
        "col1": "I. L. Moody",
        "col2": "Kevin Churko",
        "col3": "271"
    },
    {
        "col0": "Wrong Number",
        "col1": "R. Smith",
        "col2": "Mark Saunders",
        "col3": "252"
    },
    {
        "col0": "Wrong Number",
        "col1": "G. Jones",
        "col2": "Pappy Daily",
        "col3": "155"
    },
    {
        "col0": "Wrong Night",
        "col1": "J. Leo",
        "col2": "Reba McEntire",
        "col3": "171"
    },
    {
        "col0": "Wrong Is Right",
        "col1": "R. Brooks",
        "col2": "George Grenville",
        "col3": "7020"
    },
    {
        "col0": "Wrong Impression",
        "col1": "N. Imbruglia",
        "col2": "Ian Stanley",
        "col3": "193"
    },
    {
        "col0": "Wrong Club",
        "col1": "A. Taylor",
        "col2": "Andy Taylor",
        "col3": "199"
    },
    {
        "col0": "Wrong Baby Wrong Baby Wrong",
        "col1": "R. E. Orrall",
        "col2": "Martina McBride",
        "col3": "219"
    },
    {
        "col0": "Wrong Again",
        "col1": "C. Weil",
        "col2": "Martina McBride",
        "col3": "195"
    },
    {
        "col0": "Wrong Again",
        "col1": "L. McCarey",
        "col2": "Hal Roach",
        "col3": "1200"
    },
    {
        "col0": "Wrong",
        "col1": "S. Seskin",
        "col2": "Bob Montgomery",
        "col3": "178"
    },
    {
        "col0": "Wrong",
        "col1": "B. Watt",
        "col2": "Ben Watt",
        "col3": "235"
    },
    {
        "col0": "Wrong",
        "col1": "M. Gore",
        "col2": "Ben Hillier",
        "col3": "193"
    },
    {
        "col0": "Wrong's What I Do Best",
        "col1": "D. Lee",
        "col2": "Emory Gordy, Jr.",
        "col3": "162"
    },
    {
        "col0": "Written on the Wind",
        "col1": "P. Korda",
        "col2": "Tony Meehan",
        "col3": "203"
    },
    {
        "col0": "Written on the Wind",
        "col1": "R. Wilder",
        "col2": "Albert Zugsmith",
        "col3": "5940"
    },
    {
        "col0": "Written on Ya Kitten",
        "col1": "Treach",
        "col2": "Naughty by Nature",
        "col3": "261"
    },
    {
        "col0": "Written on Her",
        "col1": "Birdman",
        "col2": "Oddz N Endz",
        "col3": "235"
    },
    {
        "col0": "Writing to Reach You",
        "col1": "F. Healy",
        "col2": "Nigel Godrich",
        "col3": "221"
    },
    {
        "col0": "Writing on the City",
        "col1": "K. Karimi",
        "col2": "Keywan Karimi",
        "col3": "3600"
    },
    {
        "col0": "Writing's on the Wall",
        "col1": "S. Smith",
        "col2": "Disclosure",
        "col3": "278"
    },
    {
        "col0": "Writer's Block",
        "col1": "J. Jack",
        "col2": "Just Jack",
        "col3": "223"
    },
    {
        "col0": "Write Your Story",
        "col1": "F. Battistelli",
        "col2": "Ian Eskelin",
        "col3": "204"
    },
    {
        "col0": "Write This Down",
        "col1": "K. Robbins",
        "col2": "Tony Brown",
        "col3": "221"
    },
    {
        "col0": "Write On Me",
        "col1": "Stargate",
        "col2": "Stargate",
        "col3": "219"
    },
    {
        "col0": "Write Me a Letter",
        "col1": "S. Tyler",
        "col2": "Adrian Barber",
        "col3": "252"
    },
    {
        "col0": "Write It on Your Skin",
        "col1": "N. Faulkner",
        "col2": "Newton Faulkner",
        "col3": "194"
    },
    {
        "col0": "Write About Love",
        "col1": "S. Murdoch",
        "col2": "Tony Hoffer",
        "col3": "173"
    },
    {
        "col0": "Wrist",
        "col1": "P. T",
        "col2": "6ix",
        "col3": "206"
    },
    {
        "col0": "Wrist",
        "col1": "C. Brown",
        "col2": "The MeKanics",
        "col3": "194"
    },
    {
        "col0": "Wrinkles",
        "col1": "N. Thrasher",
        "col2": "Diamond Rio",
        "col3": "189"
    },
    {
        "col0": "Wretches and Kings",
        "col1": "L. Park",
        "col2": "Rick Rubin",
        "col3": "255"
    },
    {
        "col0": "Wrestling with Angels: Playwright Tony Kushner",
        "col1": "F. L. Mock",
        "col2": "Freida Lee Mock",
        "col3": "5880"
    },
    {
        "col0": "Wrestling Swordfish",
        "col1": "G. Towne",
        "col2": "Mack Sennett",
        "col3": "480"
    },
    {
        "col0": "Wrecking Crew",
        "col1": "R. Murphy",
        "col2": "William C. Thomas",
        "col3": "4380"
    },
    {
        "col0": "Wrecking Ball",
        "col1": "Mozella",
        "col2": "Dr. Luke",
        "col3": "221"
    },
    {
        "col0": "Wreckin' Bar",
        "col1": "T. Vaccines",
        "col2": "Dan Grech-Marguerat",
        "col3": "84"
    },
    {
        "col0": "Wreck on the Highway",
        "col1": "B. Springsteen",
        "col2": "Bruce Springsteen",
        "col3": "234"
    }
]