[
    {
        "col0": "Cedarmere-Clayton Estates",
        "col1": "O. C. Jr.",
        "col2": "86002634",
        "col3": "696059"
    },
    {
        "col0": "Cedar Hill Cemetery",
        "col1": "J. Pollia",
        "col2": "5001584",
        "col3": "101171"
    },
    {
        "col0": "Cecil and Hermione Alexander House",
        "col1": "C. Alexander",
        "col2": "10000116",
        "col3": "14892"
    },
    {
        "col0": "Cazenovia Park-South Park System",
        "col1": "F. L. Olmsted",
        "col2": "82005028",
        "col3": "1481554"
    },
    {
        "col0": "Cathedral of the Nativity of the Blessed Virgin Mary",
        "col1": "T. Brune",
        "col2": "84002193",
        "col3": "404"
    },
    {
        "col0": "Cathedral of the Madeleine",
        "col1": "C. M. Neuhausen",
        "col2": "71000845",
        "col3": "4856"
    },
    {
        "col0": "Cathedral of the Immaculate Conception",
        "col1": "J. O'Rourke",
        "col2": "3001277",
        "col3": "7284"
    },
    {
        "col0": "Catedral de Nuestra Senora de Guadalupe",
        "col1": "F. P. Doria",
        "col2": "84000467",
        "col3": "2960"
    },
    {
        "col0": "Castle Clinton",
        "col1": "J. Williams",
        "col2": "66000537",
        "col3": "4046"
    },
    {
        "col0": "Castillo Serralles",
        "col1": "Pedro Adolfo de Castro",
        "col2": "80004494",
        "col3": "10117"
    },
    {
        "col0": "Casselton Commercial Historic District",
        "col1": "C. N. Daniels",
        "col2": "82001311",
        "col3": "37635"
    },
    {
        "col0": "Cass County Court House, Jail, and Sheriff's House",
        "col1": "C. E. Bell",
        "col2": "83004062",
        "col3": "4046"
    },
    {
        "col0": "Case Memorial-Seymour Library",
        "col1": "C. &. Hastings",
        "col2": "80002594",
        "col3": "2832"
    },
    {
        "col0": "Cascade Locks Work Center",
        "col1": "Architects of the United States Forest Service",
        "col2": "86000829",
        "col3": "7689"
    },
    {
        "col0": "Cascade Building",
        "col1": "A. E. Doyle",
        "col2": "89000066",
        "col3": "809"
    },
    {
        "col0": "Casa Vives",
        "col1": "J. B. Calderoni",
        "col2": "13000013",
        "col3": "1174"
    },
    {
        "col0": "Casa Salazar-Candal",
        "col1": "Blas C. Silva Boucher",
        "col2": "88000663",
        "col3": "4046"
    },
    {
        "col0": "Casa Rio",
        "col1": "G. d. Gelleke",
        "col2": "96001186",
        "col3": "9307"
    },
    {
        "col0": "Casa Oppenheimer",
        "col1": "A. W. Pieretti",
        "col2": "87001824",
        "col3": "4046"
    },
    {
        "col0": "Casa Fernando Luis Toro",
        "col1": "F. P. Doria",
        "col2": "86000421",
        "col3": "2023"
    },
    {
        "col0": "Cary Historic District",
        "col1": "W. P. Administration",
        "col2": "1000425",
        "col3": "72843"
    },
    {
        "col0": "Carter Hall",
        "col1": "H. T. Lindeberg",
        "col2": "73002003",
        "col3": "364217"
    },
    {
        "col0": "Carroll County Courthouse",
        "col1": "E. E. Dunlap",
        "col2": "3001317",
        "col3": "6070"
    },
    {
        "col0": "Carroll Building",
        "col1": "S. C. Earle",
        "col2": "82001007",
        "col3": "404"
    },
    {
        "col0": "Caroline W. and M. Louise Flanders House",
        "col1": "J. K. Parker",
        "col2": "91000127",
        "col3": "2023"
    },
    {
        "col0": "Carolina Inn",
        "col1": "A. C. Nash",
        "col2": "99000867",
        "col3": "18210"
    },
    {
        "col0": "Carnegie Free Library of Braddock",
        "col1": "Longfellow, Alden & Harlow",
        "col2": "73001585",
        "col3": "8093"
    },
    {
        "col0": "Carnegie Free Library of Allegheny",
        "col1": "P. J. Pelz",
        "col2": "74001736",
        "col3": "4046"
    },
    {
        "col0": "Carlton D. Wall House",
        "col1": "F. L. Wright",
        "col2": "94000620",
        "col3": "20234"
    },
    {
        "col0": "Carlisle Armory",
        "col1": "T. H. Atherton",
        "col2": "89002071",
        "col3": "145686"
    },
    {
        "col0": "Carlinville Chapter House",
        "col1": "Helfensteller, Hirsch and Watson",
        "col2": "80001385",
        "col3": "404"
    },
    {
        "col0": "Carl Mackley Houses",
        "col1": "O. Stonorov",
        "col2": "98000401",
        "col3": "18210"
    },
    {
        "col0": "Carl Herget Mansion",
        "col1": "H. &. Emerson",
        "col2": "92001005",
        "col3": "4046"
    },
    {
        "col0": "Carl E. Nelson House",
        "col1": "J. Parker",
        "col2": "97000587",
        "col3": "809"
    },
    {
        "col0": "Caramoor Center for Music and the Arts",
        "col1": "M. B. Schmidt",
        "col2": "1000548",
        "col3": "327795"
    },
    {
        "col0": "Capt. Rodney J. Baxter House",
        "col1": "O. S. Fowler",
        "col2": "87000273",
        "col3": "4856"
    },
    {
        "col0": "Capital Club Building",
        "col1": "F. B. Simpson",
        "col2": "85003076",
        "col3": "404"
    },
    {
        "col0": "Capers C.M.E. Church",
        "col1": "M. &. McKissack",
        "col2": "85000045",
        "col3": "404"
    },
    {
        "col0": "Canyon Falls Bridge",
        "col1": "Michigan State Highway Department",
        "col2": "99001464",
        "col3": "4046"
    },
    {
        "col0": "Canton Township MPS",
        "col1": "Charles G. Curtiss Sr. House",
        "col2": "00000614 - 00000619, 00000647 - 00000649, 03000174 - 03000175",
        "col3": "9307"
    },
    {
        "col0": "Canton Main Street Historic District",
        "col1": "B. &. Benton",
        "col2": "5000958",
        "col3": "56655"
    },
    {
        "col0": "Canelo Ranger Station",
        "col1": "Architects of the United States Forest Service",
        "col2": "93000513",
        "col3": "12140"
    },
    {
        "col0": "Candoro Marble Works",
        "col1": "C. I. Barber",
        "col2": "96001399",
        "col3": "21853"
    },
    {
        "col0": "Campbell-Whittlesey House",
        "col1": "M. Lafever",
        "col2": "71000542",
        "col3": "809"
    },
    {
        "col0": "Camp Paxson Boy Scout Camp",
        "col1": "C. C. Corps",
        "col2": "86000584",
        "col3": "27113"
    },
    {
        "col0": "Camp Clover Ranger Station",
        "col1": "Architects of the United States Forest Service",
        "col2": "93000520",
        "col3": "12140"
    },
    {
        "col0": "Camp Caesar",
        "col1": "W. P. Administration",
        "col2": "9001197",
        "col3": "4046"
    },
    {
        "col0": "Cameron County Courthouse",
        "col1": "A. B. Ayres",
        "col2": "80004084",
        "col3": "4046"
    },
    {
        "col0": "Cambria County Courthouse",
        "col1": "H. Shank",
        "col2": "80003449",
        "col3": "6474"
    },
    {
        "col0": "Calhoun County Courthouse",
        "col1": "W. A. Edwards",
        "col2": "81000561",
        "col3": "3237"
    },
    {
        "col0": "Calhoun Beach Club",
        "col1": "M. &. Tusler",
        "col2": "3001335",
        "col3": "8611"
    },
    {
        "col0": "Caledonia Bowstring Bridge",
        "col1": "Wrought Iron Bridge Company",
        "col2": "78002131",
        "col3": "4046"
    },
    {
        "col0": "Caleb Bragg Estate",
        "col1": "W. &. Gillette",
        "col2": "87001895",
        "col3": "16996"
    },
    {
        "col0": "Cairo Rosenwald School",
        "col1": "J. Rosenwald",
        "col2": "96001359",
        "col3": "14973"
    },
    {
        "col0": "Cabrillo National Monument",
        "col1": "N. P. Service",
        "col2": "66000224",
        "col3": "582342"
    },
    {
        "col0": "Cabarrus County Courthouse",
        "col1": "G. Appleget",
        "col2": "74001328",
        "col3": "8093"
    },
    {
        "col0": "C. H. Burroughs House",
        "col1": "S. Hannaford",
        "col2": "80003039",
        "col3": "4046"
    },
    {
        "col0": "C.W. Dickey House",
        "col1": "C. Dickey",
        "col2": "84000201",
        "col3": "404"
    },
    {
        "col0": "Byrnes & Kiefer Building",
        "col1": "F. J. Osterling",
        "col2": "85000457",
        "col3": "809"
    },
    {
        "col0": "Byington Mill",
        "col1": "F. H. Gouge",
        "col2": "93000458",
        "col3": "2428"
    },
    {
        "col0": "Byers-Lyons House",
        "col1": "A. &. Harlow",
        "col2": "74001735",
        "col3": "2023"
    },
    {
        "col0": "Buzza Company Building",
        "col1": "M. &. Tusler",
        "col2": "11001039",
        "col3": "9550"
    },
    {
        "col0": "Butts County Courthouse",
        "col1": "B. &. Morgan",
        "col2": "80000982",
        "col3": "4046"
    },
    {
        "col0": "Butler Square",
        "col1": "H. W. Jones",
        "col2": "71000437",
        "col3": "5212"
    },
    {
        "col0": "Butler Armory",
        "col1": "W. W. Co.",
        "col2": "91000903",
        "col3": "1618"
    },
    {
        "col0": "Burlington Northern Depot",
        "col1": "N. P. Railroad",
        "col2": "77001024",
        "col3": "4046"
    },
    {
        "col0": "Burke County Courthouse",
        "col1": "Toltz, King & Day",
        "col2": "85002979",
        "col3": "8498"
    },
    {
        "col0": "Bulloch County Courthouse",
        "col1": "E. C. Hosford",
        "col2": "80000978",
        "col3": "4046"
    },
    {
        "col0": "Buhl Building",
        "col1": "J. &. Abbott",
        "col2": "80003406",
        "col3": "404"
    },
    {
        "col0": "Buffalo Tennis and Squash Club",
        "col1": "D. Lyman",
        "col2": "8001141",
        "col3": "4046"
    },
    {
        "col0": "Buffalo River State Park",
        "col1": "C. C. Corps",
        "col2": "78003461",
        "col3": "141639"
    },
    {
        "col0": "Buffalo Presbyterian Church and Cemetery",
        "col1": "H. Barton",
        "col2": "2000985",
        "col3": "32374"
    },
    {
        "col0": "Buena Vista Park Historic District",
        "col1": "B. H. Barnett",
        "col2": "7000919",
        "col3": "20234"
    },
    {
        "col0": "Buckingham Friends Meeting House",
        "col1": "A. E. Bye",
        "col2": "03001034 (addition)",
        "col3": "157827"
    },
    {
        "col0": "Buchanan School",
        "col1": "C. &. Burrows",
        "col2": "83002406",
        "col3": "4046"
    },
    {
        "col0": "Brush Creek Work Center",
        "col1": "USDA Forest Service, Region 2",
        "col2": "94000276",
        "col3": "283279"
    },
    {
        "col0": "Brumback Library",
        "col1": "D. L. Stine",
        "col2": "79001973",
        "col3": "6879"
    },
    {
        "col0": "Browncroft Historic District",
        "col1": "L. architecture",
        "col2": "4000346",
        "col3": "469435"
    },
    {
        "col0": "Brown Shoe Company Factory",
        "col1": "A. B. Groves",
        "col2": "6001019",
        "col3": "10117"
    },
    {
        "col0": "Brown Palace Hotel",
        "col1": "F. Edbrooke",
        "col2": "70000157",
        "col3": "38445"
    },
    {
        "col0": "Brooks County Courthouse",
        "col1": "J. Wind",
        "col2": "80000976  The",
        "col3": "8093"
    },
    {
        "col0": "Brooklyn Borough Hall",
        "col1": "G. King",
        "col2": "80002630",
        "col3": "4046"
    },
    {
        "col0": "Brooklyn Army Terminal",
        "col1": "C. Gilbert",
        "col2": "83001702",
        "col3": "393354"
    },
    {
        "col0": "Brookland Plantation",
        "col1": "R. Mills",
        "col2": "86003198",
        "col3": "241273"
    },
    {
        "col0": "Brookgreen Gardens",
        "col1": "A. H. Huntington",
        "col2": "78002510",
        "col3": "36826393"
    },
    {
        "col0": "Bronx Borough Courthouse",
        "col1": "O. F. Bluemner",
        "col2": "82003344",
        "col3": "4046"
    },
    {
        "col0": "Brockton City Hall",
        "col1": "W. L. Minor",
        "col2": "76000296",
        "col3": "5746"
    },
    {
        "col0": "Broadway Historic District",
        "col1": "R. Upjohn",
        "col2": "79001627, 83001789, and 94000049",
        "col3": "554419"
    },
    {
        "col0": "Broad Margin",
        "col1": "F. L. Wright",
        "col2": "78002513",
        "col3": "8093"
    },
    {
        "col0": "Bristol County Courthouse Complex",
        "col1": "F. I. Cooper",
        "col2": "78000427",
        "col3": "52609"
    },
    {
        "col0": "Bridgeport Downtown South Historic District",
        "col1": "C. Gilbert",
        "col2": "87001402",
        "col3": "109265"
    },
    {
        "col0": "Bridgeport City Hall",
        "col1": "A. J. Davis",
        "col2": "77001387",
        "col3": "7284"
    },
    {
        "col0": "Bridge No. 1132",
        "col1": "C. H. Department",
        "col2": "4001091",
        "col3": "4046"
    },
    {
        "col0": "Briarcliff Hotel",
        "col1": "G. L. Preacher",
        "col2": "82002415",
        "col3": "4856"
    }
]