[
    {
        "col0": "USS Steinaker",
        "col1": "1945-05-26",
        "col2": "1944-09-01",
        "col3": "1945-02-13",
        "col4": "1982-02-24"
    },
    {
        "col0": "USS Stein",
        "col1": "1972-01-08",
        "col2": "1970-06-01",
        "col3": "1970-12-19",
        "col4": "1992-03-19"
    },
    {
        "col0": "USS Steelhead",
        "col1": "1942-12-07",
        "col2": "1942-06-01",
        "col3": "1942-09-11",
        "col4": "1946-06-29"
    },
    {
        "col0": "USS Steele",
        "col1": "1943-05-04",
        "col2": "1942-01-27",
        "col3": "1943-01-09",
        "col4": "1945-11-21"
    },
    {
        "col0": "USS Steady",
        "col1": "1942-11-16",
        "col2": "1941-11-17",
        "col3": "1942-06-06",
        "col4": "1946-06-18"
    },
    {
        "col0": "USS Starr",
        "col1": "1944-09-29",
        "col2": "1944-06-13",
        "col3": "1944-08-18",
        "col4": "1946-05-31"
    },
    {
        "col0": "USS Starling",
        "col1": "1942-12-21",
        "col2": "1941-07-01",
        "col3": "1942-04-11",
        "col4": "1946-05-15"
    },
    {
        "col0": "USS Starlight",
        "col1": "1944-02-15",
        "col2": "1943-10-09",
        "col3": "1943-12-23",
        "col4": "1946-08-12"
    },
    {
        "col0": "USS Stanton",
        "col1": "1943-08-07",
        "col2": "1942-12-07",
        "col3": "1943-02-21",
        "col4": "1947-06-02"
    },
    {
        "col0": "USS Stalwart",
        "col1": "1957-04-23",
        "col2": "1954-06-22",
        "col3": "1955-12-03",
        "col4": "1966-08-24"
    },
    {
        "col0": "USS Stalwart",
        "col1": "1942-01-22",
        "col2": "1941-03-24",
        "col3": "1941-08-28",
        "col4": "1946-08-02"
    },
    {
        "col0": "USS Stallion",
        "col1": "1945-02-01",
        "col2": "1944-10-26",
        "col3": "1944-11-24",
        "col4": "1946-09-01"
    },
    {
        "col0": "USS Stagbush",
        "col1": "1944-08-30",
        "col2": "1943-02-09",
        "col3": "1944-01-29",
        "col4": "1946-03-26"
    },
    {
        "col0": "USS Stag",
        "col1": "1944-02-16",
        "col2": "1943-11-13",
        "col3": "1944-01-07",
        "col4": "1946-04-30"
    },
    {
        "col0": "USS Stafford",
        "col1": "1944-04-19",
        "col2": "1943-11-29",
        "col3": "1944-01-11",
        "col4": "1946-05-16"
    },
    {
        "col0": "USS Staff",
        "col1": "1942-11-11",
        "col2": "1941-11-28",
        "col3": "1942-06-17",
        "col4": "1947-01-15"
    },
    {
        "col0": "USS Stadtfeld",
        "col1": "1943-08-26",
        "col2": "1942-11-26",
        "col3": "1943-05-17",
        "col4": "1945-11-10"
    },
    {
        "col0": "USS Stack",
        "col1": "1939-11-20",
        "col2": "1937-06-25",
        "col3": "1938-05-05",
        "col4": "1946-08-29"
    },
    {
        "col0": "USS St. Louis",
        "col1": "1969-11-22",
        "col2": "1968-04-03",
        "col3": "1969-01-04",
        "col4": "1992-11-02"
    },
    {
        "col0": "USS St. Louis",
        "col1": "1939-05-19",
        "col2": "1936-12-10",
        "col3": "1938-04-15",
        "col4": "1946-06-20"
    },
    {
        "col0": "USS St. Louis",
        "col1": "1906-08-18",
        "col2": "1902-07-31",
        "col3": "1905-05-06",
        "col4": "1922-03-03"
    },
    {
        "col0": "USS St. Louis",
        "col1": "1828-12-20",
        "col2": "1827-02-12",
        "col3": "1828-08-18",
        "col4": "1865-05-12"
    },
    {
        "col0": "USS St. Joseph's River",
        "col1": "1945-08-24",
        "col2": "1945-05-19",
        "col3": "1945-06-16",
        "col4": "1955-08-05"
    },
    {
        "col0": "USS St. George",
        "col1": "1944-07-24",
        "col2": "1943-08-04",
        "col3": "1944-02-14",
        "col4": "1946-08-01"
    },
    {
        "col0": "USS St. Clair County",
        "col1": "1945-02-02",
        "col2": "1944-11-27",
        "col3": "1945-01-10",
        "col4": "1946-08-24"
    },
    {
        "col0": "USS Spruance",
        "col1": "1975-09-20",
        "col2": "1972-11-27",
        "col3": "1973-11-10",
        "col4": "2005-03-23"
    },
    {
        "col0": "USS Sproston",
        "col1": "1919-07-12",
        "col2": "1918-04-20",
        "col3": "1918-08-10",
        "col4": "1922-08-15"
    },
    {
        "col0": "USS Springfield",
        "col1": "1944-09-09",
        "col2": "1943-02-13",
        "col3": "1944-03-09",
        "col4": "1949-09-30"
    },
    {
        "col0": "USS Springer",
        "col1": "1944-10-18",
        "col2": "1943-10-30",
        "col3": "1944-08-03",
        "col4": "1961-01-23"
    },
    {
        "col0": "USS Spot",
        "col1": "1944-08-03",
        "col2": "1943-08-24",
        "col3": "1944-05-19",
        "col4": "1946-06-19"
    },
    {
        "col0": "USS Spoonbill",
        "col1": "1955-06-14",
        "col2": "1953-11-02",
        "col3": "1954-08-03",
        "col4": "1959-06-16"
    },
    {
        "col0": "USS Spokane",
        "col1": "1946-05-17",
        "col2": "1944-11-15",
        "col3": "1945-09-22",
        "col4": "1950-02-27"
    },
    {
        "col0": "USS Spinax",
        "col1": "1946-09-20",
        "col2": "1945-05-14",
        "col3": "1945-11-20",
        "col4": "1969-10-11"
    },
    {
        "col0": "USS Spikefish",
        "col1": "1944-06-30",
        "col2": "1944-01-29",
        "col3": "1944-04-26",
        "col4": "1963-04-02"
    },
    {
        "col0": "USS Spiegel Grove",
        "col1": "1956-06-08",
        "col2": "1954-09-07",
        "col3": "1955-11-10",
        "col4": "1989-10-02"
    },
    {
        "col0": "USS Spicewood",
        "col1": "1944-04-07",
        "col2": "1943-05-25",
        "col3": "1943-12-06",
        "col4": "1946-02-20"
    },
    {
        "col0": "USS Spica",
        "col1": "1940-03-01",
        "col2": "1918-06-15",
        "col3": "1918-08-08",
        "col4": "1946-01-18"
    },
    {
        "col0": "USS Sphinx",
        "col1": "1945-05-10",
        "col2": "1944-10-20",
        "col3": "1945-03-07",
        "col4": "1947-05-26"
    },
    {
        "col0": "USS Sperry",
        "col1": "1942-05-01",
        "col2": "1941-02-01",
        "col3": "1941-12-17",
        "col4": "1982-09-30"
    },
    {
        "col0": "USS Speed",
        "col1": "1942-10-15",
        "col2": "1941-11-17",
        "col3": "1942-04-18",
        "col4": "1946-06-07"
    },
    {
        "col0": "USS Spectacle",
        "col1": "1944-06-11",
        "col2": "1943-05-24",
        "col3": "1943-10-01",
        "col4": "1945-10-19"
    },
    {
        "col0": "USS Spearfish",
        "col1": "1939-07-19",
        "col2": "1937-09-09",
        "col3": "1938-10-29",
        "col4": "1946-06-22"
    },
    {
        "col0": "USS Spear",
        "col1": "1943-12-31",
        "col2": "1942-10-28",
        "col3": "1943-02-25",
        "col4": "1946-08-01"
    },
    {
        "col0": "USS Spartanburg County",
        "col1": "1971-09-01",
        "col2": "1970-02-07",
        "col3": "1970-11-07",
        "col4": "1994-12-16"
    },
    {
        "col0": "USS Sparrow",
        "col1": "1944-10-23",
        "col2": "1944-10-04",
        "col3": "1944-10-17",
        "col4": "1946-06-05"
    },
    {
        "col0": "USS Spangler",
        "col1": "1943-10-31",
        "col2": "1943-04-28",
        "col3": "1943-07-15",
        "col4": "1958-10-08"
    },
    {
        "col0": "USS Spangenberg",
        "col1": "1944-03-15",
        "col2": "1943-04-05",
        "col3": "1943-07-03",
        "col4": "1947-10-18"
    },
    {
        "col0": "USS Spadefish",
        "col1": "1944-03-09",
        "col2": "1943-05-27",
        "col3": "1944-01-08",
        "col4": "1946-05-03"
    },
    {
        "col0": "USS Southard",
        "col1": "1919-09-24",
        "col2": "1918-08-18",
        "col3": "1919-03-31",
        "col4": "1945-12-05"
    },
    {
        "col0": "USS Southampton",
        "col1": "1944-09-16",
        "col2": "1944-05-26",
        "col3": "1944-07-28",
        "col4": "1946-06-21"
    },
    {
        "col0": "USS South Dakota",
        "col1": "1908-01-27",
        "col2": "1902-09-30",
        "col3": "1904-07-21",
        "col4": "1927-06-17"
    },
    {
        "col0": "USS South Carolina",
        "col1": "1975-01-25",
        "col2": "1970-12-01",
        "col3": "1972-07-01",
        "col4": "1999-07-30"
    },
    {
        "col0": "USS South Carolina",
        "col1": "1910-03-01",
        "col2": "1906-12-18",
        "col3": "1908-07-11",
        "col4": "1921-12-15"
    },
    {
        "col0": "USS Sotoyomo",
        "col1": "1943-05-29",
        "col2": "1942-09-07",
        "col3": "1942-10-19",
        "col4": "1946-04-09"
    },
    {
        "col0": "USS Sonoma",
        "col1": "1944-08-03",
        "col2": "1943-12-09",
        "col3": "1944-01-29",
        "col4": "1946-11-08"
    },
    {
        "col0": "USS Somers",
        "col1": "1959-04-09",
        "col2": "1957-03-04",
        "col3": "1958-05-30",
        "col4": "1982-11-19"
    },
    {
        "col0": "USS Somers",
        "col1": "1937-12-01",
        "col2": "1935-06-27",
        "col3": "1937-03-13",
        "col4": "1945-10-28"
    },
    {
        "col0": "USS Solomons",
        "col1": "1943-11-21",
        "col2": "1943-03-19",
        "col3": "1943-10-06",
        "col4": "1946-05-15"
    },
    {
        "col0": "USS Soley",
        "col1": "1944-12-07",
        "col2": "1944-04-18",
        "col3": "1944-09-08",
        "col4": "1970-02-13"
    },
    {
        "col0": "USS Solar",
        "col1": "1944-02-15",
        "col2": "1943-02-22",
        "col3": "1943-05-29",
        "col4": "1946-05-21"
    },
    {
        "col0": "USS Snyder",
        "col1": "1944-05-05",
        "col2": "1943-04-28",
        "col3": "1943-08-29",
        "col4": "1960-05-05"
    },
    {
        "col0": "USS Snowbell",
        "col1": "1944-03-16",
        "col2": "1943-05-03",
        "col3": "1943-09-14",
        "col4": "1945-12-05"
    },
    {
        "col0": "USS Snook",
        "col1": "1961-10-24",
        "col2": "1958-04-07",
        "col3": "1960-10-31",
        "col4": "1986-11-14"
    },
    {
        "col0": "USS Snatch",
        "col1": "1944-12-11",
        "col2": "1943-01-28",
        "col3": "1944-04-08",
        "col4": "1946-12-23"
    },
    {
        "col0": "USS Snapper",
        "col1": "1937-12-15",
        "col2": "1936-07-23",
        "col3": "1937-08-24",
        "col4": "1945-11-15"
    },
    {
        "col0": "USS Smith Thompson",
        "col1": "1919-12-10",
        "col2": "1919-03-24",
        "col3": "1919-07-14",
        "col4": "1936-05-15"
    },
    {
        "col0": "USS Smith",
        "col1": "1936-09-19",
        "col2": "1934-10-27",
        "col3": "1936-02-20",
        "col4": "1946-06-28"
    },
    {
        "col0": "USS Smith",
        "col1": "1909-11-26",
        "col2": "1908-03-18",
        "col3": "1909-04-20",
        "col4": "1919-09-02"
    },
    {
        "col0": "USS Smartt",
        "col1": "1943-06-18",
        "col2": "1943-01-10",
        "col3": "1943-02-22",
        "col4": "1945-10-05"
    },
    {
        "col0": "USS Smalley",
        "col1": "1944-03-31",
        "col2": "1943-02-14",
        "col3": "1943-10-27",
        "col4": "1957-09-30"
    },
    {
        "col0": "USS Sloat",
        "col1": "1943-08-16",
        "col2": "1942-11-21",
        "col3": "1943-01-21",
        "col4": "1947-08-06"
    },
    {
        "col0": "USS Sloat",
        "col1": "1920-12-30",
        "col2": "1919-01-18",
        "col3": "1919-05-14",
        "col4": "1930-06-02"
    },
    {
        "col0": "USS Slater",
        "col1": "1944-05-01",
        "col2": "1943-03-09",
        "col3": "1944-02-20",
        "col4": "1947-09-26"
    },
    {
        "col0": "USS Skywatcher",
        "col1": "1955-03-29",
        "col2": "1944-11-30",
        "col3": "1945-01-16",
        "col4": "1965-03-29"
    }
]