[
    {
        "col0": "W. Carroll",
        "col1": "1967-09-06",
        "col2": "1967-09-06",
        "col3": "42"
    },
    {
        "col0": "W. Britt",
        "col1": "1981-11-21",
        "col2": "1981-11-21",
        "col3": "167"
    },
    {
        "col0": "W. Sims",
        "col1": "1981-04-08",
        "col2": "1981-04-08",
        "col3": "177"
    },
    {
        "col0": "W. Schweitzer",
        "col1": "1993-09-11",
        "col2": "1993-09-11",
        "col3": "195"
    },
    {
        "col0": "W. Hopkins",
        "col1": "1961-09-26",
        "col2": "1961-09-26",
        "col3": "35"
    },
    {
        "col0": "W. Hamilton",
        "col1": "1953-04-24",
        "col2": "1953-04-24",
        "col3": "85"
    },
    {
        "col0": "W. Chandler",
        "col1": "1956-8-22",
        "col2": "1956-8-22",
        "col3": "3"
    },
    {
        "col0": "W. Gaines",
        "col1": "1953-02-04",
        "col2": "1953-02-04",
        "col3": "265"
    },
    {
        "col0": "W. Tyler",
        "col1": "1955-05-20",
        "col2": "1955-05-20",
        "col3": "79"
    },
    {
        "col0": "W. Smallwood",
        "col1": "1994-1-20",
        "col2": "1994-1-20",
        "col3": "153"
    },
    {
        "col0": "W. Harris",
        "col1": "1940-10-2",
        "col2": "1940-10-2",
        "col3": "9"
    },
    {
        "col0": "W. Davis",
        "col1": "1973-06-27",
        "col2": "1973-06-27",
        "col3": "207"
    },
    {
        "col0": "W. Davis",
        "col1": "1966-01-03",
        "col2": "1966-01-03",
        "col3": "27"
    },
    {
        "col0": "W. Bryant",
        "col1": "1980-09-12",
        "col2": "1980-09-12",
        "col3": "12"
    },
    {
        "col0": "W. Humble",
        "col1": "1921-04-24",
        "col2": "1921-04-24",
        "col3": "224"
    },
    {
        "col0": "W. Edwards",
        "col1": "1924-04-15",
        "col2": "1924-04-15",
        "col3": "19"
    },
    {
        "col0": "W. Slaughter",
        "col1": "1964-10-19",
        "col2": "1964-10-19",
        "col3": "43"
    },
    {
        "col0": "W. Burnett",
        "col1": "1967-11-07",
        "col2": "1967-11-07",
        "col3": "287"
    },
    {
        "col0": "W. Walker",
        "col1": "1936-09-30",
        "col2": "1936-09-30",
        "col3": "45"
    },
    {
        "col0": "W. Trimble",
        "col1": "1944-12-10",
        "col2": "1944-12-10",
        "col3": "91"
    },
    {
        "col0": "W. Stewart",
        "col1": "1947-8-18",
        "col2": "1947-8-18",
        "col3": "390"
    },
    {
        "col0": "W. Simmons",
        "col1": "1969-12-15",
        "col2": "1969-12-15",
        "col3": "15"
    },
    {
        "col0": "W. Patrick",
        "col1": "1946-09-01",
        "col2": "1946-09-01",
        "col3": "(By theCincinnati Bengals)"
    },
    {
        "col0": "W. Millner",
        "col1": "1913-1-31",
        "col2": "1913-1-31",
        "col3": "65"
    },
    {
        "col0": "W. McClure",
        "col1": "1942-07-02",
        "col2": "1942-07-02",
        "col3": "239"
    },
    {
        "col0": "W. Mass",
        "col1": "1946-03-11",
        "col2": "1946-03-11",
        "col3": "99"
    },
    {
        "col0": "W. Martin",
        "col1": "1965-10-26",
        "col2": "1965-10-26",
        "col3": "19"
    },
    {
        "col0": "W. Hunter",
        "col1": "1981-07-02",
        "col2": "1981-07-02",
        "col3": "73"
    },
    {
        "col0": "W. Hansen",
        "col1": "1928-10-06",
        "col2": "1928-10-06",
        "col3": "76"
    },
    {
        "col0": "W. Gandy",
        "col1": "1971-2-10",
        "col2": "1971-2-10",
        "col3": "15"
    },
    {
        "col0": "W. Davis",
        "col1": "1964-03-10",
        "col2": "1964-03-10",
        "col3": "229"
    },
    {
        "col0": "W. Clark",
        "col1": "1947-05-30",
        "col2": "1947-05-30",
        "col3": "198"
    },
    {
        "col0": "W. Bock",
        "col1": "1934-4-6",
        "col2": "1934-4-6",
        "col3": "58"
    },
    {
        "col0": "W. Dunn",
        "col1": "1975-01-05",
        "col2": "1975-01-05",
        "col3": "12"
    },
    {
        "col0": "W. Williams",
        "col1": "1965-07-29",
        "col2": "1965-07-29",
        "col3": "155"
    },
    {
        "col0": "W. Wells",
        "col1": "1942-11-14",
        "col2": "1942-11-14",
        "col3": "160"
    },
    {
        "col0": "W. Sapp",
        "col1": "1972-12-19",
        "col2": "1972-12-19",
        "col3": "12"
    },
    {
        "col0": "W. Rabb",
        "col1": "1937-12-12",
        "col2": "1937-12-12",
        "col3": "15"
    },
    {
        "col0": "W. McVea",
        "col1": "1946-7-30",
        "col2": "1946-7-30",
        "col3": "109"
    },
    {
        "col0": "W. Lahr",
        "col1": "1923-09-05",
        "col2": "1923-09-05",
        "col3": "(By thePittsburgh Steelers)"
    },
    {
        "col0": "W. Koegel",
        "col1": "1949-11-1",
        "col2": "1949-11-1",
        "col3": "73"
    },
    {
        "col0": "W. Bankston",
        "col1": "1947-7-22",
        "col2": "1947-7-22",
        "col3": "42"
    }
]