[
    {
        "col0": "Tanana Mission",
        "col1": "1899",
        "col2": "10117",
        "col3": "10117"
    },
    {
        "col0": "St. Mary's Mission",
        "col1": "1866",
        "col2": "8093",
        "col3": "8093"
    },
    {
        "col0": "St. Ignatius Mission",
        "col1": "1893",
        "col2": "8093",
        "col3": "8093"
    },
    {
        "col0": "St. Francis Solanus Mission",
        "col1": "1860",
        "col2": "4046",
        "col3": "4046"
    },
    {
        "col0": "Shoshone-Episcopal Mission",
        "col1": "90",
        "col2": "647497",
        "col3": "647497"
    },
    {
        "col0": "Shawnee Friends Mission",
        "col1": "1924",
        "col2": "12140",
        "col3": "12140"
    },
    {
        "col0": "Pottawatomie Baptist Mission Building",
        "col1": "1849",
        "col2": "8093",
        "col3": "8093"
    },
    {
        "col0": "Patterson School Historic District",
        "col1": "1912",
        "col2": "6859421",
        "col3": "6859421"
    },
    {
        "col0": "Lodi Arch",
        "col1": "1907",
        "col2": "404",
        "col3": "404"
    },
    {
        "col0": "Lihue Hongwanji Mission",
        "col1": "1901",
        "col2": "1618",
        "col3": "1618"
    },
    {
        "col0": "Fort Lemhi",
        "col1": "1855",
        "col2": "36421",
        "col3": "36421"
    },
    {
        "col0": "Embassy of Indonesia, Washington, D.C.",
        "col1": "1903",
        "col2": "1214",
        "col3": "1214"
    },
    {
        "col0": "Christ Church Mission",
        "col1": "1932",
        "col2": "8093",
        "col3": "8093"
    },
    {
        "col0": "Brainerd Mission",
        "col1": "1817",
        "col2": "4046",
        "col3": "4046"
    }
]