[
    {
        "col0": "W. Queen",
        "col1": "Pawn",
        "col2": "Looking-Glass Land",
        "col3": "R. Queen"
    },
    {
        "col0": "Tarzan",
        "col1": "Korak",
        "col2": "English language",
        "col3": "Tarzan and the Tarzan Twins"
    },
    {
        "col0": "S. White",
        "col1": "E. Swan",
        "col2": "Bavaria",
        "col3": "E. Queen"
    },
    {
        "col0": "Selene",
        "col1": "Underworld",
        "col2": "Hungarian people",
        "col3": "Underworld"
    },
    {
        "col0": "R. Grant",
        "col1": "N. Grant",
        "col2": "United States",
        "col3": "B. Henrickson"
    },
    {
        "col0": "R. Forman",
        "col1": "E. Forman",
        "col2": "United States",
        "col3": "Fez"
    },
    {
        "col0": "N. Powers",
        "col1": "D. Evil",
        "col2": "United Kingdom",
        "col3": "S. Evil"
    },
    {
        "col0": "N. Grant",
        "col1": "B. Henrickson",
        "col2": "United States",
        "col3": "R. Grant"
    },
    {
        "col0": "M. Anagnostou",
        "col1": "Erotas",
        "col2": "Greece",
        "col3": "Erotas"
    },
    {
        "col0": "M. Ravenwood",
        "col1": "M. Williams",
        "col2": "United States",
        "col3": "A. Ravenwood"
    },
    {
        "col0": "L. Griffin",
        "col1": "S. Griffin",
        "col2": "United States",
        "col3": "B. Pewterschmidt"
    },
    {
        "col0": "List of Disney's Aladdin characters",
        "col1": "Descendants",
        "col2": "Arabian",
        "col3": "P. Jasmine"
    },
    {
        "col0": "L. Munster",
        "col1": "E. Munster",
        "col2": "United States",
        "col3": "Grandpa"
    },
    {
        "col0": "L. Sternin",
        "col1": "F. Crane",
        "col2": "United States",
        "col3": "M. Crane"
    },
    {
        "col0": "L. d. Lioncourt",
        "col1": "Claudia",
        "col2": "French people",
        "col3": "G. d. Lioncourt"
    },
    {
        "col0": "Kyrano",
        "col1": "T. Kyrano",
        "col2": "Malaysia",
        "col3": "T. Hood"
    },
    {
        "col0": "K. Forman",
        "col1": "E. Forman",
        "col2": "United States",
        "col3": "Fez"
    },
    {
        "col0": "J. Valjean",
        "col1": "Cosette",
        "col2": "France",
        "col3": "M. Pontmercy"
    },
    {
        "col0": "J. Porter",
        "col1": "Korak",
        "col2": "England",
        "col3": "Meriem, wife of Korak"
    }
]