[
    {
        "col0": "Why",
        "col1": "A. Lennox",
        "col2": "Stephen Lipson",
        "col3": "293"
    },
    {
        "col0": "Why",
        "col1": "A. Gibb",
        "col2": "Gibb-Galuten-Richardson",
        "col3": "271"
    },
    {
        "col0": "Why",
        "col1": "Babyface",
        "col2": "Michael Jackson",
        "col3": "250"
    },
    {
        "col0": "Why, Why, Why",
        "col1": "B. Currington",
        "col2": "Carson Chamberlain",
        "col3": "165"
    },
    {
        "col0": "Why, Pt. 2",
        "col1": "E. Roland",
        "col2": "Ed Roland",
        "col3": "217"
    },
    {
        "col0": "Why'd You Only Call Me When You're High?",
        "col1": "A. Turner",
        "col2": "James Ford",
        "col3": "161"
    },
    {
        "col0": "Why'd You Come in Here Lookin' Like That",
        "col1": "R. Thomas",
        "col2": "Ricky Skaggs",
        "col3": "153"
    },
    {
        "col0": "Whutcha Want?",
        "col1": "R. Lewis",
        "col2": "Rob Lewis",
        "col3": "293"
    },
    {
        "col0": "Whose Bed Have Your Boots Been Under?",
        "col1": "S. Twain",
        "col2": "Robert Lange",
        "col3": "239"
    },
    {
        "col0": "Whore II",
        "col1": "A. Kollek",
        "col2": "Julian Schlossberg",
        "col3": "5100"
    },
    {
        "col0": "Whore",
        "col1": "K. Russell",
        "col2": "Dan Ireland",
        "col3": "5100"
    },
    {
        "col0": "Whoops Apocalypse",
        "col1": "D. Renwick",
        "col2": "Brian Eastman",
        "col3": "5580"
    },
    {
        "col0": "Whoops",
        "col1": "G. Maar",
        "col2": "Sandor Simo",
        "col3": "5520"
    },
    {
        "col0": "Whoops, I'm an Indian!",
        "col1": "C. Bruckman",
        "col2": "Jules White",
        "col3": "1032"
    },
    {
        "col0": "Whoopee!",
        "col1": "O. Davis",
        "col2": "Samuel Goldwyn",
        "col3": "6060"
    },
    {
        "col0": "Whoomp!",
        "col1": "T. Team",
        "col2": "Tag Team",
        "col3": "236"
    },
    {
        "col0": "Whom the Gods Love",
        "col1": "E. v. Borsody",
        "col2": "Karl Hartl",
        "col3": "6660"
    },
    {
        "col0": "Whom the Gods Love",
        "col1": "G. Wellesley",
        "col2": "Basil Dean",
        "col3": "4920"
    },
    {
        "col0": "Whom Shall I Fear",
        "col1": "C. Tomlin",
        "col2": "Ed Cash",
        "col3": "240"
    },
    {
        "col0": "Wholy Holy",
        "col1": "M. Gaye",
        "col2": "Marvin Gaye",
        "col3": "188"
    },
    {
        "col0": "Whole Wide World",
        "col1": "W. Eric",
        "col2": "Ian Dury",
        "col3": "182"
    },
    {
        "col0": "Whole New Thing",
        "col1": "D. MacIvor",
        "col2": "Camelia Frieberg",
        "col3": "5520"
    },
    {
        "col0": "Whole Lotta Woman",
        "col1": "M. Rainwater",
        "col2": "Jim Vienneau",
        "col3": "157"
    },
    {
        "col0": "Whole Lotta Trouble",
        "col1": "S. Nicks",
        "col2": "Rupert Hine",
        "col3": "298"
    },
    {
        "col0": "Whole Lotta Sole",
        "col1": "T. George",
        "col2": "Terry George",
        "col3": "5340"
    },
    {
        "col0": "Whole Lotta Rosie",
        "col1": "B. Scott",
        "col2": "George Young",
        "col3": "320"
    },
    {
        "col0": "Whole Lotta Lovin'",
        "col1": "D. Mustard",
        "col2": "DJ Mustard",
        "col3": "299"
    },
    {
        "col0": "Whole Lotta Love on the Line",
        "col1": "A. Tippin",
        "col2": "Scott Hendricks",
        "col3": "224"
    },
    {
        "col0": "Whole Lotta Love",
        "col1": "J. Page",
        "col2": "Jimmy Page",
        "col3": "333"
    },
    {
        "col0": "Whole Lotta' Woman",
        "col1": "S. Robinson",
        "col2": "Berry Gordy, Jr.",
        "col3": "161"
    },
    {
        "col0": "Whole Lot of Shakin' in My Heart",
        "col1": "F. Wilson",
        "col2": "Frank Wilson",
        "col3": "162"
    },
    {
        "col0": "Whole Lot of Leavin'",
        "col1": "J. B. Jovi",
        "col2": "John Shanks",
        "col3": "256"
    },
    {
        "col0": "Whole Again",
        "col1": "A. McCluskey",
        "col2": "Desmond Child",
        "col3": "183"
    },
    {
        "col0": "Whoever Slew Auntie Roo?",
        "col1": "J. Sangster",
        "col2": "Samuel Z. Arkoff",
        "col3": "5460"
    },
    {
        "col0": "Whoa",
        "col1": "L. Kim",
        "col2": "J. R. Rotem",
        "col3": "265"
    },
    {
        "col0": "Who the Hell Is Juliette?",
        "col1": "C. Marcovich",
        "col2": "Simon Bross",
        "col3": "5460"
    },
    {
        "col0": "Who the Fuck Is That?",
        "col1": "T-Pain",
        "col2": "Akon",
        "col3": "253"
    },
    {
        "col0": "Who the 'Ell Is Tauriel?",
        "col1": "C. Winchester",
        "col2": "Christopher Winchester",
        "col3": "240"
    },
    {
        "col0": "Who is Thanassis",
        "col1": "G. Lazaridis",
        "col2": "Thanassis Vengos",
        "col3": "5400"
    },
    {
        "col0": "Who You Wit",
        "col1": "Jay-Z",
        "col2": "Ski",
        "col3": "247"
    },
    {
        "col0": "Who You Lovin",
        "col1": "S. Douglas",
        "col2": "Cook Classics",
        "col3": "232"
    },
    {
        "col0": "Who You Gonna Blame It On This Time",
        "col1": "H. Cochran",
        "col2": "Bob Montgomery",
        "col3": "169"
    },
    {
        "col0": "Who You Are",
        "col1": "E. Vedder",
        "col2": "Pearl Jam",
        "col3": "230"
    },
    {
        "col0": "Who You Are",
        "col1": "T. Gad",
        "col2": "Toby Gad",
        "col3": "230"
    },
    {
        "col0": "Who You'd Be Today",
        "col1": "A. Mayo",
        "col2": "Kenny Chesney",
        "col3": "254"
    },
    {
        "col0": "Who Wouldn't Wanna Be Me",
        "col1": "K. Urban",
        "col2": "Keith Urban",
        "col3": "221"
    }
]