[
    {
        "col0": "T. Frederick",
        "col1": "1991-03-18",
        "col2": "1991-03-18",
        "col3": "31"
    },
    {
        "col0": "T. Fisher",
        "col1": "1979-09-12",
        "col2": "1979-09-12",
        "col3": "64"
    },
    {
        "col0": "T. Feeney",
        "col1": "1992-11-18",
        "col2": "1992-11-18",
        "col3": "220"
    },
    {
        "col0": "T. Dorsch",
        "col1": "1979-09-04",
        "col2": "1979-09-04",
        "col3": "109"
    },
    {
        "col0": "T. Davis",
        "col1": "1973-01-10",
        "col2": "1973-01-10",
        "col3": "242"
    },
    {
        "col0": "T. Daniels",
        "col1": "1982-09-08",
        "col2": "1982-09-08",
        "col3": "104"
    },
    {
        "col0": "T. Claridge",
        "col1": "1978-03-23",
        "col2": "1978-03-23",
        "col3": "37"
    },
    {
        "col0": "T. Bond",
        "col1": "1990-12-10",
        "col2": "1990-12-10",
        "col3": "214"
    },
    {
        "col0": "T. Benjamin",
        "col1": "1989-12-29",
        "col2": "1989-12-29",
        "col3": "100"
    },
    {
        "col0": "T. Beckum",
        "col1": "1987-01-24",
        "col2": "1987-01-24",
        "col3": "100"
    },
    {
        "col0": "T. Smith",
        "col1": "1975-08-26",
        "col2": "1975-08-26",
        "col3": "152"
    },
    {
        "col0": "T. Robertson",
        "col1": "1988-12-09",
        "col2": "1988-12-09",
        "col3": "249"
    },
    {
        "col0": "T. Wharton",
        "col1": "1981-05-19",
        "col2": "1981-05-19",
        "col3": "94"
    },
    {
        "col0": "T. Tillman",
        "col1": "1977-10-08",
        "col2": "1977-10-08",
        "col3": "58"
    },
    {
        "col0": "T. Turner",
        "col1": "1993-06-14",
        "col2": "1993-06-14",
        "col3": "92"
    },
    {
        "col0": "T. Essex",
        "col1": "1982-12-05",
        "col2": "1982-12-05",
        "col3": "93"
    },
    {
        "col0": "T. Williams",
        "col1": "1985-01-30",
        "col2": "1985-01-30",
        "col3": "159"
    },
    {
        "col0": "T. Scroggins",
        "col1": "1969-09-11",
        "col2": "1969-09-11",
        "col3": "53"
    },
    {
        "col0": "T. Rogers",
        "col1": "1967-8-13",
        "col2": "1967-8-13",
        "col3": "190"
    },
    {
        "col0": "T. Rocker",
        "col1": "1966-04-09",
        "col2": "1966-04-09",
        "col3": "66"
    },
    {
        "col0": "T. Porter",
        "col1": "1959-06-01",
        "col2": "1959-06-01",
        "col3": "99"
    },
    {
        "col0": "T. Porter",
        "col1": "1986-08-11",
        "col2": "1986-08-11",
        "col3": "40"
    },
    {
        "col0": "T. Hayworth",
        "col1": "1967-12-18",
        "col2": "1967-12-18",
        "col3": "174"
    },
    {
        "col0": "T. Greene",
        "col1": "1972-11-5",
        "col2": "1972-11-5",
        "col3": "219"
    },
    {
        "col0": "T. Eaton",
        "col1": "1965-07-19",
        "col2": "1965-07-19",
        "col3": "187"
    },
    {
        "col0": "T. Armstrong",
        "col1": "1965-10-05",
        "col2": "1965-10-05",
        "col3": "12"
    },
    {
        "col0": "T. Thomas",
        "col1": "1974-11-20",
        "col2": "1974-11-20",
        "col3": "11"
    },
    {
        "col0": "T. Tyler",
        "col1": "1959-03-19",
        "col2": "1959-03-19",
        "col3": "222"
    },
    {
        "col0": "T. Williams",
        "col1": "1991-05-09",
        "col2": "1991-05-09",
        "col3": "179"
    },
    {
        "col0": "T. James",
        "col1": "1973-05-18",
        "col2": "1973-05-18",
        "col3": "44"
    },
    {
        "col0": "T. Epps",
        "col1": "1967-05-28",
        "col2": "1967-05-28",
        "col3": "195"
    },
    {
        "col0": "T. Holt",
        "col1": "1976-06-05",
        "col2": "1976-06-05",
        "col3": "6"
    },
    {
        "col0": "T. Cox",
        "col1": "1980-10-29",
        "col2": "1980-10-29",
        "col3": "205"
    },
    {
        "col0": "T. Smith",
        "col1": "1989-1-26",
        "col2": "1989-1-26",
        "col3": "58"
    },
    {
        "col0": "T. Small",
        "col1": "1970-09-04",
        "col2": "1970-09-04",
        "col3": "138"
    },
    {
        "col0": "T. Marshall",
        "col1": "1977-06-12",
        "col2": "1977-06-12",
        "col3": "72"
    },
    {
        "col0": "T. Dorn",
        "col1": "1968-02-29",
        "col2": "1968-02-29",
        "col3": "95"
    },
    {
        "col0": "T. Troup",
        "col1": "1987-6-23",
        "col2": "1987-6-23",
        "col3": "41"
    },
    {
        "col0": "T. James",
        "col1": "1974-03-08",
        "col2": "1974-03-08",
        "col3": "218"
    },
    {
        "col0": "T. Woods",
        "col1": "1965-9-11",
        "col2": "1965-9-11",
        "col3": "18"
    },
    {
        "col0": "T. Woodruff",
        "col1": "1958-11-12",
        "col2": "1958-11-12",
        "col3": "244"
    },
    {
        "col0": "T. Williams",
        "col1": "1975-07-09",
        "col2": "1975-07-09",
        "col3": "151"
    },
    {
        "col0": "T. Veland",
        "col1": "1972-3-11",
        "col2": "1972-3-11",
        "col3": "181"
    },
    {
        "col0": "T. Tolbert",
        "col1": "1967-12-29",
        "col2": "1967-12-29",
        "col3": "85"
    },
    {
        "col0": "T. Stewart",
        "col1": "1979-08-09",
        "col2": "1979-08-09",
        "col3": "147"
    },
    {
        "col0": "T. Steward",
        "col1": "1992-09-19",
        "col2": "1992-09-19",
        "col3": "188"
    },
    {
        "col0": "T. Smith",
        "col1": "1970-06-29",
        "col2": "1970-06-29",
        "col3": "19"
    },
    {
        "col0": "T. Slaton",
        "col1": "1961-4-12",
        "col2": "1961-4-12",
        "col3": "155"
    },
    {
        "col0": "T. Simmons",
        "col1": "1974-12-08",
        "col2": "1974-12-08",
        "col3": "52"
    },
    {
        "col0": "T. Semple",
        "col1": "1970-12-20",
        "col2": "1970-12-20",
        "col3": "154"
    },
    {
        "col0": "T. Scheffler",
        "col1": "1983-2-15",
        "col2": "1983-2-15",
        "col3": "61"
    },
    {
        "col0": "T. Samuels",
        "col1": "1954-12-30",
        "col2": "1954-12-30",
        "col3": "94"
    },
    {
        "col0": "T. Sacca",
        "col1": "1970-4-17",
        "col2": "1970-4-17",
        "col3": "18"
    },
    {
        "col0": "T. Ramirez",
        "col1": "1973-01-26",
        "col2": "1973-01-26",
        "col3": "168"
    },
    {
        "col0": "T. Pike",
        "col1": "1986-03-10",
        "col2": "1986-03-10",
        "col3": "204"
    },
    {
        "col0": "T. Peterson",
        "col1": "1972-01-23",
        "col2": "1972-01-23",
        "col3": "153"
    },
    {
        "col0": "T. Peters",
        "col1": "1953-04-28",
        "col2": "1953-04-28",
        "col3": "82"
    },
    {
        "col0": "T. Parrish",
        "col1": "1975-11-23",
        "col2": "1975-11-23",
        "col3": "35"
    },
    {
        "col0": "T. Pape",
        "col1": "1981-09-29",
        "col2": "1981-09-29",
        "col3": "221"
    },
    {
        "col0": "T. Palmer",
        "col1": "1983-02-23",
        "col2": "1983-02-23",
        "col3": "243"
    },
    {
        "col0": "T. Paige",
        "col1": "1962-10-14",
        "col2": "1962-10-14",
        "col3": "149"
    },
    {
        "col0": "T. Nathan",
        "col1": "1956-12-14",
        "col2": "1956-12-14",
        "col3": "61"
    },
    {
        "col0": "T. Moll",
        "col1": "1983-08-23",
        "col2": "1983-08-23",
        "col3": "165"
    },
    {
        "col0": "T. McGee",
        "col1": "1971-04-21",
        "col2": "1971-04-21",
        "col3": "37"
    },
    {
        "col0": "T. McGee",
        "col1": "1949-01-18",
        "col2": "1949-01-18",
        "col3": "64"
    },
    {
        "col0": "T. McCoy",
        "col1": "1969-06-10",
        "col2": "1969-06-10",
        "col3": "105"
    },
    {
        "col0": "T. Mayberry",
        "col1": "1967-12-08",
        "col2": "1967-12-08",
        "col3": "108"
    },
    {
        "col0": "T. Martin",
        "col1": "1965-09-05",
        "col2": "1965-09-05",
        "col3": "126"
    },
    {
        "col0": "T. Lilly",
        "col1": "1962-02-16",
        "col2": "1962-02-16",
        "col3": "78"
    },
    {
        "col0": "T. Leonard",
        "col1": "1953-02-28",
        "col2": "1953-02-28",
        "col3": "140"
    },
    {
        "col0": "T. Leon",
        "col1": "1917-02-18",
        "col2": "1917-02-18",
        "col3": "70"
    },
    {
        "col0": "T. Jordan",
        "col1": "1965-05-08",
        "col2": "1965-05-08",
        "col3": "132"
    },
    {
        "col0": "T. Jones",
        "col1": "1965-12-30",
        "col2": "1965-12-30",
        "col3": "153"
    },
    {
        "col0": "T. Johnson",
        "col1": "1972-02-05",
        "col2": "1972-02-05",
        "col3": "(By thePhiladelphia Eagles)"
    },
    {
        "col0": "T. Jeffery",
        "col1": "1964-07-08",
        "col2": "1964-07-08",
        "col3": "38"
    },
    {
        "col0": "T. Jackson",
        "col1": "1982-7-5",
        "col2": "1982-7-5",
        "col3": "196"
    },
    {
        "col0": "T. Ippolito",
        "col1": "1917-09-19",
        "col2": "1917-09-19",
        "col3": "54"
    },
    {
        "col0": "T. Hunter",
        "col1": "1960-5-22",
        "col2": "1960-5-22",
        "col3": "12"
    },
    {
        "col0": "T. Hunt",
        "col1": "1985-11-24",
        "col2": "1985-11-24",
        "col3": "90"
    },
    {
        "col0": "T. Hills",
        "col1": "1984-11-04",
        "col2": "1984-11-04",
        "col3": "130"
    },
    {
        "col0": "T. Hill",
        "col1": "1956-06-23",
        "col2": "1956-06-23",
        "col3": "62"
    },
    {
        "col0": "T. Hill",
        "col1": "1968-10-23",
        "col2": "1968-10-23",
        "col3": "108"
    },
    {
        "col0": "T. Guillory",
        "col1": "1942-11-10",
        "col2": "1942-11-10",
        "col3": "93"
    },
    {
        "col0": "T. Green",
        "col1": "1956-09-26",
        "col2": "1956-09-26",
        "col3": "159"
    },
    {
        "col0": "T. Graziani",
        "col1": "1973-12-23",
        "col2": "1973-12-23",
        "col3": "204"
    },
    {
        "col0": "T. Gonzalez",
        "col1": "1976-2-27",
        "col2": "1976-2-27",
        "col3": "13"
    },
    {
        "col0": "T. George",
        "col1": "1975-08-10",
        "col2": "1975-08-10",
        "col3": "91"
    },
    {
        "col0": "T. Franklin",
        "col1": "1956-11-18",
        "col2": "1956-11-18",
        "col3": "74"
    },
    {
        "col0": "T. Fiammetta",
        "col1": "1986-08-22",
        "col2": "1986-08-22",
        "col3": "128"
    },
    {
        "col0": "T. Eason",
        "col1": "1959-10-08",
        "col2": "1959-10-08",
        "col3": "15"
    },
    {
        "col0": "T. Driver",
        "col1": "1977-08-04",
        "col2": "1977-08-04",
        "col3": "178"
    },
    {
        "col0": "T. Dixon",
        "col1": "1979-06-18",
        "col2": "1979-06-18",
        "col3": "56"
    },
    {
        "col0": "T. Degrate",
        "col1": "1962-04-25",
        "col2": "1962-04-25",
        "col3": "127"
    },
    {
        "col0": "T. Davis",
        "col1": "1953-01-21",
        "col2": "1953-01-21",
        "col3": "106"
    },
    {
        "col0": "T. Covington",
        "col1": "1967-12-26",
        "col2": "1967-12-26",
        "col3": "93"
    },
    {
        "col0": "T. Compagno",
        "col1": "1921-01-29",
        "col2": "1921-01-29",
        "col3": "197"
    },
    {
        "col0": "T. Collins",
        "col1": "1959-05-27",
        "col2": "1959-05-27",
        "col3": "47"
    },
    {
        "col0": "T. Chickillo",
        "col1": "1960-07-08",
        "col2": "1960-07-08",
        "col3": "131"
    },
    {
        "col0": "T. Casillas",
        "col1": "1963-10-26",
        "col2": "1963-10-26",
        "col3": "2"
    },
    {
        "col0": "T. Burse",
        "col1": "1965-04-04",
        "col2": "1965-04-04",
        "col3": "324"
    },
    {
        "col0": "T. Bua",
        "col1": "1980-02-11",
        "col2": "1980-02-11",
        "col3": "160"
    },
    {
        "col0": "T. Bryant",
        "col1": "1976-09-03",
        "col2": "1976-09-03",
        "col3": "40"
    },
    {
        "col0": "T. Brooks",
        "col1": "1969-08-17",
        "col2": "1969-08-17",
        "col3": "92"
    },
    {
        "col0": "T. Boselli",
        "col1": "1972-4-17",
        "col2": "1972-4-17",
        "col3": "2"
    },
    {
        "col0": "T. Berti",
        "col1": "1972-06-21",
        "col2": "1972-06-21",
        "col3": "200"
    },
    {
        "col0": "T. Bergstrom",
        "col1": "1986-08-08",
        "col2": "1986-08-08",
        "col3": "95"
    },
    {
        "col0": "T. Bennett",
        "col1": "1967-07-01",
        "col2": "1967-07-01",
        "col3": "18"
    },
    {
        "col0": "T. Beckham",
        "col1": "1978-10-01",
        "col2": "1978-10-01",
        "col3": "115"
    },
    {
        "col0": "T. Barker",
        "col1": "1968-09-07",
        "col2": "1968-09-07",
        "col3": "280"
    },
    {
        "col0": "T. Banks",
        "col1": "1973-04-05",
        "col2": "1973-04-05",
        "col3": "42"
    },
    {
        "col0": "T. Baker",
        "col1": "1964-06-11",
        "col2": "1964-06-11",
        "col3": "252"
    },
    {
        "col0": "T. Adams",
        "col1": "1950-3-9",
        "col2": "1950-3-9",
        "col3": "343"
    },
    {
        "col0": "T. Adamle",
        "col1": "1924-05-15",
        "col2": "1924-05-15",
        "col3": "(By theChicago Bears)"
    },
    {
        "col0": "T. Clemons",
        "col1": "1988-10-11",
        "col2": "1988-10-11",
        "col3": "231"
    },
    {
        "col0": "T. Vigorito",
        "col1": "1959-10-23",
        "col2": "1959-10-23",
        "col3": "138"
    },
    {
        "col0": "T. Tolleson",
        "col1": "1943-01-30",
        "col2": "1943-01-30",
        "col3": "216"
    },
    {
        "col0": "T. Thompson",
        "col1": "1927-01-06",
        "col2": "1927-01-06",
        "col3": "(By theWashington Redskins)"
    },
    {
        "col0": "T. Streeter",
        "col1": "1988-10-7",
        "col2": "1988-10-7",
        "col3": "198"
    },
    {
        "col0": "T. Polley",
        "col1": "1978-01-18",
        "col2": "1978-01-18",
        "col3": "42"
    },
    {
        "col0": "T. O'Connell",
        "col1": "1930-9-26",
        "col2": "1930-9-26",
        "col3": "212"
    },
    {
        "col0": "T. Neck",
        "col1": "1939-1-10",
        "col2": "1939-1-10",
        "col3": "245"
    },
    {
        "col0": "T. McDonald",
        "col1": "1934-07-26",
        "col2": "1934-07-26",
        "col3": "31"
    },
    {
        "col0": "T. Maxwell",
        "col1": "1947-5-5",
        "col2": "1947-5-5",
        "col3": "51"
    },
    {
        "col0": "T. Maddox",
        "col1": "1971-9-2",
        "col2": "1971-9-2",
        "col3": "25"
    },
    {
        "col0": "T. Lyons",
        "col1": "1948-08-07",
        "col2": "1948-08-07",
        "col3": "350"
    },
    {
        "col0": "T. Kramer",
        "col1": "1955-03-07",
        "col2": "1955-03-07",
        "col3": "27"
    },
    {
        "col0": "T. Kane",
        "col1": "1964-01-14",
        "col2": "1964-01-14",
        "col3": "75"
    },
    {
        "col0": "T. Jeter",
        "col1": "1969-09-20",
        "col2": "1969-09-20",
        "col3": "75"
    },
    {
        "col0": "T. James",
        "col1": "1923-9-16",
        "col2": "1923-9-16",
        "col3": "146"
    },
    {
        "col0": "T. Hodson",
        "col1": "1967-1-28",
        "col2": "1967-1-28",
        "col3": "59"
    },
    {
        "col0": "T. Davis",
        "col1": "1934-10-13",
        "col2": "1934-10-13",
        "col3": "128"
    },
    {
        "col0": "T. Colella",
        "col1": "1918-07-03",
        "col2": "1918-07-03",
        "col3": "55"
    },
    {
        "col0": "T. Casanova",
        "col1": "1950-08-29",
        "col2": "1950-08-29",
        "col3": "29"
    },
    {
        "col0": "T. Boutwell",
        "col1": "1946-12-31",
        "col2": "1946-12-31",
        "col3": "332"
    },
    {
        "col0": "T. Bohanon",
        "col1": "1990-09-10",
        "col2": "1990-09-10",
        "col3": "215"
    },
    {
        "col0": "T. Barnhardt",
        "col1": "1963-6-11",
        "col2": "1963-6-11",
        "col3": "223"
    },
    {
        "col0": "T. Smith",
        "col1": "1944-06-06",
        "col2": "1944-06-06",
        "col3": "226"
    },
    {
        "col0": "T. Harris",
        "col1": "1983-04-29",
        "col2": "1983-04-29",
        "col3": "14"
    },
    {
        "col0": "T. Campbell",
        "col1": "1987-09-19",
        "col2": "1987-09-19",
        "col3": "251"
    },
    {
        "col0": "T. Agee",
        "col1": "1964-02-22",
        "col2": "1964-02-22",
        "col3": "119"
    },
    {
        "col0": "T. Watkins",
        "col1": "1937-10-23",
        "col2": "1937-10-23",
        "col3": "177"
    },
    {
        "col0": "T. Vaughn",
        "col1": "1943-02-28",
        "col2": "1943-02-28",
        "col3": "(By theDetroit Lions)"
    },
    {
        "col0": "T. Tumulty",
        "col1": "1973-02-11",
        "col2": "1973-02-11",
        "col3": "178"
    },
    {
        "col0": "T. Tracy",
        "col1": "1934-09-07",
        "col2": "1934-09-07",
        "col3": "50"
    },
    {
        "col0": "T. Toth",
        "col1": "1962-05-23",
        "col2": "1962-05-23",
        "col3": "102"
    },
    {
        "col0": "T. Toner",
        "col1": "1950-01-25",
        "col2": "1950-01-25",
        "col3": "152"
    },
    {
        "col0": "T. Thayer",
        "col1": "1961-08-16",
        "col2": "1961-08-16",
        "col3": "91"
    },
    {
        "col0": "T. Smith",
        "col1": "1949-10-04",
        "col2": "1949-10-04",
        "col3": "182"
    },
    {
        "col0": "T. Smiley",
        "col1": "1944-02-18",
        "col2": "1944-02-18",
        "col3": "28"
    },
    {
        "col0": "T. Sestak",
        "col1": "1936-03-09",
        "col2": "1936-03-09",
        "col3": "220"
    },
    {
        "col0": "T. Scott",
        "col1": "1970-06-25",
        "col2": "1970-06-25",
        "col3": "148"
    },
    {
        "col0": "T. Schoen",
        "col1": "1946-01-30",
        "col2": "1946-01-30",
        "col3": "212"
    },
    {
        "col0": "T. Savage",
        "col1": "1990-4-26",
        "col2": "1990-4-26",
        "col3": "135"
    },
    {
        "col0": "T. Santi",
        "col1": "1985-11-22",
        "col2": "1985-11-22",
        "col3": "196"
    },
    {
        "col0": "T. Ruud",
        "col1": "1953-07-26",
        "col2": "1953-07-26",
        "col3": "19"
    },
    {
        "col0": "T. Ricketts",
        "col1": "1965-11-21",
        "col2": "1965-11-21",
        "col3": "24"
    },
    {
        "col0": "T. Rehder",
        "col1": "1965-01-27",
        "col2": "1965-01-27",
        "col3": "69"
    },
    {
        "col0": "T. Regner",
        "col1": "1944-4-19",
        "col2": "1944-4-19",
        "col3": "23"
    },
    {
        "col0": "T. Randall",
        "col1": "1956-08-03",
        "col2": "1956-08-03",
        "col3": "194"
    },
    {
        "col0": "T. Ramsey",
        "col1": "1961-07-09",
        "col2": "1961-07-09",
        "col3": "267"
    },
    {
        "col0": "T. Rafferty",
        "col1": "1954-08-02",
        "col2": "1954-08-02",
        "col3": "119"
    },
    {
        "col0": "T. Perko",
        "col1": "1954-06-17",
        "col2": "1954-06-17",
        "col3": "101"
    },
    {
        "col0": "T. Pennington",
        "col1": "1939-11-26",
        "col2": "1939-11-26",
        "col3": "(by theGreen Bay Packers)"
    },
    {
        "col0": "T. Owen",
        "col1": "1952-09-01",
        "col2": "1952-09-01",
        "col3": "322"
    }
]