[
    {
        "col0": "Blue-gray",
        "col1": "102",
        "col2": "0",
        "col3": "80"
    },
    {
        "col0": "Bleu de France",
        "col1": "49",
        "col2": "0",
        "col3": "91"
    },
    {
        "col0": "Black",
        "col1": "0",
        "col2": "0",
        "col3": "0"
    },
    {
        "col0": "Bistre",
        "col1": "61",
        "col2": "49",
        "col3": "24"
    },
    {
        "col0": "Beige",
        "col1": "245",
        "col2": "10",
        "col3": "96"
    },
    {
        "col0": "Baker-Miller Pink",
        "col1": "255",
        "col2": "31",
        "col3": "100"
    },
    {
        "col0": "Baby blue",
        "col1": "137",
        "col2": "0",
        "col3": "94"
    },
    {
        "col0": "Aqua",
        "col1": "0",
        "col2": "0",
        "col3": "100"
    },
    {
        "col0": "Apricot",
        "col1": "251",
        "col2": "30",
        "col3": "98"
    },
    {
        "col0": "Android green",
        "col1": "164",
        "col2": "71",
        "col3": "78"
    },
    {
        "col0": "Amber",
        "col1": "255",
        "col2": "100",
        "col3": "100"
    },
    {
        "col0": "Amaranth",
        "col1": "241",
        "col2": "22",
        "col3": "95"
    },
    {
        "col0": "Alizarin crimson",
        "col1": "227",
        "col2": "76",
        "col3": "89"
    },
    {
        "col0": "Alice blue",
        "col1": "240",
        "col2": "1",
        "col3": "100"
    },
    {
        "col0": "Acid green",
        "col1": "176",
        "col2": "86",
        "col3": "75"
    }
]