[
    {
        "col0": "Noble Mission",
        "col1": "J. Farms",
        "col2": "Danehill",
        "col3": "Sadler's Wells",
        "col4": "Kind"
    },
    {
        "col0": "Nijinsky",
        "col1": "W. Farm",
        "col2": "Bull Page",
        "col3": "Nearctic",
        "col4": "Flaming Page"
    },
    {
        "col0": "Next Move",
        "col1": "Alfred G. Vanderbilt II",
        "col2": "Chance Play",
        "col3": "Bull Dog",
        "col4": "Now What"
    },
    {
        "col0": "Nellie L.",
        "col1": "C. Farm",
        "col2": "American Flag",
        "col3": "Blandford",
        "col4": "Nellie Flag"
    },
    {
        "col0": "Nellie Flag",
        "col1": "C. Farm",
        "col2": "Luke McLuke",
        "col3": "Man o' War",
        "col4": "Nellie Morse"
    },
    {
        "col0": "Nayef",
        "col1": "S. Stud",
        "col2": "Bustino",
        "col3": "Mr. Prospector",
        "col4": "Height of Fashion"
    },
    {
        "col0": "Nashwan",
        "col1": "Hamdan bin Rashid Al Maktoum",
        "col2": "Bustino",
        "col3": "Red God",
        "col4": "Height of Fashion"
    },
    {
        "col0": "My Flag",
        "col1": "O. Phipps",
        "col2": "Private Account",
        "col3": "Alydar",
        "col4": "Personal Ensign"
    },
    {
        "col0": "Mark-Ye-Well",
        "col1": "C. Farm",
        "col2": "Blenheim II",
        "col3": "Bull Dog",
        "col4": "Mar-Kell"
    },
    {
        "col0": "Mar-Kell",
        "col1": "C. Farm",
        "col2": "American Flag",
        "col3": "Blandford",
        "col4": "Nellie Flag"
    },
    {
        "col0": "Man of Iron",
        "col1": "S. G. Stables",
        "col2": "Deputy Minister",
        "col3": "Storm Cat",
        "col4": "Better Than Honour"
    },
    {
        "col0": "Man o' War",
        "col1": "A. B. Jr.",
        "col2": "Rock Sand",
        "col3": "Hastings",
        "col4": "Mahubah"
    },
    {
        "col0": "La Voyageuse",
        "col1": "J. Levesque",
        "col2": "Northern Dancer",
        "col3": "Intentionally",
        "col4": "Fanfreluche"
    },
    {
        "col0": "L'Enjoleur",
        "col1": "J. Levesque",
        "col2": "Northern Dancer",
        "col3": "Tom Fool",
        "col4": "Fanfreluche"
    },
    {
        "col0": "John F Kennedy",
        "col1": "S. Niarchos",
        "col2": "Danehill",
        "col3": "Sadlers Wells",
        "col4": "Rumplestiltskin"
    },
    {
        "col0": "Jazil",
        "col1": "S. G. Stables",
        "col2": "Deputy Minister",
        "col3": "Mr. Prospector",
        "col4": "Better Than Honour"
    },
    {
        "col0": "Islington",
        "col1": "B. Stud",
        "col2": "Darshaan",
        "col3": "Northern Dancer",
        "col4": "Hellenic"
    },
    {
        "col0": "Intercontinental",
        "col1": "J. Farms",
        "col2": "Kahyasi",
        "col3": "Danzig",
        "col4": "Hasili"
    },
    {
        "col0": "Ibn Khaldun",
        "col1": "D. Stud",
        "col2": "Sadler's Wells",
        "col3": "Kingmambo",
        "col4": "Gossamer"
    },
    {
        "col0": "His Majesty",
        "col1": "J. W. Galbreath",
        "col2": "Alibhai",
        "col3": "Tenerani",
        "col4": "Flower Bowl"
    },
    {
        "col0": "Haafhd",
        "col1": "S. Stud",
        "col2": "Blushing Groom",
        "col3": "Unfuwain",
        "col4": "Al Bahathri"
    },
    {
        "col0": "Grey Classic",
        "col1": "S. Farm",
        "col2": "Nodouble",
        "col3": "Herbager",
        "col4": "No Class"
    },
    {
        "col0": "Graustark",
        "col1": "J. W. Galbreath",
        "col2": "Alibhai",
        "col3": "Tenerani",
        "col4": "Flower Bowl"
    },
    {
        "col0": "Giant's Causeway",
        "col1": "C. Stud",
        "col2": "Rahy",
        "col3": "Storm Bird",
        "col4": "Mariah's Storm"
    },
    {
        "col0": "Galileo",
        "col1": "C. Stud",
        "col2": "Miswaki",
        "col3": "Northern Dancer",
        "col4": "Urban Sea"
    },
    {
        "col0": "Funny Cide",
        "col1": "W. Farm",
        "col2": "Slewacide",
        "col3": "Forty Niner",
        "col4": "Belle's Good Cide"
    },
    {
        "col0": "Frankel",
        "col1": "J. Farms",
        "col2": "Danehill",
        "col3": "Sadler's Wells",
        "col4": "Kind"
    },
    {
        "col0": "Flawlessly",
        "col1": "L. Wolfson",
        "col2": "Nijinsky II",
        "col3": "Exclusive Native",
        "col4": "La Confidence"
    },
    {
        "col0": "Eye of the Leopard",
        "col1": "S. Farm",
        "col2": "Smart Strike",
        "col3": "Seattle Slew",
        "col4": "Eye of the Sphynx"
    },
    {
        "col0": "Eswarah",
        "col1": "S. Racing",
        "col2": "Alleged",
        "col3": "Northern Dancer",
        "col4": "Midway Lady"
    },
    {
        "col0": "Empire Maker",
        "col1": "J. Farms",
        "col2": "El Gran Senor",
        "col3": "Fappiano",
        "col4": "Toussaud"
    },
    {
        "col0": "Eleanor",
        "col1": "Sir Charles Bunbury, 6th Baronet",
        "col2": "Diomed",
        "col3": "Saltram",
        "col4": "Young Giantess"
    },
    {
        "col0": "Eclipse",
        "col1": "Prince William Augustus, Duke of Cumberland",
        "col2": "Regulus",
        "col3": "Squirt",
        "col4": "Spilletta"
    },
    {
        "col0": "East of the Moon",
        "col1": "S. Niarchos",
        "col2": "Nureyev",
        "col3": "Damascus",
        "col4": "Miesque"
    },
    {
        "col0": "Diamond Jubilee",
        "col1": "Edward VII of the United Kingdom",
        "col2": "Hampton",
        "col3": "Galopin",
        "col4": "Perdita"
    },
    {
        "col0": "Deceit Dancer",
        "col1": "E. P. Taylor",
        "col2": "Prince John",
        "col3": "Northern Dancer",
        "col4": "Deceit"
    },
    {
        "col0": "Dansili",
        "col1": "J. Farms",
        "col2": "Kahyasi",
        "col3": "Danzig",
        "col4": "Hasili"
    },
    {
        "col0": "Dancethruthedawn",
        "col1": "S. Farm",
        "col2": "Danzig",
        "col3": "Raise a Native",
        "col4": "Dance Smartly"
    },
    {
        "col0": "Dance Smartly",
        "col1": "S. Farm",
        "col2": "Smarten",
        "col3": "Northern Dancer",
        "col4": "Classy 'n Smart"
    },
    {
        "col0": "Dance Number",
        "col1": "O. Phipps",
        "col2": "Buckpasser",
        "col3": "Nearctic",
        "col4": "Numbered Account"
    },
    {
        "col0": "Cum Laude Laurie",
        "col1": "J. W. Galbreath",
        "col2": "Swaps",
        "col3": "Turn-to",
        "col4": "Primonetta"
    },
    {
        "col0": "Corinne",
        "col1": "T. Grosvenor",
        "col2": "Beningbrough",
        "col3": "Potoooooooo",
        "col4": "Briseis"
    },
    {
        "col0": "Coastal",
        "col1": "C. Farm",
        "col2": "Buckpasser",
        "col3": "Raise A Native",
        "col4": "Alluvial"
    },
    {
        "col0": "Chester House",
        "col1": "J. Farms",
        "col2": "El Gran Senor",
        "col3": "Raise a Native",
        "col4": "Toussaud"
    },
    {
        "col0": "Champs Elysees",
        "col1": "J. Farms",
        "col2": "Kahyasi",
        "col3": "Danzig",
        "col4": "Hasili"
    },
    {
        "col0": "Cellini",
        "col1": "C. Farm",
        "col2": "Bold Ruler",
        "col3": "Princequillo",
        "col4": "Gamely"
    },
    {
        "col0": "Carnegie",
        "col1": "R. Sangster",
        "col2": "Riverman",
        "col3": "Northern Dancer",
        "col4": "Detroit"
    },
    {
        "col0": "Cacique",
        "col1": "J. Farms",
        "col2": "Kahyasi",
        "col3": "Danzig",
        "col4": "Hasili"
    },
    {
        "col0": "Bull Dog",
        "col1": "J. D. Cohn",
        "col2": "Spearmint",
        "col3": "Ajax",
        "col4": "Plucky Liege"
    },
    {
        "col0": "Buckpasser",
        "col1": "O. Phipps",
        "col2": "War Admiral",
        "col3": "Menow",
        "col4": "Busanda"
    },
    {
        "col0": "Brian Boru",
        "col1": "J. Farms",
        "col2": "Alleged",
        "col3": "Northern Dancer",
        "col4": "Eva Luna"
    },
    {
        "col0": "Bowl of Flowers",
        "col1": "B. Stable",
        "col2": "Alibhai",
        "col3": "Eight Thirty",
        "col4": "Flower Bowl"
    },
    {
        "col0": "Boldnesian",
        "col1": "W. H. Perry",
        "col2": "Polynesian",
        "col3": "Nasrullah",
        "col4": "Alanesian"
    },
    {
        "col0": "Bold Lad",
        "col1": "W. Stable",
        "col2": "Princequillo",
        "col3": "Nasrullah",
        "col4": "Misty Morn"
    },
    {
        "col0": "Black Tarquin",
        "col1": "W. W. Sr.",
        "col2": "Sir Gallahad III",
        "col3": "Pharos",
        "col4": "Vagrancy"
    },
    {
        "col0": "Black Helen",
        "col1": "Idle Hour Stock Farm",
        "col2": "Teddy",
        "col3": "Peter Pan I",
        "col4": "La Troienne"
    },
    {
        "col0": "Bimelech",
        "col1": "E. R. Bradley",
        "col2": "Teddy",
        "col3": "Peter Pan I",
        "col4": "La Troienne"
    },
    {
        "col0": "Big Game",
        "col1": "N. Stud",
        "col2": "Tetratema",
        "col3": "Blandford",
        "col4": "Myrobella"
    },
    {
        "col0": "Be My Guest",
        "col1": "W. Haefner",
        "col2": "Tudor Minstrel",
        "col3": "Nearctic",
        "col4": "What a Treat"
    },
    {
        "col0": "Bay Middleton",
        "col1": "George Child Villiers, 5th Earl of Jersey",
        "col2": "Phantom",
        "col3": "Selim",
        "col4": "Cobweb"
    },
    {
        "col0": "Bardstown",
        "col1": "C. Farm",
        "col2": "Bull Lea",
        "col3": "Hyperion",
        "col4": "Twilight Tear"
    },
    {
        "col0": "Banks Hill",
        "col1": "J. Farms",
        "col2": "Kahyasi",
        "col3": "Danzig",
        "col4": "Hasili"
    },
    {
        "col0": "A Gleam",
        "col1": "C. Farm",
        "col2": "Bull Lea",
        "col3": "Blandford",
        "col4": "Twilight Tear"
    },
    {
        "col0": "A.P. Indy",
        "col1": "William Stamps Farish III",
        "col2": "Secretariat",
        "col3": "Bold Reasoning",
        "col4": "Weekend Surprise"
    }
]