[
    {
        "col0": "W. Cuff",
        "col1": "1914-8-13",
        "col2": "1914-8-13",
        "col3": "34"
    },
    {
        "col0": "W. McGarity",
        "col1": "1976-09-30",
        "col2": "1976-09-30",
        "col3": "118"
    },
    {
        "col0": "W. Young",
        "col1": "1979-12-7",
        "col2": "1979-12-7",
        "col3": "226"
    },
    {
        "col0": "W. Tullis",
        "col1": "1953-04-12",
        "col2": "1953-04-12",
        "col3": "342"
    },
    {
        "col0": "W. Thurmond",
        "col1": "1987-08-12",
        "col2": "1987-08-12",
        "col3": "111"
    },
    {
        "col0": "W. Payton",
        "col1": "1954-07-25",
        "col2": "1954-07-25",
        "col3": "4"
    },
    {
        "col0": "W. Packer",
        "col1": "1955-11-07",
        "col2": "1955-11-07",
        "col3": "203"
    },
    {
        "col0": "W. Murray",
        "col1": "1962-12-13",
        "col2": "1962-12-13",
        "col3": "45"
    },
    {
        "col0": "W. McFadden",
        "col1": "1987-01-21",
        "col2": "1987-01-21",
        "col3": "138"
    },
    {
        "col0": "W. Matuszczak",
        "col1": "1918-02-05",
        "col2": "1918-02-05",
        "col3": "87"
    },
    {
        "col0": "W. Jones",
        "col1": "1974-01-19",
        "col2": "1974-01-19",
        "col3": "6"
    },
    {
        "col0": "W. Johnson",
        "col1": "1942-11-13",
        "col2": "1942-11-13",
        "col3": "27"
    },
    {
        "col0": "W. Bryan",
        "col1": "1933-12-23",
        "col2": "1933-12-23",
        "col3": "99"
    },
    {
        "col0": "W. Beach",
        "col1": "1933-01-31",
        "col2": "1933-01-31",
        "col3": "(By theNew York Giants)"
    },
    {
        "col0": "W. Williams",
        "col1": "1954-07-10",
        "col2": "1954-07-10",
        "col3": "42"
    },
    {
        "col0": "W. Szot",
        "col1": "1920-3-30",
        "col2": "1920-3-30",
        "col3": "176"
    },
    {
        "col0": "W. Sweeney",
        "col1": "1941-04-18",
        "col2": "1941-04-18",
        "col3": "107"
    },
    {
        "col0": "W. Slater",
        "col1": "1920-01-31",
        "col2": "1920-01-31",
        "col3": "37"
    },
    {
        "col0": "W. Powell",
        "col1": "1991-11-23",
        "col2": "1991-11-23",
        "col3": "196"
    },
    {
        "col0": "W. Nielsen",
        "col1": "1917-02-04",
        "col2": "1917-02-04",
        "col3": "10"
    },
    {
        "col0": "W. Michaels",
        "col1": "1929-10-16",
        "col2": "1929-10-16",
        "col3": "86"
    },
    {
        "col0": "W. McDonald",
        "col1": "1920-11-5",
        "col2": "1920-11-5",
        "col3": "(by theWashington Redskins)"
    },
    {
        "col0": "W. Livingston",
        "col1": "1934-09-12",
        "col2": "1934-09-12",
        "col3": "243"
    },
    {
        "col0": "W. Lamb",
        "col1": "1920-12-21",
        "col2": "1920-12-21",
        "col3": "89"
    },
    {
        "col0": "W. Kowalczyk",
        "col1": "1935-04-17",
        "col2": "1935-04-17",
        "col3": "6"
    },
    {
        "col0": "W. Houston",
        "col1": "1932-10-26",
        "col2": "1932-10-26",
        "col3": "303"
    },
    {
        "col0": "W. Harris",
        "col1": "1974-08-10",
        "col2": "1974-08-10",
        "col3": "13"
    },
    {
        "col0": "W. Garrison",
        "col1": "1944-07-23",
        "col2": "1944-07-23",
        "col3": "79"
    },
    {
        "col0": "W. Bowyer",
        "col1": "1960-9-8",
        "col2": "1960-9-8",
        "col3": "254"
    },
    {
        "col0": "W. Barnes",
        "col1": "1944-1-19",
        "col2": "1944-1-19",
        "col3": "21"
    },
    {
        "col0": "W. Aikens",
        "col1": "1991-06-19",
        "col2": "1991-06-19",
        "col3": "125"
    },
    {
        "col0": "W. Richardson",
        "col1": "1974-02-11",
        "col2": "1974-02-11",
        "col3": "234"
    },
    {
        "col0": "W. Dreyer",
        "col1": "1923-02-25",
        "col2": "1923-02-25",
        "col3": "155"
    },
    {
        "col0": "W. Chambers",
        "col1": "1951-05-15",
        "col2": "1951-05-15",
        "col3": "8"
    },
    {
        "col0": "W. Triplett",
        "col1": "1926-4-18",
        "col2": "1926-4-18",
        "col3": "182"
    },
    {
        "col0": "W. Francis",
        "col1": "1951-11-7",
        "col2": "1951-11-7",
        "col3": "110"
    },
    {
        "col0": "W. L. Ashley",
        "col1": "1960-07-28",
        "col2": "1960-07-28",
        "col3": "73"
    },
    {
        "col0": "W. Rainer",
        "col1": "1977-04-19",
        "col2": "1977-04-19",
        "col3": "124"
    },
    {
        "col0": "W. Lundy",
        "col1": "1983-09-08",
        "col2": "1983-09-08",
        "col3": "170"
    },
    {
        "col0": "W. Bacon",
        "col1": "1979-04-11",
        "col2": "1979-04-11",
        "col3": "202"
    },
    {
        "col0": "W. Jorgensen",
        "col1": "1913-07-13",
        "col2": "1913-07-13",
        "col3": "22"
    },
    {
        "col0": "W. Wilson",
        "col1": "1959-2-1",
        "col2": "1959-2-1",
        "col3": "210"
    },
    {
        "col0": "W. Smith",
        "col1": "1981-04-26",
        "col2": "1981-04-26",
        "col3": "78"
    },
    {
        "col0": "W. Key",
        "col1": "1946-10-14",
        "col2": "1946-10-14",
        "col3": "314"
    },
    {
        "col0": "W. Young",
        "col1": "1916-9-14",
        "col2": "1916-9-14",
        "col3": "20"
    },
    {
        "col0": "V. Kab",
        "col1": "1959-12-23",
        "col2": "1959-12-23",
        "col3": "78"
    },
    {
        "col0": "V. Duff",
        "col1": "1982-03-08",
        "col2": "1982-03-08",
        "col3": "170"
    },
    {
        "col0": "V. Davis",
        "col1": "1988-05-27",
        "col2": "1988-05-27",
        "col3": "25"
    },
    {
        "col0": "V. Holliday",
        "col1": "1975-12-11",
        "col2": "1975-12-11",
        "col3": "19"
    },
    {
        "col0": "V. Bell",
        "col1": "1994-12-12",
        "col2": "1994-12-12",
        "col3": "61"
    },
    {
        "col0": "V. Miller",
        "col1": "1989-3-26",
        "col2": "1989-3-26",
        "col3": "2"
    },
    {
        "col0": "V. Hutchins",
        "col1": "1981-02-14",
        "col2": "1981-02-14",
        "col3": "173"
    },
    {
        "col0": "V. Peters",
        "col1": "1928-1-1",
        "col2": "1928-1-1",
        "col3": "151"
    },
    {
        "col0": "V. Ducasse",
        "col1": "1987-10-15",
        "col2": "1987-10-15",
        "col3": "61"
    },
    {
        "col0": "V. Seay",
        "col1": "1958-01-01",
        "col2": "1958-01-01",
        "col3": "270"
    },
    {
        "col0": "V. Livers",
        "col1": "1952-03-26",
        "col2": "1952-03-26",
        "col3": "83"
    },
    {
        "col0": "V. Green",
        "col1": "1988-08-03",
        "col2": "1988-08-03",
        "col3": "204"
    },
    {
        "col0": "V. Carter",
        "col1": "1945-11-09",
        "col2": "1945-11-09",
        "col3": "142"
    },
    {
        "col0": "V. Painter",
        "col1": "1989-10-11",
        "col2": "1989-10-11",
        "col3": "173"
    },
    {
        "col0": "V. Sutherland",
        "col1": "1978-04-22",
        "col2": "1978-04-22",
        "col3": "136"
    },
    {
        "col0": "V. Curry",
        "col1": "1988-06-30",
        "col2": "1988-06-30",
        "col3": "59"
    },
    {
        "col0": "V. Yablonski",
        "col1": "1923-03-04",
        "col2": "1923-03-04",
        "col3": "101"
    },
    {
        "col0": "V. Sunseri",
        "col1": "1991-10-25",
        "col2": "1991-10-25",
        "col3": "167"
    },
    {
        "col0": "V. Clark",
        "col1": "1969-01-22",
        "col2": "1969-01-22",
        "col3": "19"
    },
    {
        "col0": "V. White",
        "col1": "1961-08-26",
        "col2": "1961-08-26",
        "col3": "163"
    },
    {
        "col0": "V. Valentine",
        "col1": "1994-02-23",
        "col2": "1994-02-23",
        "col3": "96"
    },
    {
        "col0": "V. Jackson",
        "col1": "1983-01-14",
        "col2": "1983-01-14",
        "col3": "61"
    },
    {
        "col0": "V. Fuller",
        "col1": "1982-08-03",
        "col2": "1982-08-03",
        "col3": "108"
    },
    {
        "col0": "V. Brown",
        "col1": "1989-01-25",
        "col2": "1989-01-25",
        "col3": "82"
    },
    {
        "col0": "V. Young",
        "col1": "1983-05-18",
        "col2": "1983-05-18",
        "col3": "3"
    },
    {
        "col0": "V. Williams",
        "col1": "1989-12-27",
        "col2": "1989-12-27",
        "col3": "206"
    },
    {
        "col0": "V. Warren",
        "col1": "1963-02-18",
        "col2": "1963-02-18",
        "col3": "130"
    },
    {
        "col0": "V. Newsome",
        "col1": "1961-1-22",
        "col2": "1961-1-22",
        "col3": "97"
    },
    {
        "col0": "V. Mayle",
        "col1": "1991-06-12",
        "col2": "1991-06-12",
        "col3": "123"
    },
    {
        "col0": "V. Marrow",
        "col1": "1968-08-17",
        "col2": "1968-08-17",
        "col3": "307"
    },
    {
        "col0": "V. Kendrick",
        "col1": "1952-03-18",
        "col2": "1952-03-18",
        "col3": "96"
    },
    {
        "col0": "V. Ferragamo",
        "col1": "1954-04-24",
        "col2": "1954-04-24",
        "col3": "91"
    },
    {
        "col0": "V. Evans",
        "col1": "1955-06-14",
        "col2": "1955-06-14",
        "col3": "140"
    },
    {
        "col0": "V. Buck",
        "col1": "1968-01-12",
        "col2": "1968-01-12",
        "col3": "44"
    },
    {
        "col0": "V. Scott",
        "col1": "1962-06-01",
        "col2": "1962-06-01",
        "col3": "40"
    },
    {
        "col0": "V. Riley",
        "col1": "1974-11-04",
        "col2": "1974-11-04",
        "col3": "27"
    },
    {
        "col0": "V. Leyva",
        "col1": "1977-12-18",
        "col2": "1977-12-18",
        "col3": "135"
    },
    {
        "col0": "V. Jones",
        "col1": "1966-10-19",
        "col2": "1966-10-19",
        "col3": "310"
    },
    {
        "col0": "V. Hobson",
        "col1": "1980-02-03",
        "col2": "1980-02-03",
        "col3": "53"
    },
    {
        "col0": "V. Hicks",
        "col1": "1957-01-19",
        "col2": "1957-01-19",
        "col3": "122"
    },
    {
        "col0": "V. Heflin",
        "col1": "1960-7-7",
        "col2": "1960-7-7",
        "col3": "143"
    },
    {
        "col0": "V. Butler",
        "col1": "1987-07-29",
        "col2": "1987-07-29",
        "col3": "110"
    },
    {
        "col0": "V. Bailey",
        "col1": "1970-07-03",
        "col2": "1970-07-03",
        "col3": "50"
    },
    {
        "col0": "V. Ballard",
        "col1": "1990-07-16",
        "col2": "1990-07-16",
        "col3": "170"
    },
    {
        "col0": "V. Zucco",
        "col1": "1935-09-04",
        "col2": "1935-09-04",
        "col3": "60"
    },
    {
        "col0": "V. Washington",
        "col1": "1946-3-23",
        "col2": "1946-3-23",
        "col3": "87"
    },
    {
        "col0": "V. Vasicek",
        "col1": "1926-5-5",
        "col2": "1926-5-5",
        "col3": "(By theWashington Redskins)"
    },
    {
        "col0": "V. Spadaccini",
        "col1": "1916-03-02",
        "col2": "1916-03-02",
        "col3": "101"
    },
    {
        "col0": "V. Sears",
        "col1": "1918-03-14",
        "col2": "1918-03-14",
        "col3": "33"
    },
    {
        "col0": "V. Schwall",
        "col1": "1925-1-25",
        "col2": "1925-1-25",
        "col3": "(By theNew York Giants)"
    },
    {
        "col0": "V. Lindskog",
        "col1": "1914-12-03",
        "col2": "1914-12-03",
        "col3": "13"
    },
    {
        "col0": "V. Janowicz",
        "col1": "1930-02-26",
        "col2": "1930-02-26",
        "col3": "79"
    },
    {
        "col0": "V. Eaton",
        "col1": "1933-01-03",
        "col2": "1933-01-03",
        "col3": "126"
    },
    {
        "col0": "V. Beasley",
        "col1": "1992-07-08",
        "col2": "1992-07-08",
        "col3": "8"
    },
    {
        "col0": "V. Jackson",
        "col1": "1963-08-14",
        "col2": "1963-08-14",
        "col3": "55"
    },
    {
        "col0": "V. Haynes",
        "col1": "1979-02-17",
        "col2": "1979-02-17",
        "col3": "166"
    },
    {
        "col0": "V. Maxwell",
        "col1": "1961-10-25",
        "col2": "1961-10-25",
        "col3": "29"
    },
    {
        "col0": "V. Martin",
        "col1": "1920-05-02",
        "col2": "1920-05-02",
        "col3": "11"
    },
    {
        "col0": "V. Hargreaves",
        "col1": "1995-06-03",
        "col2": "1995-06-03",
        "col3": "11"
    },
    {
        "col0": "V. Dean",
        "col1": "1959-05-05",
        "col2": "1959-05-05",
        "col3": "49"
    },
    {
        "col0": "V. Davis",
        "col1": "1984-01-31",
        "col2": "1984-01-31",
        "col3": "6"
    },
    {
        "col0": "V. Crawford",
        "col1": "1974-06-25",
        "col2": "1974-06-25",
        "col3": "159"
    },
    {
        "col0": "V. Carey",
        "col1": "1981-07-31",
        "col2": "1981-07-31",
        "col3": "19"
    },
    {
        "col0": "V. Butler",
        "col1": "1994-06-14",
        "col2": "1994-06-14",
        "col3": "30"
    },
    {
        "col0": "V. Morency",
        "col1": "1980-02-04",
        "col2": "1980-02-04",
        "col3": "73"
    },
    {
        "col0": "V. Huffman",
        "col1": "1914-12-18",
        "col2": "1914-12-18",
        "col3": "27"
    },
    {
        "col0": "V. D. Herder",
        "col1": "1948-11-28",
        "col2": "1948-11-28",
        "col3": "230"
    },
    {
        "col0": "V. Adams",
        "col1": "1918-07-14",
        "col2": "1918-07-14",
        "col3": "291"
    },
    {
        "col0": "V. Glenn",
        "col1": "1964-10-26",
        "col2": "1964-10-26",
        "col3": "54"
    },
    {
        "col0": "V. Parker",
        "col1": "1971-06-05",
        "col2": "1971-06-05",
        "col3": "63"
    },
    {
        "col0": "V. Martin",
        "col1": "1986-04-18",
        "col2": "1986-04-18",
        "col3": "113"
    },
    {
        "col0": "V. Mancha",
        "col1": "1921-10-07",
        "col2": "1921-10-07",
        "col3": "5"
    },
    {
        "col0": "V. Dunbar",
        "col1": "1968-09-04",
        "col2": "1968-09-04",
        "col3": "21"
    },
    {
        "col0": "V. McElroy",
        "col1": "1960-01-13",
        "col2": "1960-01-13",
        "col3": "64"
    },
    {
        "col0": "V. Walker",
        "col1": "1987-4-26",
        "col2": "1987-4-26",
        "col3": "210"
    },
    {
        "col0": "V. McDonald",
        "col1": "1990-06-13",
        "col2": "1990-06-13",
        "col3": "55"
    },
    {
        "col0": "V. Johnson",
        "col1": "1963-03-13",
        "col2": "1963-03-13",
        "col3": "31"
    },
    {
        "col0": "V. Green",
        "col1": "1951-04-21",
        "col2": "1951-04-21",
        "col3": "150"
    },
    {
        "col0": "V. J. Walker",
        "col1": "1930-01-07",
        "col2": "1930-01-07",
        "col3": "83"
    },
    {
        "col0": "V. Alexander",
        "col1": "1994-03-23",
        "col2": "1994-03-23",
        "col3": "234"
    },
    {
        "col0": "U. Young",
        "col1": "1985-05-08",
        "col2": "1985-05-08",
        "col3": "66"
    },
    {
        "col0": "U. Norris",
        "col1": "1957-01-15",
        "col2": "1957-01-15",
        "col3": "88"
    },
    {
        "col0": "U. John",
        "col1": "1992-05-20",
        "col2": "1992-05-20",
        "col3": "232"
    },
    {
        "col0": "U. Nwaneri",
        "col1": "1984-03-20",
        "col2": "1984-03-20",
        "col3": "149"
    },
    {
        "col0": "T. Branch",
        "col1": "1986-12-11",
        "col2": "1986-12-11",
        "col3": "100"
    },
    {
        "col0": "T. Walter",
        "col1": "1978-03-17",
        "col2": "1978-03-17",
        "col3": "179"
    },
    {
        "col0": "T. Jackson",
        "col1": "1986-06-06",
        "col2": "1986-06-06",
        "col3": "3"
    },
    {
        "col0": "T. Thompson",
        "col1": "1991-11-17",
        "col2": "1991-11-17",
        "col3": "185"
    },
    {
        "col0": "T. Green",
        "col1": "1986-04-06",
        "col2": "1986-04-06",
        "col3": "133"
    },
    {
        "col0": "T. Drakeford",
        "col1": "1971-06-21",
        "col2": "1971-06-21",
        "col3": "62"
    },
    {
        "col0": "T. Williams",
        "col1": "1970-3-26",
        "col2": "1970-3-26",
        "col3": "239"
    },
    {
        "col0": "T. Williams",
        "col1": "1973-05-31",
        "col2": "1973-05-31",
        "col3": "93"
    },
    {
        "col0": "T. Wheatley",
        "col1": "1972-01-19",
        "col2": "1972-01-19",
        "col3": "17"
    },
    {
        "col0": "T. Robertson",
        "col1": "1979-08-15",
        "col2": "1979-08-15",
        "col3": "238"
    },
    {
        "col0": "T. Poole",
        "col1": "1972-02-03",
        "col2": "1972-02-03",
        "col3": "22"
    },
    {
        "col0": "T. McKenzie",
        "col1": "1985-12-11",
        "col2": "1985-12-11",
        "col3": "97"
    },
    {
        "col0": "T. Keys",
        "col1": "1960-10-24",
        "col2": "1960-10-24",
        "col3": "113"
    },
    {
        "col0": "T. Hughes",
        "col1": "1970-01-14",
        "col2": "1970-01-14",
        "col3": "137"
    },
    {
        "col0": "T. Holmes",
        "col1": "1993-09-10",
        "col2": "1993-09-10",
        "col3": "181"
    },
    {
        "col0": "T. Davis",
        "col1": "1972-06-30",
        "col2": "1972-06-30",
        "col3": "107"
    },
    {
        "col0": "T. Culver",
        "col1": "1983-07-06",
        "col2": "1983-07-06",
        "col3": "185"
    },
    {
        "col0": "T. Crawford",
        "col1": "1989-11-22",
        "col2": "1989-11-22",
        "col3": "81"
    },
    {
        "col0": "T. Carter",
        "col1": "1976-03-31",
        "col2": "1976-03-31",
        "col3": "118"
    },
    {
        "col0": "T. Calico",
        "col1": "1980-11-09",
        "col2": "1980-11-09",
        "col3": "60"
    },
    {
        "col0": "T. Braxton",
        "col1": "1964-12-17",
        "col2": "1964-12-17",
        "col3": "334"
    },
    {
        "col0": "T. Smith",
        "col1": "1990-12-12",
        "col2": "1990-12-12",
        "col3": "9"
    },
    {
        "col0": "T. Taylor",
        "col1": "1989-8-3",
        "col2": "1989-8-3",
        "col3": "180"
    },
    {
        "col0": "T. Harrison",
        "col1": "1980-05-15",
        "col2": "1980-05-15",
        "col3": "198"
    },
    {
        "col0": "T. Johnson",
        "col1": "1985-05-19",
        "col2": "1985-05-19",
        "col3": "43"
    },
    {
        "col0": "T. Hill",
        "col1": "1994-03-01",
        "col2": "1994-03-01",
        "col3": "165"
    },
    {
        "col0": "T. Talton",
        "col1": "1976-05-10",
        "col2": "1976-05-10",
        "col3": "137"
    },
    {
        "col0": "T. Davis",
        "col1": "1970-09-23",
        "col2": "1970-09-23",
        "col3": "176"
    },
    {
        "col0": "T. Mathieu",
        "col1": "1992-5-13",
        "col2": "1992-5-13",
        "col3": "69"
    },
    {
        "col0": "T. Wilson",
        "col1": "1989-08-16",
        "col2": "1989-08-16",
        "col3": "112"
    },
    {
        "col0": "T. Thigpen",
        "col1": "1984-04-14",
        "col2": "1984-04-14",
        "col3": "217"
    },
    {
        "col0": "T. Starr",
        "col1": "1991-01-25",
        "col2": "1991-01-25",
        "col3": "255"
    },
    {
        "col0": "T. Schmitt",
        "col1": "1986-03-25",
        "col2": "1986-03-25",
        "col3": "189"
    },
    {
        "col0": "T. Sash",
        "col1": "1988-05-27",
        "col2": "1988-05-27",
        "col3": "198"
    },
    {
        "col0": "T. Reed",
        "col1": "1982-10-6",
        "col2": "1982-10-6",
        "col3": "*Chicago Bears(-)"
    },
    {
        "col0": "T. Lockett",
        "col1": "1992-09-28",
        "col2": "1992-09-28",
        "col3": "69"
    },
    {
        "col0": "T. Kroft",
        "col1": "1992-10-15",
        "col2": "1992-10-15",
        "col3": "85"
    },
    {
        "col0": "T. Gaffney",
        "col1": "1991-04-20",
        "col2": "1991-04-20",
        "col3": "204"
    }
]