[
    {
        "col0": "Shack Mountain",
        "col1": "F. Kimball",
        "col2": "76002090",
        "col3": "408327"
    },
    {
        "col0": "Seward Depot",
        "col1": "A. E. Commission",
        "col2": "87000652",
        "col3": "2428"
    },
    {
        "col0": "Seven Oaks",
        "col1": "P. &. Bird",
        "col2": "96000236",
        "col3": "4046"
    },
    {
        "col0": "Sequoyah's Cabin",
        "col1": "Sequoyah",
        "col2": "66000634",
        "col3": "40468"
    },
    {
        "col0": "Senator Hotel",
        "col1": "G. A. Lansburgh",
        "col2": "79003459",
        "col3": "3520"
    },
    {
        "col0": "Sellwood Branch YMCA",
        "col1": "E. B. MacNaughton",
        "col2": "6001033",
        "col3": "930"
    },
    {
        "col0": "Selling Building",
        "col1": "D. &. Patterson",
        "col2": "91001554",
        "col3": "809"
    },
    {
        "col0": "Sedona Ranger Station",
        "col1": "Architects of the United States Forest Service",
        "col2": "8000810",
        "col3": "14163"
    },
    {
        "col0": "Second Presbyterian Church",
        "col1": "E. Jones",
        "col2": "79002478",
        "col3": "2428"
    },
    {
        "col0": "Second Presbyterian Church",
        "col1": "C. &. Ferguson",
        "col2": "80001522",
        "col3": "4451"
    },
    {
        "col0": "Second Church of Christ, Scientist",
        "col1": "Albert C. Martin, Sr.",
        "col2": "87000576",
        "col3": "2428"
    },
    {
        "col0": "Seaside Park",
        "col1": "F. L. Olmsted",
        "col2": "82004373",
        "col3": "1517571"
    },
    {
        "col0": "Sculptured House",
        "col1": "C. Deaton",
        "col2": "2000385",
        "col3": "61916"
    },
    {
        "col0": "Scoville Square",
        "col1": "E. E. Roberts",
        "col2": "82002532",
        "col3": "2023"
    },
    {
        "col0": "Scoville Library",
        "col1": "Stone, Carpenter & Willson",
        "col2": "82004473",
        "col3": "12140"
    },
    {
        "col0": "Scottish Rite Temple",
        "col1": "S. Hunt",
        "col2": "87000424",
        "col3": "8093"
    },
    {
        "col0": "Scottish Rite Temple",
        "col1": "P. &. Hawk",
        "col2": "87000503",
        "col3": "42896"
    },
    {
        "col0": "Scottish Rite Cathedral",
        "col1": "E. F. Neild",
        "col2": "86003132",
        "col3": "3237"
    },
    {
        "col0": "Scottdale Armory",
        "col1": "J. F. Kuntz",
        "col2": "91000518",
        "col3": "2832"
    },
    {
        "col0": "Scott County Jail",
        "col1": "F. G. Clausen",
        "col2": "83002502",
        "col3": "4046"
    },
    {
        "col0": "Schoolcraft Furnace Site",
        "col1": "P. White",
        "col2": "77000151",
        "col3": "40468"
    },
    {
        "col0": "Schoodic Peninsula",
        "col1": "N. P. Service",
        "col2": "7000614",
        "col3": "4382745"
    },
    {
        "col0": "Schindler House",
        "col1": "R. Schindler",
        "col2": "71000150",
        "col3": "4046"
    },
    {
        "col0": "Schenectady City Hall",
        "col1": "McKim, Mead and White",
        "col2": "78001908",
        "col3": "9307"
    },
    {
        "col0": "Scenic State Park",
        "col1": "N. P. Service",
        "col2": "89001670",
        "col3": "64749"
    },
    {
        "col0": "Scarritt College for Christian Workers",
        "col1": "H. C. Hibbs",
        "col2": "82003965",
        "col3": "7284"
    },
    {
        "col0": "Scarlet Oaks",
        "col1": "J. K. Wilson",
        "col2": "73001468",
        "col3": "4046"
    },
    {
        "col0": "Scarborough Historic District",
        "col1": "McKim, Mead & White",
        "col2": "84003433",
        "col3": "1521618"
    },
    {
        "col0": "Scanlan Building",
        "col1": "D. Burnham",
        "col2": "80004132",
        "col3": "809"
    },
    {
        "col0": "Savoy Hotel and Grill",
        "col1": "Van Brunt & Howe",
        "col2": "74001073",
        "col3": "40063"
    },
    {
        "col0": "Saugus Iron Works National Historic Site",
        "col1": "Perry Dean Rogers Architects",
        "col2": "66000047",
        "col3": "36421"
    },
    {
        "col0": "Saturn Club",
        "col1": "D. Lyman",
        "col2": "5000444",
        "col3": "6879"
    },
    {
        "col0": "Sather Gate",
        "col1": "J. G. Howard",
        "col2": "82004649",
        "col3": "809"
    },
    {
        "col0": "Saratoga Victory Mill",
        "col1": "R. &. Co.",
        "col2": "84000659",
        "col3": "29542"
    },
    {
        "col0": "Santiago E. Campos United States Courthouse",
        "col1": "A. B. Young",
        "col2": "73001152",
        "col3": "12140"
    },
    {
        "col0": "Sandy Second Ward Chapel",
        "col1": "Joseph Don Carlos Young",
        "col2": "97000638",
        "col3": "3237"
    },
    {
        "col0": "San Antonio Municipal Auditorium",
        "col1": "A. Ayres",
        "col2": "81000624",
        "col3": "11612"
    },
    {
        "col0": "Samuel Wadsworth Russell House",
        "col1": "I. Town",
        "col2": "70000688",
        "col3": "8093"
    },
    {
        "col0": "Samuel R. Demarest House",
        "col1": "D. N. Jersey",
        "col2": "84002552",
        "col3": "23876"
    },
    {
        "col0": "Samuel M. Black House",
        "col1": "W. H. Weeks",
        "col2": "84000911",
        "col3": "1214"
    },
    {
        "col0": "Sam Jones Memorial United Methodist Church",
        "col1": "W. T. Downing",
        "col2": "85001972",
        "col3": "6070"
    },
    {
        "col0": "Salem School",
        "col1": "McKim, Mead & White",
        "col2": "83003582",
        "col3": "12140"
    },
    {
        "col0": "Salem College Administration Building",
        "col1": "H. &. Lafferty",
        "col2": "89000184",
        "col3": "9307"
    },
    {
        "col0": "Saint Paul's Evangelical Lutheran Church",
        "col1": "W. &. Mahurin",
        "col2": "82000058",
        "col3": "4046"
    },
    {
        "col0": "Saint Paul's Church",
        "col1": "N. &. Neilson",
        "col2": "86001191",
        "col3": "5260"
    },
    {
        "col0": "Saint Mary of the Assumption Church, Rectory, School and Convent",
        "col1": "P. a. Stearns",
        "col2": "85003311",
        "col3": "8093"
    },
    {
        "col0": "Saint Mary's Episcopal Church",
        "col1": "J. R. Hamilton",
        "col2": "88001421",
        "col3": "4046"
    },
    {
        "col0": "Saint Mark's and Saint John's Episcopal Church",
        "col1": "G. a. Kaelber",
        "col2": "4001438",
        "col3": "2023"
    },
    {
        "col0": "Saint Bernard's Seminary",
        "col1": "W. &. Brockett",
        "col2": "96000435",
        "col3": "55846"
    },
    {
        "col0": "Saint Benedict Joseph Labre Church",
        "col1": "T. H. Poole",
        "col2": "6001297",
        "col3": "4451"
    },
    {
        "col0": "Sagamore Hill",
        "col1": "L. &. Rich",
        "col2": "66000096",
        "col3": "335970"
    },
    {
        "col0": "Sacred Heart Catholic Church",
        "col1": "C. I. Williams",
        "col2": "87001885",
        "col3": "4046"
    },
    {
        "col0": "Sacred Heart Academy",
        "col1": "S. Hannaford",
        "col2": "73001467",
        "col3": "12140"
    },
    {
        "col0": "S. D. Warren Paper Mill",
        "col1": "J. C. Stevens",
        "col2": "74000316",
        "col3": "445154"
    },
    {
        "col0": "S. C. Mayer House",
        "col1": "S. Hannaford",
        "col2": "80003063",
        "col3": "4046"
    },
    {
        "col0": "Rutherfurd Hall",
        "col1": "W. Warren",
        "col2": "11000592",
        "col3": "139211"
    },
    {
        "col0": "Rutherford and Martha Ellis House",
        "col1": "P. T. Shutze",
        "col2": "9000269",
        "col3": "14568"
    },
    {
        "col0": "Rutger-Steuben Park Historic District",
        "col1": "A. J. Davis",
        "col2": "73001230",
        "col3": "101171"
    },
    {
        "col0": "Ruggles Park",
        "col1": "O. Brothers",
        "col2": "83000711",
        "col3": "36421"
    },
    {
        "col0": "Rudolph Pretzinger House",
        "col1": "Pretzinger",
        "col2": "79001901",
        "col3": "4046"
    },
    {
        "col0": "Royal Neighbors of America National Home Historic District",
        "col1": "Clausen, Kruse & Klein",
        "col2": "15000294",
        "col3": "311607"
    },
    {
        "col0": "Royal Mausoleum of Hawaii",
        "col1": "T. Heuck",
        "col2": "72000422",
        "col3": "16187"
    },
    {
        "col0": "Roughan Hall",
        "col1": "A. H. Vinal",
        "col2": "82004448",
        "col3": "5665"
    },
    {
        "col0": "Rotch-Jones-Duff House and Garden Museum",
        "col1": "R. Upjohn",
        "col2": "5000456",
        "col3": "4046"
    },
    {
        "col0": "Rossmore Apartment House",
        "col1": "M. Brothers",
        "col2": "78001365",
        "col3": "1214"
    },
    {
        "col0": "Ross Fork Episcopal Church",
        "col1": "J. E. Tourtellotte",
        "col2": "83000277",
        "col3": "5260"
    },
    {
        "col0": "Rosedale Apartments",
        "col1": "H. R. Hunt",
        "col2": "7000301",
        "col3": "10926"
    },
    {
        "col0": "Rosecliff",
        "col1": "S. White",
        "col2": "73000059",
        "col3": "26304"
    },
    {
        "col0": "Rose Terrace",
        "col1": "H. Trumbauer",
        "col2": "71001096",
        "col3": "36421"
    },
    {
        "col0": "Rosaly-Batiz House",
        "col1": "M. V. Domenech",
        "col2": "86002768",
        "col3": "1214"
    },
    {
        "col0": "Rollinsford Town Hall",
        "col1": "A. T. Ramsdell",
        "col2": "99000268",
        "col3": "809"
    },
    {
        "col0": "Roger Williams National Memorial",
        "col1": "N. Isham",
        "col2": "66000942",
        "col3": "18210"
    },
    {
        "col0": "Rocky Mills",
        "col1": "H. Louis Duhring, Jr.",
        "col2": "2000513",
        "col3": "31565"
    },
    {
        "col0": "Rockville Railroad Station",
        "col1": "E. F. Baldwin",
        "col2": "74000961",
        "col3": "4046"
    },
    {
        "col0": "Rockingham Historic District",
        "col1": "J. Royer",
        "col2": "83003981",
        "col3": "667731"
    },
    {
        "col0": "Rockefeller Center",
        "col1": "R. Hood",
        "col2": "87002591",
        "col3": "89030"
    },
    {
        "col0": "Rock Ledge Ranch Historic Site",
        "col1": "T. MacLaren",
        "col2": "79000599",
        "col3": "97124"
    },
    {
        "col0": "Rock Lawn and Carriage House",
        "col1": "R. Upjohn",
        "col2": "82001254",
        "col3": "49776"
    },
    {
        "col0": "Rock House",
        "col1": "N. a. O'Brien",
        "col2": "4000827",
        "col3": "7689"
    },
    {
        "col0": "Roberts Park",
        "col1": "W. P. Administration",
        "col2": "13001074",
        "col3": "323748"
    },
    {
        "col0": "Roberts, Johnson and Rand-International Shoe Company Complex",
        "col1": "T. C. Link",
        "col2": "84002670",
        "col3": "12140"
    },
    {
        "col0": "Robert Treat Paine Estate",
        "col1": "F. L. Olmsted",
        "col2": "75000291",
        "col3": "457294"
    },
    {
        "col0": "Robert Mills House",
        "col1": "R. Mills",
        "col2": "70000595",
        "col3": "16187"
    },
    {
        "col0": "Robert A. Grant Federal Building and U.S. Courthouse",
        "col1": "A. &. Shambleau",
        "col2": "15000482",
        "col3": "0"
    },
    {
        "col0": "Riverview Terrace Historic District",
        "col1": "C. &. Clausen",
        "col2": "84000339",
        "col3": "61512"
    },
    {
        "col0": "Riverview Historic District",
        "col1": "F. L. Wright",
        "col2": "86001488",
        "col3": "316464"
    },
    {
        "col0": "Riverdale Monument",
        "col1": "D. J. Baum",
        "col2": "11000967",
        "col3": "2023"
    },
    {
        "col0": "Riverbank Laboratories",
        "col1": "W. Brothers",
        "col2": "3001204",
        "col3": "14163"
    },
    {
        "col0": "River Mill Hydroelectric Project",
        "col1": "N. F. Ambursen",
        "col2": "1000497",
        "col3": "20234"
    },
    {
        "col0": "Rivanna Farm",
        "col1": "D. W. Anderson",
        "col2": "1000147",
        "col3": "1031948"
    },
    {
        "col0": "Rincon Center",
        "col1": "G. S. Underwood",
        "col2": "79000537",
        "col3": "7689"
    },
    {
        "col0": "Richmond Hill House",
        "col1": "J. G. Hill",
        "col2": "77000992",
        "col3": "30351"
    },
    {
        "col0": "Richmond Downtown Historic District",
        "col1": "J. K. Taylor",
        "col2": "11000918",
        "col3": "52609"
    },
    {
        "col0": "Richardson Olmsted Complex",
        "col1": "H. H. Richardson",
        "col2": "73001186",
        "col3": "376357"
    },
    {
        "col0": "Richards Medical Research Laboratories",
        "col1": "L. Kahn",
        "col2": "9000081",
        "col3": "11331"
    },
    {
        "col0": "Richard and Geraldine Hodgson House",
        "col1": "P. Johnson",
        "col2": "4001549",
        "col3": "20234"
    },
    {
        "col0": "Richard H. Mitchell House",
        "col1": "S. Hannaford",
        "col2": "80003065",
        "col3": "4046"
    },
    {
        "col0": "Rice Public Library",
        "col1": "S. S. Woodcock",
        "col2": "79000190",
        "col3": "2023"
    },
    {
        "col0": "Rice House",
        "col1": "R. Neutra",
        "col2": "99000369",
        "col3": "18210"
    },
    {
        "col0": "Rice County Courthouse and Jail",
        "col1": "A. Schippel",
        "col2": "82003016",
        "col3": "20234"
    },
    {
        "col0": "Reynolds Metals Company International Headquarters",
        "col1": "G. Bunshaft",
        "col2": "64",
        "col3": "489669"
    },
    {
        "col0": "Reynolda Historic District",
        "col1": "T. W. Sears",
        "col2": "80002833",
        "col3": "720340"
    },
    {
        "col0": "Renville County Courthouse and Jail",
        "col1": "F. D. Orff",
        "col2": "86001281",
        "col3": "10279"
    },
    {
        "col0": "Reno Main Post Office",
        "col1": "F. DeLongchamps",
        "col2": "90000135",
        "col3": "4856"
    },
    {
        "col0": "Renaissance Building",
        "col1": "J. C. Gott",
        "col2": "83003305",
        "col3": "1214"
    }
]