[
    {
        "col0": "Merrick County Courthouse",
        "col1": "W. F. Gernandt",
        "col2": "89002211",
        "col3": "6879"
    },
    {
        "col0": "Meridian City Hall",
        "col1": "P. Krouse",
        "col2": "79003399",
        "col3": "4046"
    },
    {
        "col0": "Mercer County Courthouse",
        "col1": "C. Owsley",
        "col2": "98001369",
        "col3": "9712"
    },
    {
        "col0": "Mercado de las Carnes",
        "col1": "R. Carmoega",
        "col2": "86003199",
        "col3": "942"
    },
    {
        "col0": "Menominee County Courthouse",
        "col1": "G. P. Randall",
        "col2": "75000958",
        "col3": "8093"
    },
    {
        "col0": "Menokin",
        "col1": "J. Ariss",
        "col2": "69000276",
        "col3": "2387645"
    },
    {
        "col0": "Memorial Arch of Tilton",
        "col1": "Dow, Wheeler & Bodwell",
        "col2": "80000296",
        "col3": "8093"
    },
    {
        "col0": "Medford Southern Pacific Railroad Passenger Depot",
        "col1": "S. P. Railroad",
        "col2": "96000629",
        "col3": "2185"
    },
    {
        "col0": "Mechanic Institute",
        "col1": "M. &. Mayo",
        "col2": "80000241",
        "col3": "1214"
    },
    {
        "col0": "Meadow Marsh",
        "col1": "F. H. Trimble",
        "col2": "96001337",
        "col3": "48562"
    },
    {
        "col0": "McMaster School",
        "col1": "W. A. Edwards",
        "col2": "97000777",
        "col3": "8093"
    },
    {
        "col0": "McLean County Courthouse",
        "col1": "H. Bros.",
        "col2": "85002998",
        "col3": "8498"
    },
    {
        "col0": "McKinley Park School",
        "col1": "George A. Ferris and Son",
        "col2": "85002406",
        "col3": "10926"
    },
    {
        "col0": "Mayslake Peabody Estate",
        "col1": "M. a. Fox",
        "col2": "93000836",
        "col3": "352076"
    },
    {
        "col0": "Mayo Building",
        "col1": "G. Winkler",
        "col2": "8001152",
        "col3": "4046"
    },
    {
        "col0": "Maynard Buehler House",
        "col1": "F. L. Wright",
        "col2": "6001118",
        "col3": "371"
    },
    {
        "col0": "Maupin Section Foreman's House",
        "col1": "U. P. Railroad",
        "col2": "6001082",
        "col3": "23067"
    },
    {
        "col0": "Maud and Belle Ainsworth House",
        "col1": "W. C. Knighton",
        "col2": "86000288",
        "col3": "2670"
    },
    {
        "col0": "Mauch Chunk Switchback Railway",
        "col1": "J. White",
        "col2": "76001616",
        "col3": "190202"
    },
    {
        "col0": "Matthew Whaley School",
        "col1": "C. M. Robinson",
        "col2": "4000857",
        "col3": "33588"
    },
    {
        "col0": "Masonic Temple Building",
        "col1": "F. E. Edbrooke",
        "col2": "77000369",
        "col3": "1214"
    },
    {
        "col0": "Masonic Temple",
        "col1": "J. Williams Beal, Sons",
        "col2": "89001952",
        "col3": "2023"
    },
    {
        "col0": "Masonic Temple",
        "col1": "F. A. Tompson",
        "col2": "82000748",
        "col3": "4046"
    },
    {
        "col0": "Mask and Wig",
        "col1": "M. Parrish",
        "col2": "79002323",
        "col3": "404"
    },
    {
        "col0": "Mary Lee Nichols School",
        "col1": "F. DeLongchamps",
        "col2": "2001277",
        "col3": "1214"
    },
    {
        "col0": "Mary E. Switzer Memorial Building",
        "col1": "L. A. Simon",
        "col2": "7000638",
        "col3": "12140"
    },
    {
        "col0": "Mary A. Wolfe House",
        "col1": "S. Hannaford",
        "col2": "80003092",
        "col3": "4046"
    },
    {
        "col0": "Martin Van Buren National Historic Site",
        "col1": "R. Upjohn",
        "col2": "66000510",
        "col3": "505857"
    },
    {
        "col0": "Martin County Courthouse",
        "col1": "C. E. Bell",
        "col2": "77000755",
        "col3": "4046"
    },
    {
        "col0": "Marshall Main Street Historic District",
        "col1": "S. &. Carrier",
        "col2": "7000819",
        "col3": "52609"
    },
    {
        "col0": "Marshall Field Garden Apartments",
        "col1": "A. J. Thomas",
        "col2": "91001691",
        "col3": "20234"
    },
    {
        "col0": "Marsh Hall",
        "col1": "J. C. Cady",
        "col2": "66000875",
        "col3": "27518"
    },
    {
        "col0": "Marseilles Lock and Dam",
        "col1": "W. M. Smith",
        "col2": "4000165",
        "col3": "1150521"
    },
    {
        "col0": "Marriott Wardman Park",
        "col1": "M. Mesrobian",
        "col2": "84000869",
        "col3": "10926"
    },
    {
        "col0": "Marquette School",
        "col1": "A. &. Shambleau",
        "col2": "13000726",
        "col3": "6474"
    },
    {
        "col0": "Marquette Building",
        "col1": "H. &. Roche",
        "col2": "73000697",
        "col3": "3237"
    },
    {
        "col0": "Marlette Lake Water System",
        "col1": "H. Schussler",
        "col2": "92001162",
        "col3": "547944"
    },
    {
        "col0": "Marktown",
        "col1": "Howard Van Doren Shaw",
        "col2": "75000025",
        "col3": "161874"
    },
    {
        "col0": "Markle-Pittock House",
        "col1": "J. Jacobberger",
        "col2": "85000368",
        "col3": "4856"
    },
    {
        "col0": "Mariposa Grove",
        "col1": "N. P. Service",
        "col2": "78000381",
        "col3": "4046"
    },
    {
        "col0": "Marion Steam Shovel",
        "col1": "Marion Power Shovel Company",
        "col2": "8000038",
        "col3": "404"
    },
    {
        "col0": "Marine Chapter House",
        "col1": "Helfensteller, Hirsch and Watson",
        "col2": "80001397",
        "col3": "4451"
    }
]