[
    {
        "col0": "T. Davis",
        "col1": "Los Angeles Dodgers",
        "col2": "Brooklyn",
        "col3": "1939-03-21",
        "col4": "1939-03-21"
    },
    {
        "col0": "T. Cruz",
        "col1": "St. Louis Cardinals",
        "col2": "Arroyo, Puerto Rico",
        "col3": "1951-02-15",
        "col4": "1951-02-15"
    },
    {
        "col0": "T. Corcoran",
        "col1": "Pittsburgh Burghers",
        "col2": "New Haven, Connecticut",
        "col3": "1869-01-04",
        "col4": "1869-01-04"
    },
    {
        "col0": "T. Clarke",
        "col1": "Cincinnati Reds",
        "col2": "New York, New York",
        "col3": "1888-05-09",
        "col4": "1888-05-09"
    },
    {
        "col0": "T. Byrne",
        "col1": "New York Yankees",
        "col2": "Baltimore, Maryland",
        "col3": "1919-12-31",
        "col4": "1919-12-31"
    },
    {
        "col0": "T. Brown",
        "col1": "Brooklyn Dodgers",
        "col2": "Brooklyn, New York",
        "col3": "1927-12-06",
        "col4": "1927-12-06"
    },
    {
        "col0": "T. Bridges",
        "col1": "Detroit Tigers",
        "col2": "Gordonsville, Tennessee",
        "col3": "1906-12-28",
        "col4": "1906-12-28"
    },
    {
        "col0": "T. Bond",
        "col1": "Brooklyn Atlantics",
        "col2": "United Kingdom of Great Britain and Ireland",
        "col3": "1856-04-02",
        "col4": "1856-04-02"
    },
    {
        "col0": "T. Boggs",
        "col1": "Texas Rangers",
        "col2": "Poughkeepsie, New York",
        "col3": "1955-10-25",
        "col4": "1955-10-25"
    },
    {
        "col0": "T. Atkins",
        "col1": "Philadelphia Athletics",
        "col2": "Ponca, Nebraska",
        "col3": "1887-12-09",
        "col4": "1887-12-09"
    },
    {
        "col0": "T. Sisk",
        "col1": "Pittsburgh Pirates",
        "col2": "Ardmore, Oklahoma",
        "col3": "1942-04-12",
        "col4": "1942-04-12"
    },
    {
        "col0": "T. Reynolds",
        "col1": "Kansas City Athletics",
        "col2": "Claiborne Parish, Louisiana",
        "col3": "1941-08-15",
        "col4": "1941-08-15"
    },
    {
        "col0": "T. Agee",
        "col1": "Cleveland Indians",
        "col2": "Magnolia, Alabama",
        "col3": "1942-08-09",
        "col4": "1942-08-09"
    },
    {
        "col0": "T. Aaron",
        "col1": "Milwaukee Braves",
        "col2": "Mobile, Alabama",
        "col3": "1939-08-05",
        "col4": "1939-08-05"
    },
    {
        "col0": "T. Zachary",
        "col1": "Philadelphia Athletics",
        "col2": "Graham, North Carolina",
        "col3": "1896-05-07",
        "col4": "1896-05-07"
    },
    {
        "col0": "T. York",
        "col1": "Troy Haymakers",
        "col2": "Brooklyn, New York",
        "col3": "1850-07-13",
        "col4": "1850-07-13"
    },
    {
        "col0": "T. Wright",
        "col1": "Boston Red Sox",
        "col2": "Shelby, North Carolina",
        "col3": "1923-09-22",
        "col4": "1923-09-22"
    },
    {
        "col0": "T. Winsett",
        "col1": "Boston Red Sox",
        "col2": "McKenzie, Tennessee",
        "col3": "1909-11-24",
        "col4": "1909-11-24"
    },
    {
        "col0": "T. Wilson",
        "col1": "Oakland Athletics",
        "col2": "Fullerton, California",
        "col3": "1970-12-19",
        "col4": "1970-12-19"
    },
    {
        "col0": "T. Wilson",
        "col1": "Washington Senators",
        "col2": "Fleming, Kansas",
        "col3": "1890-06-03",
        "col4": "1890-06-03"
    },
    {
        "col0": "T. Williams",
        "col1": "Bacharach Giants",
        "col2": "Charleston, South Carolina",
        "col3": "1896-09-28",
        "col4": "1896-09-28"
    },
    {
        "col0": "T. Wilhelmsen",
        "col1": "Seattle Mariners",
        "col2": "Tucson, Arizona",
        "col3": "1983-12-16",
        "col4": "1983-12-16"
    },
    {
        "col0": "T. Wieghaus",
        "col1": "Montreal Expos",
        "col2": "Chicago Heights, Illinois",
        "col3": "1957-02-01",
        "col4": "1957-02-01"
    },
    {
        "col0": "T. Wiedenbauer",
        "col1": "Houston Astros",
        "col2": "Menomonie, Wisconsin",
        "col3": "1958-11-05",
        "col4": "1958-11-05"
    },
    {
        "col0": "T. Walsh",
        "col1": "Chicago Cubs",
        "col2": "Davenport, Iowa",
        "col3": "1885-02-28",
        "col4": "1885-02-28"
    },
    {
        "col0": "T. Walker",
        "col1": "Montreal Expos",
        "col2": "Tampa, Florida",
        "col3": "1948-11-07",
        "col4": "1948-11-07"
    },
    {
        "col0": "T. Walker",
        "col1": "Philadelphia Athletics",
        "col2": "Philadelphia",
        "col3": "1881-08-01",
        "col4": "1881-08-01"
    },
    {
        "col0": "T. Waddell",
        "col1": "Cleveland Indians",
        "col2": "Dundee, Scotland",
        "col3": "1957-09-17",
        "col4": "1957-09-17"
    },
    {
        "col0": "T. Vickery",
        "col1": "Philadelphia Phillies",
        "col2": "Milford, Massachusetts",
        "col3": "1867-05-05",
        "col4": "1867-05-05"
    },
    {
        "col0": "T. Veryzer",
        "col1": "Detroit Tigers",
        "col2": "Port Jefferson, New York",
        "col3": "1953-02-11",
        "col4": "1953-02-11"
    },
    {
        "col0": "T. Urbani",
        "col1": "St. Louis Cardinals",
        "col2": "Santa Cruz, California",
        "col3": "1968-01-21",
        "col4": "1968-01-21"
    },
    {
        "col0": "T. Upton",
        "col1": "St. Louis Browns",
        "col2": "Esther, Missouri",
        "col3": "1926-12-29",
        "col4": "1926-12-29"
    },
    {
        "col0": "T. Underwood",
        "col1": "Philadelphia Phillies",
        "col2": "Kokomo, Indiana",
        "col3": "1953-12-22",
        "col4": "1953-12-22"
    },
    {
        "col0": "T. Umphlett",
        "col1": "Boston Red Sox",
        "col2": "Scotland Neck, North Carolina",
        "col3": "1930-05-12",
        "col4": "1930-05-12"
    },
    {
        "col0": "T. Turner",
        "col1": "Chicago White Sox",
        "col2": "Custer, Oklahoma",
        "col3": "1916-09-08",
        "col4": "1916-09-08"
    },
    {
        "col0": "T. Tuckey",
        "col1": "Boston Doves",
        "col2": "Union City, Connecticut",
        "col3": "1884-10-07",
        "col4": "1884-10-07"
    },
    {
        "col0": "T. Tresh",
        "col1": "New York Yankees",
        "col2": "Detroit",
        "col3": "1938-09-20",
        "col4": "1938-09-20"
    },
    {
        "col0": "T. Trebelhorn",
        "col1": "Milwaukee Brewers",
        "col2": "Portland, Oregon",
        "col3": "1948-01-27",
        "col4": "1948-01-27"
    },
    {
        "col0": "T. Tischinski",
        "col1": "Minnesota Twins",
        "col2": "Kansas City, Missouri",
        "col3": "1944-07-12",
        "col4": "1944-07-12"
    }
]