[
    {
        "col0": "War Relic",
        "col1": "S. D. Riddle",
        "col2": "Friar Rock",
        "col3": "Fair Play",
        "col4": "Friar's Carse"
    },
    {
        "col0": "Vagrancy",
        "col1": "B. Stud",
        "col2": "Man o' War",
        "col3": "Teddy",
        "col4": "Valkyr"
    },
    {
        "col0": "Unfuwain",
        "col1": "Hamdan bin Rashid Al Maktoum",
        "col2": "Bustino",
        "col3": "Nearctic",
        "col4": "Height of Fashion"
    },
    {
        "col0": "Triptych",
        "col1": "N. B. Hunt",
        "col2": "Hail To Reason",
        "col3": "Never Bend",
        "col4": "Trillion"
    },
    {
        "col0": "Topsider",
        "col1": "P. Mellon",
        "col2": "Round Table",
        "col3": "Nearctic",
        "col4": "Drumtop"
    },
    {
        "col0": "Tontine",
        "col1": "George FitzRoy, 4th Duke of Grafton",
        "col2": "Waxy",
        "col3": "Gohanna",
        "col4": "Pope Joan"
    },
    {
        "col0": "Tim Tam",
        "col1": "C. Farm",
        "col2": "Bull Lea",
        "col3": "Menow",
        "col4": "Two Lea"
    },
    {
        "col0": "Tiago",
        "col1": "J. Moss",
        "col2": "Stop The Music",
        "col3": "Pleasant Colony",
        "col4": "Set Them Free"
    },
    {
        "col0": "Tapestry",
        "col1": "S. Niarchos",
        "col2": "Danehill",
        "col3": "Sadlers Wells",
        "col4": "Rumplestiltskin"
    },
    {
        "col0": "Surplice",
        "col1": "L. G. Bentinck",
        "col2": "Priam",
        "col3": "Camel",
        "col4": "Crucifix"
    },
    {
        "col0": "Surfside",
        "col1": "O. Farm",
        "col2": "Seeking The Gold",
        "col3": "Bold Reasoning",
        "col4": "Flanders"
    },
    {
        "col0": "Summer Squall",
        "col1": "William Stamps Farish III",
        "col2": "Secretariat",
        "col3": "Northern Dancer",
        "col4": "Weekend Surprise"
    },
    {
        "col0": "Successor",
        "col1": "W. Stable",
        "col2": "Princequillo",
        "col3": "Nasrullah",
        "col4": "Misty Morn"
    },
    {
        "col0": "Storm Flag Flying",
        "col1": "O. Phipps",
        "col2": "Easy Goer",
        "col3": "Storm Bird",
        "col4": "My Flag"
    },
    {
        "col0": "Sophisticat",
        "col1": "Robert and Beverly Lewis",
        "col2": "Rahy",
        "col3": "Storm Bird",
        "col4": "Serena's Song"
    },
    {
        "col0": "So Factual",
        "col1": "J. Farms",
        "col2": "Roberto",
        "col3": "In Reality",
        "col4": "Sookera"
    },
    {
        "col0": "Snow Bride",
        "col1": "D. Stud",
        "col2": "Snow Knight",
        "col3": "Red God",
        "col4": "Awaasif"
    },
    {
        "col0": "Smart Strike",
        "col1": "S. Farm",
        "col2": "Smarten",
        "col3": "Raise a Native",
        "col4": "Classy 'n Smart"
    },
    {
        "col0": "Slew o' Gold",
        "col1": "C. Farm",
        "col2": "Buckpasser",
        "col3": "Bold Reasoning",
        "col4": "Alluvial"
    },
    {
        "col0": "Sky Classic",
        "col1": "S. Farm",
        "col2": "Nodouble",
        "col3": "Northern Dancer",
        "col4": "No Class"
    },
    {
        "col0": "Sir Gaylord",
        "col1": "M. Farm",
        "col2": "Princequillo",
        "col3": "Royal Charger",
        "col4": "Somethingroyal"
    },
    {
        "col0": "Sir Gallahad",
        "col1": "J. D. Cohn",
        "col2": "Spearmint",
        "col3": "Ajax",
        "col4": "Plucky Liege"
    },
    {
        "col0": "Singspiel",
        "col1": "Mohammed bin Rashid Al Maktoum",
        "col2": "Halo",
        "col3": "Sadler's Wells",
        "col4": "Glorious Song"
    },
    {
        "col0": "Secretariat",
        "col1": "C. Chenery",
        "col2": "Princequillo",
        "col3": "Nasrullah",
        "col4": "Somethingroyal"
    },
    {
        "col0": "Royal Glint",
        "col1": "C. Farm",
        "col2": "Hail To Reason",
        "col3": "Princequillo",
        "col4": "Regal Gleam"
    },
    {
        "col0": "Rhythm",
        "col1": "O. M. Phipps",
        "col2": "Northern Dancer",
        "col3": "Raise a Native",
        "col4": "Dance Number"
    },
    {
        "col0": "Regal Classic",
        "col1": "S. Farm",
        "col2": "Nodouble",
        "col3": "Northern Dancer",
        "col4": "No Class"
    },
    {
        "col0": "Rahy",
        "col1": "Hill 'n' Dale Farms",
        "col2": "Halo",
        "col3": "Red God",
        "col4": "Glorious Song"
    },
    {
        "col0": "Rags to Riches",
        "col1": "S. G. Stables",
        "col2": "Deputy Minister",
        "col3": "Seattle Slew",
        "col4": "Better Than Honour"
    },
    {
        "col0": "Rachel's Valentina",
        "col1": "S. Stables",
        "col2": "Medaglia d'Oro",
        "col3": "A.P. Indy",
        "col4": "Rachel Alexandra"
    },
    {
        "col0": "Quiff",
        "col1": "J. Farms",
        "col2": "Selkirk",
        "col3": "Northern Dancer",
        "col4": "Wince"
    },
    {
        "col0": "Private Account",
        "col1": "O. Phipps",
        "col2": "Buckpasser",
        "col3": "Sword Dancer",
        "col4": "Numbered Account"
    },
    {
        "col0": "Princessnesian",
        "col1": "W. H. Perry",
        "col2": "Polynesian",
        "col3": "Prince Rose",
        "col4": "Alanesian"
    },
    {
        "col0": "Prince of Dance",
        "col1": "B. Stud",
        "col2": "English Prince",
        "col3": "Northern Dancer",
        "col4": "Sun Princess"
    },
    {
        "col0": "Pope Joan",
        "col1": "Augustus FitzRoy, 3rd Duke of Grafton",
        "col2": "Highflyer",
        "col3": "Potoooooooo",
        "col4": "Prunella"
    },
    {
        "col0": "Pope",
        "col1": "Augustus FitzRoy, 3rd Duke of Grafton",
        "col2": "Highflyer",
        "col3": "Eclipse",
        "col4": "Prunella"
    },
    {
        "col0": "Pindarrie",
        "col1": "George FitzRoy, 4th Duke of Grafton",
        "col2": "Potoooooooo",
        "col3": "Walton",
        "col4": "Parasol"
    },
    {
        "col0": "Persimmon",
        "col1": "Edward VII of the United Kingdom",
        "col2": "Hampton",
        "col3": "Galopin",
        "col4": "Perdita"
    },
    {
        "col0": "Pelisse",
        "col1": "Augustus FitzRoy, 3rd Duke of Grafton",
        "col2": "Highflyer",
        "col3": "Saltram",
        "col4": "Prunella"
    },
    {
        "col0": "Parasol",
        "col1": "Augustus FitzRoy, 3rd Duke of Grafton",
        "col2": "Highflyer",
        "col3": "Eclipse",
        "col4": "Prunella"
    },
    {
        "col0": "Oxygen",
        "col1": "George FitzRoy, 4th Duke of Grafton",
        "col2": "Rubens",
        "col3": "Orville",
        "col4": "Whizgig"
    },
    {
        "col0": "Ossory",
        "col1": "Hugh Grosvenor, 1st Duke of Westminster",
        "col2": "Macaroni",
        "col3": "Doncaster",
        "col4": "Lily Agnes"
    },
    {
        "col0": "Ormonde",
        "col1": "Hugh Grosvenor, 1st Duke of Westminster",
        "col2": "Macaroni",
        "col3": "Doncaster",
        "col4": "Lily Agnes"
    },
    {
        "col0": "On-and-On",
        "col1": "C. Farm",
        "col2": "Bull Lea",
        "col3": "Nearco",
        "col4": "Two Lea"
    }
]