[
    {
        "col0": "W. Petter",
        "col1": "English Electric",
        "col2": "E. W. Petter",
        "col3": "1908-08-08",
        "col4": "1908-08-08",
        "col5": "1968-05-01"
    },
    {
        "col0": "S. D. Holden",
        "col1": "Great Eastern Railway",
        "col2": "J. Holden",
        "col3": "1870-08-23",
        "col4": "1870-08-23",
        "col5": "1918-07-07"
    },
    {
        "col0": "P. Stirling",
        "col1": "Great Northern Railway",
        "col2": "R. Stirling",
        "col3": "1820-06-29",
        "col4": "1820-06-29",
        "col5": "1895-11-11"
    },
    {
        "col0": "M. Stirling",
        "col1": "Hull and Barnsley Railway",
        "col2": "P. Stirling",
        "col3": "1856-11-27",
        "col4": "1856-11-27",
        "col5": "1931-10-05"
    },
    {
        "col0": "J. Stirling",
        "col1": "South Eastern Railway",
        "col2": "R. Stirling",
        "col3": "1835-10-02",
        "col4": "1835-10-02",
        "col5": "1917-01-12"
    },
    {
        "col0": "H. Pollitt",
        "col1": "Great Central Railway",
        "col2": "W. Pollitt",
        "col3": "1864-12-26",
        "col4": "1864-12-26",
        "col5": "1945-01-23"
    },
    {
        "col0": "F. Trevithick",
        "col1": "Grand Junction Railway",
        "col2": "R. Trevithick",
        "col3": "1812-1-1",
        "col4": "1812-1-1",
        "col5": "1877-1-1"
    }
]