[
    {
        "col0": "Williams-Ball-Copeland House",
        "col1": "12140",
        "col2": "12140",
        "col3": "1986-11-19"
    },
    {
        "col0": "Williams-DuBois House",
        "col1": "12140",
        "col2": "12140",
        "col3": "1989-05-25"
    },
    {
        "col0": "William and Victoria Pulver House",
        "col1": "23876",
        "col2": "23876",
        "col3": "2005-04-06"
    },
    {
        "col0": "William and Susan Savage House",
        "col1": "5099",
        "col2": "5099",
        "col3": "2014-08-25"
    },
    {
        "col0": "William and Mary",
        "col1": "10117",
        "col2": "10117",
        "col3": "2009-08-20"
    },
    {
        "col0": "William and Margot Kessler House",
        "col1": "485622",
        "col2": "485622",
        "col3": "2013-09-30"
    },
    {
        "col0": "William and Margaret McFarland Core Farm",
        "col1": "601362",
        "col2": "601362",
        "col3": "2005-02-02"
    },
    {
        "col0": "William and Helen Koerting House",
        "col1": "4856",
        "col2": "4856",
        "col3": "2009-12-22"
    },
    {
        "col0": "William and Annie MacMaster House",
        "col1": "1214",
        "col2": "1214",
        "col3": "1989-10-30"
    },
    {
        "col0": "William and Ann Bringhurst House",
        "col1": "1618",
        "col2": "1618",
        "col3": "1998-01-05"
    },
    {
        "col0": "William and Amanda J. Ellis Farmstead Historic District",
        "col1": "4451",
        "col2": "4451",
        "col3": "2015-10-23"
    },
    {
        "col0": "William Young House",
        "col1": "4451",
        "col2": "4451",
        "col3": "1982-10-29"
    },
    {
        "col0": "William Wrigley Jr. Summer Cottage",
        "col1": "20234",
        "col2": "20234",
        "col3": "1985-08-15"
    },
    {
        "col0": "William Wooden Wood House",
        "col1": "6070",
        "col2": "6070",
        "col3": "1985-09-26"
    },
    {
        "col0": "William Wombough House",
        "col1": "0",
        "col2": "0",
        "col3": "2003-07-03"
    },
    {
        "col0": "William Winter Stone House",
        "col1": "4046",
        "col2": "4046",
        "col3": "1977-03-25"
    },
    {
        "col0": "William Werner House",
        "col1": "2023",
        "col2": "2023",
        "col3": "1984-05-10"
    },
    {
        "col0": "William Weaver House",
        "col1": "32374",
        "col2": "32374",
        "col3": "1976-11-07"
    },
    {
        "col0": "William Watkins House",
        "col1": "8093",
        "col2": "8093",
        "col3": "1986-10-23"
    },
    {
        "col0": "William Ward Jr. House",
        "col1": "2023",
        "col2": "2023",
        "col3": "1988-02-19"
    },
    {
        "col0": "William Waddell House",
        "col1": "24281",
        "col2": "24281",
        "col3": "1976-11-07"
    },
    {
        "col0": "William W. Van Ness House",
        "col1": "416826",
        "col2": "416826",
        "col3": "1997-08-08"
    },
    {
        "col0": "William W. Johnson House",
        "col1": "6070",
        "col2": "6070",
        "col3": "1988-04-13"
    },
    {
        "col0": "William W. Jarvis House",
        "col1": "4046",
        "col2": "4046",
        "col3": "1988-02-03"
    },
    {
        "col0": "William W. Early House",
        "col1": "13354",
        "col2": "13354",
        "col3": "1988-06-30"
    },
    {
        "col0": "William W. Axe School",
        "col1": "8093",
        "col2": "8093",
        "col3": "1988-11-18"
    },
    {
        "col0": "William Virts House",
        "col1": "12140",
        "col2": "12140",
        "col3": "2011-02-22"
    },
    {
        "col0": "William Tully House",
        "col1": "4046",
        "col2": "4046",
        "col3": "1982-03-15"
    },
    {
        "col0": "William Trent House",
        "col1": "21043",
        "col2": "21043",
        "col3": "1970-04-15"
    },
    {
        "col0": "William Treadwell House",
        "col1": "36421",
        "col2": "36421",
        "col3": "1974-12-31"
    },
    {
        "col0": "William Teague House",
        "col1": "28327",
        "col2": "28327",
        "col3": "1985-07-05"
    },
    {
        "col0": "William Taylor House",
        "col1": "3439",
        "col2": "3439",
        "col3": "2012-12-04"
    },
    {
        "col0": "William Talley House",
        "col1": "9712",
        "col2": "9712",
        "col3": "1985-02-21"
    },
    {
        "col0": "William T. Tull House",
        "col1": "1214",
        "col2": "1214",
        "col3": "1996-03-26"
    },
    {
        "col0": "William T. Hendrick House",
        "col1": "809",
        "col2": "809",
        "col3": "1983-09-08"
    },
    {
        "col0": "William T. E. Wilson Homestead",
        "col1": "647497",
        "col2": "647497",
        "col3": "1998-03-05"
    },
    {
        "col0": "William Swortz House",
        "col1": "145686",
        "col2": "145686",
        "col3": "1994-08-24"
    }
]