[
    {
        "col0": "Witmer's Tavern",
        "col1": "4046",
        "col2": "4046",
        "col3": "1978-12-01"
    },
    {
        "col0": "Witherspoon Street School for Colored Children",
        "col1": "3035",
        "col2": "3035",
        "col3": "2005-03-09"
    },
    {
        "col0": "Withers Log House",
        "col1": "1214",
        "col2": "1214",
        "col3": "2000-04-06"
    },
    {
        "col0": "Witherbee Memorial Hall",
        "col1": "12140",
        "col2": "12140",
        "col3": "1991-04-22"
    },
    {
        "col0": "Wiswall Falls Mills Site",
        "col1": "12140",
        "col2": "12140",
        "col3": "1988-03-18"
    },
    {
        "col0": "Wissahickon",
        "col1": "2832",
        "col2": "2832",
        "col3": "1983-11-25"
    },
    {
        "col0": "Wishram village",
        "col1": "11857289",
        "col2": "11857289",
        "col3": "1972-03-16"
    },
    {
        "col0": "Wise County Courthouse",
        "col1": "4046",
        "col2": "4046",
        "col3": "1981-03-02"
    },
    {
        "col0": "Wisconsin Heights Battlefield",
        "col1": "283279",
        "col2": "283279",
        "col3": "2002-01-31"
    },
    {
        "col0": "Wisconsin Concrete Park",
        "col1": "72843",
        "col2": "72843",
        "col3": "2005-10-28"
    },
    {
        "col0": "Wiscasset Jail and Museum",
        "col1": "20234",
        "col2": "20234",
        "col3": "1970-01-26"
    },
    {
        "col0": "Wiscasset Historic District",
        "col1": "408732",
        "col2": "408732",
        "col3": "1973-01-12"
    },
    {
        "col0": "Wirts House",
        "col1": "16187",
        "col2": "16187",
        "col3": "1992-01-22"
    },
    {
        "col0": "Winyah Indigo School",
        "col1": "5260",
        "col2": "5260",
        "col3": "1988-11-03"
    },
    {
        "col0": "Winton Place Methodist Episcopal Church",
        "col1": "4046",
        "col2": "4046",
        "col3": "1980-03-03"
    },
    {
        "col0": "Winthrop Mill",
        "col1": "16187",
        "col2": "16187",
        "col3": "1982-11-30"
    },
    {
        "col0": "Winthrop College Historic District",
        "col1": "240383",
        "col2": "240383",
        "col3": "1987-04-23"
    },
    {
        "col0": "Winthrop Center/Metcalf Square Historic District",
        "col1": "169967",
        "col2": "169967",
        "col3": "2010-03-23"
    },
    {
        "col0": "Winterthur Museum, Garden and Library",
        "col1": "3961872",
        "col2": "3961872",
        "col3": "1971-02-24"
    },
    {
        "col0": "Winterset Courthouse Square Commercial Historic District",
        "col1": "64749",
        "col2": "64749",
        "col3": "2015-12-22"
    },
    {
        "col0": "Winters Lane Historic District",
        "col1": "198295",
        "col2": "198295",
        "col3": "2007-12-21"
    },
    {
        "col0": "Winterport Historic District",
        "col1": "687965",
        "col2": "687965",
        "col3": "1975-10-03"
    },
    {
        "col0": "Winterport Congregational Church",
        "col1": "4046",
        "col2": "4046",
        "col3": "1973-04-24"
    },
    {
        "col0": "Winter Street Church",
        "col1": "4046",
        "col2": "4046",
        "col3": "1971-07-27"
    },
    {
        "col0": "Winter Haven Heights Historic Residential District",
        "col1": "1821085",
        "col2": "1821085",
        "col3": "2000-06-15"
    },
    {
        "col0": "Winter Garden Historic Residential District",
        "col1": "1011714",
        "col2": "1011714",
        "col3": "1996-08-01"
    },
    {
        "col0": "Winter Garden Downtown Historic District",
        "col1": "404685",
        "col2": "404685",
        "col3": "1996-08-01"
    },
    {
        "col0": "Winston Place",
        "col1": "60702",
        "col2": "60702",
        "col3": "1987-03-19"
    },
    {
        "col0": "Winston-Salem Tobacco Historic District",
        "col1": "125452",
        "col2": "125452",
        "col3": "2009-08-05"
    },
    {
        "col0": "Winsted",
        "col1": "20234",
        "col2": "20234",
        "col3": "1979-09-19"
    },
    {
        "col0": "Winstead House",
        "col1": "14973",
        "col2": "14973",
        "col3": "1979-04-18"
    },
    {
        "col0": "Winstead Hill",
        "col1": "39659",
        "col2": "39659",
        "col3": "1974-11-29"
    },
    {
        "col0": "Winooski Falls Mill District",
        "col1": "80937",
        "col2": "80937",
        "col3": "1978-05-09"
    },
    {
        "col0": "Winona Lake Historic District",
        "col1": "194249",
        "col2": "194249",
        "col3": "1993-12-10"
    },
    {
        "col0": "Winona",
        "col1": "0",
        "col2": "0",
        "col3": "1969-10-01"
    },
    {
        "col0": "Winona",
        "col1": "125452",
        "col2": "125452",
        "col3": "2001-07-05"
    },
    {
        "col0": "Winnsboro Historic District",
        "col1": "1104791",
        "col2": "1104791",
        "col3": "1971-10-14"
    },
    {
        "col0": "Winnie Davis Hall",
        "col1": "1214",
        "col2": "1214",
        "col3": "1977-04-29"
    },
    {
        "col0": "Winnemucca Main Post Office",
        "col1": "1618",
        "col2": "1618",
        "col3": "1990-02-28"
    },
    {
        "col0": "Winnemucca Hotel",
        "col1": "1618",
        "col2": "1618",
        "col3": "2005-05-26"
    },
    {
        "col0": "Winn Road School",
        "col1": "1214",
        "col2": "1214",
        "col3": "1984-03-22"
    },
    {
        "col0": "Winkelman Bridge",
        "col1": "809",
        "col2": "809",
        "col3": "1988-09-30"
    },
    {
        "col0": "Wingmead",
        "col1": "22225335",
        "col2": "22225335",
        "col3": "2011-05-23"
    },
    {
        "col0": "Wingate Commercial Historic District",
        "col1": "289350",
        "col2": "289350",
        "col3": "2014-12-01"
    },
    {
        "col0": "Wing Park Golf Course",
        "col1": "210436",
        "col2": "210436",
        "col3": "2009-02-18"
    },
    {
        "col0": "Wing Family Cemetery",
        "col1": "1618",
        "col2": "1618",
        "col3": "1991-10-16"
    },
    {
        "col0": "Winfield Corners Stone House",
        "col1": "23067",
        "col2": "23067",
        "col3": "1999-08-12"
    },
    {
        "col0": "Winfall Historic District",
        "col1": "80937",
        "col2": "80937",
        "col3": "2003-01-15"
    },
    {
        "col0": "Winemiller Family Farm",
        "col1": "12140",
        "col2": "12140",
        "col3": "2006-08-30"
    },
    {
        "col0": "Winegardner Village",
        "col1": "20234",
        "col2": "20234",
        "col3": "1974-07-30"
    },
    {
        "col0": "Windy Run Grade School",
        "col1": "2023",
        "col2": "2023",
        "col3": "1984-01-12"
    },
    {
        "col0": "Windust Caves Archaeological District",
        "col1": "2043662",
        "col2": "2043662",
        "col3": "1984-10-29"
    },
    {
        "col0": "Windswept Farm",
        "col1": "322129",
        "col2": "322129",
        "col3": "1989-09-07"
    },
    {
        "col0": "Windswept Acres-Powers House",
        "col1": "194249",
        "col2": "194249",
        "col3": "1985-06-21"
    },
    {
        "col0": "Windswept",
        "col1": "20234",
        "col2": "20234",
        "col3": "2007-05-08"
    },
    {
        "col0": "Windsor Village Historic District",
        "col1": "222577",
        "col2": "222577",
        "col3": "1980-07-30"
    },
    {
        "col0": "Windsor Ruins",
        "col1": "8498",
        "col2": "8498",
        "col3": "1971-11-23"
    },
    {
        "col0": "Windsor Road Historic District",
        "col1": "105218",
        "col2": "105218",
        "col3": "1990-02-16"
    },
    {
        "col0": "Windsor Mills Christ Church Episcopal",
        "col1": "4046",
        "col2": "4046",
        "col3": "1975-05-29"
    },
    {
        "col0": "Windsor Historic District",
        "col1": "275186",
        "col2": "275186",
        "col3": "1991-07-29"
    },
    {
        "col0": "Windsor Hills Historic District",
        "col1": "687965",
        "col2": "687965",
        "col3": "2002-12-27"
    },
    {
        "col0": "Windsor Castle",
        "col1": "202342",
        "col2": "202342",
        "col3": "1987-12-14"
    },
    {
        "col0": "Windsor Castle",
        "col1": "640617",
        "col2": "640617",
        "col3": "2000-08-02"
    },
    {
        "col0": "Windsor Avenue Congregational Church",
        "col1": "2428",
        "col2": "2428",
        "col3": "1993-04-03"
    },
    {
        "col0": "Windsor",
        "col1": "12140",
        "col2": "12140",
        "col3": "1992-09-11"
    },
    {
        "col0": "Windsor",
        "col1": "153780",
        "col2": "153780",
        "col3": "1980-07-30"
    },
    {
        "col0": "Windover Archeological Site",
        "col1": "5260",
        "col2": "5260",
        "col3": "1987-04-20"
    },
    {
        "col0": "Windmill at Water Mill",
        "col1": "4046",
        "col2": "4046",
        "col3": "1978-12-27"
    },
    {
        "col0": "Windham Village Historic District",
        "col1": "182108",
        "col2": "182108",
        "col3": "1984-11-01"
    },
    {
        "col0": "Windham Center Historic District",
        "col1": "829605",
        "col2": "829605",
        "col3": "1979-06-04"
    },
    {
        "col0": "Windermere",
        "col1": "20234",
        "col2": "20234",
        "col3": "1979-11-14"
    },
    {
        "col0": "Windber Historic District",
        "col1": "1210010",
        "col2": "1210010",
        "col3": "1991-11-14"
    },
    {
        "col0": "Wind Springs Ranch",
        "col1": "14673901",
        "col2": "14673901",
        "col3": "2000-11-22"
    },
    {
        "col0": "Wind Cave National Park Administrative and Utility Area Historic District",
        "col1": "84983",
        "col2": "84983",
        "col3": "1984-07-11"
    },
    {
        "col0": "Winchester Town Hall",
        "col1": "1618",
        "col2": "1618",
        "col3": "1987-08-27"
    },
    {
        "col0": "Winchester Residential Historic District",
        "col1": "226623",
        "col2": "226623",
        "col3": "2011-03-21"
    },
    {
        "col0": "Winchester Repeating Arms Company Historic District",
        "col1": "1031948",
        "col2": "1031948",
        "col3": "1988-01-28"
    },
    {
        "col0": "Winchester National Cemetery",
        "col1": "19829",
        "col2": "19829",
        "col3": "1996-02-26"
    },
    {
        "col0": "Winchester Memorial Church",
        "col1": "2832",
        "col2": "2832",
        "col3": "1980-05-15"
    },
    {
        "col0": "Winchester Historic District",
        "col1": "829605",
        "col2": "829605",
        "col3": "1979-02-14"
    },
    {
        "col0": "Winchester Downtown Commercial District",
        "col1": "84983",
        "col2": "84983",
        "col3": "1982-04-28"
    },
    {
        "col0": "Winchester Courthouse Square Historic District",
        "col1": "56655",
        "col2": "56655",
        "col3": "2001-08-09"
    },
    {
        "col0": "Winchester Coca-Cola Bottling Works",
        "col1": "5260",
        "col2": "5260",
        "col3": "2008-09-12"
    },
    {
        "col0": "Winchester Center Historic District",
        "col1": "161874",
        "col2": "161874",
        "col3": "1986-11-21"
    },
    {
        "col0": "Winchendon Village Historic District",
        "col1": "64345",
        "col2": "64345",
        "col3": "1993-09-01"
    },
    {
        "col0": "Win-Mock Farm Dairy",
        "col1": "18615",
        "col2": "18615",
        "col3": "2010-12-27"
    },
    {
        "col0": "Wilton",
        "col1": "20234",
        "col2": "20234",
        "col3": "1977-12-12"
    },
    {
        "col0": "Wilton",
        "col1": "32374",
        "col2": "32374",
        "col3": "1979-02-28"
    },
    {
        "col0": "Wilson-South House",
        "col1": "809",
        "col2": "809",
        "col3": "1999-01-27"
    },
    {
        "col0": "Wilson School",
        "col1": "2023",
        "col2": "2023",
        "col3": "1998-10-30"
    },
    {
        "col0": "Wilson Park Houses",
        "col1": "4046",
        "col2": "4046",
        "col3": "1979-01-25"
    },
    {
        "col0": "Wilson Park Historic District",
        "col1": "153780",
        "col2": "153780",
        "col3": "1995-03-31"
    },
    {
        "col0": "Wilson Mill-Old Burlington Road District",
        "col1": "36421",
        "col2": "36421",
        "col3": "2003-08-18"
    },
    {
        "col0": "Wilson Kindley Farm and Kindley Mine",
        "col1": "175228",
        "col2": "175228",
        "col3": "1992-06-11"
    },
    {
        "col0": "Wilson Junior High School",
        "col1": "35612",
        "col2": "35612",
        "col3": "2001-09-16"
    },
    {
        "col0": "Wilson House",
        "col1": "7284",
        "col2": "7284",
        "col3": "1974-11-20"
    },
    {
        "col0": "Wilson Hall",
        "col1": "2023",
        "col2": "2023",
        "col3": "1983-04-27"
    },
    {
        "col0": "Wilson Hall",
        "col1": "9307",
        "col2": "9307",
        "col3": "1992-09-18"
    },
    {
        "col0": "Wilson Central Business-Tobacco Warehouse Historic District",
        "col1": "570606",
        "col2": "570606",
        "col3": "1984-12-20"
    },
    {
        "col0": "Wilson Cemetery",
        "col1": "4937",
        "col2": "4937",
        "col3": "2004-09-10"
    },
    {
        "col0": "Wilson Building",
        "col1": "6070",
        "col2": "6070",
        "col3": "1979-07-24"
    },
    {
        "col0": "Wilson Alwyn \"Snowflake\" Bentley House",
        "col1": "16187",
        "col2": "16187",
        "col3": "1980-07-03"
    }
]