[
    {
        "col0": "Z. Nara",
        "col1": "2008-present",
        "col2": "Zaira Tatiana Nara",
        "col3": "37"
    },
    {
        "col0": "V. Hessler",
        "col1": "2005-present",
        "col2": "Vanessa Hessler",
        "col3": "41"
    },
    {
        "col0": "T. Holliday",
        "col1": "2010-present",
        "col2": "Ryann Maegen Hoven",
        "col3": "8.5 (US)"
    },
    {
        "col0": "S. Retuya",
        "col1": "2012-present",
        "col2": "Stephanie Guanzon Retuya",
        "col3": "7"
    },
    {
        "col0": "S. Sampaio",
        "col1": "2007-present",
        "col2": "Sara Pinto Sampaio",
        "col3": "(US) 7; (EU) 37"
    },
    {
        "col0": "M. Kerr",
        "col1": "1997-present",
        "col2": "Miranda May Kerr",
        "col3": "8 US/39 EU"
    },
    {
        "col0": "L. Kennedy",
        "col1": "2004-present",
        "col2": "Liza Kennedy",
        "col3": "24.5 cm"
    },
    {
        "col0": "K. Grigorieva",
        "col1": "2014-present",
        "col2": "Ekaterina Sergeyevna Grigorieva",
        "col3": "(US) 8; (EU) 38.5"
    },
    {
        "col0": "D. Penn",
        "col1": "2013-present",
        "col2": "Dylan Frances Penn",
        "col3": "7"
    },
    {
        "col0": "B. Beattie",
        "col1": "2015-present",
        "col2": "Brittany Beattie",
        "col3": "(US) 9; (EU) 40"
    },
    {
        "col0": "B. Ferreira",
        "col1": "2014-present",
        "col2": "Barbara Linhares Ferreira",
        "col3": "9"
    },
    {
        "col0": "A. Gani",
        "col1": "2009-present",
        "col2": "Ayu Lestari Putri Gani",
        "col3": "(US) 6; (EU) 37; (UK) 4"
    },
    {
        "col0": "A. Cleland",
        "col1": "2013-present",
        "col2": "Aubrey Cleland",
        "col3": "7"
    },
    {
        "col0": "A. Harvard",
        "col1": "2009-present",
        "col2": "Allison Elizabeth Harvard",
        "col3": "9 (US), 41 (EU)"
    }
]