[
    {
        "col0": "W. Harvey-Kelly",
        "col1": "H. Harvey-Kelly",
        "col2": "3rd Battalion Irish Guards1966 - 1968",
        "col3": "295072"
    },
    {
        "col0": "W. F. Harris",
        "col1": "F. Harris",
        "col2": "3rd Battalion 7th Marines,1st Marine Division",
        "col3": "0-5917"
    },
    {
        "col0": "W. G. G. Duncan Smith",
        "col1": "I. D. Smith",
        "col2": "No. 64 Squadron RAF",
        "col3": "85684"
    },
    {
        "col0": "V. Sturdee",
        "col1": "D. Sturdee",
        "col2": "4th Pioneer Battalion",
        "col3": "NX35000"
    },
    {
        "col0": "Thomas George Lanphier, Sr.",
        "col1": "Thomas George Lanphier, Jr.",
        "col2": "1st Pursuit Group",
        "col3": "O3727"
    },
    {
        "col0": "S. M. Ahsan",
        "col1": "M. J. Sayeed",
        "col2": "Aide-de-camptoLouis Mountbatten",
        "col3": "PNNo. 07"
    },
    {
        "col0": "S. C. Cumming",
        "col1": "H. S. Cumming",
        "col2": "25th Marine Regiment",
        "col3": "0-209"
    },
    {
        "col0": "R. Downes",
        "col1": "M. Downes",
        "col2": "2nd Light Horse Field Ambulance",
        "col3": "VX57673"
    },
    {
        "col0": "R. Burston",
        "col1": "S. Burston",
        "col2": "1st Convalescent Depot",
        "col3": "VX2"
    },
    {
        "col0": "R. Gambier-Parry",
        "col1": "H. Parry",
        "col2": "Director of Communications of the Foreign Office",
        "col3": "9669"
    },
    {
        "col0": "Philip De Witt Ginder",
        "col1": "J. Dalrymple",
        "col2": "10th Mountain Division",
        "col3": "0-16904"
    },
    {
        "col0": "N. Bashir",
        "col1": "S. Bashir",
        "col2": "(DGNI)",
        "col3": "(PNNo. 1471)"
    },
    {
        "col0": "N. H. Fairley",
        "col1": "G. Hamilton-Fairley",
        "col2": "14th General Hospital",
        "col3": "VX38970"
    }
]