[
    {
        "col0": "L. L. Duff-Gordon",
        "col1": "1863-06-13",
        "col2": "1935-04-20",
        "col3": "Lucy Christiana Sutherland"
    },
    {
        "col0": "L. Claiborne",
        "col1": "1929-03-31",
        "col2": "2007-06-26",
        "col3": "Anne Elisabeth Jane Claiborne"
    },
    {
        "col0": "L. Gottlieb",
        "col1": "1918-09-17",
        "col2": "2012-11-17",
        "col3": "Leah Lenke Roth"
    },
    {
        "col0": "J. Crahay",
        "col1": "1917-05-21",
        "col2": "1988-01-05",
        "col3": "Jules-Francois Crahay"
    },
    {
        "col0": "J. F. Turner",
        "col1": "1881-1-1",
        "col2": "1956-1-1",
        "col3": "Jessie Franklin Turner"
    },
    {
        "col0": "J. Paquin",
        "col1": "1869-1-1",
        "col2": "1936-1-1",
        "col3": "Jeanne Marie Charlotte Beckers"
    },
    {
        "col0": "G. Camerino",
        "col1": "1920-12-08",
        "col2": "2010-05-10",
        "col3": "Giuliana Coen"
    },
    {
        "col0": "G. W. Ford",
        "col1": "1924-10-02",
        "col2": "2008-08-24",
        "col3": "Gerard William Ford"
    },
    {
        "col0": "F. Simon",
        "col1": "1951-01-29",
        "col2": "1998-07-29",
        "col3": "Fabrice Simon"
    },
    {
        "col0": "D. Brooks",
        "col1": "1928-01-09",
        "col2": "2005-08-01",
        "col3": "Donald Marc Blumberg"
    },
    {
        "col0": "D. Gonzales",
        "col1": "1907-06-06",
        "col2": "1994-0-0",
        "col3": "Dolores Consuelo Barcelo"
    },
    {
        "col0": "C. Chanel",
        "col1": "1883-08-19",
        "col2": "1971-01-10",
        "col3": "Gabrielle Chanel"
    },
    {
        "col0": "C. Potter",
        "col1": "1903-07-07",
        "col2": "1999-01-05",
        "col3": "Clare Meyer"
    },
    {
        "col0": "C. James",
        "col1": "1906-07-18",
        "col2": "1978-09-23",
        "col3": "Charles Wilson Brega James"
    },
    {
        "col0": "B. Gibb",
        "col1": "1943-01-23",
        "col2": "1988-01-03",
        "col3": "William Elphinstone Gibb"
    },
    {
        "col0": "B. Blass",
        "col1": "1922-06-22",
        "col2": "2002-06-12",
        "col3": "William Ralph Blass"
    },
    {
        "col0": "B. Belew",
        "col1": "1931-05-20",
        "col2": "2008-01-07",
        "col3": "William Lewis Belew"
    },
    {
        "col0": "A. McQueen",
        "col1": "1969-03-17",
        "col2": "2010-02-11",
        "col3": "Lee Alexander McQueen"
    },
    {
        "col0": "Adrian",
        "col1": "1903-03-03",
        "col2": "1959-09-13",
        "col3": "Adrian Adolph Greenberg"
    }
]