[
    {
        "col0": "Yantic Woolen Company Mill",
        "col1": "28327",
        "col2": "28327",
        "col3": "1996-07-25"
    },
    {
        "col0": "Yantic Falls Historic District",
        "col1": "40468",
        "col2": "40468",
        "col3": "1972-06-28"
    },
    {
        "col0": "Yanceyville Historic District",
        "col1": "121405",
        "col2": "121405",
        "col3": "1973-10-15"
    },
    {
        "col0": "Yancey Collegiate Institute Historic District",
        "col1": "12949",
        "col2": "12949",
        "col3": "2003-08-21"
    },
    {
        "col0": "Yakima Valley Transportation Company",
        "col1": "202342",
        "col2": "202342",
        "col3": "1992-10-08"
    },
    {
        "col0": "Yakel House and Union Brewery",
        "col1": "19424",
        "col2": "19424",
        "col3": "1982-05-11"
    },
    {
        "col0": "Yadkin College Historic District",
        "col1": "505857",
        "col2": "505857",
        "col3": "1988-02-25"
    },
    {
        "col0": "YMCA",
        "col1": "3237",
        "col2": "3237",
        "col3": "1983-07-29"
    },
    {
        "col0": "Y. M. Rizer House",
        "col1": "8903",
        "col2": "8903",
        "col3": "1988-04-13"
    },
    {
        "col0": "Xavier Chevalier House",
        "col1": "215292",
        "col2": "215292",
        "col3": "1985-09-27"
    },
    {
        "col0": "Wythe County Poorhouse Farm",
        "col1": "36826",
        "col2": "36826",
        "col3": "2000-05-26"
    },
    {
        "col0": "Wysor Heights Historic District",
        "col1": "93077",
        "col2": "93077",
        "col3": "1988-11-01"
    },
    {
        "col0": "Wyoming Village Historic District",
        "col1": "182108",
        "col2": "182108",
        "col3": "1974-12-27"
    },
    {
        "col0": "Wyoming Territorial Prison State Historic Site",
        "col1": "6070",
        "col2": "6070",
        "col3": "1978-03-29"
    },
    {
        "col0": "Wyoming Seminary",
        "col1": "4856",
        "col2": "4856",
        "col3": "1979-08-06"
    },
    {
        "col0": "Wyoming Railroad Station",
        "col1": "809",
        "col2": "809",
        "col3": "1980-12-04"
    },
    {
        "col0": "Wyoming Historic District",
        "col1": "384451",
        "col2": "384451",
        "col3": "1987-02-18"
    },
    {
        "col0": "Wyoming",
        "col1": "36421",
        "col2": "36421",
        "col3": "1980-02-08"
    },
    {
        "col0": "Wyoming",
        "col1": "125452",
        "col2": "125452",
        "col3": "1980-01-24"
    },
    {
        "col0": "Wynne Wholesale Commercial Historic District",
        "col1": "20234",
        "col2": "20234",
        "col3": "2010-01-25"
    },
    {
        "col0": "Wynne Commercial Historic District",
        "col1": "60702",
        "col2": "60702",
        "col3": "2009-12-22"
    },
    {
        "col0": "Wynn-Price House",
        "col1": "16187",
        "col2": "16187",
        "col3": "1992-01-23"
    },
    {
        "col0": "Wyman Tavern",
        "col1": "4046",
        "col2": "4046",
        "col3": "1972-04-03"
    },
    {
        "col0": "Wylie School",
        "col1": "1214",
        "col2": "1214",
        "col3": "1991-12-19"
    },
    {
        "col0": "Wyit Sprowls Covered Bridge",
        "col1": "404",
        "col2": "404",
        "col3": "1979-06-22"
    },
    {
        "col0": "Wye Town Farm House",
        "col1": "30351",
        "col2": "30351",
        "col3": "1982-12-16"
    },
    {
        "col0": "Wye Mill",
        "col1": "3237",
        "col2": "3237",
        "col3": "1985-04-09"
    },
    {
        "col0": "Wycombe Village Historic District",
        "col1": "254951",
        "col2": "254951",
        "col3": "1985-01-31"
    },
    {
        "col0": "Wyatt Petroglyphs",
        "col1": "404",
        "col2": "404",
        "col3": "1982-05-04"
    },
    {
        "col0": "Wyatt House",
        "col1": "4046",
        "col2": "4046",
        "col3": "1999-03-05"
    },
    {
        "col0": "Wyatt Hall",
        "col1": "33993",
        "col2": "33993",
        "col3": "1980-07-02"
    },
    {
        "col0": "Wyandot Mission Church",
        "col1": "12140",
        "col2": "12140",
        "col3": "1976-01-20"
    },
    {
        "col0": "Wrightsville Historic District",
        "col1": "524067",
        "col2": "524067",
        "col3": "1983-09-12"
    },
    {
        "col0": "Wrightstown Friends Meeting Complex",
        "col1": "59488",
        "col2": "59488",
        "col3": "1975-10-29"
    },
    {
        "col0": "Wright Tavern",
        "col1": "8093",
        "col2": "8093",
        "col3": "1970-09-15"
    },
    {
        "col0": "Wright Settlement Cemetery",
        "col1": "35207",
        "col2": "35207",
        "col3": "2012-05-08"
    },
    {
        "col0": "Wright Potato House",
        "col1": "404",
        "col2": "404",
        "col3": "1990-11-15"
    },
    {
        "col0": "Wright House",
        "col1": "10117",
        "col2": "10117",
        "col3": "1982-05-07"
    },
    {
        "col0": "Wright Brothers Mule Barn",
        "col1": "2023",
        "col2": "2023",
        "col3": "2007-11-01"
    },
    {
        "col0": "Wright Block",
        "col1": "4046",
        "col2": "4046",
        "col3": "1982-10-26"
    },
    {
        "col0": "Wright-Patterson Air Force Base Mound",
        "col1": "4046",
        "col2": "4046",
        "col3": "1972-02-23"
    },
    {
        "col0": "Wright-Carry House",
        "col1": "1618",
        "col2": "1618",
        "col3": "1983-06-27"
    },
    {
        "col0": "Wright's Ferry Mansion",
        "col1": "3237",
        "col2": "3237",
        "col3": "1979-11-20"
    },
    {
        "col0": "Wright's Bridge",
        "col1": "4046",
        "col2": "4046",
        "col3": "1975-06-10"
    },
    {
        "col0": "Wright's Automatic Machinery Company",
        "col1": "1606",
        "col2": "1606",
        "col3": "2012-12-26"
    },
    {
        "col0": "Wounded Knee Battlefield",
        "col1": "3520765",
        "col2": "3520765",
        "col3": "1966-10-15"
    },
    {
        "col0": "Worumbo Mill",
        "col1": "20234",
        "col2": "20234",
        "col3": "1973-10-15"
    },
    {
        "col0": "Worthington Valley Historic District",
        "col1": "32374851",
        "col2": "32374851",
        "col3": "1976-12-12"
    }
]