[
    {
        "col0": "Yolk sac",
        "col1": "Yolk sac",
        "col2": "A10.615.284.981",
        "col3": "54",
        "col4": "11"
    },
    {
        "col0": "Vitelline duct",
        "col1": "Vitelline+Duct",
        "col2": "A16.254.891",
        "col3": "54",
        "col4": "10"
    },
    {
        "col0": "Urachus",
        "col1": "Urachus",
        "col2": "A16.254.835",
        "col3": "1213",
        "col4": "252"
    },
    {
        "col0": "Truncus arteriosus",
        "col1": "Truncus+Arteriosus",
        "col2": "A07.541.278.930",
        "col3": "514",
        "col4": "135"
    },
    {
        "col0": "Trophoblast",
        "col1": "Trophoblasts",
        "col2": "A16.254.085.162",
        "col3": "46",
        "col4": "6"
    },
    {
        "col0": "Syncytiotrophoblast",
        "col1": "Syncytiotrophoblasts",
        "col2": "A16.254.085.162",
        "col3": "47",
        "col4": "6"
    },
    {
        "col0": "Primitive streak",
        "col1": "Primitive+Streak",
        "col2": "A16.254.412",
        "col3": "47",
        "col4": "6"
    },
    {
        "col0": "Pharyngeal arch",
        "col1": "Branchial+Arches",
        "col2": "A16.254.160",
        "col3": "65",
        "col4": "13"
    },
    {
        "col0": "Paramesonephric duct",
        "col1": "Mullerian+Ducts",
        "col2": "A16.254.570",
        "col3": "1206",
        "col4": "252"
    },
    {
        "col0": "Notochord",
        "col1": "Notochord",
        "col2": "A16.254.610",
        "col3": "52",
        "col4": "8"
    },
    {
        "col0": "Mesonephros",
        "col1": "Mesonephros",
        "col2": "A16.254.500",
        "col3": "1205",
        "col4": "252"
    },
    {
        "col0": "Mesoderm",
        "col1": "Mesoderm",
        "col2": "A16.254.425.660",
        "col3": "49",
        "col4": "6"
    },
    {
        "col0": "Endoderm",
        "col1": "Endoderm",
        "col2": "A16.254.425.407",
        "col3": "49",
        "col4": "6"
    },
    {
        "col0": "Ectoderm",
        "col1": "Ectoderm",
        "col2": "A16.254.425.273",
        "col3": "48",
        "col4": "6"
    },
    {
        "col0": "Cytotrophoblast",
        "col1": "Trophoblasts",
        "col2": "A16.254.085.162",
        "col3": "47",
        "col4": "6"
    },
    {
        "col0": "Cloaca",
        "col1": "Cloaca",
        "col2": "A13.223",
        "col3": "1109",
        "col4": "241"
    },
    {
        "col0": "Allantois",
        "col1": "Allantois",
        "col2": "A10.615.284.147",
        "col3": "54",
        "col4": "12"
    }
]