[
    {
        "col0": "Sir Abraham Hume, 1st Baronet",
        "col1": "1772-10-10",
        "col2": "1703-1-1",
        "col3": "1703-1-1"
    },
    {
        "col0": "R. Cullen",
        "col1": "1730-1-1",
        "col2": "1661-1-1",
        "col3": "1661-1-1"
    },
    {
        "col0": "R. Hodge",
        "col1": "1950-9-21",
        "col2": "1859-9-0",
        "col3": "1859-9-0"
    },
    {
        "col0": "R. Newdigate",
        "col1": "1806-11-23",
        "col2": "1719-5-30",
        "col3": "1719-5-30"
    },
    {
        "col0": "R. Hobart",
        "col1": "1928-8-4",
        "col2": "1836-9-13",
        "col3": "1836-9-13"
    },
    {
        "col0": "R. Vassar-Smith",
        "col1": "1995-1-1",
        "col2": "1909-1-1",
        "col3": "1909-1-1"
    },
    {
        "col0": "R. Heron",
        "col1": "1824-1-1",
        "col2": "1726-1-1",
        "col3": "1726-1-1"
    },
    {
        "col0": "R. Sitwell",
        "col1": "2009-3-31",
        "col2": "1927-4-15",
        "col3": "1927-4-15"
    },
    {
        "col0": "R. Lopes",
        "col1": "1854-1-23",
        "col2": "1788-9-10",
        "col3": "1788-9-10"
    },
    {
        "col0": "P. Nugent",
        "col1": "1874-6-25",
        "col2": "1797-9-29",
        "col3": "1797-9-29"
    },
    {
        "col0": "P. Newson",
        "col1": "1950-5-17",
        "col2": "1874-4-4",
        "col3": "1874-4-4"
    },
    {
        "col0": "P. Studholme",
        "col1": "1990-0-0",
        "col2": "1930-1-16",
        "col3": "1930-1-16"
    },
    {
        "col0": "P. Warrender",
        "col1": "1799-6-14",
        "col2": "1731-3-7",
        "col3": "1731-3-7"
    },
    {
        "col0": "N. Everard",
        "col1": "1929-7-12",
        "col2": "1849-10-24",
        "col3": "1849-10-24"
    },
    {
        "col0": "N. Bowater",
        "col1": "1984-1-22",
        "col2": "1892-12-25",
        "col3": "1892-12-25"
    },
    {
        "col0": "M. Sharp",
        "col1": "1924-5-22",
        "col2": "1856-1-30",
        "col3": "1856-1-30"
    },
    {
        "col0": "M. Burrell",
        "col1": "1787-4-6",
        "col2": "1699-11-5",
        "col3": "1699-11-5"
    },
    {
        "col0": "M. Blakiston",
        "col1": "1774-1-1",
        "col2": "1702-1-1",
        "col3": "1702-1-1"
    },
    {
        "col0": "Martin Redmayne, Baron Redmayne of Rushcliffe",
        "col1": "1983-4-28",
        "col2": "1910-11-16",
        "col3": "1910-11-16"
    },
    {
        "col0": "L. Bennet",
        "col1": "1693-12-5",
        "col2": "1631-1-1",
        "col3": "1631-1-1"
    },
    {
        "col0": "L. Forestier-Walker",
        "col1": "1934-1-1",
        "col2": "1866-1-1",
        "col3": "1866-1-1"
    },
    {
        "col0": "L. V. Palk",
        "col1": "1860-05-16",
        "col2": "1793-04-24",
        "col3": "1793-04-24"
    },
    {
        "col0": "J. Hewitt",
        "col1": "1923-2-8",
        "col2": "1865-10-14",
        "col3": "1865-10-14"
    },
    {
        "col0": "J. Neeld",
        "col1": "1891-1-1",
        "col2": "1805-1-1",
        "col3": "1805-1-1"
    },
    {
        "col0": "J. Kinloch",
        "col1": "1910-1-1",
        "col2": "1849-1-1",
        "col3": "1849-1-1"
    },
    {
        "col0": "J. B. Edwards",
        "col1": "1922-8-22",
        "col2": "1889-1-12",
        "col3": "1889-1-12"
    },
    {
        "col0": "J. Aubrey-Fletcher",
        "col1": "1992-6-19",
        "col2": "1912-8-22",
        "col3": "1912-8-22"
    },
    {
        "col0": "J. Armytage",
        "col1": "1758-9-10",
        "col2": "1732-7-13",
        "col3": "1732-7-13"
    },
    {
        "col0": "J. Lucas",
        "col1": "1980-5-2",
        "col2": "1889-8-27",
        "col3": "1889-8-27"
    },
    {
        "col0": "J. Rushout",
        "col1": "1698-2-16",
        "col2": "1644-3-22",
        "col3": "1644-3-22"
    },
    {
        "col0": "J. E. Home",
        "col1": "1853-11-1",
        "col2": "1798-10-25",
        "col3": "1798-10-25"
    },
    {
        "col0": "J. Bellingham",
        "col1": "1650-10-26",
        "col2": "1623-9-8",
        "col3": "1623-9-8"
    },
    {
        "col0": "H. Evelyn",
        "col1": "1848-8-28",
        "col2": "1769-1-31",
        "col3": "1769-1-31"
    },
    {
        "col0": "H. Mackworth",
        "col1": "1765-8-20",
        "col2": "1687-9-7",
        "col3": "1687-9-7"
    },
    {
        "col0": "H. Cory",
        "col1": "1933-2-2",
        "col2": "1857-2-2",
        "col3": "1857-2-2"
    },
    {
        "col0": "H. Stracey",
        "col1": "1885-1-1",
        "col2": "1802-1-1",
        "col3": "1802-1-1"
    },
    {
        "col0": "H. Peek",
        "col1": "1898-8-26",
        "col2": "1825-2-26",
        "col3": "1825-2-26"
    },
    {
        "col0": "H. Hibbert",
        "col1": "1927-11-15",
        "col2": "1850-4-4",
        "col3": "1850-4-4"
    },
    {
        "col0": "H. Benyon",
        "col1": "1959-1-1",
        "col2": "1884-1-1",
        "col3": "1884-1-1"
    },
    {
        "col0": "H. Meysey-Thompson",
        "col1": "1874-5-17",
        "col2": "1809-8-11",
        "col3": "1809-8-11"
    },
    {
        "col0": "H. Hope",
        "col1": "1959-1-1",
        "col2": "1865-1-1",
        "col3": "1865-1-1"
    },
    {
        "col0": "H. A. Wernher",
        "col1": "1973-6-30",
        "col2": "1893-1-16",
        "col3": "1893-1-16"
    },
    {
        "col0": "H. Lever",
        "col1": "1947-7-1",
        "col2": "1869-4-18",
        "col3": "1869-4-18"
    },
    {
        "col0": "H. Kerr",
        "col1": "1974-12-26",
        "col2": "1903-8-1",
        "col3": "1903-8-1"
    },
    {
        "col0": "G. Foster",
        "col1": "1931-1-1",
        "col2": "1866-6-10",
        "col3": "1866-6-10"
    },
    {
        "col0": "G. Stucley",
        "col1": "1900-3-13",
        "col2": "1812-8-17",
        "col3": "1812-8-17"
    },
    {
        "col0": "G. Sleight",
        "col1": "1921-3-19",
        "col2": "1853-3-26",
        "col3": "1853-3-26"
    },
    {
        "col0": "G. Holcroft",
        "col1": "1951-4-19",
        "col2": "1856-0-0",
        "col3": "1856-0-0"
    },
    {
        "col0": "G. C. Williams",
        "col1": "1958-1-1",
        "col2": "1878-1-1",
        "col3": "1878-1-1"
    },
    {
        "col0": "G. B. Smith",
        "col1": "1976-9-18",
        "col2": "1912-12-12",
        "col3": "1912-12-12"
    },
    {
        "col0": "G. Bisshopp",
        "col1": "1834-3-22",
        "col2": "1791-7-5",
        "col3": "1791-7-5"
    },
    {
        "col0": "G. Cornewall",
        "col1": "1951-1-21",
        "col2": "1869-5-7",
        "col3": "1869-5-7"
    },
    {
        "col0": "F. Milner",
        "col1": "1931-6-8",
        "col2": "1849-11-7",
        "col3": "1849-11-7"
    },
    {
        "col0": "F. Sanderson",
        "col1": "1965-7-18",
        "col2": "1880-1-1",
        "col3": "1880-1-1"
    },
    {
        "col0": "F. Freeling",
        "col1": "1836-7-10",
        "col2": "1764-8-25",
        "col3": "1764-8-25"
    },
    {
        "col0": "F. Champneys",
        "col1": "1930-2-4",
        "col2": "1848-3-25",
        "col3": "1848-3-25"
    },
    {
        "col0": "F. Dalberg-Acton",
        "col1": "1837-1-31",
        "col2": "1801-7-24",
        "col3": "1801-7-24"
    },
    {
        "col0": "E. M. Harvey",
        "col1": "1955-0-0",
        "col2": "1867-0-0",
        "col3": "1867-0-0"
    },
    {
        "col0": "E. Craig",
        "col1": "1933-4-9",
        "col2": "1859-0-0",
        "col3": "1859-0-0"
    },
    {
        "col0": "E. Ohlson",
        "col1": "1934-3-20",
        "col2": "1873-7-19",
        "col3": "1873-7-19"
    },
    {
        "col0": "E. d. Bouverie",
        "col1": "1736-11-21",
        "col2": "1690-0-0",
        "col3": "1690-0-0"
    },
    {
        "col0": "E. Manningham-Buller",
        "col1": "1882-9-22",
        "col2": "1800-7-19",
        "col3": "1800-7-19"
    }
]