[
    {
        "col0": "Warsaw Cut Glass Company",
        "col1": "2023",
        "col2": "2023",
        "col3": "1984-03-01"
    },
    {
        "col0": "Warsaw Academy",
        "col1": "2023",
        "col2": "2023",
        "col3": "1980-01-03"
    },
    {
        "col0": "Warrington Site",
        "col1": "8093",
        "col2": "8093",
        "col3": "1977-10-20"
    },
    {
        "col0": "Warrington Meetinghouse",
        "col1": "8093",
        "col2": "8093",
        "col3": "1975-02-20"
    },
    {
        "col0": "Warrenville Elementary School",
        "col1": "16187",
        "col2": "16187",
        "col3": "2002-05-22"
    },
    {
        "col0": "Warrenton Woolen Mill",
        "col1": "27113",
        "col2": "27113",
        "col3": "1987-02-12"
    },
    {
        "col0": "Warrensburg Mills Historic District",
        "col1": "161874",
        "col2": "161874",
        "col3": "1975-09-18"
    },
    {
        "col0": "Warren Z. Cole House",
        "col1": "8093",
        "col2": "8093",
        "col3": "1973-03-07"
    }
]