[
    {
        "col0": "Waverly Hills Historic District",
        "col1": "360574",
        "col2": "360574",
        "col3": "2004-02-26"
    },
    {
        "col0": "Waverly Hill",
        "col1": "104004",
        "col2": "104004",
        "col3": "1982-07-08"
    },
    {
        "col0": "Waverly East Bremer Avenue Commercial Historic District",
        "col1": "48562",
        "col2": "48562",
        "col3": "2014-04-24"
    },
    {
        "col0": "Waverly Downtown Historic District",
        "col1": "84983",
        "col2": "84983",
        "col3": "2013-05-28"
    },
    {
        "col0": "Waverly",
        "col1": "16187",
        "col2": "16187",
        "col3": "1979-03-26"
    },
    {
        "col0": "Waverly",
        "col1": "16187",
        "col2": "16187",
        "col3": "1974-10-18"
    },
    {
        "col0": "Waverly",
        "col1": "15378",
        "col2": "15378",
        "col3": "1983-02-10"
    },
    {
        "col0": "Waverly",
        "col1": "33993",
        "col2": "33993",
        "col3": "1996-11-07"
    },
    {
        "col0": "Waverley",
        "col1": "550372",
        "col2": "550372",
        "col3": "1975-08-11"
    },
    {
        "col0": "Waveland",
        "col1": "3504577",
        "col2": "3504577",
        "col3": "2004-08-20"
    },
    {
        "col0": "Waveland",
        "col1": "12140",
        "col2": "12140",
        "col3": "1976-05-06"
    },
    {
        "col0": "Waushara County Courthouse, Waushara County Sheriff's Residence and Jail",
        "col1": "6070",
        "col2": "6070",
        "col3": "1982-03-09"
    },
    {
        "col0": "Wauregan, Connecticut",
        "col1": "364217",
        "col2": "364217",
        "col3": "1979-08-24"
    },
    {
        "col0": "Waumbek Cottages Historic District",
        "col1": "44515",
        "col2": "44515",
        "col3": "2006-03-15"
    },
    {
        "col0": "Wauhatchie Pike",
        "col1": "4046",
        "col2": "4046",
        "col3": "2001-07-11"
    },
    {
        "col0": "Waughtown-Belview Historic District",
        "col1": "1861553",
        "col2": "1861553",
        "col3": "2005-01-20"
    },
    {
        "col0": "Waucoma Hotel",
        "col1": "4046",
        "col2": "4046",
        "col3": "1981-12-10"
    },
    {
        "col0": "Waucantuck Mill Complex",
        "col1": "24281",
        "col2": "24281",
        "col3": "1984-01-20"
    },
    {
        "col0": "Watts and Yuille Warehouses",
        "col1": "9712",
        "col2": "9712",
        "col3": "1984-04-05"
    },
    {
        "col0": "Watts Hospital",
        "col1": "109265",
        "col2": "109265",
        "col3": "1980-04-02"
    },
    {
        "col0": "Watts-Hillandale Historic District",
        "col1": "720340",
        "col2": "720340",
        "col3": "2001-04-25"
    },
    {
        "col0": "Watt-Groce-Fickhardt House",
        "col1": "1214",
        "col2": "1214",
        "col3": "1985-08-23"
    },
    {
        "col0": "Watson Settlement Bridge",
        "col1": "1214",
        "col2": "1214",
        "col3": "1970-02-16"
    },
    {
        "col0": "Watson Park Historic District",
        "col1": "445154",
        "col2": "445154",
        "col3": "2012-06-19"
    },
    {
        "col0": "Watson Comly School",
        "col1": "32374",
        "col2": "32374",
        "col3": "1988-11-18"
    },
    {
        "col0": "Watson Academy",
        "col1": "2832",
        "col2": "2832",
        "col3": "1982-11-09"
    },
    {
        "col0": "Watson-Sanders House",
        "col1": "48562",
        "col2": "48562",
        "col3": "2001-01-26"
    },
    {
        "col0": "Watrous",
        "col1": "14487745",
        "col2": "14487745",
        "col3": "1966-10-15"
    },
    {
        "col0": "Watkinson Juvenile Asylum and Farm School",
        "col1": "145686",
        "col2": "145686",
        "col3": "1995-03-23"
    },
    {
        "col0": "Watkins School",
        "col1": "6474",
        "col2": "6474",
        "col3": "2014-04-07"
    },
    {
        "col0": "Watkins House and Cabins",
        "col1": "53823",
        "col2": "53823",
        "col3": "1992-07-02"
    },
    {
        "col0": "Watkins House",
        "col1": "61107",
        "col2": "61107",
        "col3": "2004-05-27"
    },
    {
        "col0": "Watkins Glen High School",
        "col1": "11209",
        "col2": "11209",
        "col3": "2015-02-12"
    },
    {
        "col0": "Watkins Glen Grand Prix Course, 1948-1952",
        "col1": "182108",
        "col2": "182108",
        "col3": "2002-12-04"
    },
    {
        "col0": "Watkins Glen Commercial Historic District",
        "col1": "18170",
        "col2": "18170",
        "col3": "2012-01-04"
    },
    {
        "col0": "Watkins-Coleman House",
        "col1": "6474",
        "col2": "6474",
        "col3": "1971-05-14"
    },
    {
        "col0": "Waterways Experiment Station",
        "col1": "2723534",
        "col2": "2723534",
        "col3": "2000-12-13"
    },
    {
        "col0": "Watervliet Side Cut Locks",
        "col1": "0",
        "col2": "0",
        "col3": "1971-08-12"
    },
    {
        "col0": "Watervliet Arsenal",
        "col1": "574653",
        "col2": "574653",
        "col3": "1966-11-13"
    },
    {
        "col0": "Waterville Village Historic District",
        "col1": "190202",
        "col2": "190202",
        "col3": "2007-09-28"
    },
    {
        "col0": "Waterville Triangle Historic District",
        "col1": "109265",
        "col2": "109265",
        "col3": "1978-04-04"
    },
    {
        "col0": "Watervale, Michigan",
        "col1": "103194",
        "col2": "103194",
        "col3": "2003-07-10"
    },
    {
        "col0": "Watertown, Ohio",
        "col1": "242811",
        "col2": "242811",
        "col3": "1986-04-10"
    },
    {
        "col0": "Waters' River",
        "col1": "574653",
        "col2": "574653",
        "col3": "1984-08-09"
    },
    {
        "col0": "Waterman Tavern",
        "col1": "12140",
        "col2": "12140",
        "col3": "1974-07-24"
    },
    {
        "col0": "Waterman Covered Bridge",
        "col1": "4046",
        "col2": "4046",
        "col3": "1974-06-13"
    },
    {
        "col0": "Waterman-Archer House",
        "col1": "4451",
        "col2": "4451",
        "col3": "1999-06-25"
    },
    {
        "col0": "Waterloo Mills Historic District",
        "col1": "643450",
        "col2": "643450",
        "col3": "1995-07-21"
    },
    {
        "col0": "Waterloo Historic District",
        "col1": "202342",
        "col2": "202342",
        "col3": "2003-09-13"
    },
    {
        "col0": "Waterloo Historic District",
        "col1": "311607",
        "col2": "311607",
        "col3": "1978-12-01"
    },
    {
        "col0": "Waterloo Covered Bridge",
        "col1": "404",
        "col2": "404",
        "col3": "1976-11-21"
    },
    {
        "col0": "Waterloo",
        "col1": "36421",
        "col2": "36421",
        "col3": "1986-02-13"
    },
    {
        "col0": "Waterloo",
        "col1": "36421",
        "col2": "36421",
        "col3": "1975-01-08"
    },
    {
        "col0": "Waterford Village Historic District",
        "col1": "125452",
        "col2": "125452",
        "col3": "1977-07-14"
    },
    {
        "col0": "Waterford Historic District",
        "col1": "141639",
        "col2": "141639",
        "col3": "1980-04-24"
    },
    {
        "col0": "Waterford Borough Historic District",
        "col1": "84983",
        "col2": "84983",
        "col3": "1990-03-09"
    },
    {
        "col0": "Waterbury Union Station",
        "col1": "9712",
        "col2": "9712",
        "col3": "1978-03-08"
    },
    {
        "col0": "Waterbury Municipal Center Complex",
        "col1": "17806",
        "col2": "17806",
        "col3": "1978-10-10"
    },
    {
        "col0": "Waterbury Center Methodist Church",
        "col1": "2023",
        "col2": "2023",
        "col3": "1978-01-09"
    },
    {
        "col0": "Water Witch Club Historic District",
        "col1": "202342",
        "col2": "202342",
        "col3": "2004-03-12"
    },
    {
        "col0": "Water Street Historic District",
        "col1": "80937",
        "col2": "80937",
        "col3": "2003-01-15"
    },
    {
        "col0": "Water Avenue Historic District",
        "col1": "40468",
        "col2": "40468",
        "col3": "1972-12-26"
    },
    {
        "col0": "Water, Wall, and Pine Streets Lenticular Truss Bridges",
        "col1": "25090",
        "col2": "25090",
        "col3": "1977-10-05"
    },
    {
        "col0": "Wasilla Community Hall",
        "col1": "5665",
        "col2": "5665",
        "col3": "1982-09-08"
    },
    {
        "col0": "Washita County Courthouse",
        "col1": "4046",
        "col2": "4046",
        "col3": "1984-08-24"
    },
    {
        "col0": "Washita Battlefield National Historic Site",
        "col1": "1274759",
        "col2": "1274759",
        "col3": "1966-10-15"
    },
    {
        "col0": "Washingtonian Hall",
        "col1": "4046",
        "col2": "4046",
        "col3": "1996-02-23"
    },
    {
        "col0": "Washington Vocational School",
        "col1": "4046",
        "col2": "4046",
        "col3": "1986-09-30"
    },
    {
        "col0": "Washington Terrace",
        "col1": "269925",
        "col2": "269925",
        "col3": "2007-06-12"
    },
    {
        "col0": "Washington Street United Methodist Church",
        "col1": "12140",
        "col2": "12140",
        "col3": "1970-12-18"
    },
    {
        "col0": "Washington Street Methodist Church",
        "col1": "2023",
        "col2": "2023",
        "col3": "1980-11-24"
    },
    {
        "col0": "Washington Street Historic District",
        "col1": "2549519",
        "col2": "2549519",
        "col3": "1983-06-16"
    },
    {
        "col0": "Washington Street Historic District",
        "col1": "125452",
        "col2": "125452",
        "col3": "1985-05-09"
    },
    {
        "col0": "Washington Street Historic District",
        "col1": "117358",
        "col2": "117358",
        "col3": "2010-12-28"
    },
    {
        "col0": "Washington Street Historic District",
        "col1": "141639",
        "col2": "141639",
        "col3": "1973-02-06"
    },
    {
        "col0": "Washington Street Cemetery",
        "col1": "20234",
        "col2": "20234",
        "col3": "2002-06-04"
    },
    {
        "col0": "Washington Street-Monument Circle Historic District",
        "col1": "125857",
        "col2": "125857",
        "col3": "1997-09-26"
    },
    {
        "col0": "Washington Square Historic District",
        "col1": "68553",
        "col2": "68553",
        "col3": "2009-12-25"
    },
    {
        "col0": "Washington Square",
        "col1": "25899",
        "col2": "25899",
        "col3": "1981-09-14"
    },
    {
        "col0": "Washington Spring Road-Woods Road Historic District",
        "col1": "165516",
        "col2": "165516",
        "col3": "1990-07-12"
    },
    {
        "col0": "Washington School",
        "col1": "4046",
        "col2": "4046",
        "col3": "1901-02-12"
    },
    {
        "col0": "Washington School",
        "col1": "5665",
        "col2": "5665",
        "col3": "1981-03-02"
    },
    {
        "col0": "Washington School",
        "col1": "4046",
        "col2": "4046",
        "col3": "1992-02-24"
    },
    {
        "col0": "Washington Road Elm Allee",
        "col1": "24281",
        "col2": "24281",
        "col3": "1999-01-14"
    },
    {
        "col0": "Washington Prairie Methodist Church",
        "col1": "5260",
        "col2": "5260",
        "col3": "1980-01-29"
    },
    {
        "col0": "Washington Place",
        "col1": "12545",
        "col2": "12545",
        "col3": "1973-06-18"
    },
    {
        "col0": "Washington Park Historic District",
        "col1": "586794",
        "col2": "586794",
        "col3": "1992-01-13"
    },
    {
        "col0": "Washington Park Historic District",
        "col1": "51799",
        "col2": "51799",
        "col3": "1973-04-11"
    },
    {
        "col0": "Washington Park Historic District",
        "col1": "28327",
        "col2": "28327",
        "col3": "2008-03-12"
    },
    {
        "col0": "Washington Park Historic District",
        "col1": "242811",
        "col2": "242811",
        "col3": "2008-06-24"
    },
    {
        "col0": "Washington Park Historic District",
        "col1": "550372",
        "col2": "550372",
        "col3": "1972-06-19"
    },
    {
        "col0": "Washington Park",
        "col1": "608242",
        "col2": "608242",
        "col3": "1992-05-22"
    },
    {
        "col0": "Washington Park",
        "col1": "453247",
        "col2": "453247",
        "col3": "1991-06-26"
    },
    {
        "col0": "Washington Park",
        "col1": "1537805",
        "col2": "1537805",
        "col3": "2004-08-20"
    },
    {
        "col0": "Washington Mooney House",
        "col1": "21853",
        "col2": "21853",
        "col3": "1997-09-04"
    },
    {
        "col0": "Washington Mills-Mayodan Plant",
        "col1": "43706",
        "col2": "43706",
        "col3": "2005-04-20"
    },
    {
        "col0": "Washington Methodist Church",
        "col1": "3237",
        "col2": "3237",
        "col3": "1986-09-04"
    },
    {
        "col0": "Washington Iron Furnace",
        "col1": "40063",
        "col2": "40063",
        "col3": "1973-03-20"
    },
    {
        "col0": "Washington Hose and Steam Fire Engine Company, No. 1",
        "col1": "2832",
        "col2": "2832",
        "col3": "1975-11-20"
    },
    {
        "col0": "Washington Historic District",
        "col1": "566559",
        "col2": "566559",
        "col3": "1975-05-28"
    },
    {
        "col0": "Washington Historic District",
        "col1": "866027",
        "col2": "866027",
        "col3": "1979-02-09"
    },
    {
        "col0": "Washington Green Historic District",
        "col1": "343982",
        "col2": "343982",
        "col3": "1995-11-27"
    },
    {
        "col0": "Washington Graded and High School",
        "col1": "66773",
        "col2": "66773",
        "col3": "2005-02-02"
    },
    {
        "col0": "Washington Downtown Historic District",
        "col1": "129499",
        "col2": "129499",
        "col3": "2013-05-22"
    },
    {
        "col0": "Washington Crossing Historic Park",
        "col1": "2023428",
        "col2": "2023428",
        "col3": "1966-10-15"
    },
    {
        "col0": "Washington County Courthouse",
        "col1": "8093",
        "col2": "8093",
        "col3": "1992-11-05"
    },
    {
        "col0": "Washington County Courthouse",
        "col1": "8093",
        "col2": "8093",
        "col3": "1976-11-07"
    },
    {
        "col0": "Washington County Courthouse",
        "col1": "16187",
        "col2": "16187",
        "col3": "2014-09-10"
    },
    {
        "col0": "Washington County Courthouse",
        "col1": "8093",
        "col2": "8093",
        "col3": "1980-09-18"
    },
    {
        "col0": "Washington County Courthouse",
        "col1": "6070",
        "col2": "6070",
        "col3": "1972-02-23"
    },
    {
        "col0": "Washington Commercial Historic District",
        "col1": "89030",
        "col2": "89030",
        "col3": "1990-11-28"
    },
    {
        "col0": "Washington Coliseum",
        "col1": "15782",
        "col2": "15782",
        "col3": "2007-05-17"
    },
    {
        "col0": "Washington Cemetery",
        "col1": "95101",
        "col2": "95101",
        "col3": "2006-09-06"
    },
    {
        "col0": "Washington Avenue Historic District",
        "col1": "64749",
        "col2": "64749",
        "col3": "1984-09-07"
    },
    {
        "col0": "Washington Avenue Historic District",
        "col1": "72843",
        "col2": "72843",
        "col3": "2002-05-16"
    },
    {
        "col0": "Washington Armory",
        "col1": "3642",
        "col2": "3642",
        "col3": "1991-05-09"
    },
    {
        "col0": "Washington-Willow Historic District",
        "col1": "149733",
        "col2": "149733",
        "col3": "1980-05-23"
    },
    {
        "col0": "Washington's headquarters, Newburgh, New York",
        "col1": "28327",
        "col2": "28327",
        "col3": "1966-10-15"
    },
    {
        "col0": "Washington's Crossing",
        "col1": "3528858",
        "col2": "3528858",
        "col3": "1966-10-15"
    },
    {
        "col0": "Washburn Square-Leicester Common Historic District",
        "col1": "84983",
        "col2": "84983",
        "col3": "2006-02-22"
    },
    {
        "col0": "Washburn Historic District",
        "col1": "263855",
        "col2": "263855",
        "col3": "2002-02-20"
    },
    {
        "col0": "Wasena Historic District",
        "col1": "704153",
        "col2": "704153",
        "col3": "2012-01-03"
    },
    {
        "col0": "Warwick Mills",
        "col1": "29542",
        "col2": "29542",
        "col3": "1974-12-30"
    },
    {
        "col0": "Warwick County Courthouses",
        "col1": "4046",
        "col2": "4046",
        "col3": "1988-11-03"
    },
    {
        "col0": "Warsaw Historic District",
        "col1": "121405",
        "col2": "121405",
        "col3": "1996-12-13"
    },
    {
        "col0": "Warsaw Historic District",
        "col1": "1072416",
        "col2": "1072416",
        "col3": "1977-12-16"
    }
]