[
    {
        "col0": "P. Mazur",
        "col1": "CCC Polsat Polkowice",
        "col2": "1982-12-02",
        "col3": "1982-12-02"
    },
    {
        "col0": "P. Naud",
        "col1": "Rally Cycling",
        "col2": "1991-01-26",
        "col3": "1991-01-26"
    },
    {
        "col0": "P. Latour",
        "col1": "Ag2r-La Mondiale",
        "col2": "1993-10-12",
        "col3": "1993-10-12"
    },
    {
        "col0": "P. Lecuisinier",
        "col1": "FDJ.fr",
        "col2": "1993-06-30",
        "col3": "1993-06-30"
    },
    {
        "col0": "P. Lindau",
        "col1": "Team Joker",
        "col2": "1991-08-18",
        "col3": "1991-08-18"
    },
    {
        "col0": "P. Schulting",
        "col1": "Parkhotel Valkenburg Continental Team",
        "col2": "1987-08-19",
        "col3": "1987-08-19"
    },
    {
        "col0": "P. Lenderink",
        "col1": "Rabobank Development Team",
        "col2": "1996-02-11",
        "col3": "1996-02-11"
    },
    {
        "col0": "P. Pruus",
        "col1": "Rietumu-Delfin",
        "col2": "1989-07-16",
        "col3": "1989-07-16"
    },
    {
        "col0": "P. A. Nicacio",
        "col1": "Scott-Marcondes Cesar-Sao Jose dos Campos",
        "col2": "1981-10-13",
        "col3": "1981-10-13"
    },
    {
        "col0": "P. Cieslik",
        "col1": "Verva ActiveJet",
        "col2": "1986-04-12",
        "col3": "1986-04-12"
    },
    {
        "col0": "P. Charucki",
        "col1": "CCC Polsat Polkowice",
        "col2": "1988-10-14",
        "col3": "1988-10-14"
    },
    {
        "col0": "P. Bernas",
        "col1": "ActiveJet Team",
        "col2": "1990-05-24",
        "col3": "1990-05-24"
    },
    {
        "col0": "P. Cieslik",
        "col1": "Verva ActiveJet",
        "col2": "1986-04-12",
        "col3": "1986-04-12"
    },
    {
        "col0": "P. Charucki",
        "col1": "CCC Polsat Polkowice",
        "col2": "1988-10-14",
        "col3": "1988-10-14"
    },
    {
        "col0": "P. Bernas",
        "col1": "ActiveJet Team",
        "col2": "1990-05-24",
        "col3": "1990-05-24"
    },
    {
        "col0": "P. Siskevicius",
        "col1": "Staki-Baltik Vairas",
        "col2": "1993-09-07",
        "col3": "1993-09-07"
    },
    {
        "col0": "P. Manning",
        "col1": "Landbouwkrediet-Tonissteiner",
        "col2": "1974-11-06",
        "col3": "1974-11-06"
    },
    {
        "col0": "P. Tybor",
        "col1": "Dukla Banska Bystrica",
        "col2": "1987-09-16",
        "col3": "1987-09-16"
    },
    {
        "col0": "P. Shaw",
        "col1": "Avanti IsoWhey Sports",
        "col2": "1986-02-19",
        "col3": "1986-02-19"
    },
    {
        "col0": "P. Lane",
        "col1": "Avanti IsoWhey Sports",
        "col2": "1991-08-28",
        "col3": "1991-08-28"
    },
    {
        "col0": "P. Clausen",
        "col1": "Riwal Platform Cycling Team",
        "col2": "1990-07-02",
        "col3": "1990-07-02"
    },
    {
        "col0": "P. Ackermann",
        "col1": "Rad-Net Rose Team",
        "col2": "1994-01-17",
        "col3": "1994-01-17"
    },
    {
        "col0": "P. Sang-hoon",
        "col1": "Seoul Cycling Team",
        "col2": "1993-03-13",
        "col3": "1993-03-13"
    },
    {
        "col0": "P. Sang-hong",
        "col1": "RTS-Santic Racing Team",
        "col2": "1989-03-29",
        "col3": "1989-03-29"
    },
    {
        "col0": "P. Lanfranchi",
        "col1": "Retired",
        "col2": "1968-07-25",
        "col3": "1968-07-25"
    },
    {
        "col0": "P. Urtasun",
        "col1": "Funvic Soul Cycles-Carrefour",
        "col2": "1980-03-29",
        "col3": "1980-03-29"
    },
    {
        "col0": "O. Bulgarelli",
        "col1": "Funvic Soul Cycles-Carrefour",
        "col2": "1984-10-15",
        "col3": "1984-10-15"
    },
    {
        "col0": "O. Vergaerde",
        "col1": "Topsport Vlaanderen-Baloise",
        "col2": "1994-07-15",
        "col3": "1994-07-15"
    },
    {
        "col0": "O. Bulgarelli",
        "col1": "Funvic Soul Cycles-Carrefour",
        "col2": "1984-10-15",
        "col3": "1984-10-15"
    },
    {
        "col0": "O. Riesebeek",
        "col1": "Metec-TKH Continental Cyclingteam",
        "col2": "1992-12-23",
        "col3": "1992-12-23"
    },
    {
        "col0": "O. Pelliccioli",
        "col1": "Colombia",
        "col2": "1965-07-01",
        "col3": "1965-07-01"
    },
    {
        "col0": "O. Landa",
        "col1": "Team Coop-Oster Hus",
        "col2": "1993-08-15",
        "col3": "1993-08-15"
    },
    {
        "col0": "O. Clark",
        "col1": "Hincapie Racing",
        "col2": "1989-02-20",
        "col3": "1989-02-20"
    },
    {
        "col0": "O. Balkan",
        "col1": "Brisaspor",
        "col2": "1996-03-10",
        "col3": "1996-03-10"
    },
    {
        "col0": "O. Pardini",
        "col1": "Wallonie-Bruxelles",
        "col2": "1985-07-30",
        "col3": "1985-07-30"
    },
    {
        "col0": "O. Chevalier",
        "col1": "Wallonie Bruxelles-Group Protect",
        "col2": "1990-02-27",
        "col3": "1990-02-27"
    },
    {
        "col0": "O. Surutkovych",
        "col1": "Synergy Baku Cycling Project",
        "col2": "1984-01-08",
        "col3": "1984-01-08"
    },
    {
        "col0": "O. Polivoda",
        "col1": "Kolss BDC Team",
        "col2": "1987-03-31",
        "col3": "1987-03-31"
    },
    {
        "col0": "O. Golovash",
        "col1": "Kolss BDC Team",
        "col2": "1991-09-21",
        "col3": "1991-09-21"
    },
    {
        "col0": "Nur Amirul Fakhruddin Marzuki",
        "col1": "Terengganu Cycling Team",
        "col2": "1992-01-24",
        "col3": "1992-01-24"
    },
    {
        "col0": "N. Dejonckheere",
        "col1": "BMC Racing Team",
        "col2": "1955-04-22",
        "col3": "1955-04-22"
    },
    {
        "col0": "N. Banaszek",
        "col1": "Verva ActiveJet",
        "col2": "1997-06-18",
        "col3": "1997-06-18"
    },
    {
        "col0": "N. Cantele",
        "col1": "Be Pink",
        "col2": "1981-07-17",
        "col3": "1981-07-17"
    },
    {
        "col0": "N. Tawara",
        "col1": "Track cycling",
        "col2": "1964-09-22",
        "col3": "1964-09-22"
    },
    {
        "col0": "N. Dejonckheere",
        "col1": "BMC Racing Team",
        "col2": "1955-04-22",
        "col3": "1955-04-22"
    },
    {
        "col0": "N. Schomber",
        "col1": "Rad-Net Rose Team",
        "col2": "1994-03-15",
        "col3": "1994-03-15"
    },
    {
        "col0": "N. Larsen",
        "col1": "Team Virtu Pro-Veloconcept",
        "col2": "1997-03-22",
        "col3": "1997-03-22"
    },
    {
        "col0": "N. Eskov",
        "col1": "RusVelo",
        "col2": "1983-01-23",
        "col3": "1983-01-23"
    },
    {
        "col0": "N. Brouzes",
        "col1": "Auber 93",
        "col2": "1981-02-03",
        "col3": "1981-02-03"
    },
    {
        "col0": "N. Roche",
        "col1": "Team Sky",
        "col2": "1984-07-03",
        "col3": "1984-07-03"
    },
    {
        "col0": "N. Lefrancois",
        "col1": "Team Novo Nordisk",
        "col2": "1987-04-27",
        "col3": "1987-04-27"
    },
    {
        "col0": "N. Dougall",
        "col1": "MTN-Qhubeka",
        "col2": "1992-11-21",
        "col3": "1992-11-21"
    },
    {
        "col0": "N. Baldo",
        "col1": "Team Vorarlberg",
        "col2": "1984-06-10",
        "col3": "1984-06-10"
    },
    {
        "col0": "N. Brochner",
        "col1": "Riwal Platform Cycling Team",
        "col2": "1993-07-04",
        "col3": "1993-07-04"
    },
    {
        "col0": "N. Gaffurini",
        "col1": "MG.Kvis-Vega",
        "col2": "1989-12-15",
        "col3": "1989-12-15"
    },
    {
        "col0": "N. Denz",
        "col1": "Ag2r-La Mondiale",
        "col2": "1994-02-15",
        "col3": "1994-02-15"
    }
]