[
    {
        "col0": "USS Nicholas",
        "col1": "2",
        "col2": "1919-01-11",
        "col3": "1920-11-23"
    },
    {
        "col0": "USS Niblack",
        "col1": "3",
        "col2": "1938-08-08",
        "col3": "1940-08-01"
    },
    {
        "col0": "USS Niagara Falls",
        "col1": "8",
        "col2": "1965-05-22",
        "col3": "1967-04-29"
    },
    {
        "col0": "USS Niagara",
        "col1": "5",
        "col2": "1928-11-14",
        "col3": "1941-01-20"
    },
    {
        "col0": "USS Newport News",
        "col1": "8",
        "col2": "1945-11-01",
        "col3": "1949-01-29"
    },
    {
        "col0": "USS Newport",
        "col1": "3",
        "col2": "1943-06-08",
        "col3": "1944-09-08"
    },
    {
        "col0": "USS Newport",
        "col1": "5",
        "col2": "1966-11-01",
        "col3": "1969-06-07"
    },
    {
        "col0": "USS Newman",
        "col1": "2",
        "col2": "1943-06-08",
        "col3": "1943-11-26"
    },
    {
        "col0": "USS Newberry",
        "col1": "7",
        "col2": "1944-06-10",
        "col3": "1944-10-07"
    },
    {
        "col0": "USS Newark",
        "col1": "5",
        "col2": "1888-06-12",
        "col3": "1891-02-02"
    },
    {
        "col0": "USS New York",
        "col1": "7",
        "col2": "2004-09-10",
        "col3": "2009-11-07"
    },
    {
        "col0": "USS New York",
        "col1": "7",
        "col2": "1890-09-30",
        "col3": "1893-08-01"
    },
    {
        "col0": "USS New Orleans",
        "col1": "7",
        "col2": "2002-10-14",
        "col3": "2007-03-10"
    },
    {
        "col0": "USS New London County",
        "col1": "2",
        "col2": "1945-01-18",
        "col3": "1945-03-20"
    },
    {
        "col0": "USS New Jersey",
        "col1": "7",
        "col2": "1902-05-03",
        "col3": "1906-05-12"
    },
    {
        "col0": "USS New Hanover",
        "col1": "7",
        "col2": "1944-08-31",
        "col3": "1944-12-22"
    },
    {
        "col0": "USS New Hampshire",
        "col1": "7",
        "col2": "1905-05-01",
        "col3": "1908-03-19"
    },
    {
        "col0": "USS New Bedford",
        "col1": "3",
        "col2": "1943-10-02",
        "col3": "1944-11-18"
    },
    {
        "col0": "USS New",
        "col1": "4",
        "col2": "1945-04-14",
        "col3": "1946-04-05"
    },
    {
        "col0": "USS Neuendorf",
        "col1": "2",
        "col2": "1943-02-15",
        "col3": "1943-10-18"
    },
    {
        "col0": "USS Nestor",
        "col1": "3",
        "col2": "1943-09-13",
        "col3": "1944-06-24"
    },
    {
        "col0": "USS Nespelen",
        "col1": "4",
        "col2": "1944-08-28",
        "col3": "1945-08-09"
    },
    {
        "col0": "USS Neshanic",
        "col1": "8",
        "col2": "1942-06-11",
        "col3": "1943-02-20"
    },
    {
        "col0": "USS Nereus",
        "col1": "7",
        "col2": "1943-10-12",
        "col3": "1945-10-27"
    },
    {
        "col0": "USS Nereus",
        "col1": "8",
        "col2": "1911-12-04",
        "col3": "1913-09-10"
    },
    {
        "col0": "USS Neponset",
        "col1": "8",
        "col2": "1917-11-07",
        "col3": "1918-10-28"
    },
    {
        "col0": "USS Neosho",
        "col1": "8",
        "col2": "1941-07-08",
        "col3": "1942-09-16"
    },
    {
        "col0": "USS Neosho",
        "col1": "10",
        "col2": "1952-09-02",
        "col3": "1954-09-24"
    },
    {
        "col0": "USS Nemasket",
        "col1": "4",
        "col2": "1942-10-06",
        "col3": "1944-06-16"
    },
    {
        "col0": "USS Nelson",
        "col1": "3",
        "col2": "1942-05-07",
        "col3": "1942-11-26"
    },
    {
        "col0": "USS Neches",
        "col1": "7",
        "col2": "1919-06-08",
        "col3": "1920-10-25"
    },
    {
        "col0": "USS Neches",
        "col1": "8",
        "col2": "1941-06-12",
        "col3": "1942-09-16"
    }
]