[
    {
        "col0": "Jemput-jemput",
        "col1": "Malays",
        "col2": "Flour, (Alternative ingredients for flavours:banana,anchovies,prawns,onionormaize)",
        "col3": "Hot"
    },
    {
        "col0": "Ikan goreng",
        "col1": "I. cuisine",
        "col2": "Fish, seasoned withgarlic,shallotsand other spices anddeep friedincoconut oil",
        "col3": "Hot"
    },
    {
        "col0": "Ikan bakar",
        "col1": "I. cuisine",
        "col2": "Fish, seasoned withgarlic,shallotsand other spicesgrilledoncharcoal",
        "col3": "Hot"
    },
    {
        "col0": "Iga penyet",
        "col1": "J. cuisine",
        "col2": "\"Squeezed\"beef ribsserved withsambal",
        "col3": "Hot"
    },
    {
        "col0": "Hot Brown",
        "col1": "B. Hotel",
        "col2": "Turkey,bacon,Mornay sauce",
        "col3": "Hot"
    },
    {
        "col0": "Gudeg",
        "col1": "J. cuisine",
        "col2": "Youngjackfruit,coconut milk,palm sugar, chili, various spices,chicken,egg,Tempeh (optional)",
        "col3": "Hot or room temperature"
    },
    {
        "col0": "Empal gepuk",
        "col1": "S. people",
        "col2": "Sweet spiced fried beef",
        "col3": "Hot or room temperature"
    },
    {
        "col0": "Doner kebab",
        "col1": "O. Turks",
        "col2": "Lamb,beeforchicken",
        "col3": "Hot"
    },
    {
        "col0": "Dize mile",
        "col1": "G. Creole",
        "col2": "Flour,lard,salt,baking powder,water,sugar,lemon,vanilla,cinnamon,nutmeg",
        "col3": "Cold"
    },
    {
        "col0": "Daun ubi tumbuk",
        "col1": "I. cuisine",
        "col2": "cassavaleaves, pounded and seasoned with spice mixture ofginger,galangal,candlenut,garlic, andlemongrass, along withcoconut milkand ikan teri",
        "col3": "Hot or room temperature"
    },
    {
        "col0": "Crab in oyster sauce",
        "col1": "C. cuisine",
        "col2": "Crabserved inoyster sauce, garlic, ginger and scallion",
        "col3": "Hot"
    },
    {
        "col0": "Crab in Padang sauce",
        "col1": "P. food",
        "col2": "Crabserved in Padang style hot and spicy sauce, which includes chili pepper, garlic, shallot, ginger, turmeric, candlenut and scallion",
        "col3": "Hot"
    },
    {
        "col0": "Countess",
        "col1": "G. Creole",
        "col2": "Flour,water,lard,eggs,milk powder, (sometimes)sugar,salt,butter",
        "col3": "Hot"
    },
    {
        "col0": "Confederate cush",
        "col1": "C. S. Army",
        "col2": "salt pork, bacon,cornmeal mush, cubed beef",
        "col3": "Warm"
    },
    {
        "col0": "Clementine cake",
        "col1": "S. Jews",
        "col2": "Clementinefruit and typical cake ingredients",
        "col3": "Cold or warmed"
    },
    {
        "col0": "Chairo",
        "col1": "A. people",
        "col2": "Chunos,onions,carrots,potatoes, white corn,beefandwheatkernels",
        "col3": "Hot"
    },
    {
        "col0": "Cap cai",
        "col1": "C. Indonesian",
        "col2": "Stir fried vegetables",
        "col3": "Hot"
    },
    {
        "col0": "Buntil",
        "col1": "J. cuisine",
        "col2": "Papaya, taro, or cassava leaves filled with gratedcoconutandanchovies, boiled incoconut milk",
        "col3": "Hot or room temperature"
    },
    {
        "col0": "Bubur pedas",
        "col1": "E. Malay",
        "col2": "For Bubur:Carrots,potatoes,leafy greens,mushrooms,bean curd,bamboo shoots,turmeric leaves,long beans,dried shrimpandmeatare added along withseasoning",
        "col3": "Hot"
    },
    {
        "col0": "Bubur ayam",
        "col1": "C. I. cuisine",
        "col2": "Ricecongeewithchicken",
        "col3": "Hot"
    },
    {
        "col0": "Botok",
        "col1": "J. cuisine",
        "col2": "Grated coconut with various ingredients (tempeh, tofu, anchovy, fish, meat or mushroom) spiced and steamed inbanana leaf",
        "col3": "Hot or room temperature"
    },
    {
        "col0": "Black pepper crab",
        "col1": "Long Beach Seafood Restaurant",
        "col2": "Crab, black pepper seasoning",
        "col3": "Hot temperature"
    },
    {
        "col0": "Batagor",
        "col1": "S. cuisine",
        "col2": "fried fish dumpling with tofu and vegetables inpeanut sauce",
        "col3": "hot"
    },
    {
        "col0": "Bandeja paisa",
        "col1": "Ethnic groups of Africa",
        "col2": "red beans,pork belly, whiterice,ground meat,chicharon,fried egg,plantain(patacones),chorizo, arepa, hogao sauce,black pudding(morcilla),avocadoandlemon",
        "col3": "warm/hot (caliente)"
    },
    {
        "col0": "Bakso",
        "col1": "I. C. cuisine",
        "col2": "Ground beef,tapioca,noodle, ricevermicelli, beefbroth, kailan,celery, salted vegetables, fried shallots",
        "col3": "Hot"
    },
    {
        "col0": "Bakewell pudding",
        "col1": "Bakewell",
        "col2": "Ground almond, jam, butter, eggs",
        "col3": "Warm (freshly baked) or cold"
    },
    {
        "col0": "Babi kecap",
        "col1": "C. I. cuisine",
        "col2": "Pork and vegetables simmered in kecap manis (sweet soy sauce) spiced withgarlicandshallot",
        "col3": "Hot"
    },
    {
        "col0": "Ayran",
        "col1": "T. people",
        "col2": "Yogurt,water,salt",
        "col3": "Cold"
    },
    {
        "col0": "Ayam penyet",
        "col1": "J. cuisine",
        "col2": "\"Squeezed\" or \"smashed\"fried chickenserved withsambal",
        "col3": "Hot"
    },
    {
        "col0": "Ayam masak merah",
        "col1": "M. cuisine",
        "col2": "Chicken(cut and fried),chillies,garlic,ginger,onions,tomato puree",
        "col3": "Hot"
    },
    {
        "col0": "Ayam masak kicap",
        "col1": "I. cuisine",
        "col2": "Chicken(cut and into pieces),soy sauceand spices",
        "col3": "Hot"
    },
    {
        "col0": "Ayam goreng",
        "col1": "I. cuisine",
        "col2": "Chicken,turmeric,garlic,shallotsand other spicesdeep friedincoconut oil",
        "col3": "Hot"
    },
    {
        "col0": "Ayam bakar",
        "col1": "I. cuisine",
        "col2": "Chickenseasoned withturmeric,garlic,shallotsand other spices, andgrilledoncharcoal",
        "col3": "Hot"
    },
    {
        "col0": "Asam pedas",
        "col1": "M. cuisine",
        "col2": "Fish cooked in sour and hot sauce",
        "col3": "Hot or room temperature"
    }
]