[
    {
        "col0": "Young Women's Christian Association",
        "col1": "1214",
        "col2": "1214",
        "col3": "1984-05-03"
    },
    {
        "col0": "Young Women's Christian Association",
        "col1": "2023",
        "col2": "2023",
        "col3": "1980-03-24"
    },
    {
        "col0": "Young Site",
        "col1": "4046",
        "col2": "4046",
        "col3": "1976-03-26"
    },
    {
        "col0": "Young Place",
        "col1": "18210",
        "col2": "18210",
        "col3": "1974-10-09"
    },
    {
        "col0": "Young Men's Christian Association of Schenectady",
        "col1": "4006",
        "col2": "4006",
        "col3": "2015-12-01"
    },
    {
        "col0": "Young House",
        "col1": "607028",
        "col2": "607028",
        "col3": "1984-07-13"
    },
    {
        "col0": "Young Farm",
        "col1": "33993",
        "col2": "33993",
        "col3": "1983-11-10"
    },
    {
        "col0": "Young Building",
        "col1": "0",
        "col2": "0",
        "col3": "1982-10-21"
    },
    {
        "col0": "Young-Yentes-Mattern Farm",
        "col1": "323748",
        "col2": "323748",
        "col3": "2001-04-12"
    },
    {
        "col0": "Young-Shaw House",
        "col1": "121405",
        "col2": "121405",
        "col3": "1980-02-08"
    },
    {
        "col0": "Young-Sartorius House",
        "col1": "1214",
        "col2": "1214",
        "col3": "1996-08-30"
    },
    {
        "col0": "Young-Leach Cobblestone Farmhouse and Barn Complex",
        "col1": "413588",
        "col2": "413588",
        "col3": "1992-05-11"
    },
    {
        "col0": "Yosemite Village Historic District",
        "col1": "186155",
        "col2": "186155",
        "col3": "1978-03-30"
    },
    {
        "col0": "Yosemite Valley Chapel",
        "col1": "4046",
        "col2": "4046",
        "col3": "1973-12-12"
    },
    {
        "col0": "Yosemite Valley Bridges",
        "col1": "0",
        "col2": "0",
        "col3": "1977-11-25"
    },
    {
        "col0": "Yosemite Valley",
        "col1": "15378054",
        "col2": "15378054",
        "col3": "2006-12-14"
    },
    {
        "col0": "Yorkshire House",
        "col1": "39659",
        "col2": "39659",
        "col3": "2005-06-01"
    },
    {
        "col0": "York Meetinghouse",
        "col1": "4046",
        "col2": "4046",
        "col3": "1975-05-06"
    },
    {
        "col0": "York Lodge",
        "col1": "20638",
        "col2": "20638",
        "col3": "1991-07-15"
    },
    {
        "col0": "York Iron Company Mine",
        "col1": "289350",
        "col2": "289350",
        "col3": "1985-03-15"
    },
    {
        "col0": "York Historic District",
        "col1": "687965",
        "col2": "687965",
        "col3": "1979-10-18"
    },
    {
        "col0": "York Historic District",
        "col1": "2925067",
        "col2": "2925067",
        "col3": "1979-08-29"
    },
    {
        "col0": "York Historic District",
        "col1": "6879655",
        "col2": "6879655",
        "col3": "1973-07-16"
    },
    {
        "col0": "York Dispatch Newspaper Offices",
        "col1": "809",
        "col2": "809",
        "col3": "1978-03-08"
    },
    {
        "col0": "York Cliffs Historic District",
        "col1": "384451",
        "col2": "384451",
        "col3": "1984-07-26"
    },
    {
        "col0": "York Central Market",
        "col1": "5260",
        "col2": "5260",
        "col3": "1978-06-09"
    },
    {
        "col0": "York Armory",
        "col1": "2832",
        "col2": "2832",
        "col3": "1990-04-18"
    },
    {
        "col0": "York-Gordon House",
        "col1": "1214",
        "col2": "1214",
        "col3": "1973-06-18"
    },
    {
        "col0": "York-Chester Historic District",
        "col1": "781043",
        "col2": "781043",
        "col3": "2005-09-01"
    },
    {
        "col0": "Yorba-Slaughter Adobe",
        "col1": "4451",
        "col2": "4451",
        "col3": "1975-07-07"
    },
    {
        "col0": "Yopps Meeting House",
        "col1": "14973",
        "col2": "14973",
        "col3": "1999-07-22"
    },
    {
        "col0": "Yonkers Trolley Barn",
        "col1": "6474",
        "col2": "6474",
        "col3": "2002-03-06"
    },
    {
        "col0": "Yokoi's Cave",
        "col1": "4046",
        "col2": "4046",
        "col3": "1980-01-16"
    },
    {
        "col0": "Yoder's Mills Historic District",
        "col1": "242811",
        "col2": "242811",
        "col3": "1980-01-11"
    },
    {
        "col0": "Yerington Grammar School",
        "col1": "21043",
        "col2": "21043",
        "col3": "1984-08-16"
    },
    {
        "col0": "Yeocomico Church",
        "col1": "60702",
        "col2": "60702",
        "col3": "1969-11-12"
    },
    {
        "col0": "Yenowine-Nichols-Collins House",
        "col1": "12140",
        "col2": "12140",
        "col3": "1975-05-12"
    },
    {
        "col0": "Yellow Sulphur Springs",
        "col1": "242811",
        "col2": "242811",
        "col3": "1979-09-20"
    },
    {
        "col0": "Yellow Springs Historic District",
        "col1": "1863577",
        "col2": "1863577",
        "col3": "1982-04-01"
    },
    {
        "col0": "Yellow Brick House",
        "col1": "16187",
        "col2": "16187",
        "col3": "1978-05-22"
    },
    {
        "col0": "Yell Masonic Lodge Hall",
        "col1": "3642",
        "col2": "3642",
        "col3": "1984-11-01"
    },
    {
        "col0": "Yell County Courthouse",
        "col1": "4046",
        "col2": "4046",
        "col3": "1992-09-08"
    },
    {
        "col0": "Ybor City Historic District",
        "col1": "14932900",
        "col2": "14932900",
        "col3": "1974-08-28"
    },
    {
        "col0": "Yates County Courthouse Park District",
        "col1": "8093",
        "col2": "8093",
        "col3": "1979-06-19"
    },
    {
        "col0": "Yates-Flora House",
        "col1": "17401",
        "col2": "17401",
        "col3": "1982-12-02"
    },
    {
        "col0": "Yarmouth Camp Ground Historic District",
        "col1": "245239",
        "col2": "245239",
        "col3": "1990-08-28"
    },
    {
        "col0": "Yarmouth",
        "col1": "1214056",
        "col2": "1214056",
        "col3": "1978-03-29"
    },
    {
        "col0": "Yard-Groesbeck House",
        "col1": "809",
        "col2": "809",
        "col3": "1998-01-05"
    }
]