[
    {
        "col0": "USS Macon",
        "col1": "6",
        "col2": "1943-06-14",
        "col3": "1945-08-26"
    },
    {
        "col0": "USS Macomb",
        "col1": "4",
        "col2": "1940-09-03",
        "col3": "1942-01-26"
    },
    {
        "col0": "USS Mackinac",
        "col1": "3",
        "col2": "1940-05-29",
        "col3": "1942-01-24"
    },
    {
        "col0": "USS Mackerel",
        "col1": "3",
        "col2": "1952-04-01",
        "col3": "1953-10-09"
    },
    {
        "col0": "USS Mackerel",
        "col1": "3",
        "col2": "1939-10-06",
        "col3": "1941-03-31"
    },
    {
        "col0": "USS Mack",
        "col1": "2",
        "col2": "1944-02-14",
        "col3": "1944-08-16"
    },
    {
        "col0": "USS Machias",
        "col1": "3",
        "col2": "1943-05-08",
        "col3": "1944-03-29"
    },
    {
        "col0": "USS Macdonough",
        "col1": "7",
        "col2": "1958-04-15",
        "col3": "1961-11-04"
    },
    {
        "col0": "USS Macaw",
        "col1": "4",
        "col2": "1941-10-15",
        "col3": "1943-07-12"
    },
    {
        "col0": "USS MacLeish",
        "col1": "2",
        "col2": "1919-08-19",
        "col3": "1920-08-02"
    },
    {
        "col0": "USS MacKenzie",
        "col1": "1",
        "col2": "1897-04-15",
        "col3": "1899-05-01"
    },
    {
        "col0": "USS MacKenzie",
        "col1": "5",
        "col2": "1941-05-29",
        "col3": "1942-11-21"
    },
    {
        "col0": "USS MacKenzie",
        "col1": "2",
        "col2": "1918-07-04",
        "col3": "1919-07-25"
    },
    {
        "col0": "USS Lyon",
        "col1": "7",
        "col2": "1939-08-21",
        "col3": "1942-09-13"
    },
    {
        "col0": "USS Lyman K. Swenson",
        "col1": "4",
        "col2": "1943-09-11",
        "col3": "1944-05-02"
    },
    {
        "col0": "USS Lyman",
        "col1": "3",
        "col2": "1943-04-22",
        "col3": "1944-02-19"
    },
    {
        "col0": "USS Luzon",
        "col1": "7",
        "col2": "1943-04-08",
        "col3": "1943-10-12"
    },
    {
        "col0": "USS Luzerne County",
        "col1": "0",
        "col2": "1944-11-05",
        "col3": "1945-01-15"
    },
    {
        "col0": "USS Lunga Point",
        "col1": "6",
        "col2": "1944-01-19",
        "col3": "1944-05-14"
    },
    {
        "col0": "USS Luiseno",
        "col1": "5",
        "col2": "1944-11-07",
        "col3": "1945-06-16"
    },
    {
        "col0": "USS Ludlow",
        "col1": "3",
        "col2": "1939-12-18",
        "col3": "1941-03-05"
    },
    {
        "col0": "USS Lucid",
        "col1": "3",
        "col2": "1953-03-16",
        "col3": "1955-05-04"
    },
    {
        "col0": "USS Lucid",
        "col1": "2",
        "col2": "1943-02-20",
        "col3": "1943-12-01"
    },
    {
        "col0": "USS Luce",
        "col1": "5",
        "col2": "1957-10-01",
        "col3": "1961-05-20"
    },
    {
        "col0": "USS Luce",
        "col1": "2",
        "col2": "1918-02-09",
        "col3": "1918-09-11"
    },
    {
        "col0": "USS Luce",
        "col1": "5",
        "col2": "1942-08-24",
        "col3": "1943-06-21"
    },
    {
        "col0": "USS Loyalty",
        "col1": "2",
        "col2": "1941-05-08",
        "col3": "1944-12-15"
    },
    {
        "col0": "USS Loyalty",
        "col1": "3",
        "col2": "1951-11-09",
        "col3": "1954-06-11"
    },
    {
        "col0": "USS Loy",
        "col1": "2",
        "col2": "1943-04-23",
        "col3": "1943-09-12"
    },
    {
        "col0": "USS Lowry",
        "col1": "4",
        "col2": "1943-08-01",
        "col3": "1944-07-23"
    },
    {
        "col0": "USS Lovering",
        "col1": "3",
        "col2": "1942-09-07",
        "col3": "1943-09-17"
    },
    {
        "col0": "USS Lovelace",
        "col1": "3",
        "col2": "1943-05-22",
        "col3": "1943-11-07"
    },
    {
        "col0": "USS Louisville",
        "col1": "4",
        "col2": "1928-07-04",
        "col3": "1931-01-15"
    },
    {
        "col0": "USS Lough",
        "col1": "2",
        "col2": "1943-12-08",
        "col3": "1944-05-02"
    },
    {
        "col0": "USS Los Angeles",
        "col1": "6",
        "col2": "1943-07-28",
        "col3": "1945-07-22"
    },
    {
        "col0": "USS Lorikeet",
        "col1": "2",
        "col2": "1941-02-28",
        "col3": "1941-08-08"
    },
    {
        "col0": "USS Lorikeet",
        "col1": "1",
        "col2": "1942-07-03",
        "col3": "1943-04-21"
    },
    {
        "col0": "USS Lorain County",
        "col1": "5",
        "col2": "1956-08-09",
        "col3": "1958-10-03"
    },
    {
        "col0": "USS Lorain",
        "col1": "3",
        "col2": "1943-10-25",
        "col3": "1945-01-15"
    },
    {
        "col0": "USS Lookout",
        "col1": "8",
        "col2": "1945-04-05",
        "col3": "1955-03-05"
    },
    {
        "col0": "USS Longspur",
        "col1": "0",
        "col2": "1944-09-22",
        "col3": "1944-10-27"
    },
    {
        "col0": "USS Longshaw",
        "col1": "5",
        "col2": "1942-06-16",
        "col3": "1943-12-04"
    },
    {
        "col0": "USS Long Beach",
        "col1": "3",
        "col2": "1943-03-19",
        "col3": "1943-09-08"
    },
    {
        "col0": "USS Long Beach",
        "col1": "9",
        "col2": "1957-12-02",
        "col3": "1961-09-09"
    },
    {
        "col0": "USS Long",
        "col1": "2",
        "col2": "1918-09-23",
        "col3": "1919-10-20"
    },
    {
        "col0": "USS Logic",
        "col1": "2",
        "col2": "1942-10-27",
        "col3": "1944-11-21"
    },
    {
        "col0": "USS Loggerhead",
        "col1": "4",
        "col2": "1944-04-01",
        "col3": "1945-02-09"
    },
    {
        "col0": "USS Logan",
        "col1": "7",
        "col2": "1944-05-27",
        "col3": "1944-10-14"
    },
    {
        "col0": "USS Lofberg",
        "col1": "4",
        "col2": "1943-11-04",
        "col3": "1945-04-26"
    },
    {
        "col0": "USS Lodestone",
        "col1": "2",
        "col2": "1943-05-27",
        "col3": "1944-07-10"
    },
    {
        "col0": "USS Lockwood",
        "col1": "7",
        "col2": "1967-11-03",
        "col3": "1970-12-05"
    },
    {
        "col0": "USS Locator",
        "col1": "7",
        "col2": "1945-02-09",
        "col3": "1956-01-21"
    },
    {
        "col0": "USS Lloyd E. Acree",
        "col1": "2",
        "col2": "1944-01-24",
        "col3": "1944-08-01"
    },
    {
        "col0": "USS Lloyd",
        "col1": "2",
        "col2": "1943-07-26",
        "col3": "1944-02-11"
    },
    {
        "col0": "USS Lizardfish",
        "col1": "4",
        "col2": "1944-03-14",
        "col3": "1944-12-30"
    },
    {
        "col0": "USS Livermore",
        "col1": "3",
        "col2": "1939-03-06",
        "col3": "1940-10-07"
    },
    {
        "col0": "USS Little Rock",
        "col1": "7",
        "col2": "1943-03-06",
        "col3": "1945-06-17"
    },
    {
        "col0": "USS Little",
        "col1": "4",
        "col2": "1943-09-13",
        "col3": "1944-08-19"
    },
    {
        "col0": "USS Little",
        "col1": "2",
        "col2": "1917-06-18",
        "col3": "1918-04-06"
    },
    {
        "col0": "USS Litchfield County",
        "col1": "0",
        "col2": "1944-10-29",
        "col3": "1945-01-11"
    },
    {
        "col0": "USS Litchfield",
        "col1": "2",
        "col2": "1919-01-15",
        "col3": "1920-05-12"
    },
    {
        "col0": "USS Liscome Bay",
        "col1": "6",
        "col2": "1942-12-09",
        "col3": "1943-08-07"
    },
    {
        "col0": "USS Lipan",
        "col1": "4",
        "col2": "1942-05-30",
        "col3": "1943-04-29"
    },
    {
        "col0": "USS Lionfish",
        "col1": "4",
        "col2": "1942-12-15",
        "col3": "1944-11-01"
    },
    {
        "col0": "USS Linnet",
        "col1": "2",
        "col2": "1942-07-11",
        "col3": "1943-11-20"
    },
    {
        "col0": "USS Linnet",
        "col1": "3",
        "col2": "1928-06-18",
        "col3": "1941-03-03"
    },
    {
        "col0": "USS Ling",
        "col1": "4",
        "col2": "1942-11-02",
        "col3": "1945-06-08"
    },
    {
        "col0": "USS Lindsey",
        "col1": "5",
        "col2": "1943-09-12",
        "col3": "1944-08-20"
    },
    {
        "col0": "USS Lindenwald",
        "col1": "2",
        "col2": "1943-02-22",
        "col3": "1943-12-09"
    },
    {
        "col0": "USS Lincoln County",
        "col1": "0",
        "col2": "1944-10-15",
        "col3": "1944-12-29"
    },
    {
        "col0": "USS Limpkin",
        "col1": "2",
        "col2": "1941-02-24",
        "col3": "1941-08-08"
    },
    {
        "col0": "USS Limpkin",
        "col1": "3",
        "col2": "1953-04-17",
        "col3": "1955-03-26"
    },
    {
        "col0": "USS Liddle",
        "col1": "2",
        "col2": "1943-06-08",
        "col3": "1943-12-06"
    },
    {
        "col0": "USS Leyte",
        "col1": "7",
        "col2": "1944-01-20",
        "col3": "1944-08-17"
    },
    {
        "col0": "USS Lewis",
        "col1": "3",
        "col2": "1943-11-03",
        "col3": "1944-09-05"
    },
    {
        "col0": "USS Levy",
        "col1": "3",
        "col2": "1942-10-19",
        "col3": "1943-05-13"
    },
    {
        "col0": "USS Lester",
        "col1": "5",
        "col2": "1954-09-02",
        "col3": "1957-06-14"
    },
    {
        "col0": "USS Leslie L.B. Knox",
        "col1": "2",
        "col2": "1943-11-07",
        "col3": "1944-03-22"
    },
    {
        "col0": "USS Leopold",
        "col1": "3",
        "col2": "1943-03-24",
        "col3": "1943-10-18"
    },
    {
        "col0": "USS Leopard",
        "col1": "8",
        "col2": "1943-10-05",
        "col3": "1943-12-26"
    },
    {
        "col0": "USS Leonard Wood",
        "col1": "9",
        "col2": "1920-07-29",
        "col3": "1941-06-10"
    },
    {
        "col0": "USS Leon",
        "col1": "7",
        "col2": "1943-02-06",
        "col3": "1944-02-12"
    },
    {
        "col0": "USS Lenoir",
        "col1": "7",
        "col2": "1944-09-07",
        "col3": "1944-12-14"
    },
    {
        "col0": "USS Lenawee",
        "col1": "7",
        "col2": "1944-05-26",
        "col3": "1944-10-11"
    },
    {
        "col0": "USS Leedstown",
        "col1": "7",
        "col2": "1942-08-26",
        "col3": "1943-07-16"
    },
    {
        "col0": "USS Lee Fox",
        "col1": "2",
        "col2": "1943-03-01",
        "col3": "1943-08-30"
    }
]