[
    {
        "col0": "Asparagine synthetase",
        "col1": "108370",
        "col2": "P08243",
        "col3": "753",
        "col4": "6.3.5.4",
        "col5": "440"
    },
    {
        "col0": "Angiopoietin receptor",
        "col1": "600221",
        "col2": "P35590",
        "col3": "11724",
        "col4": "2.7.1.112",
        "col5": "7010"
    },
    {
        "col0": "Alpha-N-acetylglucosaminidase",
        "col1": "609701",
        "col2": "P54802",
        "col3": "7632",
        "col4": "3.2.1.50",
        "col5": "4669"
    },
    {
        "col0": "Alanine transaminase",
        "col1": "138200",
        "col2": "P24298",
        "col3": "4552",
        "col4": "2.6.1.2",
        "col5": "2875"
    },
    {
        "col0": "Acyltransferase like 2",
        "col1": "610472",
        "col2": "Q8NF37",
        "col3": "25718",
        "col4": "2.3.1.23",
        "col5": "79888"
    },
    {
        "col0": "ATP2A2",
        "col1": "108740",
        "col2": "P16615",
        "col3": "812",
        "col4": "3.6.3.8",
        "col5": "488"
    },
    {
        "col0": "6-phosphogluconolactonase",
        "col1": "604951",
        "col2": "O95336",
        "col3": "8903",
        "col4": "3.1.1.31",
        "col5": "25796"
    },
    {
        "col0": "3-Hydroxyacyl ACP dehydrase",
        "col1": "607037",
        "col2": "Q08426",
        "col3": "3247",
        "col4": "4.2.1.17",
        "col5": "1962"
    },
    {
        "col0": "2,4 Dienoyl-CoA reductase",
        "col1": "222745",
        "col2": "Q16698",
        "col3": "2753",
        "col4": "1.3.1.34",
        "col5": "1666"
    }
]