[
    {
        "col0": "William H. Grant House",
        "col1": "3237",
        "col2": "3237",
        "col3": "1969-04-16"
    },
    {
        "col0": "William H. Grant House",
        "col1": "4046",
        "col2": "4046",
        "col3": "1978-03-30"
    },
    {
        "col0": "William H. Berg House",
        "col1": "809",
        "col2": "809",
        "col3": "1984-01-11"
    },
    {
        "col0": "William Gunnell House",
        "col1": "40468",
        "col2": "40468",
        "col3": "2003-05-22"
    },
    {
        "col0": "William Gunnell House",
        "col1": "97124",
        "col2": "97124",
        "col3": "1987-08-27"
    },
    {
        "col0": "William Gorton Farm",
        "col1": "77699",
        "col2": "77699",
        "col3": "1984-04-05"
    },
    {
        "col0": "William Gedamke House",
        "col1": "1699",
        "col2": "1699",
        "col3": "1989-11-13"
    },
    {
        "col0": "William Garrett Plantation",
        "col1": "30351",
        "col2": "30351",
        "col3": "1977-03-25"
    },
    {
        "col0": "William G. Smith House",
        "col1": "4046",
        "col2": "4046",
        "col3": "1988-04-28"
    },
    {
        "col0": "William Friend Young House",
        "col1": "5260",
        "col2": "5260",
        "col3": "1987-06-09"
    },
    {
        "col0": "William Fogg Library",
        "col1": "14163",
        "col2": "14163",
        "col3": "1991-12-21"
    },
    {
        "col0": "William Floyd House",
        "col1": "2472629",
        "col2": "2472629",
        "col3": "1980-10-15"
    },
    {
        "col0": "William Ferdon House",
        "col1": "5989",
        "col2": "5989",
        "col3": "2011-05-18"
    },
    {
        "col0": "William F. Perry House",
        "col1": "4046",
        "col2": "4046",
        "col3": "1975-09-25"
    },
    {
        "col0": "William F. Norton House",
        "col1": "1214",
        "col2": "1214",
        "col3": "1982-07-08"
    },
    {
        "col0": "William F. Jahn Farmstead",
        "col1": "12140",
        "col2": "12140",
        "col3": "2000-08-10"
    },
    {
        "col0": "William F. Grant House",
        "col1": "8903",
        "col2": "8903",
        "col3": "2006-05-17"
    },
    {
        "col0": "William Everhart Buildings",
        "col1": "404",
        "col2": "404",
        "col3": "1979-07-17"
    },
    {
        "col0": "William Erwin House",
        "col1": "2023",
        "col2": "2023",
        "col3": "1980-04-11"
    },
    {
        "col0": "William Ellixson House",
        "col1": "56655",
        "col2": "56655",
        "col3": "1988-04-28"
    },
    {
        "col0": "William Elliott White House",
        "col1": "32374",
        "col2": "32374",
        "col3": "1987-03-22"
    },
    {
        "col0": "William Edwards Farmhouse",
        "col1": "26709",
        "col2": "26709",
        "col3": "1989-10-04"
    },
    {
        "col0": "William Edward Mattocks House",
        "col1": "1618",
        "col2": "1618",
        "col3": "1989-03-22"
    },
    {
        "col0": "William E. Ward House",
        "col1": "32374",
        "col2": "32374",
        "col3": "1976-11-07"
    },
    {
        "col0": "William E. Smith House",
        "col1": "2023",
        "col2": "2023",
        "col3": "1982-06-24"
    },
    {
        "col0": "William E. Faison House",
        "col1": "11331",
        "col2": "11331",
        "col3": "2005-01-20"
    },
    {
        "col0": "William E. Ervin House",
        "col1": "212459",
        "col2": "212459",
        "col3": "1989-12-01"
    },
    {
        "col0": "William E. Breese Sr. House",
        "col1": "12140",
        "col2": "12140",
        "col3": "1980-04-28"
    },
    {
        "col0": "William Dunlap Simpson House",
        "col1": "8093",
        "col2": "8093",
        "col3": "1974-07-24"
    },
    {
        "col0": "William Dorsheimer House",
        "col1": "1214",
        "col2": "1214",
        "col3": "1980-11-21"
    },
    {
        "col0": "William Dennis Pottery Kiln and House Site",
        "col1": "0",
        "col2": "0",
        "col3": "2014-01-22"
    },
    {
        "col0": "William Deaver House",
        "col1": "9307",
        "col2": "9307",
        "col3": "1979-08-13"
    },
    {
        "col0": "William Dean Howells House",
        "col1": "4046",
        "col2": "4046",
        "col3": "1979-10-25"
    },
    {
        "col0": "William Davis Miller House",
        "col1": "43301",
        "col2": "43301",
        "col3": "1985-03-21"
    },
    {
        "col0": "William D. Roberts House",
        "col1": "2023",
        "col2": "2023",
        "col3": "1984-07-24"
    },
    {
        "col0": "William D. Bishop Cottage Development Historic District",
        "col1": "12545",
        "col2": "12545",
        "col3": "1982-06-28"
    },
    {
        "col0": "William Cullen Bryant Homestead",
        "col1": "763115",
        "col2": "763115",
        "col3": "1966-10-15"
    },
    {
        "col0": "William Culbertson House",
        "col1": "4046",
        "col2": "4046",
        "col3": "1985-08-29"
    },
    {
        "col0": "William Cree House",
        "col1": "4046",
        "col2": "4046",
        "col3": "2002-07-15"
    },
    {
        "col0": "William Crawford House",
        "col1": "2023",
        "col2": "2023",
        "col3": "1992-11-12"
    },
    {
        "col0": "William Covert Cobblestone Farmhouse",
        "col1": "60702",
        "col2": "60702",
        "col3": "1995-11-07"
    },
    {
        "col0": "William Cornell Homestead",
        "col1": "24685",
        "col2": "24685",
        "col3": "1973-08-14"
    },
    {
        "col0": "William Cook House",
        "col1": "6070",
        "col2": "6070",
        "col3": "1993-11-22"
    },
    {
        "col0": "William Colburn House",
        "col1": "4046",
        "col2": "4046",
        "col3": "1973-06-19"
    },
    {
        "col0": "William Cocke House",
        "col1": "24685",
        "col2": "24685",
        "col3": "1980-07-03"
    },
    {
        "col0": "William Clark House",
        "col1": "10117",
        "col2": "10117",
        "col3": "1977-11-10"
    },
    {
        "col0": "William Chapline House",
        "col1": "809",
        "col2": "809",
        "col3": "1976-10-08"
    },
    {
        "col0": "William Cauldwell House",
        "col1": "3642",
        "col2": "3642",
        "col3": "2009-05-04"
    },
    {
        "col0": "William Carter House",
        "col1": "39659",
        "col2": "39659",
        "col3": "1990-03-15"
    },
    {
        "col0": "William Carlos Williams House",
        "col1": "2023",
        "col2": "2023",
        "col3": "1973-06-04"
    },
    {
        "col0": "William C. Van Arsdel House",
        "col1": "9307",
        "col2": "9307",
        "col3": "1984-09-20"
    },
    {
        "col0": "William C. Sharpless House",
        "col1": "1214",
        "col2": "1214",
        "col3": "1983-12-29"
    },
    {
        "col0": "William C. Mooney House",
        "col1": "19829",
        "col2": "19829",
        "col3": "1982-03-15"
    },
    {
        "col0": "William C. Jayne House",
        "col1": "2428",
        "col2": "2428",
        "col3": "2006-09-28"
    },
    {
        "col0": "William Byrd Hotel",
        "col1": "2023",
        "col2": "2023",
        "col3": "1996-12-16"
    },
    {
        "col0": "William Bull III House",
        "col1": "460532",
        "col2": "460532",
        "col3": "1986-09-25"
    },
    {
        "col0": "William Brown Building",
        "col1": "1214",
        "col2": "1214",
        "col3": "2000-08-10"
    },
    {
        "col0": "William Brinton 1704 House",
        "col1": "12140",
        "col2": "12140",
        "col3": "1967-12-24"
    },
    {
        "col0": "William Breese Jr. House",
        "col1": "4046",
        "col2": "4046",
        "col3": "1983-06-23"
    },
    {
        "col0": "William Brandow House",
        "col1": "9307",
        "col2": "9307",
        "col3": "2009-11-10"
    },
    {
        "col0": "William Boyd House",
        "col1": "4046",
        "col2": "4046",
        "col3": "1988-04-13"
    },
    {
        "col0": "William Bland House",
        "col1": "4856",
        "col2": "4856",
        "col3": "1988-10-04"
    },
    {
        "col0": "William Berly House",
        "col1": "4856",
        "col2": "4856",
        "col3": "1977-11-23"
    },
    {
        "col0": "William Beers House",
        "col1": "404",
        "col2": "404",
        "col3": "1969-04-16"
    },
    {
        "col0": "William Bates House",
        "col1": "44110",
        "col2": "44110",
        "col3": "1978-12-04"
    },
    {
        "col0": "William Barnwell House",
        "col1": "16187",
        "col2": "16187",
        "col3": "1971-03-24"
    },
    {
        "col0": "William Barnett House",
        "col1": "10117",
        "col2": "10117",
        "col3": "1989-11-13"
    },
    {
        "col0": "William Baker House",
        "col1": "24281",
        "col2": "24281",
        "col3": "1978-03-08"
    },
    {
        "col0": "William Bailey House",
        "col1": "9307",
        "col2": "9307",
        "col3": "1982-11-12"
    },
    {
        "col0": "William B. Willis House",
        "col1": "8093",
        "col2": "8093",
        "col3": "1983-09-22"
    },
    {
        "col0": "William B. Hunt House",
        "col1": "22662",
        "col2": "22662",
        "col3": "1997-01-09"
    },
    {
        "col0": "William B. Hanna School",
        "col1": "8093",
        "col2": "8093",
        "col3": "1986-12-04"
    },
    {
        "col0": "William B. Dunlap Mansion",
        "col1": "2428",
        "col2": "2428",
        "col3": "1980-08-29"
    },
    {
        "col0": "William Austin House",
        "col1": "2832",
        "col2": "2832",
        "col3": "2002-07-19"
    },
    {
        "col0": "William Augustus Bootle Federal Building and United States Courthouse",
        "col1": "4046",
        "col2": "4046",
        "col3": "1972-01-20"
    },
    {
        "col0": "William Archer House",
        "col1": "3237",
        "col2": "3237",
        "col3": "1980-11-19"
    },
    {
        "col0": "William Apollos James House",
        "col1": "4046",
        "col2": "4046",
        "col3": "1999-10-06"
    },
    {
        "col0": "William Alston Rives House",
        "col1": "16187",
        "col2": "16187",
        "col3": "1985-07-05"
    },
    {
        "col0": "William Allison House",
        "col1": "6070",
        "col2": "6070",
        "col3": "1977-04-18"
    },
    {
        "col0": "William Aiken House and Associated Railroad Structures",
        "col1": "109265",
        "col2": "109265",
        "col3": "1966-10-15"
    },
    {
        "col0": "William A. Wittmer Lustron House",
        "col1": "1214",
        "col2": "1214",
        "col3": "2000-07-25"
    },
    {
        "col0": "William A. Rogers House",
        "col1": "44515",
        "col2": "44515",
        "col3": "1982-04-02"
    },
    {
        "col0": "William A. Leet and Frederick Hassler Farmstead District",
        "col1": "17806",
        "col2": "17806",
        "col3": "1999-05-05"
    },
    {
        "col0": "William A. Jeffreys House",
        "col1": "24281",
        "col2": "24281",
        "col3": "1976-06-23"
    },
    {
        "col0": "William A. Heiss House and Buggy Shop",
        "col1": "10926",
        "col2": "10926",
        "col3": "1979-08-06"
    },
    {
        "col0": "William A. Haseltine House",
        "col1": "1214",
        "col2": "1214",
        "col3": "1991-10-17"
    },
    {
        "col0": "William A. Graham Jr. Farm",
        "col1": "40063",
        "col2": "40063",
        "col3": "1977-05-06"
    },
    {
        "col0": "William A. Buckingham House",
        "col1": "809",
        "col2": "809",
        "col3": "1982-04-29"
    },
    {
        "col0": "Willet Titus House",
        "col1": "2023",
        "col2": "2023",
        "col3": "1986-10-02"
    },
    {
        "col0": "Willard Homestead",
        "col1": "8903",
        "col2": "8903",
        "col3": "1988-01-14"
    },
    {
        "col0": "Willard D. Purdy Junior High and Vocational School",
        "col1": "8093",
        "col2": "8093",
        "col3": "1992-09-08"
    },
    {
        "col0": "Willard Covered Bridge",
        "col1": "4046",
        "col2": "4046",
        "col3": "1973-08-28"
    },
    {
        "col0": "Willard Carpenter House",
        "col1": "4046",
        "col2": "4046",
        "col3": "1978-02-10"
    },
    {
        "col0": "Willard Bunnell House",
        "col1": "4046",
        "col2": "4046",
        "col3": "1973-04-23"
    },
    {
        "col0": "Willard Brook Quarry",
        "col1": "647497",
        "col2": "647497",
        "col3": "1986-09-26"
    },
    {
        "col0": "Willard-Fisk House",
        "col1": "21245",
        "col2": "21245",
        "col3": "1996-02-23"
    },
    {
        "col0": "Willakenzie Grange Hall",
        "col1": "3237",
        "col2": "3237",
        "col3": "2009-01-22"
    },
    {
        "col0": "Will Rogers Memorial Hospital",
        "col1": "23471",
        "col2": "23471",
        "col3": "1983-09-08"
    }
]