[
    {
        "col0": "Falciform ligament",
        "col1": "12492233",
        "col2": "250",
        "col3": "1192",
        "col4": "l_09"
    },
    {
        "col0": "Dorsal tarsometatarsal ligaments",
        "col1": "12493315",
        "col2": "97",
        "col3": "358",
        "col4": "l_09"
    },
    {
        "col0": "Dorsal talonavicular ligament",
        "col1": "12493268",
        "col2": "96",
        "col3": "354",
        "col4": "l_09"
    },
    {
        "col0": "Dorsal radiocarpal ligament",
        "col1": "12492932",
        "col2": "86",
        "col3": "328",
        "col4": "l_09"
    },
    {
        "col0": "Dorsal metatarsal ligaments",
        "col1": "12492648",
        "col2": "98",
        "col3": "358",
        "col4": "l_09"
    },
    {
        "col0": "Dorsal carpometacarpal ligaments",
        "col1": "12491837",
        "col2": "88",
        "col3": "330",
        "col4": "l_09"
    },
    {
        "col0": "Deltoid ligament",
        "col1": "12491956",
        "col2": "95",
        "col3": "350",
        "col4": "l_09"
    },
    {
        "col0": "Deep transverse metacarpal ligament",
        "col1": "12492625",
        "col2": "89",
        "col3": "331",
        "col4": "l_09"
    },
    {
        "col0": "Cruciate ligament of atlas",
        "col1": "12492136",
        "col2": "73",
        "col3": "293",
        "col4": "l_09"
    },
    {
        "col0": "Cricotracheal ligament",
        "col1": "12492093",
        "col2": "236",
        "col3": "1077",
        "col4": "l_09"
    },
    {
        "col0": "Cricothyroid ligament",
        "col1": "12489277",
        "col2": "236",
        "col3": "1078",
        "col4": "l_09"
    },
    {
        "col0": "Costoclavicular ligament",
        "col1": "12492029",
        "col2": "81",
        "col3": "314",
        "col4": "l_09"
    },
    {
        "col0": "Coracohumeral ligament",
        "col1": "12492016",
        "col2": "83",
        "col3": "318",
        "col4": "l_09"
    },
    {
        "col0": "Coracoclavicular ligament",
        "col1": "12492010",
        "col2": "82",
        "col3": "315",
        "col4": "l_09"
    },
    {
        "col0": "Coracoacromial ligament",
        "col1": "12492003",
        "col2": "82",
        "col3": "316",
        "col4": "l_09"
    },
    {
        "col0": "Conoid ligament",
        "col1": "12491996",
        "col2": "82",
        "col3": "315",
        "col4": "l_09"
    },
    {
        "col0": "Collateral ligaments of metatarsophalangeal joints",
        "col1": "12491912",
        "col2": "99",
        "col3": "359",
        "col4": "l_09"
    },
    {
        "col0": "Collateral ligaments of interphalangeal joints",
        "col1": "12491880",
        "col2": "91",
        "col3": "333",
        "col4": "l_09"
    },
    {
        "col0": "Cardinal ligament",
        "col1": "13541169",
        "col2": "268",
        "col3": "1261",
        "col4": "l_09"
    },
    {
        "col0": "Calcaneofibular ligament",
        "col1": "12491729",
        "col2": "95",
        "col3": "351",
        "col4": "l_09"
    }
]