[
    {
        "col0": "William S. Gerity House",
        "col1": "1335",
        "col2": "1335",
        "col3": "2010-02-22"
    },
    {
        "col0": "William S. Campbell House",
        "col1": "48562",
        "col2": "48562",
        "col3": "1975-10-29"
    },
    {
        "col0": "William Russell House",
        "col1": "4046",
        "col2": "4046",
        "col3": "1977-04-18"
    },
    {
        "col0": "William Rowen School",
        "col1": "10117",
        "col2": "10117",
        "col3": "1988-11-18"
    },
    {
        "col0": "William Riley Abbott House",
        "col1": "485622",
        "col2": "485622",
        "col3": "1978-08-11"
    },
    {
        "col0": "William Richardson House",
        "col1": "323748",
        "col2": "323748",
        "col3": "2005-03-15"
    },
    {
        "col0": "William Rea Store",
        "col1": "809",
        "col2": "809",
        "col3": "1970-09-15"
    },
    {
        "col0": "William Rankin and Elizabeth Wharton Smith House",
        "col1": "8093",
        "col2": "8093",
        "col3": "2007-02-27"
    },
    {
        "col0": "William Rand Tavern",
        "col1": "809",
        "col2": "809",
        "col3": "2004-05-27"
    },
    {
        "col0": "William R. Wing Farm Complex",
        "col1": "388498",
        "col2": "388498",
        "col3": "1984-10-11"
    },
    {
        "col0": "William R. Kirby Sr. House",
        "col1": "12140",
        "col2": "12140",
        "col3": "1982-07-20"
    },
    {
        "col0": "William R. Griffith House",
        "col1": "1214",
        "col2": "1214",
        "col3": "1976-10-21"
    },
    {
        "col0": "William R. Davie House",
        "col1": "4046",
        "col2": "4046",
        "col3": "1973-06-19"
    },
    {
        "col0": "William Proctor House",
        "col1": "28696",
        "col2": "28696",
        "col3": "2013-06-25"
    },
    {
        "col0": "William Pinto House",
        "col1": "404",
        "col2": "404",
        "col3": "1985-09-12"
    },
    {
        "col0": "William Peters House",
        "col1": "8903",
        "col2": "8903",
        "col3": "1971-05-27"
    },
    {
        "col0": "William Pepperrell House",
        "col1": "4046",
        "col2": "4046",
        "col3": "1973-08-14"
    },
    {
        "col0": "William Penn High School for Girls",
        "col1": "4046",
        "col2": "4046",
        "col3": "1986-12-01"
    },
    {
        "col0": "William Penn High School",
        "col1": "26304",
        "col2": "26304",
        "col3": "1978-11-16"
    },
    {
        "col0": "William Peabody House",
        "col1": "47348",
        "col2": "47348",
        "col3": "1979-11-30"
    },
    {
        "col0": "William Payne House",
        "col1": "6474",
        "col2": "6474",
        "col3": "2012-06-20"
    },
    {
        "col0": "William Parker Straw House",
        "col1": "6070",
        "col2": "6070",
        "col3": "1987-12-08"
    },
    {
        "col0": "William Parker Caldwell House",
        "col1": "4856",
        "col2": "4856",
        "col3": "1979-03-09"
    },
    {
        "col0": "William Park House",
        "col1": "12949",
        "col2": "12949",
        "col3": "2007-03-07"
    },
    {
        "col0": "William Painter Farm",
        "col1": "19829",
        "col2": "19829",
        "col3": "1971-07-27"
    },
    {
        "col0": "William P. Stroman House",
        "col1": "8093",
        "col2": "8093",
        "col3": "1996-08-01"
    },
    {
        "col0": "William P. Morrow House",
        "col1": "56655",
        "col2": "56655",
        "col3": "2006-08-09"
    },
    {
        "col0": "William Orr House",
        "col1": "12140",
        "col2": "12140",
        "col3": "1984-03-22"
    },
    {
        "col0": "William Ogilvie House",
        "col1": "297443",
        "col2": "297443",
        "col3": "1988-04-14"
    },
    {
        "col0": "William Nichols Cobblestone Farmhouse",
        "col1": "280851",
        "col2": "280851",
        "col3": "1992-05-11"
    },
    {
        "col0": "William Nelson Camp Jr. House",
        "col1": "43706",
        "col2": "43706",
        "col3": "1998-12-17"
    },
    {
        "col0": "William N. Violett House",
        "col1": "6879",
        "col2": "6879",
        "col3": "1984-09-20"
    },
    {
        "col0": "William N. Thompson House",
        "col1": "8093",
        "col2": "8093",
        "col3": "1982-06-01"
    },
    {
        "col0": "William Mowry House",
        "col1": "8093",
        "col2": "8093",
        "col3": "1983-02-10"
    },
    {
        "col0": "William Morgan Farm",
        "col1": "34398",
        "col2": "34398",
        "col3": "1986-11-13"
    },
    {
        "col0": "William Mitchell House",
        "col1": "80937",
        "col2": "80937",
        "col3": "1972-12-04"
    },
    {
        "col0": "William Minott House",
        "col1": "1214",
        "col2": "1214",
        "col3": "1979-07-10"
    },
    {
        "col0": "William Miles Tiernan House",
        "col1": "3642",
        "col2": "3642",
        "col3": "1993-03-25"
    },
    {
        "col0": "William Merritt Chase Homestead",
        "col1": "9307",
        "col2": "9307",
        "col3": "1983-06-16"
    },
    {
        "col0": "William Martin House",
        "col1": "6879",
        "col2": "6879",
        "col3": "1988-04-13"
    },
    {
        "col0": "William Marshall Anderson House",
        "col1": "4046",
        "col2": "4046",
        "col3": "1979-11-29"
    },
    {
        "col0": "William Mann School",
        "col1": "16187",
        "col2": "16187",
        "col3": "1988-11-18"
    },
    {
        "col0": "William Madison Otey House",
        "col1": "7284",
        "col2": "7284",
        "col3": "1982-01-19"
    },
    {
        "col0": "William Mackey House",
        "col1": "866027",
        "col2": "866027",
        "col3": "1993-10-29"
    },
    {
        "col0": "William M. Shaw House",
        "col1": "18210",
        "col2": "18210",
        "col3": "2013-10-16"
    },
    {
        "col0": "William M. Nash House",
        "col1": "2023",
        "col2": "2023",
        "col3": "1983-01-04"
    },
    {
        "col0": "William M. Meredith School",
        "col1": "4046",
        "col2": "4046",
        "col3": "1986-12-04"
    },
    {
        "col0": "William M. Cockrum House",
        "col1": "10926",
        "col2": "10926",
        "col3": "1978-09-13"
    },
    {
        "col0": "William Lowry House",
        "col1": "4046",
        "col2": "4046",
        "col3": "1982-02-11"
    },
    {
        "col0": "William Lloyd Garrison House",
        "col1": "2994",
        "col2": "2994",
        "col3": "1966-10-15"
    },
    {
        "col0": "William Levering School",
        "col1": "8498",
        "col2": "8498",
        "col3": "1988-11-18"
    },
    {
        "col0": "William Lanford House",
        "col1": "453247",
        "col2": "453247",
        "col3": "1994-05-20"
    },
    {
        "col0": "William L. Vary House",
        "col1": "40063",
        "col2": "40063",
        "col3": "1989-08-31"
    },
    {
        "col0": "William L. Slayton House",
        "col1": "647",
        "col2": "647",
        "col3": "2008-10-02"
    },
    {
        "col0": "William L. Linke House",
        "col1": "809",
        "col2": "809",
        "col3": "1983-02-24"
    },
    {
        "col0": "William Koger House",
        "col1": "343982",
        "col2": "343982",
        "col3": "1986-07-09"
    },
    {
        "col0": "William Kitchen House",
        "col1": "17401",
        "col2": "17401",
        "col3": "1985-03-06"
    },
    {
        "col0": "William Kirk House",
        "col1": "4046",
        "col2": "4046",
        "col3": "1980-12-02"
    },
    {
        "col0": "William Kauffman House",
        "col1": "404",
        "col2": "404",
        "col3": "1982-10-29"
    },
    {
        "col0": "William Jillson Stone House",
        "col1": "4046",
        "col2": "4046",
        "col3": "1971-08-05"
    },
    {
        "col0": "William Jennings Bryan House",
        "col1": "2428",
        "col2": "2428",
        "col3": "1983-06-23"
    },
    {
        "col0": "William Jennings Bryan Boyhood Home",
        "col1": "1618",
        "col2": "1618",
        "col3": "1975-02-18"
    },
    {
        "col0": "William James and Edna Cordner House",
        "col1": "4451",
        "col2": "4451",
        "col3": "1998-06-11"
    },
    {
        "col0": "William Jacob Heller House",
        "col1": "4451",
        "col2": "4451",
        "col3": "1982-04-20"
    },
    {
        "col0": "William J. and Lizzie Cullimore House",
        "col1": "2023",
        "col2": "2023",
        "col3": "1998-06-11"
    },
    {
        "col0": "William J. Wilson House",
        "col1": "20234",
        "col2": "20234",
        "col3": "1976-10-14"
    },
    {
        "col0": "William J. Tilden Junior High School",
        "col1": "16187",
        "col2": "16187",
        "col3": "1986-12-01"
    },
    {
        "col0": "William J. Ryan Estate",
        "col1": "509903",
        "col2": "509903",
        "col3": "1993-08-09"
    },
    {
        "col0": "William J. Reimbold House",
        "col1": "8093",
        "col2": "8093",
        "col3": "1987-12-02"
    },
    {
        "col0": "William J. Hawkins House",
        "col1": "101171",
        "col2": "101171",
        "col3": "1978-05-22"
    },
    {
        "col0": "William J. Gregory House",
        "col1": "5665",
        "col2": "5665",
        "col3": "1996-02-23"
    },
    {
        "col0": "William J. Greenman House",
        "col1": "4046",
        "col2": "4046",
        "col3": "2011-08-18"
    },
    {
        "col0": "William J. Braitsch and Company Plant",
        "col1": "2832",
        "col2": "2832",
        "col3": "2016-07-11"
    },
    {
        "col0": "William Huffman Cobblestone House",
        "col1": "439893",
        "col2": "439893",
        "col3": "2002-12-31"
    },
    {
        "col0": "William Howard Taft National Historic Site",
        "col1": "12140",
        "col2": "12140",
        "col3": "1966-10-15"
    },
    {
        "col0": "William Hoster House",
        "col1": "546325",
        "col2": "546325",
        "col3": "2002-12-31"
    },
    {
        "col0": "William Hooper School",
        "col1": "4046",
        "col2": "4046",
        "col3": "1998-03-12"
    },
    {
        "col0": "William Holdrum House",
        "col1": "24281",
        "col2": "24281",
        "col3": "1983-01-10"
    },
    {
        "col0": "William Hilleary House",
        "col1": "2832",
        "col2": "2832",
        "col3": "1978-07-20"
    },
    {
        "col0": "William Hickman House",
        "col1": "1618",
        "col2": "1618",
        "col3": "1982-11-24"
    },
    {
        "col0": "William Hicklen House",
        "col1": "109265",
        "col2": "109265",
        "col3": "1983-10-06"
    },
    {
        "col0": "William Henry and Sarah Holderness House",
        "col1": "27275",
        "col2": "27275",
        "col3": "2014-12-02"
    },
    {
        "col0": "William Henry Luick Farmhouse",
        "col1": "20234",
        "col2": "20234",
        "col3": "1994-06-10"
    },
    {
        "col0": "William Henry Ludlow House",
        "col1": "80937",
        "col2": "80937",
        "col3": "1997-08-08"
    },
    {
        "col0": "William Henry Harrison Tomb State Memorial",
        "col1": "56655",
        "col2": "56655",
        "col3": "1970-11-10"
    },
    {
        "col0": "William Harvey House",
        "col1": "31565",
        "col2": "31565",
        "col3": "1971-05-27"
    },
    {
        "col0": "William Hartman Farmstead",
        "col1": "74057",
        "col2": "74057",
        "col3": "2000-04-14"
    },
    {
        "col0": "William Harrison Sapp House",
        "col1": "4046",
        "col2": "4046",
        "col3": "1990-01-04"
    },
    {
        "col0": "William Harris House",
        "col1": "4046",
        "col2": "4046",
        "col3": "1978-12-18"
    },
    {
        "col0": "William Harris Homestead",
        "col1": "1485196",
        "col2": "1485196",
        "col3": "1982-06-22"
    },
    {
        "col0": "William Hagler House",
        "col1": "509903",
        "col2": "509903",
        "col3": "1982-12-28"
    },
    {
        "col0": "William H. and Sarah D. Meneray House",
        "col1": "1214",
        "col2": "1214",
        "col3": "1998-01-05"
    },
    {
        "col0": "William H. Vincent House",
        "col1": "4451",
        "col2": "4451",
        "col3": "2004-01-16"
    },
    {
        "col0": "William H. Van Epps House",
        "col1": "1214",
        "col2": "1214",
        "col3": "1982-02-11"
    },
    {
        "col0": "William H. Trusty House",
        "col1": "2023",
        "col2": "2023",
        "col3": "1979-06-22"
    },
    {
        "col0": "William H. Smith House",
        "col1": "12140",
        "col2": "12140",
        "col3": "1992-11-27"
    },
    {
        "col0": "William H. McGuffey Primary School",
        "col1": "7689",
        "col2": "7689",
        "col3": "2009-12-23"
    },
    {
        "col0": "William H. Long Memorial",
        "col1": "1214",
        "col2": "1214",
        "col3": "1977-07-15"
    },
    {
        "col0": "William H. Lee House",
        "col1": "3439",
        "col2": "3439",
        "col3": "2012-04-16"
    },
    {
        "col0": "William H. Holcomb House",
        "col1": "4046",
        "col2": "4046",
        "col3": "1973-10-25"
    },
    {
        "col0": "William H. Harrison School",
        "col1": "8093",
        "col2": "8093",
        "col3": "1988-11-18"
    },
    {
        "col0": "William H. Grogan House",
        "col1": "2023",
        "col2": "2023",
        "col3": "2008-09-10"
    }
]