[
    {
        "col0": "T. Jian",
        "col1": "L. Nichol",
        "col2": "1979-8-15",
        "col3": "1979-8-15"
    },
    {
        "col0": "T. Janecko",
        "col1": "J. Suchy",
        "col2": "1986-12-24",
        "col3": "1986-12-24"
    },
    {
        "col0": "T. Hiwatashi",
        "col1": "M. Zueva",
        "col2": "2000-1-20",
        "col3": "2000-1-20"
    },
    {
        "col0": "T. Janecko",
        "col1": "J. Suchy",
        "col2": "1986-12-24",
        "col3": "1986-12-24"
    },
    {
        "col0": "T. Wang",
        "col1": "H. Ma",
        "col2": "1991-12-13",
        "col3": "1991-12-13"
    },
    {
        "col0": "T. Stuerzinger",
        "col1": "S. Bourne",
        "col2": "1996-2-26",
        "col3": "1996-2-26"
    },
    {
        "col0": "T. Dolensky",
        "col1": "C. Lindgren",
        "col2": "1992-7-18",
        "col3": "1992-7-18"
    },
    {
        "col0": "T. Dieck",
        "col1": "M. Scali",
        "col2": "1996-4-7",
        "col3": "1996-4-7"
    },
    {
        "col0": "T. Zahorski",
        "col1": "A. Zhulin",
        "col2": "1994-8-16",
        "col3": "1994-8-16"
    },
    {
        "col0": "T. Williams",
        "col1": "M. Wing",
        "col2": "1991-4-20",
        "col3": "1991-4-20"
    },
    {
        "col0": "T. Tran",
        "col1": "M. Zueva",
        "col2": "1992-9-15",
        "col3": "1992-9-15"
    },
    {
        "col0": "T. Tanaka",
        "col1": "N. Sato",
        "col2": "1988-10-27",
        "col3": "1988-10-27"
    },
    {
        "col0": "T. Volosozhar",
        "col1": "N. Morozov",
        "col2": "1986-5-22",
        "col3": "1986-5-22"
    },
    {
        "col0": "T. Harvey",
        "col1": "M. Wing",
        "col2": "1989-12-20",
        "col3": "1989-12-20"
    },
    {
        "col0": "T. Hancherow",
        "col1": "S. Sawyer",
        "col2": "1995-10-30",
        "col3": "1995-10-30"
    },
    {
        "col0": "T. Ono",
        "col1": "Y. Higuchi",
        "col2": "1989-11-21",
        "col3": "1989-11-21"
    },
    {
        "col0": "T. Mura",
        "col1": "C. White",
        "col2": "1991-2-11",
        "col3": "1991-2-11"
    },
    {
        "col0": "T. Rand",
        "col1": "E. Kustarova",
        "col2": "1992-7-17",
        "col3": "1992-7-17"
    },
    {
        "col0": "S. Yamamoto",
        "col1": "K. Miyamoto",
        "col2": "2000-1-10",
        "col3": "2000-1-10"
    },
    {
        "col0": "S. Saygi",
        "col1": "K. Eryoldas",
        "col2": "1996-1-2",
        "col3": "1996-1-2"
    },
    {
        "col0": "S. Wenjing",
        "col1": "L. Nichol",
        "col2": "1995-7-18",
        "col3": "1995-7-18"
    },
    {
        "col0": "S. Korotkov",
        "col1": "O. Volozhinskaya",
        "col2": "1995-8-22",
        "col3": "1995-8-22"
    },
    {
        "col0": "S. Caruso",
        "col1": "J. Deutschland",
        "col2": "1987-4-19",
        "col3": "1987-4-19"
    },
    {
        "col0": "S. Timchenko",
        "col1": "N. Pavlova",
        "col2": "1983-1-11",
        "col3": "1983-1-11"
    },
    {
        "col0": "S. Lafuente",
        "col1": "J. Buttle",
        "col2": "1991-12-7",
        "col3": "1991-12-7"
    },
    {
        "col0": "S. Nan",
        "col1": "D. Wilson",
        "col2": "1990-8-9",
        "col3": "1990-8-9"
    },
    {
        "col0": "S. Lun",
        "col1": "J. McLeod",
        "col2": "1981-1-18",
        "col3": "1981-1-18"
    },
    {
        "col0": "S. O. Boe",
        "col1": "R. Sinicyn",
        "col2": "1998-1-13",
        "col3": "1998-1-13"
    },
    {
        "col0": "S. Hayrapetyan",
        "col1": "I. Zhuk",
        "col2": "1996-3-16",
        "col3": "1996-3-16"
    },
    {
        "col0": "S. Karam",
        "col1": "I. Shpilband",
        "col2": "1986-5-1",
        "col3": "1986-5-1"
    },
    {
        "col0": "S. Vaturi",
        "col1": "M. Scali",
        "col2": "1988-7-20",
        "col3": "1988-7-20"
    },
    {
        "col0": "S. Nakamura",
        "col1": "E. Iwamoto",
        "col2": "1996-9-7",
        "col3": "1996-9-7"
    },
    {
        "col0": "S. Omori",
        "col1": "J. Abbott",
        "col2": "1995-10-23",
        "col3": "1995-10-23"
    },
    {
        "col0": "S. Ishikawa",
        "col1": "N. Sato",
        "col2": "1990-5-12",
        "col3": "1990-5-12"
    },
    {
        "col0": "S. Xue",
        "col1": "L. Nichol",
        "col2": "1978-11-13",
        "col3": "1978-11-13"
    },
    {
        "col0": "S. Mozgov",
        "col1": "E. Kustarova",
        "col2": "1995-3-10",
        "col3": "1995-3-10"
    },
    {
        "col0": "S. Voronov",
        "col1": "N. Morozov",
        "col2": "1987-10-3",
        "col3": "1987-10-3"
    },
    {
        "col0": "S. Miyake",
        "col1": "K. Miyamoto",
        "col2": "2002-3-26",
        "col3": "2002-3-26"
    },
    {
        "col0": "S. Zhao",
        "col1": "T. Dickson",
        "col2": "1998-5-10",
        "col3": "1998-5-10"
    },
    {
        "col0": "S. Kawahara",
        "col1": "K. Miyamoto",
        "col2": "1995-12-17",
        "col3": "1995-12-17"
    },
    {
        "col0": "S. Ambrulevicius",
        "col1": "M. Zueva",
        "col2": "1992-6-10",
        "col3": "1992-6-10"
    },
    {
        "col0": "S. Muramoto",
        "col1": "T. Dickson",
        "col2": "1990-5-15",
        "col3": "1990-5-15"
    },
    {
        "col0": "S. Palomaki",
        "col1": "E. Tchaikovskaia",
        "col2": "1991-9-4",
        "col3": "1991-9-4"
    },
    {
        "col0": "S. Tamura",
        "col1": "M. Wing",
        "col2": "2001-1-21",
        "col3": "2001-1-21"
    },
    {
        "col0": "S. Hecken",
        "col1": "E. D. Bernardis",
        "col2": "1993-8-27",
        "col3": "1993-8-27"
    },
    {
        "col0": "S. Aghai",
        "col1": "M. Wing",
        "col2": "1994-10-20",
        "col3": "1994-10-20"
    },
    {
        "col0": "S. Yamamoto",
        "col1": "K. Miyamoto",
        "col2": "2000-1-10",
        "col3": "2000-1-10"
    },
    {
        "col0": "S. Saygi",
        "col1": "K. Eryoldas",
        "col2": "1996-1-2",
        "col3": "1996-1-2"
    },
    {
        "col0": "R. Hino",
        "col1": "I. Bobrin",
        "col2": "1995-2-12",
        "col3": "1995-2-12"
    },
    {
        "col0": "R. Kihara",
        "col1": "M. Zueva",
        "col2": "1992-8-22",
        "col3": "1992-8-22"
    },
    {
        "col0": "R. V. Natten",
        "col1": "M. Gates",
        "col2": "1987-11-11",
        "col3": "1987-11-11"
    },
    {
        "col0": "R. Bradley",
        "col1": "C. Lindgren",
        "col2": "1983-11-17",
        "col3": "1983-11-17"
    },
    {
        "col0": "R. Zhiganshin",
        "col1": "A. Najarro",
        "col2": "1992-9-25",
        "col3": "1992-9-25"
    },
    {
        "col0": "R. Suizu",
        "col1": "K. Miyamoto",
        "col2": "1990-12-7",
        "col3": "1990-12-7"
    },
    {
        "col0": "R. Miner",
        "col1": "L. Nichol",
        "col2": "1991-1-24",
        "col3": "1991-1-24"
    },
    {
        "col0": "R. Buhler",
        "col1": "P. Camerlengo",
        "col2": "1994-9-23",
        "col3": "1994-9-23"
    },
    {
        "col0": "R. Sadovsky",
        "col1": "G. Filipowski",
        "col2": "1999-5-31",
        "col3": "1999-5-31"
    },
    {
        "col0": "R. Ponsart",
        "col1": "N. Morozov",
        "col2": "1992-4-27",
        "col3": "1992-4-27"
    },
    {
        "col0": "R. L. Gac",
        "col1": "M. Dubreuil",
        "col2": "1995-5-31",
        "col3": "1995-5-31"
    },
    {
        "col0": "R. Paxton",
        "col1": "K. Johnson",
        "col2": "1983-10-20",
        "col3": "1983-10-20"
    },
    {
        "col0": "R. Shoji",
        "col1": "K. Miyamoto",
        "col2": "1996-7-5",
        "col3": "1996-7-5"
    },
    {
        "col0": "R. Nitaya",
        "col1": "A. Suzuki",
        "col2": "1997-8-8",
        "col3": "1997-8-8"
    },
    {
        "col0": "R. Hongo",
        "col1": "S. Bourne",
        "col2": "1996-9-6",
        "col3": "1996-9-6"
    },
    {
        "col0": "R. K. Kam",
        "col1": "M. Wing",
        "col2": "1996-12-24",
        "col3": "1996-12-24"
    },
    {
        "col0": "R. Hamui",
        "col1": "I. Romanova",
        "col2": "1993-12-28",
        "col3": "1993-12-28"
    },
    {
        "col0": "R. Zhongfei",
        "col1": "B. Luan",
        "col2": "1982-8-28",
        "col3": "1982-8-28"
    },
    {
        "col0": "R. Kim",
        "col1": "I. Zhuk",
        "col2": "1998-1-27",
        "col3": "1998-1-27"
    },
    {
        "col0": "R. Elsener",
        "col1": "A. Krylova",
        "col2": "1992-2-27",
        "col3": "1992-2-27"
    },
    {
        "col0": "R. Flatt",
        "col1": "L. Nichol",
        "col2": "1992-7-21",
        "col3": "1992-7-21"
    },
    {
        "col0": "P. Kwong",
        "col1": "S. Ponomarenko",
        "col2": "1989-11-14",
        "col3": "1989-11-14"
    },
    {
        "col0": "P. Edmunds",
        "col1": "R. Galindo",
        "col2": "1998-5-18",
        "col3": "1998-5-18"
    },
    {
        "col0": "P. Gilles",
        "col1": "P. Poirier",
        "col2": "1992-1-16",
        "col3": "1992-1-16"
    },
    {
        "col0": "P. Bosley",
        "col1": "N. Linichuk",
        "col2": "1988-9-4",
        "col3": "1988-9-4"
    },
    {
        "col0": "P. D. Tommaso",
        "col1": "D. Wilson",
        "col2": "1990-7-26",
        "col3": "1990-7-26"
    },
    {
        "col0": "P. Towler-Green",
        "col1": "D. Towler",
        "col2": "1984-5-11",
        "col3": "1984-5-11"
    },
    {
        "col0": "P. Liebers",
        "col1": "L. Nichol",
        "col2": "1988-4-16",
        "col3": "1988-4-16"
    },
    {
        "col0": "P. Gerber",
        "col1": "I. Shpilband",
        "col2": "1992-3-16",
        "col3": "1992-3-16"
    },
    {
        "col0": "P. Carron",
        "col1": "L. Jones",
        "col2": "1986-8-20",
        "col3": "1986-8-20"
    },
    {
        "col0": "P. Coomes",
        "col1": "P. Askew",
        "col2": "1989-4-6",
        "col3": "1989-4-6"
    },
    {
        "col0": "P. Cheng",
        "col1": "L. Nichol",
        "col2": "1997-4-23",
        "col3": "1997-4-23"
    },
    {
        "col0": "P. KaA!ka",
        "col1": "A. Vasilevsky",
        "col2": "1988-5-25",
        "col3": "1988-5-25"
    },
    {
        "col0": "P. Poirier",
        "col1": "J. Razgulajevs",
        "col2": "1991-11-6",
        "col3": "1991-11-6"
    },
    {
        "col0": "P. Fentz",
        "col1": "P. Boll",
        "col2": "1992-9-8",
        "col3": "1992-9-8"
    },
    {
        "col0": "P. B. Parkinson",
        "col1": "J. Buttle",
        "col2": "1991-2-16",
        "col3": "1991-2-16"
    },
    {
        "col0": "P. Chan",
        "col1": "D. Wilson",
        "col2": "1990-12-31",
        "col3": "1990-12-31"
    },
    {
        "col0": "P. So-youn",
        "col1": "D. Wilson",
        "col2": "1997-10-24",
        "col3": "1997-10-24"
    },
    {
        "col0": "P. Qing",
        "col1": "L. Nichol",
        "col2": "1979-12-24",
        "col3": "1979-12-24"
    },
    {
        "col0": "P. Lawrence",
        "col1": "B. Ford",
        "col2": "1990-2-22",
        "col3": "1990-2-22"
    },
    {
        "col0": "O. Japaridze",
        "col1": "E. Platov",
        "col2": "1987-12-23",
        "col3": "1987-12-23"
    },
    {
        "col0": "O. Kanervo",
        "col1": "M. Zueva",
        "col2": "1987-11-23",
        "col3": "1987-11-23"
    },
    {
        "col0": "O. Hotarek",
        "col1": "F. Bianconi",
        "col2": "1984-1-25",
        "col3": "1984-1-25"
    },
    {
        "col0": "O. Szelc",
        "col1": "S. Nowak",
        "col2": "1994-5-1",
        "col3": "1994-5-1"
    },
    {
        "col0": "O. Ikonnikova",
        "col1": "R. Sinicyn",
        "col2": "1990-5-14",
        "col3": "1990-5-14"
    },
    {
        "col0": "O. Karmi",
        "col1": "M. Zueva",
        "col2": "1992-5-23",
        "col3": "1992-5-23"
    },
    {
        "col0": "O. Bychenko",
        "col1": "G. C. Moracci",
        "col2": "1988-2-5",
        "col3": "1988-2-5"
    },
    {
        "col0": "O. Klimova",
        "col1": "E. Tchaikovskaia",
        "col2": "1992-5-24",
        "col3": "1992-5-24"
    },
    {
        "col0": "N. Sorensen",
        "col1": "M. Dubreuil",
        "col2": "1989-2-18",
        "col3": "1989-2-18"
    },
    {
        "col0": "N. Ulanovsky",
        "col1": "M. Hanretty",
        "col2": "1997-1-6",
        "col3": "1997-1-6"
    },
    {
        "col0": "N. Hogner",
        "col1": "C. Lindgren",
        "col2": "1984-9-29",
        "col3": "1984-9-29"
    },
    {
        "col0": "N. Katsalapov",
        "col1": "N. Morozov",
        "col2": "1991-7-10",
        "col3": "1991-7-10"
    },
    {
        "col0": "N. Schott",
        "col1": "R. Sinicyn",
        "col2": "1996-9-12",
        "col3": "1996-9-12"
    },
    {
        "col0": "N. Rajicova",
        "col1": "N. Morozov",
        "col2": "1995-8-13",
        "col3": "1995-8-13"
    },
    {
        "col0": "N. Orford",
        "col1": "J. Razgulajevs",
        "col2": "1992-10-10",
        "col3": "1992-10-10"
    },
    {
        "col0": "N. Kuzmich",
        "col1": "J. Razgulajevs",
        "col2": "1997-10-8",
        "col3": "1997-10-8"
    },
    {
        "col0": "N. Nadeau",
        "col1": "S. Bourne",
        "col2": "1997-9-30",
        "col3": "1997-9-30"
    },
    {
        "col0": "N. Todeschini",
        "col1": "M. Ephrem",
        "col2": "1997-4-18",
        "col3": "1997-4-18"
    },
    {
        "col0": "N. Kole",
        "col1": "D. Sappenfield",
        "col2": "1983-11-30",
        "col3": "1983-11-30"
    },
    {
        "col0": "N. Fernandez",
        "col1": "S. Baboshin",
        "col2": "1990-5-8",
        "col3": "1990-5-8"
    },
    {
        "col0": "N. Buckland",
        "col1": "P. Askew",
        "col2": "1989-6-9",
        "col3": "1989-6-9"
    },
    {
        "col0": "N. Schreiber",
        "col1": "J. Buttle",
        "col2": "1998-11-6",
        "col3": "1998-11-6"
    },
    {
        "col0": "N. Brown",
        "col1": "O. Schoenfelder",
        "col2": "1990-3-11",
        "col3": "1990-3-11"
    }
]