[
    {
        "col0": "T. Liebenstein",
        "col1": "1960-01-09",
        "col2": "99",
        "col3": "1960-01-09"
    },
    {
        "col0": "T. Kinchen",
        "col1": "1969-01-07",
        "col2": "60",
        "col3": "1969-01-07"
    },
    {
        "col0": "T. Kelly",
        "col1": "1970-11-27",
        "col2": "27",
        "col3": "1970-11-27"
    },
    {
        "col0": "T. Kalis",
        "col1": "1965-05-10",
        "col2": "108",
        "col3": "1965-05-10"
    },
    {
        "col0": "T. Johnson",
        "col1": "1978-12-18",
        "col2": "100",
        "col3": "1978-12-18"
    },
    {
        "col0": "T. Husak",
        "col1": "1978-07-06",
        "col2": "202",
        "col3": "1978-07-06"
    },
    {
        "col0": "T. Herremans",
        "col1": "1982-10-13",
        "col2": "126",
        "col3": "1982-10-13"
    },
    {
        "col0": "T. Heap",
        "col1": "1980-03-16",
        "col2": "31",
        "col3": "1980-03-16"
    },
    {
        "col0": "T. Hammel",
        "col1": "1966-12-07",
        "col2": "307",
        "col3": "1966-12-07"
    },
    {
        "col0": "T. Gurley",
        "col1": "1994-08-03",
        "col2": "10",
        "col3": "1994-08-03"
    },
    {
        "col0": "T. Ellis",
        "col1": "1967-05-16",
        "col2": "247",
        "col3": "1967-05-16"
    },
    {
        "col0": "T. Collins",
        "col1": "1971-11-05",
        "col2": "45",
        "col3": "1971-11-05"
    },
    {
        "col0": "T. Collins",
        "col1": "1970-05-27",
        "col2": "64",
        "col3": "1970-05-27"
    },
    {
        "col0": "T. Christensen",
        "col1": "1956-08-03",
        "col2": "56",
        "col3": "1956-08-03"
    },
    {
        "col0": "T. Blackledge",
        "col1": "1961-2-25",
        "col2": "7",
        "col3": "1961-2-25"
    },
    {
        "col0": "T. Williams",
        "col1": "1959-11-09",
        "col2": "265",
        "col3": "1959-11-09"
    },
    {
        "col0": "T. Gerhart",
        "col1": "1987-03-28",
        "col2": "51",
        "col3": "1987-03-28"
    },
    {
        "col0": "T. Rote",
        "col1": "1928-01-18",
        "col2": "17",
        "col3": "1928-01-18"
    },
    {
        "col0": "T. Young",
        "col1": "1989-08-21",
        "col2": "44",
        "col3": "1989-08-21"
    },
    {
        "col0": "T. Dixon",
        "col1": "1966-06-15",
        "col2": "153",
        "col3": "1966-06-15"
    },
    {
        "col0": "T. Adams",
        "col1": "1983-01-28",
        "col2": "220",
        "col3": "1983-01-28"
    },
    {
        "col0": "T. Paul",
        "col1": "1972-05-24",
        "col2": "167",
        "col3": "1972-05-24"
    }
]