[
    {
        "col0": "Cacique",
        "col1": "J. Farms",
        "col2": "Danehill",
        "col3": "Hasili"
    },
    {
        "col0": "Bull Dog",
        "col1": "J. D. Cohn",
        "col2": "Teddy",
        "col3": "Plucky Liege"
    },
    {
        "col0": "Buckpasser",
        "col1": "O. Phipps",
        "col2": "Tom Fool",
        "col3": "Busanda"
    },
    {
        "col0": "Brian Boru",
        "col1": "J. Farms",
        "col2": "Sadler's Wells",
        "col3": "Eva Luna"
    },
    {
        "col0": "Bowl of Flowers",
        "col1": "B. Stable",
        "col2": "Sailor II",
        "col3": "Flower Bowl"
    },
    {
        "col0": "Boldnesian",
        "col1": "W. H. Perry",
        "col2": "Bold Ruler",
        "col3": "Alanesian"
    },
    {
        "col0": "Bold Reason",
        "col1": "H. F. Guggenheim",
        "col2": "Hail To Reason",
        "col3": "Lalun"
    },
    {
        "col0": "Bold Lad",
        "col1": "W. Stable",
        "col2": "Bold Ruler",
        "col3": "Misty Morn"
    },
    {
        "col0": "Black Helen",
        "col1": "Idle Hour Stock Farm",
        "col2": "Black Toney",
        "col3": "La Troienne"
    },
    {
        "col0": "Bimelech",
        "col1": "E. R. Bradley",
        "col2": "Black Toney",
        "col3": "La Troienne"
    },
    {
        "col0": "Big Game",
        "col1": "N. Stud",
        "col2": "Bahram",
        "col3": "Myrobella"
    },
    {
        "col0": "Be My Guest",
        "col1": "W. Haefner",
        "col2": "Northern Dancer",
        "col3": "What a Treat"
    },
    {
        "col0": "Bay Middleton",
        "col1": "George Child Villiers, 5th Earl of Jersey",
        "col2": "Sultan",
        "col3": "Cobweb"
    },
    {
        "col0": "Bardstown",
        "col1": "C. Farm",
        "col2": "Alibhai",
        "col3": "Twilight Tear"
    },
    {
        "col0": "Banks Hill",
        "col1": "J. Farms",
        "col2": "Danehill",
        "col3": "Hasili"
    },
    {
        "col0": "Apalachee",
        "col1": "C. Farm",
        "col2": "Round Table",
        "col3": "Moccasin"
    },
    {
        "col0": "American Pharoah",
        "col1": "A. Zayat",
        "col2": "Pioneerof the Nile",
        "col3": "Littleprincessemma"
    },
    {
        "col0": "American Lion",
        "col1": "W. Farm",
        "col2": "Tiznow",
        "col3": "Storm Tide"
    },
    {
        "col0": "A Gleam",
        "col1": "C. Farm",
        "col2": "Blenheim II",
        "col3": "Twilight Tear"
    },
    {
        "col0": "A.P. Indy",
        "col1": "William Stamps Farish III",
        "col2": "Seattle Slew",
        "col3": "Weekend Surprise"
    }
]