[
    {
        "col0": "W. Foulke",
        "col1": "Chelsea F.C.",
        "col2": "Shropshire",
        "col3": "Sheffield",
        "col4": "1916-05-01"
    },
    {
        "col0": "T. Revill",
        "col1": "Stoke City F.C.",
        "col2": "England",
        "col3": "England",
        "col4": "1979-3-29"
    },
    {
        "col0": "S. McMillan",
        "col1": "Chelsea F.C.",
        "col2": "Leicester",
        "col3": "Ashbourne, Derbyshire",
        "col4": "1963-09-27"
    },
    {
        "col0": "N. Cantwell",
        "col1": "Manchester United F.C.",
        "col2": "Cork",
        "col3": "Peterborough",
        "col4": "2005-09-08"
    },
    {
        "col0": "K. Hough",
        "col1": "Australia national football team",
        "col2": "Australia",
        "col3": "Australia",
        "col4": "2009-09-20"
    },
    {
        "col0": "G. Brann",
        "col1": "England national football team",
        "col2": "Eastbourne",
        "col3": "England national football team",
        "col4": "1954-06-14"
    },
    {
        "col0": "F. Gardner",
        "col1": "Birmingham City F.C.",
        "col2": "Coventry",
        "col3": "Coventry",
        "col4": "1979-01-12"
    },
    {
        "col0": "F. Guttridge",
        "col1": "Nottingham Forest F.C.",
        "col2": "Nottingham",
        "col3": "Nottingham",
        "col4": "1918-06-13"
    },
    {
        "col0": "E. Burgin",
        "col1": "Sheffield United F.C.",
        "col2": "Pitsmoor",
        "col3": "Sheffield",
        "col4": "2012-11-16"
    },
    {
        "col0": "A. Holt",
        "col1": "Southampton F.C.",
        "col2": "Southampton",
        "col3": "Southampton",
        "col4": "1994-07-28"
    }
]